0.000000000000000000e+00 1.594730376901099533e-09 -4.085816579637834609e-09 -1.000000000000000000e+00
1.148717948717948856e-01 -2.488777350154307288e-02 -1.435725115565088944e-02 -9.995869478190761992e-01
2.297435897435897711e-01 -4.869364267530366247e-02 -3.045023414368341549e-02 -9.983491137671572924e-01
3.446153846153846567e-01 -7.015314415910525736e-02 -4.982284284338810154e-02 -9.962906747646438355e-01
4.594871794871795423e-01 -8.765692807527915298e-02 -7.371456900069191243e-02 -9.934188225015244678e-01
5.743589743589744279e-01 -9.915741500738205205e-02 -1.028167856443952810e-01 -9.897447572502471314e-01
6.892307692307693134e-01 -1.021833915240190765e-01 -1.370086377060736327e-01 -9.852842217705198857e-01
8.041025641025641990e-01 -9.399778517210047313e-02 -1.750692292948094753e-01 -9.800574551421254998e-01
9.189743589743590846e-01 -7.193076709997793527e-02 -2.144146357729322105e-01 -9.740890108928036417e-01
1.033846153846154081e+00 -3.389983988306777274e-02 -2.509292825764203871e-01 -9.674099332013269548e-01
1.148717948717948856e+00 2.088964932551150983e-02 -2.790294330807539525e-01 -9.600533820296809351e-01
1.263589743589743630e+00 9.116705010880124527e-02 -2.920108258955841918e-01 -9.520578526218860249e-01
1.378461538461538627e+00 1.728622640172031155e-01 -2.828249550193751571e-01 -9.434639395791309946e-01
1.493333333333333623e+00 2.586464653377815170e-01 -2.452575624695262357e-01 -9.343157305613750685e-01
1.608205128205128398e+00 3.379579214203449755e-01 -1.754712213189069669e-01 -9.246561778617348182e-01
1.723076923076923173e+00 3.977380000973176344e-01 -7.366118278955055554e-02 -9.145342624495120809e-01
1.837948717948718169e+00 4.240562454271093462e-01 5.446710686736969120e-02 -9.039931722315595053e-01
1.952820512820513166e+00 4.045164764027565640e-01 1.969030987157516233e-01 -8.930785115858819179e-01
2.067692307692308162e+00 3.312451588528981250e-01 3.356090735581121476e-01 -8.818369947266807563e-01
2.182564102564102715e+00 2.039112013466193585e-01 4.483059566583713074e-01 -8.703073399613603378e-01
2.297435897435897711e+00 3.203503465847624965e-02 5.117537448675895106e-01 -8.585303857129054084e-01
2.412307692307692708e+00 -1.642182838132116296e-01 5.063477394930477882e-01 -8.465438584549810352e-01
2.527179487179487261e+00 -3.554766400309940511e-01 4.212326677050313162e-01 -8.343807421820815806e-01
2.642051282051282257e+00 -5.071374081499093744e-01 2.588276336601567085e-01 -8.220774876200298564e-01
2.756923076923077254e+00 -5.856855194862683467e-01 3.744812117149112773e-02 -8.096674088534426827e-01
2.871794871794872250e+00 -5.663478156588472867e-01 -2.091801671321921186e-01 -7.971729044560484922e-01
2.986666666666667247e+00 -4.404677254312077683e-01 -4.362687541209527842e-01 -7.846325938496481189e-01
3.101538461538461799e+00 -2.207158227815321228e-01 -5.959777198063934689e-01 -7.720656458001005085e-01
3.216410256410256796e+00 5.788882131035949508e-02 -6.479268854847706205e-01 -7.594930035725113715e-01
3.331282051282051793e+00 3.422981118931982536e-01 -5.700138903691988057e-01 -7.469309544925285538e-01
3.446153846153846345e+00 5.711137539594141055e-01 -3.667159416851599740e-01 -7.343962899571628844e-01
3.561025641025641342e+00 6.882201218166315027e-01 -7.215135583894111138e-02 -7.218977214207342730e-01
3.675897435897436338e+00 6.573783579422844969e-01 2.540053412452886739e-01 -7.094532001577389391e-01
3.790769230769231335e+00 4.740629889862573720e-01 5.379006927358095380e-01 -6.970765942171721630e-01
3.905641025641026332e+00 1.707560446264038689e-01 7.084497755399226104e-01 -6.847844043248324519e-01
4.020512820512821328e+00 -1.868801936527162977e-01 7.160212664752102496e-01 -6.725901164498016005e-01
4.135384615384616325e+00 -5.133174450964566038e-01 5.479289917848672031e-01 -6.605050666309481011e-01
4.250256410256410433e+00 -7.237087626211768931e-01 2.358754805075018446e-01 -6.485337542246781828e-01
4.365128205128205430e+00 -7.567927428961223058e-01 -1.479569301073300758e-01 -6.366796199934063871e-01
4.480000000000000426e+00 -5.939575587362154740e-01 -5.066022170283031034e-01 -6.249447339553941827e-01
