0.000000000000000000e+00 1.884084672312123555e-09 1.763207030115066984e-09 -1.000000000000000000e+00
1.148717948717948856e-01 1.651766183752240158e-01 1.017988715635021885e-01 -9.809955818592484000e-01
2.297435897435897711e-01 3.229620023216770996e-01 1.970007092702616980e-01 -9.256800029968286214e-01
3.446153846153846567e-01 4.669031464957636990e-01 2.799262358733612954e-01 -8.388315866149982369e-01
4.594871794871795423e-01 5.921910541003229111e-01 3.465332916531346230e-01 -7.274741479113473464e-01
5.743589743589744279e-01 6.960446609220244385e-01 3.947763021862809585e-01 -5.997219358333503170e-01
6.892307692307693134e-01 7.776930035107448846e-01 4.245452282694648916e-01 -4.636235458361770423e-01
8.041025641025641990e-01 8.380598113875844524e-01 4.372897299419366557e-01 -3.262277409767755931e-01
9.189743589743590846e-01 8.792486476872638512e-01 4.354866467001393682e-01 -1.930383802226617873e-01
1.033846153846154081e+00 9.040185785915616501e-01 4.220629647407890261e-01 -6.785027142334495998e-02
1.148717948717948856e+00 9.153174679718981688e-01 3.999558079750201722e-01 4.711334466637532442e-02
1.263589743589743630e+00 9.159562781984431634e-01 3.718187590841515178e-01 1.508821601354779218e-01
1.378461538461538627e+00 9.084307696496828344e-01 3.398596025182043512e-01 2.433921917147740810e-01
1.493333333333333623e+00 8.948380992679814128e-01 3.058294136087945092e-01 3.251526428956345027e-01
1.608205128205128398e+00 8.768752262277050846e-01 2.710537419101291534e-01 3.970027092430027382e-01
1.723076923076923173e+00 8.558764970597926292e-01 2.364861835761673803e-01 4.599364508348088854e-01
1.837948717948718169e+00 8.328671511104551728e-01 2.027867235051881711e-01 5.149777221036286878e-01
1.952820512820513166e+00 8.086220774046044557e-01 1.703897184375276208e-01 5.631076828278770430e-01
2.067692307692308162e+00 7.837189840914272621e-01 1.395580345789483034e-01 6.052280981411763960e-01
2.182564102564102715e+00 7.585836829526834135e-01 1.104343474284013860e-01 6.421435524265365347e-01
2.297435897435897711e+00 7.335240241188621946e-01 8.308118850266087152e-02 6.745618211549356813e-01
2.412307692307692708e+00 7.087578441446185096e-01 5.750377443667281652e-02 7.030999634659099717e-01
2.527179487179487261e+00 6.844346763114539378e-01 3.366277574602742628e-02 7.282926694074559615e-01
2.642051282051282257e+00 6.606527978362847220e-01 1.148910128492516142e-02 7.506000058733893754e-01
2.756923076923077254e+00 6.374823847991895054e-01 -9.091775059365009293e-03 7.704078601259587433e-01
2.871794871794872250e+00 6.149629465497982173e-01 -2.817924143535868731e-02 7.880491443811232788e-01
2.986666666666667247e+00 5.931223477690701351e-01 -4.585681675532016222e-02 8.038023369918475547e-01
3.101538461538461799e+00 5.719612050729907526e-01 -6.220831680080463055e-02 8.179155651370777491e-01
3.216410256410256796e+00 5.514838809361315430e-01 -7.731996419995207370e-02 8.305917791785795146e-01
3.331282051282051793e+00 5.316659354854442743e-01 -9.127670986310099099e-02 8.420187808344598013e-01
3.446153846153846345e+00 5.124980088169932557e-01 -1.041605212376666145e-01 8.523451558062620226e-01
3.561025641025641342e+00 4.939655117679359053e-01 -1.160540599559828079e-01 8.616992310965551072e-01
3.675897435897436338e+00 4.760472087723184309e-01 -1.270278078635657670e-01 8.701949008440567068e-01
3.790769230769231335e+00 4.587280685418805848e-01 -1.371400017861446885e-01 8.779279497015114453e-01
3.905641025641026332e+00 4.419868643537530062e-01 -1.464474638926384076e-01 8.849842799131419913e-01
4.020512820512821328e+00 4.257899733103301942e-01 -1.550070062600424903e-01 8.914439250008144855e-01
4.135384615384616325e+00 4.101281740669355802e-01 -1.628686950784819509e-01 8.973657655594675653e-01
4.250256410256410433e+00 3.949650710710063128e-01 -1.700848318948920412e-01 9.028125462719017724e-01
4.365128205128205430e+00 3.802861094207892201e-01 -1.767114027791448494e-01 9.078283977522448867e-01
4.480000000000000426e+00 3.660807559099621966e-01 -1.827838534360338718e-01 9.124537669953629582e-01
