0.000000000000000000e+00 -2.905756919627300989e-10 -4.519627526121992820e-09 -1.000000000000000000e+00
1.148717948717948856e-01 1.999344305898226593e-01 2.751098824218043415e-01 -9.403924346380747590e-01
2.297435897435897711e-01 3.735526295696721122e-01 5.139326994393914605e-01 -7.722211947343775584e-01
3.446153846153846567e-01 5.015530683311641980e-01 6.880132419957989409e-01 -5.244744266975324143e-01
4.594871794871795423e-01 5.760541586933993763e-01 7.823955269489883957e-01 -2.366605640311361392e-01
5.743589743589744279e-01 6.010652262840443516e-01 7.975518417235419877e-01 5.119192350058629493e-02
6.892307692307693134e-01 5.891275367281347819e-01 7.472987703727744790e-01 3.073483079581510458e-01
8.041025641025641990e-01 5.559193649121011438e-01 6.536275869893244383e-01 5.135325335278186909e-01
9.189743589743590846e-01 5.150709168236035085e-01 5.402679719584025930e-01 6.654359754007501682e-01
1.033846153846154081e+00 4.750762295505146504e-01 4.270426228873716035e-01 7.693705803073838112e-01
1.148717948717948856e+00 4.389710981101825338e-01 3.265127976988280167e-01 8.370715335673586388e-01
1.263589743589743630e+00 4.061382600461857506e-01 2.435438880101306325e-01 8.807575711383205386e-01
1.378461538461538627e+00 3.748471104922445063e-01 1.771959540837168556e-01 9.099932194102240413e-01
1.493333333333333623e+00 3.441413091729071394e-01 1.237553840481721568e-01 9.307245942288644436e-01
1.608205128205128398e+00 3.143966209754517904e-01 7.946477264730067436e-02 9.459584685971467177e-01
1.723076923076923173e+00 2.867073185291023618e-01 4.202164139630043538e-02 9.570949376866418890e-01
1.837948717948718169e+00 2.618813493017128069e-01 1.065921823324787743e-02 9.650401108374657699e-01
1.952820512820513166e+00 2.397980487745311751e-01 -1.469132517366900093e-02 9.707106291546735433e-01
2.067692307692308162e+00 2.195355085643175275e-01 -3.437365997306943144e-02 9.749978633172372566e-01
2.182564102564102715e+00 2.000311064902302594e-01 -4.943438305066490124e-02 9.785408296568207653e-01
2.297435897435897711e+00 1.807805280919031199e-01 -6.139535598354720070e-02 9.816045515365302565e-01
2.412307692307692708e+00 1.620774242130858800e-01 -7.158529127061527553e-02 9.841773472887749286e-01
2.527179487179487261e+00 1.446787109014610606e-01 -8.062726030035771707e-02 9.861876111862535321e-01
2.642051282051282257e+00 1.291960826067858337e-01 -8.835113154010301728e-02 9.876746483488895167e-01
2.756923076923077254e+00 1.156244528369370778e-01 -9.423180801864558531e-02 9.888125076901806976e-01
2.871794871794872250e+00 1.033466075858019001e-01 -9.795119015534901885e-02 9.898100430067277022e-01
2.986666666666667247e+00 9.153945189341783362e-02 -9.978882935687334588e-02 9.907883973667417354e-01
3.101538461538461799e+00 7.970603468014306192e-02 -1.005187728539256031e-01 9.917368163125922509e-01
3.216410256410256796e+00 6.798779905303006799e-02 -1.009818238694577680e-01 9.925620228692347835e-01
3.331282051282051793e+00 5.697011753488590013e-02 -1.016007372788178403e-01 9.931922152482492994e-01
3.446153846153846345e+00 4.725537537443715019e-02 -1.021935961062027109e-01 9.936410355628878532e-01
3.561025641025641342e+00 3.900846865840394695e-02 -1.021958086986718278e-01 9.939987375844816508e-01
3.675897435897436338e+00 3.182209153304932370e-02 -1.011099506258180264e-01 9.943657747205887354e-01
3.790769230769231335e+00 2.500856179881119634e-02 -9.890723044643476292e-02 9.947819480809571013e-01
3.905641025641026332e+00 1.802899019669649064e-02 -9.606106193036287322e-02 9.952117631932365649e-01
4.020512820512821328e+00 1.084487435524361144e-02 -9.326934397385604203e-02 9.955814745296283075e-01
4.135384615384616325e+00 3.911605881456151415e-03 -9.099010305869603688e-02 9.958437513292733856e-01
4.250256410256410433e+00 -2.172944876498513964e-03 -8.917389244482726296e-02 9.960133464609014498e-01
4.365128205128205430e+00 -7.095176358332611760e-03 -8.732437855284591599e-02 9.961543128743106656e-01
4.480000000000000426e+00 -1.105824259995921016e-02 -8.488424763436056009e-02 9.963291117154681187e-01
