0.000000000000000000e+00 -1.101009512810204678e-09 -2.199385375902255903e-09 -1.000000000000000000e+00
1.148717948717948856e-01 2.607768398946792854e-02 -1.436710922719265371e-01 -9.892813495083840891e-01
2.297435897435897711e-01 6.805658404271157369e-02 -2.794580694198928184e-01 -9.577418607963472663e-01
3.446153846153846567e-01 1.392770763652673716e-01 -3.970875230292008617e-01 -9.071495326197572817e-01
4.594871794871795423e-01 2.476801359562438298e-01 -4.824071256445107148e-01 -8.401985849538348150e-01
5.743589743589744279e-01 3.926921122765296146e-01 -5.175844078462122910e-01 -7.601933936303502115e-01
6.892307692307693134e-01 5.623371618605861322e-01 -4.836793117010877996e-01 -6.706898718611848942e-01
8.041025641025641990e-01 7.317315678542702928e-01 -3.656834930896999403e-01 -5.751846127771410577e-01
9.189743589743590846e-01 8.643911277889400058e-01 -1.594880232605273007e-01 -4.768475774450681715e-01
1.033846153846154081e+00 9.177001686689360005e-01 1.210348839175889313e-01 -3.783762495182104169e-01
1.148717948717948856e+00 8.529006128029698042e-01 4.394095885810742619e-01 -2.819058743326884331e-01
1.263589743589743630e+00 6.483043850979974820e-01 7.375396418117439179e-01 -1.890168995324945644e-01
1.378461538461538627e+00 3.123990262701486498e-01 9.445784846022757808e-01 -1.008411884217550042e-01
1.493333333333333623e+00 -1.081499076929293146e-01 9.939665038665930208e-01 -1.802080680469016552e-02
1.608205128205128398e+00 -5.308225012573912771e-01 8.454143965602703981e-01 5.909744827799154332e-02
1.723076923076923173e+00 -8.529842695024005828e-01 5.053625258513242402e-01 1.304500278626748444e-01
1.837948717948718169e+00 -9.798644302399616146e-01 3.732633398212559239e-02 1.961203883567369521e-01
1.952820512820513166e+00 -8.578591881308150757e-01 -4.453645203714240997e-01 2.563572906866468659e-01
2.067692307692308162e+00 -5.016641406565757189e-01 -8.070437207622597198e-01 3.114557887241030665e-01
2.182564102564102715e+00 -2.547575793372280906e-03 -9.322618754092600879e-01 3.617635633652497851e-01
2.297435897435897711e+00 4.906202969490042753e-01 -7.701356278791828824e-01 4.076451470271607591e-01
2.412307692307692708e+00 8.163227002391334475e-01 -3.627346527236249840e-01 4.494805220385112432e-01
2.527179487179487261e+00 8.586617802347034090e-01 1.578397513458559276e-01 4.876255890019381978e-01
2.642051282051282257e+00 5.969156699474513772e-01 6.089123413416748232e-01 5.224077385283248942e-01
2.756923076923077254e+00 1.236556045549780380e-01 8.231757628686255934e-01 5.541512672817809904e-01
2.871794871794872250e+00 -3.817956992404075156e-01 7.170565595735703956e-01 5.831422492546037839e-01
2.986666666666667247e+00 -7.199007496703500042e-01 3.317664015901928276e-01 6.096450850616553785e-01
3.101538461538461799e+00 -7.533051391456411228e-01 -1.751981590569948177e-01 6.339008867233442146e-01
3.216410256410256796e+00 -4.697242139893680890e-01 -5.906263608594971570e-01 6.561350507232300844e-01
3.331282051282051793e+00 5.926088353069569603e-03 -7.363794800570409027e-01 6.765381615307221042e-01
3.446153846153846345e+00 4.613360421426316860e-01 -5.511279929298431579e-01 6.952847886243858078e-01
3.561025641025641342e+00 6.907325215918984629e-01 -1.231683242276696844e-01 7.125393217981582650e-01
3.675897435897436338e+00 5.914590531303336451e-01 3.457518239786298020e-01 7.284409538481193547e-01
3.790769230769231335e+00 2.160181996460189824e-01 6.333355880349784695e-01 7.431128122433633409e-01
3.905641025641026332e+00 -2.495543740541880107e-01 6.042825411335059904e-01 7.566768702662188817e-01
4.020512820512821328e+00 -5.748260462504644064e-01 2.790245388407635585e-01 7.692302313830700067e-01
4.135384615384616325e+00 -6.000351506519098210e-01 -1.737832702147375230e-01 7.808662588417435435e-01
4.250256410256410433e+00 -3.187206709089519530e-01 -5.212209863250050201e-01 7.916696857907021823e-01
4.365128205128205430e+00 1.171000232043760275e-01 -5.861284154722559148e-01 8.017083674213842936e-01
4.480000000000000426e+00 4.754431463526925805e-01 -3.407892291215370850e-01 8.110560238078339257e-01
