0.000000000000000000e+00 2.848352445811934874e-09 3.584536890213524383e-09 -1.000000000000000000e+00
1.148717948717948856e-01 1.497718061691935831e-01 2.552671625219219420e-01 -9.551987571976919833e-01
2.297435897435897711e-01 2.864895554234238029e-01 4.825534441273757746e-01 -8.276839881604269866e-01
3.446153846153846567e-01 3.999750496335915950e-01 6.595954705320965505e-01 -6.363537327373766095e-01
4.594871794871795423e-01 4.847893800709824896e-01 7.739359141326439540e-01 -4.074221007547063622e-01
5.743589743589744279e-01 5.406107561108662862e-01 8.242467530329554704e-01 -1.683643103986028067e-01
6.892307692307693134e-01 5.711562697618850493e-01 8.188094562050826086e-01 5.762492322414779905e-02
8.041025641025641990e-01 5.822534707006780108e-01 7.719309104600051707e-01 2.551334517659892831e-01
9.189743589743590846e-01 5.798951869901163292e-01 6.996609747125570600e-01 4.173565210355604793e-01
1.033846153846154081e+00 5.689491872737242328e-01 6.161571253542104110e-01 5.446453813059951576e-01
1.148717948717948856e+00 5.527276067116487779e-01 5.316087005796541476e-01 6.417762232650350285e-01
1.263589743589743630e+00 5.332588113213743153e-01 4.518704396253938604e-01 7.151512909106995108e-01
1.378461538461538627e+00 5.118410926813815598e-01 3.793703574391685818e-01 7.707728668992688270e-01
1.493333333333333623e+00 4.894572322717654078e-01 3.145242448550734649e-01 8.133269605653781209e-01
1.608205128205128398e+00 4.669256217533210851e-01 2.569602759799186620e-01 8.461365579946210635e-01
1.723076923076923173e+00 4.448266812682387661e-01 2.061904962744234293e-01 8.715562895461923532e-01
1.837948717948718169e+00 4.234104787969558137e-01 1.617712322534604064e-01 8.913751580470152813e-01
1.952820512820513166e+00 4.026298045642208168e-01 1.231549932990127771e-01 9.070382942569207296e-01
2.067692307692308162e+00 3.823308940292757252e-01 8.960599426691905067e-02 9.196687030410826136e-01
2.182564102564102715e+00 3.624467762299068418e-01 6.027231202505026197e-02 9.300518800369059758e-01
2.297435897435897711e+00 3.430840255606706912e-01 3.436513690270207033e-02 9.386743432247690588e-01
2.412307692307692708e+00 3.244755249307430534e-01 1.136033692268073603e-02 9.458244538124972456e-01
2.527179487179487261e+00 3.067897996743446654e-01 -8.993663417199565524e-03 9.517334802186147025e-01
2.642051282051282257e+00 2.900266612133689526e-01 -2.679963568322824008e-02 9.566420123637708883e-01
2.756923076923077254e+00 2.740005333493663597e-01 -4.220456437348760192e-02 9.608018707993790652e-01
2.871794871794872250e+00 2.584768368708939001e-01 -5.550185681825327288e-02 9.644206213608392808e-01
2.986666666666667247e+00 2.433222634836468556e-01 -6.711906983733453846e-02 9.676193860793557144e-01
3.101538461538461799e+00 2.285973204552675386e-01 -7.744996888226501897e-02 9.704343545854702269e-01
3.216410256410256796e+00 2.144889208671883762e-01 -8.672530237482141413e-02 9.728676054874494383e-01
3.331282051282051793e+00 2.011554963710250332e-01 -9.497131055912669262e-02 9.749436619580710284e-01
3.446153846153846345e+00 1.886109188707048856e-01 -1.020826516008615098e-01 9.767309499957623764e-01
3.561025641025641342e+00 1.766909673182287255e-01 -1.080201343216437293e-01 9.783201461524430043e-01
3.675897435897436338e+00 1.651611774183108228e-01 -1.128884880234977683e-01 9.797838494208676030e-01
3.790769230769231335e+00 1.538680094294982426e-01 -1.169453973922465334e-01 9.811456991563221042e-01
3.905641025641026332e+00 1.428403491395428548e-01 -1.204754419623135231e-01 9.823852754040914848e-01
4.020512820512821328e+00 1.322369426590634389e-01 -1.236466394841699429e-01 9.834752016871639579e-01
4.135384615384616325e+00 1.222520537465865281e-01 -1.264323993253388123e-01 9.844124633730303442e-01
4.250256410256410433e+00 1.129282474506468903e-01 -1.286885268342883859e-01 9.852335387025356050e-01
4.365128205128205430e+00 1.041422356319477577e-01 -1.302820180640304748e-01 9.859917236484403436e-01
4.480000000000000426e+00 9.567360664696801520e-02 -1.312316914245024724e-01 9.867236332782848285e-01
