0.000000000000000000e+00 -3.903323973966065744e-10 2.571002949374335498e-09 -1.000000000000000000e+00
1.148717948717948856e-01 3.778480959196266111e-03 1.653634736519224782e-02 -9.998559498063596118e-01
2.297435897435897711e-01 6.427554115778871119e-03 3.338016056392787562e-02 -9.994217289522894232e-01
3.446153846153846567e-01 6.847596686166461388e-03 5.067149727665336972e-02 -9.986914183616701912e-01
4.594871794871795423e-01 3.898861677136474489e-03 6.830098008984417102e-02 -9.976565120578578805e-01
5.743589743589744279e-01 -3.527913399989493493e-03 8.577505448256683707e-02 -9.963074985029330977e-01
6.892307692307693134e-01 -1.641273709244510381e-02 1.021148703470725339e-01 -9.946362675287341304e-01
8.041025641025641990e-01 -3.544551837122281168e-02 1.158084710268442730e-01 -9.926378157087817344e-01
9.189743589743590846e-01 -6.080970231742520438e-02 1.248288074319245933e-01 -9.903117943130695933e-01
1.033846153846154081e+00 -9.193221669559331621e-02 1.267476446498543019e-01 -9.876642575078725672e-01
1.148717948717948856e+00 -1.272548556193940084e-01 1.189934321762960434e-01 -9.847048429013190995e-01
1.263589743589743630e+00 -1.640572195975076031e-01 9.921869334982606758e-02 -9.814465908729845811e-01
1.378461538461538627e+00 -1.984246760459583425e-01 6.580585705147987130e-02 -9.779025739151097074e-01
1.493333333333333623e+00 -2.254243881322593457e-01 1.841369314056491568e-02 -9.740845183619557535e-01
1.608205128205128398e+00 -2.395296103824204326e-01 -4.146318097265996871e-02 -9.700009866552344873e-01
1.723076923076923173e+00 -2.353171818771346568e-01 -1.101064120559211157e-01 -9.656591626026426178e-01
1.837948717948718169e+00 -2.083908452337191464e-01 -1.814318615244314703e-01 -9.610674312074158898e-01
1.952820512820513166e+00 -1.564403788906144899e-01 -2.472408012863990812e-01 -9.562389543878335729e-01
2.067692307692308162e+00 -8.023248796594385779e-02 -2.979670826964910257e-01 -9.511953409699318573e-01
2.182564102564102715e+00 1.563882737482066854e-02 -3.238685734673106276e-01 -9.459695881516625438e-01
2.297435897435897711e+00 1.224944267341462056e-01 -3.166414989163657268e-01 -9.405991925311253388e-01
2.412307692307692708e+00 2.280274965809744314e-01 -2.711737076646589806e-01 -9.351264742854532575e-01
2.527179487179487261e+00 3.175199353086363141e-01 -1.872014257158287620e-01 -9.295857329277208425e-01
2.642051282051282257e+00 3.758411191972717003e-01 -7.044207276158211128e-02 -9.239989060349078631e-01
2.756923076923077254e+00 3.899843063742704508e-01 6.710657399583135063e-02 -9.183688095373067073e-01
2.871794871794872250e+00 3.517895598065008955e-01 2.079843206191631100e-01 -9.126766409207184294e-01
2.986666666666667247e+00 2.603024221660400483e-01 3.313240057067558531e-01 -9.068951320111853232e-01
3.101538461538461799e+00 1.232812293183752350e-01 4.159389562747893843e-01 -9.009927653344161902e-01
3.216410256410256796e+00 -4.273248480480212885e-02 4.441018662946311091e-01 -8.949517281372846300e-01
3.331282051282051793e+00 -2.139579342348182645e-01 4.053051605108190514e-01 -8.887860280944681612e-01
3.446153846153846345e+00 -3.626631532452077034e-01 2.993452397137645882e-01 -8.825295643717595562e-01
3.561025641025641342e+00 -4.617164490412739575e-01 1.378214553200919346e-01 -8.762496537167013821e-01
3.675897435897436338e+00 -4.897679484449478649e-01 -5.638264838013470892e-02 -8.700220551491847365e-01
3.790769230769231335e+00 -4.360562058253262818e-01 -2.519865428766192017e-01 -8.639140654375868644e-01
3.905641025641026332e+00 -3.037689702841739892e-01 -4.142518339341105249e-01 -8.579681465747175384e-01
4.020512820512821328e+00 -1.110673238015164738e-01 -5.113183183340522797e-01 -8.521777420046779961e-01
4.135384615384616325e+00 1.107898153535307045e-01 -5.207359839226884946e-01 -8.464919953617124904e-01
4.250256410256410433e+00 3.222622978063108268e-01 -4.349130133887712524e-01 -8.408248928063296601e-01
4.365128205128205430e+00 4.825668723646438507e-01 -2.641040747493451635e-01 -8.350849271774697380e-01
4.480000000000000426e+00 5.577827219913029655e-01 -3.608031622675064720e-02 -8.291954184781750170e-01
