0.000000000000000000e+00 1.426937000697193224e-09 2.114250031457929966e-09 -1.000000000000000000e+00
1.148717948717948856e-01 -2.863716633594402816e-02 3.603676033165785497e-02 -9.989396370659885394e-01
2.297435897435897711e-01 -5.876364940047252433e-02 6.784328203167877547e-02 -9.959631023259459814e-01
3.446153846153846567e-01 -9.125633248616109305e-02 9.134791650003595831e-02 -9.916277158492642352e-01
4.594871794871795423e-01 -1.259858215822950989e-01 1.028017665138861447e-01 -9.866896436020884398e-01
5.743589743589744279e-01 -1.614709441105138255e-01 9.907594346987358414e-02 -9.818898522977830279e-01
6.892307692307693134e-01 -1.947819156049303280e-01 7.803650625476488134e-02 -9.777354004104953367e-01
8.041025641025641990e-01 -2.217011297435365902e-01 3.898197043776160942e-02 -9.743330688621865132e-01
9.189743589743590846e-01 -2.371518404181442718e-01 -1.693731610076705529e-02 -9.713227048545405307e-01
1.033846153846154081e+00 -2.358712114692192441e-01 -8.640208682441649635e-02 -9.679332896813368503e-01
1.148717948717948856e+00 -2.132667622097079163e-01 -1.638329144393659287e-01 -9.631568466308880749e-01
1.263589743589743630e+00 -1.663309998569767745e-01 -2.416072307432138577e-01 -9.560096726141394941e-01
1.378461538461538627e+00 -9.452212912123975075e-02 -3.106252485198649493e-01 -9.458178592160528808e-01
1.493333333333333623e+00 -4.112749933695980520e-04 -3.612554442649154041e-01 -9.324631090925652455e-01
1.608205128205128398e+00 1.100057519305437659e-01 -3.845368297570588845e-01 -9.165273678657780421e-01
1.723076923076923173e+00 2.274746982797705985e-01 -3.735464855220225200e-01 -8.992828708540967497e-01
1.837948717948718169e+00 3.401591286546320481e-01 -3.247071003773841502e-01 -8.825234767110079481e-01
1.952820512820513166e+00 4.348434530270777199e-01 -2.388302625636736232e-01 -8.682518461092724182e-01
2.067692307692308162e+00 4.985395389632181207e-01 -1.216790540564950951e-01 -8.582785704867558207e-01
2.182564102564102715e+00 5.203092725284707010e-01 1.610930991111092503e-02 -8.538197335177049041e-01
2.297435897435897711e+00 4.930942985174838200e-01 1.598292445028838271e-01 -8.551620131993448171e-01
2.412307692307692708e+00 4.152072606740634386e-01 2.922377188907801515e-01 -8.615043472769724486e-01
2.527179487179487261e+00 2.912795911062473486e-01 3.956358493683492794e-01 -8.709871305989395074e-01
2.642051282051282257e+00 1.323829560692454665e-01 4.542924176809379211e-01 -8.809561290327847516e-01
2.756923076923077254e+00 -4.477412400419975014e-02 4.568590301072447124e-01 -8.884064353757480381e-01
2.871794871794872250e+00 -2.195537169850801940e-01 3.984012294150013345e-01 -8.905411891390037082e-01
2.986666666666667247e+00 -3.698752012799307876e-01 2.817348520644236132e-01 -8.853296334327279693e-01
3.101538461538461799e+00 -4.751766170899642816e-01 1.177300592787822453e-01 -8.719730375373899722e-01
3.216410256410256796e+00 -5.194388443725888038e-01 -7.551044419155850118e-02 -8.511584706201819062e-01
3.331282051282051793e+00 -4.938373267582748527e-01 -2.746130666711180668e-01 -8.250458234648302414e-01
3.446153846153846345e+00 -3.985652817106211665e-01 -4.538333068656049685e-01 -7.969744493223278603e-01
3.561025641025641342e+00 -2.434926757829415644e-01 -5.885594200946602239e-01 -7.709056088752848090e-01
3.675897435897436338e+00 -4.741359418617879795e-02 -6.588919539594803032e-01 -7.507323385258247717e-01
3.790769230769231335e+00 1.640517292970180563e-01 -6.528071423464295586e-01 -7.395371573212242700e-01
3.905641025641026332e+00 3.617422785878238733e-01 -5.683808694507028747e-01 -7.389661746978409829e-01
4.020512820512821328e+00 5.170023630297818640e-01 -4.146564106710446951e-01 -7.488352334009027444e-01
4.135384615384616325e+00 6.058990014960072834e-01 -2.109420093346798808e-01 -7.670567558255048102e-01
4.250256410256410433e+00 6.130002099991999076e-01 1.546606604657446704e-02 -7.899231162371795900e-01
4.365128205128205430e+00 5.340956716674728488e-01 2.328994757846313823e-01 -8.127037810961393882e-01
4.480000000000000426e+00 3.773600090673635554e-01 4.097628398637331859e-01 -8.304711263242056107e-01
