0.000000000000000000e+00 2.202976313484930614e-09 8.751927292454467921e-10 -1.000000000000000000e+00
1.148717948717948856e-01 4.730746961422734043e-02 -9.331418891122567061e-02 -9.945118562102303050e-01
2.297435897435897711e-01 9.356096575673213123e-02 -1.851858973249399798e-01 -9.782388560696706481e-01
3.446153846153846567e-01 1.377576642815481756e-01 -2.742627931920774698e-01 -9.517356800434945141e-01
4.594871794871795423e-01 1.790200175121203774e-01 -3.593356566106215011e-01 -9.158750339913106497e-01
5.743589743589744279e-01 2.166398905610062986e-01 -4.393993987533407197e-01 -8.717751860690305943e-01
6.892307692307693134e-01 2.500897125126536613e-01 -5.136852203961457253e-01 -8.207183297262478083e-01
8.041025641025641990e-01 2.790445307016318210e-01 -5.816695792630739437e-01 -7.640614665218186108e-01
9.189743589743590846e-01 3.033553427075985631e-01 -6.430671625341910502e-01 -7.031605828141175296e-01
1.033846153846154081e+00 3.230346466744418721e-01 -6.977997790797679789e-01 -6.393106794496417056e-01
1.148717948717948856e+00 3.382376378621388402e-01 -7.459712896946156802e-01 -5.736860458671327878e-01
1.263589743589743630e+00 3.492074411634640829e-01 -7.878246746633791320e-01 -5.073258585656196251e-01
1.378461538461538627e+00 3.562648035781594835e-01 -8.236996595902376095e-01 -4.411201114911616483e-01
1.493333333333333623e+00 3.597715388652082957e-01 -8.540165574097027257e-01 -3.757825319032070399e-01
1.608205128205128398e+00 3.601093371277446220e-01 -8.792222311873864049e-01 -3.119000237903084560e-01
1.723076923076923173e+00 3.576609984013924270e-01 -8.997864230641476890e-01 -2.499097505632402738e-01
1.837948717948718169e+00 3.528000009575574802e-01 -9.161735942698614465e-01 -1.901310746570953336e-01
1.952820512820513166e+00 3.458760031612230779e-01 -9.288329463577045253e-01 -1.327808744195268786e-01
2.067692307692308162e+00 3.372177222831244103e-01 -9.381855387261226475e-01 -7.799772454991237003e-02
2.182564102564102715e+00 3.271166598925126512e-01 -9.446258145258226158e-01 -2.585094740296877205e-02
2.297435897435897711e+00 3.158362789641214752e-01 -9.485143415452934601e-01 2.365369559126285007e-02
2.412307692307692708e+00 3.036123202566672896e-01 -9.501768781126513908e-01 7.053362568566787227e-02
2.527179487179487261e+00 2.906480490040981857e-01 -9.499065595868522172e-01 1.148600188416112750e-01
2.642051282051282257e+00 2.771226331418761291e-01 -9.479641937211022995e-01 1.567117915375561277e-01
2.756923076923077254e+00 2.631903435900658228e-01 -9.445818882475656153e-01 1.961826508061775276e-01
2.871794871794872250e+00 2.489861620805060571e-01 -9.399631086314339523e-01 2.333818178224123518e-01
2.986666666666667247e+00 2.346144738524412188e-01 -9.342884674520605115e-01 2.684269774222527993e-01
3.101538461538461799e+00 2.201699490261005976e-01 -9.277163989779264597e-01 3.014291450281932905e-01
3.216410256410256796e+00 2.057395291407961846e-01 -9.203823604119810708e-01 3.325052392157206160e-01
3.331282051282051793e+00 1.913796749915120665e-01 -9.124102377084442050e-01 3.617646716989380007e-01
3.446153846153846345e+00 1.771515866061751099e-01 -9.039018040068030890e-01 3.893215448805397716e-01
3.561025641025641342e+00 1.630974863758794524e-01 -8.949491244122521616e-01 4.152804215482882588e-01
3.675897435897436338e+00 1.492538146760872819e-01 -8.856311832044954091e-01 4.397423987016415015e-01
3.790769230769231335e+00 1.356496129790222827e-01 -8.760139667042995404e-01 4.628082859488357181e-01
3.905641025641026332e+00 1.223065025024633323e-01 -8.661598914718772191e-01 4.845627943323366771e-01
4.020512820512821328e+00 1.092429666423253010e-01 -8.561202026155690925e-01 5.050913171047949346e-01
4.135384615384616325e+00 9.647272655033251043e-02 -8.459383783416216662e-01 5.244754235416949628e-01
4.250256410256410433e+00 8.400385625462913897e-02 -8.356535062072509845e-01 5.427889947030712925e-01
4.365128205128205430e+00 7.184219097667543519e-02 -8.252989444876566161e-01 5.601015908509414665e-01
4.480000000000000426e+00 5.999523003434309443e-02 -8.149006641868118406e-01 5.764816007528386077e-01
