0.000000000000000000e+00 2.984200369065543458e-09 1.584768427259143383e-09 -1.000000000000000000e+00
1.148717948717948856e-01 -3.731565759325570220e-01 5.836238630298501429e-03 -9.277457124786867571e-01
2.297435897435897711e-01 -6.901662225768132597e-01 -1.323270470238918639e-02 -7.235181606547784749e-01
3.446153846153846567e-01 -9.033951027709158366e-01 -7.392493308143033293e-02 -4.223600884507294762e-01
4.594871794871795423e-01 -9.810197771218461815e-01 -1.788559584552861237e-01 -7.471924536944361817e-02
5.743589743589744279e-01 -9.119683614125078108e-01 -3.142557339655892013e-01 2.636863965581249247e-01
6.892307692307693134e-01 -7.077426341594179604e-01 -4.521467607159612712e-01 5.428090912010613556e-01
8.041025641025641990e-01 -4.007685708262936908e-01 -5.565688073713110917e-01 7.277354662304907906e-01
9.189743589743590846e-01 -3.942324110006567572e-02 -5.924310817910383165e-01 8.046472708714765831e-01
1.033846153846154081e+00 3.195819328655787883e-01 -5.348705932668783580e-01 7.821546952387748997e-01
1.148717948717948856e+00 6.203458852077280428e-01 -3.768392844508710038e-01 6.878553949698188452e-01
1.263589743589743630e+00 8.170291922801924400e-01 -1.329346856283111222e-01 5.610437843877629227e-01
1.378461538461538627e+00 8.816448754779028230e-01 1.616802780190007005e-01 4.433258492393767902e-01
1.493333333333333623e+00 8.090047997978554450e-01 4.572897046949021549e-01 3.692860090727363986e-01
1.608205128205128398e+00 6.178217859318468896e-01 6.994246570160664866e-01 3.592715388456834136e-01
1.723076923076923173e+00 3.476107932798307432e-01 8.403672557945887078e-01 4.158427012781544807e-01
1.837948717948718169e+00 5.177616236508983394e-02 8.498452083339095298e-01 5.244616124365456544e-01
1.952820512820513166e+00 -2.120197652793468501e-01 7.224221184055927836e-01 6.581298597398449468e-01
2.067692307692308162e+00 -3.925119567551384470e-01 4.798042933222404494e-01 7.846702742359530358e-01
2.182564102564102715e+00 -4.545350181265507272e-01 1.673442532795313964e-01 8.748616670366282655e-01
2.297435897435897711e+00 -3.858843633479898672e-01 -1.547047026749329701e-01 9.094782256280108390e-01
2.412307692307692708e+00 -1.998701280829019988e-01 -4.234106360135089786e-01 8.836090290415572479e-01
2.527179487179487261e+00 6.701598894915539173e-02 -5.862599495543185935e-01 8.073377508096487576e-01
2.642051282051282257e+00 3.620761756436455259e-01 -6.123842631846915241e-01 7.027579427954129265e-01
2.756923076923077254e+00 6.267694642300347674e-01 -4.993286969837119615e-01 5.981724384794091520e-01
2.871794871794872250e+00 8.084523281073783263e-01 -2.738404450635639198e-01 5.209546922920667011e-01
2.986666666666667247e+00 8.711190551940025673e-01 1.360222454935022807e-02 4.908599477567798797e-01
3.101538461538461799e+00 8.029353757511120682e-01 2.994287240657866334e-01 5.153781659567308049e-01
3.216410256410256796e+00 6.189023198792847902e-01 5.205243082560389034e-01 5.882121109251657876e-01
3.331282051282051793e+00 3.579971325996996190e-01 6.277824643229146240e-01 6.911651284766439085e-01
3.446153846153846345e+00 7.523339722807798058e-02 5.967164292305520146e-01 7.989087709135835880e-01
3.561025641025641342e+00 -1.697406244702565625e-01 4.327801976529387362e-01 8.853694492165016250e-01
3.675897435897436338e+00 -3.252250411538248898e-01 1.701913458889415531e-01 9.301912330048494049e-01
3.790769230769231335e+00 -3.584969300819668692e-01 -1.355124615448302372e-01 9.236384959545068662e-01
3.905641025641026332e+00 -2.629081317195883782e-01 -4.195668183851380961e-01 8.688105769290617175e-01
4.020512820512821328e+00 -5.953692160854695548e-02 -6.220990879579432198e-01 7.806619980979749851e-01
4.135384615384616325e+00 2.071783983529245643e-01 -7.012634706611798885e-01 6.821205030923273016e-01
4.250256410256410433e+00 4.789311050009270043e-01 -6.423586118459332361e-01 5.983141268342626606e-01
4.365128205128205430e+00 6.961160246216232528e-01 -4.609934806730836554e-01 5.503505166862200371e-01
4.480000000000000426e+00 8.108374322060699635e-01 -1.995808224477439163e-01 5.501712088610979379e-01
