0.000000000000000000e+00 -4.959271199306131484e-10 -2.989299141521759108e-09 -1.000000000000000000e+00
1.148717948717948856e-01 -2.330344151820260834e-01 3.135340579111988157e-01 -9.205346374631631079e-01
2.297435897435897711e-01 -4.419648433882915062e-01 5.651498494605652345e-01 -6.966040633742144328e-01
3.446153846153846567e-01 -6.036006471011499119e-01 7.071138972678335799e-01 -3.682855589824481357e-01
4.594871794871795423e-01 -6.973992909607036328e-01 7.166233537619643990e-01 7.806731105164377120e-03
5.743589743589744279e-01 -7.081320325215427758e-01 6.006689503642981265e-01 3.711117649038107591e-01
6.892307692307693134e-01 -6.292531656656679129e-01 3.938130459619265666e-01 6.700265137274739047e-01
8.041025641025641990e-01 -4.660797472819347420e-01 1.494678900368835994e-01 8.720203176522268729e-01
9.189743589743590846e-01 -2.374793108555333654e-01 -7.314988129835596486e-02 9.686321519566436500e-01
1.033846153846154081e+00 2.507951802110502254e-02 -2.232836257619077724e-01 9.744287911969157223e-01
1.148717948717948856e+00 2.817036519744366974e-01 -2.704551964059684899e-01 9.205920419318774917e-01
1.263589743589743630e+00 4.909707623483584027e-01 -2.112921529350916816e-01 8.451583648539852112e-01
1.378461538461538627e+00 6.185353229563063104e-01 -6.947743125819377807e-02 7.826710820493694154e-01
1.493333333333333623e+00 6.451316284632752085e-01 1.109866977322063464e-01 7.559585656325368275e-01
1.608205128205128398e+00 5.718556237663495745e-01 2.774435068690580541e-01 7.720058117297213807e-01
1.723076923076923173e+00 4.209898497398426032e-01 3.821967856578427636e-01 8.226066075346617490e-01
1.837948717948718169e+00 2.316780742849317565e-01 3.946286926011576268e-01 8.891482591901573862e-01
1.952820512820513166e+00 5.115192201037184472e-02 3.087788636576034862e-01 9.497543865001319974e-01
2.067692307692308162e+00 -7.652550158212034770e-02 1.444477195807891967e-01 9.865474393712007073e-01
2.182564102564102715e+00 -1.213676627549919312e-01 -5.837691480946867462e-02 9.908883281188283210e-01
2.297435897435897711e+00 -7.500207967021074729e-02 -2.502803986427071248e-01 9.652614886049212251e-01
2.412307692307692708e+00 4.702523569986460927e-02 -3.854234068395068769e-01 9.215368361526987684e-01
2.527179487179487261e+00 2.092887383605516183e-01 -4.336150292275161577e-01 8.764512770736312408e-01
2.642051282051282257e+00 3.658739923432624552e-01 -3.880351013927029746e-01 8.459044475212162961e-01
2.756923076923077254e+00 4.726153784889585152e-01 -2.666794296057958258e-01 8.399439907640128267e-01
2.871794871794872250e+00 4.990333781359337917e-01 -1.072021751203295903e-01 8.599205162070252539e-01
2.986666666666667247e+00 4.366122991417255017e-01 4.346857014017155296e-02 8.985943293532967502e-01
3.101538461538461799e+00 3.011322543586587575e-01 1.419188706260888777e-01 9.429593231577346746e-01
3.216410256410256796e+00 1.283225293163129388e-01 1.599548117780945078e-01 9.787462295499410603e-01
3.331282051282051793e+00 -3.603952507528762617e-02 9.210943453729858454e-02 9.950956093458003249e-01
3.446153846153846345e+00 -1.488872546786026985e-01 -4.320731622035586805e-02 9.879084009307295133e-01
3.561025641025641342e+00 -1.817322300047147787e-01 -2.090163099501663735e-01 9.608749146845996236e-01
3.675897435897436338e+00 -1.287331081686721168e-01 -3.601588464547084145e-01 9.239622458148060158e-01
3.790769230769231335e+00 -8.203204612962464171e-03 -4.559660887691132092e-01 8.899543965767429121e-01
3.905641025641026332e+00 1.426558987548787460e-01 -4.715528505441653473e-01 8.702169510201474001e-01
4.020512820512821328e+00 2.783365212521183851e-01 -4.046301456870307622e-01 8.710875959332535778e-01
4.135384615384616325e+00 3.580077091149255208e-01 -2.759936406238848727e-01 8.919917436306633585e-01
4.250256410256410433e+00 3.571040089052063271e-01 -1.235040659086142634e-01 9.258598240027452464e-01
4.365128205128205430e+00 2.742901513451789786e-01 8.703471695489212179e-03 9.616050309422218278e-01
4.480000000000000426e+00 1.317377960528890724e-01 8.274318876107222831e-02 9.878238727315273859e-01
