0.000000000000000000e+00 5.092513828181192711e-10 2.488396714376047486e-09 -1.000000000000000000e+00
1.148717948717948856e-01 4.431020367513843934e-03 2.839081220486305152e-02 -9.995869757207381801e-01
2.297435897435897711e-01 8.842116227864467437e-03 5.674277022386206570e-02 -9.983494800888186305e-01
3.446153846153846567e-01 1.323266530787712766e-02 8.500969900682345259e-02 -9.962919619079142475e-01
4.594871794871795423e-01 1.758781767494403681e-02 1.131493875696293339e-01 -9.934219278060767433e-01
5.743589743589744279e-01 2.190155676513608207e-02 1.411200911423212967e-01 -9.897497140628771506e-01
6.892307692307693134e-01 2.616152688180729824e-02 1.688782727201332545e-01 -9.852890785745380686e-01
8.041025641025641990e-01 3.035893905308575946e-02 1.963884135820886667e-01 -9.800554051609421391e-01
9.189743589743590846e-01 3.448475424236623066e-02 2.236083424905718209e-01 -9.740680606224417781e-01
1.033846153846154081e+00 3.853209817150737848e-02 2.505001424961850187e-01 -9.673485588929360279e-01
1.148717948717948856e+00 4.249236011827492443e-02 2.770316550522285981e-01 -9.599197569487052384e-01
1.263589743589743630e+00 4.636278783927955116e-02 3.031682394888590704e-01 -9.518074309593214100e-01
1.378461538461538627e+00 5.013501183737290035e-02 3.288728129829668334e-01 -9.430412635795397680e-01
1.493333333333333623e+00 5.380676587110373721e-02 3.541217764886605557e-01 -9.336487913157299756e-01
1.608205128205128398e+00 5.737309767135570504e-02 3.788846567844467716e-01 -9.236622781633043733e-01
1.723076923076923173e+00 6.083599515512608247e-02 4.031388206298298638e-01 -9.131128773660905917e-01
1.837948717948718169e+00 6.419284680467531035e-02 4.268600729605826483e-01 -9.020347026242255817e-01
1.952820512820513166e+00 6.744172642830595366e-02 4.500310131957261928e-01 -8.904607476535445487e-01
2.067692307692308162e+00 7.058518550152598214e-02 4.726309480702914345e-01 -8.784270918704472075e-01
2.182564102564102715e+00 7.362821687769385837e-02 4.946487355950101028e-01 -8.659663682924687578e-01
2.297435897435897711e+00 7.656875691800796302e-02 5.160722973566806981e-01 -8.531135007376389190e-01
2.412307692307692708e+00 7.941253487411806256e-02 5.368957520567307906e-01 -8.399002577016478899e-01
2.527179487179487261e+00 8.216271211839973332e-02 5.571049895139749131e-01 -8.263649103106102123e-01
2.642051282051282257e+00 8.482364901883349129e-02 5.767029394610855286e-01 -8.125356123463750579e-01
2.756923076923077254e+00 8.740092710527447295e-02 5.956843596914298544e-01 -7.984462939477989796e-01
2.871794871794872250e+00 8.989614171241228080e-02 6.140514652121055184e-01 -7.841266229196282023e-01
2.986666666666667247e+00 9.231816463194186806e-02 6.318038025098211552e-01 -7.696078282509971613e-01
3.101538461538461799e+00 9.467169135425090865e-02 6.489496284912684709e-01 -7.549148105739693637e-01
3.216410256410256796e+00 9.696044815806109662e-02 6.654905989805313116e-01 -7.400780245966142035e-01
3.331282051282051793e+00 9.918588340915052148e-02 6.814349126640597554e-01 -7.251227447151009642e-01
3.446153846153846345e+00 1.013574811327793146e-01 6.967922381267003251e-01 -7.100714390911176954e-01
3.561025641025641342e+00 1.034807825252305746e-01 7.115728130181747657e-01 -6.949459770492991684e-01
3.675897435897436338e+00 1.055576953172635002e-01 7.257807308227376408e-01 -6.797748146724909013e-01
3.790769230769231335e+00 1.075940328604422236e-01 7.394344593166124469e-01 -6.645704981479528817e-01
3.905641025641026332e+00 1.095958637009110115e-01 7.525458338024257898e-01 -6.493512972714946541e-01
4.020512820512821328e+00 1.115624709426117495e-01 7.651214458972247501e-01 -6.341422873676479943e-01
4.135384615384616325e+00 1.134968506515440789e-01 7.771809719583608889e-01 -6.189519486216038535e-01
4.250256410256410433e+00 1.154131346172758005e-01 7.887307847956034346e-01 -6.038019065375794803e-01
4.365128205128205430e+00 1.173064254581530630e-01 7.997900445940152592e-01 -5.887003811387119256e-01
4.480000000000000426e+00 1.191761721347874836e-01 8.103708959168570702e-01 -5.736627758843986236e-01
