0.000000000000000000e+00 3.223597073523493166e-09 -1.028443149034174392e-09 -1.000000000000000000e+00
1.148717948717948856e-01 -5.678546886456131704e-02 1.853915432491899939e-01 -9.810216059741947436e-01
2.297435897435897711e-01 -1.080091253268825602e-01 3.615257849333314843e-01 -9.260826072575828460e-01
3.446153846153846567e-01 -1.490779198834638886e-01 5.204993482128777993e-01 -8.407436138044029894e-01
4.594871794871795423e-01 -1.771263466726176738e-01 6.567548149686814885e-01 -7.330012729650158265e-01
5.743589743589744279e-01 -1.912899480396066387e-01 7.675584812245348498e-01 -6.117611990120243037e-01
6.892307692307693134e-01 -1.924847707516453565e-01 8.528456294547852590e-01 -4.853782863865684361e-01
8.041025641025641990e-01 -1.828593905064029301e-01 9.146198398028493326e-01 -3.605829197309015632e-01
9.189743589743590846e-01 -1.650986039383226522e-01 9.561204474032931611e-01 -2.419968123993582187e-01
1.033846153846154081e+00 -1.418001442721412153e-01 9.810154809103749374e-01 -1.322393564673982336e-01
1.148717948717948856e+00 -1.151009645004321680e-01 9.928193342337267024e-01 -3.236169163921947395e-02
1.263589743589743630e+00 -8.656316298908883766e-02 9.945748283903523834e-01 5.756295375936132386e-02
1.378461538461538627e+00 -5.726100134586659118e-02 9.887734457194237159e-01 1.379643960949903936e-01
1.493333333333333623e+00 -2.795736942185289564e-02 9.774046150393719268e-01 2.094869337260202025e-01
1.608205128205128398e+00 7.593826354505561760e-04 9.620410293250144518e-01 2.728790336675832595e-01
1.723076923076923173e+00 2.841108776445819273e-02 9.439054140071105881e-01 3.289714278411417503e-01
1.837948717948718169e+00 5.465699190839015675e-02 9.239096927822975092e-01 3.786696057215220290e-01
1.952820512820513166e+00 7.932740186590966913e-02 9.026938690828648637e-01 4.228929966107757843e-01
2.067692307692308162e+00 1.024400057848403878e-01 8.806995775451125219e-01 4.624523815104416014e-01
2.182564102564102715e+00 1.241367269986105581e-01 8.582368673654531266e-01 4.980038476890067400e-01
2.297435897435897711e+00 1.445883244613050955e-01 8.355747435343412466e-01 5.299978166719697681e-01
2.412307692307692708e+00 1.639023697100589205e-01 8.129632632699472783e-01 5.587626475843386897e-01
2.527179487179487261e+00 1.820753698538236098e-01 7.906355883458505707e-01 5.845795008466344589e-01
2.642051282051282257e+00 1.990299031912803607e-01 7.687575133660455862e-01 6.077734469428849318e-01
2.756923076923077254e+00 2.146915274657462125e-01 7.473979309996496845e-01 6.287239005348772558e-01
2.871794871794872250e+00 2.290771553534633742e-01 7.265223873273373156e-01 6.478263736055487332e-01
2.986666666666667247e+00 2.423201123715547634e-01 7.060481795177020459e-01 6.654076417160526002e-01
3.101538461538461799e+00 2.546410374906224461e-01 6.859072837950511703e-01 6.816742500662974491e-01
3.216410256410256796e+00 2.662610647683023024e-01 6.661077930564410776e-01 6.967039090830542403e-01
3.331282051282051793e+00 2.773040192517329250e-01 6.467518445289375251e-01 7.104967569078034506e-01
3.446153846153846345e+00 2.877674983694053501e-01 6.279716652228293228e-01 7.230717661412426889e-01
3.561025641025641342e+00 2.975421779972076131e-01 6.098652907261652434e-01 7.345233123899342909e-01
3.675897435897436338e+00 3.065028089643682674e-01 5.924274105266287282e-01 7.450352298969671327e-01
3.790769230769231335e+00 3.146054559185471611e-01 5.755416228167793413e-01 7.548292041304942579e-01
3.905641025641026332e+00 3.219349651376091082e-01 5.590328454117114987e-01 7.640891370888254208e-01
4.020512820512821328e+00 3.286863011023383185e-01 5.427634301038538611e-01 7.728941677246712327e-01
4.135384615384616325e+00 3.350750854055529748e-01 5.267079322957244347e-01 7.812143174371052323e-01
4.250256410256410433e+00 3.412429727634200827e-01 5.109563221833337554e-01 7.889673019145435617e-01
4.365128205128205430e+00 3.471962226859048872e-01 4.956733432398707229e-01 7.960875496007410179e-01
4.480000000000000426e+00 3.528088946211711541e-01 4.809919906374254817e-01 8.025991453857340696e-01
