0.000000000000000000e+00 -2.488048077864092721e-09 -3.468588508759903330e-09 -1.000000000000000000e+00
1.148717948717948856e-01 -1.617230709637308000e-02 -5.102725465229643667e-03 -9.998560626322056111e-01
2.297435897435897711e-01 -3.235787372764462044e-02 -1.026496732627859079e-02 -9.994233775200226377e-01
3.446153846153846567e-01 -4.856058969079152937e-02 -1.550405499213013474e-02 -9.986995297143609340e-01
4.594871794871795423e-01 -6.478297924839968025e-02 -2.085620113703938808e-02 -9.976809165985550676e-01
5.743589743589744279e-01 -8.101845797183473974e-02 -2.635360268242248338e-02 -9.963635344129259108e-01
6.892307692307693134e-01 -9.725366182056725817e-02 -3.202864513867682839e-02 -9.947434106520868236e-01
8.041025641025641990e-01 -1.134650563249152005e-01 -3.790570435231897795e-02 -9.928177899159086328e-01
9.189743589743590846e-01 -1.296244776695452405e-01 -4.400902992037606515e-02 -9.905850723508028421e-01
1.033846153846154081e+00 -1.457027079847469653e-01 -5.036069199066468133e-02 -9.880447177684993365e-01
1.148717948717948856e+00 -1.616626454879163677e-01 -5.696823665105718582e-02 -9.851991706197529286e-01
1.263589743589743630e+00 -1.774745095520098015e-01 -6.384306914657564280e-02 -9.820510214779163416e-01
1.378461538461538627e+00 -1.930997092166400753e-01 -7.098665108387341993e-02 -9.786064037836250673e-01
1.493333333333333623e+00 -2.085083755700525010e-01 -7.839012717241458650e-02 -9.748723436284044697e-01
1.608205128205128398e+00 -2.236694418758100045e-01 -8.604133745735373373e-02 -9.708581018117751205e-01
1.723076923076923173e+00 -2.385524151760419487e-01 -9.392329149552688938e-02 -9.665751327792772019e-01
1.837948717948718169e+00 -2.531254966211884394e-01 -1.020194163738522564e-01 -9.620372082075735465e-01
1.952820512820513166e+00 -2.673624639012814330e-01 -1.103096526237607178e-01 -9.572590573209478482e-01
2.067692307692308162e+00 -2.812418362120970294e-01 -1.187730533704461355e-01 -9.522560276047220551e-01
2.182564102564102715e+00 -2.947432716764362137e-01 -1.273959704394659054e-01 -9.470438018975529948e-01
2.297435897435897711e+00 -3.078569737117999860e-01 -1.361651000687029434e-01 -9.416359080784798552e-01
2.412307692307692708e+00 -3.205785503086806543e-01 -1.450578322929950148e-01 -9.360461506870914050e-01
2.527179487179487261e+00 -3.329108444330087235e-01 -1.540559035467478077e-01 -9.302858005121765750e-01
2.642051282051282257e+00 -3.448573954744603154e-01 -1.631329112165028628e-01 -9.243675132647104498e-01
2.756923076923077254e+00 -3.564222403878277157e-01 -1.722628650786857674e-01 -9.183042576456316164e-01
2.871794871794872250e+00 -3.676075910859500362e-01 -1.814105074398426054e-01 -9.121121945913146511e-01
2.986666666666667247e+00 -3.784097908813721656e-01 -1.905529287971823582e-01 -9.058085524742983674e-01
3.101538461538461799e+00 -3.888248433688439309e-01 -1.996715615687686962e-01 -8.994108008201943116e-01
3.216410256410256796e+00 -3.988484718459478495e-01 -2.087474295887022935e-01 -8.929375380982241817e-01
3.331282051282051793e+00 -4.084762634737059139e-01 -2.177871536602343228e-01 -8.864021109648928531e-01
3.446153846153846345e+00 -4.177187446107234470e-01 -2.267840945394471452e-01 -8.798139554678502394e-01
3.561025641025641342e+00 -4.265882535069284165e-01 -2.357491041398063758e-01 -8.731764794392929963e-01
3.675897435897436338e+00 -4.351112316577978589e-01 -2.446741769802070476e-01 -8.664899763761454432e-01
3.790769230769231335e+00 -4.433132714452180934e-01 -2.535475777443696455e-01 -8.597551188308139025e-01
3.905641025641026332e+00 -4.512228144055268064e-01 -2.623481566113260444e-01 -8.529730897402293399e-01
4.020512820512821328e+00 -4.588495234041737869e-01 -2.710497483678607211e-01 -8.461563734860064745e-01
4.135384615384616325e+00 -4.662073917306546189e-01 -2.796162844196766750e-01 -8.393191572936098410e-01
4.250256410256410433e+00 -4.732867251166909539e-01 -2.880393197919345338e-01 -8.324806695688234948e-01
4.365128205128205430e+00 -4.800789761594151939e-01 -2.963087339330954251e-01 -8.256610354722168088e-01
4.480000000000000426e+00 -4.865716610838497491e-01 -3.044411510626225947e-01 -8.188737621991333260e-01
