0.000000000000000000e+00 -1.067492514302969161e-09 2.385342981668757471e-09 -1.000000000000000000e+00
1.148717948717948856e-01 2.918659888952960246e-01 -2.319300939389492278e-01 -9.279115499888391794e-01
2.297435897435897711e-01 5.434422334304581659e-01 -4.215405323655024850e-01 -7.259256971467640263e-01
3.446153846153846567e-01 7.224651606908947254e-01 -5.393209398124285681e-01 -4.326296669196237898e-01
4.594871794871795423e-01 8.109996747868166711e-01 -5.764734671751220452e-01 -9.973976573906961907e-02
5.743589743589744279e-01 8.084281584898640460e-01 -5.451775400130298710e-01 2.218462935031979832e-01
6.892307692307693134e-01 7.303710476069921187e-01 -4.716968126686305607e-01 4.940162435430486831e-01
8.041025641025641990e-01 6.037006056613892779e-01 -3.856560690218964194e-01 6.977167438525279097e-01
9.189743589743590846e-01 4.590340942920827505e-01 -3.100814897384688296e-01 8.325458669255765276e-01
1.033846153846154081e+00 3.229565058653234288e-01 -2.558925187136617541e-01 9.111613112257304081e-01
1.148717948717948856e+00 2.123757056679540511e-01 -2.221747890418204752e-01 9.515947919143356026e-01
1.263589743589743630e+00 1.326924888971031113e-01 -2.009174071980111553e-01 9.705787769904469231e-01
1.378461538461538627e+00 7.988542829154425540e-02 -1.831626645342857851e-01 9.798307682310350986e-01
1.493333333333333623e+00 4.516099402712724087e-02 -1.635155901356382946e-01 9.855059284000875497e-01
1.608205128205128398e+00 1.991357396380635109e-02 -1.414414368946649014e-01 9.897458064320304727e-01
1.723076923076923173e+00 -1.067096339935229288e-03 -1.195848045648883473e-01 9.928229905193777238e-01
1.837948717948718169e+00 -1.905249792170536638e-02 -1.008864704505906262e-01 9.947151326721387354e-01
1.952820512820513166e+00 -3.296914619191440576e-02 -8.642299257546334768e-02 9.957125314698762608e-01
2.067692307692308162e+00 -4.172345707738290416e-02 -7.503083631428725253e-02 9.963076408419603291e-01
2.182564102564102715e+00 -4.570696534457709126e-02 -6.452011433123433504e-02 9.968688293253434862e-01
2.297435897435897711e+00 -4.680886157140896897e-02 -5.335656122687169184e-02 9.974775674463035591e-01
2.412307692307692708e+00 -4.726337546514657734e-02 -4.158246273312285468e-02 9.980163408365292366e-01
2.527179487179487261e+00 -4.834075077767064493e-02 -3.050282283397994648e-02 9.983648303932641799e-01
2.642051282051282257e+00 -4.981859176946418222e-02 -2.153828420100359006e-02 9.985258208903099453e-01
2.756923076923077254e+00 -5.051550237554970624e-02 -1.513815981676448590e-02 9.986083491020516512e-01
2.871794871794872250e+00 -4.939137774164517602e-02 -1.049423670596741701e-02 9.987241827400489269e-01
2.986666666666667247e+00 -4.639561256870908951e-02 -6.205984679111820057e-03 9.989036933201471680e-01
3.101538461538461799e+00 -4.253258773044668595e-02 -1.271109775940082454e-03 9.990941136231239472e-01
3.216410256410256796e+00 -3.910656129009114357e-02 4.259011004656598071e-03 9.992258227038601781e-01
3.331282051282051793e+00 -3.685796864543129658e-02 9.445332399839558024e-03 9.992757334654317480e-01
3.446153846153846345e+00 -3.547954375753410716e-02 1.325371240239178738e-02 9.992823714144609681e-01
3.561025641025641342e+00 -3.398722136586616871e-02 1.533083821435044652e-02 9.993045357825071084e-01
3.675897435897436338e+00 -3.148231813588200922e-02 1.627285158924373851e-02 9.993716983144198540e-01
3.790769230769231335e+00 -2.784546077370990066e-02 1.716085520309769755e-02 9.994648005222748210e-01
3.905641025641026332e+00 -2.379516345438083269e-02 1.877756242342309284e-02 9.995403755596918849e-01
4.020512820512821328e+00 -2.034519756205274699e-02 2.108000535890431140e-02 9.995706490056264215e-01
4.135384615384616325e+00 -1.806340295404888774e-02 2.330146747663525836e-02 9.995651704699612949e-01
4.250256410256410433e+00 -1.668538979994053928e-02 2.455690892987754531e-02 9.995590675196289743e-01
4.365128205128205430e+00 -1.535644563915365864e-02 2.452600601490807081e-02 9.995811288974725262e-01
4.480000000000000426e+00 -1.328394925098167097e-02 2.367519228872624892e-02 9.996313385046136091e-01
