0.000000000000000000e+00 -1.313352706882375807e-09 4.134070268299747350e-09 -1.000000000000000000e+00
1.148717948717948856e-01 -3.483411975350096390e-01 1.328636628042960677e-01 -9.279021645427055764e-01
2.297435897435897711e-01 -6.548926848451814831e-01 2.105940508411854317e-01 -7.257815530990208153e-01
3.446153846153846567e-01 -8.801081227783122962e-01 1.968684942809143523e-01 -4.320215962885912142e-01
4.594871794871795423e-01 -9.913532807771345823e-01 8.687681182210596487e-02 -9.828437140114164305e-02
5.743589743589744279e-01 -9.703283881463756755e-01 -9.030520378517392643e-02 2.242695943661148772e-01
6.892307692307693134e-01 -8.210552238694064364e-01 -2.808568042324133263e-01 4.969692607947834295e-01
8.041025641025641990e-01 -5.742064988330999320e-01 -4.242317428550613223e-01 7.002193560542218087e-01
9.189743589743590846e-01 -2.838333180625463026e-01 -4.741684561863986347e-01 8.334252913532853579e-01
1.033846153846154081e+00 -1.519901133957769768e-02 -4.152159360035592162e-01 9.095938882716575469e-01
1.148717948717948856e+00 1.735201840045643706e-01 -2.685258717799688943e-01 9.475135298685436469e-01
1.263589743589743630e+00 2.493972502808977088e-01 -8.415220557387573241e-02 9.647368689795362551e-01
1.378461538461538627e+00 2.153425375841881984e-01 7.757492046766527316e-02 9.734515084729368217e-01
1.493333333333333623e+00 1.081457134362965589e-01 1.686211403445754264e-01 9.797294439206566397e-01
1.608205128205128398e+00 -1.620389712621606720e-02 1.707283730570882674e-01 9.851841778992235232e-01
1.723076923076923173e+00 -1.043768079524110964e-01 1.005661223410887484e-01 9.894396208165949780e-01
1.837948717948718169e+00 -1.258300301424919165e-01 4.651806050101070511e-04 9.920511928665908252e-01
1.952820512820513166e+00 -8.264783237931762339e-02 -8.110391263305598286e-02 9.932726479355682425e-01
2.067692307692308162e+00 -5.055794554679617081e-03 -1.105660863381727338e-01 9.938554633856395704e-01
2.182564102564102715e+00 6.498761647222817128e-02 -8.237468525348669302e-02 9.944798498224293182e-01
2.297435897435897711e+00 9.424997096419776565e-02 -1.858124253558238528e-02 9.953747533043489915e-01
2.412307692307692708e+00 7.303604214891085133e-02 4.434513917645336450e-02 9.963425846523691343e-01
2.527179487179487261e+00 1.763126472858710797e-02 7.452475788244926347e-02 9.970629721973863768e-01
2.642051282051282257e+00 -4.011553605947683343e-02 6.001490116738016078e-02 9.973907773725696480e-01
2.756923076923077254e+00 -7.023592484138185821e-02 1.308096561578191847e-02 9.974443419754095430e-01
2.871794871794872250e+00 -5.987624637052020582e-02 -3.814370613060807935e-02 9.974764701178462367e-01
2.986666666666667247e+00 -1.868107000991241218e-02 -6.562127278035267963e-02 9.976694353203054977e-01
3.101538461538461799e+00 2.801546321776276355e-02 -5.629835844552447816e-02 9.980205944085637215e-01
3.216410256410256796e+00 5.390383469629925206e-02 -1.806588945854535957e-02 9.983824546843124148e-01
3.331282051282051793e+00 4.606670178739428329e-02 2.592406449183374748e-02 9.986017016890820219e-01
3.446153846153846345e+00 1.122400222499607761e-02 5.093992918708002693e-02 9.986384267767631773e-01
3.561025641025641342e+00 -2.920992061105373572e-02 4.449653730090951526e-02 9.985821913376833336e-01
3.675897435897436338e+00 -5.195532812620524271e-02 1.261673763068043436e-02 9.985694835246179402e-01
3.790769230769231335e+00 -4.513479892002205535e-02 -2.459308476609914709e-02 9.986779256145376094e-01
3.905641025641026332e+00 -1.443966189001752790e-02 -4.514242938618841239e-02 9.988759968674558731e-01
4.020512820512821328e+00 2.103659009379564918e-02 -3.785110133439501673e-02 9.990617538757682325e-01
4.135384615384616325e+00 4.044615200181665704e-02 -8.278898952144788173e-03 9.991472444594970970e-01
4.250256410256410433e+00 3.337548598128188548e-02 2.526452454878689788e-02 9.991233277970024140e-01
4.365128205128205430e+00 5.451430316399266326e-03 4.300879453487732595e-02 9.990596359680322669e-01
4.480000000000000426e+00 -2.563705771880122122e-02 3.537111903745391445e-02 9.990451709608136888e-01
