0.000000000000000000e+00 2.431029121723990641e-09 4.415021090749155992e-10 -1.000000000000000000e+00
1.148717948717948856e-01 -3.815587999546367626e-01 8.323612727316087589e-02 -9.205859474241856466e-01
2.297435897435897711e-01 -7.042863622515705968e-01 1.328834709032676586e-01 -6.973591093306722444e-01
3.446153846153846567e-01 -9.196233997232593493e-01 1.271919542477514264e-01 -3.716135909985441854e-01
4.594871794871795423e-01 -9.979343158202139685e-01 6.408002013509978001e-02 -7.157471042339790630e-04
5.743589743589744279e-01 -9.338776239194048756e-01 -3.749723952810379846e-02 3.555952933895241141e-01
6.892307692307693134e-01 -7.474456661963010395e-01 -1.432804751275822963e-01 6.486768453229850850e-01
8.041025641025641990e-01 -4.801506499227021774e-01 -2.147115491688186828e-01 8.504972306927893744e-01
9.189743589743590846e-01 -1.867277488639553507e-01 -2.217154019555796773e-01 9.570635534683907819e-01
1.033846153846154081e+00 7.618897440591042292e-02 -1.530886519400284362e-01 9.852698130609681693e-01
1.148717948717948856e+00 2.621678353617933888e-01 -2.100440898713867507e-02 9.647916345815124028e-01
1.263589743589743630e+00 3.449484375338235376e-01 1.418131918085984988e-01 9.278436129769787044e-01
1.378461538461538627e+00 3.239650725026358979e-01 2.916039573123648254e-01 9.000037655491173183e-01
1.493333333333333623e+00 2.235288112536195082e-01 3.868732311192890627e-01 8.946266148900275939e-01
1.608205128205128398e+00 8.571771856506921194e-02 4.011966269354107495e-01 9.119688730991745151e-01
1.723076923076923173e+00 -4.135073294347060835e-02 3.314746410303419655e-01 9.425547966951743906e-01
1.837948717948718169e+00 -1.168131100141893974e-01 1.990057421757295275e-01 9.730097587950881088e-01
1.952820512820513166e+00 -1.181974865622819337e-01 4.290139480800794769e-02 9.920619879254080065e-01
2.067692307692308162e+00 -4.714175502073941759e-02 -9.206221444390255693e-02 9.946359574830112571e-01
2.182564102564102715e+00 7.210386208068406133e-02 -1.692894854201858201e-01 9.829239055315124318e-01
2.297435897435897711e+00 2.007518692188062781e-01 -1.715007536976157210e-01 9.645113911836027398e-01
2.412307692307692708e+00 2.980621577013535806e-01 -1.057043652777222703e-01 9.486731273616385574e-01
2.527179487179487261e+00 3.342514885814041881e-01 -2.514468949385284535e-04 9.424811591667446864e-01
2.642051282051282257e+00 2.997782418492207501e-01 1.048628341402087771e-01 9.482256841268549286e-01
2.756923076923077254e+00 2.080037312198999566e-01 1.713102594483730257e-01 9.630073739201016059e-01
2.871794871794872250e+00 9.042695138978176783e-02 1.749399026386826705e-01 9.804162888816737587e-01
2.986666666666667247e+00 -1.396702904273812440e-02 1.134120861388020207e-01 9.934490171869708730e-01
3.101538461538461799e+00 -7.172673702006750196e-02 6.461508174486110812e-03 9.974028538169483760e-01
3.216410256410256796e+00 -6.591499115991870938e-02 -1.112393016107386390e-01 9.916043281693274203e-01
3.331282051282051793e+00 -1.487937106340112003e-03 -2.019534345640781325e-01 9.793924758117855678e-01
3.446153846153846345e+00 9.669970466045474389e-02 -2.377856207697199298e-01 9.664902109455032475e-01
3.561025641025641342e+00 1.926966487834458897e-01 -2.099688723900942633e-01 9.585284409543017858e-01
3.675897435897436338e+00 2.519000449976454004e-01 -1.315031204002361509e-01 9.587747435156286357e-01
3.790769230769231335e+00 2.529339412818062405e-01 -3.235672637566691656e-02 9.669403542874464019e-01
3.905641025641026332e+00 1.948340775502505062e-01 5.111445712261290797e-02 9.795019297729492536e-01
4.020512820512821328e+00 9.713941717671323306e-02 8.880559927884996985e-02 9.912999434844433910e-01
4.135384615384616325e+00 -7.134405355609725607e-03 6.719058043486698939e-02 9.977141460205751766e-01
4.250256410256410433e+00 -8.319085545160985473e-02 -6.229644271144755413e-03 9.965135428423825825e-01
4.365128205128205430e+00 -1.065525571015862039e-01 -1.058661891619337297e-01 9.886539886684583278e-01
4.480000000000000426e+00 -7.159981318727008659e-02 -1.971485551748069498e-01 9.777539684860108160e-01
