0.000000000000000000e+00 -3.026125112815633992e-09 -4.404820422302659795e-11 -1.000000000000000000e+00
1.148717948717948856e-01 2.275838846757780309e-01 -9.066473751186468477e-02 -9.695262688054919753e-01
2.297435897435897711e-01 4.299978704736719393e-01 -1.859440446264813418e-01 -8.834691167536470324e-01
3.446153846153846567e-01 5.862855806464974950e-01 -2.887095252754467434e-01 -7.569032210916668557e-01
4.594871794871795423e-01 6.832400162069200977e-01 -3.986546719463563981e-01 -6.117517064019796225e-01
5.743589743589744279e-01 7.174731998911532127e-01 -5.116913068534668652e-01 -4.726352923991138377e-01
6.892307692307693134e-01 6.957525228726855193e-01 -6.202520950417472756e-01 -3.622072189045624224e-01
8.041025641025641990e-01 6.335250692317284660e-01 -7.144807608561148937e-01 -2.968851547907785382e-01
9.189743589743590846e-01 5.519214590083606486e-01 -7.841090174895718468e-01 -2.837836944801261918e-01
1.033846153846154081e+00 4.737964326005588145e-01 -8.206413652647062129e-01 -3.194408943704629689e-01
1.148717948717948856e+00 4.195506961996177120e-01 -8.193911958893806968e-01 -3.905815482394667248e-01
1.263589743589743630e+00 4.034805908796298968e-01 -7.809405972064119572e-01 -4.767757991782254900e-01
1.378461538461538627e+00 4.313476917363822105e-01 -7.116606668357268184e-01 -5.544904517705218083e-01
1.493333333333333623e+00 4.995669786941634438e-01 -6.231431714287957169e-01 -6.017539484181295695e-01
1.608205128205128398e+00 5.961771917015276090e-01 -5.305699420900620300e-01 -6.025368901999342830e-01
1.723076923076923173e+00 7.033562971914402162e-01 -4.502907144899501168e-01 -5.500086379145695537e-01
1.837948717948718169e+00 8.010115255701802939e-01 -3.970133517872550533e-01 -4.480406721334198594e-01
1.952820512820513166e+00 8.707537158096907426e-01 -3.811538945794815114e-01 -3.106241926468947256e-01
2.067692307692308162e+00 8.994915732495515348e-01 -4.068194696455592063e-01 -1.593403263590973395e-01
2.182564102564102715e+00 8.819796385645446435e-01 -4.708665452321407208e-01 -1.930577696066552648e-02
2.297435897435897711e+00 8.218413178440883149e-01 -5.632266340392455550e-01 8.560853509251285798e-02
2.412307692307692708e+00 7.308783428692541273e-01 -6.685162247737158614e-01 1.374020007058192605e-01
2.527179487179487261e+00 6.268180299549030998e-01 -7.686438233263298558e-01 1.275232911962677629e-01
2.642051282051282257e+00 5.299164154091819956e-01 -8.460030596014712634e-01 5.868182971517494489e-02
2.756923076923077254e+00 4.590877940975742755e-01 -8.866464874325868939e-01 -5.543045338248623471e-02
2.871794871794872250e+00 4.282819905196467714e-01 -8.828847598695342969e-01 -1.925246460940523707e-01
2.986666666666667247e+00 4.438070804469091968e-01 -8.348045927024468904e-01 -3.257520986769535942e-01
3.101538461538461799e+00 5.031058014736956574e-01 -7.504101537944691813e-01 -4.286587936277823641e-01
3.216410256410256796e+00 5.952187576147820458e-01 -6.443248561475442004e-01 -4.801459545148329955e-01
3.331282051282051793e+00 7.028457638229259619e-01 -5.352705285929159063e-01 -4.684795949696961559e-01
3.446153846153846345e+00 8.056236891116274057e-01 -4.427541943513286227e-01 -3.935961223057511948e-01
3.561025641025641342e+00 8.839851668860270184e-01 -3.835629456570308626e-01 -2.672582655826087894e-01
3.675897435897436338e+00 9.228900773870014618e-01 -3.686887878650336736e-01 -1.109899929773941335e-01
3.790769230769231335e+00 9.146986679315826096e-01 -4.012678929630184577e-01 4.781794294585946931e-02
3.905641025641026332e+00 8.606565274614774719e-01 -4.759175716220545582e-01 1.809680901112727669e-01
4.020512820512821328e+00 7.706996679669675387e-01 -5.796079717697386613e-01 2.646769449110149552e-01
4.135384615384616325e+00 6.616079902028055848e-01 -6.939482925282781656e-01 2.840564675325600863e-01
4.250256410256410433e+00 5.538658875530555470e-01 -7.984548444760701802e-01 2.359649405833187386e-01
4.365128205128205430e+00 4.677997039899883802e-01 -8.742536673409290193e-01 1.296931912791205732e-01
4.480000000000000426e+00 4.197324937548765345e-01 -9.075165024366875777e-01 -1.464624504109562041e-02
