0.000000000000000000e+00 -1.295841488340688682e-09 -1.555395445972199127e-09 -1.000000000000000000e+00
1.148717948717948856e-01 -5.419019424676979960e-03 -4.607310478107073948e-02 -9.989231286701794055e-01
2.297435897435897711e-01 -1.075287637698783133e-02 -9.194207487693542569e-02 -9.957058284361295364e-01
3.446153846153846567e-01 -1.595050852836093352e-02 -1.373924492773966610e-01 -9.903875559490288305e-01
4.594871794871795423e-01 -2.095216081341827463e-02 -1.822217089103709275e-01 -9.830332694292310824e-01
5.743589743589744279e-01 -2.571286368051051152e-02 -2.262456778732799823e-01 -9.737296458709026048e-01
6.892307692307693134e-01 -3.019335917678726833e-02 -2.692849569801581411e-01 -9.625856720966315949e-01
8.041025641025641990e-01 -3.437147410824711868e-02 -3.111898618950323381e-01 -9.497242700033668994e-01
9.189743589743590846e-01 -3.823783666274130355e-02 -3.518209991128232739e-01 -9.352839580069337577e-01
1.033846153846154081e+00 -4.178724601982725106e-02 -3.910667622429436774e-01 -9.194108737306269097e-01
1.148717948717948856e+00 -4.503213829498829701e-02 -4.288332467647422153e-01 -9.022579497008501592e-01
1.263589743589743630e+00 -4.798219050347864861e-02 -4.650527103617602132e-01 -8.839787661070910296e-01
1.378461538461538627e+00 -5.066104388313984186e-02 -4.996826623603194406e-01 -8.647224957371584253e-01
1.493333333333333623e+00 -5.309331671551348331e-02 -5.326912649025464797e-01 -8.446389459559536794e-01
1.608205128205128398e+00 -5.530635142686035621e-02 -5.640729667291727312e-01 -8.238666620048805678e-01
1.723076923076923173e+00 -5.732718879050729965e-02 -5.938317808039266232e-01 -8.025399378799852323e-01
1.837948717948718169e+00 -5.918570545396695248e-02 -6.219912956192621412e-01 -7.807793520550180277e-01
1.952820512820513166e+00 -6.090619687147774686e-02 -6.485803151224792673e-01 -7.587002829537325965e-01
2.067692307692308162e+00 -6.251663584343752911e-02 -6.736409884155118988e-01 -7.364042391540266408e-01
2.182564102564102715e+00 -6.403710563646902720e-02 -6.972263813039888403e-01 -7.139789636844088294e-01
2.297435897435897711e+00 -6.549193091758392926e-02 -7.193853051041415592e-01 -6.915103561553596068e-01
2.412307692307692708e+00 -6.690212997193278888e-02 -7.401782107278804812e-01 -6.690672325192449366e-01
2.527179487179487261e+00 -6.828243962851809901e-02 -7.596631476067645661e-01 -6.467145610011958423e-01
2.642051282051282257e+00 -6.965239298998721074e-02 -7.779017053825765249e-01 -6.245057931671477158e-01
2.756923076923077254e+00 -7.102425012557106454e-02 -7.949542882438294100e-01 -6.024889598709806116e-01
2.871794871794872250e+00 -7.240738176508719481e-02 -8.108819551209029974e-01 -5.807039369651760818e-01
2.986666666666667247e+00 -7.380757759316292077e-02 -8.257406928084436437e-01 -5.591904184406041312e-01
3.101538461538461799e+00 -7.523649124766748630e-02 -8.395978923422234841e-01 -5.379626175522714826e-01
3.216410256410256796e+00 -7.669789385583242192e-02 -8.525009400765681811e-01 -5.170573249923213766e-01
3.331282051282051793e+00 -7.819591022503133426e-02 -8.645112874375266987e-01 -4.964817390384417273e-01
3.446153846153846345e+00 -7.973839875083518769e-02 -8.756807625521367822e-01 -4.762491679088347030e-01
3.561025641025641342e+00 -8.133087262835496378e-02 -8.860544785335964235e-01 -4.563779538406651515e-01
3.675897435897436338e+00 -8.297142776360039162e-02 -8.956818149061421819e-01 -4.368726777570327569e-01
3.790769230769231335e+00 -8.466464292894251842e-02 -9.046061402399079299e-01 -4.177407987406391854e-01
3.905641025641026332e+00 -8.640750718468641345e-02 -9.128671403329329248e-01 -3.989923757941122862e-01
4.020512820512821328e+00 -8.819687972156740885e-02 -9.205082091759652085e-01 -3.806223637415913630e-01
4.135384615384616325e+00 -9.002804585797138937e-02 -9.275674581135339158e-01 -3.626304840730719126e-01
4.250256410256410433e+00 -9.190605548846472739e-02 -9.340818477584512669e-01 -3.450095109548660943e-01
4.365128205128205430e+00 -9.383049848571611840e-02 -9.400840724702421713e-01 -3.277572898081991259e-01
4.480000000000000426e+00 -9.580365179306585266e-02 -9.456050092147083586e-01 -3.108694010977259836e-01
