0.000000000000000000e+00 -2.510644471147028799e-09 -1.111898641388007824e-10 -1.000000000000000000e+00
1.148717948717948856e-01 -3.470868200190666553e-01 -1.363041095743247610e-01 -9.278726769568517163e-01
2.297435897435897711e-01 -6.276777886285290764e-01 -2.825743749045859787e-01 -7.253712039028084035e-01
3.446153846153846567e-01 -7.890530586901154386e-01 -4.384387020523917156e-01 -4.302951912467169460e-01
4.594871794871795423e-01 -8.035545033769998513e-01 -5.877269948979759739e-01 -9.414066996360756501e-02
5.743589743589744279e-01 -6.750795736965260474e-01 -7.005922212992155007e-01 2.311360641017146667e-01
6.892307692307693134e-01 -4.388801079001538596e-01 -7.430826205108658211e-01 5.051736349420562489e-01
8.041025641025641990e-01 -1.539278167338751502e-01 -6.906997304147312056e-01 7.065627050595815195e-01
9.189743589743590846e-01 1.112012007074881792e-01 -5.406425338890090693e-01 8.338664077797992569e-01
1.033846153846154081e+00 2.958282962741789479e-01 -3.174423135186391631e-01 9.009500254650714135e-01
1.148717948717948856e+00 3.634470450208061032e-01 -6.896432845728528438e-02 9.290565003550002032e-01
1.263589743589743630e+00 3.117016601950938215e-01 1.467284197426387826e-01 9.387805872036344423e-01
1.378461538461538627e+00 1.724274877120694771e-01 2.794539273811511570e-01 9.445478336204818914e-01
1.493333333333333623e+00 1.050375835514455458e-03 3.035472868453734652e-01 9.528140423419459992e-01
1.608205128205128398e+00 -1.417158537087530867e-01 2.266979108054836267e-01 9.635983409528650068e-01
1.723076923076923173e+00 -2.099145191857942350e-01 8.731888246972099865e-02 9.738115140602873199e-01
1.837948717948718169e+00 -1.871632764052148512e-01 -5.907115039125868106e-02 9.805500577224361969e-01
1.952820512820513166e+00 -9.083208246575061318e-02 -1.595999763035708396e-01 9.829930962285484686e-01
2.067692307692308162e+00 3.602490482732807059e-02 -1.826512227158918200e-01 9.825165440097756164e-01
2.182564102564102715e+00 1.420339520964282176e-01 -1.282465797534358964e-01 9.815177709566913489e-01
2.297435897435897711e+00 1.874678980668628425e-01 -2.618975852924204650e-02 9.819205016960435017e-01
2.412307692307692708e+00 1.590684140425948079e-01 7.718966006723781970e-02 9.842444410954376277e-01
2.527179487179487261e+00 7.393446860627050921e-02 1.383232644872027239e-01 9.876227569218025693e-01
2.642051282051282257e+00 -2.889716449924534941e-02 1.338552890297006193e-01 9.905787530786359651e-01
2.756923076923077254e+00 -1.055271792048494139e-01 6.922938165673055144e-02 9.920030109873108071e-01
2.871794871794872250e+00 -1.256783984644211649e-01 -2.495887695274453394e-02 9.917563407853968727e-01
2.986666666666667247e+00 -8.482085257942996448e-02 -1.070335767870413402e-01 9.906299984400512848e-01
3.101538461538461799e+00 -4.982691084235046919e-03 -1.425298327622120942e-01 9.897772024097242216e-01
3.216410256410256796e+00 7.589420661994335238e-02 -1.187950296499676178e-01 9.900132929344236388e-01
3.331282051282051793e+00 1.211526127002407333e-01 -4.966339976335525791e-02 9.913900372867942012e-01
3.446153846153846345e+00 1.115433991319055990e-01 3.163984614582622534e-02 9.932551348334632824e-01
3.561025641025641342e+00 5.313622824727555483e-02 8.793855471010166014e-02 9.947071230272253040e-01
3.675897435897436338e+00 -2.626424893100532537e-02 9.487369870343974332e-02 9.951422636126584509e-01
3.790769230769231335e+00 -9.035246559744136707e-02 5.142383768328237514e-02 9.945807749018729105e-01
3.905641025641026332e+00 -1.110832885869000586e-01 -2.035793498825754638e-02 9.936019633483801350e-01
4.020512820512821328e+00 -8.120813230394977045e-02 -8.613253468027197435e-02 9.929678613713769364e-01
4.135384615384616325e+00 -1.701062418601285639e-02 -1.154323161217308685e-01 9.931690616057767818e-01
4.250256410256410433e+00 4.990512170234198686e-02 -9.560814492768136830e-02 9.941666949960749067e-01
4.365128205128205430e+00 8.767828689052381552e-02 -3.723964528403448521e-02 9.954520142532439220e-01
4.480000000000000426e+00 7.907693981316403498e-02 3.140612097212943515e-02 9.963732149503629065e-01
