0.000000000000000000e+00 5.634859223774648431e-09 7.388030531930645193e-10 -1.000000000000000000e+00
1.148717948717948856e-01 -3.493690811510350436e-01 1.315626997583841939e-01 -9.276990430676310684e-01
2.297435897435897711e-01 -6.535384839894300413e-01 2.244752507850769907e-01 -7.228301967643492310e-01
3.446153846153846567e-01 -8.731410555298501075e-01 2.484560255537586748e-01 -4.193721446909743356e-01
4.594871794871795423e-01 -9.798106289784122014e-01 1.882118982479287772e-01 -6.725431278403662394e-02
5.743589743589744279e-01 -9.598675041708226718e-01 4.716716580843582918e-02 2.764174280912090609e-01
6.892307692307693134e-01 -8.161227679854563544e-01 -1.525606419809758529e-01 5.573598536140276227e-01
8.041025641025641990e-01 -5.675281657124291446e-01 -3.739720498445851526e-01 7.335135876459359938e-01
9.189743589743590846e-01 -2.466909269826078888e-01 -5.721048585570182032e-01 7.821934804953316611e-01
1.033846153846154081e+00 1.044467777758916194e-01 -7.027561383061148303e-01 7.037111051258219119e-01
1.148717948717948856e+00 4.401964980291959706e-01 -7.313813791502994377e-01 5.208538471272502468e-01
1.263589743589743630e+00 7.173024860215242438e-01 -6.404586745242936141e-01 2.743479065052748522e-01
1.378461538461538627e+00 9.008564749688363626e-01 -4.338241799374606966e-01 1.516080560677313810e-02
1.493333333333333623e+00 9.691169080192383323e-01 -1.371043319829923224e-01 -2.049175220810540432e-01
1.608205128205128398e+00 9.165707703191560141e-01 2.059616770080459069e-01 -3.427177960405843327e-01
1.723076923076923173e+00 7.547454164937168475e-01 5.407242442948838601e-01 -3.714225103565177433e-01
1.837948717948718169e+00 5.106178505405564172e-01 8.111147502036478718e-01 -2.852004850541045577e-01
1.952820512820513166e+00 2.227942151591804643e-01 9.697161293052872777e-01 -9.994592852768628688e-02
2.067692307692308162e+00 -6.406209956664449257e-02 9.865975070912064160e-01 1.499914708982037770e-01
2.182564102564102715e+00 -3.057538776733032537e-01 8.552284138871630859e-01 4.184227671082354494e-01
2.297435897435897711e+00 -4.651151877042788430e-01 5.943437097800298163e-01 6.560539559345358596e-01
2.412307692307692708e+00 -5.176056805512619929e-01 2.453255148303126465e-01 8.196877940491237302e-01
2.527179487179487261e+00 -4.550941325322672149e-01 -1.345323447261426997e-01 8.802165138337897377e-01
2.642051282051282257e+00 -2.871784926184800524e-01 -4.817241970306606613e-01 8.279244792146386311e-01
2.756923076923077254e+00 -3.983971776673778109e-02 -7.375087255964559718e-01 6.741494748882471688e-01
2.871794871794872250e+00 2.484519274601163508e-01 -8.582695073230206528e-01 4.490258903303248061e-01
2.986666666666667247e+00 5.326854913170775419e-01 -8.233501835658781909e-01 1.957471754854731849e-01
3.101538461538461799e+00 7.683375542467616448e-01 -6.389236238065278961e-01 -3.754584029959756597e-02
3.216410256410256796e+00 9.184397908955744816e-01 -3.371863686199963461e-01 -2.067609481195489263e-01
3.331282051282051793e+00 9.595421700781073815e-01 2.904535273594810452e-02 -2.800217656041278369e-01
3.446153846153846345e+00 8.856016642570335717e-01 3.954387563641306169e-01 -2.435457991938589362e-01
3.561025641025641342e+00 7.091243411332517343e-01 6.973387065476881475e-01 -1.041020737830819082e-01
3.675897435897436338e+00 4.593116694389199894e-01 8.811281736164690015e-01 1.123467882110762567e-01
3.790769230769231335e+00 1.774655369785986536e-01 9.136972403241029328e-01 3.655698166562595941e-01
3.905641025641026332e+00 -8.967653353525245619e-02 7.883604204670009441e-01 6.086281328925182699e-01
4.020512820512821328e+00 -2.975708884168274393e-01 5.261255834259729314e-01 7.966372776862379324e-01
4.135384615384616325e+00 -4.112697970269552084e-01 1.720867740479154750e-01 8.951171385462746155e-01
4.250256410256410433e+00 -4.113104100037453525e-01 -2.124858581167750060e-01 8.863771827822080063e-01
4.365128205128205430e+00 -2.970857399921368325e-01 -5.608833066924545641e-01 7.727461999796035874e-01
4.480000000000000426e+00 -8.718068743454526759e-02 -8.127287026527459934e-01 5.760669187255975654e-01
