0.000000000000000000e+00 -4.011150564974661889e-09 -5.748748203910352283e-11 -1.000000000000000000e+00
1.148717948717948856e-01 1.010674566150700920e-02 7.012433052137236056e-02 -9.974864112461240273e-01
2.297435897435897711e-01 1.407491656953961667e-02 1.372652563834483586e-01 -9.904330779004806296e-01
3.446153846153846567e-01 6.655903795769482767e-03 1.979714552977189235e-01 -9.801833686786388666e-01
4.594871794871795423e-01 -1.580625407154379047e-02 2.480855668446045048e-01 -9.686068251356659831e-01
5.743589743589744279e-01 -5.469674486962634169e-02 2.827356391977780548e-01 -9.576343252139263296e-01
6.892307692307693134e-01 -1.086672349438046609e-01 2.966863011195923772e-01 -9.487690815976228542e-01
8.041025641025641990e-01 -1.734616036948460338e-01 2.850349685485470963e-01 -9.426875761599775583e-01
9.189743589743590846e-01 -2.420797075638095042e-01 2.441606357619516277e-01 -9.390295578657507081e-01
1.033846153846154081e+00 -3.053454543023415013e-01 1.727597041168740244e-01 -9.364355795034352559e-01
1.148717948717948856e+00 -3.528554393072811379e-01 7.276561686410285001e-02 -9.328404797627727341e-01
1.263589743589743630e+00 -3.743001853969297743e-01 -5.004366480523816940e-02 -9.259523616672343804e-01
1.378461538461538627e+00 -3.609782206867452325e-01 -1.859684412589487912e-01 -9.138394837123924308e-01
1.493333333333333623e+00 -3.073649579295014700e-01 -3.219390798126218201e-01 -8.954737569444156664e-01
1.608205128205128398e+00 -2.124787665597064612e-01 -4.427138471717945722e-01 -8.711184592978266084e-01
1.723076923076923173e+00 -8.078315561078336371e-02 -5.326687932864746511e-01 -8.424529631714081646e-01
1.837948717948718169e+00 7.755593838656935080e-02 -5.779232275226640070e-01 -8.123900747772112574e-01
1.952820512820513166e+00 2.472489068235455001e-01 -5.685611713010229051e-01 -7.845973606008197487e-01
2.067692307692308162e+00 4.093166077582010565e-01 -5.005698595388926586e-01 -7.628078702245167930e-01
2.182564102564102715e+00 5.432868970949643606e-01 -3.771661817518687787e-01 -7.500471502838572668e-01
2.297435897435897711e+00 6.299182321439891208e-01 -2.092029589924554456e-01 -7.479457030264771156e-01
2.412307692307692708e+00 6.540942600226233861e-01 -1.451553399839794478e-02 -7.562644337235198133e-01
2.527179487179487261e+00 6.074644646296418760e-01 1.838572405364171380e-01 -7.727676747983625027e-01
2.642051282051282257e+00 4.903631785260882392e-01 3.604108876112642745e-01 -7.934954904849215174e-01
2.756923076923077254e+00 3.126532076376220548e-01 4.905432419678874556e-01 -8.133899123960931510e-01
2.871794871794872250e+00 9.322789862139838069e-02 5.541254804364464936e-01 -8.271891362318887220e-01
2.986666666666667247e+00 -1.419092770311891072e-01 5.387307787750883481e-01 -8.304332605178459392e-01
3.101538461538461799e+00 -3.627859963398028520e-01 4.420089424892006402e-01 -8.203673119167750327e-01
3.216410256410256796e+00 -5.394807686305838068e-01 2.727606793519966599e-01 -7.965860731571541287e-01
3.331282051282051793e+00 -6.464770408777854582e-01 5.044835265777178335e-02 -7.612545270458169755e-01
3.446153846153846345e+00 -6.666661824500292877e-01 -1.969135393664682709e-01 -7.188643933727255630e-01
3.561025641025641342e+00 -5.944133199669380252e-01 -4.362899600561183644e-01 -6.755053002409766583e-01
3.675897435897436338e+00 -4.370442862821359853e-01 -6.341528819021231556e-01 -6.378283460832860907e-01
3.790769230769231335e+00 -2.145179676602610996e-01 -7.613495260066591719e-01 -6.118095149116136167e-01
3.905641025641026332e+00 4.288225131192840989e-02 -7.976183738126492173e-01 -6.016209441300762739e-01
4.020512820512821328e+00 2.985432202480014507e-01 -7.350401814201581452e-01 -6.087444001292234841e-01
4.135384615384616325e+00 5.147166181200377721e-01 -5.797789446558927473e-01 -6.315897347457425370e-01
4.250256410256410433e+00 6.581326396116615740e-01 -3.518198391676767289e-01 -6.656331562552950665e-01
4.365128205128205430e+00 7.052222319162637643e-01 -8.255357877347718754e-02 -7.041525715815131203e-01
4.480000000000000426e+00 6.460862737320006710e-01 1.894810727250380578e-01 -7.393610848832555815e-01
