0.000000000000000000e+00 -1.787067405808677857e-09 -4.672311779669150955e-09 -1.000000000000000000e+00
1.148717948717948856e-01 -1.568121954058798034e-02 -6.452616144275030718e-03 -9.998561492521088612e-01
2.297435897435897711e-01 -3.135333242129766801e-02 -1.291670692420055985e-02 -9.994247630001389382e-01
3.446153846153846567e-01 -4.700832780471031480e-02 -1.938076271523068300e-02 -9.987062683527071494e-01
4.594871794871795423e-01 -6.263980943130656454e-02 -2.584512751616371493e-02 -9.977012422777361556e-01
5.743589743589744279e-01 -7.823439393928863228e-02 -3.231047165902380808e-02 -9.964109477143745508e-01
6.892307692307693134e-01 -9.378923594778537653e-02 -3.877503195152320892e-02 -9.948363273051117339e-01
8.041025641025641990e-01 -1.092908550127759393e-01 -4.524091892565863804e-02 -9.929792984490306562e-01
9.189743589743590846e-01 -1.247339031497310541e-01 -5.170793058642824541e-02 -9.908414289490961036e-01
1.033846153846154081e+00 -1.401066023294058605e-01 -5.817614424097394821e-02 -9.884252855154068707e-01
1.148717948717948856e+00 -1.554007307767165391e-01 -6.464362492032733887e-02 -9.857335122822794560e-01
1.263589743589743630e+00 -1.706096284041737632e-01 -7.111355586502822457e-02 -9.827684528408542342e-01
1.378461538461538627e+00 -1.857198871742756219e-01 -7.758146373656676920e-02 -9.795344437779480717e-01
1.493333333333333623e+00 -2.007244090119383317e-01 -8.405120362964063618e-02 -9.760345607584242078e-01
1.608205128205128398e+00 -2.156152521351664131e-01 -9.051993920228759705e-02 -9.722728164163056963e-01
1.723076923076923173e+00 -2.303785031767050795e-01 -9.698466320392555573e-02 -9.682550357813407560e-01
1.837948717948718169e+00 -2.450109819196100991e-01 -1.034515819388449748e-01 -9.639841020213306688e-01
1.952820512820513166e+00 -2.594989813506553000e-01 -1.099092193041310561e-01 -9.594675958362125501e-01
2.067692307692308162e+00 -2.738368622753055703e-01 -1.163611806756864320e-01 -9.547099766327866721e-01
2.182564102564102715e+00 -2.880112466638768964e-01 -1.228080335969612968e-01 -9.497185181836668155e-01
2.297435897435897711e+00 -3.020204238336873792e-01 -1.292434426855848528e-01 -9.444983927997955275e-01
2.412307692307692708e+00 -3.158502957523778853e-01 -1.356640411726139084e-01 -9.390586457049002744e-01
2.527179487179487261e+00 -3.294972554940494014e-01 -1.420692310370159361e-01 -9.334050771962169035e-01
2.642051282051282257e+00 -3.429533588534751098e-01 -1.484550773492516462e-01 -9.275457364691607198e-01
2.756923076923077254e+00 -3.562132461127364147e-01 -1.548141527895504355e-01 -9.214887811678010854e-01
2.871794871794872250e+00 -3.692681072139738507e-01 -1.611527030546618666e-01 -9.152418296646958051e-01
2.986666666666667247e+00 -3.821153383949177362e-01 -1.674568487669687855e-01 -9.088138812993163951e-01
3.101538461538461799e+00 -3.947499459824157508e-01 -1.737272753074980136e-01 -9.022127122017651324e-01
3.216410256410256796e+00 -4.071681763361150730e-01 -1.799607568139655611e-01 -8.954465540725287109e-01
3.331282051282051793e+00 -4.193653802552410048e-01 -1.861513895842406008e-01 -8.885249188472539306e-01
3.446153846153846345e+00 -4.313404567072094964e-01 -1.922952999403764740e-01 -8.814556064559161408e-01
3.561025641025641342e+00 -4.430892830413325489e-01 -1.983922606919059639e-01 -8.742472896552102579e-01
3.675897435897436338e+00 -4.546092686792441162e-01 -2.044347917092215472e-01 -8.669098100095380399e-01
3.790769230769231335e+00 -4.659048497105898745e-01 -2.104202328464840621e-01 -8.594484596641281948e-01
3.905641025641026332e+00 -4.769678615746588690e-01 -2.163472203412095674e-01 -8.518750309755671601e-01
4.020512820512821328e+00 -4.878028262429970341e-01 -2.222083477753209468e-01 -8.441962172469136272e-01
4.135384615384616325e+00 -4.984117376080464679e-01 -2.280012693867995155e-01 -8.364188135992255413e-01
4.250256410256410433e+00 -5.087905029628071452e-01 -2.337267966783340700e-01 -8.285524429987033423e-01
4.365128205128205430e+00 -5.189444914453505975e-01 -2.393818850540826437e-01 -8.206021831582340775e-01
4.480000000000000426e+00 -5.288724983894218523e-01 -2.449587785886653823e-01 -8.125785922949578799e-01
