0.000000000000000000e+00 -2.260058745864385380e-09 5.322542442069584198e-09 -1.000000000000000000e+00
1.148717948717948856e-01 -3.183714091359771819e-02 -3.375149845516525055e-02 -9.989228519155496366e-01
2.297435897435897711e-01 -6.084254657315374404e-02 -6.982702384163125275e-02 -9.957015919730928255e-01
3.446153846153846567e-01 -8.393715908425664063e-02 -1.101281809404085904e-01 -9.903662368690023809e-01
4.594871794871795423e-01 -9.760644354409760137e-02 -1.557207836585988159e-01 -9.829662368417693141e-01
5.743589743589744279e-01 -9.790396349278002175e-02 -2.063398738763248530e-01 -9.735691581983948462e-01
6.892307692307693134e-01 -8.067448963674163365e-02 -2.599035188017212450e-01 -9.622575839285343324e-01
8.041025641025641990e-01 -4.214449080517465585e-02 -3.120450891865973464e-01 -9.491307591814711619e-01
9.189743589743590846e-01 2.018356952494514134e-02 -3.559137824175586662e-01 -9.342992598965702555e-01
1.033846153846154081e+00 1.062817849530517389e-01 -3.823527030650241687e-01 -9.178819904146209296e-01
1.148717948717948856e+00 2.122345973691270316e-01 -3.807101047278799721e-01 -9.000070183792510115e-01
1.263589743589743630e+00 3.290179076500137634e-01 -3.404738796786195287e-01 -8.808068631587523400e-01
1.378461538461538627e+00 4.419352829200459132e-01 -2.537281858956953462e-01 -8.604131856639686271e-01
1.493333333333333623e+00 5.311921790030779134e-01 -1.181987807961002723e-01 -8.389631540159976364e-01
1.608205128205128398e+00 5.741260160636225685e-01 5.960964926313622181e-02 -8.165909996527638270e-01
1.723076923076923173e+00 5.493049794852491452e-01 2.621779098877634051e-01 -7.934237559217499625e-01
1.837948717948718169e+00 4.421676737624277154e-01 4.606696403016781183e-01 -7.695878024786437788e-01
1.952820512820513166e+00 2.512537129139275072e-01 6.176975274116373038e-01 -7.451946728253550090e-01
2.067692307692308162e+00 -6.633678710329493633e-03 6.935557505889136110e-01 -7.203679022795081988e-01
2.182564102564102715e+00 -2.944504461429273134e-01 6.557301338936470936e-01 -6.952050824666697881e-01
2.297435897435897711e+00 -5.580849146636297498e-01 4.897889723345951185e-01 -6.698066135100477769e-01
2.412307692307692708e+00 -7.357368592122429662e-01 2.088711503439573680e-01 -6.442489255671508541e-01
2.527179487179487261e+00 -7.727404742289497586e-01 -1.419839777509259715e-01 -6.186316116099770390e-01
2.642051282051282257e+00 -6.390048972564346119e-01 -4.898955305147216222e-01 -5.930153241947516696e-01
2.756923076923077254e+00 -3.439479542782015731e-01 -7.481102124797263109e-01 -5.674704984961612686e-01
2.871794871794872250e+00 5.685717626073036324e-02 -8.384199070021474132e-01 -5.420432762520572822e-01
2.986666666666667247e+00 4.682152186020220874e-01 -7.167111297072191745e-01 -5.168085271392089952e-01
3.101538461538461799e+00 7.765517189172643775e-01 -3.938256236723541859e-01 -4.917926503863927490e-01
3.216410256410256796e+00 8.823782711417541558e-01 5.718400152046909657e-02 -4.670434984549671209e-01
3.331282051282051793e+00 7.352002597837912212e-01 5.134119708691904371e-01 -4.425828256794042681e-01
3.446153846153846345e+00 3.586346709189339732e-01 8.344254530566815875e-01 -4.184566913915929720e-01
3.561025641025641342e+00 -1.457212011348628655e-01 9.071837035679040095e-01 -3.946816276445417326e-01
3.675897435897436338e+00 -6.219586713272732270e-01 6.894315799856395310e-01 -3.712706282455704443e-01
3.790769230769231335e+00 -9.075681028563769015e-01 2.345884092716285230e-01 -3.482509004666416996e-01
3.905641025641026332e+00 -8.914697894035562564e-01 -3.150204905607461026e-01 -3.256283779123635980e-01
4.020512820512821328e+00 -5.614340398940436128e-01 -7.698831161674464241e-01 -3.034168416547020075e-01
4.135384615384616325e+00 -2.013627503378037642e-02 -9.593077989518525861e-01 -2.816256649425487035e-01
4.250256410256410433e+00 5.418774539927427858e-01 -7.991418141938581021e-01 -2.602519251292241820e-01
4.365128205128205430e+00 9.118602925937727699e-01 -3.335146693327193934e-01 -2.393084230600551476e-01
4.480000000000000426e+00 9.375468286148804786e-01 2.704169031186303696e-01 -2.187929686803532781e-01
