0.000000000000000000e+00 3.639050376876431382e-09 3.268500157067717855e-09 -1.000000000000000000e+00
1.148717948717948856e-01 4.639443404357196377e-02 4.349820204521959166e-04 -9.989229208962723261e-01
2.297435897435897711e-01 9.260051654058787385e-02 8.833555165212517157e-04 -9.957025968992286868e-01
3.446153846153846567e-01 1.384261824901816818e-01 1.336077263075441390e-03 -9.903713253827728380e-01
4.594871794871795423e-01 1.836878302572069188e-01 1.793262328594960597e-03 -9.829822842033774100e-01
5.743589743589744279e-01 2.282130058792856131e-01 2.256069136692212540e-03 -9.736077146214184852e-01
6.892307692307693134e-01 2.718405121237814637e-01 2.716669132122477570e-03 -9.623373826286459876e-01
8.041025641025641990e-01 3.144243029433276271e-01 3.173126421637306738e-03 -9.492759345850508845e-01
9.189743589743590846e-01 3.558350746231737083e-01 3.616357497330607851e-03 -9.345402388247490144e-01
1.033846153846154081e+00 3.959585353185249845e-01 4.034246369010230371e-03 -9.182577657362515078e-01
1.148717948717948856e+00 4.346993484185076584e-01 4.418982091702716719e-03 -9.005627873265392713e-01
1.263589743589743630e+00 4.719817547922802170e-01 4.755709603380970513e-03 -8.815932281019686068e-01
1.378461538461538627e+00 5.077485748828042267e-01 5.034820265700512554e-03 -8.614880582179325064e-01
1.493333333333333623e+00 5.419586244196415992e-01 5.238006248808588228e-03 -8.403860338683925013e-01
1.608205128205128398e+00 5.745862422289269578e-01 5.357018522684095507e-03 -8.184234028952547257e-01
1.723076923076923173e+00 6.056235078253444648e-01 5.378638599936230724e-03 -7.957297310065210016e-01
1.837948717948718169e+00 6.350697662873933114e-01 5.290959923961169320e-03 -7.724329263086112674e-01
1.952820512820513166e+00 6.629409941085314673e-01 5.083054986282198318e-03 -7.486503211319371909e-01
2.067692307692308162e+00 6.892640233054712073e-01 4.750251936536331598e-03 -7.244902566673085964e-01
2.182564102564102715e+00 7.140703578064060419e-01 4.282254480121289175e-03 -7.000560498726545733e-01
2.297435897435897711e+00 7.374037898679366432e-01 3.676837369689989199e-03 -6.754369916796489903e-01
2.412307692307692708e+00 7.593044861736895079e-01 2.926869530527231866e-03 -6.507233334619240139e-01
2.527179487179487261e+00 7.798262741115591368e-01 2.033832310163907753e-03 -6.259866665323015056e-01
2.642051282051282257e+00 7.990172850052025266e-01 9.918701875502589083e-04 -6.013007640657568320e-01
2.756923076923077254e+00 8.169357536621995042e-01 -1.947934796918127098e-04 -5.767216965654443639e-01
2.871794871794872250e+00 8.336366866556299549e-01 -1.528858740219352086e-03 -5.523036228577985485e-01
2.986666666666667247e+00 8.491766438163113051e-01 -3.003978637475479552e-03 -5.280923723756552057e-01
3.101538461538461799e+00 8.636111458541390062e-01 -4.617643761117895540e-03 -5.041287764126638482e-01
3.216410256410256796e+00 8.769926579931314192e-01 -6.368221837937615426e-03 -4.804523929859795817e-01
3.331282051282051793e+00 8.893816319748583110e-01 -8.251000732818980499e-03 -4.570812191199188912e-01
3.446153846153846345e+00 9.008245423514948946e-01 -1.026196169093773758e-02 -4.340514731962368811e-01
3.561025641025641342e+00 9.113760986198519154e-01 -1.239349519118065901e-02 -4.113765998623405418e-01
3.675897435897436338e+00 9.210848608964713469e-01 -1.463755622123374955e-02 -3.890745222185527652e-01
3.790769230769231335e+00 9.299984934568161776e-01 -1.699702162807092964e-02 -3.671571048906714374e-01
3.905641025641026332e+00 9.381620162559720644e-01 -1.946033223478810248e-02 -3.456351467999156379e-01
4.020512820512821328e+00 9.456188827060210134e-01 -2.202231479506816525e-02 -3.245152709215582965e-01
4.135384615384616325e+00 9.524096018574815803e-01 -2.467892391144232977e-02 -3.038042443366867351e-01
4.250256410256410433e+00 9.585733001016285559e-01 -2.742113687065173000e-02 -2.835054435237300829e-01
4.365128205128205430e+00 9.641481225234078689e-01 -3.024191745700355316e-02 -2.636167130955267557e-01
4.480000000000000426e+00 9.691680690645452234e-01 -3.314286840677027612e-02 -2.441406878848548234e-01
