0.000000000000000000e+00 2.018249856844495730e-09 3.733359161716337319e-09 -1.000000000000000000e+00
1.148717948717948856e-01 1.935728270253138372e-01 1.917485064635210401e-03 -9.810822784886159553e-01
2.297435897435897711e-01 3.741423996373418603e-01 2.514778303645093249e-02 -9.270264057306801808e-01
3.446153846153846567e-01 5.272456746695328711e-01 8.649659112784507942e-02 -8.452925449143898762e-01
4.594871794871795423e-01 6.364566902706262352e-01 1.944257371582717442e-01 -7.463961740234953401e-01
5.743589743589744279e-01 6.844575094080798117e-01 3.462637861513874760e-01 -6.415622466970763993e-01
6.892307692307693134e-01 6.558008847146954423e-01 5.271157566343276368e-01 -5.404208827108802904e-01
8.041025641025641990e-01 5.410096219408768725e-01 7.109365919888226415e-01 -4.492846419398363045e-01
9.189743589743590846e-01 3.409804559238516219e-01 8.639885210695543716e-01 -3.704510174501207675e-01
1.033846153846154081e+00 7.041182947428772931e-02 9.504878048613459862e-01 -3.026418332483729046e-01
1.148717948717948856e+00 -2.410426354832276297e-01 9.397670738303957050e-01 -2.423070022509042631e-01
1.263589743589743630e+00 -5.508746441417675666e-01 8.137204716648943625e-01 -1.853970925597756836e-01
1.378461538461538627e+00 -8.093487665781320395e-01 5.729762423751336708e-01 -1.289513509431760852e-01
1.493333333333333623e+00 -9.680386080522609404e-01 2.401503252165442248e-01 -7.214263228179655651e-02
1.608205128205128398e+00 -9.898447652930950635e-01 -1.411183681566840487e-01 -1.638126983943891113e-02
1.723076923076923173e+00 -8.583241353337963675e-01 -5.118629636322120646e-01 3.537489888432561458e-02
1.837948717948718169e+00 -5.840451337502023943e-01 -8.077661749832127924e-01 7.987855688990426473e-02
1.952820512820513166e+00 -2.059546339771083923e-01 -9.717779460795155089e-01 1.149170205606195871e-01
2.067692307692308162e+00 2.132758682624787128e-01 -9.668538206142935909e-01 1.402955121582203368e-01
2.182564102564102715e+00 5.977550854484501297e-01 -7.859284829323117672e-01 1.580540438934294190e-01
2.297435897435897711e+00 8.729850258984018785e-01 -4.564027276300986480e-01 1.719580546303295654e-01
2.412307692307692708e+00 9.817587882382379227e-01 -3.745971267948400296e-02 1.863396014054263250e-01
2.527179487179487261e+00 8.977580300133951585e-01 3.899812496097078141e-01 2.047468155513303134e-01
2.642051282051282257e+00 6.334624000635173946e-01 7.391452136420163521e-01 2.288362495291348109e-01
2.756923076923077254e+00 2.399864283512161411e-01 9.358926344485173354e-01 2.578527330517959015e-01
2.871794871794872250e+00 -2.018736256185648392e-01 9.358180874145640704e-01 2.889089548490986203e-01
2.986666666666667247e+00 -5.979856680422070969e-01 7.357241697393799296e-01 3.179625755905821083e-01
3.101538461538461799e+00 -8.613555401145363000e-01 3.763648650916769367e-01 3.411649358002118992e-01
3.216410256410256796e+00 -9.321606270472169165e-01 -6.483635785827121523e-02 3.561606738975437447e-01
3.331282051282051793e+00 -7.925549620767348147e-01 -4.900447812345495868e-01 3.628917346914865005e-01
3.446153846153846345e+00 -4.723326075000924829e-01 -8.028745393828060628e-01 3.636922323097600551e-01
3.561025641025641342e+00 -4.359963312601133900e-02 -9.309308767329624867e-01 3.625527243171668412e-01
3.675897435897436338e+00 3.948882756531418847e-01 -8.435831556970634360e-01 3.638795973447797039e-01
3.790769230769231335e+00 7.404078925507343589e-01 -5.604052931377586644e-01 3.711061887273575666e-01
3.905641025641026332e+00 9.107466928957225205e-01 -1.477829432345109384e-01 3.855887411026537315e-01
4.020512820512821328e+00 8.645247939477987975e-01 2.959886745067127345e-01 4.061599057607441776e-01
4.135384615384616325e+00 6.121430969889291029e-01 6.638971191472693434e-01 4.295346612756737459e-01
4.250256410256410433e+00 2.143052111646367996e-01 8.662249115669522492e-01 4.513387167639770214e-01
4.365128205128205430e+00 -2.320021646334773369e-01 8.529779848680041354e-01 4.675283461081105596e-01
4.480000000000000426e+00 -6.169361721065519388e-01 6.269608582860037860e-01 4.756986282262576360e-01
