0.000000000000000000e+00 3.876885385338918909e-09 5.406051051388197958e-10 -1.000000000000000000e+00
1.148717948717948856e-01 -1.014124888552869058e-02 -2.688282792771854932e-02 -9.995869650059405753e-01
2.297435897435897711e-01 -2.020681140170529216e-02 -5.375924374222003366e-02 -9.983491035764474608e-01
3.446153846153846567e-01 -3.014927250055389474e-02 -8.059081069194112823e-02 -9.962906815384668935e-01
4.594871794871795423e-01 -3.991070054768465492e-02 -1.073531844444830935e-01 -9.934188859294418306e-01
5.743589743589744279e-01 -4.943460628683343794e-02 -1.340128854518985446e-01 -9.897449615203595119e-01
6.892307692307693134e-01 -5.867010934167206371e-02 -1.605326236443611609e-01 -9.852842649759547822e-01
8.041025641025641990e-01 -6.757186301007951645e-02 -1.868676521485327369e-01 -9.800572285598331268e-01
9.189743589743590846e-01 -7.610077174883568552e-02 -2.129707383776762719e-01 -9.740890314769177216e-01
1.033846153846154081e+00 -8.422176552026200413e-02 -2.387930808418738393e-01 -9.674096937368504845e-01
1.148717948717948856e+00 -9.191011188137475363e-02 -2.642850910494698446e-01 -9.600533987725623497e-01
1.263589743589743630e+00 -9.914921114934538426e-02 -2.893978361880312766e-01 -9.520580752741325536e-01
1.378461538461538627e+00 -1.059285836628351962e-01 -3.140858204450035496e-01 -9.434644310218009977e-01
1.493333333333333623e+00 -1.122457969476083894e-01 -3.383053916542295703e-01 -9.343157328459238409e-01
1.608205128205128398e+00 -1.180999385732200424e-01 -3.620173278238152936e-01 -9.246572630190470488e-01
1.723076923076923173e+00 -1.235055913718106357e-01 -3.851855264520500088e-01 -9.145344850158806382e-01
1.837948717948718169e+00 -1.284706919366331856e-01 -4.077821355066422182e-01 -9.039930914193250455e-01
1.952820512820513166e+00 -1.330088491175901999e-01 -4.297829024891567928e-01 -8.930786401053850687e-01
2.067692307692308162e+00 -1.371407926476590766e-01 -4.511648910513660904e-01 -8.818369804644204946e-01
2.182564102564102715e+00 -1.408792937112645083e-01 -4.719230868094704823e-01 -8.703074780969894952e-01
2.297435897435897711e+00 -1.442551596168454853e-01 -4.920459847176898993e-01 -8.585303448394820958e-01
2.412307692307692708e+00 -1.472884415560979099e-01 -5.115293351762488783e-01 -8.465439664952983945e-01
2.527179487179487261e+00 -1.500013055258128947e-01 -5.303770687844246989e-01 -8.343813801456337886e-01
2.642051282051282257e+00 -1.524280551120470173e-01 -5.485844338484007210e-01 -8.220784725060351628e-01
2.756923076923077254e+00 -1.545842914995575745e-01 -5.661612910349734795e-01 -8.096647428488618070e-01
2.871794871794872250e+00 -1.564943366599573504e-01 -5.831067194788458474e-01 -7.971748172503294594e-01
2.986666666666667247e+00 -1.581779907210001945e-01 -5.994348345705685643e-01 -7.846329892028292008e-01
3.101538461538461799e+00 -1.596466489833187619e-01 -6.151579343511132114e-01 -7.720652252531351456e-01
3.216410256410256796e+00 -1.609224435457543567e-01 -6.302905514468646331e-01 -7.594923086916767208e-01
3.331282051282051793e+00 -1.620208688163388699e-01 -6.448524415091054784e-01 -7.469304405659613622e-01
3.446153846153846345e+00 -1.629565562179184912e-01 -6.588638863636917531e-01 -7.343934931507108965e-01
3.561025641025641342e+00 -1.637585856999703160e-01 -6.723377497477562859e-01 -7.218968676183935562e-01
3.675897435897436338e+00 -1.644390811803466690e-01 -6.852926182920360265e-01 -7.094530216038756887e-01
3.790769230769231335e+00 -1.650213376940292687e-01 -6.977403632607716011e-01 -6.970766718933338879e-01
3.905641025641026332e+00 -1.655135983376497810e-01 -7.096946571833435691e-01 -6.847832214326747824e-01
4.020512820512821328e+00 -1.659263541750379267e-01 -7.211654864845693513e-01 -6.725904296261659976e-01
4.135384615384616325e+00 -1.662579925012288573e-01 -7.321754258506161239e-01 -6.605045917051460824e-01
4.250256410256410433e+00 -1.665171964813966787e-01 -7.427391536359202462e-01 -6.485362446781192114e-01
4.365128205128205430e+00 -1.667040609073194013e-01 -7.528838347608880488e-01 -6.366821637352293450e-01
4.480000000000000426e+00 -1.668345989906702687e-01 -7.626267118182520344e-01 -6.249440065714045867e-01
