3.299999999999999822e+00 6.289696831000441879e-07 -8.231977549575950113e-07 9.999280068219376094e-01
3.313793103448275712e+00 2.073535085461098726e-06 -4.026565199975506019e-07 9.999332567918793879e-01
3.327586206896551602e+00 8.085919073763608247e-07 -2.305179787815893072e-06 9.999381520397219170e-01
3.341379310344827491e+00 -2.841642612386243238e-06 3.346539720304788863e-06 9.999427143996039158e-01
3.355172413793103381e+00 -2.021503316316855439e-07 4.190006964079509363e-07 9.999469641235266826e-01
3.368965517241379271e+00 -4.101244784542657421e-07 1.922732949253085308e-07 9.999509205439108817e-01
3.382758620689655160e+00 -1.448144653046729577e-06 2.089588116388593260e-06 9.999546023292509300e-01
3.396551724137931050e+00 -3.386365992858063620e-06 1.804630106810407025e-06 9.999580265463049455e-01
3.410344827586206939e+00 1.008945128522432558e-06 -7.591244586109741383e-07 9.999612096625458690e-01
3.424137931034482829e+00 -2.286824722269418696e-06 -8.449479493307487142e-07 9.999641671665738807e-01
3.437931034482758719e+00 -1.548255870916714611e-06 2.562934252744825088e-06 9.999669137324980195e-01
3.451724137931034608e+00 2.209894601622190604e-08 1.171959692628313861e-06 9.999694632130687877e-01
3.465517241379310498e+00 1.809094466032436077e-06 1.158154371355035506e-06 9.999718283656866546e-01
3.479310344827586388e+00 -5.714580070897563556e-07 -3.764855006101847871e-07 9.999740216412786875e-01
3.493103448275862277e+00 1.015399256032892090e-06 1.901233434562495576e-06 9.999760544870539558e-01
3.506896551724137723e+00 -2.499504278882084456e-06 2.692692365432799752e-06 9.999779377066312369e-01
3.520689655172413612e+00 -1.169845679843961400e-06 2.351276246087662255e-06 9.999796814955136393e-01
3.534482758620689502e+00 1.003281404641114240e-06 -3.980202625092395537e-07 9.999812954074039917e-01
3.548275862068965392e+00 -2.746569874958838625e-06 -9.672532755237774912e-07 9.999827883864881306e-01
3.562068965517241281e+00 -3.732729382801900837e-06 -7.232261108591554403e-07 9.999841688826913710e-01
3.575862068965517171e+00 -1.928725502966666003e-06 1.779082543671520024e-06 9.999854447750770037e-01
3.589655172413793061e+00 -1.207575880714503262e-06 1.147942860960373042e-06 9.999866233750317468e-01
3.603448275862068950e+00 1.410084590250522764e-06 -1.727905889447096265e-06 9.999877116904389851e-01
3.617241379310344840e+00 1.329374120348217430e-07 -6.483064733134681305e-07 9.999887161325281548e-01
3.631034482758620729e+00 -2.975421745297062847e-06 9.350586269550609902e-07 9.999896427039888236e-01
3.644827586206896619e+00 -3.668388642487096023e-07 -1.425141639985826579e-06 9.999904971189054192e-01
3.658620689655172509e+00 1.709973495719005007e-07 9.830438845717304053e-07 9.999912846032523728e-01
3.672413793103448398e+00 -8.430338385602228780e-07 1.019220204129874016e-07 9.999920100868988637e-01
3.686206896551724288e+00 7.084761275197046697e-07 1.983301492786146145e-06 9.999926781178504198e-01
3.700000000000000178e+00 -7.879486737401025174e-07 1.010273097644545504e-06 9.999932930328973013e-01
