8.000000000000000444e-01 -7.836389195715933731e-01 -1.123496577352399994e-01 5.798696103595638585e-01
8.517241379310345195e-01 -7.013070060246846538e-01 -2.008029615162637560e-01 6.593829805346625994e-01
9.034482758620689946e-01 -6.059655804698950154e-01 -2.731235028372572260e-01 7.277673479966989545e-01
9.551724137931034697e-01 -5.024687887842326228e-01 -3.263162972548594998e-01 7.855571642463290427e-01
1.006896551724137945e+00 -3.960904036053675692e-01 -3.589064027055912653e-01 8.335392519061588512e-01
1.058620689655172420e+00 -2.920581717578391023e-01 -3.709585001409238525e-01 8.727000645812311719e-01
1.110344827586206895e+00 -1.951590090694516333e-01 -3.640405348596842949e-01 9.040984697928202696e-01
1.162068965517241370e+00 -1.093345763438478002e-01 -3.409117228957808665e-01 9.288423692587828295e-01
1.213793103448275845e+00 -3.741363069070845898e-02 -3.052371155454785545e-01 9.480018143885581283e-01
1.265517241379310320e+00 1.904190408938589985e-02 -2.611291587827652694e-01 9.625847618337507461e-01
1.317241379310344795e+00 5.970883318421216224e-02 -2.127803809936613944e-01 9.734911699264294782e-01
1.368965517241379271e+00 8.543521743413451386e-02 -1.640341688123186925e-01 9.815112779163721601e-01
1.420689655172413746e+00 9.796600107491494625e-02 -1.181487823639826018e-01 9.873065211706170130e-01
1.472413793103448221e+00 9.969042598661266574e-02 -7.754856263384901638e-02 9.914230830375486692e-01
1.524137931034482696e+00 9.330697606358992480e-02 -4.377579319268015690e-02 9.942972158207457056e-01
1.575862068965517171e+00 8.154520829824404848e-02 -1.749595501190449182e-02 9.962693865729945752e-01
1.627586206896551646e+00 6.690456886716006357e-02 1.378038195290781642e-03 9.975994814048004811e-01
1.679310344827586121e+00 5.149561965885815495e-02 1.353314853337791307e-02 9.984805596819634754e-01
1.731034482758620596e+00 3.690285377361202795e-02 2.005139065416398220e-02 9.990544440316118102e-01
1.782758620689655071e+00 2.418855925109643368e-02 2.219789633346455973e-02 9.994218954156878221e-01
1.834482758620689546e+00 1.392924433102769866e-02 2.129174295275678211e-02 9.996524924664974554e-01
1.886206896551724022e+00 6.268842286577437292e-03 1.850041760336850610e-02 9.997949229210861821e-01
1.937931034482758497e+00 1.041081988974843983e-03 1.482342271422492502e-02 9.998811291504342558e-01
1.989655172413792972e+00 -2.118741366532951066e-03 1.100359484265495819e-02 9.999322743018406179e-01
2.041379310344827225e+00 -3.667095126290320639e-03 7.515465065440561643e-03 9.999621882550125962e-01
2.093103448275861922e+00 -4.084380799589043716e-03 4.642678211702872156e-03 9.999792637820719143e-01
2.144827586206896619e+00 -3.787063312376230152e-03 2.473473490640659949e-03 9.999888630127286016e-01
2.196551724137930872e+00 -3.124281552315832412e-03 9.862878137244547594e-04 9.999941314249471969e-01
2.248275862068965125e+00 -2.345270797687691502e-03 6.655460935629819476e-05 9.999969739786062073e-01
2.299999999999999822e+00 -1.608964090036851509e-03 -4.107418512765538630e-04 9.999984739742538986e-01
