0.000000000000000000e+00 -1.439239642994534370e-10 3.139214798183999658e-09 -1.000000000000000000e+00
1.066666666666666735e-01 -2.330553981665362262e-01 -1.808946774362095444e-01 -9.554873853093771574e-01
2.133333333333333470e-01 -4.314730851222454144e-01 -3.587903128426335186e-01 -8.277000767398463577e-01
3.200000000000000067e-01 -5.652777162539233125e-01 -5.289087253265111199e-01 -6.330062558550640928e-01
4.266666666666666941e-01 -6.131807373967130825e-01 -6.835753547169801658e-01 -3.958651961605960112e-01
5.333333333333333259e-01 -5.655139256778233259e-01 -8.118548643952230304e-01 -1.451141831904193547e-01
6.400000000000000133e-01 -4.256646388648164248e-01 -9.003409259584878033e-01 9.037710910356963612e-02
7.466666666666667007e-01 -2.097952225748720978e-01 -9.349823051310612865e-01 2.859505360294422593e-01
8.533333333333333881e-01 5.513481682142096219e-02 -9.036935148889002622e-01 4.245866453549227981e-01
9.600000000000000755e-01 3.348210080009066392e-01 -7.992523967960944997e-01 4.990666682051935754e-01
1.066666666666666652e+00 5.921107427090983588e-01 -6.218995245824139317e-01 5.124677170965822315e-01
1.173333333333333339e+00 7.919934414745004592e-01 -3.810470416973084085e-01 4.769969828723543137e-01
1.280000000000000027e+00 9.064072139682568530e-01 -9.562289683645991412e-02 4.114093116772213898e-01
1.386666666666666714e+00 9.182353101166673692e-01 2.072036437532307485e-01 3.374682981172197338e-01
1.493333333333333401e+00 8.239119072834381052e-01 4.948940340696651452e-01 2.760844128857584123e-01
1.600000000000000089e+00 6.342385757145261316e-01 7.336750652773631476e-01 2.437940359059559692e-01
1.706666666666666776e+00 3.732490942922873645e-01 8.933535115936420690e-01 2.501556856194091516e-01
1.813333333333333464e+00 7.521526502415365467e-02 9.520585465226436561e-01 2.964809464034113828e-01
1.920000000000000151e+00 -2.198745863776148113e-01 9.001109667265025926e-01 3.760721362161889569e-01
2.026666666666666838e+00 -4.717366990073491029e-01 7.422978428909661197e-01 4.758518340804056002e-01
2.133333333333333304e+00 -6.454231256190502419e-01 4.980715849233767201e-01 5.790790391645536106e-01
2.240000000000000213e+00 -7.163435707466533353e-01 1.994947018697370844e-01 6.686067810127509503e-01
2.346666666666666679e+00 -6.739435553521753164e-01 -1.128728822544947108e-01 7.300979539964052023e-01
2.453333333333333588e+00 -5.234682101591737746e-01 -3.956160092997259570e-01 7.546211499028872005e-01
2.560000000000000053e+00 -2.854956992391565751e-01 -6.087790274550021197e-01 7.401782658420862360e-01
2.666666666666666963e+00 6.758289292585040187e-03 -7.219264375852646465e-01 6.919237890913215727e-01
2.773333333333333428e+00 3.120404137213694806e-01 -7.189522748262211493e-01 6.210622597104714648e-01
2.880000000000000338e+00 5.869327375767918742e-01 -6.008386872999471606e-01 5.426608656352038818e-01
2.986666666666666803e+00 7.921902571272261273e-01 -3.858385279551929115e-01 4.727998828235045470e-01
3.093333333333333712e+00 8.985500093196857607e-01 -1.070008551362272575e-01 4.255987896970166995e-01
3.200000000000000178e+00 8.911899443982865821e-01 1.926610108816770306e-01 4.106550986944662029e-01
3.306666666666667087e+00 7.720982187275989839e-01 4.666666285358236355e-01 4.313494353233562340e-01
3.413333333333333552e+00 5.599411676147254546e-01 6.721979424157249472e-01 4.843475481849569553e-01
3.520000000000000018e+00 2.874137277108735344e-01 7.768013033353566854e-01 5.603137216098752482e-01
3.626666666666666927e+00 -3.598618727554563079e-03 7.635410213036101235e-01 6.457342860116040972e-01
3.733333333333333393e+00 -2.683247046134246139e-01 6.337787082062726896e-01 7.254718973368822210e-01
3.840000000000000302e+00 -4.659537917188437683e-01 4.070987193318323927e-01 7.855844455129085135e-01
3.946666666666666767e+00 -5.659589449882977963e-01 1.183315241090727860e-01 8.158888143106937108e-01
4.053333333333333677e+00 -5.528948350646999410e-01 -1.878559097479496343e-01 8.117904408162230911e-01
4.160000000000000142e+00 -4.289136124525655402e-01 -4.639918899503853167e-01 7.750673937671790359e-01
