0.000000000000000000e+00 -1.352459683902635982e-09 -1.379895120141081792e-09 -1.000000000000000000e+00
1.066666666666666735e-01 -7.534485403822180349e-02 3.148374009878971980e-01 -9.461485196935072173e-01
2.133333333333333470e-01 -1.442434859324715490e-01 5.927500841939298271e-01 -7.923595200899797852e-01
3.200000000000000067e-01 -2.002269869530033664e-01 8.037030482077798244e-01 -5.603207317293967815e-01
4.266666666666666941e-01 -2.371786380869690958e-01 9.298693935199079386e-01 -2.812036176876802629e-01
5.333333333333333259e-01 -2.500874834944945557e-01 9.681591064947275838e-01 1.047112390636086021e-02
6.400000000000000133e-01 -2.361449668481641617e-01 9.295232244721922665e-01 2.832108691352971941e-01
7.466666666666667007e-01 -1.958346076186818774e-01 8.353260992676444507e-01 5.136801696221726665e-01
8.533333333333333881e-01 -1.335368447271422510e-01 7.118346337835022020e-01 6.895288044674944272e-01
9.600000000000000755e-01 -5.727399758393308948e-02 5.842631116368356414e-01 8.095363569139057969e-01
1.066666666666666652e+00 2.256071903115797195e-02 4.718040996266565923e-01 8.814116001757528185e-01
1.173333333333333339e+00 9.523067986395714057e-02 3.848003435253957161e-01 9.180715316011086591e-01
1.280000000000000027e+00 1.519860194982580182e-01 3.244376032565281509e-01 9.336147591266649171e-01
1.386666666666666714e+00 1.879604950522655304e-01 2.847820495015965792e-01 9.399820619870103977e-01
1.493333333333333401e+00 2.031052803221791159e-01 2.562660117940948612e-01 9.450250764803777015e-01
1.600000000000000089e+00 2.017805833540188831e-01 2.294911941616733231e-01 9.521633613363517101e-01
1.706666666666666776e+00 1.911878678839467605e-01 1.982273086498441139e-01 9.613272964435429779e-01
1.813333333333333464e+00 1.790738406925252157e-01 1.608395972898620241e-01 9.705980751150813379e-01
1.920000000000000151e+00 1.714432359026991093e-01 1.199598442711908436e-01 9.778622853996512543e-01
2.026666666666666838e+00 1.709932024936283435e-01 8.073798976138416017e-02 9.819575969396953097e-01
2.133333333333333304e+00 1.767584823697641583e-01 4.845131908703008417e-02 9.830600135554553587e-01
2.240000000000000213e+00 1.849537589271402216e-01 2.637505283933767875e-02 9.823922370148380212e-01
2.346666666666666679e+00 1.907235265797620483e-01 1.459427506726139467e-02 9.815342773620457928e-01
2.453333333333333588e+00 1.900950442429574228e-01 1.011640005771125006e-02 9.817125526109832245e-01
2.560000000000000053e+00 1.814805144888979316e-01 8.122912391554132361e-03 9.833600254350028935e-01
2.666666666666666963e+00 1.661883560521696945e-01 3.804921744474998313e-03 9.860858074438239029e-01
2.773333333333333428e+00 1.478433205911441062e-01 -5.897719016906277645e-03 9.889924301698647113e-01
2.880000000000000338e+00 1.309538275893975534e-01 -2.130472212102545171e-02 9.911588277047391760e-01
2.986666666666666803e+00 1.192039436742382552e-01 -4.008361727955642856e-02 9.920596817663698275e-01
3.093333333333333712e+00 1.141451549170799662e-01 -5.829404960747246178e-02 9.917516583455615597e-01
3.200000000000000178e+00 1.146916153973287361e-01 -7.199616603582652263e-02 9.907880574243490557e-01
3.306666666666667087e+00 1.176638919733587890e-01 -7.878474497909043750e-02 9.899225709456224154e-01
3.413333333333333552e+00 1.190725092335703367e-01 -7.866863592367651092e-02 9.897633537381738122e-01
3.520000000000000018e+00 1.156859190613914734e-01 -7.401560770234283382e-02 9.905236120780968045e-01
3.626666666666666927e+00 1.062481929854830059e-01 -6.859084401654760854e-02 9.919704128058526305e-01
3.733333333333333393e+00 9.192081197012345883e-02 -6.610927282682679818e-02 9.935687935215313793e-01
3.840000000000000302e+00 7.576571513975403904e-02 -6.882639466140019757e-02 9.947469091777602079e-01
3.946666666666666767e+00 6.154408626278656119e-02 -7.674433894413369706e-02 9.951490347482012666e-01
4.053333333333333677e+00 5.223288473737722204e-02 -8.767829891040992973e-02 9.947779522354560644e-01
4.160000000000000142e+00 4.892703133164306994e-02 -9.817118779661668238e-02 9.939655021771303112e-01
