0.000000000000000000e+00 -4.390786626630256823e-09 -5.161825427988409930e-10 -1.000000000000000000e+00
1.066666666666666735e-01 -5.678594513642245406e-03 3.959917189519058384e-02 -9.991992382612446821e-01
2.133333333333333470e-01 -1.372507199007464568e-02 7.866909312268488552e-02 -9.968057792762268221e-01
3.200000000000000067e-01 -2.637107278061611923e-02 1.164512571339519492e-01 -9.928454810233395822e-01
4.266666666666666941e-01 -4.565922972478052289e-02 1.517671544113974591e-01 -9.873600877697874534e-01
5.333333333333333259e-01 -7.324197670289162021e-02 1.828523725592061111e-01 -9.804071043384023909e-01
6.400000000000000133e-01 -1.101675076806423043e-01 2.072847675192074635e-01 -9.720561165815633231e-01
7.466666666666667007e-01 -1.565960631156264882e-01 2.219923390663314233e-01 -9.623894749641112023e-01
8.533333333333333881e-01 -2.114845907298380789e-01 2.234344923398966787e-01 -9.514973540101877569e-01
9.600000000000000755e-01 -2.722990275152466499e-01 2.079183338670842207e-01 -9.394778246286104029e-01
1.066666666666666652e+00 -3.348041582803733540e-01 1.721152258000092083e-01 -9.264326091374817107e-01
1.173333333333333339e+00 -3.930210363263090256e-01 1.137148880750847579e-01 -9.124679252652435624e-01
1.280000000000000027e+00 -4.394393669027571447e-01 3.221122809897403183e-02 -8.976911081009520954e-01
1.386666666666666714e+00 -4.655837584652833261e-01 -7.033922848262177951e-02 -8.822003541289020756e-01
1.493333333333333401e+00 -4.628868835449146957e-01 -1.886844349897775497e-01 -8.660985578659110562e-01
1.600000000000000089e+00 -4.239649678532215749e-01 -3.140524860226017179e-01 -8.494804646561873174e-01
1.706666666666666776e+00 -3.440948494676409064e-01 -4.343343867109166201e-01 -8.324327123310181209e-01
1.813333333333333464e+00 -2.227317612420745274e-01 -5.348781487451155225e-01 -8.150382091715475674e-01
1.920000000000000151e+00 -6.479681899947042911e-02 -5.999837320031179422e-01 -7.973780828862595538e-01
2.026666666666666838e+00 1.185684134309405169e-01 -6.150448753686121872e-01 -7.795202579808599985e-01
2.133333333333333304e+00 3.101366457631400397e-01 -5.691008112729927237e-01 -7.615310697313029120e-01
2.240000000000000213e+00 4.878140810155073837e-01 -4.574643121154330361e-01 -7.434739119760004344e-01
2.346666666666666679e+00 6.270109408543357299e-01 -2.839720696980776449e-01 -7.254008249384574780e-01
2.453333333333333588e+00 7.041060423671560153e-01 -6.223207726042917498e-02 -7.073547193039921854e-01
2.560000000000000053e+00 7.004953150388533167e-01 1.845340392950993724e-01 -6.893779678285039125e-01
2.666666666666666963e+00 6.067024609369802146e-01 4.254238373257064332e-01 -6.715019316028414398e-01
2.773333333333333428e+00 4.256926875523610043e-01 6.256079733569521739e-01 -6.537493517238505136e-01
2.880000000000000338e+00 1.745882397265264285e-01 7.515475085063542116e-01 -6.361468389084271591e-01
2.986666666666666803e+00 -1.159005063685716319e-01 7.770099212098555697e-01 -6.187163077719728399e-01
3.093333333333333712e+00 -4.046509890220942318e-01 6.888169755526668547e-01 -6.014779002040602229e-01
3.200000000000000178e+00 -6.458997995074907683e-01 4.911334572679559862e-01 -5.844552832828598943e-01
3.306666666666667087e+00 -7.967469333918859586e-01 2.072095774508921351e-01 -5.676661868360828311e-01
3.413333333333333552e+00 -8.253982275098389332e-01 -1.223267374013176922e-01 -5.511261412248501523e-01
3.520000000000000018e+00 -7.184183647520694382e-01 -4.447458656701765434e-01 -5.348476983793974959e-01
3.626666666666666927e+00 -4.854508412899160019e-01 -7.036617594932277342e-01 -5.188287653167433788e-01
3.733333333333333393e+00 -1.599886981293525690e-01 -8.492951979670056994e-01 -5.030772346791636540e-01
3.840000000000000302e+00 2.045127822036296172e-01 -8.487782100240900407e-01 -4.875810535406900348e-01
3.946666666666666767e+00 5.430472468825165988e-01 -6.942511056599083297e-01 -4.723348114785773655e-01
4.053333333333333677e+00 7.907757186454220655e-01 -4.068210383167016886e-01 -4.573349797598621480e-01
4.160000000000000142e+00 8.960362562199239989e-01 -3.494103893735801825e-02 -4.425865181387685365e-01
