0.000000000000000000e+00 -1.523029297705520970e-09 2.044274825942960981e-09 -1.000000000000000000e+00
1.066666666666666735e-01 -2.686239819530265582e-01 1.806217282594530793e-01 -9.461574252575559729e-01
2.133333333333333470e-01 -5.080299229928053606e-01 3.374266843343085576e-01 -7.924911827342264736e-01
3.200000000000000067e-01 -6.935775628496367862e-01 4.520287677987466779e-01 -5.609014022391897170e-01
4.266666666666666941e-01 -8.090099416706370006e-01 5.153283353344367823e-01 -2.827148565782685585e-01
5.333333333333333259e-01 -8.486722774147448245e-01 5.288517610831644511e-01 7.651170242330663021e-03
6.400000000000000133e-01 -8.178072943713128318e-01 5.032441861319514320e-01 2.791497546764440396e-01
7.466666666666667007e-01 -7.308750206252527803e-01 4.545519398829387936e-01 5.091109510692637397e-01
8.533333333333333881e-01 -6.082511601064510831e-01 3.994979610125408698e-01 6.858743912145894850e-01
9.600000000000000755e-01 -4.720426167713511756e-01 3.512183635900035794e-01 8.085883853378030839e-01
1.066666666666666652e+00 -3.419118888710179216e-01 3.166075843343051366e-01 8.847887892240812180e-01
1.173333333333333339e+00 -2.318345103564509735e-01 2.959299279722354958e-01 9.266469629495707183e-01
1.280000000000000027e+00 -1.484649690617278472e-01 2.844372331244753305e-01 9.471275359264988980e-01
1.386666666666666714e+00 -9.136286995306182324e-02 2.752601896739332865e-01 9.570172093987137085e-01
1.493333333333333401e+00 -5.484401525067655880e-02 2.624116688925062779e-01 9.633949110258188675e-01
1.600000000000000089e+00 -3.078472254039049671e-02 2.429055590241118723e-01 9.695601731208299823e-01
1.706666666666666776e+00 -1.154666246799128382e-02 2.173873220871930523e-01 9.760161016909704168e-01
1.813333333333333464e+00 7.899385503501887840e-03 1.892811261066923434e-01 9.818902845634126519e-01
1.920000000000000151e+00 2.907501706707235622e-02 1.629945586698066662e-01 9.861977063378460917e-01
2.026666666666666838e+00 5.049850075189264015e-02 1.419637294533537819e-01 9.885822361295814042e-01
2.133333333333333304e+00 6.912759312639389642e-02 1.273682037644600640e-01 9.894429777164810424e-01
2.240000000000000213e+00 8.214692943825877003e-02 1.178933937309647323e-01 9.896220133544540998e-01
2.346666666666666679e+00 8.836106176529626155e-02 1.105517444976508029e-01 9.899340162599152837e-01
2.453333333333333588e+00 8.872113193493808003e-02 1.021117860458521515e-01 9.908080146304288904e-01
2.560000000000000053e+00 8.586137659453835225e-02 9.049406573862400771e-02 9.921882490805611354e-01
2.666666666666666963e+00 8.297263011814240419e-02 7.556249898463439363e-02 9.936824617714462571e-01
2.773333333333333428e+00 8.249258103813734977e-02 5.899910494917622039e-02 9.948432835428110410e-01
2.880000000000000338e+00 8.519489268919561153e-02 4.346134618953489959e-02 9.954155276990984680e-01
2.986666666666666803e+00 9.004157892845295053e-02 3.132575055456052887e-02 9.954447978047062939e-01
3.093333333333333712e+00 9.479920727328848551e-02 2.366448820306685241e-02 9.952146580607055260e-01
3.200000000000000178e+00 9.712070106456313634e-02 1.982522549117646249e-02 9.950746855413096226e-01
3.306666666666667087e+00 9.561279084274354467e-02 1.779427108577115446e-02 9.952590997168766496e-01
3.413333333333333552e+00 9.043824597594805892e-02 1.511950832677135675e-02 9.957868695544862536e-01
3.520000000000000018e+00 8.319937024922811897e-02 9.989378186954778194e-03 9.964824694753374734e-01
3.626666666666666927e+00 7.622242629799548530e-02 1.984558946912528404e-03 9.970885137173612911e-01
3.733333333333333393e+00 7.150913476942698244e-02 -7.809418506398407844e-03 9.974090409233586918e-01
3.840000000000000302e+00 6.991748166239948603e-02 -1.734819709858869199e-02 9.974015860364747743e-01
3.946666666666666767e+00 7.081925160693164356e-02 -2.457594861658154300e-02 9.971860252753661502e-01
4.053333333333333677e+00 7.244889698478773621e-02 -2.833056546166676931e-02 9.969693194128828040e-01
4.160000000000000142e+00 7.272804045141614826e-02 -2.886519766731656528e-02 9.969336567675565197e-01
