0.000000000000000000e+00 2.403662277180305666e-09 -6.162706910028868602e-10 -1.000000000000000000e+00
1.066666666666666735e-01 3.165274608693966624e-02 2.448048585849775527e-02 -9.991989379928405413e-01
2.133333333333333470e-01 6.175386077188396716e-02 5.072623559742752558e-02 -9.968012605561822337e-01
3.200000000000000067e-01 8.860941628728050135e-02 8.032149513492806148e-02 -9.928222392181872413e-01
4.266666666666666941e-01 1.102353387817948532e-01 1.144954206752974574e-01 -9.872881399974672290e-01
5.333333333333333259e-01 1.242949480027060877e-01 1.539166217460132269e-01 -9.802341921783663814e-01
6.400000000000000133e-01 1.281075920260773271e-01 1.984333636890231733e-01 -9.717051966472215474e-01
7.466666666666667007e-01 1.187748344352485275e-01 2.468205060704696530e-01 -9.617537257047652499e-01
8.533333333333333881e-01 9.345328530055888039e-02 2.965246543840872606e-01 -9.504406374966903881e-01
9.600000000000000755e-01 4.980327653393815113e-02 3.434936080497930089e-01 -9.378321981860074930e-01
1.066666666666666652e+00 -1.343331000198155767e-02 3.821518780282934791e-01 -9.240003457262996323e-01
1.173333333333333339e+00 -9.569413350934488638e-02 4.056070177492892559e-01 -9.090227942206957623e-01
1.280000000000000027e+00 -1.938676358316926140e-01 4.061999736708219455e-01 -8.929801267424996025e-01
1.386666666666666714e+00 -3.016580120456694991e-01 3.764383627221283279e-01 -8.759525485220994723e-01
1.493333333333333401e+00 -4.092626025067707118e-01 3.103044329317536376e-01 -8.580275358013172982e-01
1.600000000000000089e+00 -5.036006891816829922e-01 2.048993903788398074e-01 -8.392843784110001204e-01
1.706666666666666776e+00 -5.692517783102944984e-01 6.213187321820889952e-02 -8.198093972846118849e-01
1.813333333333333464e+00 -5.902921132687160011e-01 -1.098082633250545836e-01 -7.996827412358922249e-01
1.920000000000000151e+00 -5.529391245108877806e-01 -2.956883770167372805e-01 -7.789875083969108882e-01
2.026666666666666838e+00 -4.488158036405801576e-01 -4.736042243451512590e-01 -7.577980697147950195e-01
2.133333333333333304e+00 -2.782456127217756703e-01 -6.169230303186430397e-01 -7.361926633115420948e-01
2.240000000000000213e+00 -5.292218516049140842e-02 -6.978967399858542198e-01 -7.142362117306362279e-01
2.346666666666666679e+00 2.030296299426414541e-01 -6.927488898014049212e-01 -6.920056240484220300e-01
2.453333333333333588e+00 4.543509965843252063e-01 -5.875816434989226122e-01 -6.695569556645992737e-01
2.560000000000000053e+00 6.588686649908401805e-01 -3.838564436672077806e-01 -6.469464132128884826e-01
2.666666666666666963e+00 7.745392781508595448e-01 -1.020126734498008059e-01 -6.242399248993264482e-01
2.773333333333333428e+00 7.684831491067939391e-01 2.182893595529231123e-01 -6.014784965906502245e-01
2.880000000000000338e+00 6.262538697025277212e-01 5.223914187258824615e-01 -5.787106558102308451e-01
2.986666666666666803e+00 3.590858705779408910e-01 7.496200989064244480e-01 -5.559852393075108701e-01
3.093333333333333712e+00 6.656826458342590680e-03 8.458719395466000046e-01 -5.333373504984095792e-01
3.200000000000000178e+00 -3.666955863236440738e-01 7.775658229423585421e-01 -5.108012831463477621e-01
3.306666666666667087e+00 -6.827413550737380099e-01 5.434235333850070404e-01 -4.884128992883992604e-01
3.413333333333333552e+00 -8.660858107681310702e-01 1.804232624754598113e-01 -4.661916700205251396e-01
3.520000000000000018e+00 -8.634271649671932947e-01 -2.391406269478420499e-01 -4.441813711974138545e-01
3.626666666666666927e+00 -6.606320506362293177e-01 -6.206070536161630846e-01 -4.223786423875429685e-01
3.733333333333333393e+00 -2.921433889264056782e-01 -8.683203997902401161e-01 -4.008283387414551813e-01
3.840000000000000302e+00 1.614001213654847611e-01 -9.109869030928858802e-01 -3.795316025423113859e-01
3.946666666666666767e+00 5.890289464215215931e-01 -7.242307334973877575e-01 -3.585051805940421277e-01
4.053333333333333677e+00 8.764229848354494479e-01 -3.431934437253589265e-01 -3.377753303374378402e-01
4.160000000000000142e+00 9.378625566795705248e-01 1.403779054575175489e-01 -3.173308504436940791e-01
