0.000000000000000000e+00 1.347488413755961654e-09 2.082409214794539468e-09 -1.000000000000000000e+00
1.066666666666666735e-01 3.351504974952290716e-03 -2.120238732363849687e-01 -9.772568047613395814e-01
2.133333333333333470e-01 2.065851486245282032e-02 -4.096236369650802511e-01 -9.120163593442088823e-01
3.200000000000000067e-01 6.337487934124158562e-02 -5.790407951365865724e-01 -8.128243083161594829e-01
4.266666666666666941e-01 1.384364634559361318e-01 -7.079303722211218730e-01 -6.925706654012782071e-01
5.333333333333333259e-01 2.467688957424149510e-01 -7.861145766934030110e-01 -5.666658039500008792e-01
6.400000000000000133e-01 3.826971541224506446e-01 -8.063782501674054970e-01 -4.508614055444720714e-01
7.466666666666667007e-01 5.343011959756430729e-01 -7.652458629715439553e-01 -3.590246290593656631e-01
8.533333333333333881e-01 6.847183018627169826e-01 -6.636414192147449542e-01 -3.011941730429421038e-01
9.600000000000000755e-01 8.142277356645331032e-01 -5.073330742013970607e-01 -2.821757752916921880e-01
1.066666666666666652e+00 9.028697222723096605e-01 -3.070204302833169363e-01 -3.009015344876158071e-01
1.173333333333333339e+00 9.332499010786934335e-01 -7.798383911269872459e-02 -3.506290308660364730e-01
1.280000000000000027e+00 8.931744051525973838e-01 1.607919438798278700e-01 -4.199570720408485336e-01
1.386666666666666714e+00 7.777448430481940234e-01 3.879977397937136585e-01 -4.945204328873300526e-01
1.493333333333333401e+00 5.906197234084682446e-01 5.818466810378928322e-01 -5.591098119174618963e-01
1.600000000000000089e+00 3.442450107066520881e-01 7.221963023127970782e-01 -5.999247901379857195e-01
1.706666666666666776e+00 5.896369529022205125e-02 7.927786923910018491e-01 -6.066360159400665530e-01
1.813333333333333464e+00 -2.389220156321173461e-01 7.832518056754751434e-01 -5.739461438358979262e-01
1.920000000000000151e+00 -5.199308853554569509e-01 6.907978302376305280e-01 -5.024441457053460125e-01
2.026666666666666838e+00 -7.547228536011607591e-01 5.210482559097826538e-01 -3.985979674937895068e-01
2.133333333333333304e+00 -9.175738924682291797e-01 2.881037763047385458e-01 -2.739180556266506139e-01
2.240000000000000213e+00 -9.895667992417325198e-01 1.359533633802409436e-02 -1.433474880567199017e-01
2.346666666666666679e+00 -9.610927795795164430e-01 -2.752066305149668546e-01 -2.318241124135792322e-02
2.453333333333333588e+00 -8.333557408784580955e-01 -5.480998761045525747e-01 7.127596590998232229e-02
2.560000000000000053e+00 -6.186331455026248261e-01 -7.751818926973457202e-01 1.279132113051616726e-01
2.666666666666666963e+00 -3.392357510153478639e-01 -9.302702197676790963e-01 1.396144567534534087e-01
2.773333333333333428e+00 -2.523137104809297648e-02 -9.941037541953134937e-01 1.053410154510662083e-01
2.880000000000000338e+00 2.887873379577378108e-01 -9.568976526154795437e-01 3.040075817691523935e-02
2.986666666666666803e+00 5.676149376120045442e-01 -8.199281694130819975e-01 -7.420657097299547533e-02
3.093333333333333712e+00 7.794719219332855165e-01 -5.958683669845853403e-01 -1.932368941790655881e-01
3.200000000000000178e+00 8.997742218070097220e-01 -3.077799034873193174e-01 -3.092813857666954491e-01
3.306666666666667087e+00 9.141372295532469439e-01 1.320829175978577297e-02 -4.051628876916402722e-01
3.413333333333333552e+00 8.202235021340992249e-01 3.312667653470054430e-01 -4.663421345848655086e-01
3.520000000000000018e+00 6.282258666815585535e-01 6.099653940038671784e-01 -4.829637872454732306e-01
3.626666666666666927e+00 3.598542344638435697e-01 8.165883285551288617e-01 -4.512952797502925439e-01
3.733333333333333393e+00 4.595662628815289086e-02 9.261566103696026175e-01 -3.742990694320729728e-01
3.840000000000000302e+00 -2.769939815039948461e-01 9.246493280918004487e-01 -2.612940219114977536e-01
3.946666666666666767e+00 -5.711627502233274090e-01 8.109828350403964770e-01 -1.267109537039965983e-01
4.053333333333333677e+00 -8.017941760882686397e-01 5.974623639260268071e-01 1.184369932869261573e-02
4.160000000000000142e+00 -9.413983017937213038e-01 3.086082632074663157e-01 1.360365297944462482e-01
