0.000000000000000000e+00 2.562616904137303719e-09 -8.818891514061192357e-11 -1.000000000000000000e+00
1.066666666666666735e-01 -8.015846409625818070e-02 4.150600316313904359e-02 -9.959172944684421269e-01
2.133333333333333470e-01 -1.591899934780694748e-01 8.264360199483969383e-02 -9.837821715949324197e-01
3.200000000000000067e-01 -2.360127710699548576e-01 1.230692704342757349e-01 -9.639243078659895936e-01
4.266666666666666941e-01 -3.096464510529792769e-01 1.624666032112542791e-01 -9.368677391536585075e-01
5.333333333333333259e-01 -3.792543849860391947e-01 2.005506855140484490e-01 -9.032952672586890275e-01
6.400000000000000133e-01 -4.441598440242967571e-01 2.370882395544206267e-01 -8.640065541491582790e-01
7.466666666666667007e-01 -5.038710821701390952e-01 2.718885528473996560e-01 -8.198695070191978074e-01
8.533333333333333881e-01 -5.580596605845437042e-01 3.048198269026126117e-01 -7.717830685916926559e-01
9.600000000000000755e-01 -6.065736576783807843e-01 3.357915920058059389e-01 -7.206293145052722338e-01
1.066666666666666652e+00 -6.493988330203270820e-01 3.647642925200773600e-01 -6.672494319472163093e-01
1.173333333333333339e+00 -6.866453902054965308e-01 3.917331488041029819e-01 -6.124184559691110419e-01
1.280000000000000027e+00 -7.185228608442396636e-01 4.167271151486712233e-01 -5.568267640392782214e-01
1.386666666666666714e+00 -7.453104340136115225e-01 4.398031860776515090e-01 -5.010765773329638462e-01
1.493333333333333401e+00 -7.673408966605710368e-01 4.610319395697727862e-01 -4.456785265041438016e-01
1.600000000000000089e+00 -7.849712174027058120e-01 4.805054005387940919e-01 -3.910579046788685842e-01
1.706666666666666776e+00 -7.985807702423943777e-01 4.983155124249348811e-01 -3.375524826745869289e-01
1.813333333333333464e+00 -8.085422266245539946e-01 5.145674013761751819e-01 -2.854311081704968833e-01
1.920000000000000151e+00 -8.152257740352747417e-01 5.293635776402303428e-01 -2.348872462806906869e-01
2.026666666666666838e+00 -8.189818371129653496e-01 5.428055702360534696e-01 -1.860688012766628652e-01
2.133333333333333304e+00 -8.201411495508146299e-01 5.549937640505266945e-01 -1.390721116525979739e-01
2.240000000000000213e+00 -8.190144786828654766e-01 5.660210011792679019e-01 -9.394719684693898787e-02
2.346666666666666679e+00 -8.158836252257714028e-01 5.759790963409657794e-01 -5.071996974934439573e-02
2.453333333333333588e+00 -8.110067183855624862e-01 5.849533627282366144e-01 -9.390282692728863650e-03
2.560000000000000053e+00 -8.046172917068094010e-01 5.930235458761664580e-01 3.007665025406248624e-02
2.666666666666666963e+00 -7.969287511638656341e-01 6.002588552943959321e-01 6.770828528017423797e-02
2.773333333333333428e+00 -7.881245659159821226e-01 6.067335954132671016e-01 1.035596284930272448e-01
2.880000000000000338e+00 -7.783767605763490804e-01 6.125038820275087170e-01 1.376925854872336763e-01
2.986666666666666803e+00 -7.678312308277495113e-01 6.176317638431851886e-01 1.701672982276426771e-01
3.093333333333333712e+00 -7.566197260903519961e-01 6.221671129664988475e-01 2.010608128813477224e-01
3.200000000000000178e+00 -7.448597927489329917e-01 6.261583494192073385e-01 2.304354033127050116e-01
3.306666666666667087e+00 -7.326491001414636717e-01 6.296519590136405720e-01 2.583692321502321643e-01
3.413333333333333552e+00 -7.200812891529031479e-01 6.326852401502111034e-01 2.849269667300492470e-01
3.520000000000000018e+00 -7.072331837568637258e-01 6.352948469256352038e-01 3.101819355797213462e-01
3.626666666666666927e+00 -6.941717477751441212e-01 6.375139014699664486e-01 3.342048247575863940e-01
3.733333333333333393e+00 -6.809573865439746410e-01 6.393759873056056309e-01 3.570528613354334024e-01
3.840000000000000302e+00 -6.676447574264186002e-01 6.409047345339303758e-01 3.787915921370277328e-01
3.946666666666666767e+00 -6.542722349339047394e-01 6.421272897952230441e-01 3.994896441569569800e-01
4.053333333333333677e+00 -6.408804732084898426e-01 6.430686918368515581e-01 4.191975339365766051e-01
4.160000000000000142e+00 -6.275085741385905136e-01 6.437451522457630082e-01 4.379691399879216962e-01
