0.000000000000000000e+00 -2.705553568636137171e-09 -1.347615695174335240e-09 -1.000000000000000000e+00
1.066666666666666735e-01 -2.422870347450949841e-02 -3.154364468820751444e-02 -9.992083129066817726e-01
2.133333333333333470e-01 -4.740843990062287155e-02 -6.202000261027960232e-02 -9.969476500811264019e-01
3.200000000000000067e-01 -6.852591808326682910e-02 -9.047081588487919379e-02 -9.935377722045667381e-01
4.266666666666666941e-01 -8.657604908444105352e-02 -1.162519910698167624e-01 -9.894380263359291439e-01
5.333333333333333259e-01 -1.006167897056589322e-01 -1.391081646930203697e-01 -9.851508850864248990e-01
6.400000000000000133e-01 -1.098317067785681139e-01 -1.592126849060103710e-01 -9.811141733026604861e-01
7.466666666666667007e-01 -1.136082663309021523e-01 -1.771566081098235879e-01 -9.776017069131993642e-01
8.533333333333333881e-01 -1.116362409183746240e-01 -1.938712985669458766e-01 -9.746524657791902913e-01
9.600000000000000755e-01 -1.039891463645130354e-01 -2.105033364559932840e-01 -9.720445258453190851e-01
1.066666666666666652e+00 -9.118941361625526598e-02 -2.282556735622228716e-01 -9.693191382660351074e-01
1.173333333333333339e+00 -7.423045308704198653e-02 -2.482076957888690594e-01 -9.658562441385912800e-01
1.280000000000000027e+00 -5.453761456130049035e-02 -2.711454009075702221e-01 -9.609895901464128309e-01
1.386666666666666714e+00 -3.386680976699858736e-02 -2.974198014642501220e-01 -9.541431933927281284e-01
1.493333333333333401e+00 -1.414436581200945175e-02 -3.268527444016178785e-01 -9.449663503153324928e-01
1.600000000000000089e+00 2.732433507465825695e-03 -3.587162618347830012e-01 -9.334391889522857255e-01
1.706666666666666776e+00 1.513813391863838564e-02 -3.917658381071710827e-01 -9.199365249859556837e-01
1.813333333333333464e+00 2.193454266192251811e-02 -4.243650518866995958e-01 -9.052211418775730767e-01
1.920000000000000151e+00 2.266829456301752699e-02 -4.546549601432795518e-01 -8.903743499613050449e-01
2.026666666666666838e+00 1.767479600381965943e-02 -4.807736936916428561e-01 -8.766613598398731444e-01
2.133333333333333304e+00 8.113560695030965636e-03 -5.010890812225208268e-01 -8.653521367201575387e-01
2.240000000000000213e+00 -4.124128279385810836e-03 -5.144183027754926085e-01 -8.575237073717110192e-01
2.346666666666666679e+00 -1.659863296478153449e-02 -5.202145184643957032e-01 -8.538684351635862368e-01
2.453333333333333588e+00 -2.660612806250313433e-02 -5.186763866051750105e-01 -8.545507072576949970e-01
2.560000000000000053e+00 -3.151109879840746641e-02 -5.107847975082862035e-01 -8.591252009254051192e-01
2.666666666666666963e+00 -2.910388990983123203e-02 -4.982375876948704763e-01 -8.665464420795314648e-01
2.773333333333333428e+00 -1.792455485298088957e-02 -4.832943259784017176e-01 -8.752691752299543992e-01
2.880000000000000338e+00 2.489413676223739547e-03 -4.685464892298915052e-01 -8.834303351917558444e-01
2.986666666666666803e+00 3.146883641051778646e-02 -4.566305927249718066e-01 -8.890948342730834453e-01
3.093333333333333712e+00 6.721905646079387453e-02 -4.499123579335870260e-01 -8.905346390174200266e-01
3.200000000000000178e+00 1.069888772494435591e-01 -4.502084401975231520e-01 -8.864857810482819067e-01
3.306666666666667087e+00 1.473436564341373267e-01 -4.585244810541803107e-01 -8.763766425488338507e-01
3.413333333333333552e+00 1.845930807347559155e-01 -4.749167063416842027e-01 -8.604474069115921608e-01
3.520000000000000018e+00 2.152313865387253944e-01 -4.984321682482620863e-01 -8.397798856759386421e-01
3.626666666666666927e+00 2.364025559419067890e-01 -5.271851736642979569e-01 -8.161974064943831042e-01
3.733333333333333393e+00 2.463034674819084557e-01 -5.585445126257148063e-01 -7.920545381433589105e-01
3.840000000000000302e+00 2.444511727036276505e-01 -5.894221917837302316e-01 -7.699429569500747528e-01
3.946666666666666767e+00 2.318151775393798575e-01 -6.166357384078986481e-01 -7.523354328372726663e-01
4.053333333333333677e+00 2.107438800760890740e-01 -6.372847160783159381e-01 -7.412431403079599024e-01
4.160000000000000142e+00 1.847234689675731345e-01 -6.491192133238377071e-01 -7.379075661157609156e-01
