0.000000000000000000e+00 -7.049208868979375168e-13 6.459587714485821379e-14 -1.000000000000000000e+00
1.066666666666666735e-01 6.085420305683801601e-02 -5.925194666480910338e-03 -9.981290788357755073e-01
2.133333333333333470e-01 1.185411815774678607e-01 -1.357332938607763717e-02 -9.928563606772331518e-01
3.200000000000000067e-01 1.699998330697998217e-01 -2.429155348284214866e-02 -9.851446478122516393e-01
4.266666666666666941e-01 2.123914596321191950e-01 -3.873042886770543258e-02 -9.764168277769833537e-01
5.333333333333333259e-01 2.432419342011449270e-01 -5.661181760859128331e-02 -9.683121725103343014e-01
6.400000000000000133e-01 2.606087795726846901e-01 -7.662634325630765519e-02 -9.623988088784753980e-01
7.466666666666667007e-01 2.632606249006880783e-01 -9.648504920421195619e-02 -9.598877426329824880e-01
8.533333333333333881e-01 2.508604077614933758e-01 -1.131074928742078489e-01 -9.613926101029427462e-01
9.600000000000000755e-01 2.241223639505211807e-01 -1.229476588738417919e-01 -9.667745543605382741e-01
1.066666666666666652e+00 1.849052853442947897e-01 -1.224161453896732143e-01 -9.751022114267599017e-01
1.173333333333333339e+00 1.362313928223639892e-01 -1.083521718057143535e-01 -9.847338800864963160e-01
1.280000000000000027e+00 8.217685692309170675e-02 -7.849068791085550556e-02 -9.935221064758423815e-01
1.386666666666666714e+00 2.764888589052018689e-02 -3.186756252674211032e-02 -9.991096021536478577e-01
1.493333333333333401e+00 -2.196028151339972367e-02 3.089475286563297951e-02 -9.992813719018011076e-01
1.600000000000000089e+00 -6.123697643581123284e-02 1.074433507045799707e-01 -9.923235152792224678e-01
1.706666666666666776e+00 -8.527158385567037979e-02 1.937609888272304737e-01 -9.773358872760301574e-01
1.813333333333333464e+00 -9.020575820785030341e-02 2.844068580349768394e-01 -9.544504492803161932e-01
1.920000000000000151e+00 -7.372874202139340083e-02 3.729456172717828255e-01 -9.249192609160785672e-01
2.026666666666666838e+00 -3.549318864423314790e-02 4.525184063105278098e-01 -8.910484416932901164e-01
2.133333333333333304e+00 2.266284418366024123e-02 5.165094965208577582e-01 -8.559815039429995442e-01
2.240000000000000213e+00 9.669236558096827583e-02 5.592357643246902432e-01 -8.233504388479998548e-01
2.346666666666666679e+00 1.805490290215102100e-01 5.765907439227823117e-01 -7.968344630310048027e-01
2.453333333333333588e+00 2.666390467780690443e-01 5.665777648919124720e-01 -7.796750956891075335e-01
2.560000000000000053e+00 3.464857991709484608e-01 5.296431573861684061e-01 -7.742258824957176655e-01
2.666666666666666963e+00 4.115439141727157413e-01 4.687956155179245354e-01 -7.815767887950576531e-01
2.773333333333333428e+00 4.540886637292045336e-01 3.894532718816519634e-01 -8.013299158277377154e-01
2.880000000000000338e+00 4.680913525458507696e-01 2.990492606405298348e-01 -8.315407540215311588e-01
2.986666666666666803e+00 4.499718117195322664e-01 2.064001563305749576e-01 -8.688638233073157080e-01
3.093333333333333712e+00 3.991426896089447229e-01 1.208934191348010612e-01 -9.088838726509474997e-01
3.200000000000000178e+00 3.182706287145523061e-01 5.158476910701784157e-02 -9.465953820158837795e-01
3.306666666666667087e+00 2.131961319162443969e-01 6.276314497001576898e-03 -9.769892614001091102e-01
3.413333333333333552e+00 9.250440032718715289e-02 -9.316499494997028397e-03 -9.956686886647770907e-01
3.520000000000000018e+00 -3.321748250855777185e-02 7.769739259174816490e-03 -9.994179463812160602e-01
3.626666666666666927e+00 -1.523887249151062162e-01 5.734237538144203866e-02 -9.866557291640115634e-01
3.733333333333333393e+00 -2.536050044113777324e-01 1.359528598774258634e-01 -9.577062807908861553e-01
3.840000000000000302e+00 -3.268470329289764886e-01 2.371102568401973754e-01 -9.148495739864777043e-01
3.946666666666666767e+00 -3.645945968527254388e-01 3.518490383548556477e-01 -8.621328434070710811e-01
4.053333333333333677e+00 -3.627330648157052195e-01 4.695421096482017553e-01 -8.049564783375705579e-01
4.160000000000000142e+00 -3.211196093612481706e-01 5.789284872479874000e-01 -7.494824905434223083e-01
