0.000000000000000000e+00 3.990652332698021968e-13 3.075034472568466676e-13 -1.000000000000000000e+00
1.066666666666666735e-01 -3.131315730322366264e-02 -2.437369204086313468e-02 -9.992123945008093422e-01
2.133333333333333470e-01 -6.026497812431327872e-02 -4.833604239070547065e-02 -9.970114139020747057e-01
3.200000000000000067e-01 -8.467316838215355190e-02 -7.132763777632777913e-02 -9.938525155130119026e-01
4.266666666666666941e-01 -1.027113917956447575e-01 -9.251731926100889569e-02 -9.903993717455049639e-01
5.333333333333333259e-01 -1.130637932784742533e-01 -1.107409403815677734e-01 -9.873970946944370386e-01
6.400000000000000133e-01 -1.150579118203403223e-01 -1.245095996624750317e-01 -9.855247517444869487e-01
7.466666666666667007e-01 -1.087630062056709895e-01 -1.320955166336589548e-01 -9.852519388372720233e-01
8.533333333333333881e-01 -9.503803440392460944e-02 -1.317069903160219824e-01 -9.867223725691740555e-01
9.600000000000000755e-01 -7.552558158932723420e-02 -1.216993043657299128e-01 -9.896894289507784936e-01
1.066666666666666652e+00 -5.256776849223598891e-02 -1.008432407961929317e-01 -9.935125920622435158e-01
1.173333333333333339e+00 -2.906988875931387079e-02 -6.857504846715958835e-02 -9.972223444376356882e-01
1.280000000000000027e+00 -8.274244426041701961e-03 -2.521277026231899879e-02 -9.996478645076785075e-01
1.386666666666666714e+00 6.509588537889804058e-03 2.789453211634587704e-02 -9.995896759791124131e-01
1.493333333333333401e+00 1.222910963460541525e-02 8.833408060195135914e-02 -9.960158327114030374e-01
1.600000000000000089e+00 6.416117737904049323e-03 1.527033914444776430e-01 -9.882512371437283116e-01
1.706666666666666776e+00 -1.249101503819448344e-02 2.168209405858623207e-01 -9.761314738256674506e-01
1.813333333333333464e+00 -4.488769648769297405e-02 2.760459935214541471e-01 -9.600956743604801558e-01
1.920000000000000151e+00 -8.982704566878399466e-02 3.256985608504793239e-01 -9.411968707056200811e-01
2.026666666666666838e+00 -1.449605408555655339e-01 3.615159726049800293e-01 -9.210280360416435164e-01
2.133333333333333304e+00 -2.066165713594620423e-01 3.801332859139179843e-01 -9.015588039115178809e-01
2.240000000000000213e+00 -2.700345360777860471e-01 3.794992397869372813e-01 -8.849077222025475420e-01
2.346666666666666679e+00 -3.297305081074104471e-01 3.592077251668349680e-01 -8.730679249138454390e-01
2.453333333333333588e+00 -3.799791329142777063e-01 3.206679502917751945e-01 -8.676335193885594821e-01
2.560000000000000053e+00 -4.153731010532137891e-01 2.671157813206581633e-01 -8.695483575506505192e-01
2.666666666666666963e+00 -4.314001402789173767e-01 2.034295935290074686e-01 -8.789256621742680409e-01
2.773333333333333428e+00 -4.249872039019496617e-01 1.357573538993364637e-01 -8.949613494239100353e-01
2.880000000000000338e+00 -3.949332672748247508e-01 7.098972383841381517e-02 -9.159629758562041202e-01
2.986666666666666803e+00 -3.421933558566882527e-01 1.612688324233776949e-02 -9.394911547502269311e-01
3.093333333333333712e+00 -2.699533690940963959e-01 -2.241970744985986863e-02 -9.626123503088702682e-01
3.200000000000000178e+00 -1.834757621231659919e-01 -3.950332195098602700e-02 -9.822301824608357101e-01
3.306666666666667087e+00 -8.971762454624637728e-02 -3.182000891973885137e-02 -9.954588064763471023e-01
3.413333333333333552e+00 3.254273452253127977e-03 1.651683320550446574e-03 -9.999933405736083358e-01
3.520000000000000018e+00 8.701900269150379674e-02 5.944239318266859168e-02 -9.944316443482281720e-01
3.626666666666666927e+00 1.536217324085199509e-01 1.376050046671101756e-01 -9.785015207296957618e-01
3.733333333333333393e+00 1.964299143275197723e-01 2.300047129470261242e-01 -9.531595459692953076e-01
3.840000000000000302e+00 2.108709332554554172e-01 3.288303664916319979e-01 -9.205455113749623219e-01
3.946666666666666767e+00 1.950113036070695305e-01 4.253098138751808532e-01 -8.837885231196220825e-01
4.053333333333333677e+00 1.498999789353586687e-01 5.105581264295885324e-01 -8.466760851263094301e-01
4.160000000000000142e+00 7.958579489994718759e-02 5.764656240211547544e-01 -8.132364274549215288e-01
