0.000000000000000000e+00 -7.081413751736694863e-10 2.396428420433075537e-09 -1.000000000000000000e+00
1.066666666666666735e-01 -3.310641636830467527e-01 7.311944572717352098e-02 -9.407692650653833866e-01
2.133333333333333470e-01 -6.226423995346170859e-01 1.272181317758206420e-01 -7.720913480813491603e-01
3.200000000000000067e-01 -8.416482521554994323e-01 1.490630454230646440e-01 -5.190358152618563814e-01
4.266666666666666941e-01 -9.666906549079951061e-01 1.351181253711943586e-01 -2.173476139669076601e-01
5.333333333333333259e-01 -9.912721720330444075e-01 9.242505005393031325e-02 9.393859420380822056e-02
6.400000000000000133e-01 -9.242724751671377303e-01 3.621241702448613209e-02 3.799969220237349732e-01
7.466666666666667007e-01 -7.876037696923942066e-01 -1.500262908787691751e-02 6.159919169821458373e-01
8.533333333333333881e-01 -6.114502326612079042e-01 -4.515731373930842452e-02 7.899891115334101155e-01
9.600000000000000755e-01 -4.280678382721412878e-01 -4.541682255870046342e-02 9.026023111395440335e-01
1.066666666666666652e+00 -2.654635082021447601e-01 -1.650628120393872467e-02 9.639783086984926586e-01
1.173333333333333339e+00 -1.423848386142531897e-01 3.208368907422860794e-02 9.892905881883519159e-01
1.280000000000000027e+00 -6.575169983052431277e-02 8.558243160602660438e-02 9.941586275074413281e-01
1.386666666666666714e+00 -3.104446534529640284e-02 1.288934514755589733e-01 9.911717884857000893e-01
1.493333333333333401e+00 -2.539884148959248300e-02 1.512970226830543108e-01 9.881612797670601411e-01
1.600000000000000089e+00 -3.246582910285652351e-02 1.493874486058400786e-01 9.882448943502228911e-01
1.706666666666666776e+00 -3.754872472118508941e-02 1.274256734826524629e-01 9.911365113663864745e-01
1.813333333333333464e+00 -3.152157581557122473e-02 9.511679948051729450e-02 9.949664672578942826e-01
1.920000000000000151e+00 -1.253793315985918776e-02 6.379576694838277884e-02 9.978839094180838032e-01
2.026666666666666838e+00 1.481821885792166879e-02 4.243278570294498064e-02 9.989892146461833988e-01
2.133333333333333304e+00 4.237451944647651486e-02 3.485526935755155903e-02 9.984933626847881660e-01
2.240000000000000213e+00 6.207385885233061146e-02 3.907652885336085347e-02 9.973059628100583440e-01
2.346666666666666679e+00 6.915708778335505347e-02 4.877905129494617548e-02 9.964121256895249745e-01
2.453333333333333588e+00 6.375147537438013989e-02 5.626916570484657987e-02 9.963778149577339205e-01
2.560000000000000053e+00 5.045526697967232799e-02 5.562691753722408261e-02 9.971756205396158368e-01
2.666666666666666963e+00 3.620253413073348803e-02 4.491698906834544480e-02 9.983342630805239759e-01
2.773333333333333428e+00 2.738967946095249850e-02 2.663110370169492064e-02 9.992698441186717018e-01
2.880000000000000338e+00 2.742275523792777822e-02 6.359978388172714964e-03 9.996035537755908473e-01
2.986666666666666803e+00 3.559768380502838919e-02 -9.696898885787582842e-03 9.993189772189249309e-01
3.093333333333333712e+00 4.771617955969544023e-02 -1.729585220172673993e-02 9.987109395454996097e-01
3.200000000000000178e+00 5.803142441443627508e-02 -1.577169203160906641e-02 9.981898846994482488e-01
3.306666666666667087e+00 6.174614308151812891e-02 -8.105307042084945734e-03 9.980586842864443975e-01
3.413333333333333552e+00 5.696129071992781651e-02 4.931560891451788886e-04 9.983759987172157180e-01
3.520000000000000018e+00 4.534533881108048642e-02 4.853605545700728080e-03 9.989593627488800864e-01
3.626666666666666927e+00 3.127780952018148486e-02 1.989491871222540207e-03 9.995085958889048383e-01
3.733333333333333393e+00 1.992324568596918685e-02 -7.763628328687349756e-03 9.997712604364892286e-01
3.840000000000000302e+00 1.504159012571426243e-02 -2.103719553826361929e-02 9.996654085163880765e-01
3.946666666666666767e+00 1.747285387596962669e-02 -3.299473847209669075e-02 9.993025995889770474e-01
4.053333333333333677e+00 2.490351194415800495e-02 -3.941339159574176049e-02 9.989123866701556942e-01
4.160000000000000142e+00 3.296680609400304968e-02 -3.848361071919258192e-02 9.987150355983650529e-01
