0.000000000000000000e+00 -1.301383976637444072e-09 -2.264799237705245266e-09 -1.000000000000000000e+00
1.066666666666666735e-01 -1.002599249184808750e-02 -1.052851191192698092e-02 -9.998941559929690470e-01
2.133333333333333470e-01 -1.894540631384661333e-02 -2.148018029601690693e-02 -9.995894700769024643e-01
3.200000000000000067e-01 -2.569217845997524147e-02 -3.312504804720697860e-02 -9.991205351196384976e-01
4.266666666666666941e-01 -2.923439350937181297e-02 -4.556917212603295297e-02 -9.985328176915679865e-01
5.333333333333333259e-01 -2.863200661025908089e-02 -5.865463512389559875e-02 -9.978670432438733195e-01
6.400000000000000133e-01 -2.309077496566411605e-02 -7.190634082417542150e-02 -9.971433751911069621e-01
7.466666666666667007e-01 -1.203999048957138385e-02 -8.452085813104927292e-02 -9.963481859833004384e-01
8.533333333333333881e-01 4.777707202660380625e-03 -9.537531398379398007e-02 -9.954290484879431133e-01
9.600000000000000755e-01 2.721369380708189845e-02 -1.031041609452710284e-01 -9.942972491258607048e-01
1.066666666666666652e+00 5.463393744607146496e-02 -1.061985722929673776e-01 -9.928418016480510255e-01
1.173333333333333339e+00 8.586369117005090978e-02 -1.031507704956124566e-01 -9.909515268124082787e-01
1.280000000000000027e+00 1.191723819243416388e-01 -9.263943652207159984e-02 -9.885409227300383517e-01
1.386666666666666714e+00 1.523114706615725789e-01 -7.371743864996485596e-02 -9.855779531029338347e-01
1.493333333333333401e+00 1.826227376455913098e-01 -4.601412095922520484e-02 -9.821039791690822085e-01
1.600000000000000089e+00 2.072050412245756701e-01 -9.896092116159910246e-03 -9.782455552098799911e-01
1.706666666666666776e+00 2.231467321232560308e-01 3.340368530132001301e-02 -9.742102478344341066e-01
1.813333333333333464e+00 2.278072548353311244e-01 8.174191862665267094e-02 -9.702668033931095559e-01
1.920000000000000151e+00 2.191162748262261428e-01 1.321014139132802301e-01 -9.667122410035299263e-01
2.026666666666666838e+00 1.958756944705639935e-01 1.807385437102723702e-01 -9.638264159680937082e-01
2.133333333333333304e+00 1.580192899466141832e-01 2.234264958832298253e-01 -9.618240123976946609e-01
2.240000000000000213e+00 1.067919781298036219e-01 2.558051226241028764e-01 -9.608090663039943191e-01
2.346666666666666679e+00 4.482596964797742889e-02 2.737846413927107481e-01 -9.607431771418690758e-01
2.453333333333333588e+00 -2.391458150862608295e-02 2.739945671497268087e-01 -9.614312073698723093e-01
2.560000000000000053e+00 -9.434643934354393358e-02 2.542308738447792149e-01 -9.625281257332359841e-01
2.666666666666666963e+00 -1.606125021196029012e-01 2.138271685198177563e-01 -9.635749137956337584e-01
2.773333333333333428e+00 -2.165694309585234900e-01 1.539169106944964505e-01 -9.640551609041867476e-01
2.880000000000000338e+00 -2.563522343366645972e-01 7.756121493623238661e-02 -9.634639749480355952e-01
2.986666666666666803e+00 -2.749908191468901086e-01 -1.034035929283655397e-02 -9.613885898507930072e-01
3.093333333333333712e+00 -2.690076680999086145e-01 -1.033169403305773809e-01 -9.575777337182164173e-01
3.200000000000000178e+00 -2.369141106926540841e-01 -1.938094458360817840e-01 -9.519999266929863868e-01
3.306666666666667087e+00 -1.795700850875691090e-01 -2.738036996013668567e-01 -9.448703197585742730e-01
3.413333333333333552e+00 -1.003307620600220329e-01 -3.355976668091470994e-01 -9.366436143789148572e-01
3.520000000000000018e+00 -4.925706943449369157e-03 -3.725904709538412352e-01 -9.279789379905959423e-01
3.626666666666666927e+00 9.888311323333585923e-02 -3.800614067995636836e-01 -9.196563668445765227e-01
3.733333333333333393e+00 2.019312370482392871e-01 -3.557882787778773870e-01 -9.124858743623603941e-01
3.840000000000000302e+00 2.944546754222324703e-01 -3.004847017124023800e-01 -9.071918848750342157e-01
3.946666666666666767e+00 3.670451601660867369e-01 -2.179614755427962958e-01 -9.043020693037712165e-01
4.053333333333333677e+00 4.116393439817228050e-01 -1.149437478462531359e-01 -9.040644696401556324e-01
4.160000000000000142e+00 4.224449208358482255e-01 -6.114154836200924592e-04 -9.063838018013282705e-01
