0.000000000000000000e+00 -2.678748848383033671e-09 3.352556055241603074e-09 -1.000000000000000000e+00
1.066666666666666735e-01 -2.362417836194364573e-01 -1.766076768300375299e-01 -9.555087882696621238e-01
2.133333333333333470e-01 -4.328418722453504230e-01 -3.564603710556604188e-01 -8.279967441053635024e-01
3.200000000000000067e-01 -5.560062569067051319e-01 -5.373716279881191049e-01 -6.340983811769543843e-01
4.266666666666666941e-01 -5.831940997773195079e-01 -7.083045228559283757e-01 -3.977175134943791712e-01
5.333333333333333259e-01 -5.074846441765999971e-01 -8.493048278863646328e-01 -1.453595580973129076e-01
6.400000000000000133e-01 -3.400047783513974187e-01 -9.352344586924014047e-01 9.859984579626697443e-02
7.466666666666667007e-01 -1.094609341290698201e-01 -9.425399304318491378e-01 3.156361366897101894e-01
8.533333333333333881e-01 1.419221636069120107e-01 -8.572132140671635536e-01 4.950092622677277343e-01
9.600000000000000755e-01 3.659453978725886736e-01 -6.814962517357608940e-01 6.337497637215430135e-01
1.066666666666666652e+00 5.184130108921914948e-01 -4.369232606358304238e-01 7.350777153847132261e-01
1.173333333333333339e+00 5.693749546033120001e-01 -1.621764285942698391e-01 8.059189060069190669e-01
1.280000000000000027e+00 5.109835131062907543e-01 9.441764239999986263e-02 8.543865197200158912e-01
1.386666666666666714e+00 3.604309264188721440e-01 2.861234782946044941e-01 8.878168361933927999e-01
1.493333333333333401e+00 1.565455911001261136e-01 3.798446151081086297e-01 9.117060353277283147e-01
1.600000000000000089e+00 -4.967633564086020026e-02 3.653516269933552163e-01 9.295414114182679599e-01
1.706666666666666776e+00 -2.083744751048711152e-01 2.586925256336675139e-01 9.432154550878785182e-01
1.813333333333333464e+00 -2.843039221984272613e-01 9.820060525651391758e-02 9.536903910167719989e-01
1.920000000000000151e+00 -2.664704464157803820e-01 -6.612367800569080023e-02 9.615710314763804556e-01
2.026666666666666838e+00 -1.707388492326253338e-01 -1.868979405538895577e-01 9.674271521310763289e-01
2.133333333333333304e+00 -3.436846548162701687e-02 -2.330433711611139547e-01 9.718578297024949020e-01
2.240000000000000213e+00 9.601861362533432864e-02 -1.984017734869242822e-01 9.754052186692626636e-01
2.346666666666666679e+00 1.792919242258314283e-01 -1.025036572427134307e-01 9.784404447640049352e-01
2.453333333333333588e+00 1.926485589209951943e-01 1.693072394211013465e-02 9.811209391665374202e-01
2.560000000000000053e+00 1.381119440204435500e-01 1.172805755490043678e-01 9.834474423629869788e-01
2.666666666666666963e+00 4.056603881203341838e-02 1.655497843123707180e-01 9.853660606755081375e-01
2.773333333333333428e+00 -6.197544076989698614e-02 1.491758245584994258e-01 9.868658973240634902e-01
2.880000000000000338e+00 -1.323599838085716962e-01 7.934797878193818044e-02 9.880199781810654613e-01
2.986666666666666803e+00 -1.474986241173761869e-01 -1.421829661974249870e-02 9.889594487156623259e-01
3.093333333333333712e+00 -1.060088497599984414e-01 -9.501294628391923625e-02 9.898148842913417900e-01
3.200000000000000178e+00 -2.764944621238407674e-02 -1.335245789863233612e-01 9.906591671224570517e-01
3.306666666666667087e+00 5.511465326228581763e-02 -1.179507132125675317e-01 9.914882461533131019e-01
3.413333333333333552e+00 1.100144953247678969e-01 -5.782116903460782914e-02 9.922461953316501493e-01
3.520000000000000018e+00 1.173618053268251638e-01 2.064276642899551262e-02 9.928741664623496055e-01
3.626666666666666927e+00 7.713407150922549360e-02 8.546227376601181480e-02 9.933506922704694597e-01
3.733333333333333393e+00 8.108321028318238310e-03 1.116990262875136031e-01 9.937085432670841323e-01
3.840000000000000302e+00 -6.037424100694256668e-02 9.106260198216975521e-02 9.940129083836450885e-01
3.946666666666666767e+00 -1.005982945447506938e-01 3.451407369261481894e-02 9.943278599364138159e-01
4.053333333333333677e+00 -9.760502849326711805e-02 -3.290409903636745681e-02 9.946807196673818074e-01
4.160000000000000142e+00 -5.479167015522708184e-02 -8.284319218919954098e-02 9.950548067133534458e-01
