0.000000000000000000e+00 -1.986943652439574924e-09 9.449691668851783211e-11 -1.000000000000000000e+00
1.066666666666666735e-01 1.425369800374370888e-02 2.026544174313719276e-02 -9.996928929011384968e-01
2.133333333333333470e-01 2.742829617820440394e-02 4.124000297247473051e-02 -9.987724728778799577e-01
3.200000000000000067e-01 3.840902972087192890e-02 6.351082175374102301e-02 -9.972413927973083903e-01
4.266666666666666941e-01 4.598389734148961017e-02 8.747983988597837768e-02 -9.951039147236826476e-01
5.333333333333333259e-01 4.883420234955002798e-02 1.132397222873507553e-01 -9.923662617906526817e-01
6.400000000000000133e-01 4.556646471986892932e-02 1.404629775467435004e-01 -9.890361091803219207e-01
7.466666666666667007e-01 3.477386824174453356e-02 1.682869143717906080e-01 -9.851236647439304273e-01
8.533333333333333881e-01 1.518607946882379045e-02 1.952250553079736550e-01 -9.806399254911728480e-01
9.600000000000000755e-01 -1.413449767460669970e-02 2.191028097001193331e-01 -9.755982952714736811e-01
1.066666666666666652e+00 -5.353296188448930515e-02 2.370759459182704421e-01 -9.700138265725706255e-01
1.173333333333333339e+00 -1.024579132513739055e-01 2.457435591349509674e-01 -9.639034401308403943e-01
1.280000000000000027e+00 -1.591541093683267460e-01 2.413989171023674662e-01 -9.572845123790710842e-01
1.386666666666666714e+00 -2.203877532139881246e-01 2.204236277383589959e-01 -9.501786885300044228e-01
1.493333333333333401e+00 -2.813171582610621280e-01 1.798753591495723114e-01 -9.426039020598977469e-01
1.600000000000000089e+00 -3.355483051921108184e-01 1.181365534066271400e-01 -9.345841074074252575e-01
1.706666666666666776e+00 -3.754758816370926122e-01 3.568723365402759473e-02 -9.261427465869281894e-01
1.813333333333333464e+00 -3.929776443721654244e-01 -6.421439932002404039e-02 -9.173008856004777334e-01
1.920000000000000151e+00 -3.804342701908173252e-01 -1.750628976169515683e-01 -9.080849762726357355e-01
2.026666666666666838e+00 -3.320792903747150637e-01 -2.870244890394189063e-01 -8.985185578121080985e-01
2.133333333333333304e+00 -2.454771396942005135e-01 -3.873987964200616974e-01 -8.886271652611695826e-01
2.240000000000000213e+00 -1.229306468690538612e-01 -4.617753330725907768e-01 -8.784340876572026557e-01
2.346666666666666679e+00 2.751005395736538794e-02 -4.958614836701958906e-01 -8.679626338301376087e-01
2.453333333333333588e+00 1.917737104201510112e-01 -4.778692331470055232e-01 -8.572386973803594046e-01
2.560000000000000053e+00 3.504941231654186695e-01 -4.011809846494278631e-01 -8.462870617916775640e-01
2.666666666666666963e+00 4.810059576565936523e-01 -2.668054817445667526e-01 -8.351299261902084270e-01
2.773333333333333428e+00 5.604810269825361013e-01 -8.506296084269723834e-02 -8.237833119987948427e-01
2.880000000000000338e+00 5.699148780773650724e-01 1.240768575161099174e-01 -8.122779224094910377e-01
2.986666666666666803e+00 4.984667981265315517e-01 3.324458183417712820e-01 -8.006271466935420689e-01
3.093333333333333712e+00 3.471542428394938651e-01 5.071346815262820495e-01 -7.888544436233864143e-01
3.200000000000000178e+00 1.310671908372733618e-01 6.157316052631941483e-01 -7.769740832003732001e-01
3.306666666666667087e+00 -1.208137108413220862e-01 6.325819768256193409e-01 -7.650076033492437810e-01
3.413333333333333552e+00 -3.687177089016355769e-01 5.450382971728868764e-01 -7.529760067059987350e-01
3.520000000000000018e+00 -5.681095626593701819e-01 3.582397181056129476e-01 -7.408832092277837233e-01
3.626666666666666927e+00 -6.778634295662004927e-01 9.699476326216305289e-02 -7.287558351400688084e-01
3.733333333333333393e+00 -6.693043941664326146e-01 -1.962188653544417738e-01 -7.166041746806918189e-01
3.840000000000000302e+00 -5.340423056918404132e-01 -4.675045955135392894e-01 -7.044357604720011823e-01
3.946666666666666767e+00 -2.886541496515194760e-01 -6.613892002459506037e-01 -6.922676034265622391e-01
4.053333333333333677e+00 2.551649316252768696e-02 -7.326592904374937820e-01 -6.801106219503789685e-01
4.160000000000000142e+00 3.482894649047453273e-01 -6.576427507227159408e-01 -6.679756425791079089e-01
