0.000000000000000000e+00 -2.186962962379256423e-10 -4.482966576249791347e-09 -1.000000000000000000e+00
1.066666666666666735e-01 5.529668076098309681e-03 2.949187369672147674e-01 -9.555040233435603270e-01
2.133333333333333470e-01 1.477500024801486900e-02 5.606210191169505030e-01 -8.279350063763570855e-01
3.200000000000000067e-01 3.117369273650696937e-02 7.727335250654681076e-01 -6.339533910041449394e-01
4.266666666666666941e-01 5.745151777852947061e-02 9.156222242448811555e-01 -3.978911845999488772e-01
5.333333333333333259e-01 9.524394999309770959e-02 9.844710046656850455e-01 -1.473961004289536525e-01
6.400000000000000133e-01 1.446952595217058102e-01 9.852441291372207033e-01 9.130867135478748509e-02
7.466666666666667007e-01 2.041802184422112365e-01 9.325982028855631656e-01 2.975771465629154511e-01
8.533333333333333881e-01 2.702473400736948861e-01 8.462950533702735534e-01 4.590576919438057457e-01
9.600000000000000755e-01 3.379173544806843843e-01 7.469505530669418025e-01 5.725918232656753704e-01
1.066666666666666652e+00 4.013356587996076974e-01 6.520759188911612325e-01 6.432050084560327896e-01
1.173333333333333339e+00 4.547322645117949369e-01 5.732328556958397048e-01 6.816226741079027818e-01
1.280000000000000027e+00 4.935033626729267708e-01 5.148187978728676617e-01 7.010016235751486136e-01
1.386666666666666714e+00 5.151737022278877198e-01 4.746032225587488718e-01 7.136773618436149658e-01
1.493333333333333401e+00 5.200070528014371085e-01 4.457111962793340876e-01 7.286440075097653235e-01
1.600000000000000089e+00 5.110335680550467385e-01 4.194303320496867160e-01 7.502741670420187692e-01
1.706666666666666776e+00 4.934834563806539398e-01 3.880812750740738615e-01 7.783676355362839638e-01
1.813333333333333464e+00 4.736669219177879198e-01 3.472019717147855067e-01 8.093704248148820835e-01
1.920000000000000151e+00 4.575894385505092088e-01 2.966169216073332171e-01 8.382250468853882364e-01
2.026666666666666838e+00 4.495768269482360302e-01 2.401292670693073728e-01 8.603547294472400075e-01
2.133333333333333304e+00 4.513244792913929104e-01 1.841218923188842893e-01 8.731537261898699720e-01
2.240000000000000213e+00 4.615636319307219182e-01 1.354783719794518115e-01 8.766965482405406629e-01
2.346666666666666679e+00 4.764854046115016839e-01 9.947393896679151970e-02 8.735323086752325716e-01
2.453333333333333588e+00 4.908104117531145727e-01 7.823826503580558200e-02 8.677417917015428639e-01
2.560000000000000053e+00 4.992578039270895163e-01 7.015798634499947894e-02 8.636036503472503956e-01
2.666666666666666963e+00 4.979928078699745742e-01 7.038916675667791778e-02 8.643149357053759863e-01
2.773333333333333428e+00 4.856964515279577621e-01 7.226484107269670609e-02 8.711307417740332681e-01
2.880000000000000338e+00 4.639605591138070140e-01 6.919944484781709315e-02 8.831446549956226688e-01
2.986666666666666803e+00 4.368778919985513709e-01 5.651542730069070153e-02 8.977397755371017141e-01
3.093333333333333712e+00 4.099391742165511276e-01 3.269453058888280306e-02 9.115231657523997777e-01
3.200000000000000178e+00 3.885488454680719461e-01 -2.687708245710795918e-04 9.214248087099889961e-01
3.306666666666667087e+00 3.765404867621164886e-01 -3.752260686083833119e-02 9.256367827616882593e-01
3.413333333333333552e+00 3.751176566018101788e-01 -7.279265085648417566e-02 9.241114897662683347e-01
3.520000000000000018e+00 3.825188807360691001e-01 -1.001907057112636223e-01 9.184960319603151513e-01
3.626666666666666927e+00 3.945036035022870813e-01 -1.158825255617944028e-01 9.115545464765917316e-01
3.733333333333333393e+00 4.055192911712988124e-01 -1.191659130001888750e-01 9.062819178418447530e-01
3.840000000000000302e+00 4.102681410959624908e-01 -1.126285210334853071e-01 9.049796396438940516e-01
3.946666666666666767e+00 4.051813672550474976e-01 -1.014063094986495106e-01 9.085913499468499799e-01
4.053333333333333677e+00 3.894358878305577143e-01 -9.171972733520383780e-02 9.164719977476433188e-01
4.160000000000000142e+00 3.651988633937162110e-01 -8.913325747078437722e-02 9.266494651774361824e-01
