0.000000000000000000e+00 -2.954516622704065920e-09 5.135637793321355296e-10 -1.000000000000000000e+00
1.066666666666666735e-01 -1.901461165835218944e-03 2.470276942849867693e-02 -9.996929144064979900e-01
2.133333333333333470e-01 -3.822712610448877890e-03 4.938019441888158445e-02 -9.987725169272463344e-01
3.200000000000000067e-01 -5.758602513214411758e-03 7.399805553852673023e-02 -9.972414347210651897e-01
4.266666666666666941e-01 -7.716162181723315583e-03 9.852833179374670403e-02 -9.951039021880124791e-01
5.333333333333333259e-01 -9.703168424317162866e-03 1.229388972403696323e-01 -9.923662716472760881e-01
6.400000000000000133e-01 -1.172474808502597422e-02 1.472023790008097910e-01 -9.890362589590101505e-01
7.466666666666667007e-01 -1.378626844484535929e-02 1.712880846619435904e-01 -9.851237740185516678e-01
8.533333333333333881e-01 -1.589284218504749546e-02 1.951693151469119369e-01 -9.806399240184958677e-01
9.600000000000000755e-01 -1.804849331695533576e-02 2.188157441982467033e-01 -9.755982829475232654e-01
1.066666666666666652e+00 -2.025329904568309858e-02 2.421986739164450064e-01 -9.700141620896233219e-01
1.173333333333333339e+00 -2.251510688169672258e-02 2.652935423720513830e-01 -9.639035495878446325e-01
1.280000000000000027e+00 -2.483012869650891297e-02 2.880740688417949835e-01 -9.572848160838143272e-01
1.386666666666666714e+00 -2.719572380162536135e-02 3.105148384797424832e-01 -9.501779444872818781e-01
1.493333333333333401e+00 -2.961468724530112728e-02 3.325931354442081544e-01 -9.426037069227370946e-01
1.600000000000000089e+00 -3.208554899022410256e-02 3.542875485888806741e-01 -9.345841832721932807e-01
1.706666666666666776e+00 -3.459917458843428384e-02 3.755783389446606946e-01 -9.261427136941737803e-01
1.813333333333333464e+00 -3.715547479515241003e-02 3.964510960700142195e-01 -9.173016353222437358e-01
1.920000000000000151e+00 -3.974917856265153260e-02 4.168894334275993763e-01 -9.080854959643708257e-01
2.026666666666666838e+00 -4.237494338278322004e-02 4.368775041505037482e-01 -8.985200336942497090e-01
2.133333333333333304e+00 -4.502374703454281590e-02 4.564091800768854124e-01 -8.886276720631849368e-01
2.240000000000000213e+00 -4.769450758271850943e-02 4.754722209732262228e-01 -8.784342867389256515e-01
2.346666666666666679e+00 -5.037672862271097562e-02 4.940620549691641106e-01 -8.679631602367040566e-01
2.453333333333333588e+00 -5.306464208705718999e-02 5.121695585651157012e-01 -8.572405993859856244e-01
2.560000000000000053e+00 -5.575149270433776838e-02 5.297953713418894761e-01 -8.462879980733348795e-01
2.666666666666666963e+00 -5.843187823923051000e-02 5.469390884316902568e-01 -8.351274620827214834e-01
2.773333333333333428e+00 -6.110076267451083898e-02 5.635977822774062007e-01 -8.237830766912229707e-01
2.880000000000000338e+00 -6.374554064050177993e-02 5.797752680997126928e-01 -8.122753598070813208e-01
2.986666666666666803e+00 -6.636742260550092254e-02 5.954724760578923304e-01 -8.006258834702262295e-01
3.093333333333333712e+00 -6.895620518605355409e-02 6.106985467116352595e-01 -7.888510880202818099e-01
3.200000000000000178e+00 -7.150701800303733979e-02 6.254526671384802450e-01 -7.769744050409614911e-01
3.306666666666667087e+00 -7.401903843236322389e-02 6.397460640414772692e-01 -7.650094650452833323e-01
3.413333333333333552e+00 -7.647854768833944883e-02 6.535833275610832827e-01 -7.529760987960399943e-01
3.520000000000000018e+00 -7.889479544635727426e-02 6.669779341284545193e-01 -7.408839330143864865e-01
3.626666666666666927e+00 -8.125200489977690843e-02 6.799307169175454746e-01 -7.287558627034677050e-01
3.733333333333333393e+00 -8.355000540531731801e-02 6.924537361735524366e-01 -7.166029726766264263e-01
3.840000000000000302e+00 -8.578755188887599026e-02 7.045579869128644201e-01 -7.044366327265576544e-01
3.946666666666666767e+00 -8.796350604091365821e-02 7.162540879948665618e-01 -6.922678458825336500e-01
4.053333333333333677e+00 -9.006919938164342776e-02 7.275498757011087392e-01 -6.801108864115855690e-01
4.160000000000000142e+00 -9.210867442414172324e-02 7.384536152792890995e-01 -6.679776899361848930e-01
