0.000000000000000000e+00 -7.949297338895537880e-10 -2.291254360435211470e-09 -1.000000000000000000e+00
1.066666666666666735e-01 -3.053774444426355927e-01 1.072196699044803692e-01 -9.461745848775383605e-01
2.133333333333333470e-01 -5.831221700547604136e-01 1.775281871186156213e-01 -7.927468427086254987e-01
3.200000000000000067e-01 -8.063994393581881415e-01 1.839470589565399272e-01 -5.620288192730783505e-01
4.266666666666666941e-01 -9.511891540294910019e-01 1.168272120152480387e-01 -2.856256138302400993e-01
5.333333333333333259e-01 -9.999066511327818763e-01 -1.313658540039330802e-02 2.234668396998325691e-03
6.400000000000000133e-01 -9.460257177045282573e-01 -1.772678004929628126e-01 2.712984256888913426e-01
7.466666666666667007e-01 -7.980223343670665992e-01 -3.362671203527795583e-01 5.000773139032812509e-01
8.533333333333333881e-01 -5.806282955848476313e-01 -4.507928707999586670e-01 6.779753619580797253e-01
9.600000000000000755e-01 -3.319096527918635742e-01 -4.923993064477132919e-01 8.045957600637457796e-01
1.066666666666666652e+00 -9.599219188061428043e-02 -4.516916063583408247e-01 8.869931438533275037e-01
1.173333333333333339e+00 8.698591878541463152e-02 -3.410644393606052649e-01 9.360053756063263508e-01
1.280000000000000027e+00 1.908632833314888311e-01 -1.909675317048021015e-01 9.628607375870559260e-01
1.386666666666666714e+00 2.100369154587248266e-01 -4.064196583184809253e-02 9.768476422516588764e-01
1.493333333333333401e+00 1.602085353908925813e-01 7.378185216391842938e-02 9.843212461004975378e-01
1.600000000000000089e+00 7.272034839519911364e-02 1.299785600046474143e-01 9.888459738525728904e-01
1.706666666666666776e+00 -1.587162570579961351e-02 1.252949226763806767e-01 9.919921644742867306e-01
1.813333333333333464e+00 -7.541785612384331594e-02 7.583770888878155203e-02 9.942635942069071309e-01
1.920000000000000151e+00 -9.101649279604021037e-02 9.266768141343181830e-03 9.958059695227221564e-01
2.026666666666666838e+00 -6.597601463904817498e-02 -4.589998938079145607e-02 9.967646809417556319e-01
2.133333333333333304e+00 -1.813808822096868445e-02 -7.043483217810730945e-02 9.973512244048314823e-01
2.240000000000000213e+00 2.879078794661782403e-02 -6.020263743338326312e-02 9.977706609764525059e-01
2.346666666666666679e+00 5.522483279799805800e-02 -2.568090013686663911e-02 9.981434285519628080e-01
2.453333333333333588e+00 5.302230383985982731e-02 1.419942858768227095e-02 9.984921852838058998e-01
2.560000000000000053e+00 2.741779702394210941e-02 4.097387266914614273e-02 9.987837972173363443e-01
2.666666666666666963e+00 -6.845954180576013792e-03 4.443458043690631104e-02 9.989886868511415052e-01
2.773333333333333428e+00 -3.303837740440802168e-02 2.612860742388684043e-02 9.991123434943637305e-01
2.880000000000000338e+00 -4.012669299939775058e-02 -2.653440601172098179e-03 9.991909394635711816e-01
2.986666666666666803e+00 -2.716258688186762305e-02 -2.705622928813798331e-02 9.992646754466087966e-01
3.093333333333333712e+00 -2.709712282545580220e-03 -3.587104757841003133e-02 9.993526292901196983e-01
3.200000000000000178e+00 2.009988761047601727e-02 -2.646361861036421875e-02 9.994475680364742765e-01
3.306666666666667087e+00 3.023155283638097671e-02 -5.236875188087096455e-03 9.995290963506004989e-01
3.413333333333333552e+00 2.387884253123455369e-02 1.624795055315047740e-02 9.995827142559960965e-01
3.520000000000000018e+00 5.719394071960938117e-03 2.733056860012255534e-02 9.996099899494074181e-01
3.626666666666666927e+00 -1.408547530164170475e-02 2.343465249691754904e-02 9.996260418287592486e-01
3.733333333333333393e+00 -2.535406377509345777e-02 7.870067490182226094e-03 9.996474607404954860e-01
3.840000000000000302e+00 -2.301383160771278830e-02 -1.040695921948244992e-02 9.996808886681580741e-01
3.946666666666666767e+00 -9.304123970464628010e-03 -2.172468230221647270e-02 9.997206123496790164e-01
4.053333333333333677e+00 7.864470817525191781e-03 -2.069030158547086745e-02 9.997549211437293248e-01
4.160000000000000142e+00 1.932823416227170965e-02 -8.673876851979914204e-03 9.997754900467943351e-01
