0.000000000000000000e+00 3.876885385338918909e-09 5.406051051388197958e-10 -1.000000000000000000e+00
1.066666666666666735e-01 -8.748070574322936582e-03 -2.317908783335086154e-02 -9.996928925998475046e-01
2.133333333333333470e-01 -1.744318245028873490e-02 -4.635743597799572846e-02 -9.987723048762067179e-01
3.200000000000000067e-01 -2.605909266039520972e-02 -6.950894144770773664e-02 -9.972404645939557666e-01
4.266666666666666941e-01 -3.455739254167703584e-02 -9.261769220085989962e-02 -9.951012930381406552e-01
5.333333333333333259e-01 -4.290264291684150327e-02 -1.156634289410254784e-01 -9.923607636371927221e-01
6.400000000000000133e-01 -5.105770230437269019e-02 -1.386251493906222876e-01 -9.890270188402759954e-01
7.466666666666667007e-01 -5.899338679396563812e-02 -1.614774520575094630e-01 -9.851105462710583183e-01
8.533333333333333881e-01 -6.667937965287173974e-02 -1.841900676582418905e-01 -9.806250873474241514e-01
9.600000000000000755e-01 -7.408979096028465994e-02 -2.067343952947287011e-01 -9.755864798534436000e-01
1.066666666666666652e+00 -8.120425644974427204e-02 -2.290791920278629212e-01 -9.700132373624249515e-01
1.173333333333333339e+00 -8.800399016435200839e-02 -2.511932659409181756e-01 -9.639263601605631004e-01
1.280000000000000027e+00 -9.447302917921994447e-02 -2.730432915381587611e-01 -9.573498269285372064e-01
1.386666666666666714e+00 -1.006061957841878074e-01 -2.945989283908687639e-01 -9.503083939050346318e-01
1.493333333333333401e+00 -1.063952067732368140e-01 -3.158319694831159818e-01 -9.428287759853491989e-01
1.600000000000000089e+00 -1.118396927995647661e-01 -3.367152394867352072e-01 -9.349386607370659963e-01
1.706666666666666776e+00 -1.169430956234403518e-01 -3.572216382122936906e-01 -9.266672973219045595e-01
1.813333333333333464e+00 -1.217088631810433752e-01 -3.773292927363673943e-01 -9.180438564768009790e-01
1.920000000000000151e+00 -1.261422900644165734e-01 -3.970193644737518568e-01 -9.090975809686475673e-01
2.026666666666666838e+00 -1.302559107751570799e-01 -4.162706646025305934e-01 -8.998591545909189193e-01
2.133333333333333304e+00 -1.340569057263065189e-01 -4.350760518823025835e-01 -8.903547873051117501e-01
2.240000000000000213e+00 -1.375582188156632690e-01 -4.534196480598233214e-01 -8.806146381629125219e-01
2.346666666666666679e+00 -1.407712297724594275e-01 -4.712962456919457810e-01 -8.706645745929959546e-01
2.453333333333333588e+00 -1.437097744840470925e-01 -4.887020387775629082e-01 -8.605295037804059355e-01
2.560000000000000053e+00 -1.463945313392551739e-01 -5.056331044370562244e-01 -8.502333414686320534e-01
2.666666666666666963e+00 -1.488341711698328296e-01 -5.220901999321856390e-01 -8.397993031431909561e-01
2.773333333333333428e+00 -1.510501804087238664e-01 -5.380703975253978699e-01 -8.292505519575923412e-01
2.880000000000000338e+00 -1.530587143164159059e-01 -5.535805907100704859e-01 -8.186047172193136046e-01
2.986666666666666803e+00 -1.548708898450240068e-01 -5.686192870007393818e-01 -8.078854981338389196e-01
3.093333333333333712e+00 -1.565050190806848429e-01 -5.831926346640990966e-01 -7.971098671374411415e-01
3.200000000000000178e+00 -1.579674758403052937e-01 -5.973045010272305388e-01 -7.862982710310877366e-01
3.306666666666667087e+00 -1.592713055591780669e-01 -6.109636865899278346e-01 -7.754657611321272848e-01
3.413333333333333552e+00 -1.604244114231056506e-01 -6.241829800797357164e-01 -7.646244196804333759e-01
3.520000000000000018e+00 -1.614404928307899834e-01 -6.369728474916551697e-01 -7.537859236291399867e-01
3.626666666666666927e+00 -1.623342230560050337e-01 -6.493429437330242582e-01 -7.429614903701030615e-01
3.733333333333333393e+00 -1.631115831235859237e-01 -6.613099074746814354e-01 -7.321571091705191270e-01
3.840000000000000302e+00 -1.637871461067560985e-01 -6.728772562174587524e-01 -7.213875334862787092e-01
3.946666666666666767e+00 -1.643789819451242362e-01 -6.840600357325832270e-01 -7.106554816761150306e-01
4.053333333333333677e+00 -1.648911841599820516e-01 -6.948647759672923474e-01 -6.999738793382638269e-01
4.160000000000000142e+00 -1.653400803486614890e-01 -7.053001103516692849e-01 -6.893502829968201073e-01
