0.000000000000000000e+00 -1.413520919780571999e-09 -2.236989354639658481e-09 -1.000000000000000000e+00
1.066666666666666735e-01 -1.488215128878744298e-01 2.546630522886792480e-01 -9.555085854973697224e-01
2.133333333333333470e-01 -3.059301706470428650e-01 4.699270923407516953e-01 -8.279918572791846731e-01
3.200000000000000067e-01 -4.731853292604113470e-01 6.116030203964428758e-01 -6.340585108258330882e-01
4.266666666666666941e-01 -6.417822605551495307e-01 6.557941079284320685e-01 -3.975431951050072410e-01
5.333333333333333259e-01 -7.917426395399222994e-01 5.934310699492064689e-01 -1.448209986683630934e-01
6.400000000000000133e-01 -8.956754032054137227e-01 4.333297405727637996e-01 9.990398603284110501e-02
7.466666666666667007e-01 -9.261106254680226968e-01 2.025585031345101261e-01 3.182447155654059556e-01
8.533333333333333881e-01 -8.644427437138331172e-01 -5.689915144361767929e-02 4.994926450309016830e-01
9.600000000000000755e-01 -7.087923005625155204e-01 -2.954763317765958242e-01 6.405467173396220959e-01
1.066666666666666652e+00 -4.780212551038097168e-01 -4.663333353132665948e-01 7.443272074446591891e-01
1.173333333333333339e+00 -2.100598962110411527e-01 -5.364552935224862207e-01 8.173650599937067884e-01
1.280000000000000027e+00 4.580523442899036429e-02 -4.954934435769030032e-01 8.674007413975435288e-01
1.386666666666666714e+00 2.409666350764403386e-01 -3.593919789336776915e-01 9.015370308224569529e-01
1.493333333333333401e+00 3.405671633975414503e-01 -1.670401587437198854e-01 9.252613749895753914e-01
1.600000000000000089e+00 3.335680660184117130e-01 2.979055425506124677e-02 9.422538325297992179e-01
1.706666666666666776e+00 2.362710513092074194e-01 1.807206907756265246e-01 9.547323018163860198e-01
1.813333333333333464e+00 8.774436195939581962e-02 2.510700801276289917e-01 9.639827578779047723e-01
1.920000000000000151e+00 -6.190600998650950398e-02 2.316315554607821514e-01 9.708309270943216163e-01
2.026666666666666838e+00 -1.668510330452669110e-01 1.405406037256869134e-01 9.759136545279503139e-01
2.133333333333333304e+00 -1.994731613409592708e-01 1.638450598919426876e-02 9.797655557652904523e-01
2.240000000000000213e+00 -1.581566255588521819e-01 -9.530231565605065680e-02 9.828034422698702643e-01
2.346666666666666679e+00 -6.621181786980170902e-02 -1.575132505010140571e-01 9.852940287360584248e-01
2.453333333333333588e+00 3.773271855420998189e-02 -1.538661211024716924e-01 9.873703996761451496e-01
2.560000000000000053e+00 1.143364333263391652e-01 -9.299821406173924832e-02 9.890790873103929570e-01
2.666666666666666963e+00 1.378161100120250115e-01 -3.734352224432510581e-03 9.904502888161261787e-01
2.773333333333333428e+00 1.045848821558037628e-01 7.693124749349888880e-02 9.915354983893844842e-01
2.880000000000000338e+00 3.311994585707635219e-02 1.183993263020857445e-01 9.924131078048848975e-01
2.986666666666666803e+00 -4.461939648664277336e-02 1.078720079175023855e-01 9.931625703080353418e-01
3.093333333333333712e+00 -9.665979559366102980e-02 5.424327085750226679e-02 9.938378876890682223e-01
3.200000000000000178e+00 -1.038150681454818175e-01 -1.681222623748045847e-02 9.944541292137246691e-01
3.306666666666667087e+00 -6.672247523754418208e-02 -7.431652355268633658e-02 9.949997186160706164e-01
3.413333333333333552e+00 -4.413289941766937799e-03 -9.510438356526515480e-02 9.954571740169798622e-01
3.520000000000000018e+00 5.471113713704427867e-02 -7.304871455560767168e-02 9.958262448267560796e-01
3.626666666666666927e+00 8.544280676263465990e-02 -2.073010888489344727e-02 9.961270736629487255e-01
3.733333333333333393e+00 7.639361383182123599e-02 3.698105932592658102e-02 9.963913865679404624e-01
3.840000000000000302e+00 3.421092611893693236e-02 7.434531329753857332e-02 9.966452658584180613e-01
3.946666666666666767e+00 -2.024569144851331992e-02 7.607320890546585834e-02 9.968963847189277194e-01
4.053333333333333677e+00 -6.183442231480858892e-02 4.356666519021182987e-02 9.971348414814542593e-01
4.160000000000000142e+00 -7.253922296751066923e-02 -6.504883547357676044e-03 9.973440787777980709e-01
