0.000000000000000000e+00 6.479865153564600831e-09 8.533649681317601125e-10 -1.000000000000000000e+00
1.066666666666666735e-01 5.537047088934837769e-02 -2.050700015217867267e-01 -9.771790145900803859e-01
2.133333333333333470e-01 1.280248023359915888e-01 -3.925331222374280338e-01 -9.107821272828235948e-01
3.200000000000000067e-01 2.308350433231634857e-01 -5.440700404808233026e-01 -8.066584355576755794e-01
4.266666666666666941e-01 3.684166748608144193e-01 -6.408320566515712802e-01 -6.734958020027442815e-01
5.333333333333333259e-01 5.344181699505767824e-01 -6.651706383314974769e-01 -5.214757644677007198e-01
6.400000000000000133e-01 7.106147978025308953e-01 -6.039935387990025273e-01 -3.608448798377620892e-01
7.466666666666667007e-01 8.685272734015299090e-01 -4.531752313890784478e-01 -2.007051278431014329e-01
8.533333333333333881e-01 9.738775455995811736e-01 -2.218815281699224595e-01 -4.817475322332195886e-02
9.600000000000000755e-01 9.936450458753920412e-01 6.484377106066185892e-02 9.194850266936810401e-02
1.066666666666666652e+00 9.046408756237480642e-01 3.667268139863916199e-01 2.170859922495431693e-01
1.173333333333333339e+00 7.017379802135526035e-01 6.332242677079463755e-01 3.264679379311011265e-01
1.280000000000000027e+00 4.033159208467072543e-01 8.126493243766566010e-01 4.206285058718319814e-01
1.386666666666666714e+00 5.170288534558042937e-02 8.639781628501090882e-01 5.008593398412584108e-01
1.493333333333333401e+00 -2.928042013466954918e-01 7.685957244251182541e-01 5.687867370270746070e-01
1.600000000000000089e+00 -5.639971847100718749e-01 5.384025049967645637e-01 6.261170819846504365e-01
1.706666666666666776e+00 -7.056657129913207482e-01 2.171631544274641445e-01 6.744399331381724094e-01
1.813333333333333464e+00 -6.873199685787364510e-01 -1.267793400757116773e-01 7.152005685512595745e-01
1.920000000000000151e+00 -5.149885613341195212e-01 -4.156859348938863330e-01 7.496572783481006974e-01
2.026666666666666838e+00 -2.330087433575399325e-01 -5.822842230037151845e-01 7.788751349627480725e-01
2.133333333333333304e+00 8.508740271020104329e-02 -5.888432132420321485e-01 8.037528586838886824e-01
2.240000000000000213e+00 3.551869614310752543e-01 -4.395143168044545745e-01 8.250239613301615371e-01
2.346666666666666679e+00 5.059931136271494934e-01 -1.812101523533362346e-01 8.432848219679827118e-01
2.453333333333333588e+00 5.003021605319759590e-01 1.084725146727762296e-01 8.590268698838311456e-01
2.560000000000000053e+00 3.470614458999138896e-01 3.435430063204412687e-01 8.726526029869934309e-01
2.666666666666666963e+00 9.955452289348054595e-02 4.558034607779675729e-01 8.844932412142335609e-01
2.773333333333333428e+00 -1.607716198923344608e-01 4.164371148663336686e-01 8.948346024198305937e-01
2.880000000000000338e+00 -3.502270111877840431e-01 2.455326583686537889e-01 9.039088963149626288e-01
2.986666666666666803e+00 -4.103466881670999600e-01 5.560839642845205599e-03 9.119108178338773962e-01
3.093333333333333712e+00 -3.274269086289168240e-01 -2.196496630706928910e-01 9.189899354831796430e-01
3.200000000000000178e+00 -1.369201837327428395e-01 -3.537177845044127689e-01 9.252748738810305795e-01
3.306666666666667087e+00 8.933624510249724149e-02 -3.542618614355484419e-01 9.308677099025506330e-01
3.413333333333333552e+00 2.690437367711911443e-01 -2.275504225312867113e-01 9.358597631298661845e-01
3.520000000000000018e+00 3.392862372634566359e-01 -2.558838458934459270e-02 9.403336766011345382e-01
3.626666666666666927e+00 2.793229565059831554e-01 1.736626562888782532e-01 9.443608425944183260e-01
3.733333333333333393e+00 1.176223774613309736e-01 2.957255463772969772e-01 9.480025894930462771e-01
3.840000000000000302e+00 -7.976954631802277151e-02 2.977511461979851504e-01 9.513036830109385944e-01
3.946666666666666767e+00 -2.352386751732510883e-01 1.843008089419401196e-01 9.543027273504219865e-01
4.053333333333333677e+00 -2.899517745069178920e-01 4.698428404606103115e-03 9.570285652118769582e-01
4.160000000000000142e+00 -2.266249274655451895e-01 -1.672763279826111615e-01 9.595090543271147521e-01
