0.000000000000000000e+00 7.049208868970127951e-13 6.459587714987906732e-14 -1.000000000000000000e+00
1.066666666666666735e-01 -6.085401859517405171e-02 -5.925199697504070911e-03 -9.981290900572870051e-01
2.133333333333333470e-01 -1.185411492627850977e-01 -1.357273723808046645e-02 -9.928563726268524459e-01
3.200000000000000067e-01 -1.699997187186137459e-01 -2.429175823324261629e-02 -9.851446624851154521e-01
4.266666666666666941e-01 -2.123911100653587680e-01 -3.873064647310584668e-02 -9.764168952398711854e-01
5.333333333333333259e-01 -2.432416534245795681e-01 -5.661159276073536584e-02 -9.683122562423174262e-01
6.400000000000000133e-01 -2.606089552469506576e-01 -7.662612474258860551e-02 -9.623987788039894964e-01
7.466666666666667007e-01 -2.632604236798160025e-01 -9.648579502021634169e-02 -9.598877228287701069e-01
8.533333333333333881e-01 -2.508599053988379013e-01 -1.131073603833018526e-01 -9.613927567719965372e-01
9.600000000000000755e-01 -2.241220245190124472e-01 -1.229475096690103575e-01 -9.667746520645277286e-01
1.066666666666666652e+00 -1.849054542339295393e-01 -1.224163609417907583e-01 -9.751021523546768988e-01
1.173333333333333339e+00 -1.362313821721570783e-01 -1.083527128337465895e-01 -9.847338219719301566e-01
1.280000000000000027e+00 -8.217602493112885487e-02 -7.849078711477426584e-02 -9.935221674840569728e-01
1.386666666666666714e+00 -2.764939535302017234e-02 -3.186650686807363658e-02 -9.991096219442217041e-01
1.493333333333333401e+00 2.196027263049838210e-02 3.089499744064584663e-02 -9.992813644921709759e-01
1.600000000000000089e+00 6.123741703727818980e-02 1.074433090032276550e-01 -9.923234925857529198e-01
1.706666666666666776e+00 8.527204870632018596e-02 1.937603837697220999e-01 -9.773359665558610798e-01
1.813333333333333464e+00 9.020474707144535143e-02 2.844064640455689075e-01 -9.544506622894275427e-01
1.920000000000000151e+00 7.372904994079314267e-02 3.729463363143126209e-01 -9.249189459787443557e-01
2.026666666666666838e+00 3.549424901054618053e-02 4.525190181610846407e-01 -8.910480886324262384e-01
2.133333333333333304e+00 -2.266321533058399118e-02 5.165097683225108316e-01 -8.559813300181838835e-01
2.240000000000000213e+00 -9.669321159578858627e-02 5.592350028307503385e-01 -8.233508573897252436e-01
2.346666666666666679e+00 -1.805485089102610574e-01 5.765900394718603827e-01 -7.968350910456936109e-01
2.453333333333333588e+00 -2.666385884679141061e-01 5.665780995413126631e-01 -7.796750082955392624e-01
2.560000000000000053e+00 -3.464862999781000430e-01 5.296433908941611257e-01 -7.742254974090115871e-01
2.666666666666666963e+00 -4.115444182413762753e-01 4.687953441840725377e-01 -7.815766858559716201e-01
2.773333333333333428e+00 -4.540894100219159957e-01 3.894529265669988138e-01 -8.013296603674542329e-01
2.880000000000000338e+00 -4.680917607591548180e-01 2.990495571022837029e-01 -8.315404167949332903e-01
2.986666666666666803e+00 -4.499723702125347780e-01 2.064007123203716598e-01 -8.688634008743950643e-01
3.093333333333333712e+00 -3.991426978374379986e-01 1.208934768438355706e-01 -9.088838614400563953e-01
3.200000000000000178e+00 -3.182725507490587469e-01 5.158528488998338768e-02 -9.465947080843648553e-01
3.306666666666667087e+00 -2.131956898273628942e-01 6.275858098124219298e-03 -9.769893605937726155e-01
3.413333333333333552e+00 -9.250330417247024095e-02 -9.317512926371729343e-03 -9.956687807822555136e-01
3.520000000000000018e+00 3.321680613647637337e-02 7.769755856796014062e-03 -9.994179670455495268e-01
3.626666666666666927e+00 1.523889304054490690e-01 5.734291874907996439e-02 -9.866556631876720607e-01
3.733333333333333393e+00 2.536051626004708903e-01 1.359526223316204485e-01 -9.577062767981155966e-01
3.840000000000000302e+00 3.268466581729710940e-01 2.371097185244723515e-01 -9.148498466613195212e-01
3.946666666666666767e+00 3.645943190212109775e-01 3.518505008255182753e-01 -8.621323615467959556e-01
4.053333333333333677e+00 3.627342359510719594e-01 4.695426862449169070e-01 -8.049556125698011932e-01
4.160000000000000142e+00 3.211204724049759873e-01 5.789292186305428078e-01 -7.494815539315404784e-01
