0.000000000000000000e+00 4.246265503311639784e-09 2.695096927218075487e-09 -1.000000000000000000e+00
1.066666666666666735e-01 4.639248247110094175e-02 4.045781108992209385e-02 -9.981033073962315427e-01
2.133333333333333470e-01 8.961485655336191847e-02 8.370110405084155158e-02 -9.924524976768345219e-01
3.200000000000000067e-01 1.262912479884675254e-01 1.320671827113420738e-01 -9.831616235514766267e-01
4.266666666666666941e-01 1.526562546618388250e-01 1.870581101549741998e-01 -9.704136430970488059e-01
5.333333333333333259e-01 1.645639297119482203e-01 2.488883469279869476e-01 -9.544474419525716957e-01
6.400000000000000133e-01 1.576746585354155128e-01 3.160471257999659667e-01 -9.355473399500719989e-01
7.466666666666667007e-01 1.278850662181469922e-01 3.849699570822776584e-01 -9.140233722061520405e-01
8.533333333333333881e-01 7.201766334752024434e-02 4.498222645351317994e-01 -8.902066348717118105e-01
9.600000000000000755e-01 -1.127290113074393835e-02 5.026223278631140046e-01 -8.644289682392459762e-01
1.066666666666666652e+00 -1.205176303420583128e-01 5.337268868938396249e-01 -8.370210756835234633e-01
1.173333333333333339e+00 -2.504935732595148234e-01 5.328370110577894669e-01 -8.082883827165852075e-01
1.280000000000000027e+00 -3.915838570946994501e-01 4.904496256683552602e-01 -7.785326351340430273e-01
1.386666666666666714e+00 -5.297326488019854507e-01 3.998033121084201280e-01 -7.480185794587008719e-01
1.493333333333333401e+00 -6.471972981355071930e-01 2.589394213243121357e-01 -7.169913920266007823e-01
1.600000000000000089e+00 -7.242758203571819653e-01 7.264369225342814929e-02 -6.856657342389450571e-01
1.706666666666666776e+00 -7.420089304182597711e-01 -1.462676546965840374e-01 -6.542308967465543246e-01
1.813333333333333464e+00 -6.856239846203597832e-01 -3.767859277030983778e-01 -6.228493104863755958e-01
1.920000000000000151e+00 -5.482316717834606612e-01 -5.910756572682955845e-01 -5.916588871556909268e-01
2.026666666666666838e+00 -3.340903264422825925e-01 -7.575623213674692602e-01 -5.607773653516523460e-01
2.133333333333333304e+00 -6.058425343270817942e-02 -8.456326335904211788e-01 -5.303045189871877785e-01
2.240000000000000213e+00 2.418588850511428356e-01 -8.313713064809783448e-01 -5.003134476574614409e-01
2.346666666666666679e+00 5.324676239163520508e-01 -7.033813895132616789e-01 -4.708715317366246600e-01
2.453333333333333588e+00 7.655378448954988091e-01 -4.674826962358025750e-01 -4.420391760900879707e-01
2.560000000000000053e+00 8.980719057730723875e-01 -1.489654202261231075e-01 -4.138390789394604807e-01
2.666666666666666963e+00 8.984426504860042462e-01 2.087081680420406204e-01 -3.863004962941124498e-01
2.773333333333333428e+00 7.544470731937544805e-01 5.491844728264683173e-01 -3.594331513771093500e-01
2.880000000000000338e+00 4.787962157286227982e-01 8.122070787345958554e-01 -3.332563574876135637e-01
2.986666666666666803e+00 1.103202683704477688e-01 9.450353143693428493e-01 -3.077718619281918921e-01
3.093333333333333712e+00 -2.902412422952194149e-01 9.141489240574155462e-01 -2.829794100002235857e-01
3.200000000000000178e+00 -6.498063654367250974e-01 7.146431190470715622e-01 -2.588867184290291612e-01
3.306666666666667087e+00 -8.967075781956933556e-01 3.747647478858637249e-01 -2.354829848311984497e-01
3.413333333333333552e+00 -9.760022682488515011e-01 -4.625428537787526495e-02 -2.127567387252858599e-01
3.520000000000000018e+00 -8.631040955792980141e-01 -4.676241166794727899e-01 -1.906938568466727824e-01
3.626666666666666927e+00 -5.721959118994510707e-01 -8.024479004075150135e-01 -1.692756680636260114e-01
3.733333333333333393e+00 -1.567655714659353383e-01 -9.764025855459065317e-01 -1.484840937979992892e-01
3.840000000000000302e+00 2.989661668601562017e-01 -9.455909048510101611e-01 -1.283043561416990219e-01
3.946666666666666767e+00 6.966925440681023263e-01 -7.090749550419908065e-01 -1.087064153594222288e-01
4.053333333333333677e+00 9.456840071929750735e-01 -3.124464697957982096e-01 -8.968729848331451204e-02
4.160000000000000142e+00 9.846260423397763528e-01 1.594430089624933877e-01 -7.123400326186604681e-02
