0.000000000000000000e+00 2.396474462140579863e-13 -2.416770620020209707e-13 -1.000000000000000000e+00
1.066666666666666735e-01 5.726572442071453314e-03 -5.735884302245459684e-03 -9.999671524609194950e-01
2.133333333333333470e-01 1.105770365823738680e-02 -1.085235684966220915e-02 -9.998799695620592676e-01
3.200000000000000067e-01 1.558174067059816918e-02 -1.478357065788455001e-02 -9.997693010661418134e-01
4.266666666666666941e-01 1.886117034405327200e-02 -1.707281263484128342e-02 -9.996763352879801667e-01
5.333333333333333259e-01 2.043465885260568188e-02 -1.741595198002898054e-02 -9.996394896761545690e-01
6.400000000000000133e-01 1.982812031908848596e-02 -1.570105292767907598e-02 -9.996801101263630418e-01
7.466666666666667007e-01 1.658428896040389094e-02 -1.203627044063971217e-02 -9.997900227375172699e-01
8.533333333333333881e-01 1.030907152333197449e-02 -6.757062189881405181e-03 -9.999240297070353112e-01
9.600000000000000755e-01 7.216095341463554108e-04 -4.192365888213077070e-04 -9.999996517676298380e-01
1.066666666666666652e+00 -1.229357598636167392e-02 6.228591988859760037e-03 -9.999050317928723786e-01
1.173333333333333339e+00 -2.861891899499018760e-02 1.229699326021094739e-02 -9.995147529779558893e-01
1.280000000000000027e+00 -4.787596351048052645e-02 1.682843132744046843e-02 -9.987115178638230617e-01
1.386666666666666714e+00 -6.938696956527119764e-02 1.888785844635412769e-02 -9.974109971912613615e-01
1.493333333333333401e+00 -9.219176171558485233e-02 1.765848912984110952e-02 -9.955846808211963328e-01
1.600000000000000089e+00 -1.150704638668055974e-01 1.254944238301682752e-02 -9.932780576607251888e-01
1.706666666666666776e+00 -1.366160782582790112e-01 3.292662612505964370e-03 -9.906185973569366920e-01
1.813333333333333464e+00 -1.553269282271792784e-01 -9.985847876869118067e-03 -9.878126483651838985e-01
1.920000000000000151e+00 -1.697400849268438650e-01 -2.670510577252895035e-02 -9.851269670158507852e-01
2.026666666666666838e+00 -1.785596965911064316e-01 -4.583811069326873544e-02 -9.828607744722596129e-01
2.133333333333333304e+00 -1.808078805859395788e-01 -6.593296693269046216e-02 -9.813059428915672511e-01
2.240000000000000213e+00 -1.759500455193154511e-01 -8.520945787932235338e-02 -9.807043025635240330e-01
2.346666666666666679e+00 -1.640083145871667480e-01 -1.016870807685132105e-01 -9.812038572459718111e-01
2.453333333333333588e+00 -1.456170369466490422e-01 -1.133522243803993246e-01 -9.828260028458880582e-01
2.560000000000000053e+00 -1.220410229157264104e-01 -1.183595788614455468e-01 -9.854425395597302684e-01
2.666666666666666963e+00 -9.512028583933665460e-02 -1.152294050641093637e-01 -9.887741476415906616e-01
2.773333333333333428e+00 -6.716475356713580425e-02 -1.030339122268985330e-01 -9.924076324726176512e-01
2.880000000000000338e+00 -4.077677234279625251e-02 -8.155603250676883575e-02 -9.958342573033198697e-01
2.986666666666666803e+00 -1.864174364901835870e-02 -5.138333202052558502e-02 -9.985050017191677840e-01
3.093333333333333712e+00 -3.277324949933849325e-03 -1.394101724462007419e-02 -9.998974482314441081e-01
3.200000000000000178e+00 3.219532589493407856e-03 2.857205204314481814e-02 -9.995865507381944681e-01
3.306666666666667087e+00 -5.926692028447137772e-04 7.330383620503735931e-02 -9.973094788415582945e-01
3.413333333333333552e+00 -1.530227876343037696e-02 1.169818264774874078e-01 -9.930161595197127822e-01
3.520000000000000018e+00 -4.051942287264175685e-02 1.561827637656034995e-01 -9.868967121225612482e-01
3.626666666666666927e+00 -7.483738107895006320e-02 1.876445985647377523e-01 -9.793818822036269856e-01
3.733333333333333393e+00 -1.158839407155091150e-01 2.086047080787263031e-01 -9.711101833063383593e-01
3.840000000000000302e+00 -1.604804537035426082e-01 2.170888537654235284e-01 -9.628699045283403146e-01
3.946666666666666767e+00 -2.048867829606192958e-01 2.121672787472982380e-01 -9.555137113326659382e-01
4.053333333333333677e+00 -2.451286325671166166e-01 1.941112244305055745e-01 -9.498593506604003922e-01
4.160000000000000142e+00 -2.773574768125405265e-01 1.644412378590505708e-01 -9.465896197751303420e-01
