0.000000000000000000e+00 -2.028813997516069038e-09 1.403126626427559729e-09 -1.000000000000000000e+00
1.066666666666666735e-01 4.047624356960189546e-02 8.069062340897550922e-02 -9.959167028678362898e-01
2.133333333333333470e-01 7.415948794639559694e-02 1.633694020617422749e-01 -9.837731378651931591e-01
3.200000000000000067e-01 9.423971091641870912e-02 2.491049205747363771e-01 -9.638795344029439383e-01
4.266666666666666941e-01 9.398668908344878781e-02 3.371939093015086097e-01 -9.367306112954145725e-01
5.333333333333333259e-01 6.717290158438099512e-02 4.244055005171655237e-01 -9.029753919335352652e-01
6.400000000000000133e-01 8.847148055534707900e-03 5.044705463026671888e-01 -8.633813436116506423e-01
7.466666666666667007e-01 -8.348736028017184063e-02 5.679966320491224296e-01 -8.187827356216139663e-01
8.533333333333333881e-01 -2.084511891598021249e-01 6.029550016014404434e-01 -7.700572348438856629e-01
9.600000000000000755e-01 -3.593258328832685811e-01 5.960167330872834235e-01 -7.180830249107854613e-01
1.066666666666666652e+00 -5.230036759772029864e-01 5.347739932705490862e-01 -6.636847819236989521e-01
1.173333333333333339e+00 -6.797644689130353246e-01 4.106951764741055833e-01 -6.076535118525940860e-01
1.280000000000000027e+00 -8.044800329117872684e-01 2.225660198881231344e-01 -5.506984904893947874e-01
1.386666666666666714e+00 -8.695387359338766498e-01 -2.036153957824055061e-02 -4.934368169269260362e-01
1.493333333333333401e+00 -8.495234851010589061e-01 -2.963880276309294737e-01 -4.364122739507066973e-01
1.600000000000000089e+00 -7.272233244407254604e-01 -5.715584595606895135e-01 -3.800772012597716798e-01
1.706666666666666776e+00 -4.998732769019545996e-01 -8.028857329988021707e-01 -3.247959131876919092e-01
1.813333333333333464e+00 -1.841038084377052408e-01 -9.448435069354457205e-01 -2.708642274923691584e-01
1.920000000000000151e+00 1.822397963057253989e-01 -9.586625711585391452e-01 -2.185074993037440794e-01
2.026666666666666838e+00 5.429613778737836238e-01 -8.227983098036721898e-01 -1.678883096154317189e-01
2.133333333333333304e+00 8.318027120513772354e-01 -5.421289292821298567e-01 -1.191261441542754984e-01
2.240000000000000213e+00 9.855844698193512166e-01 -1.529303061278457498e-01 -7.229185270541746422e-02
2.346666666666666679e+00 9.598945392604552040e-01 2.790020323149275949e-01 -2.740096749510199589e-02
2.453333333333333588e+00 7.436195204026367911e-01 6.684162293516104913e-01 1.549950955953363976e-02
2.560000000000000053e+00 3.678649667762616260e-01 9.281589604249946834e-01 5.645172453169246957e-02
2.666666666666666963e+00 -9.471925366905614707e-02 9.909087033188265226e-01 9.549193822146011257e-02
2.773333333333333428e+00 -5.421744430804420478e-01 8.297209824559903524e-01 1.326672260612472287e-01
2.880000000000000338e+00 -8.659726424594073046e-01 4.710101486993821251e-01 1.680222621590923560e-01
2.986666666666666803e+00 -9.794410366811211466e-01 -5.456494691768232208e-03 2.016339150203628194e-01
3.093333333333333712e+00 -8.444277087294851381e-01 -4.820579838623467173e-01 2.335653162216537182e-01
3.200000000000000178e+00 -4.875370814398418129e-01 -8.322604749302648930e-01 2.638958174922389488e-01
3.306666666666667087e+00 8.109446413728238490e-04 -9.561988409666538624e-01 2.927015289694631650e-01
3.413333333333333552e+00 4.869519409330672066e-01 -8.126758923526117284e-01 3.200420330982925998e-01
3.520000000000000018e+00 8.304133255499162036e-01 -4.366776019399509212e-01 3.460022629370358427e-01
3.626666666666666927e+00 9.264751324600786209e-01 6.518943290120376988e-02 3.706555935268269764e-01
3.733333333333333393e+00 7.416550957419517642e-01 5.428165271455951402e-01 3.940678115727662134e-01
3.840000000000000302e+00 3.292268627397176295e-01 8.475190199282761627e-01 4.163086337537845183e-01
3.946666666666666767e+00 -1.826659921255224250e-01 8.804954469562634722e-01 4.374389750102997132e-01
4.053333333333333677e+00 -6.291152362353302774e-01 6.283992187883040703e-01 4.575153763693359243e-01
4.160000000000000142e+00 -8.620496297102400174e-01 1.723575065336120371e-01 4.766082136060511010e-01
