0.000000000000000000e+00 1.679747681690402022e-09 -1.635039350113590273e-09 -1.000000000000000000e+00
1.066666666666666735e-01 -7.229978942812933379e-03 -3.917437668823726613e-03 -9.999661609868284451e-01
2.133333333333333470e-01 -1.445860979651005136e-02 -7.842520471076645100e-03 -9.998646583400780941e-01
3.200000000000000067e-01 -2.168449860537305027e-02 -1.176668571312510479e-02 -9.996955391664191781e-01
4.266666666666666941e-01 -2.890894577012562486e-02 -1.569038574162610195e-02 -9.994587938644117209e-01
5.333333333333333259e-01 -3.612879234167577086e-02 -1.961532797600772440e-02 -9.991544918738539671e-01
6.400000000000000133e-01 -4.334594331410010493e-02 -2.353780810907928067e-02 -9.987826611183420189e-01
7.466666666666667007e-01 -5.055574182141216871e-02 -2.746045577217180733e-02 -9.983434769137669029e-01
8.533333333333333881e-01 -5.776071958273223256e-02 -3.137944007988550249e-02 -9.978369814397031190e-01
9.600000000000000755e-01 -6.495823379189344382e-02 -3.529969941388354931e-02 -9.972632172030759801e-01
1.066666666666666652e+00 -7.214799503829467942e-02 -3.921546342212689495e-02 -9.966224627713375916e-01
1.173333333333333339e+00 -7.933010250726350854e-02 -4.313094335479115971e-02 -9.959146194693615506e-01
1.280000000000000027e+00 -8.650234104365095433e-02 -4.704441755192244334e-02 -9.951399872334655283e-01
1.386666666666666714e+00 -9.366519445440914249e-02 -5.095517526237979683e-02 -9.942986380999198071e-01
1.493333333333333401e+00 -1.008125310591511253e-01 -5.486556685488701984e-02 -9.933911297829283171e-01
1.600000000000000089e+00 -1.079513037008782567e-01 -5.877234998673087907e-02 -9.924170564711156661e-01
1.706666666666666776e+00 -1.150759795579210237e-01 -6.267674357619806846e-02 -9.913770146294337282e-01
1.813333333333333464e+00 -1.221875205002209003e-01 -6.657786446980314132e-02 -9.902710695175652722e-01
1.920000000000000151e+00 -1.292832485478849769e-01 -7.047612289100070593e-02 -9.890996428961149611e-01
2.026666666666666838e+00 -1.363671184918165136e-01 -7.437053990134204207e-02 -9.878624042009540585e-01
2.133333333333333304e+00 -1.434313797560447523e-01 -7.826438202868628291e-02 -9.865602748130275490e-01
2.240000000000000213e+00 -1.504780602102051279e-01 -8.215325152959740418e-02 -9.851934827930547423e-01
2.346666666666666679e+00 -1.575059637354137010e-01 -8.604049316139707193e-02 -9.837620944444384063e-01
2.453333333333333588e+00 -1.645174028173658209e-01 -8.992121666015918946e-02 -9.822663097332069437e-01
2.560000000000000053e+00 -1.715071537834018112e-01 -9.380093696703353801e-02 -9.807066510989370656e-01
2.666666666666666963e+00 -1.784742982366147035e-01 -9.767549781575535217e-02 -9.790838718604163438e-01
2.773333333333333428e+00 -1.854215820239806523e-01 -1.015510192729824346e-01 -9.773970452295744904e-01
2.880000000000000338e+00 -1.923461125599525978e-01 -1.054165307273534635e-01 -9.756480077515251592e-01
2.986666666666666803e+00 -1.992449136727121317e-01 -1.092811133851507438e-01 -9.738366184344877663e-01
3.093333333333333712e+00 -2.061179715177054450e-01 -1.131437378482701567e-01 -9.719632108953651928e-01
3.200000000000000178e+00 -2.129682658898687519e-01 -1.169997277862345197e-01 -9.700279057817400297e-01
3.306666666666667087e+00 -2.197905914606244904e-01 -1.208526440375809197e-01 -9.680316321249854417e-01
3.413333333333333552e+00 -2.265830553164528971e-01 -1.246998407024228761e-01 -9.659754262845493544e-01
3.520000000000000018e+00 -2.333497697627701095e-01 -1.285409740730181216e-01 -9.638586556600772237e-01
3.626666666666666927e+00 -2.400848132722666339e-01 -1.323822023543855253e-01 -9.616821662479300148e-01
3.733333333333333393e+00 -2.467902156318557971e-01 -1.362162732206111393e-01 -9.594467249858972258e-01
3.840000000000000302e+00 -2.534634301868267658e-01 -1.400436653941728449e-01 -9.571532340732720190e-01
3.946666666666666767e+00 -2.601016335758278286e-01 -1.438677231119320499e-01 -9.548022931346565878e-01
4.053333333333333677e+00 -2.667092360135543405e-01 -1.476855775880824839e-01 -9.523934598299245158e-01
4.160000000000000142e+00 -2.732812111992523607e-01 -1.514992766884651620e-01 -9.499281271107126168e-01
