0.000000000000000000e+00 2.953719579849471949e-09 -1.820302017664558848e-09 -1.000000000000000000e+00
1.066666666666666735e-01 2.121917335682689532e-01 3.819880086044169509e-03 -9.772189636729944340e-01
2.133333333333333470e-01 4.106641395416157914e-01 2.618959049620815660e-02 -9.114068522823446372e-01
3.200000000000000067e-01 5.810729716375653275e-01 8.204315895670800940e-02 -8.096992784945743482e-01
4.266666666666666941e-01 7.083794383614818724e-01 1.796559132868289499e-01 -6.825751307956464675e-01
5.333333333333333259e-01 7.776807194051552630e-01 3.183971668212384754e-01 -5.420513444743502163e-01
6.400000000000000133e-01 7.760468969456643107e-01 4.877898379052231781e-01 -3.997423890391866297e-01
7.466666666666667007e-01 6.951634654038800765e-01 6.681410466240884638e-01 -2.651711031408813257e-01
8.533333333333333881e-01 5.342444649346947960e-01 8.328530391911174169e-01 -1.446317458924032961e-01
9.600000000000000755e-01 3.024558912878110850e-01 9.522755410334439174e-01 -4.087961662332265100e-02
1.066666666666666652e+00 2.008642747256450534e-02 9.987042469816272972e-01 4.653792097991208548e-02
1.173333333333333339e+00 -2.822068815307826606e-01 9.517744952728319774e-01 1.202670426637259260e-01
1.280000000000000027e+00 -5.663715523257346618e-01 8.033418017513656029e-01 1.839702821112121356e-01
1.386666666666666714e+00 -7.920402545881695122e-01 5.608250118280651009e-01 2.410969944550511446e-01
1.493333333333333401e+00 -9.230101597134470204e-01 2.481305077026033368e-01 2.940478119071422425e-01
1.600000000000000089e+00 -9.340710238844300850e-01 -9.640416349092417736e-02 3.438003664779841762e-01
1.706666666666666776e+00 -8.167972838027723892e-01 -4.250830798110226683e-01 3.900361224310682773e-01
1.813333333333333464e+00 -5.829638814979085648e-01 -6.883323403968976129e-01 4.316640097224884731e-01
1.920000000000000151e+00 -2.645434606156976676e-01 -8.434636617845530093e-01 4.675130313527051662e-01
2.026666666666666838e+00 9.015522946411325123e-02 -8.630693652123690995e-01 4.969570931523406565e-01
2.133333333333333304e+00 4.238827941734661930e-01 -7.413462803962472814e-01 5.203003626378237545e-01
2.240000000000000213e+00 6.803174563224354543e-01 -4.968288694942308292e-01 5.388069383486741026e-01
2.346666666666666679e+00 8.145649422419847241e-01 -1.706090839804380033e-01 5.544009615106433309e-01
2.453333333333333588e+00 8.022849014770260245e-01 1.800062797812161941e-01 5.691405167584016045e-01
2.560000000000000053e+00 6.454111970873048776e-01 4.915331339188282467e-01 5.846572340758754427e-01
2.666666666666666963e+00 3.730049797342985252e-01 7.062272931261381892e-01 6.017434102817428299e-01
2.773333333333333428e+00 3.672512831857377424e-02 7.835860945045092230e-01 6.201848925449232608e-01
2.880000000000000338e+00 -2.985335269614848852e-01 7.089739559843128980e-01 6.389203663919856835e-01
2.986666666666666803e+00 -5.671574050970475955e-01 4.974096803554751700e-01 6.564312709786073174e-01
3.093333333333333712e+00 -7.160623994740122900e-01 1.913833627399962323e-01 6.712773473760649257e-01
3.200000000000000178e+00 -7.158569851250321525e-01 -1.471022325517446494e-01 6.825658830405817445e-01
3.306666666666667087e+00 -5.674577484015976836e-01 -4.489100726690478105e-01 6.902595054712341582e-01
3.413333333333333552e+00 -3.025162094380670075e-01 -6.520701101392841759e-01 6.951800449661384995e-01
3.520000000000000018e+00 2.270768600958988914e-02 -7.149630716887546145e-01 6.987839551590067089e-01
3.626666666666666927e+00 3.389536429023026209e-01 -6.255312457191248843e-01 7.027147674099711860e-01
3.733333333333333393e+00 5.786480525855451917e-01 -4.042895357816671531e-01 7.083103199962231811e-01
3.840000000000000302e+00 6.906205087812066212e-01 -1.002680360329301634e-01 7.162240811020027520e-01
3.946666666666666767e+00 6.514707750271049314e-01 2.194010659927844997e-01 7.262482812106513252e-01
4.053333333333333677e+00 4.710174882296004339e-01 4.841195393399048141e-01 7.373999036921579098e-01
4.160000000000000142e+00 1.904003605423459089e-01 6.355032261875556143e-01 7.482455756419671422e-01
