0.000000000000000000e+00 3.639050376876431382e-09 3.268500157067717855e-09 -1.000000000000000000e+00
1.066666666666666735e-01 4.000998376452052224e-02 3.729624472016655756e-04 -9.991990509260719744e-01
2.133333333333333470e-01 7.990001996514903282e-02 7.594311811563031478e-04 -9.968022874051303273e-01
3.200000000000000067e-01 1.195454872080268377e-01 1.148089991678990368e-03 -9.928276064823167157e-01
4.266666666666666941e-01 1.588266305434971604e-01 1.540077710401183131e-03 -9.873046787995130025e-01
5.333333333333333259e-01 1.976312368368421390e-01 1.937887709176952522e-03 -9.802737552197120507e-01
6.400000000000000133e-01 2.358491649876727492e-01 2.335037040325005364e-03 -9.717859352966841113e-01
7.466666666666667007e-01 2.733802852339103362e-01 2.733814934930120510e-03 -9.619010417779303435e-01
8.533333333333333881e-01 3.101306261540133780e-01 3.126611943278415073e-03 -9.506875244107978462e-01
9.600000000000000755e-01 3.460185162059428166e-01 3.511538929077046012e-03 -9.382196342784717702e-01
1.066666666666666652e+00 3.809675709198527271e-01 3.880362590950758861e-03 -9.245785821829198836e-01
1.173333333333333339e+00 4.149125585328068411e-01 4.225832426049597190e-03 -9.098495981082411754e-01
1.280000000000000027e+00 4.478040113587490878e-01 4.542616818999978268e-03 -8.941181053823222813e-01
1.386666666666666714e+00 4.795905289815292627e-01 4.819961120106741603e-03 -8.774768509448563902e-01
1.493333333333333401e+00 5.102438419402289815e-01 5.050954734824392167e-03 -8.600123975393580977e-01
1.600000000000000089e+00 5.397388769389797059e-01 5.226947606526380352e-03 -8.418134719117431608e-01
1.706666666666666776e+00 5.680564827352913015e-01 5.340176887171019238e-03 -8.229692016163058232e-01
1.813333333333333464e+00 5.951919734103241488e-01 5.382986016844323873e-03 -8.035622094510253000e-01
1.920000000000000151e+00 6.211448015947406143e-01 5.347496892053577033e-03 -7.836739943833652688e-01
2.026666666666666838e+00 6.459202258300550392e-01 5.225997724376318931e-03 -7.633831630623715281e-01
2.133333333333333304e+00 6.695300731573058384e-01 5.014641308782152862e-03 -7.427638650306885859e-01
2.240000000000000213e+00 6.919950362728434223e-01 4.707462895396918867e-03 -7.218824441265522251e-01
2.346666666666666679e+00 7.133354907791297217e-01 4.301802332704635079e-03 -7.008047283229004165e-01
2.453333333333333588e+00 7.335772612847847318e-01 3.788855379625533093e-03 -6.795903869510809825e-01
2.560000000000000053e+00 7.527486845854557407e-01 3.170698887958622869e-03 -6.582948966248650668e-01
2.666666666666666963e+00 7.708838147188293854e-01 2.448149157991297287e-03 -6.369652544700604713e-01
2.773333333333333428e+00 7.880125873368739597e-01 1.616111016626398111e-03 -6.156507992501133453e-01
2.880000000000000338e+00 8.041715113640428569e-01 6.741168415455023322e-04 -5.943903366790803666e-01
2.986666666666666803e+00 8.193948692549188895e-01 -3.768232976502638998e-04 -5.732223401573557364e-01
3.093333333333333712e+00 8.337193461525240767e-01 -1.534385650131753209e-03 -5.521788236415079432e-01
3.200000000000000178e+00 8.471798459788485447e-01 -2.798760160414803799e-03 -5.312909298451349294e-01
3.306666666666667087e+00 8.598129082158532110e-01 -4.168084573897834488e-03 -5.105837810206713678e-01
3.413333333333333552e+00 8.716535129218684341e-01 -5.636847661698085599e-03 -4.900812492760850403e-01
3.520000000000000018e+00 8.827399406490220590e-01 -7.208935021386586595e-03 -4.697971077108214488e-01
3.626666666666666927e+00 8.931005654844497155e-01 -8.875362507917816668e-03 -4.497594507486751825e-01
3.733333333333333393e+00 9.027733796718714343e-01 -1.063102533773319092e-02 -4.299744453463721916e-01
3.840000000000000302e+00 9.117891881344952765e-01 -1.248251352634155431e-02 -4.104574973624249279e-01
3.946666666666666767e+00 9.201804829057402824e-01 -1.441630673058102996e-02 -3.912168491532787007e-01
4.053333333333333677e+00 9.279760077936343166e-01 -1.643345483659575113e-02 -3.722646099792928931e-01
4.160000000000000142e+00 9.352066783687303930e-01 -1.853101007706564607e-02 -3.536035047141361520e-01
