0.000000000000000000e+00 -2.140316765167882789e-09 2.018330381388399534e-09 -1.000000000000000000e+00
1.066666666666666735e-01 7.073706957662493494e-03 -2.374212613234119931e-02 -9.996929390200761656e-01
2.133333333333333470e-01 1.538376779214464460e-02 -4.707749924049613177e-02 -9.987724864756019061e-01
3.200000000000000067e-01 2.608259280743839559e-02 -6.949036599538155334e-02 -9.972411717672260423e-01
4.266666666666666941e-01 4.024254266230803401e-02 -9.027036652260966854e-02 -9.951033633574248860e-01
5.333333333333333259e-01 5.874784579715885968e-02 -1.084390600872895127e-01 -9.923650027570771748e-01
6.400000000000000133e-01 8.220251610059303715e-02 -1.226876871246039558e-01 -9.890343004226056500e-01
7.466666666666667007e-01 1.107871282402475011e-01 -1.313775195482396185e-01 -9.851214507866092873e-01
8.533333333333333881e-01 1.441021858574757231e-01 -1.325934200885534875e-01 -9.806382445390554592e-01
9.600000000000000755e-01 1.809995931211550724e-01 -1.242667443888238327e-01 -9.755995438704434530e-01
1.066666666666666652e+00 2.194512873190614943e-01 -1.043894510235486156e-01 -9.700212659892221145e-01
1.173333333333333339e+00 2.564433160358305375e-01 -7.133227120170169966e-02 -9.639219431353055478e-01
1.280000000000000027e+00 2.880021140816471648e-01 -2.422773042220200540e-02 -9.573215292616428229e-01
1.386666666666666714e+00 3.093534669032191875e-01 3.657514496330474540e-02 -9.502416067119985321e-01
1.493333333333333401e+00 3.152787032789827748e-01 1.090947168685997976e-01 -9.427055817021054995e-01
1.600000000000000089e+00 3.006890929051886929e-01 1.893333369960330526e-01 -9.347378248350498575e-01
1.706666666666666776e+00 2.613931982545777966e-01 2.711440814469059934e-01 -9.263638743150155452e-01
1.813333333333333464e+00 1.950173380673066448e-01 3.463445522503893481e-01 -9.176104625271271908e-01
1.920000000000000151e+00 1.019638941144516975e-01 4.052436509471774029e-01 -9.085020168339235092e-01
2.026666666666666838e+00 -1.377339429507318247e-02 4.375877120145900134e-01 -8.990672810872161191e-01
2.133333333333333304e+00 -1.441094747001789023e-01 4.339547020063995175e-01 -8.893313103025842770e-01
2.240000000000000213e+00 -2.769283512283605697e-01 3.874298210901332973e-01 -8.793195697342972572e-01
2.346666666666666679e+00 -3.968280738751046033e-01 2.953904582063164863e-01 -8.690603008343922298e-01
2.453333333333333588e+00 -4.867208238837362755e-01 1.610714232078465369e-01 -8.585757988166512478e-01
2.560000000000000053e+00 -5.301321701091163963e-01 -5.466007579096432423e-03 -8.478934675060851855e-01
2.666666666666666963e+00 -5.140842338607828355e-01 -1.873227526274708343e-01 -8.370308151016693232e-01
2.773333333333333428e+00 -4.320322132646686741e-01 -3.619844125781191413e-01 -8.260194986821889351e-01
2.880000000000000338e+00 -2.864473910810788615e-01 -5.039064199069347438e-01 -8.148734530746690741e-01
2.986666666666666803e+00 -9.024465114462448811e-02 -5.882631191149451100e-01 -8.036134883978787169e-01
3.093333333333333712e+00 1.333359138471124639e-01 -5.954260486940039510e-01 -7.922634480171504290e-01
3.200000000000000178e+00 3.529431816865160054e-01 -5.154737534994706660e-01 -7.808391032290886713e-01
3.306666666666667087e+00 5.332659143963739412e-01 -3.517301097814013455e-01 -7.693535959697190840e-01
3.413333333333333552e+00 6.408592528972284486e-01 -1.224320979092587136e-01 -7.578265862051491997e-01
3.520000000000000018e+00 6.507000725600227131e-01 1.402157727242089313e-01 -7.462707782660922273e-01
3.626666666666666927e+00 5.522464662876821473e-01 3.939973509997454770e-01 -7.346977384808049960e-01
3.733333333333333393e+00 3.536106220442137849e-01 5.933256558976126582e-01 -7.231284725123412471e-01
3.840000000000000302e+00 8.261359522865907579e-02 6.977373669131774481e-01 -7.115672849236523989e-01
3.946666666666666767e+00 -2.161379928940575512e-01 6.806145989118294048e-01 -7.000273630578930373e-01
4.053333333333333677e+00 -4.881135117336376505e-01 5.363545790358300591e-01 -6.885194010585081736e-01
4.160000000000000142e+00 -6.788951715787737706e-01 2.840576459717080171e-01 -6.770541993361719468e-01
