0.000000000000000000e+00 1.455522996159034846e-12 6.278217820640867463e-13 -1.000000000000000000e+00
1.066666666666666735e-01 2.343610814309719514e-01 1.036189590969913421e-01 -9.666116049480877326e-01
2.133333333333333470e-01 4.440892167845835736e-01 2.112796966532050347e-01 -8.707156006990424135e-01
3.200000000000000067e-01 6.073477961453049856e-01 3.257497141926611328e-01 -7.245797251879004808e-01
4.266666666666666941e-01 7.075743894620629693e-01 4.474577144105099658e-01 -5.469187116611988753e-01
5.333333333333333259e-01 7.353606110833605936e-01 5.738178157951463465e-01 -3.605244593725288049e-01
6.400000000000000133e-01 6.895143958809990536e-01 6.990766507024630538e-01 -1.893719465941713642e-01
7.466666666666667007e-01 5.771929530164647826e-01 8.147149421515681444e-01 -5.556849747059715294e-02
8.533333333333333881e-01 4.130803891004077855e-01 9.103918039033134235e-01 2.348095593713160970e-02
9.600000000000000755e-01 2.177146417089388664e-01 9.752987332314155822e-01 3.731910573595362268e-02
1.066666666666666652e+00 1.514826067217193983e-02 9.997546417031414334e-01 -1.616125975817618229e-02
1.173333333333333339e+00 -1.697871433544234643e-01 9.768172926656287780e-01 -1.303852082984842675e-01
1.280000000000000027e+00 -3.143084952524637377e-01 9.036747609696921257e-01 -2.908300122122384201e-01
1.386666666666666714e+00 -4.002653367000769125e-01 7.826032308199847298e-01 -4.767807076884267303e-01
1.493333333333333401e+00 -4.162112567672177632e-01 6.213158640296907453e-01 -6.638785933735712463e-01
1.600000000000000089e+00 -3.586899800200607502e-01 4.326232987621186910e-01 -8.271508807745825420e-01
1.706666666666666776e+00 -2.326363107564353716e-01 2.333991256812837090e-01 -9.441425713294916422e-01
1.813333333333333464e+00 -5.080683798182721034e-02 4.292740692569661093e-02 -9.977854995589969800e-01
1.920000000000000151e+00 1.676658185214882912e-01 -1.191783734941972706e-01 -9.786136563901647323e-01
2.026666666666666838e+00 3.994414065421362792e-01 -2.352330321640030142e-01 -8.860654509204591855e-01
2.133333333333333304e+00 6.196231313622135861e-01 -2.916735497981149949e-01 -7.286931561947940228e-01
2.240000000000000213e+00 8.045620181692701989e-01 -2.808677406136175780e-01 -5.232525885598063864e-01
2.346666666666666679e+00 9.345378889650827192e-01 -2.023148225198272976e-01 -2.927586800412305124e-01
2.453333333333333588e+00 9.959715086014444552e-01 -6.305949964884713377e-02 -6.375150774783709673e-02
2.560000000000000053e+00 9.829446545449704864e-01 1.227806702925472865e-01 1.369113324575657598e-01
2.666666666666666963e+00 8.978502929110374620e-01 3.353450385224835406e-01 2.853218472496742986e-01
2.773333333333333428e+00 7.510925917568179733e-01 5.511125410823375370e-01 3.635036255484503931e-01
2.880000000000000338e+00 5.598963588957557302e-01 7.454646571387888443e-01 3.616607674965719998e-01
2.986666666666666803e+00 3.463316233023686630e-01 8.955110153009002705e-01 2.794895861097779766e-01
3.093333333333333712e+00 1.348108159780100346e-01 9.827864020671291945e-01 1.263207504225834499e-01
3.200000000000000178e+00 -5.067298343703953434e-02 9.955157688947159356e-01 -7.987867598283374115e-02
3.306666666666667087e+00 -1.892465131627485697e-01 9.301704175560229215e-01 -3.145929921941112983e-01
3.413333333333333552e+00 -2.654945725078333707e-01 7.920929083481725863e-01 -5.496375673584054100e-01
3.520000000000000018e+00 -2.711649148894138550e-01 5.950972560990148708e-01 -7.565241863584983850e-01
3.626666666666666927e+00 -2.060507055050570524e-01 3.600685802423501669e-01 -9.098866543549686270e-01
3.733333333333333393e+00 -7.796378547840852880e-02 1.126924509924448897e-01 -9.905665349071068881e-01
3.840000000000000302e+00 9.821449169800877677e-02 -1.194310581659148718e-01 -9.879727403873372893e-01
3.946666666666666767e+00 3.022603963664232674e-01 -3.099505137378837372e-01 -9.014262768892089550e-01
4.053333333333333677e+00 5.109505983422615305e-01 -4.368663213393554900e-01 -7.403224325265271855e-01
4.160000000000000142e+00 7.007176596069617514e-01 -4.851697009332795463e-01 -5.230727708673100773e-01
