<?xml version="1.0" encoding="utf-8" standalone="no"?>
<!DOCTYPE svg PUBLIC "-//W3C//DTD SVG 1.1//EN"
  "http://www.w3.org/Graphics/SVG/1.1/DTD/svg11.dtd">
<!-- Created with matplotlib (http://matplotlib.org/) -->
<svg height="1800pt" version="1.1" viewBox="0 0 216 1800" width="216pt" xmlns="http://www.w3.org/2000/svg" xmlns:xlink="http://www.w3.org/1999/xlink">
 <defs>
  <style type="text/css">
*{stroke-linecap:butt;stroke-linejoin:round;stroke-miterlimit:100000;}
  </style>
 </defs>
 <g id="figure_1">
  <g id="patch_1">
   <path d="M 0 1800 
L 216 1800 
L 216 0 
L 0 0 
z
" style="fill:#ffffff;"/>
  </g>
  <g id="axes_1">
   <g id="patch_2">
    <path d="M 36.085 163.004 
L 199.215 163.004 
L 199.215 12.96 
L 36.085 12.96 
z
" style="fill:#ffffff;"/>
   </g>
   <g id="line2d_1">
    <path clip-path="url(#p76b1f3bb4d)" d="M 41.522667 163.003984 
L 46.960333 163.003938 
L 52.398 163.003861 
L 57.835667 163.003754 
L 63.273333 163.003619 
L 68.711 163.003456 
L 74.148667 163.003268 
L 79.586333 163.003056 
L 85.024 163.002822 
L 90.461667 163.002568 
L 95.899333 163.002296 
L 101.337 163.00201 
L 106.774667 163.001711 
L 112.212333 163.001402 
L 117.65 163.001084 
L 123.087667 163.000759 
L 128.525333 163.000429 
L 133.963 163.000095 
L 139.400667 162.999757 
L 144.838333 162.999414 
L 150.276 162.999064 
L 155.713667 162.998705 
L 161.151333 162.998333 
L 166.589 162.997941 
L 172.026667 162.997524 
L 177.464333 162.997071 
L 182.902 162.996572 
L 188.339667 162.996014 
L 193.777333 162.995381 
L 199.215 162.994655 
" style="fill:none;stroke:#0000ff;stroke-linecap:square;stroke-width:1.5;"/>
   </g>
   <g id="patch_3">
    <path d="M 36.085 12.96 
L 199.215 12.96 
" style="fill:none;stroke:#000000;stroke-linecap:square;stroke-linejoin:miter;stroke-width:1.5;"/>
   </g>
   <g id="patch_4">
    <path d="M 199.215 163.004 
L 199.215 12.96 
" style="fill:none;stroke:#000000;stroke-linecap:square;stroke-linejoin:miter;stroke-width:1.5;"/>
   </g>
   <g id="patch_5">
    <path d="M 36.085 163.004 
L 199.215 163.004 
" style="fill:none;stroke:#000000;stroke-linecap:square;stroke-linejoin:miter;stroke-width:1.5;"/>
   </g>
   <g id="patch_6">
    <path d="M 36.085 163.004 
L 36.085 12.96 
" style="fill:none;stroke:#000000;stroke-linecap:square;stroke-linejoin:miter;stroke-width:1.5;"/>
   </g>
   <g id="matplotlib.axis_1">
    <g id="xtick_1">
     <g id="line2d_2">
      <defs>
       <path d="M 0 0 
L 0 -10 
" id="me2722456f4" style="stroke:#000000;stroke-width:1.5;"/>
      </defs>
      <g>
       <use style="stroke:#000000;stroke-width:1.5;" x="36.084999999999994" xlink:href="#me2722456f4" y="163.00400000000013"/>
      </g>
     </g>
     <g id="line2d_3">
      <defs>
       <path d="M 0 0 
L 0 10 
" id="md35b32db02" style="stroke:#000000;stroke-width:1.5;"/>
      </defs>
      <g>
       <use style="stroke:#000000;stroke-width:1.5;" x="36.084999999999994" xlink:href="#md35b32db02" y="12.960000000000264"/>
      </g>
     </g>
     <g id="text_1">
      <!-- 0 -->
      <defs>
       <path d="M 31.78125 66.40625 
Q 24.171875 66.40625 20.328125 58.90625 
Q 16.5 51.421875 16.5 36.375 
Q 16.5 21.390625 20.328125 13.890625 
Q 24.171875 6.390625 31.78125 6.390625 
Q 39.453125 6.390625 43.28125 13.890625 
Q 47.125 21.390625 47.125 36.375 
Q 47.125 51.421875 43.28125 58.90625 
Q 39.453125 66.40625 31.78125 66.40625 
M 31.78125 74.21875 
Q 44.046875 74.21875 50.515625 64.515625 
Q 56.984375 54.828125 56.984375 36.375 
Q 56.984375 17.96875 50.515625 8.265625 
Q 44.046875 -1.421875 31.78125 -1.421875 
Q 19.53125 -1.421875 13.0625 8.265625 
Q 6.59375 17.96875 6.59375 36.375 
Q 6.59375 54.828125 13.0625 64.515625 
Q 19.53125 74.21875 31.78125 74.21875 
" id="BitstreamVeraSans-Roman-30"/>
      </defs>
      <g transform="translate(32.26749999999999 176.1221250000001)scale(0.12 -0.12)">
       <use xlink:href="#BitstreamVeraSans-Roman-30"/>
      </g>
     </g>
    </g>
    <g id="xtick_2">
     <g id="line2d_4">
      <g>
       <use style="stroke:#000000;stroke-width:1.5;" x="90.46166666666666" xlink:href="#me2722456f4" y="163.00400000000013"/>
      </g>
     </g>
     <g id="line2d_5">
      <g>
       <use style="stroke:#000000;stroke-width:1.5;" x="90.46166666666666" xlink:href="#md35b32db02" y="12.960000000000264"/>
      </g>
     </g>
     <g id="text_2">
      <!-- 1 -->
      <defs>
       <path d="M 12.40625 8.296875 
L 28.515625 8.296875 
L 28.515625 63.921875 
L 10.984375 60.40625 
L 10.984375 69.390625 
L 28.421875 72.90625 
L 38.28125 72.90625 
L 38.28125 8.296875 
L 54.390625 8.296875 
L 54.390625 0 
L 12.40625 0 
z
" id="BitstreamVeraSans-Roman-31"/>
      </defs>
      <g transform="translate(86.64416666666666 176.1221250000001)scale(0.12 -0.12)">
       <use xlink:href="#BitstreamVeraSans-Roman-31"/>
      </g>
     </g>
    </g>
    <g id="xtick_3">
     <g id="line2d_6">
      <g>
       <use style="stroke:#000000;stroke-width:1.5;" x="144.8383333333333" xlink:href="#me2722456f4" y="163.00400000000013"/>
      </g>
     </g>
     <g id="line2d_7">
      <g>
       <use style="stroke:#000000;stroke-width:1.5;" x="144.8383333333333" xlink:href="#md35b32db02" y="12.960000000000264"/>
      </g>
     </g>
     <g id="text_3">
      <!-- 2 -->
      <defs>
       <path d="M 19.1875 8.296875 
L 53.609375 8.296875 
L 53.609375 0 
L 7.328125 0 
L 7.328125 8.296875 
Q 12.9375 14.109375 22.625 23.890625 
Q 32.328125 33.6875 34.8125 36.53125 
Q 39.546875 41.84375 41.421875 45.53125 
Q 43.3125 49.21875 43.3125 52.78125 
Q 43.3125 58.59375 39.234375 62.25 
Q 35.15625 65.921875 28.609375 65.921875 
Q 23.96875 65.921875 18.8125 64.3125 
Q 13.671875 62.703125 7.8125 59.421875 
L 7.8125 69.390625 
Q 13.765625 71.78125 18.9375 73 
Q 24.125 74.21875 28.421875 74.21875 
Q 39.75 74.21875 46.484375 68.546875 
Q 53.21875 62.890625 53.21875 53.421875 
Q 53.21875 48.921875 51.53125 44.890625 
Q 49.859375 40.875 45.40625 35.40625 
Q 44.1875 33.984375 37.640625 27.21875 
Q 31.109375 20.453125 19.1875 8.296875 
" id="BitstreamVeraSans-Roman-32"/>
      </defs>
      <g transform="translate(141.02083333333331 176.1221250000001)scale(0.12 -0.12)">
       <use xlink:href="#BitstreamVeraSans-Roman-32"/>
      </g>
     </g>
    </g>
    <g id="xtick_4">
     <g id="line2d_8">
      <g>
       <use style="stroke:#000000;stroke-width:1.5;" x="199.21499999999997" xlink:href="#me2722456f4" y="163.00400000000013"/>
      </g>
     </g>
     <g id="line2d_9">
      <g>
       <use style="stroke:#000000;stroke-width:1.5;" x="199.21499999999997" xlink:href="#md35b32db02" y="12.960000000000264"/>
      </g>
     </g>
     <g id="text_4">
      <!-- 3 -->
      <defs>
       <path d="M 40.578125 39.3125 
Q 47.65625 37.796875 51.625 33 
Q 55.609375 28.21875 55.609375 21.1875 
Q 55.609375 10.40625 48.1875 4.484375 
Q 40.765625 -1.421875 27.09375 -1.421875 
Q 22.515625 -1.421875 17.65625 -0.515625 
Q 12.796875 0.390625 7.625 2.203125 
L 7.625 11.71875 
Q 11.71875 9.328125 16.59375 8.109375 
Q 21.484375 6.890625 26.8125 6.890625 
Q 36.078125 6.890625 40.9375 10.546875 
Q 45.796875 14.203125 45.796875 21.1875 
Q 45.796875 27.640625 41.28125 31.265625 
Q 36.765625 34.90625 28.71875 34.90625 
L 20.21875 34.90625 
L 20.21875 43.015625 
L 29.109375 43.015625 
Q 36.375 43.015625 40.234375 45.921875 
Q 44.09375 48.828125 44.09375 54.296875 
Q 44.09375 59.90625 40.109375 62.90625 
Q 36.140625 65.921875 28.71875 65.921875 
Q 24.65625 65.921875 20.015625 65.03125 
Q 15.375 64.15625 9.8125 62.3125 
L 9.8125 71.09375 
Q 15.4375 72.65625 20.34375 73.4375 
Q 25.25 74.21875 29.59375 74.21875 
Q 40.828125 74.21875 47.359375 69.109375 
Q 53.90625 64.015625 53.90625 55.328125 
Q 53.90625 49.265625 50.4375 45.09375 
Q 46.96875 40.921875 40.578125 39.3125 
" id="BitstreamVeraSans-Roman-33"/>
      </defs>
      <g transform="translate(195.39749999999998 176.1221250000001)scale(0.12 -0.12)">
       <use xlink:href="#BitstreamVeraSans-Roman-33"/>
      </g>
     </g>
    </g>
   </g>
   <g id="matplotlib.axis_2">
    <g id="ytick_1">
     <g id="line2d_10">
      <defs>
       <path d="M 0 0 
L 10 0 
" id="m79f8dd81b1" style="stroke:#000000;stroke-width:1.5;"/>
      </defs>
      <g>
       <use style="stroke:#000000;stroke-width:1.5;" x="36.084999999999994" xlink:href="#m79f8dd81b1" y="163.00400000000013"/>
      </g>
     </g>
     <g id="line2d_11">
      <defs>
       <path d="M 0 0 
L -10 0 
" id="m4ea65a9a7c" style="stroke:#000000;stroke-width:1.5;"/>
      </defs>
      <g>
       <use style="stroke:#000000;stroke-width:1.5;" x="199.21499999999997" xlink:href="#m4ea65a9a7c" y="163.00400000000013"/>
      </g>
     </g>
     <g id="text_5">
      <!-- 0.0 -->
      <defs>
       <path d="M 10.6875 12.40625 
L 21 12.40625 
L 21 0 
L 10.6875 0 
z
" id="BitstreamVeraSans-Roman-2e"/>
      </defs>
      <g transform="translate(13.001249999999995 166.3152500000001)scale(0.12 -0.12)">
       <use xlink:href="#BitstreamVeraSans-Roman-30"/>
       <use x="63.623046875" xlink:href="#BitstreamVeraSans-Roman-2e"/>
       <use x="95.41015625" xlink:href="#BitstreamVeraSans-Roman-30"/>
      </g>
     </g>
    </g>
    <g id="ytick_2">
     <g id="line2d_12">
      <g>
       <use style="stroke:#000000;stroke-width:1.5;" x="36.084999999999994" xlink:href="#m79f8dd81b1" y="94.802181818182"/>
      </g>
     </g>
     <g id="line2d_13">
      <g>
       <use style="stroke:#000000;stroke-width:1.5;" x="199.21499999999997" xlink:href="#m4ea65a9a7c" y="94.802181818182"/>
      </g>
     </g>
     <g id="text_6">
      <!-- 0.5 -->
      <defs>
       <path d="M 10.796875 72.90625 
L 49.515625 72.90625 
L 49.515625 64.59375 
L 19.828125 64.59375 
L 19.828125 46.734375 
Q 21.96875 47.46875 24.109375 47.828125 
Q 26.265625 48.1875 28.421875 48.1875 
Q 40.625 48.1875 47.75 41.5 
Q 54.890625 34.8125 54.890625 23.390625 
Q 54.890625 11.625 47.5625 5.09375 
Q 40.234375 -1.421875 26.90625 -1.421875 
Q 22.3125 -1.421875 17.546875 -0.640625 
Q 12.796875 0.140625 7.71875 1.703125 
L 7.71875 11.625 
Q 12.109375 9.234375 16.796875 8.0625 
Q 21.484375 6.890625 26.703125 6.890625 
Q 35.15625 6.890625 40.078125 11.328125 
Q 45.015625 15.765625 45.015625 23.390625 
Q 45.015625 31 40.078125 35.4375 
Q 35.15625 39.890625 26.703125 39.890625 
Q 22.75 39.890625 18.8125 39.015625 
Q 14.890625 38.140625 10.796875 36.28125 
z
" id="BitstreamVeraSans-Roman-35"/>
      </defs>
      <g transform="translate(13.001249999999995 98.11343181818188)scale(0.12 -0.12)">
       <use xlink:href="#BitstreamVeraSans-Roman-30"/>
       <use x="63.623046875" xlink:href="#BitstreamVeraSans-Roman-2e"/>
       <use x="95.41015625" xlink:href="#BitstreamVeraSans-Roman-35"/>
      </g>
     </g>
    </g>
    <g id="ytick_3">
     <g id="line2d_14">
      <g>
       <use style="stroke:#000000;stroke-width:1.5;" x="36.084999999999994" xlink:href="#m79f8dd81b1" y="26.60036363636388"/>
      </g>
     </g>
     <g id="line2d_15">
      <g>
       <use style="stroke:#000000;stroke-width:1.5;" x="199.21499999999997" xlink:href="#m4ea65a9a7c" y="26.60036363636388"/>
      </g>
     </g>
     <g id="text_7">
      <!-- 1.0 -->
      <g transform="translate(13.001249999999995 29.91161363636388)scale(0.12 -0.12)">
       <use xlink:href="#BitstreamVeraSans-Roman-31"/>
       <use x="63.623046875" xlink:href="#BitstreamVeraSans-Roman-2e"/>
       <use x="95.41015625" xlink:href="#BitstreamVeraSans-Roman-30"/>
      </g>
     </g>
    </g>
   </g>
   <g id="text_8">
    <!-- 1148.002 -->
    <defs>
     <path d="M 31.78125 34.625 
Q 24.75 34.625 20.71875 30.859375 
Q 16.703125 27.09375 16.703125 20.515625 
Q 16.703125 13.921875 20.71875 10.15625 
Q 24.75 6.390625 31.78125 6.390625 
Q 38.8125 6.390625 42.859375 10.171875 
Q 46.921875 13.96875 46.921875 20.515625 
Q 46.921875 27.09375 42.890625 30.859375 
Q 38.875 34.625 31.78125 34.625 
M 21.921875 38.8125 
Q 15.578125 40.375 12.03125 44.71875 
Q 8.5 49.078125 8.5 55.328125 
Q 8.5 64.0625 14.71875 69.140625 
Q 20.953125 74.21875 31.78125 74.21875 
Q 42.671875 74.21875 48.875 69.140625 
Q 55.078125 64.0625 55.078125 55.328125 
Q 55.078125 49.078125 51.53125 44.71875 
Q 48 40.375 41.703125 38.8125 
Q 48.828125 37.15625 52.796875 32.3125 
Q 56.78125 27.484375 56.78125 20.515625 
Q 56.78125 9.90625 50.3125 4.234375 
Q 43.84375 -1.421875 31.78125 -1.421875 
Q 19.734375 -1.421875 13.25 4.234375 
Q 6.78125 9.90625 6.78125 20.515625 
Q 6.78125 27.484375 10.78125 32.3125 
Q 14.796875 37.15625 21.921875 38.8125 
M 18.3125 54.390625 
Q 18.3125 48.734375 21.84375 45.5625 
Q 25.390625 42.390625 31.78125 42.390625 
Q 38.140625 42.390625 41.71875 45.5625 
Q 45.3125 48.734375 45.3125 54.390625 
Q 45.3125 60.0625 41.71875 63.234375 
Q 38.140625 66.40625 31.78125 66.40625 
Q 25.390625 66.40625 21.84375 63.234375 
Q 18.3125 60.0625 18.3125 54.390625 
" id="BitstreamVeraSans-Roman-38"/>
     <path d="M 37.796875 64.3125 
L 12.890625 25.390625 
L 37.796875 25.390625 
z
M 35.203125 72.90625 
L 47.609375 72.90625 
L 47.609375 25.390625 
L 58.015625 25.390625 
L 58.015625 17.1875 
L 47.609375 17.1875 
L 47.609375 0 
L 37.796875 0 
L 37.796875 17.1875 
L 4.890625 17.1875 
L 4.890625 26.703125 
z
" id="BitstreamVeraSans-Roman-34"/>
    </defs>
    <g transform="translate(210.09033333333332 94.80218181818191)scale(0.08 -0.08)">
     <use xlink:href="#BitstreamVeraSans-Roman-31"/>
     <use x="63.623046875" xlink:href="#BitstreamVeraSans-Roman-31"/>
     <use x="127.24609375" xlink:href="#BitstreamVeraSans-Roman-34"/>
     <use x="190.869140625" xlink:href="#BitstreamVeraSans-Roman-38"/>
     <use x="254.4921875" xlink:href="#BitstreamVeraSans-Roman-2e"/>
     <use x="286.279296875" xlink:href="#BitstreamVeraSans-Roman-30"/>
     <use x="349.90234375" xlink:href="#BitstreamVeraSans-Roman-30"/>
     <use x="413.525390625" xlink:href="#BitstreamVeraSans-Roman-32"/>
    </g>
   </g>
  </g>
  <g id="axes_2">
   <g id="patch_7">
    <path d="M 36.085 341.708 
L 199.215 341.708 
L 199.215 191.664 
L 36.085 191.664 
z
" style="fill:#ffffff;"/>
   </g>
   <g id="line2d_16">
    <path clip-path="url(#pe24ed955a9)" d="M 41.522667 341.707953 
L 46.960333 341.707812 
L 52.398 341.707575 
L 57.835667 341.707242 
L 63.273333 341.706809 
L 68.711 341.706275 
L 74.148667 341.705637 
L 79.586333 341.704891 
L 85.024 341.704035 
L 90.461667 341.703064 
L 95.899333 341.701978 
L 101.337 341.700774 
L 106.774667 341.699453 
L 112.212333 341.698013 
L 117.65 341.69646 
L 123.087667 341.694797 
L 128.525333 341.693034 
L 133.963 341.691181 
L 139.400667 341.689254 
L 144.838333 341.687272 
L 150.276 341.685258 
L 155.713667 341.683241 
L 161.151333 341.681254 
L 166.589 341.679337 
L 172.026667 341.677526 
L 177.464333 341.675875 
L 182.902 341.674423 
L 188.339667 341.67322 
L 193.777333 341.672316 
L 199.215 341.671753 
" style="fill:none;stroke:#0000ff;stroke-linecap:square;stroke-width:1.5;"/>
   </g>
   <g id="patch_8">
    <path d="M 36.085 191.664 
L 199.215 191.664 
" style="fill:none;stroke:#000000;stroke-linecap:square;stroke-linejoin:miter;stroke-width:1.5;"/>
   </g>
   <g id="patch_9">
    <path d="M 199.215 341.708 
L 199.215 191.664 
" style="fill:none;stroke:#000000;stroke-linecap:square;stroke-linejoin:miter;stroke-width:1.5;"/>
   </g>
   <g id="patch_10">
    <path d="M 36.085 341.708 
L 199.215 341.708 
" style="fill:none;stroke:#000000;stroke-linecap:square;stroke-linejoin:miter;stroke-width:1.5;"/>
   </g>
   <g id="patch_11">
    <path d="M 36.085 341.708 
L 36.085 191.664 
" style="fill:none;stroke:#000000;stroke-linecap:square;stroke-linejoin:miter;stroke-width:1.5;"/>
   </g>
   <g id="matplotlib.axis_3">
    <g id="xtick_5">
     <g id="line2d_17">
      <g>
       <use style="stroke:#000000;stroke-width:1.5;" x="36.084999999999994" xlink:href="#me2722456f4" y="341.7080000000001"/>
      </g>
     </g>
     <g id="line2d_18">
      <g>
       <use style="stroke:#000000;stroke-width:1.5;" x="36.084999999999994" xlink:href="#md35b32db02" y="191.66400000000021"/>
      </g>
     </g>
     <g id="text_9">
      <!-- 0 -->
      <g transform="translate(32.26749999999999 354.82612500000005)scale(0.12 -0.12)">
       <use xlink:href="#BitstreamVeraSans-Roman-30"/>
      </g>
     </g>
    </g>
    <g id="xtick_6">
     <g id="line2d_19">
      <g>
       <use style="stroke:#000000;stroke-width:1.5;" x="90.46166666666666" xlink:href="#me2722456f4" y="341.7080000000001"/>
      </g>
     </g>
     <g id="line2d_20">
      <g>
       <use style="stroke:#000000;stroke-width:1.5;" x="90.46166666666666" xlink:href="#md35b32db02" y="191.66400000000021"/>
      </g>
     </g>
     <g id="text_10">
      <!-- 1 -->
      <g transform="translate(86.64416666666666 354.82612500000005)scale(0.12 -0.12)">
       <use xlink:href="#BitstreamVeraSans-Roman-31"/>
      </g>
     </g>
    </g>
    <g id="xtick_7">
     <g id="line2d_21">
      <g>
       <use style="stroke:#000000;stroke-width:1.5;" x="144.8383333333333" xlink:href="#me2722456f4" y="341.7080000000001"/>
      </g>
     </g>
     <g id="line2d_22">
      <g>
       <use style="stroke:#000000;stroke-width:1.5;" x="144.8383333333333" xlink:href="#md35b32db02" y="191.66400000000021"/>
      </g>
     </g>
     <g id="text_11">
      <!-- 2 -->
      <g transform="translate(141.02083333333331 354.82612500000005)scale(0.12 -0.12)">
       <use xlink:href="#BitstreamVeraSans-Roman-32"/>
      </g>
     </g>
    </g>
    <g id="xtick_8">
     <g id="line2d_23">
      <g>
       <use style="stroke:#000000;stroke-width:1.5;" x="199.21499999999997" xlink:href="#me2722456f4" y="341.7080000000001"/>
      </g>
     </g>
     <g id="line2d_24">
      <g>
       <use style="stroke:#000000;stroke-width:1.5;" x="199.21499999999997" xlink:href="#md35b32db02" y="191.66400000000021"/>
      </g>
     </g>
     <g id="text_12">
      <!-- 3 -->
      <g transform="translate(195.39749999999998 354.82612500000005)scale(0.12 -0.12)">
       <use xlink:href="#BitstreamVeraSans-Roman-33"/>
      </g>
     </g>
    </g>
   </g>
   <g id="matplotlib.axis_4">
    <g id="ytick_4">
     <g id="line2d_25">
      <g>
       <use style="stroke:#000000;stroke-width:1.5;" x="36.084999999999994" xlink:href="#m79f8dd81b1" y="341.7080000000001"/>
      </g>
     </g>
     <g id="line2d_26">
      <g>
       <use style="stroke:#000000;stroke-width:1.5;" x="199.21499999999997" xlink:href="#m4ea65a9a7c" y="341.7080000000001"/>
      </g>
     </g>
     <g id="text_13">
      <!-- 0.0 -->
      <g transform="translate(13.001249999999995 345.01925000000006)scale(0.12 -0.12)">
       <use xlink:href="#BitstreamVeraSans-Roman-30"/>
       <use x="63.623046875" xlink:href="#BitstreamVeraSans-Roman-2e"/>
       <use x="95.41015625" xlink:href="#BitstreamVeraSans-Roman-30"/>
      </g>
     </g>
    </g>
    <g id="ytick_5">
     <g id="line2d_27">
      <g>
       <use style="stroke:#000000;stroke-width:1.5;" x="36.084999999999994" xlink:href="#m79f8dd81b1" y="273.506181818182"/>
      </g>
     </g>
     <g id="line2d_28">
      <g>
       <use style="stroke:#000000;stroke-width:1.5;" x="199.21499999999997" xlink:href="#m4ea65a9a7c" y="273.506181818182"/>
      </g>
     </g>
     <g id="text_14">
      <!-- 0.5 -->
      <g transform="translate(13.001249999999995 276.81743181818183)scale(0.12 -0.12)">
       <use xlink:href="#BitstreamVeraSans-Roman-30"/>
       <use x="63.623046875" xlink:href="#BitstreamVeraSans-Roman-2e"/>
       <use x="95.41015625" xlink:href="#BitstreamVeraSans-Roman-35"/>
      </g>
     </g>
    </g>
    <g id="ytick_6">
     <g id="line2d_29">
      <g>
       <use style="stroke:#000000;stroke-width:1.5;" x="36.084999999999994" xlink:href="#m79f8dd81b1" y="205.30436363636383"/>
      </g>
     </g>
     <g id="line2d_30">
      <g>
       <use style="stroke:#000000;stroke-width:1.5;" x="199.21499999999997" xlink:href="#m4ea65a9a7c" y="205.30436363636383"/>
      </g>
     </g>
     <g id="text_15">
      <!-- 1.0 -->
      <g transform="translate(13.001249999999995 208.61561363636383)scale(0.12 -0.12)">
       <use xlink:href="#BitstreamVeraSans-Roman-31"/>
       <use x="63.623046875" xlink:href="#BitstreamVeraSans-Roman-2e"/>
       <use x="95.41015625" xlink:href="#BitstreamVeraSans-Roman-30"/>
      </g>
     </g>
    </g>
   </g>
   <g id="text_16">
    <!-- 1152.998 -->
    <defs>
     <path d="M 10.984375 1.515625 
L 10.984375 10.5 
Q 14.703125 8.734375 18.5 7.8125 
Q 22.3125 6.890625 25.984375 6.890625 
Q 35.75 6.890625 40.890625 13.453125 
Q 46.046875 20.015625 46.78125 33.40625 
Q 43.953125 29.203125 39.59375 26.953125 
Q 35.25 24.703125 29.984375 24.703125 
Q 19.046875 24.703125 12.671875 31.3125 
Q 6.296875 37.9375 6.296875 49.421875 
Q 6.296875 60.640625 12.9375 67.421875 
Q 19.578125 74.21875 30.609375 74.21875 
Q 43.265625 74.21875 49.921875 64.515625 
Q 56.59375 54.828125 56.59375 36.375 
Q 56.59375 19.140625 48.40625 8.859375 
Q 40.234375 -1.421875 26.421875 -1.421875 
Q 22.703125 -1.421875 18.890625 -0.6875 
Q 15.09375 0.046875 10.984375 1.515625 
M 30.609375 32.421875 
Q 37.25 32.421875 41.125 36.953125 
Q 45.015625 41.5 45.015625 49.421875 
Q 45.015625 57.28125 41.125 61.84375 
Q 37.25 66.40625 30.609375 66.40625 
Q 23.96875 66.40625 20.09375 61.84375 
Q 16.21875 57.28125 16.21875 49.421875 
Q 16.21875 41.5 20.09375 36.953125 
Q 23.96875 32.421875 30.609375 32.421875 
" id="BitstreamVeraSans-Roman-39"/>
    </defs>
    <g transform="translate(210.09033333333332 273.50618181818186)scale(0.08 -0.08)">
     <use xlink:href="#BitstreamVeraSans-Roman-31"/>
     <use x="63.623046875" xlink:href="#BitstreamVeraSans-Roman-31"/>
     <use x="127.24609375" xlink:href="#BitstreamVeraSans-Roman-35"/>
     <use x="190.869140625" xlink:href="#BitstreamVeraSans-Roman-32"/>
     <use x="254.4921875" xlink:href="#BitstreamVeraSans-Roman-2e"/>
     <use x="286.279296875" xlink:href="#BitstreamVeraSans-Roman-39"/>
     <use x="349.90234375" xlink:href="#BitstreamVeraSans-Roman-39"/>
     <use x="413.525390625" xlink:href="#BitstreamVeraSans-Roman-38"/>
    </g>
   </g>
  </g>
  <g id="axes_3">
   <g id="patch_12">
    <path d="M 36.085 520.412 
L 199.215 520.412 
L 199.215 370.368 
L 36.085 370.368 
z
" style="fill:#ffffff;"/>
   </g>
   <g id="line2d_31">
    <path clip-path="url(#p8f7688a422)" d="M 41.522667 520.411917 
L 46.960333 520.411665 
L 52.398 520.41124 
L 57.835667 520.410631 
L 63.273333 520.409824 
L 68.711 520.408805 
L 74.148667 520.407552 
L 79.586333 520.406045 
L 85.024 520.404262 
L 90.461667 520.40218 
L 95.899333 520.399779 
L 101.337 520.397042 
L 106.774667 520.393959 
L 112.212333 520.390529 
L 117.65 520.386764 
L 123.087667 520.382692 
L 128.525333 520.37836 
L 133.963 520.373839 
L 139.400667 520.369226 
L 144.838333 520.364645 
L 150.276 520.360248 
L 155.713667 520.356216 
L 161.151333 520.352749 
L 166.589 520.350065 
L 172.026667 520.348381 
L 177.464333 520.347889 
L 182.902 520.348763 
L 188.339667 520.351105 
L 193.777333 520.354916 
L 199.215 520.3601 
" style="fill:none;stroke:#0000ff;stroke-linecap:square;stroke-width:1.5;"/>
   </g>
   <g id="patch_13">
    <path d="M 36.085 370.368 
L 199.215 370.368 
" style="fill:none;stroke:#000000;stroke-linecap:square;stroke-linejoin:miter;stroke-width:1.5;"/>
   </g>
   <g id="patch_14">
    <path d="M 199.215 520.412 
L 199.215 370.368 
" style="fill:none;stroke:#000000;stroke-linecap:square;stroke-linejoin:miter;stroke-width:1.5;"/>
   </g>
   <g id="patch_15">
    <path d="M 36.085 520.412 
L 199.215 520.412 
" style="fill:none;stroke:#000000;stroke-linecap:square;stroke-linejoin:miter;stroke-width:1.5;"/>
   </g>
   <g id="patch_16">
    <path d="M 36.085 520.412 
L 36.085 370.368 
" style="fill:none;stroke:#000000;stroke-linecap:square;stroke-linejoin:miter;stroke-width:1.5;"/>
   </g>
   <g id="matplotlib.axis_5">
    <g id="xtick_9">
     <g id="line2d_32">
      <g>
       <use style="stroke:#000000;stroke-width:1.5;" x="36.084999999999994" xlink:href="#me2722456f4" y="520.412"/>
      </g>
     </g>
     <g id="line2d_33">
      <g>
       <use style="stroke:#000000;stroke-width:1.5;" x="36.084999999999994" xlink:href="#md35b32db02" y="370.3680000000004"/>
      </g>
     </g>
     <g id="text_17">
      <!-- 0 -->
      <g transform="translate(32.26749999999999 533.530125)scale(0.12 -0.12)">
       <use xlink:href="#BitstreamVeraSans-Roman-30"/>
      </g>
     </g>
    </g>
    <g id="xtick_10">
     <g id="line2d_34">
      <g>
       <use style="stroke:#000000;stroke-width:1.5;" x="90.46166666666666" xlink:href="#me2722456f4" y="520.412"/>
      </g>
     </g>
     <g id="line2d_35">
      <g>
       <use style="stroke:#000000;stroke-width:1.5;" x="90.46166666666666" xlink:href="#md35b32db02" y="370.3680000000004"/>
      </g>
     </g>
     <g id="text_18">
      <!-- 1 -->
      <g transform="translate(86.64416666666666 533.530125)scale(0.12 -0.12)">
       <use xlink:href="#BitstreamVeraSans-Roman-31"/>
      </g>
     </g>
    </g>
    <g id="xtick_11">
     <g id="line2d_36">
      <g>
       <use style="stroke:#000000;stroke-width:1.5;" x="144.8383333333333" xlink:href="#me2722456f4" y="520.412"/>
      </g>
     </g>
     <g id="line2d_37">
      <g>
       <use style="stroke:#000000;stroke-width:1.5;" x="144.8383333333333" xlink:href="#md35b32db02" y="370.3680000000004"/>
      </g>
     </g>
     <g id="text_19">
      <!-- 2 -->
      <g transform="translate(141.02083333333331 533.530125)scale(0.12 -0.12)">
       <use xlink:href="#BitstreamVeraSans-Roman-32"/>
      </g>
     </g>
    </g>
    <g id="xtick_12">
     <g id="line2d_38">
      <g>
       <use style="stroke:#000000;stroke-width:1.5;" x="199.21499999999997" xlink:href="#me2722456f4" y="520.412"/>
      </g>
     </g>
     <g id="line2d_39">
      <g>
       <use style="stroke:#000000;stroke-width:1.5;" x="199.21499999999997" xlink:href="#md35b32db02" y="370.3680000000004"/>
      </g>
     </g>
     <g id="text_20">
      <!-- 3 -->
      <g transform="translate(195.39749999999998 533.530125)scale(0.12 -0.12)">
       <use xlink:href="#BitstreamVeraSans-Roman-33"/>
      </g>
     </g>
    </g>
   </g>
   <g id="matplotlib.axis_6">
    <g id="ytick_7">
     <g id="line2d_40">
      <g>
       <use style="stroke:#000000;stroke-width:1.5;" x="36.084999999999994" xlink:href="#m79f8dd81b1" y="520.412"/>
      </g>
     </g>
     <g id="line2d_41">
      <g>
       <use style="stroke:#000000;stroke-width:1.5;" x="199.21499999999997" xlink:href="#m4ea65a9a7c" y="520.412"/>
      </g>
     </g>
     <g id="text_21">
      <!-- 0.0 -->
      <g transform="translate(13.001249999999995 523.72325)scale(0.12 -0.12)">
       <use xlink:href="#BitstreamVeraSans-Roman-30"/>
       <use x="63.623046875" xlink:href="#BitstreamVeraSans-Roman-2e"/>
       <use x="95.41015625" xlink:href="#BitstreamVeraSans-Roman-30"/>
      </g>
     </g>
    </g>
    <g id="ytick_8">
     <g id="line2d_42">
      <g>
       <use style="stroke:#000000;stroke-width:1.5;" x="36.084999999999994" xlink:href="#m79f8dd81b1" y="452.21018181818204"/>
      </g>
     </g>
     <g id="line2d_43">
      <g>
       <use style="stroke:#000000;stroke-width:1.5;" x="199.21499999999997" xlink:href="#m4ea65a9a7c" y="452.21018181818204"/>
      </g>
     </g>
     <g id="text_22">
      <!-- 0.5 -->
      <g transform="translate(13.001249999999995 455.521431818182)scale(0.12 -0.12)">
       <use xlink:href="#BitstreamVeraSans-Roman-30"/>
       <use x="63.623046875" xlink:href="#BitstreamVeraSans-Roman-2e"/>
       <use x="95.41015625" xlink:href="#BitstreamVeraSans-Roman-35"/>
      </g>
     </g>
    </g>
    <g id="ytick_9">
     <g id="line2d_44">
      <g>
       <use style="stroke:#000000;stroke-width:1.5;" x="36.084999999999994" xlink:href="#m79f8dd81b1" y="384.00836363636404"/>
      </g>
     </g>
     <g id="line2d_45">
      <g>
       <use style="stroke:#000000;stroke-width:1.5;" x="199.21499999999997" xlink:href="#m4ea65a9a7c" y="384.00836363636404"/>
      </g>
     </g>
     <g id="text_23">
      <!-- 1.0 -->
      <g transform="translate(13.001249999999995 387.319613636364)scale(0.12 -0.12)">
       <use xlink:href="#BitstreamVeraSans-Roman-31"/>
       <use x="63.623046875" xlink:href="#BitstreamVeraSans-Roman-2e"/>
       <use x="95.41015625" xlink:href="#BitstreamVeraSans-Roman-30"/>
      </g>
     </g>
    </g>
   </g>
   <g id="text_24">
    <!-- 1155.997 -->
    <defs>
     <path d="M 8.203125 72.90625 
L 55.078125 72.90625 
L 55.078125 68.703125 
L 28.609375 0 
L 18.3125 0 
L 43.21875 64.59375 
L 8.203125 64.59375 
z
" id="BitstreamVeraSans-Roman-37"/>
    </defs>
    <g transform="translate(210.09033333333332 452.21018181818204)scale(0.08 -0.08)">
     <use xlink:href="#BitstreamVeraSans-Roman-31"/>
     <use x="63.623046875" xlink:href="#BitstreamVeraSans-Roman-31"/>
     <use x="127.24609375" xlink:href="#BitstreamVeraSans-Roman-35"/>
     <use x="190.869140625" xlink:href="#BitstreamVeraSans-Roman-35"/>
     <use x="254.4921875" xlink:href="#BitstreamVeraSans-Roman-2e"/>
     <use x="286.279296875" xlink:href="#BitstreamVeraSans-Roman-39"/>
     <use x="349.90234375" xlink:href="#BitstreamVeraSans-Roman-39"/>
     <use x="413.525390625" xlink:href="#BitstreamVeraSans-Roman-37"/>
    </g>
   </g>
  </g>
  <g id="axes_4">
   <g id="patch_17">
    <path d="M 36.085 699.116 
L 199.215 699.116 
L 199.215 549.072 
L 36.085 549.072 
z
" style="fill:#ffffff;"/>
   </g>
   <g id="line2d_46">
    <path clip-path="url(#p1852f7c53d)" d="M 41.522667 699.085049 
L 46.960333 698.992367 
L 52.398 698.838464 
L 57.835667 698.624193 
L 63.273333 698.350742 
L 68.711 698.019626 
L 74.148667 697.632676 
L 79.586333 697.192002 
L 85.024 696.699948 
L 90.461667 696.159016 
L 95.899333 695.571771 
L 101.337 694.940702 
L 106.774667 694.268067 
L 112.212333 693.555706 
L 117.65 692.804841 
L 123.087667 692.0159 
L 128.525333 691.188358 
L 133.963 690.320695 
L 139.400667 689.410428 
L 144.838333 688.454371 
L 150.276 687.449083 
L 155.713667 686.391524 
L 161.151333 685.279981 
L 166.589 684.115116 
L 172.026667 682.901082 
L 177.464333 681.64647 
L 182.902 680.364951 
L 188.339667 679.07528 
L 193.777333 677.800303 
L 199.215 676.565107 
" style="fill:none;stroke:#0000ff;stroke-linecap:square;stroke-width:1.5;"/>
   </g>
   <g id="patch_18">
    <path d="M 36.085 549.072 
L 199.215 549.072 
" style="fill:none;stroke:#000000;stroke-linecap:square;stroke-linejoin:miter;stroke-width:1.5;"/>
   </g>
   <g id="patch_19">
    <path d="M 199.215 699.116 
L 199.215 549.072 
" style="fill:none;stroke:#000000;stroke-linecap:square;stroke-linejoin:miter;stroke-width:1.5;"/>
   </g>
   <g id="patch_20">
    <path d="M 36.085 699.116 
L 199.215 699.116 
" style="fill:none;stroke:#000000;stroke-linecap:square;stroke-linejoin:miter;stroke-width:1.5;"/>
   </g>
   <g id="patch_21">
    <path d="M 36.085 699.116 
L 36.085 549.072 
" style="fill:none;stroke:#000000;stroke-linecap:square;stroke-linejoin:miter;stroke-width:1.5;"/>
   </g>
   <g id="matplotlib.axis_7">
    <g id="xtick_13">
     <g id="line2d_47">
      <g>
       <use style="stroke:#000000;stroke-width:1.5;" x="36.084999999999994" xlink:href="#me2722456f4" y="699.1160000000002"/>
      </g>
     </g>
     <g id="line2d_48">
      <g>
       <use style="stroke:#000000;stroke-width:1.5;" x="36.084999999999994" xlink:href="#md35b32db02" y="549.0720000000003"/>
      </g>
     </g>
     <g id="text_25">
      <!-- 0 -->
      <g transform="translate(32.26749999999999 712.2341250000002)scale(0.12 -0.12)">
       <use xlink:href="#BitstreamVeraSans-Roman-30"/>
      </g>
     </g>
    </g>
    <g id="xtick_14">
     <g id="line2d_49">
      <g>
       <use style="stroke:#000000;stroke-width:1.5;" x="90.46166666666666" xlink:href="#me2722456f4" y="699.1160000000002"/>
      </g>
     </g>
     <g id="line2d_50">
      <g>
       <use style="stroke:#000000;stroke-width:1.5;" x="90.46166666666666" xlink:href="#md35b32db02" y="549.0720000000003"/>
      </g>
     </g>
     <g id="text_26">
      <!-- 1 -->
      <g transform="translate(86.64416666666666 712.2341250000002)scale(0.12 -0.12)">
       <use xlink:href="#BitstreamVeraSans-Roman-31"/>
      </g>
     </g>
    </g>
    <g id="xtick_15">
     <g id="line2d_51">
      <g>
       <use style="stroke:#000000;stroke-width:1.5;" x="144.8383333333333" xlink:href="#me2722456f4" y="699.1160000000002"/>
      </g>
     </g>
     <g id="line2d_52">
      <g>
       <use style="stroke:#000000;stroke-width:1.5;" x="144.8383333333333" xlink:href="#md35b32db02" y="549.0720000000003"/>
      </g>
     </g>
     <g id="text_27">
      <!-- 2 -->
      <g transform="translate(141.02083333333331 712.2341250000002)scale(0.12 -0.12)">
       <use xlink:href="#BitstreamVeraSans-Roman-32"/>
      </g>
     </g>
    </g>
    <g id="xtick_16">
     <g id="line2d_53">
      <g>
       <use style="stroke:#000000;stroke-width:1.5;" x="199.21499999999997" xlink:href="#me2722456f4" y="699.1160000000002"/>
      </g>
     </g>
     <g id="line2d_54">
      <g>
       <use style="stroke:#000000;stroke-width:1.5;" x="199.21499999999997" xlink:href="#md35b32db02" y="549.0720000000003"/>
      </g>
     </g>
     <g id="text_28">
      <!-- 3 -->
      <g transform="translate(195.39749999999998 712.2341250000002)scale(0.12 -0.12)">
       <use xlink:href="#BitstreamVeraSans-Roman-33"/>
      </g>
     </g>
    </g>
   </g>
   <g id="matplotlib.axis_8">
    <g id="ytick_10">
     <g id="line2d_55">
      <g>
       <use style="stroke:#000000;stroke-width:1.5;" x="36.084999999999994" xlink:href="#m79f8dd81b1" y="699.1160000000002"/>
      </g>
     </g>
     <g id="line2d_56">
      <g>
       <use style="stroke:#000000;stroke-width:1.5;" x="199.21499999999997" xlink:href="#m4ea65a9a7c" y="699.1160000000002"/>
      </g>
     </g>
     <g id="text_29">
      <!-- 0.0 -->
      <g transform="translate(13.001249999999995 702.4272500000002)scale(0.12 -0.12)">
       <use xlink:href="#BitstreamVeraSans-Roman-30"/>
       <use x="63.623046875" xlink:href="#BitstreamVeraSans-Roman-2e"/>
       <use x="95.41015625" xlink:href="#BitstreamVeraSans-Roman-30"/>
      </g>
     </g>
    </g>
    <g id="ytick_11">
     <g id="line2d_57">
      <g>
       <use style="stroke:#000000;stroke-width:1.5;" x="36.084999999999994" xlink:href="#m79f8dd81b1" y="630.9141818181821"/>
      </g>
     </g>
     <g id="line2d_58">
      <g>
       <use style="stroke:#000000;stroke-width:1.5;" x="199.21499999999997" xlink:href="#m4ea65a9a7c" y="630.9141818181821"/>
      </g>
     </g>
     <g id="text_30">
      <!-- 0.5 -->
      <g transform="translate(13.001249999999995 634.225431818182)scale(0.12 -0.12)">
       <use xlink:href="#BitstreamVeraSans-Roman-30"/>
       <use x="63.623046875" xlink:href="#BitstreamVeraSans-Roman-2e"/>
       <use x="95.41015625" xlink:href="#BitstreamVeraSans-Roman-35"/>
      </g>
     </g>
    </g>
    <g id="ytick_12">
     <g id="line2d_59">
      <g>
       <use style="stroke:#000000;stroke-width:1.5;" x="36.084999999999994" xlink:href="#m79f8dd81b1" y="562.712363636364"/>
      </g>
     </g>
     <g id="line2d_60">
      <g>
       <use style="stroke:#000000;stroke-width:1.5;" x="199.21499999999997" xlink:href="#m4ea65a9a7c" y="562.712363636364"/>
      </g>
     </g>
     <g id="text_31">
      <!-- 1.0 -->
      <g transform="translate(13.001249999999995 566.023613636364)scale(0.12 -0.12)">
       <use xlink:href="#BitstreamVeraSans-Roman-31"/>
       <use x="63.623046875" xlink:href="#BitstreamVeraSans-Roman-2e"/>
       <use x="95.41015625" xlink:href="#BitstreamVeraSans-Roman-30"/>
      </g>
     </g>
    </g>
   </g>
   <g id="text_32">
    <!-- 1159.002 -->
    <g transform="translate(210.09033333333332 630.914181818182)scale(0.08 -0.08)">
     <use xlink:href="#BitstreamVeraSans-Roman-31"/>
     <use x="63.623046875" xlink:href="#BitstreamVeraSans-Roman-31"/>
     <use x="127.24609375" xlink:href="#BitstreamVeraSans-Roman-35"/>
     <use x="190.869140625" xlink:href="#BitstreamVeraSans-Roman-39"/>
     <use x="254.4921875" xlink:href="#BitstreamVeraSans-Roman-2e"/>
     <use x="286.279296875" xlink:href="#BitstreamVeraSans-Roman-30"/>
     <use x="349.90234375" xlink:href="#BitstreamVeraSans-Roman-30"/>
     <use x="413.525390625" xlink:href="#BitstreamVeraSans-Roman-32"/>
    </g>
   </g>
  </g>
  <g id="axes_5">
   <g id="patch_22">
    <path d="M 36.085 877.82 
L 199.215 877.82 
L 199.215 727.776 
L 36.085 727.776 
z
" style="fill:#ffffff;"/>
   </g>
   <g id="line2d_61">
    <path clip-path="url(#p4ef95ab05a)" d="M 41.522667 874.234009 
L 46.960333 864.078257 
L 52.398 849.002338 
L 57.835667 831.286803 
L 63.273333 813.308639 
L 68.711 797.056722 
L 74.148667 783.826388 
L 79.586333 774.142492 
L 85.024 767.877109 
L 90.461667 764.47623 
L 95.899333 763.201853 
L 101.337 763.322871 
L 106.774667 764.228794 
L 112.212333 765.47348 
L 117.65 766.771342 
L 123.087667 767.967966 
L 128.525333 768.999889 
L 133.963 769.852819 
L 139.400667 770.526814 
L 144.838333 771.016988 
L 150.276 771.31412 
L 155.713667 771.419745 
L 161.151333 771.360951 
L 166.589 771.189235 
L 172.026667 770.959279 
L 177.464333 770.700608 
L 182.902 770.404268 
L 188.339667 770.038095 
L 193.777333 769.581751 
L 199.215 769.054099 
" style="fill:none;stroke:#0000ff;stroke-linecap:square;stroke-width:1.5;"/>
   </g>
   <g id="patch_23">
    <path d="M 36.085 727.776 
L 199.215 727.776 
" style="fill:none;stroke:#000000;stroke-linecap:square;stroke-linejoin:miter;stroke-width:1.5;"/>
   </g>
   <g id="patch_24">
    <path d="M 199.215 877.82 
L 199.215 727.776 
" style="fill:none;stroke:#000000;stroke-linecap:square;stroke-linejoin:miter;stroke-width:1.5;"/>
   </g>
   <g id="patch_25">
    <path d="M 36.085 877.82 
L 199.215 877.82 
" style="fill:none;stroke:#000000;stroke-linecap:square;stroke-linejoin:miter;stroke-width:1.5;"/>
   </g>
   <g id="patch_26">
    <path d="M 36.085 877.82 
L 36.085 727.776 
" style="fill:none;stroke:#000000;stroke-linecap:square;stroke-linejoin:miter;stroke-width:1.5;"/>
   </g>
   <g id="matplotlib.axis_9">
    <g id="xtick_17">
     <g id="line2d_62">
      <g>
       <use style="stroke:#000000;stroke-width:1.5;" x="36.084999999999994" xlink:href="#me2722456f4" y="877.8200000000002"/>
      </g>
     </g>
     <g id="line2d_63">
      <g>
       <use style="stroke:#000000;stroke-width:1.5;" x="36.084999999999994" xlink:href="#md35b32db02" y="727.7760000000003"/>
      </g>
     </g>
     <g id="text_33">
      <!-- 0 -->
      <g transform="translate(32.26749999999999 890.9381250000001)scale(0.12 -0.12)">
       <use xlink:href="#BitstreamVeraSans-Roman-30"/>
      </g>
     </g>
    </g>
    <g id="xtick_18">
     <g id="line2d_64">
      <g>
       <use style="stroke:#000000;stroke-width:1.5;" x="90.46166666666666" xlink:href="#me2722456f4" y="877.8200000000002"/>
      </g>
     </g>
     <g id="line2d_65">
      <g>
       <use style="stroke:#000000;stroke-width:1.5;" x="90.46166666666666" xlink:href="#md35b32db02" y="727.7760000000003"/>
      </g>
     </g>
     <g id="text_34">
      <!-- 1 -->
      <g transform="translate(86.64416666666666 890.9381250000001)scale(0.12 -0.12)">
       <use xlink:href="#BitstreamVeraSans-Roman-31"/>
      </g>
     </g>
    </g>
    <g id="xtick_19">
     <g id="line2d_66">
      <g>
       <use style="stroke:#000000;stroke-width:1.5;" x="144.8383333333333" xlink:href="#me2722456f4" y="877.8200000000002"/>
      </g>
     </g>
     <g id="line2d_67">
      <g>
       <use style="stroke:#000000;stroke-width:1.5;" x="144.8383333333333" xlink:href="#md35b32db02" y="727.7760000000003"/>
      </g>
     </g>
     <g id="text_35">
      <!-- 2 -->
      <g transform="translate(141.02083333333331 890.9381250000001)scale(0.12 -0.12)">
       <use xlink:href="#BitstreamVeraSans-Roman-32"/>
      </g>
     </g>
    </g>
    <g id="xtick_20">
     <g id="line2d_68">
      <g>
       <use style="stroke:#000000;stroke-width:1.5;" x="199.21499999999997" xlink:href="#me2722456f4" y="877.8200000000002"/>
      </g>
     </g>
     <g id="line2d_69">
      <g>
       <use style="stroke:#000000;stroke-width:1.5;" x="199.21499999999997" xlink:href="#md35b32db02" y="727.7760000000003"/>
      </g>
     </g>
     <g id="text_36">
      <!-- 3 -->
      <g transform="translate(195.39749999999998 890.9381250000001)scale(0.12 -0.12)">
       <use xlink:href="#BitstreamVeraSans-Roman-33"/>
      </g>
     </g>
    </g>
   </g>
   <g id="matplotlib.axis_10">
    <g id="ytick_13">
     <g id="line2d_70">
      <g>
       <use style="stroke:#000000;stroke-width:1.5;" x="36.084999999999994" xlink:href="#m79f8dd81b1" y="877.8200000000002"/>
      </g>
     </g>
     <g id="line2d_71">
      <g>
       <use style="stroke:#000000;stroke-width:1.5;" x="199.21499999999997" xlink:href="#m4ea65a9a7c" y="877.8200000000002"/>
      </g>
     </g>
     <g id="text_37">
      <!-- 0.0 -->
      <g transform="translate(13.001249999999995 881.1312500000001)scale(0.12 -0.12)">
       <use xlink:href="#BitstreamVeraSans-Roman-30"/>
       <use x="63.623046875" xlink:href="#BitstreamVeraSans-Roman-2e"/>
       <use x="95.41015625" xlink:href="#BitstreamVeraSans-Roman-30"/>
      </g>
     </g>
    </g>
    <g id="ytick_14">
     <g id="line2d_72">
      <g>
       <use style="stroke:#000000;stroke-width:1.5;" x="36.084999999999994" xlink:href="#m79f8dd81b1" y="809.618181818182"/>
      </g>
     </g>
     <g id="line2d_73">
      <g>
       <use style="stroke:#000000;stroke-width:1.5;" x="199.21499999999997" xlink:href="#m4ea65a9a7c" y="809.618181818182"/>
      </g>
     </g>
     <g id="text_38">
      <!-- 0.5 -->
      <g transform="translate(13.001249999999995 812.929431818182)scale(0.12 -0.12)">
       <use xlink:href="#BitstreamVeraSans-Roman-30"/>
       <use x="63.623046875" xlink:href="#BitstreamVeraSans-Roman-2e"/>
       <use x="95.41015625" xlink:href="#BitstreamVeraSans-Roman-35"/>
      </g>
     </g>
    </g>
    <g id="ytick_15">
     <g id="line2d_74">
      <g>
       <use style="stroke:#000000;stroke-width:1.5;" x="36.084999999999994" xlink:href="#m79f8dd81b1" y="741.4163636363639"/>
      </g>
     </g>
     <g id="line2d_75">
      <g>
       <use style="stroke:#000000;stroke-width:1.5;" x="199.21499999999997" xlink:href="#m4ea65a9a7c" y="741.4163636363639"/>
      </g>
     </g>
     <g id="text_39">
      <!-- 1.0 -->
      <g transform="translate(13.001249999999995 744.7276136363639)scale(0.12 -0.12)">
       <use xlink:href="#BitstreamVeraSans-Roman-31"/>
       <use x="63.623046875" xlink:href="#BitstreamVeraSans-Roman-2e"/>
       <use x="95.41015625" xlink:href="#BitstreamVeraSans-Roman-30"/>
      </g>
     </g>
    </g>
   </g>
   <g id="text_40">
    <!-- 1163.002 -->
    <defs>
     <path d="M 33.015625 40.375 
Q 26.375 40.375 22.484375 35.828125 
Q 18.609375 31.296875 18.609375 23.390625 
Q 18.609375 15.53125 22.484375 10.953125 
Q 26.375 6.390625 33.015625 6.390625 
Q 39.65625 6.390625 43.53125 10.953125 
Q 47.40625 15.53125 47.40625 23.390625 
Q 47.40625 31.296875 43.53125 35.828125 
Q 39.65625 40.375 33.015625 40.375 
M 52.59375 71.296875 
L 52.59375 62.3125 
Q 48.875 64.0625 45.09375 64.984375 
Q 41.3125 65.921875 37.59375 65.921875 
Q 27.828125 65.921875 22.671875 59.328125 
Q 17.53125 52.734375 16.796875 39.40625 
Q 19.671875 43.65625 24.015625 45.921875 
Q 28.375 48.1875 33.59375 48.1875 
Q 44.578125 48.1875 50.953125 41.515625 
Q 57.328125 34.859375 57.328125 23.390625 
Q 57.328125 12.15625 50.6875 5.359375 
Q 44.046875 -1.421875 33.015625 -1.421875 
Q 20.359375 -1.421875 13.671875 8.265625 
Q 6.984375 17.96875 6.984375 36.375 
Q 6.984375 53.65625 15.1875 63.9375 
Q 23.390625 74.21875 37.203125 74.21875 
Q 40.921875 74.21875 44.703125 73.484375 
Q 48.484375 72.75 52.59375 71.296875 
" id="BitstreamVeraSans-Roman-36"/>
    </defs>
    <g transform="translate(210.09033333333332 809.618181818182)scale(0.08 -0.08)">
     <use xlink:href="#BitstreamVeraSans-Roman-31"/>
     <use x="63.623046875" xlink:href="#BitstreamVeraSans-Roman-31"/>
     <use x="127.24609375" xlink:href="#BitstreamVeraSans-Roman-36"/>
     <use x="190.869140625" xlink:href="#BitstreamVeraSans-Roman-33"/>
     <use x="254.4921875" xlink:href="#BitstreamVeraSans-Roman-2e"/>
     <use x="286.279296875" xlink:href="#BitstreamVeraSans-Roman-30"/>
     <use x="349.90234375" xlink:href="#BitstreamVeraSans-Roman-30"/>
     <use x="413.525390625" xlink:href="#BitstreamVeraSans-Roman-32"/>
    </g>
   </g>
  </g>
  <g id="axes_6">
   <g id="patch_27">
    <path d="M 36.085 1056.524 
L 199.215 1056.524 
L 199.215 906.48 
L 36.085 906.48 
z
" style="fill:#ffffff;"/>
   </g>
   <g id="line2d_76">
    <path clip-path="url(#pb434621607)" d="M 41.522667 1056.516602 
L 46.960333 1056.494216 
L 52.398 1056.456229 
L 57.835667 1056.401464 
L 63.273333 1056.327976 
L 68.711 1056.23278 
L 74.148667 1056.11156 
L 79.586333 1055.958405 
L 85.024 1055.765638 
L 90.461667 1055.523815 
L 95.899333 1055.222022 
L 101.337 1054.848514 
L 106.774667 1054.391929 
L 112.212333 1053.842968 
L 117.65 1053.196672 
L 123.087667 1052.455222 
L 128.525333 1051.630812 
L 133.963 1050.748491 
L 139.400667 1049.848032 
L 144.838333 1048.984291 
L 150.276 1048.225096 
L 155.713667 1047.645876 
L 161.151333 1047.320685 
L 166.589 1047.309468 
L 172.026667 1047.642791 
L 177.464333 1048.305801 
L 182.902 1049.224902 
L 188.339667 1050.260817 
L 193.777333 1051.21279 
L 199.215 1051.837212 
" style="fill:none;stroke:#0000ff;stroke-linecap:square;stroke-width:1.5;"/>
   </g>
   <g id="patch_28">
    <path d="M 36.085 906.48 
L 199.215 906.48 
" style="fill:none;stroke:#000000;stroke-linecap:square;stroke-linejoin:miter;stroke-width:1.5;"/>
   </g>
   <g id="patch_29">
    <path d="M 199.215 1056.524 
L 199.215 906.48 
" style="fill:none;stroke:#000000;stroke-linecap:square;stroke-linejoin:miter;stroke-width:1.5;"/>
   </g>
   <g id="patch_30">
    <path d="M 36.085 1056.524 
L 199.215 1056.524 
" style="fill:none;stroke:#000000;stroke-linecap:square;stroke-linejoin:miter;stroke-width:1.5;"/>
   </g>
   <g id="patch_31">
    <path d="M 36.085 1056.524 
L 36.085 906.48 
" style="fill:none;stroke:#000000;stroke-linecap:square;stroke-linejoin:miter;stroke-width:1.5;"/>
   </g>
   <g id="matplotlib.axis_11">
    <g id="xtick_21">
     <g id="line2d_77">
      <g>
       <use style="stroke:#000000;stroke-width:1.5;" x="36.084999999999994" xlink:href="#me2722456f4" y="1056.524"/>
      </g>
     </g>
     <g id="line2d_78">
      <g>
       <use style="stroke:#000000;stroke-width:1.5;" x="36.084999999999994" xlink:href="#md35b32db02" y="906.48"/>
      </g>
     </g>
     <g id="text_41">
      <!-- 0 -->
      <g transform="translate(32.26749999999999 1069.6421249999999)scale(0.12 -0.12)">
       <use xlink:href="#BitstreamVeraSans-Roman-30"/>
      </g>
     </g>
    </g>
    <g id="xtick_22">
     <g id="line2d_79">
      <g>
       <use style="stroke:#000000;stroke-width:1.5;" x="90.46166666666666" xlink:href="#me2722456f4" y="1056.524"/>
      </g>
     </g>
     <g id="line2d_80">
      <g>
       <use style="stroke:#000000;stroke-width:1.5;" x="90.46166666666666" xlink:href="#md35b32db02" y="906.48"/>
      </g>
     </g>
     <g id="text_42">
      <!-- 1 -->
      <g transform="translate(86.64416666666666 1069.6421249999999)scale(0.12 -0.12)">
       <use xlink:href="#BitstreamVeraSans-Roman-31"/>
      </g>
     </g>
    </g>
    <g id="xtick_23">
     <g id="line2d_81">
      <g>
       <use style="stroke:#000000;stroke-width:1.5;" x="144.8383333333333" xlink:href="#me2722456f4" y="1056.524"/>
      </g>
     </g>
     <g id="line2d_82">
      <g>
       <use style="stroke:#000000;stroke-width:1.5;" x="144.8383333333333" xlink:href="#md35b32db02" y="906.48"/>
      </g>
     </g>
     <g id="text_43">
      <!-- 2 -->
      <g transform="translate(141.02083333333331 1069.6421249999999)scale(0.12 -0.12)">
       <use xlink:href="#BitstreamVeraSans-Roman-32"/>
      </g>
     </g>
    </g>
    <g id="xtick_24">
     <g id="line2d_83">
      <g>
       <use style="stroke:#000000;stroke-width:1.5;" x="199.21499999999997" xlink:href="#me2722456f4" y="1056.524"/>
      </g>
     </g>
     <g id="line2d_84">
      <g>
       <use style="stroke:#000000;stroke-width:1.5;" x="199.21499999999997" xlink:href="#md35b32db02" y="906.48"/>
      </g>
     </g>
     <g id="text_44">
      <!-- 3 -->
      <g transform="translate(195.39749999999998 1069.6421249999999)scale(0.12 -0.12)">
       <use xlink:href="#BitstreamVeraSans-Roman-33"/>
      </g>
     </g>
    </g>
   </g>
   <g id="matplotlib.axis_12">
    <g id="ytick_16">
     <g id="line2d_85">
      <g>
       <use style="stroke:#000000;stroke-width:1.5;" x="36.084999999999994" xlink:href="#m79f8dd81b1" y="1056.524"/>
      </g>
     </g>
     <g id="line2d_86">
      <g>
       <use style="stroke:#000000;stroke-width:1.5;" x="199.21499999999997" xlink:href="#m4ea65a9a7c" y="1056.524"/>
      </g>
     </g>
     <g id="text_45">
      <!-- 0.0 -->
      <g transform="translate(13.001249999999995 1059.83525)scale(0.12 -0.12)">
       <use xlink:href="#BitstreamVeraSans-Roman-30"/>
       <use x="63.623046875" xlink:href="#BitstreamVeraSans-Roman-2e"/>
       <use x="95.41015625" xlink:href="#BitstreamVeraSans-Roman-30"/>
      </g>
     </g>
    </g>
    <g id="ytick_17">
     <g id="line2d_87">
      <g>
       <use style="stroke:#000000;stroke-width:1.5;" x="36.084999999999994" xlink:href="#m79f8dd81b1" y="988.3221818181818"/>
      </g>
     </g>
     <g id="line2d_88">
      <g>
       <use style="stroke:#000000;stroke-width:1.5;" x="199.21499999999997" xlink:href="#m4ea65a9a7c" y="988.3221818181818"/>
      </g>
     </g>
     <g id="text_46">
      <!-- 0.5 -->
      <g transform="translate(13.001249999999995 991.6334318181819)scale(0.12 -0.12)">
       <use xlink:href="#BitstreamVeraSans-Roman-30"/>
       <use x="63.623046875" xlink:href="#BitstreamVeraSans-Roman-2e"/>
       <use x="95.41015625" xlink:href="#BitstreamVeraSans-Roman-35"/>
      </g>
     </g>
    </g>
    <g id="ytick_18">
     <g id="line2d_89">
      <g>
       <use style="stroke:#000000;stroke-width:1.5;" x="36.084999999999994" xlink:href="#m79f8dd81b1" y="920.1203636363637"/>
      </g>
     </g>
     <g id="line2d_90">
      <g>
       <use style="stroke:#000000;stroke-width:1.5;" x="199.21499999999997" xlink:href="#m4ea65a9a7c" y="920.1203636363637"/>
      </g>
     </g>
     <g id="text_47">
      <!-- 1.0 -->
      <g transform="translate(13.001249999999995 923.4316136363637)scale(0.12 -0.12)">
       <use xlink:href="#BitstreamVeraSans-Roman-31"/>
       <use x="63.623046875" xlink:href="#BitstreamVeraSans-Roman-2e"/>
       <use x="95.41015625" xlink:href="#BitstreamVeraSans-Roman-30"/>
      </g>
     </g>
    </g>
   </g>
   <g id="text_48">
    <!-- 1166.405 -->
    <g transform="translate(210.09033333333332 988.3221818181819)scale(0.08 -0.08)">
     <use xlink:href="#BitstreamVeraSans-Roman-31"/>
     <use x="63.623046875" xlink:href="#BitstreamVeraSans-Roman-31"/>
     <use x="127.24609375" xlink:href="#BitstreamVeraSans-Roman-36"/>
     <use x="190.869140625" xlink:href="#BitstreamVeraSans-Roman-36"/>
     <use x="254.4921875" xlink:href="#BitstreamVeraSans-Roman-2e"/>
     <use x="286.279296875" xlink:href="#BitstreamVeraSans-Roman-34"/>
     <use x="349.90234375" xlink:href="#BitstreamVeraSans-Roman-30"/>
     <use x="413.525390625" xlink:href="#BitstreamVeraSans-Roman-35"/>
    </g>
   </g>
  </g>
  <g id="axes_7">
   <g id="patch_32">
    <path d="M 36.085 1235.228 
L 199.215 1235.228 
L 199.215 1085.184 
L 36.085 1085.184 
z
" style="fill:#ffffff;"/>
   </g>
   <g id="line2d_91">
    <path clip-path="url(#pc7bca2694d)" d="M 41.522667 1235.227548 
L 46.960333 1235.226194 
L 52.398 1235.223939 
L 57.835667 1235.220786 
L 63.273333 1235.216739 
L 68.711 1235.211805 
L 74.148667 1235.205991 
L 79.586333 1235.199307 
L 85.024 1235.191763 
L 90.461667 1235.183373 
L 95.899333 1235.174149 
L 101.337 1235.164109 
L 106.774667 1235.153267 
L 112.212333 1235.141638 
L 117.65 1235.129234 
L 123.087667 1235.116063 
L 128.525333 1235.102124 
L 133.963 1235.087412 
L 139.400667 1235.071903 
L 144.838333 1235.055563 
L 150.276 1235.03833 
L 155.713667 1235.020118 
L 161.151333 1235.000828 
L 166.589 1234.980309 
L 172.026667 1234.958384 
L 177.464333 1234.934855 
L 182.902 1234.90948 
L 188.339667 1234.881993 
L 193.777333 1234.852133 
L 199.215 1234.819621 
" style="fill:none;stroke:#0000ff;stroke-linecap:square;stroke-width:1.5;"/>
   </g>
   <g id="patch_33">
    <path d="M 36.085 1085.184 
L 199.215 1085.184 
" style="fill:none;stroke:#000000;stroke-linecap:square;stroke-linejoin:miter;stroke-width:1.5;"/>
   </g>
   <g id="patch_34">
    <path d="M 199.215 1235.228 
L 199.215 1085.184 
" style="fill:none;stroke:#000000;stroke-linecap:square;stroke-linejoin:miter;stroke-width:1.5;"/>
   </g>
   <g id="patch_35">
    <path d="M 36.085 1235.228 
L 199.215 1235.228 
" style="fill:none;stroke:#000000;stroke-linecap:square;stroke-linejoin:miter;stroke-width:1.5;"/>
   </g>
   <g id="patch_36">
    <path d="M 36.085 1235.228 
L 36.085 1085.184 
" style="fill:none;stroke:#000000;stroke-linecap:square;stroke-linejoin:miter;stroke-width:1.5;"/>
   </g>
   <g id="matplotlib.axis_13">
    <g id="xtick_25">
     <g id="line2d_92">
      <g>
       <use style="stroke:#000000;stroke-width:1.5;" x="36.084999999999994" xlink:href="#me2722456f4" y="1235.228"/>
      </g>
     </g>
     <g id="line2d_93">
      <g>
       <use style="stroke:#000000;stroke-width:1.5;" x="36.084999999999994" xlink:href="#md35b32db02" y="1085.1840000000002"/>
      </g>
     </g>
     <g id="text_49">
      <!-- 0 -->
      <g transform="translate(32.26749999999999 1248.346125)scale(0.12 -0.12)">
       <use xlink:href="#BitstreamVeraSans-Roman-30"/>
      </g>
     </g>
    </g>
    <g id="xtick_26">
     <g id="line2d_94">
      <g>
       <use style="stroke:#000000;stroke-width:1.5;" x="90.46166666666666" xlink:href="#me2722456f4" y="1235.228"/>
      </g>
     </g>
     <g id="line2d_95">
      <g>
       <use style="stroke:#000000;stroke-width:1.5;" x="90.46166666666666" xlink:href="#md35b32db02" y="1085.1840000000002"/>
      </g>
     </g>
     <g id="text_50">
      <!-- 1 -->
      <g transform="translate(86.64416666666666 1248.346125)scale(0.12 -0.12)">
       <use xlink:href="#BitstreamVeraSans-Roman-31"/>
      </g>
     </g>
    </g>
    <g id="xtick_27">
     <g id="line2d_96">
      <g>
       <use style="stroke:#000000;stroke-width:1.5;" x="144.8383333333333" xlink:href="#me2722456f4" y="1235.228"/>
      </g>
     </g>
     <g id="line2d_97">
      <g>
       <use style="stroke:#000000;stroke-width:1.5;" x="144.8383333333333" xlink:href="#md35b32db02" y="1085.1840000000002"/>
      </g>
     </g>
     <g id="text_51">
      <!-- 2 -->
      <g transform="translate(141.02083333333331 1248.346125)scale(0.12 -0.12)">
       <use xlink:href="#BitstreamVeraSans-Roman-32"/>
      </g>
     </g>
    </g>
    <g id="xtick_28">
     <g id="line2d_98">
      <g>
       <use style="stroke:#000000;stroke-width:1.5;" x="199.21499999999997" xlink:href="#me2722456f4" y="1235.228"/>
      </g>
     </g>
     <g id="line2d_99">
      <g>
       <use style="stroke:#000000;stroke-width:1.5;" x="199.21499999999997" xlink:href="#md35b32db02" y="1085.1840000000002"/>
      </g>
     </g>
     <g id="text_52">
      <!-- 3 -->
      <g transform="translate(195.39749999999998 1248.346125)scale(0.12 -0.12)">
       <use xlink:href="#BitstreamVeraSans-Roman-33"/>
      </g>
     </g>
    </g>
   </g>
   <g id="matplotlib.axis_14">
    <g id="ytick_19">
     <g id="line2d_100">
      <g>
       <use style="stroke:#000000;stroke-width:1.5;" x="36.084999999999994" xlink:href="#m79f8dd81b1" y="1235.228"/>
      </g>
     </g>
     <g id="line2d_101">
      <g>
       <use style="stroke:#000000;stroke-width:1.5;" x="199.21499999999997" xlink:href="#m4ea65a9a7c" y="1235.228"/>
      </g>
     </g>
     <g id="text_53">
      <!-- 0.0 -->
      <g transform="translate(13.001249999999995 1238.53925)scale(0.12 -0.12)">
       <use xlink:href="#BitstreamVeraSans-Roman-30"/>
       <use x="63.623046875" xlink:href="#BitstreamVeraSans-Roman-2e"/>
       <use x="95.41015625" xlink:href="#BitstreamVeraSans-Roman-30"/>
      </g>
     </g>
    </g>
    <g id="ytick_20">
     <g id="line2d_102">
      <g>
       <use style="stroke:#000000;stroke-width:1.5;" x="36.084999999999994" xlink:href="#m79f8dd81b1" y="1167.0261818181818"/>
      </g>
     </g>
     <g id="line2d_103">
      <g>
       <use style="stroke:#000000;stroke-width:1.5;" x="199.21499999999997" xlink:href="#m4ea65a9a7c" y="1167.0261818181818"/>
      </g>
     </g>
     <g id="text_54">
      <!-- 0.5 -->
      <g transform="translate(13.001249999999995 1170.3374318181818)scale(0.12 -0.12)">
       <use xlink:href="#BitstreamVeraSans-Roman-30"/>
       <use x="63.623046875" xlink:href="#BitstreamVeraSans-Roman-2e"/>
       <use x="95.41015625" xlink:href="#BitstreamVeraSans-Roman-35"/>
      </g>
     </g>
    </g>
    <g id="ytick_21">
     <g id="line2d_104">
      <g>
       <use style="stroke:#000000;stroke-width:1.5;" x="36.084999999999994" xlink:href="#m79f8dd81b1" y="1098.8243636363638"/>
      </g>
     </g>
     <g id="line2d_105">
      <g>
       <use style="stroke:#000000;stroke-width:1.5;" x="199.21499999999997" xlink:href="#m4ea65a9a7c" y="1098.8243636363638"/>
      </g>
     </g>
     <g id="text_55">
      <!-- 1.0 -->
      <g transform="translate(13.001249999999995 1102.1356136363638)scale(0.12 -0.12)">
       <use xlink:href="#BitstreamVeraSans-Roman-31"/>
       <use x="63.623046875" xlink:href="#BitstreamVeraSans-Roman-2e"/>
       <use x="95.41015625" xlink:href="#BitstreamVeraSans-Roman-30"/>
      </g>
     </g>
    </g>
   </g>
   <g id="text_56">
    <!-- 1170.004 -->
    <g transform="translate(210.09033333333332 1167.026181818182)scale(0.08 -0.08)">
     <use xlink:href="#BitstreamVeraSans-Roman-31"/>
     <use x="63.623046875" xlink:href="#BitstreamVeraSans-Roman-31"/>
     <use x="127.24609375" xlink:href="#BitstreamVeraSans-Roman-37"/>
     <use x="190.869140625" xlink:href="#BitstreamVeraSans-Roman-30"/>
     <use x="254.4921875" xlink:href="#BitstreamVeraSans-Roman-2e"/>
     <use x="286.279296875" xlink:href="#BitstreamVeraSans-Roman-30"/>
     <use x="349.90234375" xlink:href="#BitstreamVeraSans-Roman-30"/>
     <use x="413.525390625" xlink:href="#BitstreamVeraSans-Roman-34"/>
    </g>
   </g>
  </g>
  <g id="axes_8">
   <g id="patch_37">
    <path d="M 36.085 1413.932 
L 199.215 1413.932 
L 199.215 1263.888 
L 36.085 1263.888 
z
" style="fill:#ffffff;"/>
   </g>
   <g id="line2d_106">
    <path clip-path="url(#p8d2f369b5d)" d="M 41.522667 1413.931997 
L 46.960333 1413.931987 
L 52.398 1413.93197 
L 57.835667 1413.931947 
L 63.273333 1413.931918 
L 68.711 1413.931884 
L 74.148667 1413.931844 
L 79.586333 1413.931799 
L 85.024 1413.931751 
L 90.461667 1413.931699 
L 95.899333 1413.931645 
L 101.337 1413.93159 
L 106.774667 1413.931535 
L 112.212333 1413.93148 
L 117.65 1413.931428 
L 123.087667 1413.931379 
L 128.525333 1413.931336 
L 133.963 1413.931299 
L 139.400667 1413.93127 
L 144.838333 1413.931251 
L 150.276 1413.931242 
L 155.713667 1413.931245 
L 161.151333 1413.931261 
L 166.589 1413.931289 
L 172.026667 1413.931331 
L 177.464333 1413.931385 
L 182.902 1413.93145 
L 188.339667 1413.931524 
L 193.777333 1413.931605 
L 199.215 1413.931688 
" style="fill:none;stroke:#0000ff;stroke-linecap:square;stroke-width:1.5;"/>
   </g>
   <g id="patch_38">
    <path d="M 36.085 1263.888 
L 199.215 1263.888 
" style="fill:none;stroke:#000000;stroke-linecap:square;stroke-linejoin:miter;stroke-width:1.5;"/>
   </g>
   <g id="patch_39">
    <path d="M 199.215 1413.932 
L 199.215 1263.888 
" style="fill:none;stroke:#000000;stroke-linecap:square;stroke-linejoin:miter;stroke-width:1.5;"/>
   </g>
   <g id="patch_40">
    <path d="M 36.085 1413.932 
L 199.215 1413.932 
" style="fill:none;stroke:#000000;stroke-linecap:square;stroke-linejoin:miter;stroke-width:1.5;"/>
   </g>
   <g id="patch_41">
    <path d="M 36.085 1413.932 
L 36.085 1263.888 
" style="fill:none;stroke:#000000;stroke-linecap:square;stroke-linejoin:miter;stroke-width:1.5;"/>
   </g>
   <g id="matplotlib.axis_15">
    <g id="xtick_29">
     <g id="line2d_107">
      <g>
       <use style="stroke:#000000;stroke-width:1.5;" x="36.084999999999994" xlink:href="#me2722456f4" y="1413.9320000000002"/>
      </g>
     </g>
     <g id="line2d_108">
      <g>
       <use style="stroke:#000000;stroke-width:1.5;" x="36.084999999999994" xlink:href="#md35b32db02" y="1263.8880000000004"/>
      </g>
     </g>
     <g id="text_57">
      <!-- 0 -->
      <g transform="translate(32.26749999999999 1427.0501250000002)scale(0.12 -0.12)">
       <use xlink:href="#BitstreamVeraSans-Roman-30"/>
      </g>
     </g>
    </g>
    <g id="xtick_30">
     <g id="line2d_109">
      <g>
       <use style="stroke:#000000;stroke-width:1.5;" x="90.46166666666666" xlink:href="#me2722456f4" y="1413.9320000000002"/>
      </g>
     </g>
     <g id="line2d_110">
      <g>
       <use style="stroke:#000000;stroke-width:1.5;" x="90.46166666666666" xlink:href="#md35b32db02" y="1263.8880000000004"/>
      </g>
     </g>
     <g id="text_58">
      <!-- 1 -->
      <g transform="translate(86.64416666666666 1427.0501250000002)scale(0.12 -0.12)">
       <use xlink:href="#BitstreamVeraSans-Roman-31"/>
      </g>
     </g>
    </g>
    <g id="xtick_31">
     <g id="line2d_111">
      <g>
       <use style="stroke:#000000;stroke-width:1.5;" x="144.8383333333333" xlink:href="#me2722456f4" y="1413.9320000000002"/>
      </g>
     </g>
     <g id="line2d_112">
      <g>
       <use style="stroke:#000000;stroke-width:1.5;" x="144.8383333333333" xlink:href="#md35b32db02" y="1263.8880000000004"/>
      </g>
     </g>
     <g id="text_59">
      <!-- 2 -->
      <g transform="translate(141.02083333333331 1427.0501250000002)scale(0.12 -0.12)">
       <use xlink:href="#BitstreamVeraSans-Roman-32"/>
      </g>
     </g>
    </g>
    <g id="xtick_32">
     <g id="line2d_113">
      <g>
       <use style="stroke:#000000;stroke-width:1.5;" x="199.21499999999997" xlink:href="#me2722456f4" y="1413.9320000000002"/>
      </g>
     </g>
     <g id="line2d_114">
      <g>
       <use style="stroke:#000000;stroke-width:1.5;" x="199.21499999999997" xlink:href="#md35b32db02" y="1263.8880000000004"/>
      </g>
     </g>
     <g id="text_60">
      <!-- 3 -->
      <g transform="translate(195.39749999999998 1427.0501250000002)scale(0.12 -0.12)">
       <use xlink:href="#BitstreamVeraSans-Roman-33"/>
      </g>
     </g>
    </g>
   </g>
   <g id="matplotlib.axis_16">
    <g id="ytick_22">
     <g id="line2d_115">
      <g>
       <use style="stroke:#000000;stroke-width:1.5;" x="36.084999999999994" xlink:href="#m79f8dd81b1" y="1413.9320000000002"/>
      </g>
     </g>
     <g id="line2d_116">
      <g>
       <use style="stroke:#000000;stroke-width:1.5;" x="199.21499999999997" xlink:href="#m4ea65a9a7c" y="1413.9320000000002"/>
      </g>
     </g>
     <g id="text_61">
      <!-- 0.0 -->
      <g transform="translate(13.001249999999995 1417.2432500000002)scale(0.12 -0.12)">
       <use xlink:href="#BitstreamVeraSans-Roman-30"/>
       <use x="63.623046875" xlink:href="#BitstreamVeraSans-Roman-2e"/>
       <use x="95.41015625" xlink:href="#BitstreamVeraSans-Roman-30"/>
      </g>
     </g>
    </g>
    <g id="ytick_23">
     <g id="line2d_117">
      <g>
       <use style="stroke:#000000;stroke-width:1.5;" x="36.084999999999994" xlink:href="#m79f8dd81b1" y="1345.730181818182"/>
      </g>
     </g>
     <g id="line2d_118">
      <g>
       <use style="stroke:#000000;stroke-width:1.5;" x="199.21499999999997" xlink:href="#m4ea65a9a7c" y="1345.730181818182"/>
      </g>
     </g>
     <g id="text_62">
      <!-- 0.5 -->
      <g transform="translate(13.001249999999995 1349.041431818182)scale(0.12 -0.12)">
       <use xlink:href="#BitstreamVeraSans-Roman-30"/>
       <use x="63.623046875" xlink:href="#BitstreamVeraSans-Roman-2e"/>
       <use x="95.41015625" xlink:href="#BitstreamVeraSans-Roman-35"/>
      </g>
     </g>
    </g>
    <g id="ytick_24">
     <g id="line2d_119">
      <g>
       <use style="stroke:#000000;stroke-width:1.5;" x="36.084999999999994" xlink:href="#m79f8dd81b1" y="1277.528363636364"/>
      </g>
     </g>
     <g id="line2d_120">
      <g>
       <use style="stroke:#000000;stroke-width:1.5;" x="199.21499999999997" xlink:href="#m4ea65a9a7c" y="1277.528363636364"/>
      </g>
     </g>
     <g id="text_63">
      <!-- 1.0 -->
      <g transform="translate(13.001249999999995 1280.839613636364)scale(0.12 -0.12)">
       <use xlink:href="#BitstreamVeraSans-Roman-31"/>
       <use x="63.623046875" xlink:href="#BitstreamVeraSans-Roman-2e"/>
       <use x="95.41015625" xlink:href="#BitstreamVeraSans-Roman-30"/>
      </g>
     </g>
    </g>
   </g>
   <g id="text_64">
    <!-- 1174.404 -->
    <g transform="translate(210.09033333333332 1345.730181818182)scale(0.08 -0.08)">
     <use xlink:href="#BitstreamVeraSans-Roman-31"/>
     <use x="63.623046875" xlink:href="#BitstreamVeraSans-Roman-31"/>
     <use x="127.24609375" xlink:href="#BitstreamVeraSans-Roman-37"/>
     <use x="190.869140625" xlink:href="#BitstreamVeraSans-Roman-34"/>
     <use x="254.4921875" xlink:href="#BitstreamVeraSans-Roman-2e"/>
     <use x="286.279296875" xlink:href="#BitstreamVeraSans-Roman-34"/>
     <use x="349.90234375" xlink:href="#BitstreamVeraSans-Roman-30"/>
     <use x="413.525390625" xlink:href="#BitstreamVeraSans-Roman-34"/>
    </g>
   </g>
  </g>
  <g id="axes_9">
   <g id="patch_42">
    <path d="M 36.085 1592.636 
L 199.215 1592.636 
L 199.215 1442.592 
L 36.085 1442.592 
z
" style="fill:#ffffff;"/>
   </g>
   <g id="line2d_121">
    <path clip-path="url(#p3dfaf22550)" d="M 41.522667 1592.635925 
L 46.960333 1592.635701 
L 52.398 1592.635329 
L 57.835667 1592.634815 
L 63.273333 1592.634162 
L 68.711 1592.633378 
L 74.148667 1592.632471 
L 79.586333 1592.631452 
L 85.024 1592.630331 
L 90.461667 1592.629124 
L 95.899333 1592.627844 
L 101.337 1592.62651 
L 106.774667 1592.62514 
L 112.212333 1592.623754 
L 117.65 1592.622375 
L 123.087667 1592.621027 
L 128.525333 1592.619735 
L 133.963 1592.618523 
L 139.400667 1592.617419 
L 144.838333 1592.616448 
L 150.276 1592.615636 
L 155.713667 1592.615007 
L 161.151333 1592.614586 
L 166.589 1592.614388 
L 172.026667 1592.614429 
L 177.464333 1592.61472 
L 182.902 1592.61526 
L 188.339667 1592.616045 
L 193.777333 1592.617059 
L 199.215 1592.618275 
" style="fill:none;stroke:#0000ff;stroke-linecap:square;stroke-width:1.5;"/>
   </g>
   <g id="patch_43">
    <path d="M 36.085 1442.592 
L 199.215 1442.592 
" style="fill:none;stroke:#000000;stroke-linecap:square;stroke-linejoin:miter;stroke-width:1.5;"/>
   </g>
   <g id="patch_44">
    <path d="M 199.215 1592.636 
L 199.215 1442.592 
" style="fill:none;stroke:#000000;stroke-linecap:square;stroke-linejoin:miter;stroke-width:1.5;"/>
   </g>
   <g id="patch_45">
    <path d="M 36.085 1592.636 
L 199.215 1592.636 
" style="fill:none;stroke:#000000;stroke-linecap:square;stroke-linejoin:miter;stroke-width:1.5;"/>
   </g>
   <g id="patch_46">
    <path d="M 36.085 1592.636 
L 36.085 1442.592 
" style="fill:none;stroke:#000000;stroke-linecap:square;stroke-linejoin:miter;stroke-width:1.5;"/>
   </g>
   <g id="matplotlib.axis_17">
    <g id="xtick_33">
     <g id="line2d_122">
      <g>
       <use style="stroke:#000000;stroke-width:1.5;" x="36.084999999999994" xlink:href="#me2722456f4" y="1592.6360000000002"/>
      </g>
     </g>
     <g id="line2d_123">
      <g>
       <use style="stroke:#000000;stroke-width:1.5;" x="36.084999999999994" xlink:href="#md35b32db02" y="1442.5920000000003"/>
      </g>
     </g>
     <g id="text_65">
      <!-- 0 -->
      <g transform="translate(32.26749999999999 1605.7541250000002)scale(0.12 -0.12)">
       <use xlink:href="#BitstreamVeraSans-Roman-30"/>
      </g>
     </g>
    </g>
    <g id="xtick_34">
     <g id="line2d_124">
      <g>
       <use style="stroke:#000000;stroke-width:1.5;" x="90.46166666666666" xlink:href="#me2722456f4" y="1592.6360000000002"/>
      </g>
     </g>
     <g id="line2d_125">
      <g>
       <use style="stroke:#000000;stroke-width:1.5;" x="90.46166666666666" xlink:href="#md35b32db02" y="1442.5920000000003"/>
      </g>
     </g>
     <g id="text_66">
      <!-- 1 -->
      <g transform="translate(86.64416666666666 1605.7541250000002)scale(0.12 -0.12)">
       <use xlink:href="#BitstreamVeraSans-Roman-31"/>
      </g>
     </g>
    </g>
    <g id="xtick_35">
     <g id="line2d_126">
      <g>
       <use style="stroke:#000000;stroke-width:1.5;" x="144.8383333333333" xlink:href="#me2722456f4" y="1592.6360000000002"/>
      </g>
     </g>
     <g id="line2d_127">
      <g>
       <use style="stroke:#000000;stroke-width:1.5;" x="144.8383333333333" xlink:href="#md35b32db02" y="1442.5920000000003"/>
      </g>
     </g>
     <g id="text_67">
      <!-- 2 -->
      <g transform="translate(141.02083333333331 1605.7541250000002)scale(0.12 -0.12)">
       <use xlink:href="#BitstreamVeraSans-Roman-32"/>
      </g>
     </g>
    </g>
    <g id="xtick_36">
     <g id="line2d_128">
      <g>
       <use style="stroke:#000000;stroke-width:1.5;" x="199.21499999999997" xlink:href="#me2722456f4" y="1592.6360000000002"/>
      </g>
     </g>
     <g id="line2d_129">
      <g>
       <use style="stroke:#000000;stroke-width:1.5;" x="199.21499999999997" xlink:href="#md35b32db02" y="1442.5920000000003"/>
      </g>
     </g>
     <g id="text_68">
      <!-- 3 -->
      <g transform="translate(195.39749999999998 1605.7541250000002)scale(0.12 -0.12)">
       <use xlink:href="#BitstreamVeraSans-Roman-33"/>
      </g>
     </g>
    </g>
   </g>
   <g id="matplotlib.axis_18">
    <g id="ytick_25">
     <g id="line2d_130">
      <g>
       <use style="stroke:#000000;stroke-width:1.5;" x="36.084999999999994" xlink:href="#m79f8dd81b1" y="1592.6360000000002"/>
      </g>
     </g>
     <g id="line2d_131">
      <g>
       <use style="stroke:#000000;stroke-width:1.5;" x="199.21499999999997" xlink:href="#m4ea65a9a7c" y="1592.6360000000002"/>
      </g>
     </g>
     <g id="text_69">
      <!-- 0.0 -->
      <g transform="translate(13.001249999999995 1595.9472500000002)scale(0.12 -0.12)">
       <use xlink:href="#BitstreamVeraSans-Roman-30"/>
       <use x="63.623046875" xlink:href="#BitstreamVeraSans-Roman-2e"/>
       <use x="95.41015625" xlink:href="#BitstreamVeraSans-Roman-30"/>
      </g>
     </g>
    </g>
    <g id="ytick_26">
     <g id="line2d_132">
      <g>
       <use style="stroke:#000000;stroke-width:1.5;" x="36.084999999999994" xlink:href="#m79f8dd81b1" y="1524.434181818182"/>
      </g>
     </g>
     <g id="line2d_133">
      <g>
       <use style="stroke:#000000;stroke-width:1.5;" x="199.21499999999997" xlink:href="#m4ea65a9a7c" y="1524.434181818182"/>
      </g>
     </g>
     <g id="text_70">
      <!-- 0.5 -->
      <g transform="translate(13.001249999999995 1527.7454318181822)scale(0.12 -0.12)">
       <use xlink:href="#BitstreamVeraSans-Roman-30"/>
       <use x="63.623046875" xlink:href="#BitstreamVeraSans-Roman-2e"/>
       <use x="95.41015625" xlink:href="#BitstreamVeraSans-Roman-35"/>
      </g>
     </g>
    </g>
    <g id="ytick_27">
     <g id="line2d_134">
      <g>
       <use style="stroke:#000000;stroke-width:1.5;" x="36.084999999999994" xlink:href="#m79f8dd81b1" y="1456.232363636364"/>
      </g>
     </g>
     <g id="line2d_135">
      <g>
       <use style="stroke:#000000;stroke-width:1.5;" x="199.21499999999997" xlink:href="#m4ea65a9a7c" y="1456.232363636364"/>
      </g>
     </g>
     <g id="text_71">
      <!-- 1.0 -->
      <g transform="translate(13.001249999999995 1459.543613636364)scale(0.12 -0.12)">
       <use xlink:href="#BitstreamVeraSans-Roman-31"/>
       <use x="63.623046875" xlink:href="#BitstreamVeraSans-Roman-2e"/>
       <use x="95.41015625" xlink:href="#BitstreamVeraSans-Roman-30"/>
      </g>
     </g>
    </g>
   </g>
   <g id="text_72">
    <!-- 1177.997 -->
    <g transform="translate(210.09033333333332 1524.434181818182)scale(0.08 -0.08)">
     <use xlink:href="#BitstreamVeraSans-Roman-31"/>
     <use x="63.623046875" xlink:href="#BitstreamVeraSans-Roman-31"/>
     <use x="127.24609375" xlink:href="#BitstreamVeraSans-Roman-37"/>
     <use x="190.869140625" xlink:href="#BitstreamVeraSans-Roman-37"/>
     <use x="254.4921875" xlink:href="#BitstreamVeraSans-Roman-2e"/>
     <use x="286.279296875" xlink:href="#BitstreamVeraSans-Roman-39"/>
     <use x="349.90234375" xlink:href="#BitstreamVeraSans-Roman-39"/>
     <use x="413.525390625" xlink:href="#BitstreamVeraSans-Roman-37"/>
    </g>
   </g>
  </g>
  <g id="axes_10">
   <g id="patch_47">
    <path d="M 36.085 1771.34 
L 199.215 1771.34 
L 199.215 1621.296 
L 36.085 1621.296 
z
" style="fill:#ffffff;"/>
   </g>
   <g id="line2d_136">
    <path clip-path="url(#p2eb9fd1259)" d="M 41.522667 1771.339997 
L 46.960333 1771.339988 
L 52.398 1771.339972 
L 57.835667 1771.33995 
L 63.273333 1771.339919 
L 68.711 1771.33988 
L 74.148667 1771.339831 
L 79.586333 1771.33977 
L 85.024 1771.339696 
L 90.461667 1771.339607 
L 95.899333 1771.339499 
L 101.337 1771.339369 
L 106.774667 1771.339214 
L 112.212333 1771.33903 
L 117.65 1771.338812 
L 123.087667 1771.338554 
L 128.525333 1771.338251 
L 133.963 1771.337896 
L 139.400667 1771.337482 
L 144.838333 1771.337 
L 150.276 1771.336442 
L 155.713667 1771.335798 
L 161.151333 1771.335059 
L 166.589 1771.334213 
L 172.026667 1771.333252 
L 177.464333 1771.332162 
L 182.902 1771.330934 
L 188.339667 1771.329556 
L 193.777333 1771.328018 
L 199.215 1771.326311 
" style="fill:none;stroke:#0000ff;stroke-linecap:square;stroke-width:1.5;"/>
   </g>
   <g id="patch_48">
    <path d="M 36.085 1621.296 
L 199.215 1621.296 
" style="fill:none;stroke:#000000;stroke-linecap:square;stroke-linejoin:miter;stroke-width:1.5;"/>
   </g>
   <g id="patch_49">
    <path d="M 199.215 1771.34 
L 199.215 1621.296 
" style="fill:none;stroke:#000000;stroke-linecap:square;stroke-linejoin:miter;stroke-width:1.5;"/>
   </g>
   <g id="patch_50">
    <path d="M 36.085 1771.34 
L 199.215 1771.34 
" style="fill:none;stroke:#000000;stroke-linecap:square;stroke-linejoin:miter;stroke-width:1.5;"/>
   </g>
   <g id="patch_51">
    <path d="M 36.085 1771.34 
L 36.085 1621.296 
" style="fill:none;stroke:#000000;stroke-linecap:square;stroke-linejoin:miter;stroke-width:1.5;"/>
   </g>
   <g id="matplotlib.axis_19">
    <g id="xtick_37">
     <g id="line2d_137">
      <g>
       <use style="stroke:#000000;stroke-width:1.5;" x="36.084999999999994" xlink:href="#me2722456f4" y="1771.3400000000004"/>
      </g>
     </g>
     <g id="line2d_138">
      <g>
       <use style="stroke:#000000;stroke-width:1.5;" x="36.084999999999994" xlink:href="#md35b32db02" y="1621.2960000000005"/>
      </g>
     </g>
     <g id="text_73">
      <!-- 0 -->
      <g transform="translate(32.26749999999999 1784.4581250000003)scale(0.12 -0.12)">
       <use xlink:href="#BitstreamVeraSans-Roman-30"/>
      </g>
     </g>
    </g>
    <g id="xtick_38">
     <g id="line2d_139">
      <g>
       <use style="stroke:#000000;stroke-width:1.5;" x="90.46166666666666" xlink:href="#me2722456f4" y="1771.3400000000004"/>
      </g>
     </g>
     <g id="line2d_140">
      <g>
       <use style="stroke:#000000;stroke-width:1.5;" x="90.46166666666666" xlink:href="#md35b32db02" y="1621.2960000000005"/>
      </g>
     </g>
     <g id="text_74">
      <!-- 1 -->
      <g transform="translate(86.64416666666666 1784.4581250000003)scale(0.12 -0.12)">
       <use xlink:href="#BitstreamVeraSans-Roman-31"/>
      </g>
     </g>
    </g>
    <g id="xtick_39">
     <g id="line2d_141">
      <g>
       <use style="stroke:#000000;stroke-width:1.5;" x="144.8383333333333" xlink:href="#me2722456f4" y="1771.3400000000004"/>
      </g>
     </g>
     <g id="line2d_142">
      <g>
       <use style="stroke:#000000;stroke-width:1.5;" x="144.8383333333333" xlink:href="#md35b32db02" y="1621.2960000000005"/>
      </g>
     </g>
     <g id="text_75">
      <!-- 2 -->
      <g transform="translate(141.02083333333331 1784.4581250000003)scale(0.12 -0.12)">
       <use xlink:href="#BitstreamVeraSans-Roman-32"/>
      </g>
     </g>
    </g>
    <g id="xtick_40">
     <g id="line2d_143">
      <g>
       <use style="stroke:#000000;stroke-width:1.5;" x="199.21499999999997" xlink:href="#me2722456f4" y="1771.3400000000004"/>
      </g>
     </g>
     <g id="line2d_144">
      <g>
       <use style="stroke:#000000;stroke-width:1.5;" x="199.21499999999997" xlink:href="#md35b32db02" y="1621.2960000000005"/>
      </g>
     </g>
     <g id="text_76">
      <!-- 3 -->
      <g transform="translate(195.39749999999998 1784.4581250000003)scale(0.12 -0.12)">
       <use xlink:href="#BitstreamVeraSans-Roman-33"/>
      </g>
     </g>
    </g>
   </g>
   <g id="matplotlib.axis_20">
    <g id="ytick_28">
     <g id="line2d_145">
      <g>
       <use style="stroke:#000000;stroke-width:1.5;" x="36.084999999999994" xlink:href="#m79f8dd81b1" y="1771.3400000000004"/>
      </g>
     </g>
     <g id="line2d_146">
      <g>
       <use style="stroke:#000000;stroke-width:1.5;" x="199.21499999999997" xlink:href="#m4ea65a9a7c" y="1771.3400000000004"/>
      </g>
     </g>
     <g id="text_77">
      <!-- 0.0 -->
      <g transform="translate(13.001249999999995 1774.6512500000003)scale(0.12 -0.12)">
       <use xlink:href="#BitstreamVeraSans-Roman-30"/>
       <use x="63.623046875" xlink:href="#BitstreamVeraSans-Roman-2e"/>
       <use x="95.41015625" xlink:href="#BitstreamVeraSans-Roman-30"/>
      </g>
     </g>
    </g>
    <g id="ytick_29">
     <g id="line2d_147">
      <g>
       <use style="stroke:#000000;stroke-width:1.5;" x="36.084999999999994" xlink:href="#m79f8dd81b1" y="1703.1381818181821"/>
      </g>
     </g>
     <g id="line2d_148">
      <g>
       <use style="stroke:#000000;stroke-width:1.5;" x="199.21499999999997" xlink:href="#m4ea65a9a7c" y="1703.1381818181821"/>
      </g>
     </g>
     <g id="text_78">
      <!-- 0.5 -->
      <g transform="translate(13.001249999999995 1706.4494318181821)scale(0.12 -0.12)">
       <use xlink:href="#BitstreamVeraSans-Roman-30"/>
       <use x="63.623046875" xlink:href="#BitstreamVeraSans-Roman-2e"/>
       <use x="95.41015625" xlink:href="#BitstreamVeraSans-Roman-35"/>
      </g>
     </g>
    </g>
    <g id="ytick_30">
     <g id="line2d_149">
      <g>
       <use style="stroke:#000000;stroke-width:1.5;" x="36.084999999999994" xlink:href="#m79f8dd81b1" y="1634.9363636363641"/>
      </g>
     </g>
     <g id="line2d_150">
      <g>
       <use style="stroke:#000000;stroke-width:1.5;" x="199.21499999999997" xlink:href="#m4ea65a9a7c" y="1634.9363636363641"/>
      </g>
     </g>
     <g id="text_79">
      <!-- 1.0 -->
      <g transform="translate(13.001249999999995 1638.247613636364)scale(0.12 -0.12)">
       <use xlink:href="#BitstreamVeraSans-Roman-31"/>
       <use x="63.623046875" xlink:href="#BitstreamVeraSans-Roman-2e"/>
       <use x="95.41015625" xlink:href="#BitstreamVeraSans-Roman-30"/>
      </g>
     </g>
    </g>
   </g>
   <g id="text_80">
    <!-- 1181.004 -->
    <g transform="translate(210.09033333333332 1703.1381818181821)scale(0.08 -0.08)">
     <use xlink:href="#BitstreamVeraSans-Roman-31"/>
     <use x="63.623046875" xlink:href="#BitstreamVeraSans-Roman-31"/>
     <use x="127.24609375" xlink:href="#BitstreamVeraSans-Roman-38"/>
     <use x="190.869140625" xlink:href="#BitstreamVeraSans-Roman-31"/>
     <use x="254.4921875" xlink:href="#BitstreamVeraSans-Roman-2e"/>
     <use x="286.279296875" xlink:href="#BitstreamVeraSans-Roman-30"/>
     <use x="349.90234375" xlink:href="#BitstreamVeraSans-Roman-30"/>
     <use x="413.525390625" xlink:href="#BitstreamVeraSans-Roman-34"/>
    </g>
   </g>
  </g>
 </g>
 <defs>
  <clipPath id="p1852f7c53d">
   <rect height="150.04399999999987" width="163.13" x="36.084999999999994" y="549.0720000000003"/>
  </clipPath>
  <clipPath id="p8d2f369b5d">
   <rect height="150.04399999999993" width="163.13" x="36.084999999999994" y="1263.8880000000004"/>
  </clipPath>
  <clipPath id="pe24ed955a9">
   <rect height="150.04399999999987" width="163.13" x="36.084999999999994" y="191.66400000000021"/>
  </clipPath>
  <clipPath id="p76b1f3bb4d">
   <rect height="150.04399999999987" width="163.13" x="36.084999999999994" y="12.960000000000264"/>
  </clipPath>
  <clipPath id="pb434621607">
   <rect height="150.04399999999987" width="163.13" x="36.084999999999994" y="906.4800000000001"/>
  </clipPath>
  <clipPath id="p8f7688a422">
   <rect height="150.04399999999964" width="163.13" x="36.084999999999994" y="370.3680000000004"/>
  </clipPath>
  <clipPath id="pc7bca2694d">
   <rect height="150.04399999999987" width="163.13" x="36.084999999999994" y="1085.1840000000002"/>
  </clipPath>
  <clipPath id="p4ef95ab05a">
   <rect height="150.04399999999987" width="163.13" x="36.084999999999994" y="727.7760000000003"/>
  </clipPath>
  <clipPath id="p2eb9fd1259">
   <rect height="150.04399999999995" width="163.13" x="36.084999999999994" y="1621.2960000000003"/>
  </clipPath>
  <clipPath id="p3dfaf22550">
   <rect height="150.04399999999995" width="163.13" x="36.084999999999994" y="1442.5920000000003"/>
  </clipPath>
 </defs>
</svg>
