1.000000000000000056e-01 -3.084411838662466307e-03 -1.931146165297307213e-03 -9.999933777151714942e-01
2.000000000000000111e-01 -6.169447782058437753e-03 -3.858854869518422211e-03 -9.999735200177883865e-01
2.999999999999999889e-01 -9.255661858722914054e-03 -5.780321417551478359e-03 -9.999404513108219872e-01
4.000000000000000222e-01 -1.234345264863463167e-02 -7.691888240343705899e-03 -9.998942185816419581e-01
5.000000000000000000e-01 -1.543300843219239799e-02 -9.590652757769388762e-03 -9.998348871150003481e-01
5.999999999999999778e-01 -1.852424384070631286e-02 -1.147410336131211329e-02 -9.997625415657194203e-01
6.999999999999999556e-01 -2.161673989690801947e-02 -1.333933369951744927e-02 -9.996772979263039982e-01
7.999999999999999334e-01 -2.470972770256359488e-02 -1.518480718230494700e-02 -9.995792855420082557e-01
8.999999999999999112e-01 -2.780209057240627321e-02 -1.700793826314230331e-02 -9.994686805935879548e-01
9.999999999999998890e-01 -3.089220062903457256e-02 -1.880857953060278628e-02 -9.993456600752913532e-01
1.099999999999999867e+00 -3.397830696291721103e-02 -2.058662399737652693e-02 -9.992104236299675923e-01
1.199999999999999956e+00 -3.705833094683062129e-02 -2.234152972469052520e-02 -9.990632132732305548e-01
1.300000000000000044e+00 -4.012978114373213362e-02 -2.407585105478315599e-02 -9.989042404578143408e-01
1.399999999999999911e+00 -4.319059060949169415e-02 -2.579133822512550203e-02 -9.987337301008609725e-01
1.500000000000000000e+00 -4.623860975910632637e-02 -2.749222655613344987e-02 -9.985518541593763064e-01
1.599999999999999867e+00 -4.927224877124657121e-02 -2.918348299092512685e-02 -9.983587314794011291e-01
1.699999999999999956e+00 -5.229064558889011394e-02 -3.087220798715293105e-02 -9.981543611927661264e-01
1.800000000000000044e+00 -5.529410604541947633e-02 -3.256507692868004095e-02 -9.979386528048906913e-01
1.899999999999999911e+00 -5.828465439247587643e-02 -3.427199805248368203e-02 -9.977112542154997765e-01
2.000000000000000000e+00 -6.126546266615073150e-02 -3.600241176650481600e-02 -9.974716659290914222e-01
2.099999999999999645e+00 -6.424345016772020633e-02 -3.776704191630231994e-02 -9.972189924026592101e-01
2.199999999999999734e+00 -6.722795368677834948e-02 -3.957787051907846881e-02 -9.969519621174078861e-01
2.299999999999999822e+00 -7.022969696679376428e-02 -4.144410886511425834e-02 -9.966691145720710798e-01
2.399999999999999911e+00 -7.326565396090357896e-02 -4.337629156859325319e-02 -9.963682626794836406e-01
2.500000000000000000e+00 -7.635630516459092354e-02 -4.538167170887776047e-02 -9.960467931856784585e-01
2.600000000000000089e+00 -7.952354163579548885e-02 -4.746400139111910804e-02 -9.957018075581149930e-01
2.699999999999999734e+00 -8.279374661347072006e-02 -4.962595295600623346e-02 -9.953297397136313673e-01
2.799999999999999822e+00 -8.619759565026181847e-02 -5.186077519514604300e-02 -9.949267196192763674e-01
2.899999999999999911e+00 -8.976431783464151881e-02 -5.415573897084310223e-02 -9.944889014847958508e-01
3.000000000000000000e+00 -9.352610853265889979e-02 -5.649047545431515327e-02 -9.940121983709289122e-01
