1.000000000000000056e-01 -1.209206341553807369e-03 6.915247600895134937e-05 -9.999992665187378282e-01
2.000000000000000111e-01 -2.418491156869005676e-03 1.399263160313081260e-04 -9.999970656563532678e-01
2.999999999999999889e-01 -3.627881495268786820e-03 2.149570442701605579e-04 -9.999933961131073357e-01
4.000000000000000222e-01 -4.837408838853262533e-03 2.955771032052566163e-04 -9.999882559863817466e-01
5.000000000000000000e-01 -6.047033284528148707e-03 3.833045788357516840e-04 -9.999816430653233335e-01
5.999999999999999778e-01 -7.256640249104625781e-03 4.808407087202184820e-04 -9.999735546330443814e-01
6.999999999999999556e-01 -8.465955670792987831e-03 5.898971495666403570e-04 -9.999639891605073272e-01
7.999999999999999334e-01 -9.674704037435847073e-03 7.122466052073114957e-04 -9.999529452970349341e-01
8.999999999999999112e-01 -1.088230307025436425e-02 8.498389990772031331e-04 -9.999404248553276364e-01
9.999999999999998890e-01 -1.208831488555290462e-02 1.004318294125910180e-03 -9.999264292907494855e-01
1.099999999999999867e+00 -1.329174910831307233e-02 1.178036388376629828e-03 -9.999109668596234402e-01
1.199999999999999956e+00 -1.449177144971223498e-02 1.372134642155206511e-03 -9.998940472952677627e-01
1.300000000000000044e+00 -1.568713008746942111e-02 1.588705290041010458e-03 -9.998756872588274724e-01
1.399999999999999911e+00 -1.687633784246266727e-02 1.829457354721410710e-03 -9.998559107761620934e-01
1.500000000000000000e+00 -1.805773558520230165e-02 2.096017750089208126e-03 -9.998347488001391170e-01
1.599999999999999867e+00 -1.922949595128871716e-02 2.389889357292146899e-03 -9.998122398365021368e-01
1.699999999999999956e+00 -2.038931546411452619e-02 2.711947565194224898e-03 -9.997884382105304280e-01
1.800000000000000044e+00 -2.153497201898198904e-02 3.063984574927402626e-03 -9.997634005054955031e-01
1.899999999999999911e+00 -2.266352542403541476e-02 3.446336834449667715e-03 -9.997372091648834003e-01
2.000000000000000000e+00 -2.377194780023232992e-02 3.860387658409028533e-03 -9.997099538999942858e-01
2.099999999999999645e+00 -2.485714213179819956e-02 4.305883031586618670e-03 -9.996817402902125060e-01
2.199999999999999734e+00 -2.591534227369293036e-02 4.783170502557721783e-03 -9.996526978637935157e-01
2.299999999999999822e+00 -2.694288884165061543e-02 5.291647778182727475e-03 -9.996229685484278038e-01
2.399999999999999911e+00 -2.793615060787814353e-02 5.830881229165950537e-03 -9.995927032251833433e-01
2.500000000000000000e+00 -2.889042498823745156e-02 6.400410578540250035e-03 -9.995620931547601895e-01
2.600000000000000089e+00 -2.980114346506699749e-02 6.997234109590562932e-03 -9.995313554706316550e-01
2.699999999999999734e+00 -3.066385872148456870e-02 7.620234473081369253e-03 -9.995007052436502004e-01
2.799999999999999822e+00 -3.147454861687191963e-02 8.265257908140971957e-03 -9.994703788668725108e-01
2.899999999999999911e+00 -3.222725083200928681e-02 8.929633869682592623e-03 -9.994406765362509049e-01
3.000000000000000000e+00 -3.291960331206669060e-02 9.608210044856657292e-03 -9.994118179884853292e-01
