1.000000000000000056e-01 1.154522506311433383e-01 -2.909191963324208596e-01 -9.497057258018775094e-01
2.000000000000000111e-01 1.974655070288340863e-01 -5.539731649198118557e-01 -8.071135106979446805e-01
2.999999999999999889e-01 2.222765072293735322e-01 -7.651755537116398109e-01 -5.943855176284870145e-01
4.000000000000000222e-01 1.817461927658595711e-01 -9.070529717540223302e-01 -3.409062369177126572e-01
5.000000000000000000e-01 8.409500304922035152e-02 -9.697792708365833292e-01 -7.603112204951438524e-02
5.999999999999999778e-01 -4.947558489822134753e-02 -9.516124159501710977e-01 1.761137891821341339e-01
6.999999999999999556e-01 -1.905039486320384001e-01 -8.593879236841789337e-01 3.988542118243173507e-01
7.999999999999999334e-01 -3.099430987893616041e-01 -7.089180676629937006e-01 5.830616167734672395e-01
8.999999999999999112e-01 -3.849110184646079569e-01 -5.241346324613386232e-01 7.260525249610541021e-01
9.999999999999998890e-01 -4.042075840481681448e-01 -3.336791930230926795e-01 8.301475356892948909e-01
1.099999999999999867e+00 -3.707937398051333600e-01 -1.649919987844564451e-01 9.010093687445193122e-01
1.199999999999999956e+00 -2.997777000509608825e-01 -3.776652838409175206e-02 9.459733354876744826e-01
1.300000000000000044e+00 -2.125383413830494173e-01 4.031265207690951091e-02 9.724828465626980112e-01
1.399999999999999911e+00 -1.293921312447622041e-01 7.361536941003521406e-02 9.869661770507025533e-01
1.500000000000000000e+00 -6.401124589570623968e-02 7.465143510737515253e-02 9.942790222793379540e-01
1.599999999999999867e+00 -2.138687201494757217e-02 5.841916234178202300e-02 9.976826388417564528e-01
1.699999999999999956e+00 7.023556936589167576e-04 3.754988279250160571e-02 9.991381231525447992e-01
1.800000000000000044e+00 8.366701002711413385e-03 1.984025060506972721e-02 9.997072287360346809e-01
1.899999999999999911e+00 8.265641248057576870e-03 8.195775535332013723e-03 9.999097032991418610e-01
2.000000000000000000e+00 5.458595340554339183e-03 2.188586640270571114e-03 9.999747644372337652e-01
2.099999999999999645e+00 2.734944329532113406e-03 -7.147463050018111781e-05 9.999935917890359072e-01
2.199999999999999734e+00 1.034290258977104728e-03 -4.881043388287435465e-04 9.999984928254652683e-01
2.299999999999999822e+00 2.651565164412638927e-04 -3.156258582178452475e-04 9.999996545463450959e-01
2.399999999999999911e+00 3.425073577756960108e-05 -1.162232111713195411e-04 9.999999167563272673e-01
2.500000000000000000e+00 -3.153254442718856178e-06 -1.878199481837911455e-05 9.999999787081365055e-01
2.600000000000000089e+00 -9.020229917485225626e-07 1.777217901694461281e-06 9.999999943894700705e-01
2.699999999999999734e+00 3.065519202827475493e-06 -3.742506959774052270e-07 9.999999985751507614e-01
2.799999999999999822e+00 6.367647886949853947e-07 -7.614990605902434886e-07 9.999999996587792817e-01
2.899999999999999911e+00 -6.256953306421509220e-07 8.734586600942823346e-07 9.999999999238082804e-01
3.000000000000000000e+00 -9.064466217161020274e-07 -6.096896663199118056e-07 9.999999999867394962e-01
