1.000000000000000056e-01 9.756267292815915537e-01 1.215492234203239749e-02 1.221834837637744871e-02 0.000000000000000000e+00 -6.186790825339988364e-02 8.961600891548787695e-02 1.091682708643943872e-01 1.684012038830200696e-03 -6.768057834521868342e-03 -1.013442000476801573e-02 0.000000000000000000e+00 0.000000000000000000e+00 0.000000000000000000e+00 0.000000000000000000e+00 0.000000000000000000e+00 0.000000000000000000e+00
2.000000000000000111e-01 9.059754758231449712e-01 4.653703051784958272e-02 4.748749365900347547e-02 0.000000000000000000e+00 -1.243423740784005554e-01 1.634025164464348590e-01 2.070240918131186769e-01 1.278788789744156676e-02 -2.610699146252033406e-02 -3.909414201088122487e-02 0.000000000000000000e+00 0.000000000000000000e+00 0.000000000000000000e+00 0.000000000000000000e+00 0.000000000000000000e+00 0.000000000000000000e+00
2.999999999999999889e-01 8.006512019897861210e-01 9.741961370485643923e-02 1.019291843053610203e-01 0.000000000000000000e+00 -1.857804249935239294e-01 2.085300086431403077e-01 2.829312301738410307e-01 3.949231483807424947e-02 -5.536462234990185971e-02 -8.285324589173405363e-02 0.000000000000000000e+00 0.000000000000000000e+00 0.000000000000000000e+00 0.000000000000000000e+00 0.000000000000000000e+00 0.000000000000000000e+00
4.000000000000000222e-01 6.732478046856437137e-01 1.568265904451602855e-01 1.699256048691973886e-01 0.000000000000000000e+00 -2.411827211211627076e-01 2.177476813826050017e-01 3.280293279144790297e-01 8.245483892077581922e-02 -9.084419660535397734e-02 -1.356325373396601031e-01 0.000000000000000000e+00 0.000000000000000000e+00 0.000000000000000000e+00 0.000000000000000000e+00 0.000000000000000000e+00 0.000000000000000000e+00
5.000000000000000000e-01 5.384863209648859117e-01 2.163687215671930564e-01 2.451449574679214760e-01 0.000000000000000000e+00 -2.828736013964001095e-01 1.910343489532853323e-01 3.368508240522101183e-01 1.361569997246580843e-01 -1.286486568679045817e-01 -1.910267628627714542e-01 0.000000000000000000e+00 0.000000000000000000e+00 0.000000000000000000e+00 0.000000000000000000e+00 0.000000000000000000e+00 0.000000000000000000e+00
5.999999999999999778e-01 4.095268672031813217e-01 2.689234815128268008e-01 3.215496512839852161e-01 0.000000000000000000e+00 -3.028262521973584254e-01 1.357484874545219489e-01 3.090054063129237250e-01 1.902600331102003439e-01 -1.654285538225629404e-01 -2.431165261272593969e-01 0.000000000000000000e+00 0.000000000000000000e+00 0.000000000000000000e+00 0.000000000000000000e+00 0.000000000000000000e+00 0.000000000000000000e+00
6.999999999999999556e-01 2.959912486259968500e-01 3.098324773050190606e-01 3.941762740689858102e-01 0.000000000000000000e+00 -2.957765820923692335e-01 6.499165557191699527e-02 2.501621332826455268e-01 2.325760834769761143e-01 -1.989133000216733449e-01 -2.873362325912994786e-01 0.000000000000000000e+00 0.000000000000000000e+00 0.000000000000000000e+00 0.000000000000000000e+00 0.000000000000000000e+00 0.000000000000000000e+00
7.999999999999999334e-01 2.031940371861313543e-01 3.372461535699908253e-01 4.595598092438801241e-01 0.000000000000000000e+00 -2.617147284776641936e-01 -5.639889591033684160e-03 1.715731909091001983e-01 2.528684502683798963e-01 -2.280056139792766001e-01 -3.209333544363388024e-01 0.000000000000000000e+00 0.000000000000000000e+00 0.000000000000000000e+00 0.000000000000000000e+00 0.000000000000000000e+00 0.000000000000000000e+00
8.999999999999999112e-01 1.324013667067457378e-01 3.518346366984373974e-01 5.157639965948176419e-01 0.000000000000000000e+00 -2.066909306414101144e-01 -6.214697041502088848e-02 8.784253623790988508e-02 2.461128743004076802e-01 -2.526516598905598210e-01 -3.429734349881989885e-01 0.000000000000000000e+00 0.000000000000000000e+00 0.000000000000000000e+00 0.000000000000000000e+00 0.000000000000000000e+00 0.000000000000000000e+00
9.999999999999998890e-01 8.182063649464828281e-02 3.559678059063625666e-01 5.622115575989914404e-01 0.000000000000000000e+00 -1.413610046517827235e-01 -9.561683328728810827e-02 1.349450456164676820e-02 2.140523437031471021e-01 -2.734591776922592476e-01 -3.540470205083116051e-01 0.000000000000000000e+00 0.000000000000000000e+00 0.000000000000000000e+00 0.000000000000000000e+00 0.000000000000000000e+00 0.000000000000000000e+00
1.099999999999999867e+00 4.790963986275163788e-02 3.528116543484593470e-01 5.992787057887896118e-01 0.000000000000000000e+00 -7.789461008789309859e-02 -1.040937510500302143e-01 -4.064519339182500607e-02 1.644967939286619274e-01 -2.913202200374641060e-01 -3.557598079932958179e-01 0.000000000000000000e+00 0.000000000000000000e+00 0.000000000000000000e+00 0.000000000000000000e+00 0.000000000000000000e+00 0.000000000000000000e+00
1.199999999999999956e+00 2.655323741469031024e-02 3.455173937264769402e-01 6.279293688588366562e-01 0.000000000000000000e+00 -2.642089998923687413e-02 -9.206813468140263856e-02 -6.983797324640128590e-02 1.086103820619767207e-01 -3.070952536492215224e-01 -3.502185376792857907e-01 0.000000000000000000e+00 0.000000000000000000e+00 0.000000000000000000e+00 0.000000000000000000e+00 0.000000000000000000e+00 0.000000000000000000e+00
1.300000000000000044e+00 1.391112528974016403e-02 3.366774332211913690e-01 6.494114414890608256e-01 0.000000000000000000e+00 7.541111691586025075e-03 -6.801980279514265038e-02 -7.580804755228794101e-02 5.733396739681023702e-02 -3.214349687960483815e-01 -3.395905446786278703e-01 0.000000000000000000e+00 0.000000000000000000e+00 0.000000000000000000e+00 0.000000000000000000e+00 0.000000000000000000e+00 0.000000000000000000e+00
1.399999999999999911e+00 6.881035342569068354e-03 3.281065706526072323e-01 6.650123940048212612e-01 0.000000000000000000e+00 2.379611568349637024e-02 -4.112733612011014450e-02 -6.511552742872471489e-02 1.832871651249114858e-02 -3.347327551576350646e-01 -3.258050316423143355e-01 0.000000000000000000e+00 0.000000000000000000e+00 0.000000000000000000e+00 0.000000000000000000e+00 0.000000000000000000e+00 0.000000000000000000e+00
1.500000000000000000e+00 3.208350983081858978e-03 3.208542126096165514e-01 6.759374364073064134e-01 0.000000000000000000e+00 2.628347254474224653e-02 -1.840086926546974366e-02 -4.624066773882182929e-02 -5.517713465308750342e-03 -3.471673183769850568e-01 -3.104065510992011223e-01 0.000000000000000000e+00 0.000000000000000000e+00 0.000000000000000000e+00 0.000000000000000000e+00 0.000000000000000000e+00 0.000000000000000000e+00
1.599999999999999867e+00 1.407967061634410235e-03 3.153455436874839646e-01 6.832464892508840482e-01 0.000000000000000000e+00 2.081295867424054480e-02 -3.288902145787783553e-03 -2.675090978006729181e-02 -1.569641200624960140e-02 -3.587737558051356523e-01 -2.945167699016645879e-01 0.000000000000000000e+00 0.000000000000000000e+00 0.000000000000000000e+00 0.000000000000000000e+00 0.000000000000000000e+00 0.000000000000000000e+00
1.699999999999999956e+00 5.801609618306465162e-04 3.115884092915147119e-01 6.878314297466567862e-01 0.000000000000000000e+00 1.278898199922224449e-02 4.148898317091668717e-03 -1.145377989643790728e-02 -1.636654638340166029e-02 -3.695273405605713490e-01 -2.788724540355027592e-01 0.000000000000000000e+00 0.000000000000000000e+00 0.000000000000000000e+00 0.000000000000000000e+00 0.000000000000000000e+00 0.000000000000000000e+00
1.800000000000000044e+00 2.237804761563498383e-04 3.093540006636915640e-01 6.904222188601506494e-01 0.000000000000000000e+00 5.809609485827804502e-03 5.956157086735355995e-03 -2.043843945931431323e-03 -1.226073732565146138e-02 -3.793933830319848877e-01 -2.639044077832522484e-01 0.000000000000000000e+00 0.000000000000000000e+00 0.000000000000000000e+00 0.000000000000000000e+00 0.000000000000000000e+00 0.000000000000000000e+00
1.899999999999999911e+00 8.079802680325573569e-05 3.083338461881702242e-01 6.915853557850256683e-01 0.000000000000000000e+00 1.355493512993803402e-03 4.803684774156772447e-03 2.184731002635580642e-03 -7.148821299699002242e-03 -3.883673525070673871e-01 -2.498198795267791150e-01 0.000000000000000000e+00 0.000000000000000000e+00 0.000000000000000000e+00 0.000000000000000000e+00 0.000000000000000000e+00 0.000000000000000000e+00
2.000000000000000000e+00 2.717707825482832825e-05 3.082002265688199016e-01 6.917725963529257616e-01 0.000000000000000000e+00 -6.714986435844206474e-04 2.815146056092526165e-03 3.025673672347059528e-03 -3.105737130071829950e-03 -3.964690413178947881e-01 -2.366786221634709086e-01 0.000000000000000000e+00 0.000000000000000000e+00 0.000000000000000000e+00 0.000000000000000000e+00 0.000000000000000000e+00 0.000000000000000000e+00
2.099999999999999645e+00 8.471686968458458150e-06 3.086832119034996769e-01 6.913083164095327193e-01 0.000000000000000000e+00 -1.107176324521292731e-03 1.178644421300864597e-03 2.305200825255502694e-03 -7.365729659450959447e-04 -4.037513040939277875e-01 -2.244552426370643727e-01 0.000000000000000000e+00 0.000000000000000000e+00 0.000000000000000000e+00 0.000000000000000000e+00 0.000000000000000000e+00 0.000000000000000000e+00
2.199999999999999734e+00 2.475430567905376653e-06 3.095619613706966922e-01 6.904355631987321162e-01 0.000000000000000000e+00 -8.394865453455450542e-04 2.480452876314712270e-04 1.283360535338731560e-03 2.490641333560535348e-04 -4.102846300077401254e-01 -2.130706678592887704e-01 0.000000000000000000e+00 0.000000000000000000e+00 0.000000000000000000e+00 0.000000000000000000e+00 0.000000000000000000e+00 0.000000000000000000e+00
2.299999999999999822e+00 6.488530822995101088e-07 3.106828666378546600e-01 6.893164845090675730e-01 0.000000000000000000e+00 -4.344196877020331396e-04 -1.133077317780462989e-04 5.080492007855987599e-04 4.348425233252312485e-04 -4.161430141361240342e-01 -2.024445928905725944e-01 0.000000000000000000e+00 0.000000000000000000e+00 0.000000000000000000e+00 0.000000000000000000e+00 0.000000000000000000e+00 0.000000000000000000e+00
2.399999999999999911e+00 1.647549851202407147e-07 3.119367353741557825e-01 6.880630998708642254e-01 0.000000000000000000e+00 -1.557800059924732575e-04 -1.646159196308065193e-04 1.088757372939089534e-04 3.185084635141359889e-04 -4.214083752330675114e-01 -1.924763319714861420e-01 0.000000000000000000e+00 0.000000000000000000e+00 0.000000000000000000e+00 0.000000000000000000e+00 0.000000000000000000e+00 0.000000000000000000e+00
2.500000000000000000e+00 3.663848688435255352e-08 3.132498344386127620e-01 6.867501289229083206e-01 0.000000000000000000e+00 -2.062186967876122447e-05 -1.049471738120607287e-04 -3.328469366285706190e-05 1.548246539838971135e-04 -4.261496821716974082e-01 -1.830868988911357464e-01 0.000000000000000000e+00 0.000000000000000000e+00 0.000000000000000000e+00 0.000000000000000000e+00 0.000000000000000000e+00 0.000000000000000000e+00
2.600000000000000089e+00 7.376160993020928488e-09 3.145801444229562316e-01 6.854198482008809767e-01 0.000000000000000000e+00 1.475094570008556457e-05 -4.544039933394177394e-05 -4.534683625031418324e-05 5.400641588660707823e-05 -4.304324929753514106e-01 -1.742048903150180683e-01 0.000000000000000000e+00 0.000000000000000000e+00 0.000000000000000000e+00 0.000000000000000000e+00 0.000000000000000000e+00 0.000000000000000000e+00
2.699999999999999734e+00 1.013407068079424028e-09 3.159020464290577257e-01 6.840979525575334730e-01 0.000000000000000000e+00 1.421497207110687128e-05 -8.917414292950929288e-06 -2.422261403341914530e-05 4.800790280608201155e-06 -4.343141305417284603e-01 -1.657684504306231599e-01 0.000000000000000000e+00 0.000000000000000000e+00 0.000000000000000000e+00 0.000000000000000000e+00 0.000000000000000000e+00 0.000000000000000000e+00
2.799999999999999822e+00 1.562459712297540784e-10 3.171995569428858186e-01 6.828004429008736054e-01 0.000000000000000000e+00 3.935577508146237062e-06 -1.503947324835048541e-07 -5.507198330036475837e-06 -1.749270290031415538e-06 -4.378426814478957318e-01 -1.577269293712187104e-01 0.000000000000000000e+00 0.000000000000000000e+00 0.000000000000000000e+00 0.000000000000000000e+00 0.000000000000000000e+00 0.000000000000000000e+00
2.899999999999999911e+00 1.531382291189906865e-10 3.184638442252664126e-01 6.815361556215970840e-01 0.000000000000000000e+00 3.835048472942291320e-06 3.960716136421117489e-07 -5.124811573080374101e-06 -2.355283820747823252e-06 -4.410593517021328402e-01 -1.500375697930509677e-01 0.000000000000000000e+00 0.000000000000000000e+00 0.000000000000000000e+00 0.000000000000000000e+00 0.000000000000000000e+00 0.000000000000000000e+00
3.000000000000000000e+00 1.381954244091832107e-10 3.196926081356836757e-01 6.803073917261248660e-01 0.000000000000000000e+00 -2.229953655778063240e-06 1.262378008563150946e-06 3.660309518962958654e-06 -7.579922805151141256e-07 -4.439978180662343399e-01 -1.426715876894692481e-01 0.000000000000000000e+00 0.000000000000000000e+00 0.000000000000000000e+00 0.000000000000000000e+00 0.000000000000000000e+00 0.000000000000000000e+00
