1.000000000000000056e-01 2.548036867147365769e-01 -1.633657627184524341e-01 -9.521076804179219311e-01
2.000000000000000111e-01 4.711181832399051195e-01 -3.180959354113551685e-01 -8.162768188648773515e-01
2.999999999999999889e-01 6.306287615568998417e-01 -4.556867249502513650e-01 -6.089280996539867541e-01
4.000000000000000222e-01 7.243942521812618551e-01 -5.687262188133754837e-01 -3.493485499301876018e-01
5.000000000000000000e-01 7.422766551515795896e-01 -6.495269515947388328e-01 -6.420015075097314228e-02
5.999999999999999778e-01 6.832333438460176378e-01 -6.895479068233676401e-01 2.144978445207209039e-01
6.999999999999999556e-01 5.639989971006625913e-01 -6.825729437497283225e-01 4.603483670072345268e-01
7.999999999999999334e-01 4.129508886821593450e-01 -6.281881638214139585e-01 6.586683076734967113e-01
8.999999999999999112e-01 2.598360083123277819e-01 -5.329497176514937928e-01 8.051501950577629740e-01
9.999999999999998890e-01 1.292612188902463877e-01 -4.096780239732905615e-01 9.030108614040032178e-01
1.099999999999999867e+00 3.710679060001599583e-02 -2.754581014136369133e-01 9.605943175775040199e-01
1.199999999999999956e+00 -1.111924787268876030e-02 -1.484813792001968280e-01 9.888520246647689582e-01
1.300000000000000044e+00 -1.988501265442678065e-02 -4.443853057324861217e-02 9.988139983404402678e-01
1.399999999999999911e+00 -1.167487638751291048e-03 2.661987208319486348e-02 9.996448342992011460e-01
1.500000000000000000e+00 2.953934757441530751e-02 6.206791131790889704e-02 9.976344325911018496e-01
1.599999999999999867e+00 5.740794275232393579e-02 6.661052182969316726e-02 9.961258377887043380e-01
1.699999999999999956e+00 7.194903736619256973e-02 5.043033865173219416e-02 9.961322378843848746e-01
1.800000000000000044e+00 6.901430286463200447e-02 2.604012610330109709e-02 9.972754687724884048e-01
1.899999999999999911e+00 5.082942751979852014e-02 4.826722505817768183e-03 9.986954812223464151e-01
2.000000000000000000e+00 2.426113896757654820e-02 -5.755423602239341692e-03 9.996889821825106770e-01
2.099999999999999645e+00 -2.049560737769462026e-03 -3.588570017306327506e-03 9.999914397318928616e-01
2.199999999999999734e+00 -2.074168151817271447e-02 8.470812888583836159e-03 9.997488868559732955e-01
2.299999999999999822e+00 -2.786775465223929535e-02 2.434682371843634174e-02 9.993149238594628558e-01
2.399999999999999911e+00 -2.385162311970423152e-02 3.726052506048596613e-02 9.990207185567809844e-01
2.500000000000000000e+00 -1.277366743778000219e-02 4.224214996519946863e-02 9.990255641046471569e-01
2.600000000000000089e+00 -5.475904735388302524e-04 3.767757414977877806e-02 9.992896439050645840e-01
2.699999999999999734e+00 7.352519164929210982e-03 2.554791519892331969e-02 9.996464478826552202e-01
2.799999999999999822e+00 7.769254273811867020e-03 1.037596447936461538e-02 9.999159270510802333e-01
2.899999999999999911e+00 7.951002910139713577e-04 -2.624717041774881233e-03 9.999962247818046102e-01
3.000000000000000000e+00 -1.064767754705094396e-02 -9.530280978415142656e-03 9.998978313082663716e-01
