1.000000000000000056e-01 7.564263762771963884e-02 -3.018678222663816468e-01 -9.494673975132538191e-01
2.000000000000000111e-01 1.639430648960516490e-01 -5.608247446994569785e-01 -8.063159029826895141e-01
2.999999999999999889e-01 2.706919666542534353e-01 -7.426908326671542993e-01 -5.931762657981271003e-01
4.000000000000000222e-01 3.911290274757677210e-01 -8.280204507893064170e-01 -3.401009379444952518e-01
5.000000000000000000e-01 5.106747865743626047e-01 -8.140582007589528546e-01 -7.704128810921795356e-02
5.999999999999999778e-01 6.092891921358355445e-01 -7.132884534474228655e-01 1.717829088027656992e-01
6.999999999999999556e-01 6.673649038806492850e-01 -5.498638071122389226e-01 3.903328801564149297e-01
7.999999999999999334e-01 6.714917930954451553e-01 -3.549954372530098046e-01 5.705849459089048503e-01
8.999999999999999112e-01 6.186271418980666681e-01 -1.616744476002152930e-01 7.109949347841402201e-01
9.999999999999998890e-01 5.176379401565265326e-01 1.107636496660284464e-03 8.145106989722016300e-01
1.099999999999999867e+00 3.874447826929894312e-01 1.137963758501450429e-01 8.867158632218180569e-01
1.199999999999999956e+00 2.519493330438542511e-01 1.698506178560827418e-01 9.342914045665198230e-01
1.300000000000000044e+00 1.332153311714775468e-01 1.758514399672879702e-01 9.638471372788162128e-01
1.399999999999999911e+00 4.559700120862587858e-02 1.476308953255731637e-01 9.811366501993759037e-01
1.500000000000000000e+00 -6.902975604183868297e-03 1.040922534740190558e-01 9.906556480838553114e-01
1.599999999999999867e+00 -2.929993877501839428e-02 6.116223351786546220e-02 9.955937299687680486e-01
1.699999999999999956e+00 -3.156212918437263648e-02 2.828448679523303672e-02 9.980136390327246643e-01
1.800000000000000044e+00 -2.406531620608735877e-02 8.137981843627795087e-03 9.991388874517591612e-01
1.899999999999999911e+00 -1.450304521665195766e-02 -1.277978831908287843e-03 9.996385866973991341e-01
2.000000000000000000e+00 -6.938783488451097728e-03 -3.885390718555274160e-03 9.998520540842887883e-01
2.099999999999999645e+00 -2.429928613445143677e-03 -3.323100440308146553e-03 9.999406198771959575e-01
2.199999999999999734e+00 -3.884887326455245819e-04 -1.969219467068840986e-03 9.999765609463948657e-01
2.299999999999999822e+00 2.220828631228921341e-04 -8.850084220212311743e-04 9.999909067160237530e-01
2.399999999999999911e+00 2.427567505220775421e-04 -2.950688928223352161e-04 9.999965434771278527e-01
2.500000000000000000e+00 1.298228129355552215e-04 -6.329072649923730054e-05 9.999987186107368586e-01
2.600000000000000089e+00 4.827134066683554689e-05 -2.605550591977643000e-06 9.999995387117251999e-01
2.699999999999999734e+00 1.338607377333003547e-05 3.502643928569823030e-06 9.999998392874542841e-01
2.799999999999999822e+00 2.285778532423451086e-06 3.385041198110982002e-06 9.999999459024815351e-01
2.899999999999999911e+00 1.639578552367706382e-06 1.729332615920526976e-06 9.999999824189914621e-01
3.000000000000000000e+00 8.658649164764382892e-07 -1.619121399903644502e-06 9.999999944851648559e-01
