# Pulse Area (PI rad)
1.000000000000000021e-02
5.090000000000000080e-01
1.008000000000000007e+00
1.506999999999999895e+00
2.005999999999999783e+00
2.504999999999999893e+00
3.003999999999999559e+00
3.502999999999999670e+00
4.001999999999999780e+00
4.500999999999999446e+00
5.000000000000000000e+00
