1.000000000000000056e-01 9.755575204053438254e-01 2.441767454280826741e-02 0.000000000000000000e+00 2.480505184890098697e-05 -8.474221159745649878e-02 1.289945875809125064e-01 0.000000000000000000e+00 0.000000000000000000e+00 0.000000000000000000e+00 0.000000000000000000e+00 7.586088411822857445e-04 -1.737650780253695727e-04 0.000000000000000000e+00 0.000000000000000000e+00 -1.714800277985449595e-03 4.610663130360388370e-03
2.000000000000000111e-01 9.049048291961303558e-01 9.470843473818206515e-02 0.000000000000000000e+00 3.867360656894328346e-04 -1.589047261037709602e-01 2.458686804208100318e-01 0.000000000000000000e+00 0.000000000000000000e+00 0.000000000000000000e+00 0.000000000000000000e+00 5.913265038092641902e-03 -1.288589672462530462e-03 0.000000000000000000e+00 0.000000000000000000e+00 -6.576203264198873799e-03 1.751322008214392309e-02
2.999999999999999889e-01 7.957098993095103046e-01 2.024151313050116252e-01 0.000000000000000000e+00 1.874969385478225063e-03 -2.133396431067729748e-01 3.399263456147052498e-01 0.000000000000000000e+00 0.000000000000000000e+00 0.000000000000000000e+00 0.000000000000000000e+00 1.910580390954808028e-02 -3.806629345127667506e-03 0.000000000000000000e+00 0.000000000000000000e+00 -1.374428758235847654e-02 3.609745481195138217e-02
4.000000000000000222e-01 6.596126169675898820e-01 3.348108231871598228e-01 0.000000000000000000e+00 5.576559845250210999e-03 -2.415418800941737665e-01 4.031165631129358662e-01 0.000000000000000000e+00 0.000000000000000000e+00 0.000000000000000000e+00 0.000000000000000000e+00 4.257841086584053525e-02 -7.360129953684766552e-03 0.000000000000000000e+00 0.000000000000000000e+00 -2.185556316880679639e-02 5.657476082891477187e-02
5.000000000000000000e-01 5.107143201564040558e-01 4.766983675006274956e-01 0.000000000000000000e+00 1.258731234296963861e-02 -2.404469116385803962e-01 4.308618866192599484e-01 0.000000000000000000e+00 0.000000000000000000e+00 0.000000000000000000e+00 0.000000000000000000e+00 7.672945869301595057e-02 -1.062738898920104202e-02 0.000000000000000000e+00 0.000000000000000000e+00 -2.909685748502897559e-02 7.471207080075562001e-02
5.999999999999999778e-01 3.637885713889925099e-01 6.125087344233155484e-01 0.000000000000000000e+00 2.370269418769005085e-02 -2.107092244582408347e-01 4.224041904426048544e-01 0.000000000000000000e+00 0.000000000000000000e+00 0.000000000000000000e+00 0.000000000000000000e+00 1.199427127844284319e-01 -1.148271838491150137e-02 0.000000000000000000e+00 0.000000000000000000e+00 -3.334268782343691173e-02 8.666622413126215396e-02
6.999999999999999556e-01 2.325160764568157401e-01 7.283265869595066944e-01 0.000000000000000000e+00 3.915733658367853004e-02 -1.564323073802227626e-01 3.806265540058420549e-01 0.000000000000000000e+00 0.000000000000000000e+00 0.000000000000000000e+00 0.000000000000000000e+00 1.687141867479323154e-01 -7.406204184102233024e-03 0.000000000000000000e+00 0.000000000000000000e+00 -3.236645742737839088e-02 8.976147610262504017e-02
7.999999999999999334e-01 1.279647677283159701e-01 8.135605820399881560e-01 0.000000000000000000e+00 5.847465023169588078e-02 -8.441623340671826348e-02 3.114177105998554573e-01 0.000000000000000000e+00 0.000000000000000000e+00 0.000000000000000000e+00 0.000000000000000000e+00 2.180761265533663062e-01 3.933603448691126714e-03 0.000000000000000000e+00 0.000000000000000000e+00 -2.413361633589292468e-02 8.306782530160353173e-02
8.999999999999999112e-01 5.754837280213064704e-02 8.619854922848911860e-01 0.000000000000000000e+00 8.046613491297922860e-02 -3.068306476560686558e-03 2.227025999008113988e-01 0.000000000000000000e+00 0.000000000000000000e+00 0.000000000000000000e+00 0.000000000000000000e+00 2.622650964384814487e-01 2.403454777154463706e-02 0.000000000000000000e+00 0.000000000000000000e+00 -7.143120115667069003e-03 6.767326620018757066e-02
9.999999999999998890e-01 2.456397199295309516e-02 8.720561174421780359e-01 0.000000000000000000e+00 1.033799105648697814e-01 7.883021580176280407e-02 1.233165000350905649e-01 0.000000000000000000e+00 0.000000000000000000e+00 0.000000000000000000e+00 0.000000000000000000e+00 2.955373834599875904e-01 5.301639249636926066e-02 0.000000000000000000e+00 0.000000000000000000e+00 1.921835025214821066e-02 4.658407719198976588e-02
1.099999999999999867e+00 2.832885863427251835e-02 8.464917993899110371e-01 0.000000000000000000e+00 1.251793419758129577e-01 1.532981047969329547e-01 2.190519157940298486e-02 0.000000000000000000e+00 0.000000000000000000e+00 0.000000000000000000e+00 0.000000000000000000e+00 3.130316061178736731e-01 8.930005403146551446e-02 0.000000000000000000e+00 0.000000000000000000e+00 5.437857449255689701e-02 2.427258782552844940e-02
1.199999999999999956e+00 6.483169459525299494e-02 7.912738185256920076e-01 0.000000000000000000e+00 1.438944868790532627e-01 2.140752396677781388e-01 -7.396901018926518856e-02 0.000000000000000000e+00 0.000000000000000000e+00 0.000000000000000000e+00 0.000000000000000000e+00 3.115463307998231346e-01 1.296102744774283999e-01 0.000000000000000000e+00 0.000000000000000000e+00 9.640341609111754972e-02 5.941783038433099545e-03
1.300000000000000044e+00 1.277312956559464030e-01 7.143031412470114416e-01 0.000000000000000000e+00 1.579655630970420721e-01 2.571804550121232213e-01 -1.584205776503767593e-01 0.000000000000000000e+00 0.000000000000000000e+00 0.000000000000000000e+00 0.000000000000000000e+00 2.901072403604287864e-01 1.693312931278873612e-01 0.000000000000000000e+00 0.000000000000000000e+00 1.420061975381251840e-01 -3.374277802178644869e-03
1.399999999999999911e+00 2.094964026708298899e-01 6.239749174006449239e-01 0.000000000000000000e+00 1.665286799285260466e-01 2.810374741964448142e-01 -2.274608509226357655e-01 0.000000000000000000e+00 0.000000000000000000e+00 0.000000000000000000e+00 0.000000000000000000e+00 2.502469100739617147e-01 2.031900655824135371e-01 0.000000000000000000e+00 0.000000000000000000e+00 1.867808169703224219e-01 2.927171552328522441e-04
1.500000000000000000e+00 3.024893876360232881e-01 5.279638390740886145e-01 0.000000000000000000e+00 1.695467732898867652e-01 2.862168861187063262e-01 -2.788966698283729673e-01 0.000000000000000000e+00 0.000000000000000000e+00 0.000000000000000000e+00 0.000000000000000000e+00 1.959117562785433475e-01 2.261264003848645898e-01 0.000000000000000000e+00 0.000000000000000000e+00 2.256577896623390422e-01 1.909611449165037056e-02
1.599999999999999867e+00 3.997952641362592652e-01 4.324037918852594031e-01 0.000000000000000000e+00 1.678009439784798051e-01 2.748724037046150204e-01 -3.119585709894887038e-01 0.000000000000000000e+00 0.000000000000000000e+00 0.000000000000000000e+00 0.000000000000000000e+00 1.330294154219909819e-01 2.342241207790347057e-01 0.000000000000000000e+00 0.000000000000000000e+00 2.535461973181045159e-01 5.291831718982076271e-02
1.699999999999999956e+00 4.957199679711029594e-01 3.415874398177307092e-01 0.000000000000000000e+00 1.626925922111661094e-01 2.500397474040556567e-01 -3.268208065794686035e-01 0.000000000000000000e+00 0.000000000000000000e+00 0.000000000000000000e+00 0.000000000000000000e+00 6.874820592710395584e-02 2.254937474291859867e-01 0.000000000000000000e+00 0.000000000000000000e+00 2.660690108068479165e-01 9.928367321531339496e-02
1.800000000000000044e+00 5.859045291864615201e-01 2.581575628780998222e-01 0.000000000000000000e+00 1.559379079354415998e-01 2.149431079326669658e-01 -3.241221152805329186e-01 0.000000000000000000e+00 0.000000000000000000e+00 0.000000000000000000e+00 0.000000000000000000e+00 1.047852135941187979e-02 2.003665418030735890e-01 0.000000000000000000e+00 0.000000000000000000e+00 2.602887642771999910e-01 1.536700538967288865e-01
1.899999999999999911e+00 6.671224405932064672e-01 1.836870594544582624e-01 0.000000000000000000e+00 1.491904999523344377e-01 1.724616469705593513e-01 -3.046288552925733861e-01 0.000000000000000000e+00 0.000000000000000000e+00 0.000000000000000000e+00 0.000000000000000000e+00 -3.513832480344728643e-02 1.617704007409989098e-01 0.000000000000000000e+00 0.000000000000000000e+00 2.352910344116943830e-01 2.101581766929362938e-01
2.000000000000000000e+00 7.369033976780371420e-01 1.194169166281718597e-01 0.000000000000000000e+00 1.436796856937918587e-01 1.248440174841185940e-01 -2.690960843012353831e-01 0.000000000000000000e+00 0.000000000000000000e+00 0.000000000000000000e+00 0.000000000000000000e+00 -6.318382359506444224e-02 1.147414032620552166e-01 0.000000000000000000e+00 0.000000000000000000e+00 1.925048844085274213e-01 2.623355064362208333e-01
2.099999999999999645e+00 7.930783712491501491e-01 6.697475076454849352e-02 0.000000000000000000e+00 1.399468779862994838e-01 7.370766250078608639e-02 -2.183653053116277609e-01 0.000000000000000000e+00 0.000000000000000000e+00 0.000000000000000000e+00 0.000000000000000000e+00 -7.116467845959693894e-02 6.563913284443635698e-02 0.000000000000000000e+00 0.000000000000000000e+00 1.356918387036173401e-01 3.042639754125804896e-01
2.199999999999999734e+00 8.334478907752904675e-01 2.881628671809379275e-02 0.000000000000000000e+00 1.377358225066168951e-01 2.028838460748412856e-02 -1.536400155619207231e-01 0.000000000000000000e+00 0.000000000000000000e+00 0.000000000000000000e+00 0.000000000000000000e+00 -5.937096251825728366e-02 2.107424204776839338e-02 0.000000000000000000e+00 0.000000000000000000e+00 7.056099886161842916e-02 3.313861438272917015e-01
2.299999999999999822e+00 8.556712156401202751e-01 8.266334301865118153e-03 0.000000000000000000e+00 1.360624500580149554e-01 -3.416921561854909667e-02 -7.684873790658719450e-02 0.000000000000000000e+00 0.000000000000000000e+00 0.000000000000000000e+00 0.000000000000000000e+00 -3.080419629740513768e-02 -1.326043243635544565e-02 0.000000000000000000e+00 0.000000000000000000e+00 4.053512164053640898e-03 3.411865921342497887e-01
2.399999999999999911e+00 8.574136822876118336e-01 9.123906175503468732e-03 0.000000000000000000e+00 1.334624115368833464e-01 -8.798718462081157876e-02 9.011980828087462481e-03 0.000000000000000000e+00 0.000000000000000000e+00 0.000000000000000000e+00 0.000000000000000000e+00 9.314726247784404708e-03 -3.362936373125071515e-02 0.000000000000000000e+00 0.000000000000000000e+00 -5.661057553533360709e-02 3.335082326092976834e-01
2.500000000000000000e+00 8.367555203961534183e-01 3.488255878618271022e-02 0.000000000000000000e+00 1.283619208176614568e-01 -1.387480789951324178e-01 9.968521982464423337e-02 0.000000000000000000e+00 0.000000000000000000e+00 0.000000000000000000e+00 0.000000000000000000e+00 5.439268211595378599e-02 -3.897471218588927783e-02 0.000000000000000000e+00 0.000000000000000000e+00 -1.049715897179401836e-01 3.104649930793322854e-01
2.600000000000000089e+00 7.927530631766731561e-01 8.774367606186757318e-02 0.000000000000000000e+00 1.195032607614583131e-01 -1.832102543620682256e-01 1.897183938351992005e-01 0.000000000000000000e+00 0.000000000000000000e+00 0.000000000000000000e+00 0.000000000000000000e+00 9.754287195216125583e-02 -3.116156468054300313e-02 0.000000000000000000e+00 0.000000000000000000e+00 -1.362939591207117385e-01 2.759719789701993720e-01
2.699999999999999734e+00 7.260364357098616495e-01 1.676340721601208006e-01 0.000000000000000000e+00 1.063294921300166340e-01 -2.174896100092469919e-01 2.727759386725323587e-01 0.000000000000000000e+00 0.000000000000000000e+00 0.000000000000000000e+00 0.000000000000000000e+00 1.326983768872326552e-01 -1.468286222771680166e-02 0.000000000000000000e+00 0.000000000000000000e+00 -1.482716933098973955e-01 2.349778528565900360e-01
2.799999999999999822e+00 6.392596851239422673e-01 2.714924271558135649e-01 0.000000000000000000e+00 8.924788772024554173e-02 -2.375264427293315994e-01 3.422504238022561762e-01 0.000000000000000000e+00 0.000000000000000000e+00 0.000000000000000000e+00 0.000000000000000000e+00 1.556052965189309578e-01 4.137324310660092652e-03 0.000000000000000000e+00 0.000000000000000000e+00 -1.413533854866360073e-01 1.925403783157122461e-01
2.899999999999999911e+00 5.372979604589126490e-01 3.929966333457525218e-01 0.000000000000000000e+00 6.970540619533349691e-02 -2.397305184379839305e-01 3.920275083210424949e-01 0.000000000000000000e+00 0.000000000000000000e+00 0.000000000000000000e+00 0.000000000000000000e+00 1.644939537545739572e-01 1.832291636870978652e-02 0.000000000000000000e+00 0.000000000000000000e+00 -1.186201242240182974e-01 1.529112124670148620e-01
3.000000000000000000e+00 4.270718301080293489e-01 5.228788796304907338e-01 0.000000000000000000e+00 5.004929026148048632e-02 -2.217126471811153299e-01 4.173132397462749887e-01 0.000000000000000000e+00 0.000000000000000000e+00 0.000000000000000000e+00 0.000000000000000000e+00 1.603240155321521698e-01 2.158535365788292332e-02 0.000000000000000000e+00 0.000000000000000000e+00 -8.520848775945943920e-02 1.188030102876853622e-01
