1.000000000000000056e-01 2.048214719116789317e-01 2.304517768633155828e-01 -9.512493875279556255e-01
2.000000000000000111e-01 4.076443467092540907e-01 4.167155948433664547e-01 -8.119408496957055688e-01
2.999999999999999889e-01 6.006360724986454791e-01 5.232405194438443097e-01 -6.012948859554774206e-01
4.000000000000000222e-01 7.674092583262992484e-01 5.305283597689119945e-01 -3.465209820332491031e-01
5.000000000000000000e-01 8.853067015190592137e-01 4.398222970443113611e-01 -7.709014070189997014e-02
5.999999999999999778e-01 9.321708000305669595e-01 2.734384005177302179e-01 1.806674943450096715e-01
6.999999999999999556e-01 8.950842874494122636e-01 6.981380001411069403e-02 4.074636298961077929e-01
7.999999999999999334e-01 7.771859837994296027e-01 -1.261524009536822699e-01 5.926819865024947065e-01
8.999999999999999112e-01 5.993264784609726448e-01 -2.749886979761936301e-01 7.337621901273760905e-01
9.999999999999998890e-01 3.952587641976854638e-01 -3.528883575531908123e-01 8.342839065126835818e-01
1.099999999999999867e+00 2.020624315534762516e-01 -3.567474095727380945e-01 9.013244509829598794e-01
1.199999999999999956e+00 4.953809625705490188e-02 -3.022544065008856973e-01 9.431099457001810293e-01
1.300000000000000044e+00 -4.719345300424165890e-02 -2.162323352442500624e-01 9.673094459437847625e-01
1.399999999999999911e+00 -8.931265826740318603e-02 -1.265091681581498873e-01 9.801336818678744178e-01
1.500000000000000000e+00 -9.027761908486854614e-02 -5.356028487507639296e-02 9.860829547915597182e-01
1.599999999999999867e+00 -6.860892700807724731e-02 -6.595137572125236991e-03 9.881239744948521198e-01
1.699999999999999956e+00 -4.098790131912821710e-02 1.549719860648738831e-02 9.880492522304560321e-01
1.800000000000000044e+00 -1.808863253495472667e-02 1.997998392286875688e-02 9.868564849237402292e-01
1.899999999999999911e+00 -3.911991485241763516e-03 1.553547197402658890e-02 9.850575032700022993e-01
2.000000000000000000e+00 2.335864817246750304e-03 8.887832688428116620e-03 9.828939189457197578e-01
2.099999999999999645e+00 3.551247250898857243e-03 3.636384968139556254e-03 9.804697568417972686e-01
2.199999999999999734e+00 2.607321398820596891e-03 7.112147925559763034e-04 9.778250778611443650e-01
2.299999999999999822e+00 1.329768445361401022e-03 -3.773608624109199994e-04 9.749725414572157911e-01
2.399999999999999911e+00 4.531284748053426284e-04 -4.987585313326340026e-04 9.719143739633857582e-01
2.500000000000000000e+00 5.266235664192557803e-05 -3.113857565130642843e-04 9.686492401707029742e-01
2.600000000000000089e+00 -5.413671099772029180e-05 -1.281788827881434265e-04 9.651749572728990367e-01
2.699999999999999734e+00 -5.072030544348087407e-05 -3.305585040408237971e-05 9.614893456633529789e-01
2.799999999999999822e+00 -2.384738112389092108e-05 2.621797536082935107e-06 9.575905080331073016e-01
2.899999999999999911e+00 -5.136658109129767845e-06 5.202593832872374087e-06 9.534769066926928049e-01
3.000000000000000000e+00 -3.560746004308038005e-06 1.743868720351621985e-06 9.491473763108597694e-01
