1.000000000000000056e-01 9.736488117622347227e-01 0.000000000000000000e+00 2.635118823776403524e-02 0.000000000000000000e+00 0.000000000000000000e+00 0.000000000000000000e+00 9.132005997634155825e-02 1.315957816409720205e-01 0.000000000000000000e+00 0.000000000000000000e+00 0.000000000000000000e+00 0.000000000000000000e+00 0.000000000000000000e+00 0.000000000000000000e+00 0.000000000000000000e+00 0.000000000000000000e+00
2.000000000000000111e-01 8.984053902448546625e-01 0.000000000000000000e+00 1.015946097551450600e-01 0.000000000000000000e+00 0.000000000000000000e+00 0.000000000000000000e+00 1.660558710895877754e-01 2.523858012329783240e-01 0.000000000000000000e+00 0.000000000000000000e+00 0.000000000000000000e+00 0.000000000000000000e+00 0.000000000000000000e+00 0.000000000000000000e+00 0.000000000000000000e+00 0.000000000000000000e+00
2.999999999999999889e-01 7.848563395092255091e-01 0.000000000000000000e+00 2.151436604907741856e-01 0.000000000000000000e+00 0.000000000000000000e+00 0.000000000000000000e+00 2.114888797460773850e-01 3.523199108032219473e-01 0.000000000000000000e+00 0.000000000000000000e+00 0.000000000000000000e+00 0.000000000000000000e+00 0.000000000000000000e+00 0.000000000000000000e+00 0.000000000000000000e+00 0.000000000000000000e+00
4.000000000000000222e-01 6.480748239098084174e-01 0.000000000000000000e+00 3.519251760901926374e-01 0.000000000000000000e+00 0.000000000000000000e+00 0.000000000000000000e+00 2.216034411300034646e-01 4.230434508367075797e-01 0.000000000000000000e+00 0.000000000000000000e+00 0.000000000000000000e+00 0.000000000000000000e+00 0.000000000000000000e+00 0.000000000000000000e+00 0.000000000000000000e+00 0.000000000000000000e+00
5.000000000000000000e-01 5.045268567899630074e-01 0.000000000000000000e+00 4.954731432100358823e-01 0.000000000000000000e+00 0.000000000000000000e+00 0.000000000000000000e+00 1.981574131759721025e-01 4.590350168780489293e-01 0.000000000000000000e+00 0.000000000000000000e+00 0.000000000000000000e+00 0.000000000000000000e+00 0.000000000000000000e+00 0.000000000000000000e+00 0.000000000000000000e+00 0.000000000000000000e+00
5.999999999999999778e-01 3.690013760599977211e-01 0.000000000000000000e+00 6.309986239400013908e-01 0.000000000000000000e+00 0.000000000000000000e+00 0.000000000000000000e+00 1.497480225368724716e-01 4.587100271905057425e-01 0.000000000000000000e+00 0.000000000000000000e+00 0.000000000000000000e+00 0.000000000000000000e+00 0.000000000000000000e+00 0.000000000000000000e+00 0.000000000000000000e+00 0.000000000000000000e+00
6.999999999999999556e-01 2.523111530065438868e-01 0.000000000000000000e+00 7.476888469934577230e-01 0.000000000000000000e+00 0.000000000000000000e+00 0.000000000000000000e+00 8.920234094161695604e-02 4.250801983892892877e-01 0.000000000000000000e+00 0.000000000000000000e+00 0.000000000000000000e+00 0.000000000000000000e+00 0.000000000000000000e+00 0.000000000000000000e+00 0.000000000000000000e+00 0.000000000000000000e+00
7.999999999999999334e-01 1.602124453578474272e-01 0.000000000000000000e+00 8.397875546421522674e-01 0.000000000000000000e+00 0.000000000000000000e+00 0.000000000000000000e+00 3.008923770409455828e-02 3.655667543160371347e-01 0.000000000000000000e+00 0.000000000000000000e+00 0.000000000000000000e+00 0.000000000000000000e+00 0.000000000000000000e+00 0.000000000000000000e+00 0.000000000000000000e+00 0.000000000000000000e+00
8.999999999999999112e-01 9.359420599698509147e-02 0.000000000000000000e+00 9.064057940030154636e-01 0.000000000000000000e+00 0.000000000000000000e+00 0.000000000000000000e+00 -1.662677704389441125e-02 2.907883703338122738e-01 0.000000000000000000e+00 0.000000000000000000e+00 0.000000000000000000e+00 0.000000000000000000e+00 0.000000000000000000e+00 0.000000000000000000e+00 0.000000000000000000e+00 0.000000000000000000e+00
9.999999999999998890e-01 4.963468713599305387e-02 0.000000000000000000e+00 9.503653128640073833e-01 0.000000000000000000e+00 0.000000000000000000e+00 0.000000000000000000e+00 -4.486256866493010254e-02 2.125051292542605441e-01 0.000000000000000000e+00 0.000000000000000000e+00 0.000000000000000000e+00 0.000000000000000000e+00 0.000000000000000000e+00 0.000000000000000000e+00 0.000000000000000000e+00 0.000000000000000000e+00
1.099999999999999867e+00 2.342255003194244553e-02 0.000000000000000000e+00 9.765774499680581755e-01 0.000000000000000000e+00 0.000000000000000000e+00 0.000000000000000000e+00 -5.407765221514804210e-02 1.412428298502927393e-01 0.000000000000000000e+00 0.000000000000000000e+00 0.000000000000000000e+00 0.000000000000000000e+00 0.000000000000000000e+00 0.000000000000000000e+00 0.000000000000000000e+00 0.000000000000000000e+00
1.199999999999999956e+00 9.529507233205527367e-03 0.000000000000000000e+00 9.904704927667951075e-01 0.000000000000000000e+00 0.000000000000000000e+00 0.000000000000000000e+00 -4.831249661055976585e-02 8.428875549169881354e-02 0.000000000000000000e+00 0.000000000000000000e+00 0.000000000000000000e+00 0.000000000000000000e+00 0.000000000000000000e+00 0.000000000000000000e+00 0.000000000000000000e+00 0.000000000000000000e+00
1.300000000000000044e+00 3.167233009774261029e-03 0.000000000000000000e+00 9.968327669902237176e-01 0.000000000000000000e+00 0.000000000000000000e+00 0.000000000000000000e+00 -3.410730738929644568e-02 4.465299485353750597e-02 0.000000000000000000e+00 0.000000000000000000e+00 0.000000000000000000e+00 0.000000000000000000e+00 0.000000000000000000e+00 0.000000000000000000e+00 0.000000000000000000e+00 0.000000000000000000e+00
1.399999999999999911e+00 7.804099930436117797e-04 0.000000000000000000e+00 9.992195900069583692e-01 0.000000000000000000e+00 0.000000000000000000e+00 0.000000000000000000e+00 -1.810882295059123778e-02 2.125721096164848167e-02 0.000000000000000000e+00 0.000000000000000000e+00 0.000000000000000000e+00 0.000000000000000000e+00 0.000000000000000000e+00 0.000000000000000000e+00 0.000000000000000000e+00 0.000000000000000000e+00
1.500000000000000000e+00 1.303967740074033529e-04 0.000000000000000000e+00 9.998696032259928312e-01 0.000000000000000000e+00 0.000000000000000000e+00 0.000000000000000000e+00 -5.171361328184370491e-03 1.018013067060761188e-02 0.000000000000000000e+00 0.000000000000000000e+00 0.000000000000000000e+00 0.000000000000000000e+00 0.000000000000000000e+00 0.000000000000000000e+00 0.000000000000000000e+00 0.000000000000000000e+00
1.599999999999999867e+00 4.781666939451307717e-05 0.000000000000000000e+00 9.999521833306062035e-01 0.000000000000000000e+00 0.000000000000000000e+00 0.000000000000000000e+00 2.527608776417513380e-03 6.436189486589406067e-03 0.000000000000000000e+00 0.000000000000000000e+00 0.000000000000000000e+00 0.000000000000000000e+00 0.000000000000000000e+00 0.000000000000000000e+00 0.000000000000000000e+00 0.000000000000000000e+00
1.699999999999999956e+00 5.958415271729863654e-05 0.000000000000000000e+00 9.999404158472836590e-01 0.000000000000000000e+00 0.000000000000000000e+00 0.000000000000000000e+00 5.276547799961302417e-03 5.633679023472533756e-03 0.000000000000000000e+00 0.000000000000000000e+00 0.000000000000000000e+00 0.000000000000000000e+00 0.000000000000000000e+00 0.000000000000000000e+00 0.000000000000000000e+00 0.000000000000000000e+00
1.800000000000000044e+00 4.845804213455494190e-05 0.000000000000000000e+00 9.999515419578653974e-01 0.000000000000000000e+00 0.000000000000000000e+00 0.000000000000000000e+00 4.851059122340797662e-03 4.992342260268992429e-03 0.000000000000000000e+00 0.000000000000000000e+00 0.000000000000000000e+00 0.000000000000000000e+00 0.000000000000000000e+00 0.000000000000000000e+00 0.000000000000000000e+00 0.000000000000000000e+00
1.899999999999999911e+00 2.338031800902814775e-05 0.000000000000000000e+00 9.999766196819908082e-01 0.000000000000000000e+00 0.000000000000000000e+00 0.000000000000000000e+00 3.314123488513801875e-03 3.521074882780622379e-03 0.000000000000000000e+00 0.000000000000000000e+00 0.000000000000000000e+00 0.000000000000000000e+00 0.000000000000000000e+00 0.000000000000000000e+00 0.000000000000000000e+00 0.000000000000000000e+00
2.000000000000000000e+00 6.725051539471796360e-06 0.000000000000000000e+00 9.999932749484611305e-01 0.000000000000000000e+00 0.000000000000000000e+00 0.000000000000000000e+00 2.108412017767851039e-03 1.510776472158068418e-03 0.000000000000000000e+00 0.000000000000000000e+00 0.000000000000000000e+00 0.000000000000000000e+00 0.000000000000000000e+00 0.000000000000000000e+00 0.000000000000000000e+00 0.000000000000000000e+00
2.099999999999999645e+00 3.017848450729288939e-06 0.000000000000000000e+00 9.999969821515498625e-01 0.000000000000000000e+00 0.000000000000000000e+00 0.000000000000000000e+00 1.717410615538701767e-03 -2.693580741688083886e-04 0.000000000000000000e+00 0.000000000000000000e+00 0.000000000000000000e+00 0.000000000000000000e+00 0.000000000000000000e+00 0.000000000000000000e+00 0.000000000000000000e+00 0.000000000000000000e+00
2.199999999999999734e+00 5.055108587550846718e-06 0.000000000000000000e+00 9.999949448914112748e-01 0.000000000000000000e+00 0.000000000000000000e+00 0.000000000000000000e+00 1.866455979798789999e-03 -1.255832786288512727e-03 0.000000000000000000e+00 0.000000000000000000e+00 0.000000000000000000e+00 0.000000000000000000e+00 0.000000000000000000e+00 0.000000000000000000e+00 0.000000000000000000e+00 0.000000000000000000e+00
2.299999999999999822e+00 5.968390508910724087e-06 0.000000000000000000e+00 9.999940316094894088e-01 0.000000000000000000e+00 0.000000000000000000e+00 0.000000000000000000e+00 2.006377382532067814e-03 -1.396443996691688850e-03 0.000000000000000000e+00 0.000000000000000000e+00 0.000000000000000000e+00 0.000000000000000000e+00 0.000000000000000000e+00 0.000000000000000000e+00 0.000000000000000000e+00 0.000000000000000000e+00
2.399999999999999911e+00 4.213347146576771510e-06 0.000000000000000000e+00 9.999957866528540462e-01 0.000000000000000000e+00 0.000000000000000000e+00 0.000000000000000000e+00 1.761157480639640891e-03 -1.058562576458703776e-03 0.000000000000000000e+00 0.000000000000000000e+00 0.000000000000000000e+00 0.000000000000000000e+00 0.000000000000000000e+00 0.000000000000000000e+00 0.000000000000000000e+00 0.000000000000000000e+00
2.500000000000000000e+00 1.765137209161027557e-06 0.000000000000000000e+00 9.999982348627911577e-01 0.000000000000000000e+00 0.000000000000000000e+00 0.000000000000000000e+00 1.124034243608265822e-03 -7.157849001240966947e-04 0.000000000000000000e+00 0.000000000000000000e+00 0.000000000000000000e+00 0.000000000000000000e+00 0.000000000000000000e+00 0.000000000000000000e+00 0.000000000000000000e+00 0.000000000000000000e+00
2.600000000000000089e+00 5.513183746264456301e-07 0.000000000000000000e+00 9.999994486816254913e-01 0.000000000000000000e+00 0.000000000000000000e+00 0.000000000000000000e+00 3.716559251733746834e-04 -6.525098771148206715e-04 0.000000000000000000e+00 0.000000000000000000e+00 0.000000000000000000e+00 0.000000000000000000e+00 0.000000000000000000e+00 0.000000000000000000e+00 0.000000000000000000e+00 0.000000000000000000e+00
2.699999999999999734e+00 7.438705844069486191e-07 0.000000000000000000e+00 9.999992561294148707e-01 0.000000000000000000e+00 0.000000000000000000e+00 0.000000000000000000e+00 -1.761022769156254150e-04 -8.529454056069135344e-04 0.000000000000000000e+00 0.000000000000000000e+00 0.000000000000000000e+00 0.000000000000000000e+00 0.000000000000000000e+00 0.000000000000000000e+00 0.000000000000000000e+00 0.000000000000000000e+00
2.799999999999999822e+00 1.320866419802393016e-06 0.000000000000000000e+00 9.999986791335797598e-01 0.000000000000000000e+00 0.000000000000000000e+00 0.000000000000000000e+00 -3.689069250599893925e-04 -1.096211434371758761e-03 0.000000000000000000e+00 0.000000000000000000e+00 0.000000000000000000e+00 0.000000000000000000e+00 0.000000000000000000e+00 0.000000000000000000e+00 0.000000000000000000e+00 0.000000000000000000e+00
2.899999999999999911e+00 1.396260469386495778e-06 0.000000000000000000e+00 9.999986037395314220e-01 0.000000000000000000e+00 0.000000000000000000e+00 0.000000000000000000e+00 -2.877835508394909424e-04 -1.154451830832691189e-03 0.000000000000000000e+00 0.000000000000000000e+00 0.000000000000000000e+00 0.000000000000000000e+00 0.000000000000000000e+00 0.000000000000000000e+00 0.000000000000000000e+00 0.000000000000000000e+00
3.000000000000000000e+00 9.053694206549279664e-07 0.000000000000000000e+00 9.999990946305795658e-01 0.000000000000000000e+00 0.000000000000000000e+00 0.000000000000000000e+00 -1.490097141577055161e-04 -9.513416764662634010e-04 0.000000000000000000e+00 0.000000000000000000e+00 0.000000000000000000e+00 0.000000000000000000e+00 0.000000000000000000e+00 0.000000000000000000e+00 0.000000000000000000e+00 0.000000000000000000e+00
