1.000000000000000056e-01 9.756237544599558609e-01 1.220301695787464648e-02 1.217322858217124472e-02 0.000000000000000000e+00 -5.901825797081891589e-02 9.177362611473954823e-02 1.423016861590704852e-03 -1.089700234045483246e-01 -1.033652380216465438e-02 6.458048509980282050e-03 0.000000000000000000e+00 0.000000000000000000e+00 0.000000000000000000e+00 0.000000000000000000e+00 0.000000000000000000e+00 0.000000000000000000e+00
2.000000000000000111e-01 9.059252948440493780e-01 4.728078513232050750e-02 4.679392002362862263e-02 0.000000000000000000e+00 -1.186988189525691323e-01 1.695389324085406213e-01 1.076235602544417698e-02 -2.056112047023055944e-01 -3.988914238607973312e-02 2.492608268643604560e-02 0.000000000000000000e+00 0.000000000000000000e+00 0.000000000000000000e+00 0.000000000000000000e+00 0.000000000000000000e+00 0.000000000000000000e+00
2.999999999999999889e-01 8.004269327097497388e-01 1.009599056269214201e-01 9.861316166332814714e-02 0.000000000000000000e+00 -1.779425945142099341e-01 2.216922656609665310e-01 3.304369573346970651e-02 -2.789995424552881853e-01 -8.461974337135029500e-02 5.287224722852090081e-02 0.000000000000000000e+00 0.000000000000000000e+00 0.000000000000000000e+00 0.000000000000000000e+00 0.000000000000000000e+00 0.000000000000000000e+00
4.000000000000000222e-01 6.726371379193079036e-01 1.671153709720012981e-01 1.602474911086941012e-01 0.000000000000000000e+00 -2.329461564305433108e-01 2.411308629296895767e-01 6.847440789989717169e-02 -3.210913721197553583e-01 -1.388205980560977548e-01 8.665252725405936385e-02 0.000000000000000000e+00 0.000000000000000000e+00 0.000000000000000000e+00 0.000000000000000000e+00 0.000000000000000000e+00 0.000000000000000000e+00
5.000000000000000000e-01 5.372903588013960841e-01 2.389372723255870912e-01 2.237723688730194616e-01 0.000000000000000000e+00 -2.775395769563040460e-01 2.266064341779821523e-01 1.121204125189202566e-01 -3.281154514315890447e-01 -1.963015389516763465e-01 1.222017399432258344e-01 0.000000000000000000e+00 0.000000000000000000e+00 0.000000000000000000e+00 0.000000000000000000e+00 0.000000000000000000e+00 0.000000000000000000e+00
5.999999999999999778e-01 4.076198392837375728e-01 3.101056178547739184e-01 2.822745428614895080e-01 0.000000000000000000e+00 -3.048146165312328182e-01 1.830116161759512694e-01 1.553489812776210344e-01 -3.015417016001628037e-01 -2.515536890835892714e-01 1.557422968441481148e-01 0.000000000000000000e+00 0.000000000000000000e+00 0.000000000000000000e+00 0.000000000000000000e+00 0.000000000000000000e+00 0.000000000000000000e+00
6.999999999999999556e-01 2.934066759703802263e-01 3.756721803606503651e-01 3.309211436689711849e-01 0.000000000000000000e+00 -3.094120653740094484e-01 1.203698446703356101e-01 1.884879568812008743e-01 -2.481265058205051333e-01 -3.005637029117362857e-01 1.843348259532407163e-01 0.000000000000000000e+00 0.000000000000000000e+00 0.000000000000000000e+00 0.000000000000000000e+00 0.000000000000000000e+00 0.000000000000000000e+00
7.999999999999999334e-01 2.001376674640548969e-01 4.324623509805486932e-01 3.673999815554012116e-01 0.000000000000000000e+00 -2.896495862758147188e-01 5.152788896670256608e-02 2.039219683790868820e-01 -1.787355759864646121e-01 -3.411440813169055453e-01 2.061731688487060121e-01 0.000000000000000000e+00 0.000000000000000000e+00 0.000000000000000000e+00 0.000000000000000000e+00 0.000000000000000000e+00 0.000000000000000000e+00
8.999999999999999112e-01 1.291714800943448149e-01 4.791106340177080924e-01 3.917178858879447612e-01 0.000000000000000000e+00 -2.485376775915499048e-01 -1.079131757426396269e-02 1.983737430903131926e-01 -1.060501633366889712e-01 -3.728294231965491035e-01 2.206228135547860514e-01 0.000000000000000000e+00 0.000000000000000000e+00 0.000000000000000000e+00 0.000000000000000000e+00 0.000000000000000000e+00 0.000000000000000000e+00
9.999999999999998890e-01 7.873670405383642601e-02 5.156909722720677269e-01 4.055723236740973459e-01 0.000000000000000000e+00 -1.932970002475343507e-01 -5.692167567527540994e-02 1.737614680657667832e-01 -4.171786469494009192e-02 -3.964214675428802126e-01 2.280350981544073119e-01 0.000000000000000000e+00 0.000000000000000000e+00 0.000000000000000000e+00 0.000000000000000000e+00 0.000000000000000000e+00 0.000000000000000000e+00
1.099999999999999867e+00 4.523147409135687413e-02 5.432346362266582407e-01 4.115338896819886738e-01 0.000000000000000000e+00 -1.334924522817007297e-01 -8.216488625043419369e-02 1.362954182421799443e-01 6.151700144382875844e-03 -4.134259109098246676e-01 2.294307717858714291e-01 0.000000000000000000e+00 0.000000000000000000e+00 0.000000000000000000e+00 0.000000000000000000e+00 0.000000000000000000e+00 0.000000000000000000e+00
1.199999999999999956e+00 2.442530195409420984e-02 5.632460319085148548e-01 4.123286661373921080e-01 0.000000000000000000e+00 -7.845293588456510314e-02 -8.719283935461312474e-02 9.428529674547402040e-02 3.437346326243301275e-02 -4.255455361565367300e-01 2.261713547266373248e-01 0.000000000000000000e+00 0.000000000000000000e+00 0.000000000000000000e+00 0.000000000000000000e+00 0.000000000000000000e+00 0.000000000000000000e+00
1.300000000000000044e+00 1.235972805350176763e-02 5.773202374890135102e-01 4.103200344574858827e-01 0.000000000000000000e+00 -3.496179050939990374e-02 -7.689729719363247451e-02 5.556097329191705958e-02 4.454685477982981562e-02 -4.343173113200697877e-01 2.196691439944901125e-01 0.000000000000000000e+00 0.000000000000000000e+00 0.000000000000000000e+00 0.000000000000000000e+00 0.000000000000000000e+00 0.000000000000000000e+00
1.399999999999999911e+00 5.839843965317540256e-03 5.869033265119364406e-01 4.072568295227452229e-01 0.000000000000000000e+00 -5.990243106213310846e-03 -5.823693690134238571e-02 2.545606920075179497e-02 4.159693338696736353e-02 -4.409306235009045061e-01 2.111884780209738743e-01 0.000000000000000000e+00 0.000000000000000000e+00 0.000000000000000000e+00 0.000000000000000000e+00 0.000000000000000000e+00 0.000000000000000000e+00
1.500000000000000000e+00 2.564720045472808612e-03 5.931916472921024974e-01 4.042436326624254672e-01 0.000000000000000000e+00 9.216172557596418596e-03 -3.790029867404873243e-02 5.957084529362818848e-03 3.164308564595599144e-02 -4.462010988285783353e-01 2.017387562356094399e-01 0.000000000000000000e+00 0.000000000000000000e+00 0.000000000000000000e+00 0.000000000000000000e+00 0.000000000000000000e+00 0.000000000000000000e+00
1.599999999999999867e+00 1.041203414914977469e-03 5.971143541780449260e-01 4.018444424070378163e-01 0.000000000000000000e+00 1.398460791700162006e-02 -2.064335807661418776e-02 -3.914128054446781510e-03 2.007688716750622229e-02 -4.506246524423388466e-01 1.920533970446122451e-01 0.000000000000000000e+00 0.000000000000000000e+00 0.000000000000000000e+00 0.000000000000000000e+00 0.000000000000000000e+00 0.000000000000000000e+00
1.699999999999999956e+00 3.882726386142554427e-04 5.993743982206355403e-01 4.002373291407482214e-01 0.000000000000000000e+00 1.255409838979969044e-02 -8.666907195639091468e-03 -6.878757105137862926e-03 1.039634051699643742e-02 -4.544763236266971540e-01 1.826014226672828533e-01 0.000000000000000000e+00 0.000000000000000000e+00 0.000000000000000000e+00 0.000000000000000000e+00 0.000000000000000000e+00 0.000000000000000000e+00
1.800000000000000044e+00 1.318232626034055886e-04 6.004842463163670985e-01 3.993839304210262120e-01 0.000000000000000000e+00 8.684843277012129631e-03 -1.931652139088261807e-03 -6.063920353397691740e-03 3.984589832606764102e-03 -4.578937407129349269e-01 1.736579415493026968e-01 0.000000000000000000e+00 0.000000000000000000e+00 0.000000000000000000e+00 0.000000000000000000e+00 0.000000000000000000e+00 0.000000000000000000e+00
1.899999999999999911e+00 4.031987373347550174e-05 6.008196036069232138e-01 3.991400765193437450e-01 0.000000000000000000e+00 4.842698031179628639e-03 8.793267827134370771e-04 -3.957302682998970964e-03 6.580369349662496849e-04 -4.609492594254260833e-01 1.653389330706508953e-01 0.000000000000000000e+00 0.000000000000000000e+00 0.000000000000000000e+00 0.000000000000000000e+00 0.000000000000000000e+00 0.000000000000000000e+00
2.000000000000000000e+00 1.097098046675108248e-05 6.006524465283745728e-01 3.993365824911568884e-01 0.000000000000000000e+00 2.133933365872140494e-03 1.426898070113926179e-03 -2.021883660751808229e-03 -5.413649717147096894e-04 -4.636837917615115323e-01 1.576700241464220054e-01 0.000000000000000000e+00 0.000000000000000000e+00 0.000000000000000000e+00 0.000000000000000000e+00 0.000000000000000000e+00 0.000000000000000000e+00
2.099999999999999645e+00 2.594826255950952636e-06 6.001712440123697645e-01 3.998261611613698197e-01 0.000000000000000000e+00 6.598708796512615634e-04 1.059187376149325292e-03 -7.783119661749920721e-04 -6.570298198188374373e-04 -4.661307896276013496e-01 1.506195587892708021e-01 0.000000000000000000e+00 0.000000000000000000e+00 0.000000000000000000e+00 0.000000000000000000e+00 0.000000000000000000e+00 0.000000000000000000e+00
2.199999999999999734e+00 5.164038760288238131e-07 5.995105334612482739e-01 4.004889501348735670e-01 0.000000000000000000e+00 6.500034642135981344e-05 5.525762186617550874e-04 -1.836181810441668300e-04 -4.160316844536414709e-04 -4.683218761669454833e-01 1.441248224300335223e-01 0.000000000000000000e+00 0.000000000000000000e+00 0.000000000000000000e+00 0.000000000000000000e+00 0.000000000000000000e+00 0.000000000000000000e+00
2.299999999999999822e+00 8.203640707427919266e-08 5.987571506803178734e-01 4.012427672832755698e-01 0.000000000000000000e+00 -7.237484606961858949e-05 2.094545267315525304e-04 8.530989524551425908e-06 -1.812088768296286835e-04 -4.702881260338470648e-01 1.381160909508143408e-01 0.000000000000000000e+00 0.000000000000000000e+00 0.000000000000000000e+00 0.000000000000000000e+00 0.000000000000000000e+00 0.000000000000000000e+00
2.399999999999999911e+00 1.018518281316042394e-08 5.979630795037146340e-01 4.020369103111038900e-01 0.000000000000000000e+00 -5.501704362145365645e-05 5.513421629664643734e-05 3.121352712646332931e-05 -5.571891160477755636e-05 -4.720591579247563896e-01 1.325269043642035016e-01 0.000000000000000000e+00 0.000000000000000000e+00 0.000000000000000000e+00 0.000000000000000000e+00 0.000000000000000000e+00 0.000000000000000000e+00
2.500000000000000000e+00 7.308492376835824789e-10 5.971622940926036849e-01 4.028377051765461569e-01 0.000000000000000000e+00 -2.042604467370052370e-05 2.478583989693343605e-06 1.567327515544696416e-05 -6.320304924075131760e-06 -4.736603218799782522e-01 1.273003835205711864e-01 0.000000000000000000e+00 0.000000000000000000e+00 0.000000000000000000e+00 0.000000000000000000e+00 0.000000000000000000e+00 0.000000000000000000e+00
2.600000000000000089e+00 6.009428369922332627e-11 5.963733705437602728e-01 4.036266293961422447e-01 0.000000000000000000e+00 6.766378236247979653e-07 -1.458100462870754577e-06 -2.398330528680807674e-07 1.300495286852980738e-06 -4.751148086508000246e-01 1.223850154688456565e-01 0.000000000000000000e+00 0.000000000000000000e+00 0.000000000000000000e+00 0.000000000000000000e+00 0.000000000000000000e+00 0.000000000000000000e+00
2.699999999999999734e+00 8.344037480917731824e-11 5.956026070485811452e-01 4.043973928679818752e-01 0.000000000000000000e+00 7.146064226411186113e-07 -3.768875382454042575e-06 1.734032415323434074e-07 3.156123399156695182e-06 -4.764421861120469726e-01 1.177411770118516610e-01 0.000000000000000000e+00 0.000000000000000000e+00 0.000000000000000000e+00 0.000000000000000000e+00 0.000000000000000000e+00 0.000000000000000000e+00
2.799999999999999822e+00 1.272148750612712285e-10 5.948583326543135374e-01 4.051416672184763867e-01 0.000000000000000000e+00 1.045507133159117600e-06 5.164684658194969949e-06 -1.823547524940131621e-06 -3.947886532552370291e-06 -4.776572423707023951e-01 1.133377935870540087e-01 0.000000000000000000e+00 0.000000000000000000e+00 0.000000000000000000e+00 0.000000000000000000e+00 0.000000000000000000e+00 0.000000000000000000e+00
2.899999999999999911e+00 1.409966992090612841e-10 5.941363542653292917e-01 4.058636455936693310e-01 0.000000000000000000e+00 5.371450698387380179e-06 -1.201362836487655843e-06 -4.107816268706887972e-06 1.954875347651974549e-06 -4.787750273492578090e-01 1.091458652579348904e-01 0.000000000000000000e+00 0.000000000000000000e+00 0.000000000000000000e+00 0.000000000000000000e+00 0.000000000000000000e+00 0.000000000000000000e+00
3.000000000000000000e+00 8.044869555689289176e-11 5.934413462991456889e-01 4.065586536204062740e-01 0.000000000000000000e+00 2.167278418394906500e-06 -1.182802372579862297e-06 -1.542720007957901843e-06 1.340318744521252770e-06 -4.798051156723190380e-01 1.051464013844039674e-01 0.000000000000000000e+00 0.000000000000000000e+00 0.000000000000000000e+00 0.000000000000000000e+00 0.000000000000000000e+00 0.000000000000000000e+00
