1.000000000000000056e-01 9.756275024218130643e-01 1.222902115424870199e-02 1.214347642394100237e-02 0.000000000000000000e+00 -5.990449004977494579e-02 9.133685692709274384e-02 1.835833027043086776e-03 -1.088307828089566526e-01 -1.030130480529666513e-02 6.510449237382152747e-03 0.000000000000000000e+00 0.000000000000000000e+00 0.000000000000000000e+00 0.000000000000000000e+00 0.000000000000000000e+00 0.000000000000000000e+00
2.000000000000000111e-01 9.059918720908394230e-01 4.767652615523521042e-02 4.633160175393050834e-02 0.000000000000000000e+00 -1.226345542903622549e-01 1.677954447149438144e-01 1.382216017735171665e-02 -2.044138020919072374e-01 -3.972969338426968200e-02 2.510938640999048690e-02 0.000000000000000000e+00 0.000000000000000000e+00 0.000000000000000000e+00 0.000000000000000000e+00 0.000000000000000000e+00 0.000000000000000000e+00
2.999999999999999889e-01 8.007244479293322836e-01 1.028531482938280506e-01 9.642240377684506425e-02 0.000000000000000000e+00 -1.882289891374501478e-01 2.166261249814425416e-01 4.213048140413236387e-02 -2.746503205203543185e-01 -8.420701125468633974e-02 5.316509241878419889e-02 0.000000000000000000e+00 0.000000000000000000e+00 0.000000000000000000e+00 0.000000000000000000e+00 0.000000000000000000e+00 0.000000000000000000e+00
4.000000000000000222e-01 6.734472183800466194e-01 1.726418453816007392e-01 1.539109362383526969e-01 0.000000000000000000e+00 -2.522981777817570603e-01 2.293704427994196215e-01 8.627726087667884902e-02 -3.101727359646370141e-01 -1.379648634234693361e-01 8.681684467686294482e-02 0.000000000000000000e+00 0.000000000000000000e+00 0.000000000000000000e+00 0.000000000000000000e+00 0.000000000000000000e+00 0.000000000000000000e+00
5.000000000000000000e-01 5.388834842115314272e-01 2.511570098311045052e-01 2.099595059573652056e-01 0.000000000000000000e+00 -3.062512569462517709e-01 2.038492879137908664e-01 1.387799235711672796e-01 -3.064047044652725149e-01 -1.947766259679751255e-01 1.216341550790820819e-01 0.000000000000000000e+00 0.000000000000000000e+00 0.000000000000000000e+00 0.000000000000000000e+00 0.000000000000000000e+00 0.000000000000000000e+00
5.999999999999999778e-01 4.101478606409254546e-01 3.325941573974811605e-01 2.572579819615939400e-01 0.000000000000000000e+00 -3.395690383880068386e-01 1.452778382120669953e-01 1.873542700113449977e-01 -2.653529506221953826e-01 -2.491043405568124647e-01 1.533281750230036378e-01 0.000000000000000000e+00 0.000000000000000000e+00 0.000000000000000000e+00 0.000000000000000000e+00 0.000000000000000000e+00 0.000000000000000000e+00
6.999999999999999556e-01 2.968374616720181325e-01 4.119297870788135030e-01 2.912327512491708625e-01 0.000000000000000000e+00 -3.434248811646357646e-01 6.584484312268558404e-02 2.190177071731738978e-01 -1.961632854633967304e-01 -2.969048122362190067e-01 1.783675353588515256e-01 0.000000000000000000e+00 0.000000000000000000e+00 0.000000000000000000e+00 0.000000000000000000e+00 0.000000000000000000e+00 0.000000000000000000e+00
7.999999999999999334e-01 2.041937687808826063e-01 4.853726436457527771e-01 3.104335875733676975e-01 0.000000000000000000e+00 -3.143167161234933782e-01 -1.775024791710773722e-02 2.246821665502105325e-01 -1.136069021207827545e-01 -3.359789601420012928e-01 1.944070713755497726e-01 0.000000000000000000e+00 0.000000000000000000e+00 0.000000000000000000e+00 0.000000000000000000e+00 0.000000000000000000e+00 0.000000000000000000e+00
8.999999999999999112e-01 1.334578548492569294e-01 5.504456471343900370e-01 3.160964980163512572e-01 0.000000000000000000e+00 -2.562037392497443777e-01 -8.843607430319833096e-02 2.024703089143522761e-01 -3.451571423778496822e-02 -3.658174787532526562e-01 2.004283253991910319e-01 0.000000000000000000e+00 0.000000000000000000e+00 0.000000000000000000e+00 0.000000000000000000e+00 0.000000000000000000e+00 0.000000000000000000e+00
9.999999999999998890e-01 8.282541254726480395e-02 6.059413069696427678e-01 3.112332804830910682e-01 0.000000000000000000e+00 -1.800342410374653201e-01 -1.333229564678164725e-01 1.583096226434258513e-01 2.675982425460885286e-02 -3.871861388903076184e-01 1.966621330450051275e-01 0.000000000000000000e+00 0.000000000000000000e+00 0.000000000000000000e+00 0.000000000000000000e+00 0.000000000000000000e+00 0.000000000000000000e+00
1.099999999999999867e+00 4.878543599640976225e-02 6.516362272609905748e-01 2.995783367426071431e-01 0.000000000000000000e+00 -1.007333865605293949e-01 -1.471160842947882297e-01 1.036828790744598189e-01 6.216848344647843416e-02 -4.015606504768219343e-01 1.842963404020036833e-01 0.000000000000000000e+00 0.000000000000000000e+00 0.000000000000000000e+00 0.000000000000000000e+00 0.000000000000000000e+00 0.000000000000000000e+00
1.199999999999999956e+00 2.725578479315908520e-02 6.880352364365110995e-01 2.847089787703258046e-01 0.000000000000000000e+00 -3.263178092673927472e-02 -1.329966434459561031e-01 5.139483796350955563e-02 7.154395335126588484e-02 -4.106361588338110491e-01 1.651295084052792628e-01 0.000000000000000000e+00 0.000000000000000000e+00 0.000000000000000000e+00 0.000000000000000000e+00 0.000000000000000000e+00 0.000000000000000000e+00
1.300000000000000044e+00 1.443007415559276196e-02 7.160903677335402895e-01 2.694795581108695992e-01 0.000000000000000000e+00 1.466719856707842870e-02 -1.005888182003220332e-01 1.131259166821809228e-02 6.132401858998270255e-02 -4.159775266639947899e-01 1.411892812213776660e-01 0.000000000000000000e+00 0.000000000000000000e+00 0.000000000000000000e+00 0.000000000000000000e+00 0.000000000000000000e+00 0.000000000000000000e+00
1.399999999999999911e+00 7.233881022797216537e-03 7.369730547806586651e-01 2.557930641965451835e-01 0.000000000000000000e+00 3.844437032890603984e-02 -6.207419539250411816e-02 -1.221198617739125726e-02 4.124613882758248334e-02 -4.188350649590256158e-01 1.144105949228750030e-01 0.000000000000000000e+00 0.000000000000000000e+00 0.000000000000000000e+00 0.000000000000000000e+00 0.000000000000000000e+00 0.000000000000000000e+00
1.500000000000000000e+00 3.432068429645399911e-03 7.519097591654406720e-01 2.446581724049162188e-01 0.000000000000000000e+00 4.239987576883958581e-02 -2.797956810716401357e-02 -2.047199309199635928e-02 2.050807334857173911e-02 -4.201014796546260754e-01 8.646163448940664964e-02 0.000000000000000000e+00 0.000000000000000000e+00 0.000000000000000000e+00 0.000000000000000000e+00 0.000000000000000000e+00 0.000000000000000000e+00
1.599999999999999867e+00 1.539141208711209069e-03 7.621005813608887625e-01 2.363602774303955878e-01 0.000000000000000000e+00 3.396719783768172019e-02 -4.382902223992707347e-03 -1.839802794316111254e-02 5.030347495175453709e-03 -4.203493474560504595e-01 5.862363770726919387e-02 0.000000000000000000e+00 0.000000000000000000e+00 0.000000000000000000e+00 0.000000000000000000e+00 0.000000000000000000e+00 0.000000000000000000e+00
1.699999999999999956e+00 6.513355083856978622e-04 7.686167413497684286e-01 2.307319231418442917e-01 0.000000000000000000e+00 2.103618069040989746e-02 7.622756307492677651e-03 -1.180794521263740793e-02 -3.294890842387645288e-03 -4.199222212189442915e-01 3.177651598200336575e-02 0.000000000000000000e+00 0.000000000000000000e+00 0.000000000000000000e+00 0.000000000000000000e+00 0.000000000000000000e+00 0.000000000000000000e+00
1.800000000000000044e+00 2.597346914645112630e-04 7.723823562040360580e-01 2.273579091045045408e-01 0.000000000000000000e+00 9.419140291250878774e-03 1.057800746739743017e-02 -5.198090769622805418e-03 -5.659732804259756667e-03 -4.190055109476867878e-01 6.451301597146645063e-03 0.000000000000000000e+00 0.000000000000000000e+00 0.000000000000000000e+00 0.000000000000000000e+00 0.000000000000000000e+00 0.000000000000000000e+00
1.899999999999999911e+00 9.744711259540106505e-05 7.741619072140483171e-01 2.257406456733541122e-01 0.000000000000000000e+00 1.832797949282493699e-03 8.490030226153563730e-03 -8.013825605051707116e-04 -4.621205135555348821e-03 -4.176931037717879214e-01 -1.709619245146212774e-02 0.000000000000000000e+00 0.000000000000000000e+00 0.000000000000000000e+00 0.000000000000000000e+00 0.000000000000000000e+00 0.000000000000000000e+00
2.000000000000000000e+00 3.432983738547298397e-05 7.745549959698806441e-01 2.254106741927390245e-01 0.000000000000000000e+00 -1.623961867999036950e-03 4.894182927338141566e-03 1.117512943242221068e-03 -2.547441244922464803e-03 -4.160368795741473669e-01 -3.881080554139634819e-02 0.000000000000000000e+00 0.000000000000000000e+00 0.000000000000000000e+00 0.000000000000000000e+00 0.000000000000000000e+00 0.000000000000000000e+00
2.099999999999999645e+00 1.128723553854581963e-05 7.740249788244010221e-01 2.259637339400618894e-01 0.000000000000000000e+00 -2.261752036372730035e-03 1.902895818235034783e-03 1.354379431590111479e-03 -8.462520910635152639e-04 -4.140638366602438780e-01 -5.875979502443105101e-02 0.000000000000000000e+00 0.000000000000000000e+00 0.000000000000000000e+00 0.000000000000000000e+00 0.000000000000000000e+00 0.000000000000000000e+00
2.199999999999999734e+00 3.470446986893368008e-06 7.729023766645287674e-01 2.270941528884840022e-01 0.000000000000000000e+00 -1.623651734503988057e-03 2.145008334989138051e-04 8.864697425928296480e-04 4.766170310037492851e-05 -4.117991878646325432e-01 -7.709111056676620777e-02 0.000000000000000000e+00 0.000000000000000000e+00 0.000000000000000000e+00 0.000000000000000000e+00 0.000000000000000000e+00 0.000000000000000000e+00
2.299999999999999822e+00 9.996735072581179055e-07 7.714247225006189979e-01 2.285742778258761931e-01 0.000000000000000000e+00 -7.877169914686164539e-04 -3.880516221384671424e-04 3.706506939531918773e-04 3.018125261603806083e-04 -4.092684822870755190e-01 -9.395295735746335419e-02 0.000000000000000000e+00 0.000000000000000000e+00 0.000000000000000000e+00 0.000000000000000000e+00 0.000000000000000000e+00 0.000000000000000000e+00
2.399999999999999911e+00 2.725188993506462664e-07 7.697545593405926700e-01 2.302451681405046358e-01 0.000000000000000000e+00 -2.217887327080394762e-04 -4.006396279500409755e-04 6.011789312852033960e-05 2.431274271459860808e-04 -4.064932958585222855e-01 -1.095238253753302721e-01 0.000000000000000000e+00 0.000000000000000000e+00 0.000000000000000000e+00 0.000000000000000000e+00 0.000000000000000000e+00 0.000000000000000000e+00
2.500000000000000000e+00 7.458621609808452900e-08 7.679937047408652573e-01 2.320062206729177345e-01 0.000000000000000000e+00 2.617378580705536959e-05 -2.377194505644446461e-04 -5.212182931229868843e-05 1.206720846291506105e-04 -4.035007203415243993e-01 -1.239616294450402445e-01 0.000000000000000000e+00 0.000000000000000000e+00 0.000000000000000000e+00 0.000000000000000000e+00 0.000000000000000000e+00 0.000000000000000000e+00
2.600000000000000089e+00 2.257894891919344744e-08 7.662108616740019862e-01 2.337891157470402548e-01 0.000000000000000000e+00 8.500440674383829165e-05 -9.990409776765716752e-05 -6.232705680310379379e-05 3.695227131783727795e-05 -4.003151358102670643e-01 -1.374028814378377428e-01 0.000000000000000000e+00 0.000000000000000000e+00 0.000000000000000000e+00 0.000000000000000000e+00 0.000000000000000000e+00 0.000000000000000000e+00
2.699999999999999734e+00 6.401035113481738015e-09 7.644377394088501809e-01 2.355622541901103151e-01 0.000000000000000000e+00 6.429441439239416960e-05 -2.574632927029337406e-05 -3.843848645808156027e-05 7.559221083949687953e-07 -3.969643024296827249e-01 -1.499733964444668610e-01 0.000000000000000000e+00 0.000000000000000000e+00 0.000000000000000000e+00 0.000000000000000000e+00 0.000000000000000000e+00 0.000000000000000000e+00
2.799999999999999822e+00 2.190870080674180994e-09 7.627012683974715435e-01 2.372987294116495338e-01 0.000000000000000000e+00 3.987152464986283871e-05 4.232735593879758155e-07 -2.047947532165360696e-05 -8.675353242315558298e-06 -3.934689073078815325e-01 -1.617722499854735152e-01 0.000000000000000000e+00 0.000000000000000000e+00 0.000000000000000000e+00 0.000000000000000000e+00 0.000000000000000000e+00 0.000000000000000000e+00
2.899999999999999911e+00 6.625017531190974748e-10 7.610034919073557225e-01 2.389965074301490799e-01 0.000000000000000000e+00 1.896850576092585136e-05 5.301814836604502671e-06 -8.512952473290148943e-06 -7.025336248148978362e-06 -3.898573998312319655e-01 -1.728825741602131594e-01 0.000000000000000000e+00 0.000000000000000000e+00 0.000000000000000000e+00 0.000000000000000000e+00 0.000000000000000000e+00 0.000000000000000000e+00
3.000000000000000000e+00 2.137456868421724755e-10 7.593453013249299444e-01 2.406546984613268658e-01 0.000000000000000000e+00 7.980701819845042018e-06 -2.828661963270399068e-06 -4.741475038876823649e-06 -4.887351248473483761e-07 -3.861544935411220236e-01 -1.833704491066648901e-01 0.000000000000000000e+00 0.000000000000000000e+00 0.000000000000000000e+00 0.000000000000000000e+00 0.000000000000000000e+00 0.000000000000000000e+00
