0.000000000000000000e+00 1.847786714698411844e-09 5.125604671169788153e-09 -1.000000000000000000e+00
6.564102564102564097e-02 -1.563327910178529540e-02 4.526254272161826797e-02 -9.988524940318231904e-01
1.312820512820512819e-01 -3.117730072253070001e-02 9.035832346249207669e-02 -9.954206150606725867e-01
1.969230769230769229e-01 -4.650467147179002114e-02 1.351193600699245323e-01 -9.897365144479437493e-01
2.625641025641025639e-01 -6.151346725813632010e-02 1.793863261438401191e-01 -9.818525148230439203e-01
3.282051282051282048e-01 -7.610513373308758212e-02 2.230034840410064778e-01 -9.718408259022338624e-01
3.938461538461538458e-01 -9.019142430796436849e-02 2.658257984007765806e-01 -9.597909602644186799e-01
4.594871794871794868e-01 -1.036904086345454556e-01 3.077181475908627450e-01 -9.458085256587804857e-01
5.251282051282051277e-01 -1.165303006378656525e-01 3.485559981162005272e-01 -9.300132882454904548e-01
5.907692307692307132e-01 -1.286507404963968815e-01 3.882291203607837193e-01 -9.125359308188879526e-01
6.564102564102564097e-01 -1.400004403838250311e-01 4.266423415184941725e-01 -8.935156739369186640e-01
7.220512820512821062e-01 -1.505412700786100122e-01 4.637089802659813964e-01 -8.731006577381433820e-01
7.876923076923076916e-01 -1.602497337885511186e-01 4.993668418584066293e-01 -8.514373852273910970e-01
8.533333333333332771e-01 -1.691065708704140302e-01 5.335613680363912037e-01 -8.286781489633960884e-01
9.189743589743589736e-01 -1.771083198780868395e-01 5.662549902391984524e-01 -8.049717923511032769e-01
9.846153846153846700e-01 -1.842560479435865761e-01 5.974224956715091794e-01 -7.804659857435464199e-01
1.050256410256410255e+00 -1.905665078384050637e-01 6.270569390600260196e-01 -7.552976463040576016e-01
1.115897435897435841e+00 -1.960582346405820298e-01 6.551562636746467438e-01 -7.296036182333304199e-01
1.181538461538461426e+00 -2.007597774278838676e-01 6.817355702444668486e-01 -7.035066516774329815e-01
1.247179487179487234e+00 -2.047022773277469565e-01 7.068167639802943603e-01 -6.771233539723139350e-01
1.312820512820512819e+00 -2.079194057907225446e-01 7.304305719764156990e-01 -6.505607087409526201e-01
1.378461538461538405e+00 -2.104484587438320009e-01 7.526160143395711488e-01 -6.239139950153933523e-01
1.444102564102564212e+00 -2.123307949045341037e-01 7.734163845789149283e-01 -5.972691172355409917e-01
1.509743589743589798e+00 -2.136022891200748952e-01 7.928804751243549997e-01 -5.707029795681040074e-01
1.575384615384615383e+00 -2.143055998871726264e-01 8.110614414036872999e-01 -5.442787417254946192e-01
1.641025641025640969e+00 -2.144754735397635947e-01 8.280119662988656426e-01 -5.180569549093239079e-01
1.706666666666666554e+00 -2.141477740262626717e-01 8.437874876274703562e-01 -4.920870227257845286e-01
1.772307692307692362e+00 -2.133580635247720458e-01 8.584442960802340927e-01 -4.664093184246344004e-01
1.837948717948717947e+00 -2.121356154442711195e-01 8.720362505651004792e-01 -4.410633807316110544e-01
1.903589743589743533e+00 -2.105104282749952760e-01 8.846191069504348858e-01 -4.160766537107580265e-01
1.969230769230769340e+00 -2.085101009416636675e-01 8.962441962605012247e-01 -3.914780077390059843e-01
2.034871794871794926e+00 -2.061605385288703962e-01 9.069643927041556308e-01 -3.672851079288209086e-01
2.100512820512820511e+00 -2.034832032317285821e-01 9.168274114919245932e-01 -3.435211959131018733e-01
2.166153846153846096e+00 -2.004999798310294068e-01 9.258814199293224911e-01 -3.201997792553584188e-01
2.231794871794871682e+00 -1.972382504208362031e-01 9.341703833812446955e-01 -2.973333811113493819e-01
2.297435897435897267e+00 -1.937122893359906617e-01 9.417378160650592411e-01 -2.749357380164265674e-01
2.363076923076922853e+00 -1.899424911278815298e-01 9.486247962388429933e-01 -2.530156770721915249e-01
2.428717948717948882e+00 -1.859537889389936138e-01 9.548701962428622902e-01 -2.315773350166767386e-01
2.494358974358974468e+00 -1.817616877734714587e-01 9.605109321608247264e-01 -2.106307146832390453e-01
2.560000000000000053e+00 -1.773896029672196173e-01 9.655828831728571204e-01 -1.901746231151565103e-01
