0.000000000000000000e+00 1.651593422049121401e-09 2.945203988192580494e-09 -1.000000000000000000e+00
6.564102564102564097e-02 2.703183009330137852e-03 -1.527875640374076185e-03 -9.999951464348838526e-01
1.312820512820512819e-01 5.436187194978476384e-03 -3.026537952069273830e-03 -9.999805830993343525e-01
1.969230769230769229e-01 8.187408268505306716e-03 -4.492924063068969021e-03 -9.999563018665313940e-01
2.625641025641025639e-01 1.096588023922421412e-02 -5.912604535469501328e-03 -9.999222797027271792e-01
3.282051282051282048e-01 1.378084194574583435e-02 -7.268581968156046305e-03 -9.998784830957468950e-01
3.938461538461538458e-01 1.663907862546989622e-02 -8.543308665600300028e-03 -9.998248991080245229e-01
4.594871794871794868e-01 1.954789954466065738e-02 -9.720366506084009151e-03 -9.997614821845263178e-01
5.251282051282051277e-01 2.251426119997415598e-02 -1.078337810829736211e-02 -9.996881542983302449e-01
5.907692307692307132e-01 2.554142356278485404e-02 -1.171211557453170557e-02 -9.996049190437905629e-01
6.564102564102564097e-01 2.863392451078937417e-02 -1.249024941523879315e-02 -9.995116690163458051e-01
7.220512820512821062e-01 3.179303345266420999e-02 -1.309714889596752356e-02 -9.994083772273975042e-01
7.876923076923076916e-01 3.502064922489304954e-02 -1.351396278332814629e-02 -9.992949102786287119e-01
8.533333333333332771e-01 3.831243250726149019e-02 -1.372006673330045459e-02 -9.991712869937786623e-01
9.189743589743589736e-01 4.166650986048141964e-02 -1.369615160080371596e-02 -9.990373434111674555e-01
9.846153846153846700e-01 4.507756968471399173e-02 -1.342066712540354242e-02 -9.988929610517053304e-01
1.050256410256410255e+00 4.853437735390134233e-02 -1.287207548845263963e-02 -9.987381673347794919e-01
1.115897435897435841e+00 5.202672742016387075e-02 -1.202929369000592039e-02 -9.985728175789363448e-01
1.181538461538461426e+00 5.553967913261152745e-02 -1.087352816447584997e-02 -9.983968254798432085e-01
1.247179487179487234e+00 5.905798315995013092e-02 -9.382110340536695126e-03 -9.982099946664950707e-01
1.312820512820512819e+00 6.255934665029158626e-02 -7.536979382534274297e-03 -9.980122931154646881e-01
1.378461538461538405e+00 6.602005668166520402e-02 -5.319811296412728374e-03 -9.978035987815161434e-01
1.444102564102564212e+00 6.941292493917441964e-02 -2.711968806633095752e-03 -9.975837868126767871e-01
1.509743589743589798e+00 7.270601052827922739e-02 3.006675261119223785e-04 -9.973528044204786891e-01
1.575384615384615383e+00 7.586563580989469369e-02 3.733134440900405526e-03 -9.971104725393276080e-01
1.641025641025640969e+00 7.885283262722461717e-02 7.590642390351308444e-03 -9.968567564579512430e-01
1.706666666666666554e+00 8.162654732058126361e-02 1.188497668124984669e-02 -9.965914832900244491e-01
1.772307692307692362e+00 8.414253060911495996e-02 1.661947722373111058e-02 -9.963144624981347119e-01
1.837948717948717947e+00 8.635168739512762148e-02 2.179069462726605788e-02 -9.960256961875362247e-01
1.903589743589743533e+00 8.820344056710961722e-02 2.739248989591264866e-02 -9.957250582056005328e-01
1.969230769230769340e+00 8.964376613321362042e-02 3.341472071401966476e-02 -9.954124714971768206e-01
2.034871794871794926e+00 9.061892504442853324e-02 3.983777859138097621e-02 -9.950877604008858679e-01
2.100512820512820511e+00 9.107234460815133437e-02 4.663987435554127481e-02 -9.947507176754764036e-01
2.166153846153846096e+00 9.094545146482062303e-02 5.378734294736667310e-02 -9.944014439856888599e-01
2.231794871794871682e+00 9.017978420499275782e-02 6.124214566204537469e-02 -9.940399104592531065e-01
2.297435897435897267e+00 8.872103065503665620e-02 6.895754466351029788e-02 -9.936658009836013550e-01
2.363076923076922853e+00 8.651295578674508824e-02 7.687751336000042679e-02 -9.932792115543039868e-01
2.428717948717948882e+00 8.350679992605927748e-02 8.493613156371988826e-02 -9.928799801356676946e-01
2.494358974358974468e+00 7.965217310278574492e-02 9.306347313435031632e-02 -9.924680654432147531e-01
2.560000000000000053e+00 7.490802496277713940e-02 1.011776478739472435e-01 -9.920433237918740987e-01
