0.000000000000000000e+00 -6.120461068346662191e-10 -2.716997965273972102e-09 -1.000000000000000000e+00
6.564102564102564097e-02 6.367094420980012881e-02 -4.255938368848577458e-03 -9.979612250518906658e-01
1.312820512820512819e-01 1.268626400838830937e-01 -8.689230697794574770e-03 -9.918809719687335935e-01
1.969230769230769229e-01 1.890795100862420197e-01 -1.352924369985509384e-02 -9.818666635343544780e-01
2.625641025641025639e-01 2.498576344752809208e-01 -1.896314916458191613e-02 -9.680942722992813554e-01
3.282051282051282048e-01 3.087578640343333070e-01 -2.515921579440164035e-02 -9.508045191007603592e-01
3.938461538461538458e-01 3.653764457415262790e-01 -3.226126464189776888e-02 -9.302964911874712639e-01
4.594871794871794868e-01 4.193500493706390220e-01 -4.038430215214472430e-02 -9.069209419979171738e-01
5.251282051282051277e-01 4.703633517977925949e-01 -4.960905791519937269e-02 -8.810714352584860798e-01
5.907692307692307132e-01 5.181518684094067462e-01 -5.998328326689708612e-02 -8.531758028081645184e-01
6.564102564102564097e-01 5.625085328916963334e-01 -7.151248766086115705e-02 -8.236851013689392431e-01
7.220512820512821062e-01 6.032849373959346950e-01 -8.416629253392948762e-02 -7.930631338568550071e-01
7.876923076923076916e-01 6.403913783102392898e-01 -9.787544373463613612e-02 -7.617768297941409639e-01
8.533333333333332771e-01 6.738000979648333111e-01 -1.125338338447823272e-01 -7.302829174365036424e-01
9.189743589743589736e-01 7.035396243793056170e-01 -1.279985740533091665e-01 -6.990214105596498362e-01
9.846153846153846700e-01 7.296963826066391601e-01 -1.440979705887212026e-01 -6.684015354839847323e-01
1.050256410256410255e+00 7.524089604941730514e-01 -1.606339490922380486e-01 -6.387944135213741159e-01
1.115897435897435841e+00 7.718621429631872255e-01 -1.773841840466587882e-01 -6.105274308933101857e-01
1.181538461538461426e+00 7.882823577224962186e-01 -1.941146189797502974e-01 -5.838748430083132712e-01
1.247179487179487234e+00 8.019325846149707449e-01 -2.105782613987141616e-01 -5.590525249614769487e-01
1.312820512820512819e+00 8.131022643906054004e-01 -2.265289957707639634e-01 -5.362160066919283707e-01
1.378461538461538405e+00 8.221010561189001642e-01 -2.417237053191519658e-01 -5.154583797539344925e-01
1.444102564102564212e+00 8.292518267243732533e-01 -2.559307265757074790e-01 -4.968081383566520515e-01
1.509743589743589798e+00 8.348817214488689631e-01 -2.689385187473867234e-01 -4.802308916601149558e-01
1.575384615384615383e+00 8.393125093873418097e-01 -2.805572626567763295e-01 -4.656382504357779450e-01
1.641025641025640969e+00 8.428592511832651013e-01 -2.906266058943678399e-01 -4.528808592627013851e-01
1.706666666666666554e+00 8.458160321832958184e-01 -2.990234817972649006e-01 -4.417653343644803998e-01
1.772307692307692362e+00 8.484558705183036231e-01 -3.056613889907556780e-01 -4.320532317591533888e-01
1.837948717948717947e+00 8.510203469410755339e-01 -3.104976831461425113e-01 -4.234756850799531458e-01
1.903589743589743533e+00 8.537195301583060392e-01 -3.135282986282728057e-01 -4.157390275953602443e-01
1.969230769230769340e+00 8.567254013882735775e-01 -3.147992073113392020e-01 -4.085326131686111695e-01
2.034871794871794926e+00 8.601712675948002262e-01 -3.143952748175623535e-01 -4.015429503899671793e-01
2.100512820512820511e+00 8.641503272587305329e-01 -3.124444434574700225e-01 -3.944595141568748575e-01
2.166153846153846096e+00 8.687149772498934386e-01 -3.091142493307821870e-01 -3.869860213966977991e-01
2.231794871794871682e+00 8.738781480168895666e-01 -3.046064738349079648e-01 -3.788499268092852534e-01
2.297435897435897267e+00 8.796164343572832056e-01 -2.991514022114237781e-01 -3.698089033401609771e-01
2.363076923076922853e+00 8.858703506720191356e-01 -2.930072005883901376e-01 -3.596604145789700779e-01
2.428717948717948882e+00 8.925527890735923675e-01 -2.864445733692045359e-01 -3.482441363067884654e-01
2.494358974358974468e+00 8.995488908567652597e-01 -2.797490276454814850e-01 -3.354505225225917764e-01
2.560000000000000053e+00 9.067238996484663360e-01 -2.732069368747543359e-01 -3.212231915915715330e-01
