0.000000000000000000e+00 -4.149309645471037158e-09 -1.416949316129193458e-09 -1.000000000000000000e+00
6.564102564102564097e-02 -5.134523937731469423e-02 1.202793002749508872e-01 -9.914108657165149330e-01
1.312820512820512819e-01 -1.027334061605509746e-01 2.379094649185531374e-01 -9.658378698745719859e-01
1.969230769230769229e-01 -1.541486308799547844e-01 3.503164076196893517e-01 -9.238578305802248591e-01
2.625641025641025639e-01 -2.055202397664870895e-01 4.550691700930726835e-01 -8.664115183885386928e-01
3.282051282051282048e-01 -2.566868208470366453e-01 5.499506512523261170e-01 -7.947706274387962289e-01
3.938461538461538458e-01 -3.073753902284395156e-01 6.330113283256521006e-01 -7.104998344152166911e-01
4.594871794871794868e-01 -3.571836561664618603e-01 7.026319210541800420e-01 -6.154023681551432645e-01
5.251282051282051277e-01 -4.055804567433293206e-01 7.575627112731068147e-01 -5.114626784592437581e-01
5.907692307692307132e-01 -4.519122740805083249e-01 7.969497946131802735e-01 -4.007946474962484906e-01
6.564102564102564097e-01 -4.954222831342577349e-01 8.203698948801898538e-01 -2.855509854783911949e-01
7.220512820512821062e-01 -5.352630367713175907e-01 8.278235484655553922e-01 -1.679005719497805860e-01
7.876923076923076916e-01 -5.705433558263744986e-01 8.197417559368608275e-01 -4.992469514624880284e-02
8.533333333333332771e-01 -6.003585285188373089e-01 7.969622428367848510e-01 6.640463032514237751e-02
9.189743589743589736e-01 -6.238406183258475846e-01 7.606984435017258850e-01 1.793034818182531465e-01
9.846153846153846700e-01 -6.401941385082690061e-01 7.125036866209376596e-01 2.871921977483617439e-01
1.050256410256410255e+00 -6.487567366981823458e-01 6.542071323848045461e-01 3.887385736380815637e-01
1.115897435897435841e+00 -6.490244308512994609e-01 5.878694652098807039e-01 4.828740910998267077e-01
1.181538461538461426e+00 -6.407008618398406519e-01 5.156888211057888416e-01 5.688223147810532732e-01
1.247179487179487234e+00 -6.237229518707825271e-01 4.399561802378759157e-01 6.460653454148053143e-01
1.312820512820512819e+00 -5.982741035296073040e-01 3.629653877612945556e-01 7.143649216421852355e-01
1.378461538461538405e+00 -5.648042636241378256e-01 2.869307996158398377e-01 7.737316920753007921e-01
1.444102564102564212e+00 -5.240178342263519529e-01 2.139359602676996208e-01 8.243975907938814185e-01
1.509743589743589798e+00 -4.768634943242721635e-01 1.458542484869381206e-01 8.667890084785906391e-01
1.575384615384615383e+00 -4.244972523174520007e-01 8.429778082048873522e-02 9.014943842258297257e-01
1.641025641025640969e+00 -3.682610303471275381e-01 3.056220037440408877e-02 9.292182577673143706e-01
1.706666666666666554e+00 -3.096245282155233314e-01 -1.439782935689004617e-02 9.507485210199635439e-01
1.772307692307692362e+00 -2.501284808217114630e-01 -4.998966496832446538e-02 9.669201990396998347e-01
1.837948717948717947e+00 -1.913391858603594731e-01 -7.599898107825109328e-02 9.785764132609077182e-01
1.903589743589743533e+00 -1.347707764696925437e-01 -9.257388139782764258e-02 9.865422422060367014e-01
1.969230769230769340e+00 -8.183879140759339754e-02 -1.002037240884726399e-01 9.915949720346183272e-01
2.034871794871794926e+00 -3.380538360166625983e-02 -9.968716272980576720e-02 9.944439738531688500e-01
2.100512820512820511e+00 8.285372676579957907e-03 -9.208339117648364769e-02 9.957164522992085764e-01
2.166153846153846096e+00 4.362676796848463656e-02 -7.865231078645942842e-02 9.959466800290486255e-01
2.231794871794871682e+00 7.169066646405243548e-02 -6.079542497326455991e-02 9.955719984902428044e-01
2.297435897435897267e+00 9.223497708639835646e-02 -4.000103180757696303e-02 9.949330708209930263e-01
2.363076923076922853e+00 1.053185376023042519e-01 -1.774828256398767318e-02 9.942797098519375876e-01
2.428717948717948882e+00 1.112747088549137925e-01 4.525113097530543416e-03 9.937789317215324214e-01
2.494358974358974468e+00 1.107029148193922202e-01 2.551356711142213629e-02 9.935255445364111759e-01
2.560000000000000053e+00 1.044294699954889938e-01 4.407499440118432810e-02 9.935547113908453909e-01
