0.000000000000000000e+00 2.264451914440721220e-12 -1.998420223232205988e-12 -1.000000000000000000e+00
6.564102564102564097e-02 9.356822196652687940e-02 -8.245047000339709997e-02 -9.921929791316996816e-01
1.312820512820512819e-01 1.860009621054436180e-01 -1.631513307212580643e-01 -9.689093277392296644e-01
1.969230769230769229e-01 2.761798308581256967e-01 -2.403863431533479755e-01 -9.305584920245723035e-01
2.625641025641025639e-01 3.630195639976073751e-01 -3.125038575448904066e-01 -8.778144081349832373e-01
3.282051282051282048e-01 4.454809103035459183e-01 -3.779450407825425962e-01 -8.116060033670988716e-01
3.938461538461538458e-01 5.225915184980631789e-01 -4.352776721387874859e-01 -7.330971647565377447e-01
4.594871794871794868e-01 5.934542753435753104e-01 -4.832208889511486749e-01 -6.436688555008988066e-01
5.251282051282051277e-01 6.572632913386023956e-01 -5.206670667731991831e-01 -5.448951930635104191e-01
5.907692307692307132e-01 7.133159263753490187e-01 -5.467058096442229953e-01 -4.385124249935021812e-01
6.564102564102564097e-01 7.610190212436885870e-01 -5.606400321252075214e-01 -3.263936329815014803e-01
7.220512820512821062e-01 7.999008586791810371e-01 -5.619994735381330653e-01 -2.105117763807297648e-01
7.876923076923076916e-01 8.296164679732046521e-01 -5.505497438895720075e-01 -9.290584296726980829e-02
8.533333333333332771e-01 8.499506499384898994e-01 -5.262991747941072607e-01 2.435305785959328978e-02
9.189743589743589736e-01 8.608226272813208624e-01 -4.894976403137915599e-01 1.391993695136002351e-01
9.846153846153846700e-01 8.622852903058796370e-01 -4.406339152528675474e-01 2.496113595255931294e-01
1.050256410256410255e+00 8.545240298581451288e-01 -3.804265861213688704e-01 3.536443056463660084e-01
1.115897435897435841e+00 8.378528660775909076e-01 -3.098141448678857213e-01 4.494638699189658637e-01
1.181538461538461426e+00 8.127092853093622615e-01 -2.299355759504389252e-01 5.353814045141529476e-01
1.247179487179487234e+00 7.796466466147712326e-01 -1.421111374897941759e-01 6.098815710987085525e-01
1.312820512820512819e+00 7.393256872697313575e-01 -4.782683224588493709e-02 6.716473197633439085e-01
1.378461538461538405e+00 6.925038120438814504e-01 5.130494365371558729e-02 7.195875714034296600e-01
1.444102564102564212e+00 6.400223331590630949e-01 1.535645591464011306e-01 7.528541287591132836e-01
1.509743589743589798e+00 5.827931276133283545e-01 2.571636016176688244e-01 7.708560516469739055e-01
1.575384615384615383e+00 5.217867482576099558e-01 3.602628264155948723e-01 7.732718055733748264e-01
1.641025641025640969e+00 4.580140849703318029e-01 4.610223988212714397e-01 7.600535808516893921e-01
1.706666666666666554e+00 3.925123134180227846e-01 5.576272234167805042e-01 7.314273466697051029e-01
1.772307692307692362e+00 3.263317876798372263e-01 6.483128400691503535e-01 6.878939059552358071e-01
1.837948717948717947e+00 2.605134162317038204e-01 7.314108545640206627e-01 6.302149805757145673e-01
1.903589743589743533e+00 1.960804427184500986e-01 8.053695584489981574e-01 5.594035522633787894e-01
1.969230769230769340e+00 1.340163240791781285e-01 8.687905517777386732e-01 4.766996978325785395e-01
2.034871794871794926e+00 7.525674129184162231e-02 9.204444059999863370e-01 3.835603191192718531e-01
2.100512820512820511e+00 2.067076072123585906e-02 9.593009960292163685e-01 2.816279788242355697e-01
2.166153846153846096e+00 -2.895160491179842033e-02 9.845502123934715133e-01 1.726924541497936449e-01
2.231794871794871682e+00 -7.290575201727830801e-02 9.956110400500407520e-01 5.868056152456526536e-02
2.297435897435897267e+00 -1.105883616309975281e-01 9.921492556754214487e-01 -5.839579677190083473e-02
2.363076923076922853e+00 -1.415023256345687985e-01 9.740818947522740245e-01 -1.764696973174829653e-01
2.428717948717948882e+00 -1.652648395403600035e-01 9.415799457220456192e-01 -2.934531284506847193e-01
2.494358974358974468e+00 -1.816103334821845827e-01 8.950694850730177565e-01 -4.072693257864488103e-01
2.560000000000000053e+00 -1.903955743595373562e-01 8.352229214526417644e-01 -5.158994054622145775e-01
