0.000000000000000000e+00 1.109915354151898250e-09 -2.815305265658272576e-09 -1.000000000000000000e+00
6.564102564102564097e-02 7.936271333312726328e-02 1.661134713309962707e-02 -9.967066826315704731e-01
1.312820512820512819e-01 1.580562663854881977e-01 3.281169859629749774e-02 -9.868833937016000535e-01
1.969230769230769229e-01 2.354152751731851678e-01 4.814656552238019693e-02 -9.706994135830597781e-01
2.625641025641025639e-01 3.108076268456411162e-01 6.221072293117152485e-02 -9.484317317862172025e-01
3.282051282051282048e-01 3.836406506512602399e-01 7.463119669128745470e-02 -9.204579307339399996e-01
3.938461538461538458e-01 4.533701161549015812e-01 8.507701684376009488e-02 -8.872477915937376780e-01
4.594871794871794868e-01 5.195160896841293230e-01 9.326485879862428385e-02 -8.493493642255222076e-01
5.251282051282051277e-01 5.816648566414804877e-01 9.896841888081131522e-02 -8.073780703797598379e-01
5.907692307692307132e-01 6.394808408024693636e-01 1.020232988364333515e-01 -7.619987671877581636e-01
6.564102564102564097e-01 6.927088927132839524e-01 1.023290310638477751e-01 -7.139106103978941631e-01
7.220512820512821062e-01 7.411750880090831606e-01 9.985198356178988377e-02 -6.638320075904743378e-01
7.876923076923076916e-01 7.847902096830985386e-01 9.462340603212182621e-02 -6.124813286595153228e-01
8.533333333333332771e-01 8.235476414473095197e-01 8.673918226832799672e-02 -5.605596532988753600e-01
9.189743589743589736e-01 8.575174758971483291e-01 7.635722098949382364e-02 -5.087375451139128923e-01
9.846153846153846700e-01 8.868439477289991046e-01 6.368536666344198904e-02 -4.576370330760718974e-01
1.050256410256410255e+00 9.117333942792673618e-01 4.898530446081489353e-02 -4.078254209814556885e-01
1.115897435897435841e+00 9.324515897257815711e-01 3.255348581666667185e-02 -3.597951916748645118e-01
1.181538461538461426e+00 9.493089404192293079e-01 1.472048982423962427e-02 -3.139643242105075727e-01
1.247179487179487234e+00 9.626543680728367747e-01 -4.162456656074009498e-03 -2.706594960555098184e-01
1.312820512820512819e+00 9.728591514816326002e-01 -2.373623491807352881e-02 -2.301274552590047151e-01
1.378461538461538405e+00 9.803113061534960426e-01 -4.363630413267183261e-02 -1.925158000507927458e-01
1.444102564102564212e+00 9.853999805950146573e-01 -6.351266447436587637e-02 -1.578908964775847246e-01
1.509743589743589798e+00 9.885078989035023245e-01 -8.302983268681651818e-02 -1.262321002242988710e-01
1.575384615384615383e+00 9.900006910575543939e-01 -1.018827873140706330e-01 -9.744118243585234151e-02
1.641025641025640969e+00 9.902181971968565533e-01 -1.198025249259585534e-01 -7.135446602398350102e-02
1.706666666666666554e+00 9.894685128189891765e-01 -1.365604578947566816e-01 -4.774349251109071685e-02
1.772307692307692362e+00 9.880212281857521095e-01 -1.519763903993782694e-01 -2.633137561916329070e-02
1.837948717948717947e+00 9.861035030848912530e-01 -1.659205370477349062e-01 -6.808731332319724848e-03
1.903589743589743533e+00 9.838978992943429036e-01 -1.783159894804311474e-01 1.115503695277197428e-02
1.969230769230769340e+00 9.815410378820728088e-01 -1.891420131630288104e-01 2.790345343565045835e-02
2.034871794871794926e+00 9.791258364412005477e-01 -1.984243800382491374e-01 4.377777189218701875e-02
2.100512820512820511e+00 9.767023660969273990e-01 -2.062413574503796365e-01 5.910287278119122356e-02
2.166153846153846096e+00 9.742828015628316463e-01 -2.127133320598927346e-01 7.417717061271579537e-02
2.231794871794871682e+00 9.718446650054080038e-01 -2.180046753526789227e-01 8.926443925132417079e-02
2.297435897435897267e+00 9.693389726003114326e-01 -2.223063330058944742e-01 1.045855236276489741e-01
2.363076923076922853e+00 9.666948053547982367e-01 -2.258375725692090552e-01 1.203116220662631131e-01
2.428717948717948882e+00 9.638274225815703922e-01 -2.288319149276269449e-01 1.365615763802860982e-01
2.494358974358974468e+00 9.606454155124335426e-01 -2.315297510680671134e-01 1.533976972343153167e-01
2.560000000000000053e+00 9.570561481331272269e-01 -2.341759372131035355e-01 1.708266539987410015e-01
