0.000000000000000000e+00 -3.854307783163790621e-10 3.356866206689143508e-09 -1.000000000000000000e+00
6.564102564102564097e-02 -1.246534313862979193e-01 3.216838566566151275e-03 -9.921938681021877926e-01
1.312820512820512819e-01 -2.472940802564939644e-01 5.470525541360612976e-03 -9.689224164534027128e-01
1.969230769230769229e-01 -3.659197633179551712e-01 5.890882550342563251e-03 -9.306235557518659496e-01
2.625641025641025639e-01 -4.786071133539394062e-01 3.640586099958403876e-03 -8.780155171587050722e-01
3.282051282051282048e-01 -5.835269535760881920e-01 -2.020800224583924054e-03 -8.120828297247398853e-01
3.938461538461538458e-01 -6.789797000554746997e-01 -1.171274582779907592e-02 -7.340522995850347066e-01
4.594871794871794868e-01 -7.634192807885334942e-01 -2.591126490302136931e-02 -6.453683096969946575e-01
5.251282051282051277e-01 -8.354835358395068523e-01 -4.492510336076488420e-02 -5.476560524613416359e-01
5.907692307692307132e-01 -8.940088931001365369e-01 -6.888409735054068506e-02 -4.426952518651799395e-01
6.564102564102564097e-01 -9.380573751948109162e-01 -9.772752875757767521e-02 -3.323732513175493564e-01
7.220512820512821062e-01 -9.669298989927908039e-01 -1.312016944999452872e-01 -2.186452272566968835e-01
7.876923076923076916e-01 -9.801772810578466277e-01 -1.688581101978418597e-01 -1.034976405084494788e-01
8.533333333333332771e-01 -9.776096058186839466e-01 -2.100672125558472603e-01 1.110577242069563618e-02
9.189743589743589736e-01 -9.592989888549213751e-01 -2.540220576805061192e-01 1.232503735329480571e-01
9.846153846153846700e-01 -9.255797320547640705e-01 -2.997639192461963309e-01 2.311209670751128986e-01
1.050256410256410255e+00 -8.770422790005729663e-01 -3.462022848708829481e-01 3.330391841837481715e-01
1.115897435897435841e+00 -8.145239166500366501e-01 -3.921393208319061130e-01 4.274965209923631271e-01
1.181538461538461426e+00 -7.390988979133324976e-01 -4.363066427302803030e-01 5.131731856342466314e-01
1.247179487179487234e+00 -6.520530075749075838e-01 -4.773942663692118948e-01 5.889827945592838176e-01
1.312820512820512819e+00 -5.548734825346886002e-01 -5.140858560005541200e-01 6.540734284030523815e-01
1.378461538461538405e+00 -4.492082419475017518e-01 -5.450998663026869195e-01 7.078563667215390653e-01
1.444102564102564212e+00 -3.368587370571082262e-01 -5.692201568196743056e-01 7.499990456838193653e-01
1.509743589743589798e+00 -2.197274861429360238e-01 -5.853393386970464629e-01 7.804375431747890834e-01
1.575384615384615383e+00 -9.980111507243022428e-02 -5.924825430804260273e-01 7.993684832838471310e-01
1.641025641025640969e+00 2.088957553576945014e-02 -5.898499848510607713e-01 8.072340012200505122e-01
1.706666666666666554e+00 1.403057322522064110e-01 -5.768328449607046382e-01 8.047137263667584195e-01
1.772307692307692362e+00 2.564375762659474312e-01 -5.530471733143743629e-01 7.926942231931116689e-01
1.837948717948717947e+00 3.673325658358964629e-01 -5.183468242400046666e-01 7.722487393876046324e-01
1.903589743589743533e+00 4.711416095219592148e-01 -4.728315349747471696e-01 7.446070700442767309e-01
1.969230769230769340e+00 5.661419438803620974e-01 -4.168638965868572965e-01 7.111191429346639392e-01
2.034871794871794926e+00 6.507790418004122390e-01 -3.510584405744920922e-01 6.732206709201417061e-01
2.100512820512820511e+00 7.236864206473387906e-01 -2.762824552107528975e-01 6.323972270639377502e-01
2.166153846153846096e+00 7.837138993822186928e-01 -1.936382155193960286e-01 5.901490815160767012e-01
2.231794871794871682e+00 8.299526463613202676e-01 -1.044464002795952862e-01 5.479486384291514245e-01
2.297435897435897267e+00 8.617496041076087021e-01 -1.022049835664251560e-02 5.072084565834166225e-01
2.363076923076922853e+00 8.787210746362396074e-01 8.736507181880909245e-02 4.692473862257171557e-01
2.428717948717948882e+00 8.807592434381577018e-01 1.865088255933196049e-01 4.352625419297373455e-01
2.494358974358974468e+00 8.680385777462200636e-01 2.853197229467352436e-01 4.062967585817207627e-01
2.560000000000000053e+00 8.410102461685540209e-01 3.818623291077907766e-01 3.832204705357606378e-01
