0.000000000000000000e+00 2.436121552592871392e-09 9.098086772166346367e-10 -1.000000000000000000e+00
6.564102564102564097e-02 1.301872230933867006e-03 5.372174798991863516e-03 -9.999846574818630485e-01
1.312820512820512819e-01 2.544012259145970751e-03 1.077353597899330731e-02 -9.999386074093642440e-01
1.969230769230769229e-01 3.708580894441641362e-03 1.619663701572675654e-02 -9.998617752586850260e-01
2.625641025641025639e-01 4.758372164782214211e-03 2.165120373389556319e-02 -9.997540374281518316e-01
3.282051282051282048e-01 5.653784946744440029e-03 2.714508550082900956e-02 -9.996152413084573585e-01
3.938461538461538458e-01 6.355326786410362729e-03 3.268489895751363478e-02 -9.994451760358442627e-01
4.594871794871794868e-01 6.824761190459487092e-03 3.827370856722685233e-02 -9.992436141090000890e-01
5.251282051282051277e-01 7.022291900222583927e-03 4.391366095235000461e-02 -9.990102271631164932e-01
5.907692307692307132e-01 6.907225802142038899e-03 4.960074807262347674e-02 -9.987447696865482394e-01
6.564102564102564097e-01 6.440184199610201471e-03 5.532863937784480990e-02 -9.984469070241158706e-01
7.220512820512821062e-01 5.581713081846968738e-03 6.108547622227115254e-02 -9.981163622074381570e-01
7.876923076923076916e-01 4.293745476088579871e-03 6.685859820728125291e-02 -9.977526029509905525e-01
8.533333333333332771e-01 2.535346330246882746e-03 7.262405957074750951e-02 -9.973554950894470972e-01
9.189743589743589736e-01 2.706181492156574386e-04 7.835558301815573334e-02 -9.969247200105536555e-01
9.846153846153846700e-01 -2.536195669207659542e-03 8.402271499795302412e-02 -9.964598437913571027e-01
1.050256410256410255e+00 -5.915836162402023091e-03 8.958667859278485190e-02 -9.959606418506939951e-01
1.115897435897435841e+00 -9.899916247819580753e-03 9.500292572995670815e-02 -9.954268962476165994e-01
1.181538461538461426e+00 -1.451521544329485713e-02 1.002208996416100312e-01 -9.948584067801504727e-01
1.247179487179487234e+00 -1.978334590107786589e-02 1.051831536541685541e-01 -9.942550936837515341e-01
1.312820512820512819e+00 -2.572001686994364322e-02 1.098279008681031232e-01 -9.936167663420323315e-01
1.378461538461538405e+00 -3.233729202671385694e-02 1.140859943482633587e-01 -9.929433765302886350e-01
1.444102564102564212e+00 -3.963535590600753000e-02 1.178824545763180187e-01 -9.922351170842008683e-01
1.509743589743589798e+00 -4.761018273512628712e-02 1.211395403458215003e-01 -9.914918763803319823e-01
1.575384615384615383e+00 -5.624904930314892498e-02 1.237724573301398484e-01 -9.907138717828678498e-01
1.641025641025640969e+00 -6.552554380062920736e-02 1.256941266231521304e-01 -9.899014297566555154e-01
1.706666666666666554e+00 -7.540481148224922880e-02 1.268157873395237278e-01 -9.890547062428219904e-01
1.772307692307692362e+00 -8.584137405730758730e-02 1.270444451642751826e-01 -9.881741786588815746e-01
1.837948717948717947e+00 -9.677254975988812402e-02 1.262909212687643445e-01 -9.872602545046020861e-01
1.903589743589743533e+00 -1.081286526586173191e-01 1.244648594731551233e-01 -9.863131967069436179e-01
1.969230769230769340e+00 -1.198199522121565636e-01 1.214817151145867052e-01 -9.853335975086285892e-01
2.034871794871794926e+00 -1.317500251383404430e-01 1.172593541328044997e-01 -9.843215916930995180e-01
2.100512820512820511e+00 -1.438036702584604976e-01 1.117221976541734330e-01 -9.832778654435363475e-01
2.166153846153846096e+00 -1.558510449345446025e-01 1.048044212294214905e-01 -9.822031801375874505e-01
2.231794871794871682e+00 -1.677520040418238878e-01 9.645270522426845072e-02 -9.810976710452886662e-01
2.297435897435897267e+00 -1.793536854549063198e-01 8.662539213895228962e-02 -9.799615705081125006e-01
2.363076923076922853e+00 -1.904865297085022446e-01 7.529506836140073545e-02 -9.787961032127888705e-01
2.428717948717948882e+00 -2.009774529264407028e-01 6.245416597860703467e-02 -9.776009956473437068e-01
2.494358974358974468e+00 -2.106413380341396469e-01 4.811270654758940946e-02 -9.763766982948616224e-01
2.560000000000000053e+00 -2.192857731497054874e-01 3.230332331955979019e-02 -9.751236916538676969e-01
