0.000000000000000000e+00 2.593083659044041916e-09 6.081549486585278446e-10 -1.000000000000000000e+00
6.564102564102564097e-02 -2.914623995773631127e-02 -1.796007208685071466e-02 -9.994135186692638673e-01
1.312820512820512819e-01 -5.800692250630924696e-02 -3.621553028084285863e-02 -9.976585518781712070e-01
1.969230769230769229e-01 -8.629905191863289360e-02 -5.500398197460123345e-02 -9.947489630252696058e-01
2.625641025641025639e-01 -1.137342715035242618e-01 -7.458011026836047774e-02 -9.907069638788637000e-01
3.282051282051282048e-01 -1.400149955497759779e-01 -9.517394956876849832e-02 -9.855633831088079777e-01
3.938461538461538458e-01 -1.648364284063914831e-01 -1.169910383008833793e-01 -9.793564189865664460e-01
4.594871794871794868e-01 -1.878831441884579734e-01 -1.402028377058626707e-01 -9.721314353491882221e-01
5.251282051282051277e-01 -2.088315026839125399e-01 -1.649459750444302597e-01 -9.639388689964577539e-01
5.907692307692307132e-01 -2.273456613994612185e-01 -1.913064379152482619e-01 -9.548356855650728114e-01
6.564102564102564097e-01 -2.430874040350242404e-01 -2.193268768362484078e-01 -9.448804673919135588e-01
7.220512820512821062e-01 -2.557093534423933723e-01 -2.489904569439657656e-01 -9.341363971347441675e-01
7.876923076923076916e-01 -2.648663893554934479e-01 -2.802228136621215393e-01 -9.226672055165445752e-01
8.533333333333332771e-01 -2.702170914011011726e-01 -3.128856377643514097e-01 -9.105375218112923275e-01
9.189743589743589736e-01 -2.714299391303157116e-01 -3.467763161193753163e-01 -8.978110671830541456e-01
9.846153846153846700e-01 -2.681919822991332136e-01 -3.816188963287858726e-01 -8.845520382863754083e-01
1.050256410256410255e+00 -2.602143711240922919e-01 -4.170770765375220179e-01 -8.708196917480803823e-01
1.115897435897435841e+00 -2.472444906296182854e-01 -4.527395090843584491e-01 -8.566728167266889349e-01
1.181538461538461426e+00 -2.290740143737688139e-01 -4.881309381089680710e-01 -8.421662734888923918e-01
1.247179487179487234e+00 -2.055452351627383711e-01 -5.227166083600650603e-01 -8.273504474940147624e-01
1.312820512820512819e+00 -1.765650040880468730e-01 -5.559005506873578861e-01 -8.122740709087613586e-01
1.378461538461538405e+00 -1.421206884580970831e-01 -5.870377342493177109e-01 -7.969803935307011589e-01
1.444102564102564212e+00 -1.022719257779439728e-01 -6.154463487792407594e-01 -7.815082491021058120e-01
1.509743589743589798e+00 -5.717812430835841897e-02 -6.404065524106247187e-01 -7.658972349741075547e-01
1.575384615384615383e+00 -7.097023479292002834e-03 -6.611913393277372153e-01 -7.501757534649134973e-01
1.641025641025640969e+00 4.760822559510013985e-02 -6.770600727993538737e-01 -7.343777882000384061e-01
1.706666666666666554e+00 1.064592787682863140e-01 -6.872904875530002622e-01 -7.185300540823243987e-01
1.772307692307692362e+00 1.688684505950377446e-01 -6.911883472386933791e-01 -7.026584934834723128e-01
1.837948717948717947e+00 2.341377151356777708e-01 -6.881115148697893869e-01 -6.867812967061371898e-01
1.903589743589743533e+00 3.014507384191740802e-01 -6.774724226188103549e-01 -6.709282067124481275e-01
1.969230769230769340e+00 3.698840089825861654e-01 -6.587824219957120198e-01 -6.551162405109356435e-01
2.034871794871794926e+00 4.384233834361847548e-01 -6.316490017959555114e-01 -6.393667921951802224e-01
2.100512820512820511e+00 5.059645831245769276e-01 -5.958067007601686171e-01 -6.236981541913522165e-01
2.166153846153846096e+00 5.713360465034778013e-01 -5.511281423939333735e-01 -6.081263867403841061e-01
2.231794871794871682e+00 6.333023486002202773e-01 -4.976444329347836648e-01 -5.926741817138370116e-01
2.297435897435897267e+00 6.906102380629203230e-01 -4.355511251694290098e-01 -5.773534326578380060e-01
2.363076923076922853e+00 7.419839835853320187e-01 -3.652260357610470631e-01 -5.621864914023133597e-01
2.428717948717948882e+00 7.861747537968927224e-01 -2.872324343074472708e-01 -5.471841374245054457e-01
2.494358974358974468e+00 8.219742583067866093e-01 -2.023280010175491084e-01 -5.323580755327821379e-01
2.560000000000000053e+00 8.482435918944994935e-01 -1.114531839327703722e-01 -5.177299039824792004e-01
