0.000000000000000000e+00 9.710563865129171458e-10 -5.599506846961959647e-09 -1.000000000000000000e+00
6.564102564102564097e-02 -1.163236674343739174e-01 4.493436835416850239e-02 -9.921932897991926348e-01
1.312820512820512819e-01 -2.310434589750272050e-01 8.843462700812691757e-02 -9.689137309823709909e-01
1.969230769230769229e-01 -3.425425414434625226e-01 1.291422783784216544e-01 -9.305804898012726145e-01
2.625641025641025639e-01 -4.492690931415133093e-01 1.657423861279752053e-01 -8.778823227856542566e-01
3.282051282051282048e-01 -5.497353567816942732e-01 1.970159257860527036e-01 -8.117658569897291398e-01
3.938461538461538458e-01 -6.425422514093619419e-01 2.218686956950648437e-01 -7.334161363177766901e-01
4.594871794871794868e-01 -7.263962678647354343e-01 2.393558516604721298e-01 -6.442362254825333423e-01
5.251282051282051277e-01 -8.001305317330774658e-01 2.487066151253626289e-01 -5.458177711745834104e-01
5.907692307692307132e-01 -8.627197963453481222e-01 2.493411988574794624e-01 -4.399119546494732469e-01
6.564102564102564097e-01 -9.132939648954194745e-01 2.408890519173180200e-01 -3.283962558175432256e-01
7.220512820512821062e-01 -9.511512376674894353e-01 2.231951889806740863e-01 -2.132408539486972399e-01
7.876923076923076916e-01 -9.757688206794978836e-01 1.963308374896576836e-01 -9.646358905220363267e-02
8.533333333333332771e-01 -9.868081015468063155e-01 1.605913031585517459e-01 1.989637147605206879e-02
9.189743589743589736e-01 -9.841217823587163904e-01 1.164903674423452551e-01 1.338292660717268212e-01
9.846153846153846700e-01 -9.677552332072267838e-01 6.475765353497031640e-02 2.433781455660734006e-01
1.050256410256410255e+00 -9.379452686068938672e-01 6.319181521845629312e-03 3.466936119619113410e-01
1.115897435897435841e+00 -8.951177343932887887e-01 -5.771839447655313649e-02 4.420541531559604165e-01
1.181538461538461426e+00 -8.398815475839954692e-01 -1.260873380959814938e-01 5.279029381247739572e-01
1.247179487179487234e+00 -7.730185890830258977e-01 -1.973875400973308381e-01 6.028785374193246227e-01
1.312820512820512819e+00 -6.954761491095684534e-01 -2.701127875137890322e-01 6.658345405471661760e-01
1.378461538461538405e+00 -6.083504067674814220e-01 -3.426833613394730804e-01 7.158651304425029949e-01
1.444102564102564212e+00 -5.128697601824033780e-01 -4.134808220901602382e-01 7.523192716763481558e-01
1.509743589743589798e+00 -4.103819860408157161e-01 -4.808748841085027648e-01 7.748114319401905314e-01
1.575384615384615383e+00 -3.023295241785253218e-01 -5.432684543971414426e-01 7.832262138876838753e-01
1.641025641025640969e+00 -1.902348512960262139e-01 -5.991226906225050053e-01 7.777207602546231113e-01
1.706666666666666554e+00 -7.567347997795562109e-02 -6.469965343526916657e-01 7.587194996111743528e-01
1.772307692307692362e+00 3.974989228988601297e-02 -6.855784577436402349e-01 7.269026258462301104e-01
1.837948717948717947e+00 1.544181042105934043e-01 -7.137129120802430116e-01 6.831932440423430508e-01
1.903589743589743533e+00 2.667263810701815951e-01 -7.304315010486370774e-01 6.287364849394957433e-01
1.969230769230769340e+00 3.751146688042510391e-01 -7.349730105436681482e-01 5.648760438795881189e-01
2.034871794871794926e+00 4.780812585428143580e-01 -7.268051521625574773e-01 4.931252203521718780e-01
2.100512820512820511e+00 5.742073788992148042e-01 -7.056370759448838959e-01 4.151395449315406494e-01
2.166153846153846096e+00 6.621771677606307360e-01 -6.714321868870878340e-01 3.326826886472378786e-01
2.231794871794871682e+00 7.408042183028223926e-01 -6.244109400383788255e-01 2.475818860050471304e-01
2.297435897435897267e+00 8.090372954779865289e-01 -5.650527635153943518e-01 1.617100110718858175e-01
2.363076923076922853e+00 8.659881283631015725e-01 -4.940874017074829427e-01 7.692824873859764601e-02
2.428717948717948882e+00 9.109355481111272024e-01 -4.124896769864963009e-01 -4.934192150776005835e-03
2.494358974358974468e+00 9.433420289576689433e-01 -3.214600914060913861e-01 -8.212792103832759760e-02
2.560000000000000053e+00 9.628603783819221773e-01 -2.224033477949390325e-01 -1.530120857871392070e-01
