0.000000000000000000e+00 -1.673804871041110955e-09 -1.974678063582977585e-09 -1.000000000000000000e+00
6.564102564102564097e-02 8.044124984096336084e-02 -1.032596596809128020e-02 -9.967055798810460221e-01
1.312820512820512819e-01 1.602142031240817721e-01 -2.064615747105597726e-02 -9.868657587927172070e-01
1.969230769230769229e-01 2.386515718920556028e-01 -3.097833896601884240e-02 -9.706101536481729353e-01
2.625641025641025639e-01 3.151175815489092313e-01 -4.132390198151798810e-02 -9.481513253253803786e-01
3.282051282051282048e-01 3.890136789051278354e-01 -5.168955295482835499e-02 -9.197791075900003666e-01
3.938461538461538458e-01 4.597896674706715703e-01 -6.207385344139773609e-02 -8.858536657581619345e-01
4.594871794871794868e-01 5.269469114631527562e-01 -7.248048135287404881e-02 -8.467994466363697459e-01
5.251282051282051277e-01 5.900577109890227101e-01 -8.290617393449373207e-02 -8.030900263348400570e-01
5.907692307692307132e-01 6.487620803451821239e-01 -9.334896971828046675e-02 -7.552405119911649312e-01
6.564102564102564097e-01 7.027689353713361120e-01 -1.038025412742731579e-01 -7.038002176250691688e-01
7.220512820512821062e-01 7.518676132879634766e-01 -1.142577160665432801e-01 -6.493331860874771433e-01
7.876923076923076916e-01 7.959229951751831678e-01 -1.247047126317988308e-01 -5.924087215907136716e-01
8.533333333333332771e-01 8.348654279680759460e-01 -1.351320038097145459e-01 -5.336022391127144271e-01
9.189743589743589736e-01 8.687061309788983721e-01 -1.455202477315335474e-01 -4.734610535671232023e-01
9.846153846153846700e-01 8.975129259023347794e-01 -1.558546286574793993e-01 -4.125183062262851585e-01
1.050256410256410255e+00 9.214135194266763751e-01 -1.661134407633482191e-01 -3.512756785692544015e-01
1.115897435897435841e+00 9.405881651204612837e-01 -1.762725014053179162e-01 -2.901943911679601973e-01
1.181538461538461426e+00 9.552598817421638078e-01 -1.863107771939667145e-01 -2.296900368828244110e-01
1.247179487179487234e+00 9.656852265288862203e-01 -1.962019978086175231e-01 -1.701391232814221111e-01
1.312820512820512819e+00 9.721486771635879931e-01 -2.059202943763831506e-01 -1.118667436196039700e-01
1.378461538461538405e+00 9.749542739848006123e-01 -2.154388214905953447e-01 -5.514163360756516030e-02
1.444102564102564212e+00 9.744152433336616959e-01 -2.247336168711998039e-01 -1.955789216335557582e-04
1.509743589743589798e+00 9.708496323858669674e-01 -2.337833567321892514e-01 5.278873291343623431e-02
1.575384615384615383e+00 9.645747292894596425e-01 -2.425596195143147060e-01 1.036860269762083092e-01
1.641025641025640969e+00 9.558997764660002172e-01 -2.510430560467717398e-01 1.523924578557689924e-01
1.706666666666666554e+00 9.451211124835595667e-01 -2.592169332594992937e-01 1.988547880177498617e-01
1.772307692307692362e+00 9.325214795921802358e-01 -2.670623424267569157e-01 2.430475229759704869e-01
1.837948717948717947e+00 9.183637635103560903e-01 -2.745683741033856928e-01 2.849755464646375192e-01
1.903589743589743533e+00 9.028949269835468971e-01 -2.817237247006652012e-01 3.246590711949270402e-01
1.969230769230769340e+00 8.863358136289030131e-01 -2.885225542079744021e-01 3.621529439820425633e-01
2.034871794871794926e+00 8.688925001472199705e-01 -2.949577441281104884e-01 3.975136916673122078e-01
2.100512820512820511e+00 8.507429827296926206e-01 -3.010320256235519132e-01 4.308221040944668068e-01
2.166153846153846096e+00 8.320574957364692548e-01 -3.067415603649932265e-01 4.621490052422030925e-01
2.231794871794871682e+00 8.129737719678631347e-01 -3.120945513193835730e-01 4.915919181036318975e-01
2.297435897435897267e+00 7.936204827685074958e-01 -3.170936002321483871e-01 5.192401836062092713e-01
2.363076923076922853e+00 7.741064493092078003e-01 -3.217490597238040761e-01 5.451872350189790328e-01
2.428717948717948882e+00 7.545288995301128177e-01 -3.260656200145906625e-01 5.695260703239803934e-01
2.494358974358974468e+00 7.349701427112568242e-01 -3.300555891914875861e-01 5.923470081630930473e-01
2.560000000000000053e+00 7.155006004760992022e-01 -3.337284173699361922e-01 6.137403430820880246e-01
