0.000000000000000000e+00 1.438770335734212676e-09 2.212323535433900689e-09 -1.000000000000000000e+00
6.564102564102564097e-02 -3.376645862749363958e-02 3.394905069341760256e-02 -9.988526122015393138e-01
1.312820512820512819e-01 -6.781087504506320973e-02 6.732967611571512301e-02 -9.954230087737099275e-01
1.969230769230769229e-01 -1.023549749442228263e-01 9.959441459294766930e-02 -9.897485962161153283e-01
2.625641025641025639e-01 -1.376189367175933986e-01 1.301869982371791357e-01 -9.818907959374150174e-01
3.282051282051282048e-01 -1.737884684699864124e-01 1.585575282024730137e-01 -9.719328714742671016e-01
3.938461538461538458e-01 -2.109991248323743740e-01 1.841578520891766213e-01 -9.599796574493837387e-01
4.594871794871794868e-01 -2.493323861213982418e-01 2.064537192881990002e-01 -9.461528143890158837e-01
5.251282051282051277e-01 -2.888033341586234148e-01 2.249191300291605577e-01 -9.305902452693739502e-01
5.907692307692307132e-01 -3.293517232835491138e-01 2.390520258223740868e-01 -9.134412920324408436e-01
6.564102564102564097e-01 -3.708409311617753001e-01 2.483706574672090162e-01 -8.948640567645033128e-01
7.220512820512821062e-01 -4.130460793516125273e-01 2.524266476906111834e-01 -8.750232180150058214e-01
7.876923076923076916e-01 -4.556562896851355515e-01 2.508174794800165364e-01 -8.540837772142522155e-01
8.533333333333332771e-01 -4.982698142998729374e-01 2.431848580262595538e-01 -8.322131645097851083e-01
9.189743589743589736e-01 -5.404033028728125743e-01 2.292374177795966084e-01 -8.095703784424067573e-01
9.846153846153846700e-01 -5.814847375101737104e-01 2.087555680229186417e-01 -7.863114289231655230e-01
1.050256410256410255e+00 -6.208696428647407783e-01 1.816019973243668539e-01 -7.625811593549733924e-01
1.115897435897435841e+00 -6.578452841769127923e-01 1.477333376635177609e-01 -7.385134988030257475e-01
1.181538461538461426e+00 -6.916398751530908884e-01 1.072185781841961671e-01 -7.142307881964722327e-01
1.247179487179487234e+00 -7.214378870499483787e-01 6.024155059661068234e-02 -6.898441016295510098e-01
1.312820512820512819e+00 -7.464020600286100926e-01 7.102458306396108867e-03 -6.654468769872147194e-01
1.378461538461538405e+00 -7.656836921483931580e-01 -5.175835502014414224e-02 -6.411201475028756036e-01
1.444102564102564212e+00 -7.784470599671581281e-01 -1.157644002297274488e-01 -6.169309501420573438e-01
1.509743589743589798e+00 -7.838876191690506978e-01 -1.842044654247111390e-01 -5.929362974388037166e-01
1.575384615384615383e+00 -7.812587827351206160e-01 -2.562248510361329057e-01 -5.691815869572545150e-01
1.641025641025640969e+00 -7.698981224694777525e-01 -3.308464653891450280e-01 -5.456933128900484098e-01
1.706666666666666554e+00 -7.492390300383242607e-01 -4.069567212080206220e-01 -5.225039947843960197e-01
1.772307692307692362e+00 -7.188506168916357630e-01 -4.833295937788335550e-01 -4.996291851145233665e-01
1.837948717948717947e+00 -6.784488942771007558e-01 -5.586482754308355059e-01 -4.770763161857963786e-01
1.903589743589743533e+00 -6.279160131505107101e-01 -6.315079227321626076e-01 -4.548642843174977024e-01
1.969230769230769340e+00 -5.673319431086566444e-01 -7.004547323065032360e-01 -4.329892049778280017e-01
2.034871794871794926e+00 -4.969695079467074117e-01 -7.640025887537287286e-01 -4.114645941524580630e-01
2.100512820512820511e+00 -4.173235672996648549e-01 -8.206687596519877115e-01 -3.902887175631659100e-01
2.166153846153846096e+00 -3.291084419595314836e-01 -8.689970643461831790e-01 -3.694766602398129041e-01
2.231794871794871682e+00 -2.332601388322923519e-01 -9.076063288670030982e-01 -3.490292695756712638e-01
2.297435897435897267e+00 -1.309378130219250591e-01 -9.352103149552842831e-01 -3.289647075350475292e-01
2.363076923076922853e+00 -2.350822740791830290e-02 -9.506691763443084753e-01 -3.092831932334962342e-01
2.428717948717948882e+00 8.746750318002297075e-02 -9.530071665573767170e-01 -2.900125274432215905e-01
2.494358974358974468e+00 2.002499816866355475e-01 -9.414639462998661834e-01 -2.711566384885285008e-01
2.560000000000000053e+00 3.129549495868891862e-01 -9.155152539883842921e-01 -2.527275075971548435e-01
