0.000000000000000000e+00 -2.396474462105779106e-13 -2.416770620019915873e-13 -1.000000000000000000e+00
6.564102564102564097e-02 -2.189842599309831366e-03 -2.206275381410885677e-03 -9.999951684577773614e-01
1.312820512820512819e-01 -4.358601966629302785e-03 -4.378242266139897518e-03 -9.999809166091983004e-01
1.969230769230769229e-01 -6.484382677836018558e-03 -6.481974764688138053e-03 -9.999579675084422359e-01
2.625641025641025639e-01 -8.545878765420641607e-03 -8.484838892345240857e-03 -9.999274851008572718e-01
3.282051282051282048e-01 -1.052095891058461678e-02 -1.035475429071852464e-02 -9.998910383006154312e-01
3.938461538461538458e-01 -1.238711129023688934e-02 -1.206116136454237972e-02 -9.998505327514517482e-01
4.594871794871794868e-01 -1.412049709796988142e-02 -1.357709656310580534e-02 -9.998081185931692039e-01
5.251282051282051277e-01 -1.569883390978864951e-02 -1.487727078908905945e-02 -9.997660793424445469e-01
5.907692307692307132e-01 -1.709657712720675724e-02 -1.593774889640071912e-02 -9.997268102843982485e-01
6.564102564102564097e-01 -1.828987742823930812e-02 -1.674076708430893845e-02 -9.996925662898540343e-01
7.220512820512821062e-01 -1.925259256633687910e-02 -1.726942025408231829e-02 -9.996654964550253375e-01
7.876923076923076916e-01 -1.996016882504639961e-02 -1.751216667217805195e-02 -9.996473956582437870e-01
8.533333333333332771e-01 -2.038522033643911865e-02 -1.746239839094510318e-02 -9.996396887902458950e-01
9.189743589743589736e-01 -2.050316428939057481e-02 -1.711417249683785946e-02 -9.996432990502422955e-01
9.846153846153846700e-01 -2.028653919681304776e-02 -1.647099915816985574e-02 -9.996585229677037443e-01
1.050256410256410255e+00 -1.971335404176091308e-02 -1.553751504215464090e-02 -9.996849350290379910e-01
1.115897435897435841e+00 -1.875665097418403870e-02 -1.432204428219335801e-02 -9.997214947644544880e-01
1.181538461538461426e+00 -1.739574749532839595e-02 -1.284237558986852344e-02 -9.997662033322184394e-01
1.247179487179487234e+00 -1.560846010211323215e-02 -1.111799637675976206e-02 -9.998163662021195552e-01
1.312820512820512819e+00 -1.337452998955302244e-02 -9.172835955737666802e-03 -9.998684818734409063e-01
1.378461538461538405e+00 -1.067970677493039998e-02 -7.035901593725649161e-03 -9.999182166434165131e-01
1.444102564102564212e+00 -7.508676737460378073e-03 -4.741216898131255485e-03 -9.999605695659983251e-01
1.509743589743589798e+00 -3.852637873279506769e-03 -2.325328953696409809e-03 -9.999898749428598466e-01
1.575384615384615383e+00 2.960582642433813843e-04 1.705164413262215579e-04 -9.999999416302429722e-01
1.641025641025640969e+00 4.937439762678772631e-03 2.700508982268537243e-03 -9.999841643503570854e-01
1.706666666666666554e+00 1.007012719883990971e-02 5.220107002425400898e-03 -9.999356694675886059e-01
1.772307692307692362e+00 1.568513402727293032e-02 7.676739699805129775e-03 -9.998475104904449573e-01
1.837948717948717947e+00 2.176842013035899456e-02 1.002089491317870694e-02 -9.997128175096730018e-01
1.903589743589743533e+00 2.830183249204570178e-02 1.219903316981024201e-02 -9.995249821180535177e-01
1.969230769230769340e+00 3.526128961979321103e-02 1.416027107661595001e-02 -9.992778032578195635e-01
2.034871794871794926e+00 4.261237139064077972e-02 1.585091505867661232e-02 -9.989659324463077139e-01
2.100512820512820511e+00 5.031903259568941411e-02 1.721928628761675364e-02 -9.985847440539793451e-01
2.166153846153846096e+00 5.833889236891119656e-02 1.821669557552423394e-02 -9.981306154771103500e-01
2.231794871794871682e+00 6.662147698242397442e-02 1.879557628274285130e-02 -9.976012756052173858e-01
2.297435897435897267e+00 7.511147202823489910e-02 1.891537809541591134e-02 -9.969957247985871129e-01
2.363076923076922853e+00 8.374725595684490154e-02 1.853512523270661391e-02 -9.963146321164744190e-01
2.428717948717948882e+00 9.246582849458857833e-02 1.762119803336067991e-02 -9.955599246973242389e-01
2.494358974358974468e+00 1.011920000025434280e-01 1.614831949397023403e-02 -9.947358497445695225e-01
2.560000000000000053e+00 1.098560529028983351e-01 1.409251031124135467e-02 -9.938475982704918499e-01
