0.000000000000000000e+00 -2.396295713946473951e-09 1.849844355490781102e-09 -1.000000000000000000e+00
6.564102564102564097e-02 9.784218376735785705e-02 8.203595095803130344e-03 -9.951672752223689189e-01
1.312820512820512819e-01 1.945783144029800127e-01 1.573713062989390288e-02 -9.807590095746150372e-01
1.969230769230769229e-01 2.891094988660867227e-01 2.189262237574635117e-02 -9.570429638942438144e-01
2.625641025641025639e-01 3.803814007790072838e-01 2.602197181534082748e-02 -9.244597307694060184e-01
3.282051282051282048e-01 4.673972016281932595e-01 2.752112367170349294e-02 -8.836138633116551455e-01
3.938461538461538458e-01 5.492355937017810996e-01 2.584985864020811208e-02 -8.352611063247964429e-01
4.594871794871794868e-01 6.250636416454659061e-01 2.053911080310133475e-02 -7.802952921487852356e-01
5.251282051282051277e-01 6.941552215921062974e-01 1.120507239608505706e-02 -7.197279273869614524e-01
5.907692307692307132e-01 7.558985336300101388e-01 -2.442591474909883154e-03 -6.546716936366578921e-01
6.564102564102564097e-01 8.098119824424699909e-01 -2.059137711668640458e-02 -5.863126755096703668e-01
7.220512820512821062e-01 8.555442627020929391e-01 -4.332336450781487658e-02 -5.158950458669795402e-01
7.876923076923076916e-01 8.928855573743046392e-01 -7.061108485799533208e-02 -4.446896049631605674e-01
8.533333333333332771e-01 9.217679001919978354e-01 -1.023165466213373231e-01 -3.739701134553486961e-01
9.189743589743589736e-01 9.422640985311272477e-01 -1.381928707401607892e-01 -3.049896460179267743e-01
9.846153846153846700e-01 9.545845690461440824e-01 -1.778901011605362736e-01 -2.389568654671621328e-01
1.050256410256410255e+00 9.590734143904855458e-01 -2.209580298179757429e-01 -1.770092479906749949e-01
1.115897435897435841e+00 9.561986354655258591e-01 -2.668603357300206591e-01 -1.201914556143206525e-01
1.181538461538461426e+00 9.465432302674174903e-01 -3.149765496554583488e-01 -6.943904750145782345e-02
1.247179487179487234e+00 9.307910315118601563e-01 -3.646246581818115007e-01 -2.555268104755006875e-02
1.312820512820512819e+00 9.097142548325442002e-01 -4.150652544178154435e-01 1.080849519521664276e-02
1.378461538461538405e+00 8.841563028959171788e-01 -4.655223823674032868e-01 3.914820156617464936e-02
1.444102564102564212e+00 8.550155090209623499e-01 -5.151969650032819370e-01 5.913236908779878620e-02
1.509743589743589798e+00 8.232267926697254268e-01 -5.632837316276796402e-01 7.060580894870392699e-02
1.575384615384615383e+00 7.897429585679176522e-01 -6.089886482641262422e-01 7.358661105253036516e-02
1.641025641025640969e+00 7.555162675547858475e-01 -6.515449173044823850e-01 6.826774043037006634e-02
1.706666666666666554e+00 7.214801676032626121e-01 -6.902289853920248186e-01 5.501257549131290808e-02
1.772307692307692362e+00 6.885315605834112507e-01 -7.243760638961302956e-01 3.434594888585800615e-02
1.837948717948717947e+00 6.575125575217426466e-01 -7.533956814680260461e-01 6.942668935262115079e-03
1.903589743589743533e+00 6.291965370471519492e-01 -7.767828395280278464e-01 -2.638492947594636706e-02
1.969230769230769340e+00 6.042737633624964966e-01 -7.941300076065443969e-01 -6.470576091108422301e-02
2.034871794871794926e+00 5.833363904206321227e-01 -8.051383498924559179e-01 -1.069911309783447562e-01
2.100512820512820511e+00 5.668711393038848856e-01 -8.096228627693786706e-01 -1.521326212775421516e-01
2.166153846153846096e+00 5.552524017235933584e-01 -8.075166970351639328e-01 -1.989679275853696583e-01
2.231794871794871682e+00 5.487297848497949548e-01 -7.988781992687812306e-01 -2.463052619191475612e-01
2.297435897435897267e+00 5.474339554085165815e-01 -7.838868608338455113e-01 -2.929418339860572762e-01
2.363076923076922853e+00 5.513701970992319623e-01 -7.628415434397703976e-01 -3.377005014828550200e-01
2.428717948717948882e+00 5.604204536626294919e-01 -7.361589440198795797e-01 -3.794435199180611340e-01
2.494358974358974468e+00 5.743519814156172743e-01 -7.043622762543538807e-01 -4.171001875723922003e-01
2.560000000000000053e+00 5.928168468070602604e-01 -6.680771606935698159e-01 -4.496894061888136451e-01
