0.000000000000000000e+00 -2.942786988643798054e-10 -3.967735248306802155e-09 -1.000000000000000000e+00
6.564102564102564097e-02 -5.729403641935790215e-03 2.261546572495425761e-02 -9.997276365535470166e-01
1.312820512820512819e-01 -1.147707296811895789e-02 4.519776487395815723e-02 -9.989117816157909724e-01
1.969230769230769229e-01 -1.721568945428850542e-02 6.770465425460424347e-02 -9.975563600867968228e-01
2.625641025641025639e-01 -2.294198541282006440e-02 9.010202213274437488e-02 -9.956675984751862662e-01
3.282051282051282048e-01 -2.864991742552838727e-02 1.123528917727191073e-01 -9.932544328603242212e-01
3.938461538461538458e-01 -3.433857334453349619e-02 1.344249144284298814e-01 -9.903276444407560497e-01
4.594871794871794868e-01 -4.000208307660489682e-02 1.562866913372018829e-01 -9.869002073700197109e-01
5.251282051282051277e-01 -4.563905521300846979e-02 1.779080605133952775e-01 -9.829868719451196890e-01
5.907692307692307132e-01 -5.124509386708084313e-02 1.992615286899619420e-01 -9.786040300644536227e-01
6.564102564102564097e-01 -5.681760230529428468e-02 2.203209925979557893e-01 -9.737695590402531964e-01
7.220512820512821062e-01 -6.235404760684225278e-02 2.410649809989230119e-01 -9.685019617810186610e-01
7.876923076923076916e-01 -6.785181963729042254e-02 2.614719988662181360e-01 -9.628211643233767214e-01
8.533333333333332771e-01 -7.330773397423703819e-02 2.815252216597148860e-01 -9.567472303919614118e-01
9.189743589743589736e-01 -7.872249377819755256e-02 3.012109553811909701e-01 -9.503000222270077124e-01
9.846153846153846700e-01 -8.408886254122084625e-02 3.205144074352621608e-01 -9.435012702492818759e-01
1.050256410256410255e+00 -8.940766358620091947e-02 3.394275176672824634e-01 -9.363706341148216872e-01
1.115897435897435841e+00 -9.467505245818574888e-02 3.579393932006560974e-01 -9.289297220925665233e-01
1.181538461538461426e+00 -9.988961831414364112e-02 3.760485965697267785e-01 -9.211968248837955064e-01
1.247179487179487234e+00 -1.050457751463327871e-01 3.937478755174664280e-01 -9.131931553308647587e-01
1.312820512820512819e+00 -1.101410205248283536e-01 4.110362617472978486e-01 -9.049373266217748402e-01
1.378461538461538405e+00 -1.151715629764447357e-01 4.279110335382659280e-01 -8.964489683653239505e-01
1.444102564102564212e+00 -1.201325411666201853e-01 4.443755112634734106e-01 -8.877450935891590955e-01
1.509743589743589798e+00 -1.250214650663112603e-01 4.604305687538067238e-01 -8.788434340301304326e-01
1.575384615384615383e+00 -1.298332070790497172e-01 4.760782701257866290e-01 -8.697614388157484111e-01
1.641025641025640969e+00 -1.345609978171003474e-01 4.913203095298958600e-01 -8.605170078267425637e-01
1.706666666666666554e+00 -1.392053488783296933e-01 5.061627888344535364e-01 -8.511243315019340061e-01
1.772307692307692362e+00 -1.437582834100706031e-01 5.206094465145297834e-01 -8.416000129504654925e-01
1.837948717948717947e+00 -1.482154811768564007e-01 5.346622005684682488e-01 -8.319611939740366724e-01
1.903589743589743533e+00 -1.525757750005210800e-01 5.483287848285675059e-01 -8.222206573010018005e-01
1.969230769230769340e+00 -1.568343126018399702e-01 5.616136714612766090e-01 -8.123936410589253088e-01
2.034871794871794926e+00 -1.609871926659127150e-01 5.745209032702180973e-01 -8.024954327554021383e-01
2.100512820512820511e+00 -1.650370462567977148e-01 5.870580104558946744e-01 -7.925373491436037421e-01
2.166153846153846096e+00 -1.689784639548135292e-01 5.992282503545277583e-01 -7.825351738698315129e-01
2.231794871794871682e+00 -1.728127144232385892e-01 6.110397094664696827e-01 -7.724995063961891395e-01
2.297435897435897267e+00 -1.765387715925375578e-01 6.224959429633902808e-01 -7.624446532973288004e-01
2.363076923076922853e+00 -1.801577302273882908e-01 6.336068649743192838e-01 -7.523790689852171143e-01
2.428717948717948882e+00 -1.836736544653347902e-01 6.443761102367390192e-01 -7.423152295037768189e-01
2.494358974358974468e+00 -1.870872070020760392e-01 6.548125315961766946e-01 -7.322616770551678700e-01
2.560000000000000053e+00 -1.904015200121451090e-01 6.649225848387781967e-01 -7.222279538510156804e-01
