0.000000000000000000e+00 1.625667239340540328e-09 1.874812370104707492e-09 -1.000000000000000000e+00
6.564102564102564097e-02 -3.676925235846802142e-02 -1.071989929025742999e-01 -9.935566057383470318e-01
1.312820512820512819e-01 -7.178968044901914980e-02 -2.132652029482435818e-01 -9.743514965765767144e-01
1.969230769230769229e-01 -1.034013907067043159e-01 -3.170373708611244346e-01 -9.427567511900930564e-01
2.625641025641025639e-01 -1.300278027115928381e-01 -4.173720119088730751e-01 -8.993810710586018775e-01
3.282051282051282048e-01 -1.502425480241222910e-01 -5.131320606775325865e-01 -8.450524538736188251e-01
3.938461538461538458e-01 -1.628075122383389750e-01 -6.031889511035529727e-01 -7.807982147010704699e-01
4.594871794871794868e-01 -1.667219378214394865e-01 -6.864314422729296261e-01 -7.078155477385451588e-01
5.251282051282051277e-01 -1.612427903771220805e-01 -7.617778782167488050e-01 -6.274397660073572913e-01
5.907692307692307132e-01 -1.459192190441290782e-01 -8.281859256866618280e-01 -5.411095017675460195e-01
6.564102564102564097e-01 -1.206032678923860679e-01 -8.846687756094224753e-01 -4.503315457368922137e-01
7.220512820512821062e-01 -8.546438653427715360e-02 -9.303149575718890896e-01 -3.566388565125419574e-01
7.876923076923076916e-01 -4.098773240935721374e-02 -9.643073960897798891e-01 -2.615564062404595602e-01
8.533333333333332771e-01 1.203900587951493850e-02 -9.859483218816302852e-01 -1.665559518109520909e-01
9.189743589743589736e-01 7.253043591075164498e-02 -9.946782937226070764e-01 -7.303443099424056228e-02
9.846153846153846700e-01 1.391446287969764217e-01 -9.901031313721464500e-01 1.772262925440162840e-02
1.050256410256410255e+00 2.103031112952475912e-01 -9.720157465829645238e-01 1.045833403127107292e-01
1.115897435897435841e+00 2.842396285584568583e-01 -9.404168295809921529e-01 1.865584065820826976e-01
1.181538461538461426e+00 3.590434143725470539e-01 -8.955312331806032367e-01 2.628538723157647361e-01
1.247179487179487234e+00 4.327099906566131970e-01 -8.378248286780126675e-01 3.328554474450088896e-01
1.312820512820512819e+00 5.032004547771266045e-01 -7.680109443426162974e-01 3.961442664551196868e-01
1.378461538461538405e+00 5.684897366425383236e-01 -6.870529522553912027e-01 4.525043378035920605e-01
1.444102564102564212e+00 6.266386795003305865e-01 -5.961629504542900193e-01 5.018933289390563601e-01
1.509743589743589798e+00 6.758365331552176336e-01 -4.967942004668799982e-01 5.444487365181054361e-01
1.575384615384615383e+00 7.144670400079822237e-01 -3.906109041623028189e-01 5.804692118830007130e-01
1.641025641025640969e+00 7.411496168546468644e-01 -2.794806276887107366e-01 6.103875189827694392e-01
1.706666666666666554e+00 7.547925856340211848e-01 -1.654264319248074933e-01 6.347502017207481417e-01
1.772307692307692362e+00 7.546226712114258994e-01 -5.060051958552741480e-02 6.541943195529853483e-01
1.837948717948717947e+00 7.402224754988109279e-01 6.277549161595424865e-02 6.694148500372353316e-01
1.903589743589743533e+00 7.115424392726814595e-01 1.724416534611979412e-01 6.811444582805695758e-01
1.969230769230769340e+00 6.689182335143721847e-01 2.761718465663067223e-01 6.901190222811078856e-01
2.034871794871794926e+00 6.130660943377688188e-01 3.718169070437908896e-01 6.970574460868351752e-01
2.100512820512820511e+00 5.450731604053962176e-01 4.573644577769472863e-01 7.026379281452741488e-01
2.166153846153846096e+00 4.663710094922096649e-01 5.309983969392965131e-01 7.074785953054647525e-01
2.231794871794871682e+00 3.787109548473540088e-01 5.911449777714401499e-01 7.121185948401507204e-01
2.297435897435897267e+00 2.841090401448436165e-01 6.365273757342116978e-01 7.170093089862251690e-01
2.363076923076922853e+00 1.848098908379872118e-01 6.661970289354725017e-01 7.225056044076817452e-01
2.428717948717948882e+00 8.321875327632011210e-02 6.795805906257750273e-01 7.288570168962478224e-01
2.494358974358974468e+00 -1.816881596275965460e-02 6.764939298285730374e-01 7.362158155027513917e-01
2.560000000000000053e+00 -1.168169709861745786e-01 6.571600529749404007e-01 7.446358719578158869e-01
