0.000000000000000000e+00 6.379228916012065346e-13 -3.270735356879043190e-13 -1.000000000000000000e+00
6.564102564102564097e-02 -3.046617102089000176e-02 1.558402673054525359e-02 -9.994143037313484301e-01
1.312820512820512819e-01 -6.081267205765284595e-02 3.088753939647909466e-02 -9.976711776829364497e-01
1.969230769230769229e-01 -9.091950875832888190e-02 4.563646697501076710e-02 -9.948120202894999986e-01
2.625641025641025639e-01 -1.206614642406499821e-01 5.956428256012781530e-02 -9.909050949973045030e-01
3.282051282051282048e-01 -1.499129680741231319e-01 7.242131462188544644e-02 -9.860432318979169830e-01
3.938461538461538458e-01 -1.785379889466821579e-01 8.397554264212322983e-02 -9.803429474832611179e-01
4.594871794871794868e-01 -2.063986625547469811e-01 9.401818224863051077e-02 -9.739405389489562692e-01
5.251282051282051277e-01 -2.333490724061394739e-01 1.023684748614384632e-01 -9.669896097984624905e-01
5.907692307692307132e-01 -2.592331940493769471e-01 1.088741123936623201e-01 -9.596585739977495644e-01
6.564102564102564097e-01 -2.838934665267843216e-01 1.134189556795605069e-01 -9.521242776249136952e-01
7.220512820512821062e-01 -3.071630326397379873e-01 1.159227710539082884e-01 -9.445701572451711270e-01
7.876923076923076916e-01 -3.288676949757856627e-01 1.163397449638111092e-01 -9.371825343471087422e-01
8.533333333333332771e-01 -3.488338007779381300e-01 1.146669485279887407e-01 -9.301432523841078881e-01
9.189743589743589736e-01 -3.668843261068130968e-01 1.109396098095185995e-01 -9.236277896909265150e-01
9.846153846153846700e-01 -3.828405474856119706e-01 1.052338276475103113e-01 -9.178011529765026655e-01
1.050256410256410255e+00 -3.965279350806986680e-01 9.766251626806764230e-02 -9.128130308628727985e-01
1.115897435897435841e+00 -4.077772352973739745e-01 8.838112119167133851e-02 -9.087939830826403664e-01
1.181538461538461426e+00 -4.164294996569160023e-01 7.757847922183169764e-02 -9.058521130663288456e-01
1.247179487179487234e+00 -4.223342937519903306e-01 6.547786067377496522e-02 -9.040721176417353400e-01
1.312820512820512819e+00 -4.253610519622101904e-01 5.233322562122767752e-02 -9.035093849825740486e-01
1.378461538461538405e+00 -4.253964669605570514e-01 3.842713956405362230e-02 -9.041909094156694859e-01
1.444102564102564212e+00 -4.223508837743194522e-01 2.406412176590019825e-02 -9.061129337276072615e-01
1.509743589743589798e+00 -4.161590101346034354e-01 9.569049004504504019e-03 -9.092415032845393430e-01
1.575384615384615383e+00 -4.067876403247939754e-01 -4.719796081935553889e-03 -9.135105577147454303e-01
1.641025641025640969e+00 -3.942354094401073206e-01 -1.845676568274255691e-02 -9.188241341538077034e-01
1.706666666666666554e+00 -3.785348779452233914e-01 -3.128886329479149686e-02 -9.250580267715924343e-01
1.772307692307692362e+00 -3.597587262897004035e-01 -4.286952286257553202e-02 -9.320600102037108758e-01
1.837948717948717947e+00 -3.380182855349520565e-01 -5.285358277150635498e-02 -9.396542646330067194e-01
1.903589743589743533e+00 -3.134619526834963588e-01 -6.091726855085435877e-02 -9.476448123552387859e-01
1.969230769230769340e+00 -2.862831154245853993e-01 -6.674787918332578118e-02 -9.558172934870160509e-01
2.034871794871794926e+00 -2.567143883987507147e-01 -7.006195298952244688e-02 -9.639445239992502357e-01
2.100512820512820511e+00 -2.250283073539292578e-01 -7.060257280188383944e-02 -9.717908915781136026e-01
2.166153846153846096e+00 -1.915336677289601053e-01 -6.814388677052664323e-02 -9.791175950615615964e-01
2.231794871794871682e+00 -1.565786973681087546e-01 -6.250667016124533681e-02 -9.856855622791447225e-01
2.297435897435897267e+00 -1.205414550300857313e-01 -5.354516257120223166e-02 -9.912631704444678782e-01
2.363076923076922853e+00 -8.382906145535810871e-02 -4.116253359244739785e-02 -9.956296169306372290e-01
2.428717948717948882e+00 -4.687428332248587404e-02 -2.530996549948897820e-02 -9.985800956255715954e-01
2.494358974358974468e+00 -1.012719969861510146e-02 -5.988616990901994563e-03 -9.999307857054281490e-01
2.560000000000000053e+00 2.594691518511754377e-02 1.674869613736785362e-02 -9.995230055059991514e-01
