0.000000000000000000e+00 -1.523476536297428001e-09 -3.052762353921464385e-09 -1.000000000000000000e+00
6.564102564102564097e-02 7.298403498245930807e-03 -5.880531032762241310e-03 -9.999559633400413317e-01
1.312820512820512819e-01 1.462773241426866544e-02 -1.172465508616021140e-02 -9.998240574083532284e-01
1.969230769230769229e-01 2.196367666792377674e-02 -1.752156470245188474e-02 -9.996049181528691152e-01
2.625641025641025639e-01 2.931035249685976299e-02 -2.325137830415828846e-02 -9.992995041641999920e-01
3.282051282051282048e-01 3.667036339666367856e-02 -2.889102748712525648e-02 -9.989092250432477504e-01
3.938461538461538458e-01 4.404839821025599567e-02 -3.442153997933421194e-02 -9.984356614771505711e-01
4.594871794871794868e-01 5.144933789894297338e-02 -3.982340042433700489e-02 -9.978806364413242980e-01
5.251282051282051277e-01 5.887690928928757117e-02 -4.507916713145619647e-02 -9.972461633192146735e-01
5.907692307692307132e-01 6.633551424535896746e-02 -5.017300894827203539e-02 -9.965343101816966920e-01
6.564102564102564097e-01 7.383128751836443016e-02 -5.509216521511030307e-02 -9.957469502350065893e-01
7.220512820512821062e-01 8.136866927745708966e-02 -5.982318283464065772e-02 -9.948861007336599060e-01
7.876923076923076916e-01 8.895233613217455593e-02 -6.435865850491626072e-02 -9.939533713635625434e-01
8.533333333333332771e-01 9.658741932114872641e-02 -6.869056801901440856e-02 -9.929502351808024985e-01
9.189743589743589736e-01 1.042784019577919774e-01 -7.281329422077595370e-02 -9.918778987672149938e-01
9.846153846153846700e-01 1.120298497091859330e-01 -7.672601409259453831e-02 -9.907369944608875878e-01
1.050256410256410255e+00 1.198457110048211788e-01 -8.042760521917753647e-02 -9.895279682502802210e-01
1.115897435897435841e+00 1.277285467210265979e-01 -8.391914635746226814e-02 -9.882509919566185852e-01
1.181538461538461426e+00 1.356793907224174145e-01 -8.720588316105505611e-02 -9.869058201807895392e-01
1.247179487179487234e+00 1.437007843117640293e-01 -9.029391001107880954e-02 -9.854916481522369986e-01
1.312820512820512819e+00 1.517907120037408908e-01 -9.319072119129397092e-02 -9.840079244329869024e-01
1.378461538461538405e+00 1.599483714051260774e-01 -9.590646005502841132e-02 -9.824534731953105116e-01
1.444102564102564212e+00 1.681698801533600129e-01 -9.845050041574981980e-02 -9.808274965744667728e-01
1.509743589743589798e+00 1.764502659823957709e-01 -1.008355353724995074e-01 -9.791289571935615221e-01
1.575384615384615383e+00 1.847826658473114281e-01 -1.030743974379293160e-01 -9.773570888824828495e-01
1.641025641025640969e+00 1.931582360314871571e-01 -1.051799671076193293e-01 -9.755115279374109161e-01
1.706666666666666554e+00 2.015665539570041798e-01 -1.071655148975514116e-01 -9.735923034612907756e-01
1.772307692307692362e+00 2.099967044496995339e-01 -1.090422374280853035e-01 -9.715999669174332221e-01
1.837948717948717947e+00 2.184343782417953461e-01 -1.108233448855808351e-01 -9.695358438914778443e-01
1.903589743589743533e+00 2.268652302421493017e-01 -1.125202834511687400e-01 -9.674018399459798356e-01
1.969230769230769340e+00 2.352729110403820600e-01 -1.141433916270923610e-01 -9.652008762954399357e-01
2.034871794871794926e+00 2.436409862505577728e-01 -1.157010773703580631e-01 -9.629366228931556249e-01
2.100512820512820511e+00 2.519525194413171354e-01 -1.172007736953734058e-01 -9.606135210335631225e-01
2.166153846153846096e+00 2.601895711287336432e-01 -1.186462450877155822e-01 -9.582372923087701944e-01
2.231794871794871682e+00 2.683338227128365672e-01 -1.200414520730417461e-01 -9.558143565466901137e-01
2.297435897435897267e+00 2.763684542937706601e-01 -1.213858956249651982e-01 -9.533518972672974101e-01
2.363076923076922853e+00 2.842772601455680337e-01 -1.226797020667238225e-01 -9.508574309991233431e-01
2.428717948717948882e+00 2.920447648000769059e-01 -1.239172778127287655e-01 -9.483395565005071637e-01
2.494358974358974468e+00 2.996571137697702225e-01 -1.250941769049127295e-01 -9.458067670688367068e-01
2.560000000000000053e+00 3.071027362023500129e-01 -1.262011786912854705e-01 -9.432679277534142814e-01
