0.000000000000000000e+00 3.449824237544978247e-09 -3.167208974818723316e-09 -1.000000000000000000e+00
6.564102564102564097e-02 -2.397335529899934786e-02 -1.107655856378273462e-01 -9.935566694995436876e-01
1.312820512820512819e-01 -4.627191621562078139e-02 -2.202112036139396156e-01 -9.743526589898375834e-01
1.969230769230769229e-01 -6.530775741834718429e-02 -3.270021703272507629e-01 -9.427619624412012511e-01
2.625641025641025639e-01 -7.959241099360275795e-02 -4.298204642196218894e-01 -8.993961590952829210e-01
3.282051282051282048e-01 -8.779112556565976666e-02 -5.273640403560766465e-01 -8.450871436491829147e-01
3.938461538461538458e-01 -8.878326712524645115e-02 -6.183550043542366259e-01 -7.808619399201703892e-01
4.594871794871794868e-01 -8.169172150417408629e-02 -7.015468509437512434e-01 -7.079178347497729895e-01
5.251282051282051277e-01 -6.592161316729050480e-02 -7.757438653482149338e-01 -6.275854614590828939e-01
5.907692307692307132e-01 -4.118314235982684091e-02 -8.398181337145407266e-01 -5.412908887611430631e-01
6.564102564102564097e-01 -7.510695462065286598e-03 -8.927234026705082037e-01 -4.505260646734894903e-01
7.220512820512821062e-01 3.473541954631498285e-02 -9.335287866020952618e-01 -3.567936224512977539e-01
7.876923076923076916e-01 8.487113629509213109e-02 -9.614304680988005058e-01 -2.615948868721250098e-01
8.533333333333332771e-01 1.419035075193970652e-01 -9.757925214870263320e-01 -1.663592449970012210e-01
9.189743589743589736e-01 2.045545297320207345e-01 -9.761624967960234045e-01 -7.243612233466185935e-02
9.846153846153846700e-01 2.712931587647713361e-01 -9.623013374566319333e-01 1.894382773043502832e-02
1.050256410256410255e+00 3.403788916480228188e-01 -9.342063952806122229e-01 1.066933230838599950e-01
1.115897435897435841e+00 4.099145607635389932e-01 -8.921304453550237268e-01 1.898854211028339622e-01
1.181538461538461426e+00 4.778976618657060360e-01 -8.365965447726992910e-01 2.677753120886347538e-01
1.247179487179487234e+00 5.422790738467158089e-01 -7.684110399170758221e-01 3.397969975099097151e-01
1.312820512820512819e+00 6.010381047168098512e-01 -6.886567863762066422e-01 4.055733522517727674e-01
1.378461538461538405e+00 6.522334298743617254e-01 -5.986926783288701870e-01 4.649128972640727553e-01
1.444102564102564212e+00 6.940731404380345859e-01 -5.001448517888836820e-01 5.177872590840681966e-01
1.509743589743589798e+00 7.249788233356526668e-01 -3.948686649465741882e-01 5.643324811592176360e-01
1.575384615384615383e+00 7.436392165853392688e-01 -2.849290277014409623e-01 6.048168919251897258e-01
1.641025641025640969e+00 7.490524885890006423e-01 -1.725540759391403500e-01 6.396353195010452408e-01
1.706666666666666554e+00 7.405796029886898557e-01 -6.008543269715482804e-02 6.692682625722743417e-01
1.772307692307692362e+00 7.179624532385746605e-01 5.007269995002566754e-02 6.942704940598818375e-01
1.837948717948717947e+00 6.813540667269012419e-01 1.555214214323444311e-01 7.152335376524895372e-01
1.903589743589743533e+00 6.313132891466913810e-01 2.539176072649532712e-01 7.327749129130612937e-01
1.969230769230769340e+00 5.688175596172764248e-01 3.430552900863273469e-01 7.474955909042656499e-01
2.034871794871794926e+00 4.952117913566190244e-01 4.209272881310145986e-01 7.599840547955779568e-01
2.100512820512820511e+00 4.122114207030120880e-01 4.857691645538375624e-01 7.707792142333256269e-01
2.166153846153846096e+00 3.218362533167196116e-01 5.361451518246628245e-01 7.803592396441652035e-01
2.231794871794871682e+00 2.263606300836627505e-01 5.709716424674976532e-01 7.891408064870497618e-01
2.297435897435897267e+00 1.282431551949431703e-01 5.895791514754218365e-01 7.974592698633242716e-01
2.363076923076922853e+00 3.006588053612138656e-02 5.917247703735029063e-01 8.055738328287906924e-01
2.428717948717948882e+00 -6.555338209340841327e-02 5.776162329870740963e-01 8.136668852690794873e-01
2.494358974358974468e+00 -1.560426313101598295e-01 5.479153771879775592e-01 8.218462004172453206e-01
2.560000000000000053e+00 -2.389553658987192408e-01 5.037215509463663921e-01 8.301547612341333426e-01
