0.000000000000000000e+00 -2.390866352373835190e-13 -4.063040820998440473e-13 -1.000000000000000000e+00
6.564102564102564097e-02 2.432158502018741397e-02 4.122810297128264717e-02 -9.988536949950120869e-01
1.312820512820512819e-01 4.874090572489262613e-02 8.199903296656323171e-02 -9.954398438218162726e-01
1.969230769230769229e-01 7.334962045475953984e-02 1.218622837732911690e-01 -9.898330247772383350e-01
2.625641025641025639e-01 9.822794439294565971e-02 1.603782481892378764e-01 -9.821558371338451332e-01
3.282051282051282048e-01 1.234393265744063994e-01 1.971249940336048945e-01 -9.725762022998990508e-01
3.938461538461538458e-01 1.490238156859484409e-01 2.317019092952677384e-01 -9.613043886062768717e-01
4.594871794871794868e-01 1.749971900186742257e-01 2.637394435531401626e-01 -9.485871015524660610e-01
5.251282051282051277e-01 2.013416373097633993e-01 2.928964166839379546e-01 -9.347048913963605932e-01
5.907692307692307132e-01 2.280086901658648357e-01 3.188721398806780294e-01 -9.199633663475038636e-01
6.564102564102564097e-01 2.549119012412373597e-01 3.414056594094526664e-01 -9.046889510512259314e-01
7.220512820512821062e-01 2.819308796247798066e-01 3.602810377678671294e-01 -8.892201935897141585e-01
7.876923076923076916e-01 3.089039693850259560e-01 3.753304731062233057e-01 -8.739023819249178704e-01
8.533333333333332771e-01 3.356361737112278365e-01 3.864358864357892998e-01 -8.590783806967362546e-01
9.189743589743589736e-01 3.618951897700641296e-01 3.935311767917999415e-01 -8.450828859921434288e-01
9.846153846153846700e-01 3.874172177841205822e-01 3.966048174297640561e-01 -8.322334514476888989e-01
1.050256410256410255e+00 4.119098962164833289e-01 3.956987247977442612e-01 -8.208244368039666616e-01
1.115897435897435841e+00 4.350554285322061898e-01 3.909073083477160315e-01 -8.111215999822880551e-01
1.181538461538461426e+00 4.565195718671371528e-01 3.823801673162696702e-01 -8.033525302156833137e-01
1.247179487179487234e+00 4.759516009683145144e-01 3.703160521257864435e-01 -7.977067724789407288e-01
1.312820512820512819e+00 4.929985139152834872e-01 3.549670150640858446e-01 -7.943241675936331125e-01
1.378461538461538405e+00 5.073051082719077787e-01 3.366270790781697997e-01 -7.932992727200511851e-01
1.444102564102564212e+00 5.185252944061635727e-01 3.156379360393321010e-01 -7.946723927401730947e-01
1.509743589743589798e+00 5.263303168741967353e-01 2.923769853576093092e-01 -7.984310209386338286e-01
1.575384615384615383e+00 5.304145412351237709e-01 2.672602605706485002e-01 -8.045075307105060691e-01
1.641025641025640969e+00 5.305043875687094346e-01 2.407297324425933804e-01 -8.127818219894408225e-01
1.706666666666666554e+00 5.263637392591851150e-01 2.132551228138716282e-01 -8.230816886588047110e-01
1.772307692307692362e+00 5.178041155144048613e-01 1.853204267703632557e-01 -8.351857500651913568e-01
1.837948717948717947e+00 5.046891286657908537e-01 1.574252861227778133e-01 -8.488263438051621979e-01
1.903589743589743533e+00 4.869401429415789462e-01 1.300724981110027156e-01 -8.636958040983616636e-01
1.969230769230769340e+00 4.645405803174517123e-01 1.037658004497056113e-01 -8.794513673917636609e-01
2.034871794871794926e+00 4.375411101369185429e-01 7.899768423001683748e-02 -8.957215764968716742e-01
2.100512820512820511e+00 4.060618128871651411e-01 5.624681322871397104e-02 -9.121129862988682779e-01
2.166153846153846096e+00 3.702906513400816557e-01 3.597249755303832952e-02 -9.282191619743873634e-01
2.231794871794871682e+00 3.304921306529274849e-01 1.860397088689391687e-02 -9.436253727492820431e-01
2.297435897435897267e+00 2.869963290082241936e-01 4.534464361284420986e-03 -9.579209496705191063e-01
2.363076923076922853e+00 2.402035503649588566e-01 -5.881056955486740900e-03 -9.707047272638191782e-01
2.428717948717948882e+00 1.905754124684540252e-01 -1.233523313146478451e-02 -9.815950560729573837e-01
2.494358974358974468e+00 1.386331929598738633e-01 -1.457049554589906135e-02 -9.902366071294776972e-01
2.560000000000000053e+00 8.495481982785486885e-02 -1.238573865890405662e-02 -9.963078199713156780e-01
