0.000000000000000000e+00 -2.624265865260909476e-09 -1.199071635133131432e-09 -1.000000000000000000e+00
6.564102564102564097e-02 1.381415839875971968e-02 6.222534219244409137e-03 -9.998850851740610501e-01
1.312820512820512819e-01 2.756318437585300249e-02 1.258787132639055742e-02 -9.995405544111205520e-01
1.969230769230769229e-01 4.117997810721494428e-02 1.918635437192718965e-02 -9.989671536146582653e-01
2.625641025641025639e-01 5.459438118095678860e-02 2.613325761213751430e-02 -9.981661023691733581e-01
3.282051282051282048e-01 6.773186436449628312e-02 3.353949079904641056e-02 -9.971390776786979160e-01
3.938461538461538458e-01 8.051522970940711010e-02 4.150732417147240394e-02 -9.958880784559209776e-01
4.594871794871794868e-01 9.285581293288994176e-02 5.013654002613466415e-02 -9.944156730888918938e-01
5.251282051282051277e-01 1.046581443696133623e-01 5.951501613410723618e-02 -9.927249497032557546e-01
5.907692307692307132e-01 1.158212903119024417e-01 6.972233609007694177e-02 -9.908189502663860004e-01
6.564102564102564097e-01 1.262311762094276146e-01 8.082539814585007476e-02 -9.887015169541023552e-01
7.220512820512821062e-01 1.357680269225086389e-01 9.287578145464381318e-02 -9.863765252317071575e-01
7.876923076923076916e-01 1.442986517298185389e-01 1.059135115039878255e-01 -9.838483238316396706e-01
8.533333333333332771e-01 1.516838857115251626e-01 1.199601127997754757e-01 -9.811211148926610726e-01
9.189743589743589736e-01 1.577787327484979074e-01 1.350113299819704904e-01 -9.781997038680326773e-01
9.846153846153846700e-01 1.624235697821278246e-01 1.510474442560892916e-01 -9.750896719515895761e-01
1.050256410256410255e+00 1.654607587468878427e-01 1.680265054317517659e-01 -9.717953589262204872e-01
1.115897435897435841e+00 1.667258945433666151e-01 1.858777077369129782e-01 -9.683223229184402259e-01
1.181538461538461426e+00 1.660542904142604526e-01 2.045038427375915624e-01 -9.646761543063202549e-01
1.247179487179487234e+00 1.632851711087985047e-01 2.237810979794674915e-01 -9.608619398647746390e-01
1.312820512820512819e+00 1.582603207026809511e-01 2.435513260711689720e-01 -9.568865605576829525e-01
1.378461538461538405e+00 1.508321304028692189e-01 2.636340162961949840e-01 -9.527549598043548729e-01
1.444102564102564212e+00 1.408645845321932211e-01 2.838137799025131636e-01 -9.484734678765628368e-01
1.509743589743589798e+00 1.282422605500506130e-01 3.038448540833823541e-01 -9.440482114787991375e-01
1.575384615384615383e+00 1.128721696294452959e-01 3.234553144113581635e-01 -9.394844727797799777e-01
1.641025641025640969e+00 9.468402454809665691e-02 3.423388372846877803e-01 -9.347905569077580301e-01
1.706666666666666554e+00 7.364206158576448724e-02 3.601753861313413685e-01 -9.299702317021028009e-01
1.772307692307692362e+00 4.975064226013788116e-02 3.766089974225902415e-01 -9.250321128139848970e-01
1.837948717948717947e+00 2.304968147654945509e-02 3.912781016285539759e-01 -9.199803198060608755e-01
1.903589743589743533e+00 -6.373073615009383630e-03 4.037949983542881705e-01 -9.148236997010844584e-01
1.969230769230769340e+00 -3.837491132672588012e-02 4.137739931639567992e-01 -9.095667279199811661e-01
2.034871794871794926e+00 -7.276387127357145101e-02 4.208239761720589667e-01 -9.042154325360882705e-01
2.100512820512820511e+00 -1.092905687640289836e-01 4.245536574702398203e-01 -8.987783483371286630e-01
2.166153846153846096e+00 -1.476496368992629149e-01 4.245961639450684943e-01 -8.932582089458769303e-01
2.231794871794871682e+00 -1.874721143538141677e-01 4.205984630052229112e-01 -8.876617908235653331e-01
2.297435897435897267e+00 -2.283333126293943804e-01 4.122368042595213056e-01 -8.819959303129538686e-01
2.363076923076922853e+00 -2.697468474542210615e-01 3.992330729726090155e-01 -8.762656493560629922e-01
2.428717948717948882e+00 -3.111805592339656479e-01 3.813584472267895764e-01 -8.704734719269695553e-01
2.494358974358974468e+00 -3.520418967923502063e-01 3.584367200180114676e-01 -8.646277148206150676e-01
2.560000000000000053e+00 -3.917015364480006534e-01 3.303680105096192809e-01 -8.587305347686938761e-01
