0.000000000000000000e+00 -2.589186696054245093e-09 4.601980428954784005e-10 -1.000000000000000000e+00
6.564102564102564097e-02 1.279887114029075734e-01 2.687050100889575716e-02 -9.914110797028136135e-01
1.312820512820512819e-01 2.533661582859860761e-01 5.435163577781632060e-02 -9.658413863498526153e-01
1.969230769230769229e-01 3.735862315977881432e-01 8.298262468272252224e-02 -9.238745912633168356e-01
2.625641025641025639e-01 4.862327466288187128e-01 1.132111773358018270e-01 -8.664622782101607523e-01
3.282051282051282048e-01 5.890808407740173447e-01 1.453413934027135146e-01 -7.948927417302004139e-01
3.938461538461538458e-01 6.801592730003209741e-01 1.795063530647071637e-01 -7.107422625372873393e-01
4.594871794871794868e-01 7.577911714426834866e-01 2.156263124544410825e-01 -6.158332442309522037e-01
5.251282051282051277e-01 8.206484518361064628e-01 2.534174342632016241e-01 -5.121597198061034195e-01
5.907692307692307132e-01 8.677702621675816852e-01 2.923818706513164889e-01 -4.018441543107990621e-01
6.564102564102564097e-01 8.986051967466859303e-01 3.318157747166216032e-01 -2.870496649484342577e-01
7.220512820512821062e-01 9.130091459693853162e-01 3.708439536072482001e-01 -1.699388698179704060e-01
7.876923076923076916e-01 9.112572104454330635e-01 4.084549860148991018e-01 -5.258130227117321226e-02
8.533333333333332771e-01 8.940268073479482602e-01 4.435410612064346059e-01 6.306645569128546680e-02
9.189743589743589736e-01 8.623775726817998200e-01 4.749600615883408095e-01 1.752370663392035510e-01
9.846153846153846700e-01 8.177176187569163979e-01 5.015845394434199633e-01 2.823851666657977155e-01
1.050256410256410255e+00 7.617583694061513810e-01 5.223696650640109462e-01 3.832037360129681436e-01
1.115897435897435841e+00 6.964572253671581503e-01 5.363963623417420390e-01 4.766737652272634018e-01
1.181538461538461426e+00 6.239586001707971841e-01 5.429392018577098300e-01 5.620364424441720574e-01
1.247179487179487234e+00 5.465286543893655979e-01 5.414936133896643966e-01 6.388145894312229345e-01
1.312820512820512819e+00 4.664652748728790876e-01 5.318260078316169315e-01 7.067990740001200978e-01
1.378461538461538405e+00 3.860513482271631380e-01 5.139745905313165553e-01 7.660214819989206170e-01
1.444102564102564212e+00 3.074503665383094275e-01 4.882860616038117163e-01 8.167289233759125189e-01
1.509743589743589798e+00 2.326688243915354115e-01 4.553779251187649590e-01 8.593555698359919282e-01
1.575384615384615383e+00 1.634712348560119766e-01 4.161394398953015550e-01 8.944839707312679522e-01
1.641025641025640969e+00 1.013392246032594479e-01 3.716943966224199869e-01 9.228058577381748062e-01
1.706666666666666554e+00 4.742125102132672965e-02 3.233479323425281216e-01 9.450898714761939434e-01
1.772307692307692362e+00 2.518955640815681574e-03 2.725421854982706948e-01 9.621394883578250345e-01
1.837948717948717947e+00 -3.294417717512926336e-02 2.207911498093808877e-01 9.747637279993429660e-01
1.903589743589743533e+00 -5.891336203091702972e-02 1.696136004863261215e-01 9.837475031909010958e-01
1.969230769230769340e+00 -7.568100153542579867e-02 1.204745481418967729e-01 9.898268797201256186e-01
2.034871794871794926e+00 -8.387289025263150455e-02 7.471884723751709423e-02 9.936707833662251632e-01
2.100512820512820511e+00 -8.438632636661896891e-02 3.351326827512196571e-02 9.958690453786066543e-01
2.166153846153846096e+00 -7.835716672979796404e-02 -2.197852853660864358e-03 9.969226426140851416e-01
2.231794871794871682e+00 -6.708361009025096133e-02 -3.172406275751074589e-02 9.972426154812674692e-01
2.297435897435897267e+00 -5.196597465373758995e-02 -5.465576451624550719e-02 9.971518127397068776e-01
2.363076923076922853e+00 -3.443611099095935518e-02 -7.087895489498693968e-02 9.968900429954971054e-01
2.428717948717948882e+00 -1.589816204928676951e-02 -8.055474776036927742e-02 9.966230923184699053e-01
2.494358974358974468e+00 2.343364840611282529e-03 -8.411121751164531146e-02 9.964533123739516274e-01
2.560000000000000053e+00 1.913527714848690942e-02 -8.220958979416277679e-02 9.964310382347888462e-01
