0.000000000000000000e+00 -2.520805329588809122e-09 9.691584333076949132e-10 -1.000000000000000000e+00
6.564102564102564097e-02 -6.935795577479157703e-02 4.202661574085153617e-02 -9.967058283531631258e-01
1.312820512820512819e-01 -1.380743296989742075e-01 8.380163132464550635e-02 -9.868694587248669770e-01
1.969230769230769229e-01 -2.054980376529395858e-01 1.250932601257901122e-01 -9.706286884772338253e-01
2.625641025641025639e-01 -2.710148344987158842e-01 1.656729997105147179e-01 -9.482090762581000254e-01
3.282051282051282048e-01 -3.340499983056645084e-01 2.053216252007425691e-01 -9.199183974259251828e-01
3.938461538461538458e-01 -3.940768202365126927e-01 2.438366784527761233e-01 -8.861391217917216068e-01
4.594871794871794868e-01 -4.506286466849820371e-01 2.810376023304812509e-01 -8.473171004821741237e-01
5.251282051282051277e-01 -5.033031296668004639e-01 3.167628169427371687e-01 -8.039533788139604509e-01
5.907692307692307132e-01 -5.517704201723560020e-01 3.508733713800354370e-01 -7.565911947116501501e-01
6.564102564102564097e-01 -5.957777155756950327e-01 3.832551984170822212e-01 -7.058020659786539142e-01
7.220512820512821062e-01 -6.351433433633191239e-01 4.138236472232572072e-01 -6.521766491944865907e-01
7.876923076923076916e-01 -6.697687608971452100e-01 4.425127583680146248e-01 -5.963078464090720843e-01
8.533333333333332771e-01 -6.996271648708174418e-01 4.692837441913473295e-01 -5.387808174420407603e-01
9.189743589743589736e-01 -7.247622458315121641e-01 4.941222953834389364e-01 -4.801587943709650919e-01
9.846153846153846700e-01 -7.452794540756428887e-01 5.170317762323438648e-01 -4.209819688847732944e-01
1.050256410256410255e+00 -7.613412734907268886e-01 5.380383535891458680e-01 -3.617497969339513175e-01
1.115897435897435841e+00 -7.731626847332561114e-01 5.571809345097340493e-01 -3.029145570637314933e-01
1.181538461538461426e+00 -7.809922380475573522e-01 5.745161272717522749e-01 -2.448886194234311253e-01
1.247179487179487234e+00 -7.851169243715030444e-01 5.901090703219060707e-01 -1.880174654041226467e-01
1.312820512820512819e+00 -7.858385908751903681e-01 6.040371248908593671e-01 -1.326068602819696907e-01
1.378461538461538405e+00 -7.834765437550936795e-01 6.163820568071559647e-01 -7.890049621340011754e-02
1.444102564102564212e+00 -7.783553607925860485e-01 6.272295174941235896e-01 -2.708579446322659581e-02
1.509743589743589798e+00 -7.707924820309339786e-01 6.366724486127519622e-01 2.268741625984274646e-02
1.575384615384615383e+00 -7.611028761515983287e-01 6.447973980422362361e-01 7.033024726779248115e-02
1.641025641025640969e+00 -7.495825107548128585e-01 6.516959770280520425e-01 1.157847241130834925e-01
1.706666666666666554e+00 -7.365110807102235313e-01 6.574563785873364097e-01 1.590293202400075434e-01
1.772307692307692362e+00 -7.221446647366054350e-01 6.621639679336189799e-01 2.000846842631536782e-01
1.837948717948717947e+00 -7.067189613490970634e-01 6.659011847440918785e-01 2.389811416781683628e-01
1.903589743589743533e+00 -6.904434938277059786e-01 6.687459382058487112e-01 2.757804989119064798e-01
1.969230769230769340e+00 -6.735013123891134823e-01 6.707745963345351781e-01 3.105573001973719327e-01
2.034871794871794926e+00 -6.560576263309594314e-01 6.720570188122754196e-01 3.433895036270250278e-01
2.100512820512820511e+00 -6.382505530088666834e-01 6.726613081117011061e-01 3.743685336054614066e-01
2.166153846153846096e+00 -6.202001676851938150e-01 6.726490484968616901e-01 4.035889109870487990e-01
2.231794871794871682e+00 -6.020061754104186758e-01 6.720813168814283589e-01 4.311432329200557967e-01
2.297435897435897267e+00 -5.837567846643696434e-01 6.710129018054920014e-01 4.571204790375003046e-01
2.363076923076922853e+00 -5.655225643304300220e-01 6.694978295804193680e-01 4.816082715299791484e-01
2.428717948717948882e+00 -5.473665022803458902e-01 6.675813591296494431e-01 5.046928629542362099e-01
2.494358974358974468e+00 -5.293375751801894236e-01 6.653087475243456561e-01 5.264561260773404916e-01
2.560000000000000053e+00 -5.114839763704006614e-01 6.627210064182598170e-01 5.469691682581128145e-01
