0.000000000000000000e+00 1.525161127082766420e-09 -4.797624819554249107e-09 -1.000000000000000000e+00
6.564102564102564097e-02 -2.300663983106942048e-02 2.535823830287797093e-02 -9.994134364928995984e-01
1.312820512820512819e-01 -4.596542526470057122e-02 5.065612378719076131e-02 -9.976574089993057726e-01
1.969230769230769229e-01 -6.879528642200211097e-02 7.584446425051087626e-02 -9.947429835115686458e-01
2.625641025641025639e-01 -9.143243005053397487e-02 1.008733522179052766e-01 -9.906881742859796613e-01
3.282051282051282048e-01 -1.138173150437240821e-01 1.256903524244115944e-01 -9.855179007734018448e-01
3.938461538461538458e-01 -1.358926226358162515e-01 1.502474015264737006e-01 -9.792632344902995056e-01
4.594871794871794868e-01 -1.576037170614592309e-01 1.744969120815492158e-01 -9.719614446358719739e-01
5.251282051282051277e-01 -1.789025163764108584e-01 1.983965246018863093e-01 -9.636542117250921358e-01
5.907692307692307132e-01 -1.997418807899186133e-01 2.219056004808838134e-01 -9.543884906953871150e-01
6.564102564102564097e-01 -2.200817465462702460e-01 2.449857194034963936e-01 -9.442149644799493480e-01
7.220512820512821062e-01 -2.398871888526395990e-01 2.676048864932795146e-01 -9.331865885423358264e-01
7.876923076923076916e-01 -2.591269712861889452e-01 2.897346097348525440e-01 -9.213588258710779799e-01
8.533333333333332771e-01 -2.777753507316194637e-01 3.113480157812977822e-01 -9.087892235215638825e-01
9.189743589743589736e-01 -2.958132023539589150e-01 3.324244663550279255e-01 -8.955348574752054480e-01
9.846153846153846700e-01 -3.132216998545789832e-01 3.529459740331764017e-01 -8.816547141471947624e-01
1.050256410256410255e+00 -3.299915279793529388e-01 3.728985346275270341e-01 -8.672056179396939735e-01
1.115897435897435841e+00 -3.461142730972068815e-01 3.922737715971683636e-01 -8.522435633917159192e-01
1.181538461538461426e+00 -3.615887870721101183e-01 4.110629434911297619e-01 -8.368233323228546627e-01
1.247179487179487234e+00 -3.764093937061080419e-01 4.292656372995663494e-01 -8.209988191407235902e-01
1.312820512820512819e+00 -3.905828527738468559e-01 4.468789870473571790e-01 -8.048204109180926435e-01
1.378461538461538405e+00 -4.041145587819558460e-01 4.639064998350517222e-01 -7.883358946587158966e-01
1.444102564102564212e+00 -4.170095597758937678e-01 4.803534123897803543e-01 -7.715922183630614661e-01
1.509743589743589798e+00 -4.292777453086833450e-01 4.962265233406627507e-01 -7.546326351790955123e-01
1.575384615384615383e+00 -4.409302300503104566e-01 5.115351877803303582e-01 -7.374974463942018943e-01
1.641025641025640969e+00 -4.519755952587143355e-01 5.262907776541745353e-01 -7.202263056936620833e-01
1.706666666666666554e+00 -4.624321010174456958e-01 5.405033053089367545e-01 -7.028529335039971349e-01
1.772307692307692362e+00 -4.723110430166787554e-01 5.541856337261741317e-01 -6.854121032720809081e-01
1.837948717948717947e+00 -4.816263903511338595e-01 5.673516934822140367e-01 -6.679348391613014746e-01
1.903589743589743533e+00 -4.903901401967558638e-01 5.800159252991827774e-01 -6.504518520137962945e-01
1.969230769230769340e+00 -4.986217847496839384e-01 5.921919873999387240e-01 -6.329875591645959254e-01
2.034871794871794926e+00 -5.063366467562714357e-01 6.038942647231833050e-01 -6.155671542749154845e-01
2.100512820512820511e+00 -5.135501244802751497e-01 6.151367453179933387e-01 -5.982146667239155446e-01
2.166153846153846096e+00 -5.202785897067763177e-01 6.259341254179536795e-01 -5.809510562110024035e-01
2.231794871794871682e+00 -5.265394349916656669e-01 6.363014660625051500e-01 -5.637941900236763670e-01
2.297435897435897267e+00 -5.323468086491554008e-01 6.462536903912230457e-01 -5.467632285119565783e-01
2.363076923076922853e+00 -5.377215081180324319e-01 6.558002717789606084e-01 -5.298757822654873717e-01
2.428717948717948882e+00 -5.426797643327145870e-01 6.649604219491502821e-01 -5.131401900648202563e-01
2.494358974358974468e+00 -5.472379784417289450e-01 6.737438819702834536e-01 -4.965743809911665196e-01
2.560000000000000053e+00 -5.514166114157122989e-01 6.821640448518598854e-01 -4.801854635028478535e-01
