0.000000000000000000e+00 1.663258653456082491e-09 3.710351285978911541e-09 -1.000000000000000000e+00
6.564102564102564097e-02 3.110536781202273907e-02 -1.432178087662587876e-02 -9.994133454024378693e-01
1.312820512820512819e-01 6.231736228301466840e-02 -2.826112524144800547e-02 -9.976558868495137844e-01
1.969230769230769229e-01 9.371458774232085953e-02 -4.145269636930807439e-02 -9.947353358605467433e-01
2.625641025641025639e-01 1.253765475955729847e-01 -5.352338005051018172e-02 -9.906638310202668940e-01
3.282051282051282048e-01 1.573524117179984083e-01 -6.409961141508926930e-02 -9.854592985850837428e-01
3.938461538461538458e-01 1.896752105878426742e-01 -7.280859127230862593e-02 -9.791427337168144840e-01
4.594871794871794868e-01 2.223300585834053211e-01 -7.928607306473395289e-02 -9.717412455259107906e-01
5.251282051282051277e-01 2.552730447379402134e-01 -8.316911905804481864e-02 -9.632840978254321174e-01
5.907692307692307132e-01 2.884053647945041265e-01 -8.410124776144906056e-02 -9.538064225894319348e-01
6.564102564102564097e-01 3.215797908368060454e-01 -8.174799706233140673e-02 -9.433455136474356850e-01
7.220512820512821062e-01 3.545965341669877757e-01 -7.578483060175122965e-02 -9.319413671580764058e-01
7.876923076923076916e-01 3.871935212938119597e-01 -6.592164013079701568e-02 -9.196368466114688278e-01
8.533333333333332771e-01 4.190487496862074224e-01 -5.188827927571193488e-02 -9.064777262160883531e-01
9.189743589743589736e-01 4.497780312830288452e-01 -3.347148340285721613e-02 -8.925106011631178671e-01
9.846153846153846700e-01 4.789355026748431388e-01 -1.049700403793485393e-02 -8.777847592577593394e-01
1.050256410256410255e+00 5.060204354165214191e-01 1.714502948909041313e-02 -8.623483069711220805e-01
1.115897435897435841e+00 5.304753708114665622e-01 4.949126854330659908e-02 -8.462513510901952252e-01
1.181538461538461426e+00 5.516944271703450031e-01 8.650089259790005869e-02 -8.295453451622812890e-01
1.247179487179487234e+00 5.690370243141099627e-01 1.280388397522555510e-01 -8.122790021921025838e-01
1.312820512820512819e+00 5.818304720796361185e-01 1.738675815488927578e-01 -7.945044497682589579e-01
1.378461538461538405e+00 5.893979209442754552e-01 2.236414681743210120e-01 -7.762655471624340109e-01
1.444102564102564212e+00 5.910528046024097204e-01 2.768853412453500806e-01 -7.576176065233762857e-01
1.509743589743589798e+00 5.861346238446895063e-01 3.330177120718100237e-01 -7.386057776966242772e-01
1.575384615384615383e+00 5.740356110012267976e-01 3.913140435629501868e-01 -7.192699356703486924e-01
1.641025641025640969e+00 5.541915880998289357e-01 4.509349649414680083e-01 -6.996583880020517121e-01
1.706666666666666554e+00 5.261340654855082288e-01 5.109048456163332030e-01 -6.798173083040160991e-01
1.772307692307692362e+00 4.895143594979061152e-01 5.701420025102651445e-01 -6.597770870628983930e-01
1.837948717948717947e+00 4.441002141665107428e-01 6.274487625562552573e-01 -6.395895800556979927e-01
1.903589743589743533e+00 3.898332347183189883e-01 6.815511333449275622e-01 -6.192815861091527374e-01
1.969230769230769340e+00 3.268283437820982407e-01 7.311000434104039103e-01 -5.988883753967928492e-01
2.034871794871794926e+00 2.554067620726003796e-01 7.746979152245848654e-01 -5.784476065130990108e-01
2.100512820512820511e+00 1.761007398170877924e-01 8.109424325933243249e-01 -5.579890636468600729e-01
2.166153846153846096e+00 8.967517690865017821e-02 8.384505308755325625e-01 -5.375404837313199069e-01
2.231794871794871682e+00 -2.861200808267794216e-03 8.558957046565451865e-01 -5.171314152330107605e-01
2.297435897435897267e+00 -1.002723542378770594e-01 8.620591176550652657e-01 -4.967794899908540285e-01
2.363076923076922853e+00 -2.010856183652627305e-01 8.558549165025620686e-01 -4.765155659727046689e-01
2.428717948717948882e+00 -3.036081449295332524e-01 8.363912822170171957e-01 -4.563570780010511863e-01
2.494358974358974468e+00 -4.059474674876304978e-01 8.030027458142332542e-01 -4.363291668298303061e-01
2.560000000000000053e+00 -5.060469260367100874e-01 7.553030255924051417e-01 -4.164416412936079448e-01
