1.000000000000000056e-01 9.827177192031242292e-01 0.000000000000000000e+00 1.728228079687210705e-02 0.000000000000000000e+00 0.000000000000000000e+00 0.000000000000000000e+00 -1.176211923443404861e-01 5.611468485467806244e-02 0.000000000000000000e+00 0.000000000000000000e+00 0.000000000000000000e+00 0.000000000000000000e+00 0.000000000000000000e+00 0.000000000000000000e+00 0.000000000000000000e+00 0.000000000000000000e+00
2.000000000000000111e-01 9.326537466389211994e-01 0.000000000000000000e+00 6.734625336107868954e-02 0.000000000000000000e+00 0.000000000000000000e+00 0.000000000000000000e+00 -2.325383820511222610e-01 9.346997605996877623e-02 0.000000000000000000e+00 0.000000000000000000e+00 0.000000000000000000e+00 0.000000000000000000e+00 0.000000000000000000e+00 0.000000000000000000e+00 0.000000000000000000e+00 0.000000000000000000e+00
2.999999999999999889e-01 8.548280003308478259e-01 0.000000000000000000e+00 1.451719996691533676e-01 0.000000000000000000e+00 0.000000000000000000e+00 0.000000000000000000e+00 -3.388230520843713567e-01 9.641591850066646985e-02 0.000000000000000000e+00 0.000000000000000000e+00 0.000000000000000000e+00 0.000000000000000000e+00 0.000000000000000000e+00 0.000000000000000000e+00 0.000000000000000000e+00 0.000000000000000000e+00
4.000000000000000222e-01 7.566935916768708914e-01 0.000000000000000000e+00 2.433064083231276375e-01 0.000000000000000000e+00 0.000000000000000000e+00 0.000000000000000000e+00 -4.254456089648291361e-01 5.571744721872732425e-02 0.000000000000000000e+00 0.000000000000000000e+00 0.000000000000000000e+00 0.000000000000000000e+00 0.000000000000000000e+00 0.000000000000000000e+00 0.000000000000000000e+00 0.000000000000000000e+00
5.000000000000000000e-01 6.469281198701613000e-01 0.000000000000000000e+00 3.530718801298423082e-01 0.000000000000000000e+00 0.000000000000000000e+00 0.000000000000000000e+00 -4.770973670346646545e-01 -2.811102820071006980e-02 0.000000000000000000e+00 0.000000000000000000e+00 0.000000000000000000e+00 0.000000000000000000e+00 0.000000000000000000e+00 0.000000000000000000e+00 0.000000000000000000e+00 0.000000000000000000e+00
5.999999999999999778e-01 5.342176468084041119e-01 0.000000000000000000e+00 4.657823531915972204e-01 0.000000000000000000e+00 0.000000000000000000e+00 0.000000000000000000e+00 -4.780003017553821065e-01 -1.426354238669252095e-01 0.000000000000000000e+00 0.000000000000000000e+00 0.000000000000000000e+00 0.000000000000000000e+00 0.000000000000000000e+00 0.000000000000000000e+00 0.000000000000000000e+00 0.000000000000000000e+00
6.999999999999999556e-01 4.261116395668524959e-01 0.000000000000000000e+00 5.738883604331364019e-01 0.000000000000000000e+00 0.000000000000000000e+00 0.000000000000000000e+00 -4.181530741391473738e-01 -2.639858262912032072e-01 0.000000000000000000e+00 0.000000000000000000e+00 0.000000000000000000e+00 0.000000000000000000e+00 0.000000000000000000e+00 0.000000000000000000e+00 0.000000000000000000e+00 0.000000000000000000e+00
7.999999999999999334e-01 3.283310978457996132e-01 0.000000000000000000e+00 6.716689021542004978e-01 0.000000000000000000e+00 0.000000000000000000e+00 0.000000000000000000e+00 -2.998836768149178433e-01 -3.613856230259707147e-01 0.000000000000000000e+00 0.000000000000000000e+00 0.000000000000000000e+00 0.000000000000000000e+00 0.000000000000000000e+00 0.000000000000000000e+00 0.000000000000000000e+00 0.000000000000000000e+00
8.999999999999999112e-01 2.444224185494295043e-01 0.000000000000000000e+00 7.555775814505697463e-01 0.000000000000000000e+00 0.000000000000000000e+00 0.000000000000000000e+00 -1.417021280425128649e-01 -4.057100024749997758e-01 0.000000000000000000e+00 0.000000000000000000e+00 0.000000000000000000e+00 0.000000000000000000e+00 0.000000000000000000e+00 0.000000000000000000e+00 0.000000000000000000e+00 0.000000000000000000e+00
9.999999999999998890e-01 1.758022951480233964e-01 0.000000000000000000e+00 8.241977048519729676e-01 0.000000000000000000e+00 0.000000000000000000e+00 0.000000000000000000e+00 2.351668342411158616e-02 -3.799247478996303773e-01 0.000000000000000000e+00 0.000000000000000000e+00 0.000000000000000000e+00 0.000000000000000000e+00 0.000000000000000000e+00 0.000000000000000000e+00 0.000000000000000000e+00 0.000000000000000000e+00
1.099999999999999867e+00 1.221953474917865518e-01 0.000000000000000000e+00 8.778046525082132678e-01 0.000000000000000000e+00 0.000000000000000000e+00 0.000000000000000000e+00 1.571219776251984446e-01 -2.873609729410448455e-01 0.000000000000000000e+00 0.000000000000000000e+00 0.000000000000000000e+00 0.000000000000000000e+00 0.000000000000000000e+00 0.000000000000000000e+00 0.000000000000000000e+00 0.000000000000000000e+00
1.199999999999999956e+00 8.208530901166991023e-02 0.000000000000000000e+00 9.179146909883265648e-01 0.000000000000000000e+00 0.000000000000000000e+00 0.000000000000000000e+00 2.278105335381725716e-01 -1.531328583852959446e-01 0.000000000000000000e+00 0.000000000000000000e+00 0.000000000000000000e+00 0.000000000000000000e+00 0.000000000000000000e+00 0.000000000000000000e+00 0.000000000000000000e+00 0.000000000000000000e+00
1.300000000000000044e+00 5.330627201195835968e-02 0.000000000000000000e+00 9.466937279880336398e-01 0.000000000000000000e+00 0.000000000000000000e+00 0.000000000000000000e+00 2.240280746787448041e-01 -1.661731326826549476e-02 0.000000000000000000e+00 0.000000000000000000e+00 0.000000000000000000e+00 0.000000000000000000e+00 0.000000000000000000e+00 0.000000000000000000e+00 0.000000000000000000e+00 0.000000000000000000e+00
1.399999999999999911e+00 3.346733381517107836e-02 0.000000000000000000e+00 9.665326661848279155e-01 0.000000000000000000e+00 0.000000000000000000e+00 0.000000000000000000e+00 1.593566295709427372e-01 8.338306708380158194e-02 0.000000000000000000e+00 0.000000000000000000e+00 0.000000000000000000e+00 0.000000000000000000e+00 0.000000000000000000e+00 0.000000000000000000e+00 0.000000000000000000e+00 0.000000000000000000e+00
1.500000000000000000e+00 2.032241799200532051e-02 0.000000000000000000e+00 9.796775820079927088e-01 0.000000000000000000e+00 0.000000000000000000e+00 0.000000000000000000e+00 6.704543937372887952e-02 1.241544444908833644e-01 0.000000000000000000e+00 0.000000000000000000e+00 0.000000000000000000e+00 0.000000000000000000e+00 0.000000000000000000e+00 0.000000000000000000e+00 0.000000000000000000e+00 0.000000000000000000e+00
1.599999999999999867e+00 1.193733139553869969e-02 0.000000000000000000e+00 9.880626686044580165e-01 0.000000000000000000e+00 0.000000000000000000e+00 0.000000000000000000e+00 -1.460030753360738037e-02 1.076181313702670450e-01 0.000000000000000000e+00 0.000000000000000000e+00 0.000000000000000000e+00 0.000000000000000000e+00 0.000000000000000000e+00 0.000000000000000000e+00 0.000000000000000000e+00 0.000000000000000000e+00
1.699999999999999956e+00 6.786466453288996295e-03 0.000000000000000000e+00 9.932135335467073833e-01 0.000000000000000000e+00 0.000000000000000000e+00 0.000000000000000000e+00 -5.891475479028256829e-02 5.717920775543380851e-02 0.000000000000000000e+00 0.000000000000000000e+00 0.000000000000000000e+00 0.000000000000000000e+00 0.000000000000000000e+00 0.000000000000000000e+00 0.000000000000000000e+00 0.000000000000000000e+00
1.800000000000000044e+00 3.734947823698995042e-03 0.000000000000000000e+00 9.962650521762965727e-01 0.000000000000000000e+00 0.000000000000000000e+00 0.000000000000000000e+00 -6.084934249633209419e-02 4.284293792702507583e-03 0.000000000000000000e+00 0.000000000000000000e+00 0.000000000000000000e+00 0.000000000000000000e+00 0.000000000000000000e+00 0.000000000000000000e+00 0.000000000000000000e+00 0.000000000000000000e+00
1.899999999999999911e+00 1.990720266180889472e-03 0.000000000000000000e+00 9.980092797338242505e-01 0.000000000000000000e+00 0.000000000000000000e+00 0.000000000000000000e+00 -3.511044111672870227e-02 -2.745931610675746148e-02 0.000000000000000000e+00 0.000000000000000000e+00 0.000000000000000000e+00 0.000000000000000000e+00 0.000000000000000000e+00 0.000000000000000000e+00 0.000000000000000000e+00 0.000000000000000000e+00
2.000000000000000000e+00 1.028695255461865030e-03 0.000000000000000000e+00 9.989713047445276661e-01 0.000000000000000000e+00 0.000000000000000000e+00 0.000000000000000000e+00 -4.472117666020285209e-03 -3.174329731207055361e-02 0.000000000000000000e+00 0.000000000000000000e+00 0.000000000000000000e+00 0.000000000000000000e+00 0.000000000000000000e+00 0.000000000000000000e+00 0.000000000000000000e+00 0.000000000000000000e+00
2.099999999999999645e+00 5.147839968346203761e-04 0.000000000000000000e+00 9.994852160031654220e-01 0.000000000000000000e+00 0.000000000000000000e+00 0.000000000000000000e+00 1.390562512173200253e-02 -1.792072601676194393e-02 0.000000000000000000e+00 0.000000000000000000e+00 0.000000000000000000e+00 0.000000000000000000e+00 0.000000000000000000e+00 0.000000000000000000e+00 0.000000000000000000e+00 0.000000000000000000e+00
2.199999999999999734e+00 2.495391496995070873e-04 0.000000000000000000e+00 9.997504608502995049e-01 0.000000000000000000e+00 0.000000000000000000e+00 0.000000000000000000e+00 1.574559876271174400e-02 -1.246120416511981022e-03 0.000000000000000000e+00 0.000000000000000000e+00 0.000000000000000000e+00 0.000000000000000000e+00 0.000000000000000000e+00 0.000000000000000000e+00 0.000000000000000000e+00 0.000000000000000000e+00
2.299999999999999822e+00 1.174577358214809458e-04 0.000000000000000000e+00 9.998825422641715033e-01 0.000000000000000000e+00 0.000000000000000000e+00 0.000000000000000000e+00 7.661806845158891828e-03 7.664233734471365134e-03 0.000000000000000000e+00 0.000000000000000000e+00 0.000000000000000000e+00 0.000000000000000000e+00 0.000000000000000000e+00 0.000000000000000000e+00 0.000000000000000000e+00 0.000000000000000000e+00
2.399999999999999911e+00 5.354544556718949106e-05 0.000000000000000000e+00 9.999464545544430871e-01 0.000000000000000000e+00 0.000000000000000000e+00 0.000000000000000000e+00 -8.262397818937716135e-04 7.270471988672611366e-03 0.000000000000000000e+00 0.000000000000000000e+00 0.000000000000000000e+00 0.000000000000000000e+00 0.000000000000000000e+00 0.000000000000000000e+00 0.000000000000000000e+00 0.000000000000000000e+00
2.500000000000000000e+00 2.395174871610416541e-05 0.000000000000000000e+00 9.999760482512886073e-01 0.000000000000000000e+00 0.000000000000000000e+00 0.000000000000000000e+00 -4.225805401666072811e-03 2.468520193359037638e-03 0.000000000000000000e+00 0.000000000000000000e+00 0.000000000000000000e+00 0.000000000000000000e+00 0.000000000000000000e+00 0.000000000000000000e+00 0.000000000000000000e+00 0.000000000000000000e+00
2.600000000000000089e+00 1.045445554055851881e-05 0.000000000000000000e+00 9.999895455444585135e-01 0.000000000000000000e+00 0.000000000000000000e+00 0.000000000000000000e+00 -2.932725797688358685e-03 -1.361357866215826386e-03 0.000000000000000000e+00 0.000000000000000000e+00 0.000000000000000000e+00 0.000000000000000000e+00 0.000000000000000000e+00 0.000000000000000000e+00 0.000000000000000000e+00 0.000000000000000000e+00
2.699999999999999734e+00 4.508659164127944557e-06 0.000000000000000000e+00 9.999954913408384272e-01 0.000000000000000000e+00 0.000000000000000000e+00 0.000000000000000000e+00 -3.252316083928792514e-04 -2.098265088325584893e-03 0.000000000000000000e+00 0.000000000000000000e+00 0.000000000000000000e+00 0.000000000000000000e+00 0.000000000000000000e+00 0.000000000000000000e+00 0.000000000000000000e+00 0.000000000000000000e+00
2.799999999999999822e+00 1.840795012487263251e-06 0.000000000000000000e+00 9.999981592049843604e-01 0.000000000000000000e+00 0.000000000000000000e+00 0.000000000000000000e+00 1.032218026485250302e-03 -8.805167689645306385e-04 0.000000000000000000e+00 0.000000000000000000e+00 0.000000000000000000e+00 0.000000000000000000e+00 0.000000000000000000e+00 0.000000000000000000e+00 0.000000000000000000e+00 0.000000000000000000e+00
2.899999999999999911e+00 7.247026695777831611e-07 0.000000000000000000e+00 9.999992752973305699e-01 0.000000000000000000e+00 0.000000000000000000e+00 0.000000000000000000e+00 8.011132737284036576e-04 2.875246152131251203e-04 0.000000000000000000e+00 0.000000000000000000e+00 0.000000000000000000e+00 0.000000000000000000e+00 0.000000000000000000e+00 0.000000000000000000e+00 0.000000000000000000e+00 0.000000000000000000e+00
3.000000000000000000e+00 2.775763958861394794e-07 0.000000000000000000e+00 9.999997224236005788e-01 0.000000000000000000e+00 0.000000000000000000e+00 0.000000000000000000e+00 6.065490523143795090e-05 5.232989952024440575e-04 0.000000000000000000e+00 0.000000000000000000e+00 0.000000000000000000e+00 0.000000000000000000e+00 0.000000000000000000e+00 0.000000000000000000e+00 0.000000000000000000e+00 0.000000000000000000e+00
