1.000000000000000056e-01 1.541653558981154748e-01 1.408061296138705398e-01 -9.780970604705814253e-01
2.000000000000000111e-01 2.988116417696966010e-01 2.751507347333038700e-01 -9.140994529315465966e-01
2.999999999999999889e-01 4.255853417052034016e-01 3.973097240468130842e-01 -8.128596365236682164e-01
4.000000000000000222e-01 5.282219479049212740e-01 5.028594351848502120e-01 -6.816021427787601894e-01
5.000000000000000000e-01 6.030313514213373471e-01 5.889565232919601323e-01 -5.288821350100505470e-01
5.999999999999999778e-01 6.489388278691479162e-01 6.543134560890433438e-01 -3.635371558121446856e-01
6.999999999999999556e-01 6.671764622354257046e-01 6.989719238735857543e-01 -1.938026118249573104e-01
7.999999999999999334e-01 6.607472155838184369e-01 7.239695991386633223e-01 -2.673246552892032807e-02
8.999999999999999112e-01 6.338232998080106650e-01 7.310166355972551600e-01 1.320879385239632220e-01
9.999999999999998890e-01 5.911767736774523607e-01 7.222390413406749587e-01 2.786081187328613429e-01
1.099999999999999867e+00 5.377008369258553522e-01 6.999985125673547914e-01 4.102112485608713777e-01
1.199999999999999956e+00 4.780155479682968167e-01 6.667740574934371001e-01 5.255594805528548408e-01
1.300000000000000044e+00 4.162076931336878838e-01 6.250884429483516413e-01 6.243434349039089781e-01
1.399999999999999911e+00 3.556202025884014906e-01 5.774170084351456511e-01 7.071094892104181628e-01
1.500000000000000000e+00 2.987955339716779068e-01 5.261159353924258486e-01 7.749993563605148683e-01
1.599999999999999867e+00 2.474334667054664816e-01 4.733360496555357733e-01 8.295682270096316202e-01
1.699999999999999956e+00 2.024732628781272803e-01 4.209407953903949728e-01 8.725870211463470083e-01
1.800000000000000044e+00 1.642033342409088825e-01 3.704340654676446243e-01 9.058911214566649495e-01
1.899999999999999911e+00 1.324283226898413934e-01 3.229549055876774211e-01 9.312376152807241292e-01
2.000000000000000000e+00 1.065981570189003524e-01 2.792653422787583772e-01 9.502320716627046249e-01
2.099999999999999645e+00 8.598162597617625691e-02 2.397936705360826370e-01 9.642682569909015733e-01
2.199999999999999734e+00 6.975863374475425871e-02 2.046734869829951731e-01 9.745167283280221637e-01
2.299999999999999822e+00 5.712928307247826243e-02 1.738324193960337216e-01 9.819208040493938583e-01
2.399999999999999911e+00 4.736753674549099707e-02 1.470366054980380421e-01 9.872234775324033595e-01
2.500000000000000000e+00 3.983440130239257471e-02 1.239543751738352156e-01 9.909950818076566081e-01
2.600000000000000089e+00 3.400685981497689192e-02 1.042181949450486644e-01 9.936620010363861333e-01
2.699999999999999734e+00 2.946070024804893148e-02 8.743195627325739405e-02 9.955406754961771965e-01
2.799999999999999822e+00 2.586854471904243696e-02 7.321110906621897119e-02 9.968608269215237794e-01
2.899999999999999911e+00 2.298178319809955281e-02 6.120267460789750869e-02 9.977870152767600587e-01
3.000000000000000000e+00 2.060846294930161055e-02 5.109000013917815164e-02 9.984364354167144517e-01
