1.000000000000000056e-01 1.768661136601483441e-01 1.074574565616286115e-01 -9.774480442518826973e-01
2.000000000000000111e-01 3.544935481736239957e-01 1.873370795929887311e-01 -9.119404703837247217e-01
2.999999999999999889e-01 5.286261338244518937e-01 2.151064723900161235e-01 -8.095632382465457466e-01
4.000000000000000222e-01 6.865209078348296634e-01 1.729513204450446040e-01 -6.793475832568357520e-01
5.000000000000000000e-01 8.063441916059687076e-01 5.421083310358207341e-02 -5.319046243651535111e-01
5.999999999999999778e-01 8.604593425217895719e-01 -1.322754321499569063e-01 -3.779293742227202157e-01
6.999999999999999556e-01 8.225634169205324753e-01 -3.595921133097253475e-01 -2.269569029559030948e-01
7.999999999999999334e-01 6.775638014661213848e-01 -5.841079627904034455e-01 -8.644186943884682450e-02
8.999999999999999112e-01 4.314469814168975792e-01 -7.524416490345904318e-01 3.860102112323314516e-02
9.999999999999998890e-01 1.173415967186921260e-01 -8.142184700248620288e-01 1.456499171263309633e-01
1.099999999999999867e+00 -2.061564348340204356e-01 -7.382451751133354279e-01 2.343226307764968430e-01
1.199999999999999956e+00 -4.666886479681963684e-01 -5.272011035395003375e-01 3.058594870669394394e-01
1.300000000000000044e+00 -5.987708579725394831e-01 -2.243166351955376836e-01 3.625865402787076253e-01
1.399999999999999911e+00 -5.676362588866638026e-01 9.349745928336150591e-02 4.073896544139540832e-01
1.500000000000000000e+00 -3.869935847856993960e-01 3.375530613713069727e-01 4.433166403756772511e-01
1.599999999999999867e+00 -1.208648567084367187e-01 4.388466856738585942e-01 4.732028721753452905e-01
1.699999999999999956e+00 1.356814685454725000e-01 3.771392201127496957e-01 4.995096471024021434e-01
1.800000000000000044e+00 2.926010395570921574e-01 1.930856791119211491e-01 5.242141079342435006e-01
1.899999999999999911e+00 3.033885746099143077e-01 -2.613275494016181755e-02 5.487529744648618202e-01
2.000000000000000000e+00 1.863958799646331377e-01 -1.849333516923533927e-01 5.740643106746189384e-01
2.099999999999999645e+00 1.527170987161643317e-02 -2.241295318684312921e-01 6.006320235305547817e-01
2.199999999999999734e+00 -1.196742795190103709e-01 -1.483985215765128984e-01 6.285545803318512981e-01
2.299999999999999822e+00 -1.592618363177011886e-01 -1.924942254086088947e-02 6.576432492646259176e-01
2.399999999999999911e+00 -1.043540678572840302e-01 8.379252206439261053e-02 6.875079049605029580e-01
2.500000000000000000e+00 -8.026074152513645171e-03 1.103850594548089342e-01 7.176386962235097311e-01
2.600000000000000089e+00 6.342002165857349438e-02 6.490346087106876882e-02 7.474763458097279933e-01
2.699999999999999734e+00 7.357548970598409843e-02 -5.462102655059893411e-03 7.764779931574430361e-01
2.799999999999999822e+00 3.364904719437260966e-02 -4.906314566942956978e-02 8.041568766560349690e-01
2.899999999999999911e+00 -1.492178329483361682e-02 -4.520494648063635990e-02 8.301167252638727012e-01
3.000000000000000000e+00 -3.603925813671938344e-02 -1.145031206212773420e-02 8.540613941821894040e-01
