0.000000000000000000e+00 -7.102729890147567148e-12 1.013662069961618585e-11 -1.000000000000000000e+00
1.025641025641025605e-01 -1.886882510317453299e-01 2.480666798393152128e-01 -9.441928346487773460e-01
2.051282051282051211e-01 -3.718752494067067427e-01 4.431319605628073477e-01 -7.879909577235432172e-01
3.076923076923077094e-01 -5.398309097715936478e-01 5.475972819845287276e-01 -5.606223601132939161e-01
4.102564102564102422e-01 -6.776465300953619098e-01 5.480338881403788998e-01 -2.987851431067198305e-01
5.128205128205127750e-01 -7.682195952617456580e-01 4.550426447788604722e-01 -3.595436173589378059e-02
6.153846153846154188e-01 -7.973261502928171707e-01 2.968106750798604754e-01 2.040214756855926181e-01
7.179487179487179516e-01 -7.584660142909689373e-01 1.104694772901643196e-01 4.081652682657470055e-01
8.205128205128204844e-01 -6.560999237686572227e-01 -6.608324355469395728e-02 5.723182614557410508e-01
9.230769230769230171e-01 -5.064678620579783352e-01 -2.012516087900969586e-01 6.981093553489897685e-01
1.025641025641025550e+00 -3.353512692026163200e-01 -2.756143107455857333e-01 7.902805318128451884e-01
1.128205128205128194e+00 -1.723784525417997870e-01 -2.856901773170236747e-01 8.549056424632281992e-01
1.230769230769230838e+00 -4.308412378310799012e-02 -2.438591627676198192e-01 8.982534817434039143e-01
1.333333333333333259e+00 3.846650543062743455e-02 -1.732390396551046485e-01 9.261541189543157637e-01
1.435897435897435903e+00 7.273626351429968162e-02 -9.891815659861841192e-02 9.435970457659590416e-01
1.538461538461538325e+00 7.191349387271440963e-02 -3.950104549403545690e-02 9.544998505542650058e-01
1.641025641025640969e+00 5.289152810872579935e-02 -2.761035994388059966e-03 9.616719023520234888e-01
1.743589743589743613e+00 3.028707254488939571e-02 1.320223123527396875e-02 9.669188218960055314e-01
1.846153846153846034e+00 1.261802570776530269e-02 1.541950836961244499e-02 9.712655054182500747e-01
1.948717948717948678e+00 2.336679761290345360e-03 1.137483288420528676e-02 9.752050029029618594e-01
2.051282051282051100e+00 -1.856999504197699019e-03 6.265740952473661252e-03 9.789152615276677238e-01
2.153846153846153744e+00 -2.513170065306080322e-03 2.502238802841455154e-03 9.824149180215018262e-01
2.256410256410256387e+00 -1.787157352276075219e-03 5.052346869158362997e-04 9.856586519980286010e-01
2.358974358974359031e+00 -9.094548927165037712e-04 -2.238466059227964050e-04 9.885880097026090718e-01
2.461538461538461675e+00 -3.245390282011549436e-04 -3.104114406013641159e-04 9.911553870811280476e-01
2.564102564102563875e+00 -6.037492433242779314e-05 -2.003936724027255846e-04 9.933339287177418431e-01
2.666666666666666519e+00 2.290794589722742965e-05 -9.023423335850808515e-05 9.951204594201912279e-01
2.769230769230769162e+00 2.702711344449137740e-05 -2.606541131647615735e-05 9.965341828327884954e-01
2.871794871794871806e+00 1.633876642584010234e-05 -6.234750722420992077e-06 9.976125479860730172e-01
2.974358974358974450e+00 6.804689280019798035e-06 1.596087296208931190e-06 9.984050574758862595e-01
3.076923076923076650e+00 5.021463599561898257e-07 4.151705763352591904e-07 9.989662940407822989e-01
3.179487179487179294e+00 -8.456900967378794925e-07 1.771491994621959428e-06 9.993495751089087609e-01
3.282051282051281937e+00 -6.610113669826175571e-08 3.361377092746801878e-06 9.996022998969236184e-01
3.384615384615384581e+00 -1.186682295722117871e-06 1.543708222255297536e-06 9.997634406384814376e-01
3.487179487179487225e+00 2.545426642202677718e-06 1.573432899113553511e-06 9.998629628026661775e-01
3.589743589743589425e+00 -4.301837094496398715e-06 1.232998201458169467e-06 9.999226026594575378e-01
3.692307692307692069e+00 -1.240123101545821509e-06 2.572037035635493125e-06 9.999573373369587959e-01
3.794871794871794712e+00 -2.125774668560172589e-06 -2.909228396653561851e-06 9.999770275273730524e-01
3.897435897435897356e+00 -2.163580029968027581e-06 -1.637051560154603000e-06 9.999879059270440074e-01
4.000000000000000000e+00 1.995197712995869485e-06 -1.343923653583204309e-06 9.999937703132609768e-01
