1.000000000000000056e-01 3.046484503690678469e-01 -4.388841654890040384e-02 -9.499307960187354238e-01
2.000000000000000111e-01 5.701685098997001377e-01 -1.077011611323451107e-01 -8.075717936306144873e-01
2.999999999999999889e-01 7.626577089044306312e-01 -2.024257478093197393e-01 -5.945264607660442069e-01
4.000000000000000222e-01 8.586867618487818987e-01 -3.245141023675593428e-01 -3.409782530695792957e-01
5.000000000000000000e-01 8.499384493117009276e-01 -4.557840780565352579e-01 -7.896809427935629067e-02
5.999999999999999778e-01 7.458239920288470826e-01 -5.690209114208000241e-01 1.638491181329383706e-01
6.999999999999999556e-01 5.724590178154213005e-01 -6.373107201786978315e-01 3.683637299737779758e-01
7.999999999999999334e-01 3.671953820716128414e-01 -6.436127965844785637e-01 5.253973374598431834e-01
8.999999999999999112e-01 1.695798615163972289e-01 -5.868261246958123012e-01 6.346172121677645661e-01
9.999999999999998890e-01 1.138604142076081807e-02 -4.818870980298050055e-01 7.019340447424977647e-01
1.099999999999999867e+00 -9.072909829031740314e-02 -3.538830081046592246e-01 7.364826647945772464e-01
1.199999999999999956e+00 -1.370858021172823571e-01 -2.287607253114036787e-01 7.480540101230871430e-01
1.300000000000000044e+00 -1.407000052586546424e-01 -1.248194862547754858e-01 7.453688574290050495e-01
1.399999999999999911e+00 -1.190497944552092457e-01 -4.880062485214017171e-02 7.352096901548011987e-01
1.500000000000000000e+00 -8.609170334628264698e-02 1.970169451634997109e-03 7.222085913670142077e-01
1.599999999999999867e+00 -4.862356476118490090e-02 3.328381916387211648e-02 7.090703509386636627e-01
1.699999999999999956e+00 -8.544373270854671229e-03 4.802426714889904136e-02 6.970696169756085414e-01
1.800000000000000044e+00 3.130535779377653649e-02 4.476573285319188772e-02 6.866879012175490793e-01
1.899999999999999911e+00 6.284287055366710728e-02 2.222169943101080791e-02 6.782089067685923567e-01
2.000000000000000000e+00 7.457223962654106753e-02 -1.392931622505479833e-02 6.720401574330961969e-01
2.099999999999999645e+00 5.970370786180668327e-02 -4.825422269591902319e-02 6.685962636951582327e-01
2.199999999999999734e+00 2.488558805327527323e-02 -6.150509754555563008e-02 6.678290832300584068e-01
2.299999999999999822e+00 -8.791086961363048236e-03 -4.345707451978429031e-02 6.687974456786300870e-01
2.399999999999999911e+00 -1.685102919429015689e-02 -3.599067992557939549e-03 6.697785564133292846e-01
2.500000000000000000e+00 1.068744186715928600e-02 3.083361134566975359e-02 6.691049524984487018e-01
