1.000000000000000056e-01 2.155544638640747614e-03 2.806152146317064926e-03 -9.999928520881753435e-01
2.000000000000000111e-01 4.466172032705874491e-03 5.636625312837074964e-03 -9.999705919106417484e-01
2.999999999999999889e-01 7.088177661149069712e-03 8.506828110904394308e-03 -9.999307139960135205e-01
4.000000000000000222e-01 1.017954871123561041e-02 1.141634720824904158e-02 -9.998688396195679617e-01
5.000000000000000000e-01 1.389936978930920129e-02 1.434017603791652024e-02 -9.997784364595150297e-01
5.999999999999999778e-01 1.840552165765047682e-02 1.721789437468938810e-02 -9.996505151123555866e-01
6.999999999999999556e-01 2.384947175760502094e-02 1.995030835031541896e-02 -9.994732198777371845e-01
7.999999999999999334e-01 3.036763989605393080e-02 2.238668353951314693e-02 -9.992316570379744523e-01
8.999999999999999112e-01 3.807212576941120669e-02 2.432412438020969611e-02 -9.989076310774146483e-01
9.999999999999998890e-01 4.703314794177911040e-02 2.550043059801516965e-02 -9.984799513861379872e-01
1.099999999999999867e+00 5.726182251547153046e-02 2.559842143052172558e-02 -9.979248988259590281e-01
1.199999999999999956e+00 6.868797647234126114e-02 2.425028737267457060e-02 -9.972174447623127769e-01
1.300000000000000044e+00 8.113656483700970590e-02 2.105240412817179982e-02 -9.963331038784573046e-01
1.399999999999999911e+00 9.430479013439493907e-02 1.558965580929070477e-02 -9.952505646524476557e-01
1.500000000000000000e+00 1.077409377187634465e-01 7.468738403581566543e-03 -9.939553664434788161e-01
1.599999999999999867e+00 1.208327051480489051e-01 -3.637436502664121232e-03 -9.924441683585720764e-01
1.699999999999999956e+00 1.328049216225065388e-01 -1.793092484551760818e-02 -9.907298512213156272e-01
1.800000000000000044e+00 1.427366364821405220e-01 -3.542670232775262107e-02 -9.888466737827741326e-01
1.899999999999999911e+00 1.496000030695126548e-01 -5.588257564131360322e-02 -9.868550922144764259e-01
2.000000000000000000e+00 1.523290325897583841e-01 -7.873699029691209883e-02 -9.848447053893177872e-01
2.099999999999999645e+00 1.499148566476596334e-01 -1.030501600778429977e-01 -9.829359402971405979e-01
2.199999999999999734e+00 1.415360496700559800e-01 -1.274915891694770598e-01 -9.812756407157121608e-01
2.299999999999999822e+00 1.267085810093674658e-01 -1.503457057257624185e-01 -9.800299333344199004e-01
2.399999999999999911e+00 1.054516661210221778e-01 -1.695868519400078045e-01 -9.793694760941865640e-01
2.500000000000000000e+00 7.844334179191211898e-02 -1.830232527975296231e-01 -9.794477718130680799e-01
