1.000000000000000056e-01 -1.747944324142824534e-03 -9.602824108066556393e-04 -8.579149761908044791e-01
2.000000000000000111e-01 -3.204772814489673018e-03 -1.977188484964434445e-03 -7.352819299799862041e-01
2.999999999999999889e-01 -4.127456807942183475e-03 -3.053395185650368323e-03 -5.520169315532155174e-01
4.000000000000000222e-01 -4.366052348694505168e-03 -4.108159718791404985e-03 -3.344191565934277466e-01
5.000000000000000000e-01 -3.899005699617341583e-03 -4.985733870279422317e-03 -1.103403347541509066e-01
5.999999999999999778e-01 -2.846328802053273588e-03 -5.502096581460322322e-03 9.628139032791580010e-02
6.999999999999999556e-01 -1.449416186263012638e-03 -5.513818961392471033e-03 2.690942455348023787e-01
7.999999999999999334e-01 -1.491261791154068275e-05 -4.979772376660606716e-03 4.005119572499112324e-01
8.999999999999999112e-01 1.164598210848678556e-03 -3.989576361401757365e-03 4.906970484687327994e-01
9.999999999999998890e-01 1.888753382682868860e-03 -2.744027691726603959e-03 5.451761823496068526e-01
1.099999999999999867e+00 2.097030603854334319e-03 -1.493459385910054062e-03 5.720813065746973569e-01
1.199999999999999956e+00 1.868260807229605268e-03 -4.601198936050590257e-04 5.798338149604320702e-01
1.300000000000000044e+00 1.375059976992990072e-03 2.248114045062746128e-04 5.756474568048010054e-01
1.399999999999999911e+00 8.135033882355428153e-04 5.443299186512713444e-04 5.649019652835837180e-01
1.500000000000000000e+00 3.382010608868520887e-04 5.753832754730385350e-04 5.511520705708562451e-01
1.599999999999999867e+00 2.712551180104519734e-05 4.408476592869453115e-04 5.364851857185254369e-01
1.699999999999999956e+00 -1.174668321089574385e-04 2.579466799967339969e-04 5.219753135642186681e-01
1.800000000000000044e+00 -1.417351455786411939e-04 1.049526533223232909e-04 5.080846378817592823e-01
1.899999999999999911e+00 -1.054949038140271227e-04 1.210059559132655197e-05 4.949526048774015585e-01
2.000000000000000000e+00 -5.630433874258851927e-05 -2.548988104024915171e-05 4.825729763302852859e-01
2.099999999999999645e+00 -1.936898300664944636e-05 -2.886804468771616254e-05 4.708872424598664064e-01
2.199999999999999734e+00 -3.515811913393080660e-07 -1.885067290804978455e-05 4.598277619615022682e-01
2.299999999999999822e+00 5.189035767475429892e-06 -8.330944031998992660e-06 4.493325929957531217e-01
2.399999999999999911e+00 4.520371184632178413e-06 -1.949730543865832513e-06 4.393491797499085583e-01
2.500000000000000000e+00 2.297941508811840700e-06 4.358978788259097033e-07 4.298336527167320731e-01
2.600000000000000089e+00 6.585459487678895201e-07 8.067995795805699409e-07 4.207484428304562041e-01
2.699999999999999734e+00 8.449819022931256552e-08 4.509868219831065133e-07 4.120615612154237550e-01
2.799999999999999822e+00 -5.659499074079777226e-08 1.819314623700849716e-07 4.037448489062974155e-01
2.899999999999999911e+00 -9.240603841340352817e-08 4.691032477987715621e-08 3.957733804887544338e-01
3.000000000000000000e+00 -1.542208928309932141e-08 -1.620482633910243997e-08 3.881249187179710569e-01
