0.000000000000000000e+00 -1.517159355737119547e-09 1.057021030123473016e-09 -1.000000000000000000e+00
9.230769230769231282e-02 2.509771743727761129e-01 -4.893659333224026353e-03 -9.679793793211339814e-01
1.846153846153846256e-01 4.844906851894769106e-01 -4.316036823948210532e-03 -8.747828187511526021e-01
2.769230769230769384e-01 6.848954631012387217e-01 5.916630081487267434e-03 -7.286118543806903158e-01
3.692307692307692513e-01 8.399915086913782858e-01 2.778121712530451370e-02 -5.418782731790567908e-01
4.615384615384615641e-01 9.421820105517270116e-01 6.056527257257182661e-02 -3.295643726597322631e-01
5.538461538461538769e-01 9.890734743805121854e-01 1.009930089906676542e-01 -1.073355720720542278e-01
6.461538461538461897e-01 9.834229435341566017e-01 1.439135404465713974e-01 1.102500769227216515e-01
7.384615384615385025e-01 9.324622303282246172e-01 1.833795179383160279e-01 3.112455094307358672e-01
8.307692307692308153e-01 8.467007956094215748e-01 2.138429502864358511e-01 4.871940124318541177e-01
9.230769230769231282e-01 7.384126778539994440e-01 2.312221104832105634e-01 6.334616884489473465e-01
1.015384615384615330e+00 6.199989943772279410e-01 2.336058735721588120e-01 7.490139699946160023e-01
1.107692307692307754e+00 5.025583659701212680e-01 2.214467032061059604e-01 8.356975615705288796e-01
1.200000000000000178e+00 3.947378908641333006e-01 1.972897127964838293e-01 8.973595634509662355e-01
1.292307692307692379e+00 3.021715701652086250e-01 1.651044554557161148e-01 9.388447229840759523e-01
1.384615384615384581e+00 2.273774131114825181e-01 1.293917742690999240e-01 9.651708290228951936e-01
1.476923076923077005e+00 1.701710025722708852e-01 9.434184029929590376e-02 9.808871452489179577e-01
1.569230769230769429e+00 1.284116516235910277e-01 6.318083474972115143e-02 9.897056480043093796e-01
1.661538461538461631e+00 9.887326486632730393e-02 3.781126047812157637e-02 9.943809020949243571e-01
1.753846153846153832e+00 7.808968281378077247e-02 1.879964450426339223e-02 9.967686834246481942e-01
1.846153846153846256e+00 6.300898808457357225e-02 5.640921181901618897e-03 9.979967087690170269e-01
1.938461538461538680e+00 5.133491734873250195e-02 -2.828489393323932455e-03 9.986772349008622429e-01
2.030769230769230660e+00 4.165136076682598998e-02 -7.979293801908045325e-03 9.991001309586348134e-01
2.123076923076923084e+00 3.326537553774888689e-02 -1.104196380610857758e-02 9.993853786249927706e-01
2.215384615384615508e+00 2.598019196656288499e-02 -1.290467406377698335e-02 9.995790113478392191e-01
2.307692307692307931e+00 1.980454657433506141e-02 -1.406703431366755977e-02 9.997047785608893511e-01
2.400000000000000355e+00 1.476195067068999944e-02 -1.470944296932919296e-02 9.997827245374212302e-01
2.492307692307692335e+00 1.077085947803280500e-02 -1.487051888528649959e-02 9.998313152606607135e-01
2.584615384615384759e+00 7.642626839746338024e-03 -1.453805374334038274e-02 9.998650192420235339e-01
2.676923076923077183e+00 5.136136203247150360e-03 -1.375923983613483274e-02 9.998920651615823552e-01
2.769230769230769162e+00 3.037087184140292370e-03 -1.266437243118322814e-02 9.999151187169665889e-01
2.861538461538461586e+00 1.204915922075714156e-03 -1.141845803540399162e-02 9.999340168102207604e-01
2.953846153846154010e+00 -4.028945489639376709e-04 -1.018110613214301408e-02 9.999480318588279681e-01
3.046153846153846434e+00 -1.762314316507148683e-03 -9.045811833760830298e-03 9.999574797965097295e-01
3.138461538461538858e+00 -2.835200936088852659e-03 -8.045491999653885812e-03 9.999635656042417109e-01
3.230769230769230838e+00 -3.591924225014280023e-03 -7.130460427783027674e-03 9.999680800112527024e-01
3.323076923076923261e+00 -4.058947298592682079e-03 -6.248412940843487383e-03 9.999721968123389537e-01
3.415384615384615685e+00 -4.314580178407769612e-03 -5.345107860390042182e-03 9.999763659701894625e-01
3.507692307692307665e+00 -4.439069706091321177e-03 -4.417179858881873852e-03 9.999803537269043030e-01
3.600000000000000089e+00 -4.512619943291243559e-03 -3.493938722740065530e-03 9.999836795656584787e-01
