0.000000000000000000e+00 -2.840272375080333803e-09 -2.796084955826601972e-09 -1.000000000000000000e+00
9.230769230769231282e-02 -6.354883450726742100e-02 -2.375449909150125771e-01 -9.692945163106340134e-01
1.846153846153846256e-01 -1.184295693414686435e-01 -4.602296610575726810e-01 -8.798628864575767095e-01
2.769230769230769384e-01 -1.574708869057820093e-01 -6.545901828423099644e-01 -7.393969653498185801e-01
3.692307692307692513e-01 -1.761424314060715535e-01 -8.098652421420551306e-01 -5.595383806595801701e-01
4.615384615384615641e-01 -1.732207289370425451e-01 -9.189147491728498762e-01 -3.543723689253266973e-01
5.538461538461538769e-01 -1.508065598962143872e-01 -9.787853422900478773e-01 -1.386553439837137913e-01
6.461538461538461897e-01 -1.137281775110292603e-01 -9.907572778156414905e-01 7.385426891325153065e-02
7.384615384615385025e-01 -6.850317845899439595e-02 -9.599206771102555269e-01 2.717511592241154128e-01
8.307692307692308153e-01 -2.207149754052228907e-02 -8.943396576479418769e-01 4.468328077006170629e-01
9.230769230769231282e-01 1.938507658222976549e-02 -8.039108947232558311e-01 5.944265651284528218e-01
1.015384615384615330e+00 5.138752761467321739e-02 -6.990936660670978853e-01 7.131762428018257882e-01
1.107692307692307754e+00 7.160236985130286058e-02 -5.897274372438469081e-01 8.044183618012241688e-01
1.200000000000000178e+00 7.987150021518404919e-02 -4.840391308792302283e-01 8.713909084523917548e-01
1.292307692307692379e+00 7.781204918645492907e-02 -3.880403362638479292e-01 9.183498543537049752e-01
1.384615384615384581e+00 6.817531602683268854e-02 -3.053138745256336328e-01 9.498067569797667975e-01
1.476923076923077005e+00 5.410400598853311316e-02 -2.371677296743315011e-01 9.699598883884220646e-01
1.569230769230769429e+00 3.851945434497425214e-02 -1.831056724716849660e-01 9.823375293486582560e-01
1.661538461538461631e+00 2.369392594346183406e-02 -1.414132969696162978e-01 9.896664613641199537e-01
1.753846153846153832e+00 1.103278535151158007e-02 -1.097896156907660764e-01 9.938931587290420477e-01
1.846153846153846256e+00 1.139757443909036189e-03 -8.587297667160061210e-02 9.963050842873467650e-01
1.938461538461538680e+00 -6.012165179081992161e-03 -6.759309754192290021e-02 9.976945721223062780e-01
2.030769230769230660e+00 -1.082378745323143293e-02 -5.334621807364073320e-02 9.985171839003372796e-01
2.123076923076923084e+00 -1.382386092207841047e-02 -4.201016656400168026e-02 9.990213541546316689e-01
2.215384615384615508e+00 -1.552032645614503242e-02 -3.285123270315652017e-02 9.993395812994257943e-01
2.307692307692307931e+00 -1.631209881966723049e-02 -2.540637106868847556e-02 9.995439782042473409e-01
2.400000000000000355e+00 -1.645712702037518960e-02 -1.936168089213554863e-02 9.996769775231385546e-01
2.492307692307692335e+00 -1.612273077133101126e-02 -1.446467111316362790e-02 9.997652887400872990e-01
2.584615384615384759e+00 -1.543539507212112437e-02 -1.050394765663242337e-02 9.998256059834029763e-01
2.676923076923077183e+00 -1.449004480503775921e-02 -7.293877022835350624e-03 9.998683340639547001e-01
2.769230769230769162e+00 -1.338139833787134816e-02 -4.679082729339161320e-03 9.998994496077603378e-01
2.861538461538461586e+00 -1.219107636024882417e-02 -2.539959568273708959e-03 9.999224000138410284e-01
2.953846153846154010e+00 -1.098934582103071669e-02 -8.068555446608047244e-04 9.999392359114699369e-01
3.046153846153846434e+00 -9.817329989163231865e-03 5.808574360291855754e-04 9.999515915169454594e-01
3.138461538461538858e+00 -8.690163825725238933e-03 1.655848540018134939e-03 9.999608246116219457e-01
3.230769230769230838e+00 -7.616817083234947265e-03 2.468822649134827778e-03 9.999679034883446338e-01
3.323076923076923261e+00 -6.588736905779560282e-03 3.061118262411597485e-03 9.999735715943466330e-01
3.415384615384615685e+00 -5.615590635954439448e-03 3.479674527370333476e-03 9.999781441681399041e-01
3.507692307692307665e+00 -4.701431339632080111e-03 3.767648187402345555e-03 9.999818191012436186e-01
3.600000000000000089e+00 -3.853770957426285240e-03 3.945432926806942409e-03 9.999847619087838257e-01
