0.000000000000000000e+00 -7.735783543005124407e-10 -5.118845901260614873e-09 -1.000000000000000000e+00
9.230769230769231282e-02 3.322869383460208548e-02 2.371802139715899760e-01 -9.708945245994008433e-01
1.846153846153846256e-01 6.390123068918127092e-02 4.594074495865377861e-01 -8.859178278334468581e-01
2.769230769230769384e-01 9.000490549257272876e-02 6.531877848230804862e-01 -7.518163208002505149e-01
3.692307692307692513e-01 1.103793696548970305e-01 8.078374448038316835e-01 -5.789581339761115109e-01
4.615384615384615641e-01 1.249504250674567662e-01 9.164305326639157201e-01 -3.801522391498937115e-01
5.538461538461538769e-01 1.347238188525579361e-01 9.763088167259718064e-01 -1.692377323834561298e-01
6.461538461538461897e-01 1.415721939977074018e-01 9.890896889597124986e-01 4.036300029077356105e-02
7.384615384615385025e-01 1.478270029798228746e-01 9.601905288555789841e-01 2.369657130891107966e-01
8.307692307692308153e-01 1.557935867893382176e-01 8.979394019693348605e-01 4.115908655680657890e-01
9.230769230769231282e-01 1.672729143901607318e-01 8.124204342388141598e-01 5.585425165812020198e-01
1.015384615384615330e+00 1.831798640642727516e-01 7.141940537617104123e-01 6.755385169612174723e-01
1.107692307692307754e+00 2.033371599150612941e-01 6.131065968978511860e-01 7.633725904159902598e-01
1.200000000000000178e+00 2.264984371224358084e-01 5.172777849226628533e-01 8.252927422627126530e-01
1.292307692307692379e+00 2.505724482252525975e-01 4.324360345830990937e-01 8.661411397599303452e-01
1.384615384615384581e+00 2.730141851781794915e-01 3.616456301154392650e-01 8.914398320886057769e-01
1.476923076923077005e+00 2.913227696408985934e-01 3.054220284814795905e-01 9.065531278733293119e-01
1.569230769230769429e+00 3.034890564370677501e-01 2.621806902640617110e-01 9.160493375269451732e-01
1.661538461538461631e+00 3.083836580279558093e-01 2.289090105161391553e-01 9.233045864499211941e-01
1.753846153846153832e+00 3.059470096534345762e-01 2.019873976612394373e-01 9.303704428052349540e-01
1.846153846153846256e+00 2.971779667742956432e-01 1.779235435903436802e-01 9.380941506640161354e-01
1.938461538461538680e+00 2.839265350859577763e-01 1.539795956777039732e-01 9.463977767983507983e-01
2.030769230769230660e+00 2.685063855897263374e-01 1.285525185865797337e-01 9.546580285099401930e-01
2.123076923076923084e+00 2.532804366518814354e-01 1.012868442430628901e-01 9.620727596015586913e-01
2.215384615384615508e+00 2.401980762099235334e-01 7.292834277752852090e-02 9.679777184966529280e-01
2.307692307692307931e+00 2.304746384110746560e-01 4.498824087904344793e-02 9.720351782167677701e-01
2.400000000000000355e+00 2.244191640077350947e-01 1.926918609820865713e-02 9.742996716029000970e-01
2.492307692307692335e+00 2.214465899828566287e-01 -2.594930504424552975e-03 9.751665870146883908e-01
2.584615384615384759e+00 2.202761348492831006e-01 -1.953679369635967500e-02 9.752394335191815200e-01
2.676923076923077183e+00 2.192517998975405946e-01 -3.129148850923535452e-02 9.751639305228725352e-01
2.769230769230769162e+00 2.167505497119510682e-01 -3.843661455223308654e-02 9.754676078354910240e-01
2.861538461538461586e+00 2.115190336954113071e-01 -4.225454239175585602e-02 9.764576708993711884e-01
2.953846153846154010e+00 2.029588432254164909e-01 -4.444081724603830830e-02 9.781759712486115532e-01
3.046153846153846434e+00 1.912365203274496162e-01 -4.675088547716879650e-02 9.804278169101549034e-01
3.138461538461538858e+00 1.772171752597220262e-01 -5.062319684287430732e-02 9.828669292865142015e-01
3.230769230769230838e+00 1.622665062951498538e-01 -5.690575761532036536e-02 9.851028512193930053e-01
3.323076923076923261e+00 1.479447551703296226e-01 -6.571722469800053701e-02 9.868080482277306054e-01
3.415384615384615685e+00 1.356498529407508258e-01 -7.645377123866033131e-02 9.878008930627039108e-01
3.507692307692307665e+00 1.263303504084450080e-01 -8.796159579157718233e-02 9.880789970454106896e-01
3.600000000000000089e+00 1.202883798866868637e-01 -9.882103459015642577e-02 9.878065472909027811e-01
