0.000000000000000000e+00 1.238928332110276695e-09 3.108763627886946616e-09 -1.000000000000000000e+00
9.230769230769231282e-02 -1.204313284832236042e-01 2.245616691100363049e-01 -9.669864270156433017e-01
1.846153846153846256e-01 -2.352565576527196611e-01 4.318292556999885345e-01 -8.707272657890771095e-01
2.769230769230769384e-01 -3.389254240828655229e-01 6.064778579564175098e-01 -7.192328312276443647e-01
3.692307692307692513e-01 -4.262198951016380466e-01 7.368175474225129307e-01 -5.247976108990635158e-01
4.615384615384615641e-01 -4.924736582681615849e-01 8.160230999082754844e-01 -3.025690789210513931e-01
5.538461538461538769e-01 -5.339214031279458927e-01 8.427086769055970317e-01 -6.884947135886168579e-02
6.461538461538461897e-01 -5.481036468339843815e-01 8.208159647867081521e-01 1.606680251490781031e-01
7.384615384615385025e-01 -5.342502366122390267e-01 7.588334411441172156e-01 3.724534175641860401e-01
8.307692307692308153e-01 -4.935897474984122790e-01 6.684754057179480569e-01 5.563152275751332976e-01
9.230769230769231282e-01 -4.294576990023201701e-01 5.630239248002795183e-01 7.060816928039406193e-01
1.015384615384615330e+00 -3.471644593343982121e-01 4.555705767717558308e-01 8.197060218744798288e-01
1.107692307692307754e+00 -2.536055902268429807e-01 3.574028595906622585e-01 8.988531980288677614e-01
1.200000000000000178e+00 -1.565867537795623265e-01 2.767654640245948983e-01 9.480898256195795515e-01
1.292307692307692379e+00 -6.399951115860602613e-02 2.181134834373745501e-01 9.738201149377657684e-01
1.384615384615384581e+00 1.709760651524001862e-02 1.820079366956464939e-01 9.831463978134756809e-01
1.476923076923077005e+00 8.130612848721445463e-02 1.655506834140028083e-01 9.828419570046847964e-01
1.569230769230769429e+00 1.255410934407327206e-01 1.632924869791938516e-01 9.785553295386290040e-01
1.661538461538461631e+00 1.493037887846483669e-01 1.684281822136559637e-01 9.743384569275530538e-01
1.753846153846153832e+00 1.546440797687926860e-01 1.741237454569221632e-01 9.725024701361661972e-01
1.846153846153846256e+00 1.456993807481791192e-01 1.746783839336409350e-01 9.737834457969931634e-01
1.938461538461538680e+00 1.279654900489221037e-01 1.663855148845846121e-01 9.777198696692330770e-01
2.030769230769230660e+00 1.073517955844117688e-01 1.479763876048003635e-01 9.831452771742000829e-01
2.123076923076923084e+00 8.922900566491494267e-02 1.205985983919881516e-01 9.886814143293997104e-01
2.215384615384615508e+00 7.760607706655466009e-02 8.733652751970873152e-02 9.931500975727853842e-01
2.307692307692307931e+00 7.459113837425229709e-02 5.245773725677913002e-02 9.958325028405793367e-01
2.400000000000000355e+00 8.019309487443933293e-02 2.045099572845401892e-02 9.965686251373919724e-01
2.492307692307692335e+00 9.252987764406454818e-02 -4.858967094676813758e-03 9.956970450550126639e-01
2.584615384615384759e+00 1.083498280805623298e-01 -2.105882618009263796e-02 9.938885565977200187e-01
2.676923076923077183e+00 1.237647768501417417e-01 -2.752161200020505905e-02 9.919284838998777554e-01
2.769230769230769162e+00 1.350909774310984357e-01 -2.545626182141139116e-02 9.905046456717335746e-01
2.861538461538461586e+00 1.395888810038353745e-01 -1.756349519566449691e-02 9.900522446066785109e-01
2.953846153846154010e+00 1.359845913090715064e-01 -7.428691906864293149e-03 9.906816257806174697e-01
3.046153846153846434e+00 1.246580645019035732e-01 1.230268279151250366e-03 9.921976491079096405e-01
3.138461538461538858e+00 1.075236502204704181e-01 5.317819327859102385e-03 9.941871385308176379e-01
3.230769230769230838e+00 8.756912599316189760e-02 2.950717162492736551e-03 9.961531220225260386e-01
3.323076923076923261e+00 6.822428316778930690e-02 -6.224788981228218665e-03 9.976498342952810905e-01
3.415384615384615685e+00 5.264097785294145904e-02 -2.101166676639260392e-02 9.983917951079059883e-01
3.507692307692307665e+00 4.306904107310126351e-02 -3.899735166787132723e-02 9.983100592362660342e-01
3.600000000000000089e+00 4.041603000459378925e-02 -5.710556917004968452e-02 9.975489775535201220e-01
