0.000000000000000000e+00 2.471815488912257903e-12 -1.165185654718352435e-12 -1.000000000000000000e+00
9.230769230769231282e-02 2.229054822052610463e-01 -1.043099384499174415e-01 -9.692433041776286062e-01
1.846153846153846256e-01 4.334770235322121801e-01 -1.982986275385779928e-01 -8.790764041774212778e-01
2.769230769230769384e-01 6.201415428642040872e-01 -2.724271138235974110e-01 -7.356683590367461001e-01
3.692307692307692513e-01 7.728116566125909914e-01 -3.186653990785741075e-01 -5.488301257909017350e-01
4.615384615384615641e-01 8.835018217815363561e-01 -3.311116424651590062e-01 -3.313451540714714705e-01
5.538461538461538769e-01 9.468180078570700431e-01 -3.064518084883826599e-01 -9.809663022906890684e-02
6.461538461538461897e-01 9.602787590875699886e-01 -2.442434077194547970e-01 1.349439240982217569e-01
7.384615384615385025e-01 9.244552065020587017e-01 -1.469783903887373899e-01 3.518237112204807837e-01
8.307692307692308153e-01 8.429130159942055389e-01 -1.994417241130430618e-02 5.376800885123103058e-01
9.230769230769231282e-01 7.219664755272565682e-01 1.291326967033504525e-01 6.797713989028550952e-01
1.015384615384615330e+00 5.702642356993656847e-01 2.906054767052313470e-01 7.683405225716016806e-01
1.107692307692307754e+00 3.982203341660067730e-01 4.535921661658630089e-01 7.972921121843641323e-01
1.200000000000000178e+00 2.173473568899527697e-01 6.067402545481178633e-01 7.646086516312877723e-01
1.292307692307692379e+00 3.951002452732637477e-02 7.390491895421488211e-01 6.724918241536662622e-01
1.384615384615384581e+00 -1.238197025684057428e-01 8.406590867658648714e-01 5.272200499096116877e-01
1.476923076923077005e+00 -2.622925141992609177e-01 9.035875529287230590e-01 3.387213771334150469e-01
1.569230769230769429e+00 -3.673266522161104386e-01 9.223309222515184702e-01 1.199032954485433622e-01
1.661538461538461631e+00 -4.326353175712905896e-01 8.943039591372715647e-01 -1.142239524701093994e-01
1.753846153846153832e+00 -4.546036300212615844e-01 8.200740590191928359e-01 -3.475831940248900187e-01
1.846153846153846256e+00 -4.324890488255117016e-01 7.033867785821966701e-01 -5.640924236296679384e-01
1.938461538461538680e+00 -3.684309564403054904e-01 5.509509950988076277e-01 -7.488068055401096990e-01
2.030769230769230660e+00 -2.672856570341188287e-01 3.720402884317406955e-01 -8.889006701602041316e-01
2.123076923076923084e+00 -1.362744833426966229e-01 1.778829443946291222e-01 -9.745701224500828985e-01
2.215384615384615508e+00 1.551840099822278038e-02 -1.907402285340961332e-02 -9.996976345652229812e-01
2.307692307692307931e+00 1.777434700156076408e-01 -2.059892013467998773e-01 -9.622763158770728520e-01
2.400000000000000355e+00 3.395006569484088632e-01 -3.705239238907977462e-01 -8.645526737565832898e-01
2.492307692307692335e+00 4.900311478593362136e-01 -5.016540874108247339e-01 -7.128903496840428566e-01
2.584615384615384759e+00 6.194444315020514180e-01 -5.904694097164788769e-01 -5.173340041595526628e-01
2.676923076923077183e+00 7.193498810040567237e-01 -6.307861584393879006e-01 -2.909374020101525571e-01
2.769230769230769162e+00 7.833921617838824902e-01 -6.196023612469125919e-01 -4.888389218497139754e-02
2.861538461538461586e+00 8.076542626469545016e-01 -5.573337780183419410e-01 1.925451850262517028e-01
2.953846153846154010e+00 7.908891546748275658e-01 -4.478266872008000443e-01 4.170678717989329543e-01
3.046153846153846434e+00 7.345808981733138454e-01 -2.981247162979452914e-01 6.095182998710793054e-01
3.138461538461538858e+00 6.428168588285919638e-01 -1.180213395765653123e-01 7.568734695838588156e-01
3.230769230769230838e+00 5.220022800710879540e-01 8.056196249143007804e-02 8.491309608211324855e-01
3.323076923076923261e+00 3.804089874040606500e-01 2.843822525741818152e-01 8.800089414196818893e-01
3.415384615384615685e+00 2.276130889813825220e-01 4.797509799319801260e-01 8.473672626368571326e-01
3.507692307692307665e+00 7.386052560195523198e-02 6.534402248681577818e-01 7.533661099461591570e-01
3.600000000000000089e+00 -7.063678593513578186e-02 7.936070912143574629e-01 6.043163329605920620e-01
