0.000000000000000000e+00 1.379397350715373500e-09 -2.675683914935200506e-09 -1.000000000000000000e+00
9.230769230769231282e-02 2.208407428191656308e-01 -9.263873532514027564e-02 -9.708982222796614936e-01
1.846153846153846256e-01 4.316969662124195417e-01 -1.693428116704281672e-01 -8.859752321692866417e-01
2.769230769230769384e-01 6.225168607612068250e-01 -2.164034447521386850e-01 -7.520831081572604271e-01
3.692307692307692513e-01 7.833648204220449163e-01 -2.241943981033610311e-01 -5.797057914343672902e-01
4.615384615384615641e-01 9.048314214787507304e-01 -1.885728593437442369e-01 -3.817060383893838282e-01
5.538461538461538769e-01 9.787721569266195631e-01 -1.115802515776918025e-01 -1.718491220605269654e-01
6.461538461538461897e-01 9.993146855854906363e-01 -1.281154868388811874e-03 3.667795031190226873e-02
7.384615384615385025e-01 9.639509141976125850e-01 1.292021989951193661e-01 2.325576346686363260e-01
8.307692307692308153e-01 8.744960607185828794e-01 2.634095457322611633e-01 4.072487334322549835e-01
9.230769230769231282e-01 7.376475684322127968e-01 3.837950736207439428e-01 5.554812176607974994e-01
1.015384615384615330e+00 5.649422575584531758e-01 4.742141424789512172e-01 6.752375501249820999e-01
1.107692307692307754e+00 3.719809607403730678e-01 5.222875076404938088e-01 7.673545837291786409e-01
1.200000000000000178e+00 1.769179372793727167e-01 5.212985852064143666e-01 8.348276541395572847e-01
1.292307692307692379e+00 -1.626690047187684396e-03 4.712901052897044418e-01 8.819717812383321975e-01
1.384615384615384581e+00 -1.469359859898995424e-01 3.791622441957284706e-01 9.135854846849981170e-01
1.476923076923077005e+00 -2.464969681087303133e-01 2.577035880185434835e-01 9.342493092421282341e-01
1.569230769230769429e+00 -2.937926386417431535e-01 1.236840484689858966e-01 9.478304498130047939e-01
1.661538461538461631e+00 -2.892849031644868507e-01 -4.722868273451502619e-03 9.572287727927553114e-01
1.753846153846153832e+00 -2.403322665594891105e-01 -1.107833426831678209e-01 9.643458478597058958e-01
1.846153846153846256e+00 -1.600004748316922742e-01 -1.818036445337368745e-01 9.702284079723301202e-01
1.938461538461538680e+00 -6.495303957590968513e-02 -2.111043432676412979e-01 9.753011481239178826e-01
2.030769230769230660e+00 2.728226585665030623e-02 -1.989215470392731444e-01 9.796338670759633382e-01
2.123076923076923084e+00 1.011600581013117617e-01 -1.521462281043791387e-01 9.831658619977988733e-01
2.215384615384615508e+00 1.456148623186279412e-01 -8.289551211441360812e-02 9.858609650229289700e-01
2.307692307692307931e+00 1.557039718433487763e-01 -6.172591820161138498e-03 9.877831566452152101e-01
2.400000000000000355e+00 1.331369315609240433e-01 6.292280715683726267e-02 9.890969732503106515e-01
2.492307692307692335e+00 8.557888922801759612e-02 1.119386159931876068e-01 9.900220432509424517e-01
2.584615384615384759e+00 2.486616494200847433e-02 1.332211856018401530e-01 9.907731952325122826e-01
2.676923076923077183e+00 -3.549457169020048264e-02 1.251079859239257186e-01 9.915069097888775662e-01
2.769230769230769162e+00 -8.307677395034260281e-02 9.189422471378297375e-02 9.922961387954295498e-01
2.861538461538461586e+00 -1.089407563153343556e-01 4.262689189859849431e-02 9.931328714716406436e-01
2.953846153846154010e+00 -1.092426419326624903e-01 -1.096745210127141046e-02 9.939536816352636528e-01
3.046153846153846434e+00 -8.576053765121724459e-02 -5.707617643139886732e-02 9.946786968404943696e-01
3.138461538461538858e+00 -4.521393662288415716e-02 -8.624884470067506470e-02 9.952463014012288278e-01
3.230769230769230838e+00 2.411489678865903763e-03 -9.328740277947801529e-02 9.956355121239313100e-01
3.323076923076923261e+00 4.619180090936449157e-02 -7.814310193839560381e-02 9.958706961548363656e-01
3.415384615384615685e+00 7.666015668562725649e-02 -4.565901823171282514e-02 9.960105270747822148e-01
3.507692307692307665e+00 8.784258702604683111e-02 -4.287548039792751092e-03 9.961243958155449052e-01
3.600000000000000089e+00 7.840511841479978761e-02 3.597572320213095198e-02 9.962715154782533222e-01
