0.000000000000000000e+00 5.023086605719996973e-09 2.789157727928486146e-09 -1.000000000000000000e+00
9.230769230769231282e-02 2.396729653682503347e-01 -5.497034632080624594e-02 -9.692952365983140695e-01
1.846153846153846256e-01 4.658901927954211541e-01 -9.355731592274704744e-02 -8.798803322783738112e-01
2.769230769230769384e-01 6.653626312132039367e-01 -1.022943270167253060e-01 -7.394743458904122768e-01
3.692307692307692513e-01 8.254280205457558139e-01 -7.302608157560325219e-02 -5.597567713601512285e-01
4.615384615384615641e-01 9.349150034014647170e-01 -4.516794447053065764e-03 -3.548294452209155292e-01
5.538461538461538769e-01 9.854497581980282694e-01 9.710789295616631400e-02 -1.394582287218902039e-01
6.461538461538461897e-01 9.729656552025769400e-01 2.191968097262249893e-01 7.266555726517887059e-02
7.384615384615385025e-01 8.990292221589893940e-01 3.446061982504781684e-01 2.701541760672962478e-01
8.307692307692308153e-01 7.715836163900515743e-01 4.546457289728863538e-01 4.449123891224229799e-01
9.230769230769231282e-01 6.047030452268020717e-01 5.324117507398652416e-01 5.923378427958101433e-01
1.015384615384615330e+00 4.172083968049535851e-01 5.659261715655174996e-01 7.110965537923433777e-01
1.107692307692307754e+00 2.301803247926816620e-01 5.504025283840828786e-01 8.025390055267865863e-01
1.200000000000000178e+00 6.384415333181622798e-02 4.891405360217422338e-01 8.698628518138340482e-01
1.292307692307692379e+00 -6.564444335745253656e-02 3.928460309517092797e-01 9.172565703335251452e-01
1.384615384615384581e+00 -1.487445421479434426e-01 2.773977225937918067e-01 9.491696943284313459e-01
1.476923076923077005e+00 -1.838626068692899573e-01 1.606694405386859259e-01 9.697308949923344468e-01
1.569230769230769429e+00 -1.770934784012725416e-01 5.894906014509189440e-02 9.824263312849852436e-01
1.661538461538461631e+00 -1.403929323680451202e-01 -1.608408822214661693e-02 9.899646857211141793e-01
1.753846153846153832e+00 -8.869597985780339200e-02 -5.923325823548388630e-02 9.942955544653311328e-01
1.846153846153846256e+00 -3.656259369085308741e-02 -7.206792897819710997e-02 9.967290403150368405e-01
1.938461538461538680e+00 4.730848479297000697e-03 -6.166762710176728474e-02 9.980852936404394082e-01
2.030769230769230660e+00 2.903594754977908976e-02 -3.818966518646903924e-02 9.988483834055740251e-01
2.123076923076923084e+00 3.576507939712694761e-02 -1.205622930561178752e-02 9.992873514063677076e-01
2.215384615384615508e+00 2.883974083629784954e-02 8.564664192369248613e-03 9.995472348114287087e-01
2.307692307692307931e+00 1.473484564352333520e-02 1.930159123785015612e-02 9.997050232457990182e-01
2.400000000000000355e+00 1.533303342686215959e-04 1.985118399228828420e-02 9.998028512987245930e-01
2.492307692307692335e+00 -9.926646318785606327e-03 1.310357895382816690e-02 9.998648001142607100e-01
2.584615384615384759e+00 -1.332920147563668167e-02 3.514135260347486887e-03 9.999049274367380891e-01
2.676923076923077183e+00 -1.069099489100689380e-02 -4.697738319716930795e-03 9.999317632825035496e-01
2.769230769230769162e+00 -4.599623670048205021e-03 -8.851038681190425556e-03 9.999502053730930928e-01
2.861538461538461586e+00 1.751801032137125305e-03 -8.403374774968684624e-03 9.999631174901768560e-01
2.953846153846154010e+00 5.815495545269006548e-03 -4.648256699552752447e-03 9.999722521877079107e-01
3.046153846153846434e+00 6.510101812680310109e-03 1.466083313245193642e-04 9.999787678782479095e-01
3.138461538461538858e+00 4.304852544548215185e-03 3.797284999813822174e-03 9.999834971393283256e-01
3.230769230769230838e+00 7.397160006872849358e-04 5.044502350598182618e-03 9.999869784648683924e-01
3.323076923076923261e+00 -2.411252090829187501e-03 3.849715543244597391e-03 9.999896607126206316e-01
3.415384615384615685e+00 -3.880260921311687056e-03 1.208017513577425844e-03 9.999917221646511534e-01
3.507692307692307665e+00 -3.350433647028478856e-03 -1.458401465945258733e-03 9.999933056639871420e-01
3.600000000000000089e+00 -1.415300759002967009e-03 -2.986714522699116317e-03 9.999945216285103244e-01
