0.000000000000000000e+00 3.600278966629852009e-09 1.760244606984294054e-09 -1.000000000000000000e+00
9.230769230769231282e-02 -6.969499199033452053e-02 -2.290973400511203961e-01 -9.709042264570627578e-01
1.846153846153846256e-01 -1.315224223518700608e-01 -4.445076550405169247e-01 -8.860646502473730202e-01
2.769230769230769384e-01 -1.788777160118535103e-01 -6.338307430072579463e-01 -7.524990239302181694e-01
3.692307692307692513e-01 -2.074023758890720104e-01 -7.871288025863490967e-01 -5.808647176022733172e-01
4.615384615384615641e-01 -2.155529474430400994e-01 -8.977657544487464003e-01 -3.841136600933476308e-01
5.538461538461538769e-01 -2.046685227484995595e-01 -9.628919436009959476e-01 -1.758939093006958998e-01
6.461538461538461897e-01 -1.784946753531861940e-01 -9.834496120631547322e-01 3.090394568133859529e-02
7.384615384615385025e-01 -1.423728643575314923e-01 -9.637889824179576292e-01 2.254544227911473020e-01
8.307692307692308153e-01 -1.022002415230160444e-01 -9.109004965951418287e-01 3.997564099864692189e-01
9.230769230769231282e-01 -6.345090502332884075e-02 -8.334125805989681668e-01 5.489886286514904512e-01
1.015384615384615330e+00 -3.038733617387801011e-02 -7.405135613762935387e-01 6.713483934198746228e-01
1.107692307692307754e+00 -5.617518305133364920e-03 -6.409217271308662589e-01 7.675815533074792363e-01
1.200000000000000178e+00 9.978321766586334407e-03 -5.420776766941427516e-01 8.402660802025142539e-01
1.292307692307692379e+00 1.701959952640549889e-02 -4.496103649286373183e-01 8.930603448388900745e-01
1.384615384615384581e+00 1.714322143524987796e-02 -3.671593830520751278e-01 9.299983279239497636e-01
1.476923076923077005e+00 1.250598317974790236e-02 -2.964826298939371441e-01 9.549550422817997264e-01
1.569230769230769429e+00 5.268944018571364296e-03 -2.377767877351646131e-01 9.713045135183602241e-01
1.661538461538461631e+00 -2.742790960645419274e-03 -1.901342412239017121e-01 9.817534737165760639e-01
1.753846153846153832e+00 -1.024214645918432656e-02 -1.520385374985358806e-01 9.883208643721972386e-01
1.846153846153846256e+00 -1.647906734872250922e-02 -1.217613641962746046e-01 9.924220888058201684e-01
1.938461538461538680e+00 -2.118449609554055174e-02 -9.765174449955016378e-02 9.949947413229205395e-01
2.030769230769230660e+00 -2.439916787762319919e-02 -7.832450044999397787e-02 9.966289548129136922e-01
2.123076923076923084e+00 -2.632832482882289243e-02 -6.269567778432458272e-02 9.976850720916541349e-01
2.215384615384615508e+00 -2.723139402402931925e-02 -4.995914105328493060e-02 9.983797166468031392e-01
2.307692307692307931e+00 -2.735175099386823530e-02 -3.952319855192960862e-02 9.988440255066016737e-01
2.400000000000000355e+00 -2.687574064317340555e-02 -3.094601535663779601e-02 9.991594892002044759e-01
2.492307692307692335e+00 -2.595816914326112487e-02 -2.388269147583073349e-02 9.993775478797557454e-01
2.584615384615384759e+00 -2.471515953585443418e-02 -1.805942456671751767e-02 9.995312637251068111e-01
2.676923076923077183e+00 -2.324776047712517196e-02 -1.324540682212895643e-02 9.996418666132446118e-01
2.769230769230769162e+00 -2.163357849004936273e-02 -9.265882873226534075e-03 9.997229209074866008e-01
2.861538461538461586e+00 -1.995545795851326118e-02 -5.978941290885114376e-03 9.997828968720718912e-01
2.953846153846154010e+00 -1.826057212707096408e-02 -3.267945475645037644e-03 9.998278353899106019e-01
3.046153846153846434e+00 -1.658912713399968500e-02 -1.058152553014466823e-03 9.998617532242785044e-01
3.138461538461538858e+00 -1.496227623643029900e-02 7.259318503207365381e-04 9.998877247442943261e-01
3.230769230769230838e+00 -1.339089517391830672e-02 2.149353161075340246e-03 9.999079631838694304e-01
3.323076923076923261e+00 -1.188808808329932035e-02 3.265011992511106242e-03 9.999239443016905149e-01
3.415384615384615685e+00 -1.045809138583091158e-02 4.132627690345041377e-03 9.999367181708050945e-01
3.507692307692307665e+00 -9.113728637317616843e-03 4.791144685400905087e-03 9.999469404499929936e-01
3.600000000000000089e+00 -7.859676416488374506e-03 5.274103821394029654e-03 9.999551567089427495e-01
