0.000000000000000000e+00 1.492103147540366266e-09 3.070492848546617495e-09 -1.000000000000000000e+00
9.230769230769231282e-02 -1.806505168709392484e-01 -1.669027155635482429e-01 -9.692798593551036346e-01
1.846153846153846256e-01 -3.429299270162913249e-01 -3.295798749864023436e-01 -8.796389523514481779e-01
2.769230769230769384e-01 -4.704741507323719762e-01 -4.832047388386124798e-01 -7.383423947918767993e-01
3.692307692307692513e-01 -5.506788231041083170e-01 -6.220853639820542735e-01 -5.565422429976504270e-01
4.615384615384615641e-01 -5.760723355040360261e-01 -7.395953138820992034e-01 -3.480113995550386252e-01
5.538461538461538769e-01 -5.451564123084560176e-01 -8.285494801251636066e-01 -1.275951091569541562e-01
6.461538461538461897e-01 -4.625762539286827901e-01 -8.819463384030705733e-01 9.035460672401672555e-02
7.384615384615385025e-01 -3.386043445689695952e-01 -8.940015000824506064e-01 2.933941967797981110e-01
8.307692307692308153e-01 -1.879765986744109663e-01 -8.612927253832551866e-01 4.720321758015258440e-01
9.230769230769231282e-01 -2.816466182186538880e-02 -7.837792787865122124e-01 6.203831201473377632e-01
1.015384615384615330e+00 1.226557031887286209e-01 -6.655075510835105623e-01 7.362319433885474718e-01
1.107692307692307754e+00 2.478073979107899283e-01 -5.147597769901356424e-01 8.207310908861610299e-01
1.200000000000000178e+00 3.341209950277508889e-01 -3.436195298356683470e-01 8.776543719088779616e-01
1.292307692307692379e+00 3.735498839030833573e-01 -1.668717704236672983e-01 9.124717483871802592e-01
1.384615384615384581e+00 3.641254277857406962e-01 -4.011975641856763142e-04 9.313453298909470934e-01
1.476923076923077005e+00 3.101456182946525364e-01 1.407253496843194340e-01 9.402118400702818013e-01
1.569230769230769429e+00 2.215121948260324325e-01 2.442056464476390076e-01 9.440807441002451172e-01
1.661538461538461631e+00 1.123121312570578012e-01 3.021894260464573212e-01 9.466045788297710040e-01
1.753846153846153832e+00 -1.180466514374006737e-03 3.123968194951105559e-01 9.499472534065018792e-01
1.846153846153846256e+00 -1.028285328608097848e-01 2.784725146753282976e-01 9.549202552937168242e-01
1.938461538461538680e+00 -1.789020826073371984e-01 2.095089629859134828e-01 9.612980268201408718e-01
2.030769230769230660e+00 -2.200023554365767575e-01 1.187308289526699534e-01 9.682439941492607671e-01
2.123076923076923084e+00 -2.223235113642136607e-01 2.157478190052304623e-02 9.747317045074865849e-01
2.215384615384615508e+00 -1.880546159951486107e-01 -6.660193702041133923e-02 9.798955542756789816e-01
2.307692307692307931e+00 -1.248666678547427078e-01 -1.327660166870446856e-01 9.832484644002712493e-01
2.400000000000000355e+00 -4.454931036440752667e-02 -1.680927641579782750e-01 9.847621094516193496e-01
2.492307692307692335e+00 3.897835470990462792e-02 -1.691918645001542487e-01 9.848101557084386615e-01
2.584615384615384759e+00 1.119531826683034664e-01 -1.384181078556176725e-01 9.840239062428332018e-01
2.676923076923077183e+00 1.629910708432818767e-01 -8.328065687651661775e-02 9.831044045679487864e-01
2.769230769230769162e+00 1.848985720446776060e-01 -1.501057006997259802e-02 9.826409165353807706e-01
2.861538461538461586e+00 1.756980564097823660e-01 5.345708997794677841e-02 9.829895968249288130e-01
2.953846153846154010e+00 1.388076322123525386e-01 1.097568376561874476e-01 9.842164604438820019e-01
3.046153846153846434e+00 8.226175823570813783e-02 1.441791167701500231e-01 9.861246311593667713e-01
3.138461538461538858e+00 1.717197079319936204e-02 1.512957485464702656e-01 9.883377071960706139e-01
3.230769230769230838e+00 -4.433330079579851646e-02 1.307588210905057113e-01 9.904209743252997411e-01
3.323076923076923261e+00 -9.126509293619698704e-02 8.721165182717850739e-02 9.919990322686295103e-01
3.415384615384615685e+00 -1.157212115055250151e-01 2.929599371442549033e-02 9.928483065838282773e-01
3.507692307692307665e+00 -1.142024047814091531e-01 -3.201358484453982467e-02 9.929402678042078545e-01
3.600000000000000089e+00 -8.812374992850924293e-02 -8.549637726278272454e-02 9.924323233227548835e-01
