0.000000000000000000e+00 -3.498551510543198741e-09 1.405100538762808254e-10 -1.000000000000000000e+00
9.230769230769231282e-02 -1.931853050329989940e-01 1.603235247394407537e-01 -9.679733158958280237e-01
1.846153846153846256e-01 -3.794310049506500748e-01 3.015469942876923826e-01 -8.746966471067196824e-01
2.769230769230769384e-01 -5.513698582817886384e-01 4.070690853913475626e-01 -7.281996592333846996e-01
3.692307692307692513e-01 -7.010615586156512258e-01 4.649038474168775137e-01 -5.407053724733322797e-01
4.615384615384615641e-01 -8.202550433473358993e-01 4.692514463605398922e-01 -3.270587791868800331e-01
5.538461538461538769e-01 -9.010839660953222641e-01 4.212270150537669178e-01 -1.029411637586939293e-01
6.461538461538461897e-01 -9.371677279466508192e-01 3.286785300364057916e-01 1.169122254654983428e-01
7.384615384615385025e-01 -9.248823733905251476e-01 2.050364615101815113e-01 3.202113585425200304e-01
8.307692307692308153e-01 -8.645154222542111855e-01 6.739267209560323435e-02 4.980520866291243687e-01
9.230769230769231282e-01 -7.609582901163934876e-01 -6.597680848626596983e-02 6.454273865367227137e-01
1.015384615384615330e+00 -6.237538983589793196e-01 -1.782742312380702354e-01 7.610117260224760205e-01
1.107692307692307754e+00 -4.662927571229739665e-01 -2.565781493681882908e-01 8.465993877814580459e-01
1.200000000000000178e+00 -3.042801924211180342e-01 -2.936684191604006511e-01 9.061822318244118213e-01
1.292307692307692379e+00 -1.536292044784167421e-01 -2.888856410536519426e-01 9.449542492282339001e-01
1.384615384615384581e+00 -2.819306161318342260e-02 -2.478862183384056839e-01 9.683770655841511532e-01
1.476923076923077005e+00 6.225555639371953276e-02 -1.814034269411744227e-01 9.814348885380203003e-01
1.569230769230769429e+00 1.134265101723610086e-01 -1.031272437502311762e-01 9.881786971613273352e-01
1.661538461538461631e+00 1.269287561538305353e-01 -2.717192139957713692e-02 9.915387159568395115e-01
1.753846153846153832e+00 1.096725635800589460e-01 3.440665834663508837e-02 9.933713098984305878e-01
1.846153846153846256e+00 7.234154839836022532e-02 7.359592482573844296e-02 9.946602161198689895e-01
1.938461538461538680e+00 2.720667765014228578e-02 8.750297292790629178e-02 9.957920392548947897e-01
2.030769230769230660e+00 -1.421321051117249018e-02 7.842220721299283936e-02 9.968183654356341794e-01
2.123076923076923084e+00 -4.321271459000899928e-02 5.279782538660472702e-02 9.976693391578119741e-01
2.215384615384615508e+00 -5.525571679366522021e-02 1.948239529074216603e-02 9.982817384742111999e-01
2.307692307692307931e+00 -5.035583630920478088e-02 -1.240749014600717182e-02 9.986539033666094189e-01
2.400000000000000355e+00 -3.247474857955760796e-02 -3.546739905311707686e-02 9.988427184654634639e-01
2.492307692307692335e+00 -8.123146313359620729e-03 -4.544998748988522685e-02 9.989332619708418681e-01
2.584615384615384759e+00 1.548220952707872987e-02 -4.187204542564448850e-02 9.990027033372599341e-01
2.676923076923077183e+00 3.223462479860349922e-02 -2.767157829331408359e-02 9.990968967838637083e-01
2.769230769230769162e+00 3.851772961009330976e-02 -8.105993568700953222e-03 9.992247566095868727e-01
2.861538461538461586e+00 3.385642567855479124e-02 1.082872086058477359e-02 9.993677847895617861e-01
2.953846153846154010e+00 2.071463274973256441e-02 2.399796312624389097e-02 9.994971438447354251e-01
3.046153846153846434e+00 3.549792948259975281e-03 2.839401741665965873e-02 9.995902946695124358e-01
3.138461538461538858e+00 -1.254278801881675287e-02 2.369920461729811689e-02 9.996402502374187593e-01
3.230769230769230838e+00 -2.325546692196715434e-02 1.215200770390943187e-02 9.996555023198357981e-01
3.323076923076923261e+00 -2.616482003335443562e-02 -2.315601175954706131e-03 9.996547659301471267e-01
3.415384615384615685e+00 -2.124393819291099661e-02 -1.528869001400744165e-02 9.996572225438310477e-01
3.507692307692307665e+00 -1.067780677036473704e-02 -2.313833789572477401e-02 9.996750587723903791e-01
3.600000000000000089e+00 1.934545346871232446e-03 -2.399150012541036159e-02 9.997101107953790811e-01
