0.000000000000000000e+00 7.570139159239909588e-10 -1.796295228855007642e-09 -1.000000000000000000e+00
9.230769230769231282e-02 -2.355315616814196433e-01 9.735433469097629078e-02 -9.669743047255394686e-01
1.846153846153846256e-01 -4.555254509330114998e-01 1.861493899032461152e-01 -8.705335221499022058e-01
2.769230769230769384e-01 -6.456790037611646049e-01 2.590410903187881364e-01 -7.183112752914291299e-01
3.692307692307692513e-01 -7.942115842236169287e-01 3.107736165966470399e-01 -5.221251544049124726e-01
4.615384615384615641e-01 -8.927748020351620184e-01 3.388950582049514715e-01 -2.967570774256360067e-01
5.538461538461538769e-01 -9.371148601404302170e-01 3.440368213755181648e-01 -5.842438517589630675e-02
6.461538461538461897e-01 -9.273367521829780635e-01 3.297626320767038655e-01 1.768132983775666522e-01
7.384615384615385025e-01 -8.677890503297129854e-01 3.020006587272445753e-01 3.945898867031601420e-01
8.307692307692308153e-01 -7.665573926340392141e-01 2.681448092044010911e-01 5.834871020689468279e-01
9.230769230769231282e-01 -6.346238027695292327e-01 2.359736731449741387e-01 7.358972006161640378e-01
1.015384615384615330e+00 -4.847688507132075220e-01 2.125068411093015697e-01 8.484233129736877821e-01
1.107692307692307754e+00 -3.303318883529289263e-01 2.030038339044939466e-01 9.217689255693070072e-01
1.200000000000000178e+00 -1.839475074058178894e-01 2.102143024438332675e-01 9.601899490188837705e-01
1.292307692307692379e+00 -5.638459112847027388e-02 2.340177478391437249e-01 9.705921977564734293e-01
1.384615384615384581e+00 4.439961406744925843e-02 2.714898185980726408e-01 9.614122793619678253e-01
1.476923076923077005e+00 1.139021947796474143e-01 3.173531182009352025e-01 9.414365554523139723e-01
1.569230769230769429e+00 1.512900099429497214e-01 3.647786629351738585e-01 9.187139158150811058e-01
1.661538461538461631e+00 1.592564395256786947e-01 4.064205825278454087e-01 8.996918978738024375e-01
1.753846153846153832e+00 1.434881212019682439e-01 4.355236897602136059e-01 8.886592393305702275e-01
1.846153846153846256e+00 1.118117550612646172e-01 4.469330433762948029e-01 8.875437304890647638e-01
1.938461538461538680e+00 7.314393036449412522e-02 4.378604685845263189e-01 8.960545293309408743e-01
2.030769230769230660e+00 3.635054391265095386e-02 4.082985763295693959e-01 9.121171832759703557e-01
2.123076923076923084e+00 9.154376534775965357e-03 3.610432580351366494e-01 9.324980413193753037e-01
2.215384615384615508e+00 -2.776161763006351757e-03 3.012921295056282811e-01 9.535229843772385916e-01
2.307692307692307931e+00 3.570587581519610310e-03 2.358926840091724875e-01 9.717688978950024259e-01
2.400000000000000355e+00 2.828106191065518638e-02 1.723729516778442772e-01 9.846230571175464963e-01
2.492307692307692335e+00 6.865073175979989617e-02 1.178558395569788003e-01 9.906528359603219425e-01
2.584615384615384759e+00 1.196911873874632048e-01 7.806849595952933263e-02 9.897348635294817010e-01
2.676923076923077183e+00 1.749182100638084492e-01 5.652693847100340868e-02 9.829561860493631897e-01
2.769230769230769162e+00 2.272981768421481752e-01 5.405190097375629776e-02 9.723203702342270160e-01
2.861538461538461586e+00 2.702660003090026630e-01 6.872574820267955686e-02 9.603252357612798162e-01
2.953846153846154010e+00 2.986602631694533216e-01 9.620283404595725285e-02 9.494932143809978742e-01
3.046153846153846434e+00 3.094239248235217121e-01 1.303812992992227637e-01 9.419379527798158458e-01
3.138461538461538858e+00 3.020245143076608074e-01 1.643447876262095209e-01 9.390214253931443711e-01
3.230769230769230838e+00 2.784658806382904750e-01 1.913804871835010080e-01 9.411799652933973137e-01
3.323076923076923261e+00 2.429740402226985840e-01 2.059710978021328243e-01 9.479080489460521841e-01
3.415384615384615685e+00 2.013550830124205271e-01 2.046031382132746379e-01 9.579065192504170323e-01
3.507692307692307665e+00 1.601283307224983243e-01 1.862490233581647336e-01 9.693620601378044599e-01
3.600000000000000089e+00 1.255780614242927862e-01 1.524901437174093211e-01 9.802912930989879925e-01
