0.000000000000000000e+00 2.291070247372374454e-09 -2.745086754021971214e-09 -1.000000000000000000e+00
9.230769230769231282e-02 2.047421647337180350e-01 1.362204188179658715e-01 -9.692890761846109093e-01
1.846153846153846256e-01 3.941527651196025661e-01 2.657591125310938551e-01 -8.797776027533095178e-01
2.769230769230769384e-01 5.547719199903304865e-01 3.822414746820318454e-01 -7.389916382709756926e-01
3.692307692307692513e-01 6.765716881664276539e-01 4.800366694505238119e-01 -5.583916006304046054e-01
4.615384615384615641e-01 7.540084322636183556e-01 5.546098012794588028e-01 -3.519408567337619087e-01
5.538461538461538769e-01 7.864044036874352495e-01 6.028915773759170316e-01 -1.344305624356225970e-01
6.461538461538461897e-01 7.776288571658119819e-01 6.235766548725218961e-01 8.016908118019659690e-02
7.384615384615385025e-01 7.351637585207019265e-01 6.173114768043211908e-01 2.800773269509175267e-01
8.307692307692308153e-01 6.687576908519479169e-01 5.866848106549469311e-01 4.566709351665354522e-01
9.230769230769231282e-01 5.888916709806287786e-01 5.360094719138763786e-01 6.048858429132022430e-01
1.015384615384615330e+00 5.053383651462475257e-01 4.708595419822174666e-01 7.231273506561211040e-01
1.107692307692307754e+00 4.260063212035458680e-01 3.974689217773465510e-01 8.127287338626700830e-01
1.200000000000000178e+00 3.562815371727079405e-01 3.220042760327655462e-01 8.771371464717095945e-01
1.292307692307692379e+00 2.988060658510297563e-01 2.499010924096968789e-01 9.210096668496045025e-01
1.384615384615384581e+00 2.537993749344875649e-01 1.853033147019847449e-01 9.493388149190165048e-01
1.476923076923077005e+00 2.196647033781202740e-01 1.307542847761025695e-01 9.667715630893756185e-01
1.569230769230769429e+00 1.937875454106016693e-01 8.714803525267121598e-02 9.771636221039063930e-01
1.661538461538461631e+00 1.733249619458724633e-01 5.393569255116316408e-02 9.833854707563440822e-01
1.753846153846153832e+00 1.558260737950216968e-01 2.954939684695731539e-02 9.873413597460249935e-01
1.846153846153846256e+00 1.396078325039674384e-01 1.189999178873472896e-02 9.901344282014457043e-01
1.938461538461538680e+00 1.238630925546220507e-01 -1.126193287402557641e-03 9.922978477994776059e-01
2.030769230769230660e+00 1.085258342466789844e-01 -1.128056709547252054e-02 9.940288923627523809e-01
2.123076923076923084e+00 9.398437111062819815e-02 -1.973022503290419727e-02 9.953775033310988674e-01
2.215384615384615508e+00 8.076320054655258818e-02 -2.704184292132961326e-02 9.963658469632535875e-01
2.307692307692307931e+00 6.926151741384356519e-02 -3.328972701234679532e-02 9.970424258047798638e-01
2.400000000000000355e+00 5.956775608071406686e-02 -3.828590165283896063e-02 9.974893047554348469e-01
2.492307692307692335e+00 5.147338347784752299e-02 -4.180564178291052563e-02 9.977985158232970386e-01
2.584615384615384759e+00 4.453776448284336303e-02 -4.375389981420876873e-02 9.980486616212027595e-01
2.676923076923077183e+00 3.826399171229354773e-02 -4.427678715827248340e-02 9.982858460820593915e-01
2.769230769230769162e+00 3.223494349460850894e-02 -4.372346011809059851e-02 9.985231186071151788e-01
2.861538461538461586e+00 2.624694933829889096e-02 -4.255488186204602064e-02 9.987489606811357223e-01
2.953846153846154010e+00 2.031293666156663846e-02 -4.121334086018478560e-02 9.989435447405955459e-01
3.046153846153846434e+00 1.463728534391059259e-02 -4.001698042013489276e-02 9.990914838378228691e-01
3.138461538461538858e+00 9.495636010905555979e-03 -3.907085353809071349e-02 9.991910406249665533e-01
3.230769230769230838e+00 5.117475661699049522e-03 -3.829604300937503036e-02 9.992530604292859664e-01
3.323076923076923261e+00 1.608945421102025292e-03 -3.748002522820620408e-02 9.992958155979554391e-01
3.415384615384615685e+00 -1.100572790135680157e-03 -3.638133386017431553e-02 9.993371154875699824e-01
3.507692307692307665e+00 -3.217468828108787510e-03 -3.483575912341962955e-02 9.993876217560496711e-01
3.600000000000000089e+00 -5.028428476255515644e-03 -3.280620922390036637e-02 9.994488441117818089e-01
