0.000000000000000000e+00 -2.019957234083239252e-10 1.838096240832909761e-09 -1.000000000000000000e+00
9.230769230769231282e-02 -2.093141618408329296e-01 1.163258452270552745e-01 -9.709034552822959352e-01
1.846153846153846256e-01 -4.111626111194737199e-01 2.141306191700643180e-01 -8.860521190009361669e-01
2.769230769230769384e-01 -5.973816887316052426e-01 2.774210102320150417e-01 -7.524393553708372817e-01
3.692307692307692513e-01 -7.588140851828055755e-01 2.949226891310205434e-01 -5.806992675824856898e-01
4.615384615384615641e-01 -8.855469086352759644e-01 2.617583939475409127e-01 -3.837671318142223398e-01
5.538461538461538769e-01 -9.678546656938593618e-01 1.803117725939590299e-01 -1.753046135369834002e-01
6.461538461538461897e-01 -9.976793435874738991e-01 6.011610061333574895e-02 3.175672562754150441e-02
7.384615384615385025e-01 -9.704263463030404768e-01 -8.332632265786904524e-02 2.265312555571397934e-01
8.307692307692308153e-01 -8.865773531350128467e-01 -2.306715258877162222e-01 4.009479673983310510e-01
9.230769230769231282e-01 -7.527060126656488492e-01 -3.616172231665054637e-01 5.501418824167645383e-01
1.015384615384615330e+00 -5.815303118345929168e-01 -4.580930342661220789e-01 6.722829096934009874e-01
1.107692307692307754e+00 -3.907612304362982347e-01 -5.072128831722956255e-01 7.681362756482371656e-01
1.200000000000000178e+00 -2.008729378891121464e-01 -5.034794736816078364e-01 8.403287826747204425e-01
1.292307692307692379e+00 -3.210345984712814627e-02 -4.497274754188287926e-01 8.925859900747958875e-01
1.384615384615384581e+00 9.878104275724947092e-02 -3.565854760460625550e-01 9.290238413692591957e-01
1.476923076923077005e+00 1.812347167461190178e-01 -2.404788505730612591e-01 9.535831733457090786e-01
1.569230769230769429e+00 2.125929923990806381e-01 -1.205096147049520006e-01 9.696799669761787532e-01
1.661538461538461631e+00 1.982983141844670005e-01 -1.486176714623310691e-02 9.800280418701509122e-01
1.753846153846153832e+00 1.505011974854649770e-01 6.254150531250429745e-02 9.866287915098352901e-01
1.846153846153846256e+00 8.535290045483190369e-02 1.044224676518704376e-01 9.908630202472932247e-01
1.938461538461538680e+00 1.961600627218684778e-02 1.110155799240435393e-01 9.936245088006970816e-01
2.030769230769230660e+00 -3.270921521484583538e-02 8.932275625218188964e-02 9.954650306830474804e-01
2.123076923076923084e+00 -6.295526308471335875e-02 5.090290991295343126e-02 9.967169798932019598e-01
2.215384615384615508e+00 -6.893726410294953588e-02 8.825965047727715729e-03 9.975816124098728643e-01
2.307692307692307931e+00 -5.455600908968624013e-02 -2.545615799021665182e-02 9.981858687884964665e-01
2.400000000000000355e+00 -2.801170329807157328e-02 -4.456539498795290127e-02 9.986134102506525334e-01
2.492307692307692335e+00 8.825811409702722515e-04 -4.641478982952410015e-02 9.989216278327515131e-01
2.584615384615384759e+00 2.343666808108702676e-02 -3.392497343665046988e-02 9.991493377113693786e-01
2.676923076923077183e+00 3.426205457912714913e-02 -1.351066717545976181e-02 9.993213663411044667e-01
2.769230769230769162e+00 3.224365963753534486e-02 7.229533157519611730e-03 9.994537193148309573e-01
2.861538461538461586e+00 2.027019889494669630e-02 2.183691734871862425e-02 9.995558786531564266e-01
2.953846153846154010e+00 3.783884025074079477e-03 2.674721869848741690e-02 9.996349249705127615e-01
3.046153846153846434e+00 -1.119142772556262419e-02 2.194925085504686318e-02 9.996963135244010257e-01
3.138461538461538858e+00 -1.999892988622008205e-02 1.052176376258258383e-02 9.997445140259176855e-01
3.230769230769230838e+00 -2.063240444489562730e-02 -2.751368225052123768e-03 9.997832301169364833e-01
3.323076923076923261e+00 -1.405304658472344981e-02 -1.312555061009352923e-02 9.998149935965672253e-01
3.415384615384615685e+00 -3.501382107876640712e-03 -1.744806405660769000e-02 9.998415422065071168e-01
3.507692307692307665e+00 6.841071121402921354e-03 -1.502181360503479501e-02 9.998636715423913079e-01
3.600000000000000089e+00 1.337261009051841053e-02 -7.550315837751641647e-03 9.998819903569339251e-01
