0.000000000000000000e+00 -1.610396572504517776e-09 -1.102062738203960336e-09 -1.000000000000000000e+00
9.230769230769231282e-02 -2.549761540314453012e-01 3.318759842716658554e-02 -9.663736071922430781e-01
1.846153846153846256e-01 -4.924529080917417478e-01 6.099852890143622752e-02 -8.681893673561715818e-01
2.769230769230769384e-01 -6.964207912412305745e-01 7.907568631061617781e-02 -7.132458279768691956e-01
3.692307692307692513e-01 -8.538026165545460344e-01 8.474700189736689149e-02 -5.136202035905678143e-01
4.615384615384615641e-01 -9.555385881990544616e-01 7.757365173998903574e-02 -2.844108661830334617e-01
5.538461538461538769e-01 -9.973149109698525860e-01 5.951439355380661045e-02 -4.218904199854162790e-02
6.461538461538461897e-01 -9.798421669324284267e-01 3.468242004647903443e-02 1.966378502475464862e-01
7.384615384615385025e-01 -9.086558386014242927e-01 8.763170939565967377e-03 4.174107508864121074e-01
8.307692307692308153e-01 -7.934716980365178474e-01 -1.185753747846718387e-02 6.084669696998169508e-01
9.230769230769231282e-01 -6.471400061962302441e-01 -2.108832476995582683e-02 7.620643498612419409e-01
1.015384615384615330e+00 -4.843275666475164165e-01 -1.413295685693099352e-02 8.747633958420321099e-01
1.107692307692307754e+00 -3.200646712100084779e-01 1.168379450428760902e-02 9.473184094367784747e-01
1.200000000000000178e+00 -1.682588132135824643e-01 5.636310424429907817e-02 9.841274816212427501e-01
1.292307692307692379e+00 -4.041700406593688039e-02 1.170769365931393774e-01 9.922982329579352889e-01
1.384615384615384581e+00 5.536766630934561451e-02 1.885017858107527755e-01 9.805078480065240187e-01
1.476923076923077005e+00 1.151296356585145564e-01 2.633856425070755791e-01 9.577914071975277555e-01
1.569230769230769429e+00 1.391061973833614407e-01 3.334851709220897908e-01 9.324300108780706475e-01
1.661538461538461631e+00 1.314868092286402557e-01 3.907298352621059734e-01 9.110588116640874201e-01
1.753846153846153832e+00 9.967229485419853985e-02 4.283378851089447714e-01 8.980967561182917613e-01
1.846153846153846256e+00 5.324168042002327961e-02 4.417698827270056805e-01 8.955390436329168091e-01
1.938461538461538680e+00 2.664132673095648274e-03 4.294117062033955823e-01 9.030972217633932431e-01
2.030769230769230660e+00 -4.201604423729544957e-02 3.928368842819526807e-01 9.186409616020085878e-01
2.123076923076923084e+00 -7.239903593013062577e-02 3.366271298511587240e-01 9.388449193828375394e-01
2.215384615384615508e+00 -8.270750077318275717e-02 2.677900048312533698e-01 9.599163636813979883e-01
2.307692307692307931e+00 -7.040386655170972896e-02 1.948087535031030326e-01 9.783080560970692785e-01
2.400000000000000355e+00 -3.635925281418982136e-02 1.264890886130667080e-01 9.912994587128625135e-01
2.492307692307692335e+00 1.540473370950808801e-02 7.076439811656459744e-02 9.973730019513674661e-01
2.584615384615384759e+00 7.836350076892914518e-02 3.365006476155067011e-02 9.963554977442584670e-01
2.676923076923077183e+00 1.445797309981843859e-01 1.843306244185355727e-02 9.893192675820741133e-01
2.769230769230769162e+00 2.057063082550801281e-01 2.519435491335639266e-02 9.782862379391356056e-01
2.861538461538461586e+00 2.542324337963834391e-01 5.092959353778303555e-02 9.657971759459792471e-01
2.953846153846154010e+00 2.845075155428086200e-01 9.000162960468091611e-02 9.544349191555465683e-01
3.046153846153846434e+00 2.935112943732162694e-01 1.349958842324817110e-01 9.463705435543863231e-01
3.138461538461538858e+00 2.812167031749852608e-01 1.778096312723207451e-01 9.430220229686538946e-01
3.230769230769230838e+00 2.505367978542230589e-01 2.108375446255275065e-01 9.448643621760729472e-01
3.323076923076923261e+00 2.068794512007001152e-01 2.280685141471606447e-01 9.514074681606087269e-01
3.415384615384615685e+00 1.573204896668493613e-01 2.259445935808537809e-01 9.613484841897190769e-01
3.507692307692307665e+00 1.095816032767188974e-01 2.038366791070090889e-01 9.728491771806301314e-01
3.600000000000000089e+00 7.090549967737865000e-02 1.641061353801513967e-01 9.838883453083772102e-01
