0.000000000000000000e+00 -8.736503219327323744e-10 -1.740537599131324833e-09 -1.000000000000000000e+00
9.230769230769231282e-02 -2.013373393950096124e-01 1.500856522350289823e-01 -9.679514362868170130e-01
1.846153846153846256e-01 -3.896436366473354229e-01 2.892667580208372891e-01 -8.743491913595132781e-01
2.769230769230769384e-01 -5.528617841267127186e-01 4.079685033706524910e-01 -7.265540048718347466e-01
3.692307692307692513e-01 -6.809806196520834520e-01 4.989665036758621497e-01 -5.359713202047017289e-01
4.615384615384615641e-01 -7.667907512193135044e-01 5.582088848320259089e-01 -3.168542472927947107e-01
5.538461538461538769e-01 -8.064201756955646783e-01 5.851879915055976378e-01 -8.485656982277842153e-02
6.461538461538461897e-01 -7.995970925552022823e-01 5.828541443690296031e-01 1.445166283084211301e-01
7.384615384615385025e-01 -7.495868911985704708e-01 5.570884071828134942e-01 3.573998480599912542e-01
8.307692307692308153e-01 -6.628260447714173775e-01 5.158069742403582625e-01 5.427453246820748145e-01
9.230769230769231282e-01 -5.482720662498035136e-01 4.678438374426339141e-01 6.931763646326686290e-01
1.015384615384615330e+00 -4.165344887541729824e-01 4.217301314103748533e-01 8.053708120238148860e-01
1.107692307692307754e+00 -2.788721519769147283e-01 3.845934361066218887e-01 8.799446310195704335e-01
1.200000000000000178e+00 -1.461551585596465030e-01 3.612766199889220764e-01 9.209264349548152984e-01
1.292307692307692379e+00 -2.786786563069304501e-02 3.538145608886007487e-01 9.348943881243666487e-01
1.384615384615384581e+00 6.871692234970833146e-02 3.613278017497791872e-01 9.298970995455126953e-01
1.476923076923077005e+00 1.391152733408917985e-01 3.803400666333153213e-01 9.143169116705439636e-01
1.569230769230769429e+00 1.819159686519330466e-01 4.054326540681021940e-01 8.958328413200360441e-01
1.661538461538461631e+00 1.987160568585247811e-01 4.301913970551218824e-01 8.805859671096452068e-01
1.753846153846153832e+00 1.937526525837981739e-01 4.482374424381635469e-01 8.726550972829211217e-01
1.846153846153846256e+00 1.732462692112940461e-01 4.542409797541910321e-01 8.738619803005716058e-01
1.938461538461538680e+00 1.445549179820431740e-01 4.447329056136302139e-01 8.839124096520545315e-01
2.030769230769230660e+00 1.152189649756642231e-01 4.186121733065439332e-01 9.008187233693262241e-01
2.123076923076923084e+00 9.201613243199302516e-02 3.773027378259414255e-01 9.215005858831141206e-01
2.215384615384615508e+00 8.017307988426633503e-02 3.245066493119942441e-01 9.424740440071771586e-01
2.307692307692307931e+00 8.276948117781149361e-02 2.656253407277944789e-01 9.605123185902670890e-01
2.400000000000000355e+00 1.004532311101638403e-01 2.069469982617201664e-01 9.731778795064843779e-01
2.492307692307692335e+00 1.314832120243742686e-01 1.546811388066593462e-01 9.791730481202782777e-01
2.584615384615384759e+00 1.720868617339203765e-01 1.140560469496811336e-01 9.784534593050973061e-01
2.676923076923077183e+00 2.170787249546232422e-01 8.854227140483758585e-02 9.721265581751973306e-01
2.769230769230769162e+00 2.606379675516701244e-01 7.936401463756088959e-02 9.621647029057941447e-01
2.861538461538461586e+00 2.971728424083900366e-01 8.535867319582807200e-02 9.509956268292760750e-01
2.953846153846154010e+00 3.221419701284663484e-01 1.031848153073674224e-01 9.410456469648170730e-01
3.046153846153846434e+00 3.326758853097457336e-01 1.278595551929753438e-01 9.343273013191271126e-01
3.138461538461538858e+00 3.279774765232363332e-01 1.535315227773032531e-01 9.321198792860333482e-01
3.230769230769230838e+00 3.094139025776005969e-01 1.743707709486935764e-01 9.347976923712905117e-01
3.323076923076923261e+00 2.802794002025601472e-01 1.854486181911144949e-01 9.418289755836537491e-01
3.415384615384615685e+00 2.452969331295072608e-01 1.834675123253558804e-01 9.519241868560714970e-01
3.507692307692307665e+00 2.099033290344843594e-01 1.672293640826722494e-01 9.633103259831188314e-01
3.600000000000000089e+00 1.794583059655940893e-01 1.377863668603613034e-01 9.740651147546127708e-01
