1.000000000000000056e-01 9.781944251098497745e-01 0.000000000000000000e+00 2.180557489014817510e-02 0.000000000000000000e+00 0.000000000000000000e+00 0.000000000000000000e+00 4.081596963771609576e-02 1.402289142238650199e-01 0.000000000000000000e+00 0.000000000000000000e+00 0.000000000000000000e+00 0.000000000000000000e+00 0.000000000000000000e+00 0.000000000000000000e+00 0.000000000000000000e+00 0.000000000000000000e+00
2.000000000000000111e-01 9.155586863874501935e-01 0.000000000000000000e+00 8.444131361254972323e-02 0.000000000000000000e+00 0.000000000000000000e+00 0.000000000000000000e+00 6.412563659881125033e-02 2.705529173532693621e-01 0.000000000000000000e+00 0.000000000000000000e+00 0.000000000000000000e+00 0.000000000000000000e+00 0.000000000000000000e+00 0.000000000000000000e+00 0.000000000000000000e+00 0.000000000000000000e+00
2.999999999999999889e-01 8.198465305340738585e-01 0.000000000000000000e+00 1.801534694659251701e-01 0.000000000000000000e+00 0.000000000000000000e+00 0.000000000000000000e+00 5.680275630344075455e-02 3.800942564794468348e-01 0.000000000000000000e+00 0.000000000000000000e+00 0.000000000000000000e+00 0.000000000000000000e+00 0.000000000000000000e+00 0.000000000000000000e+00 0.000000000000000000e+00 0.000000000000000000e+00
4.000000000000000222e-01 7.022444374574621229e-01 0.000000000000000000e+00 2.977555625425390429e-01 0.000000000000000000e+00 0.000000000000000000e+00 0.000000000000000000e+00 1.365024365539541096e-02 4.570676739558879875e-01 0.000000000000000000e+00 0.000000000000000000e+00 0.000000000000000000e+00 0.000000000000000000e+00 0.000000000000000000e+00 0.000000000000000000e+00 0.000000000000000000e+00 0.000000000000000000e+00
5.000000000000000000e-01 5.752318838587999750e-01 0.000000000000000000e+00 4.247681161411993034e-01 0.000000000000000000e+00 0.000000000000000000e+00 0.000000000000000000e+00 -6.066211026419607300e-02 4.905713731204651151e-01 0.000000000000000000e+00 0.000000000000000000e+00 0.000000000000000000e+00 0.000000000000000000e+00 0.000000000000000000e+00 0.000000000000000000e+00 0.000000000000000000e+00 0.000000000000000000e+00
5.999999999999999778e-01 4.504612523560727055e-01 0.000000000000000000e+00 5.495387476439280716e-01 0.000000000000000000e+00 0.000000000000000000e+00 0.000000000000000000e+00 -1.520836827326438601e-01 4.737261507017322404e-01 0.000000000000000000e+00 0.000000000000000000e+00 0.000000000000000000e+00 0.000000000000000000e+00 0.000000000000000000e+00 0.000000000000000000e+00 0.000000000000000000e+00 0.000000000000000000e+00
6.999999999999999556e-01 3.370975233331824916e-01 0.000000000000000000e+00 6.629024766668236701e-01 0.000000000000000000e+00 0.000000000000000000e+00 0.000000000000000000e+00 -2.403131795596603060e-01 4.070778291155878748e-01 0.000000000000000000e+00 0.000000000000000000e+00 0.000000000000000000e+00 0.000000000000000000e+00 0.000000000000000000e+00 0.000000000000000000e+00 0.000000000000000000e+00 0.000000000000000000e+00
7.999999999999999334e-01 2.409675924930917423e-01 0.000000000000000000e+00 7.590324075069129206e-01 0.000000000000000000e+00 0.000000000000000000e+00 0.000000000000000000e+00 -3.041486649720084312e-01 3.006589452815404129e-01 0.000000000000000000e+00 0.000000000000000000e+00 0.000000000000000000e+00 0.000000000000000000e+00 0.000000000000000000e+00 0.000000000000000000e+00 0.000000000000000000e+00 0.000000000000000000e+00
8.999999999999999112e-01 1.644495945799078485e-01 0.000000000000000000e+00 8.355504054200931785e-01 0.000000000000000000e+00 0.000000000000000000e+00 0.000000000000000000e+00 -3.276922456306000098e-01 1.732735337976848700e-01 0.000000000000000000e+00 0.000000000000000000e+00 0.000000000000000000e+00 0.000000000000000000e+00 0.000000000000000000e+00 0.000000000000000000e+00 0.000000000000000000e+00 0.000000000000000000e+00
9.999999999999998890e-01 1.070934950385351997e-01 0.000000000000000000e+00 8.929065049614616223e-01 0.000000000000000000e+00 0.000000000000000000e+00 0.000000000000000000e+00 -3.053879695757734103e-01 4.860726367504010492e-02 0.000000000000000000e+00 0.000000000000000000e+00 0.000000000000000000e+00 0.000000000000000000e+00 0.000000000000000000e+00 0.000000000000000000e+00 0.000000000000000000e+00 0.000000000000000000e+00
1.099999999999999867e+00 6.650883791161332770e-02 0.000000000000000000e+00 9.334911620883857841e-01 0.000000000000000000e+00 0.000000000000000000e+00 0.000000000000000000e+00 -2.439098267734278458e-01 -5.092552179171608989e-02 0.000000000000000000e+00 0.000000000000000000e+00 0.000000000000000000e+00 0.000000000000000000e+00 0.000000000000000000e+00 0.000000000000000000e+00 0.000000000000000000e+00 0.000000000000000000e+00
1.199999999999999956e+00 3.937281091488168544e-02 0.000000000000000000e+00 9.606271890851139084e-01 0.000000000000000000e+00 0.000000000000000000e+00 0.000000000000000000e+00 -1.600325545027268537e-01 -1.105087048268414973e-01 0.000000000000000000e+00 0.000000000000000000e+00 0.000000000000000000e+00 0.000000000000000000e+00 0.000000000000000000e+00 0.000000000000000000e+00 0.000000000000000000e+00 0.000000000000000000e+00
1.300000000000000044e+00 2.220273177096271366e-02 0.000000000000000000e+00 9.777972682290381190e-01 0.000000000000000000e+00 0.000000000000000000e+00 0.000000000000000000e+00 -7.491294780822969901e-02 -1.268771873873012490e-01 0.000000000000000000e+00 0.000000000000000000e+00 0.000000000000000000e+00 0.000000000000000000e+00 0.000000000000000000e+00 0.000000000000000000e+00 0.000000000000000000e+00 0.000000000000000000e+00
1.399999999999999911e+00 1.192341164540613660e-02 0.000000000000000000e+00 9.880765883545943318e-01 0.000000000000000000e+00 0.000000000000000000e+00 0.000000000000000000e+00 -7.153302214852073036e-03 -1.083054668100289913e-01 0.000000000000000000e+00 0.000000000000000000e+00 0.000000000000000000e+00 0.000000000000000000e+00 0.000000000000000000e+00 0.000000000000000000e+00 0.000000000000000000e+00 0.000000000000000000e+00
1.500000000000000000e+00 6.095115949574487525e-03 0.000000000000000000e+00 9.939048840504297599e-01 0.000000000000000000e+00 0.000000000000000000e+00 0.000000000000000000e+00 3.286300922160496213e-02 -7.055485847970559277e-02 0.000000000000000000e+00 0.000000000000000000e+00 0.000000000000000000e+00 0.000000000000000000e+00 0.000000000000000000e+00 0.000000000000000000e+00 0.000000000000000000e+00 0.000000000000000000e+00
1.599999999999999867e+00 2.966562875855558931e-03 0.000000000000000000e+00 9.970334371241464932e-01 0.000000000000000000e+00 0.000000000000000000e+00 0.000000000000000000e+00 4.493527530962590499e-02 -3.063630809944503305e-02 0.000000000000000000e+00 0.000000000000000000e+00 0.000000000000000000e+00 0.000000000000000000e+00 0.000000000000000000e+00 0.000000000000000000e+00 0.000000000000000000e+00 0.000000000000000000e+00
1.699999999999999956e+00 1.374999455403703042e-03 0.000000000000000000e+00 9.986250005445928002e-01 0.000000000000000000e+00 0.000000000000000000e+00 0.000000000000000000e+00 3.704245517776163371e-02 -9.824667803305171983e-04 0.000000000000000000e+00 0.000000000000000000e+00 0.000000000000000000e+00 0.000000000000000000e+00 0.000000000000000000e+00 0.000000000000000000e+00 0.000000000000000000e+00 0.000000000000000000e+00
1.800000000000000044e+00 6.075452062760115964e-04 0.000000000000000000e+00 9.993924547937238501e-01 0.000000000000000000e+00 0.000000000000000000e+00 0.000000000000000000e+00 2.058438296100551304e-02 1.354471228753102371e-02 0.000000000000000000e+00 0.000000000000000000e+00 0.000000000000000000e+00 0.000000000000000000e+00 0.000000000000000000e+00 0.000000000000000000e+00 0.000000000000000000e+00 0.000000000000000000e+00
1.899999999999999911e+00 2.562787219728978900e-04 0.000000000000000000e+00 9.997437212780275750e-01 0.000000000000000000e+00 0.000000000000000000e+00 0.000000000000000000e+00 5.375133701860906887e-03 1.507716344802553440e-02 0.000000000000000000e+00 0.000000000000000000e+00 0.000000000000000000e+00 0.000000000000000000e+00 0.000000000000000000e+00 0.000000000000000000e+00 0.000000000000000000e+00 0.000000000000000000e+00
2.000000000000000000e+00 1.035163401326238784e-04 0.000000000000000000e+00 9.998964836598724926e-01 0.000000000000000000e+00 0.000000000000000000e+00 0.000000000000000000e+00 -3.439446127952952136e-03 9.574746359841604729e-03 0.000000000000000000e+00 0.000000000000000000e+00 0.000000000000000000e+00 0.000000000000000000e+00 0.000000000000000000e+00 0.000000000000000000e+00 0.000000000000000000e+00 0.000000000000000000e+00
2.099999999999999645e+00 4.020252677554813481e-05 0.000000000000000000e+00 9.999597974732269412e-01 0.000000000000000000e+00 0.000000000000000000e+00 0.000000000000000000e+00 -5.571193534612719003e-03 3.026982148099622086e-03 0.000000000000000000e+00 0.000000000000000000e+00 0.000000000000000000e+00 0.000000000000000000e+00 0.000000000000000000e+00 0.000000000000000000e+00 0.000000000000000000e+00 0.000000000000000000e+00
2.199999999999999734e+00 1.509543293271616800e-05 0.000000000000000000e+00 9.999849045670617942e-01 0.000000000000000000e+00 0.000000000000000000e+00 0.000000000000000000e+00 -3.739373985243774415e-03 -1.054620279165886841e-03 0.000000000000000000e+00 0.000000000000000000e+00 0.000000000000000000e+00 0.000000000000000000e+00 0.000000000000000000e+00 0.000000000000000000e+00 0.000000000000000000e+00 0.000000000000000000e+00
2.299999999999999822e+00 5.503735624253973488e-06 0.000000000000000000e+00 9.999944962643767532e-01 0.000000000000000000e+00 0.000000000000000000e+00 0.000000000000000000e+00 -1.073964263800557956e-03 -2.085730836458697928e-03 0.000000000000000000e+00 0.000000000000000000e+00 0.000000000000000000e+00 0.000000000000000000e+00 0.000000000000000000e+00 0.000000000000000000e+00 0.000000000000000000e+00 0.000000000000000000e+00
2.399999999999999911e+00 1.974888952756143434e-06 0.000000000000000000e+00 9.999980251110458518e-01 0.000000000000000000e+00 0.000000000000000000e+00 0.000000000000000000e+00 5.350187107243789325e-04 -1.299458389368694919e-03 0.000000000000000000e+00 0.000000000000000000e+00 0.000000000000000000e+00 0.000000000000000000e+00 0.000000000000000000e+00 0.000000000000000000e+00 0.000000000000000000e+00 0.000000000000000000e+00
2.500000000000000000e+00 7.014903548616025795e-07 0.000000000000000000e+00 9.999992985096489706e-01 0.000000000000000000e+00 0.000000000000000000e+00 0.000000000000000000e+00 8.073296436784361488e-04 -2.227414777068106736e-04 0.000000000000000000e+00 0.000000000000000000e+00 0.000000000000000000e+00 0.000000000000000000e+00 0.000000000000000000e+00 0.000000000000000000e+00 0.000000000000000000e+00 0.000000000000000000e+00
2.600000000000000089e+00 2.491266090889706888e-07 0.000000000000000000e+00 9.999997508733888818e-01 0.000000000000000000e+00 0.000000000000000000e+00 0.000000000000000000e+00 3.848831312810501934e-04 3.175789775790172488e-04 0.000000000000000000e+00 0.000000000000000000e+00 0.000000000000000000e+00 0.000000000000000000e+00 0.000000000000000000e+00 0.000000000000000000e+00 0.000000000000000000e+00 0.000000000000000000e+00
2.699999999999999734e+00 8.890999439593841574e-08 0.000000000000000000e+00 9.999999110900038568e-01 0.000000000000000000e+00 0.000000000000000000e+00 0.000000000000000000e+00 -3.805284683859563356e-05 2.956177005883911459e-04 0.000000000000000000e+00 0.000000000000000000e+00 0.000000000000000000e+00 0.000000000000000000e+00 0.000000000000000000e+00 0.000000000000000000e+00 0.000000000000000000e+00 0.000000000000000000e+00
2.799999999999999822e+00 3.366479317316001831e-08 0.000000000000000000e+00 9.999999663352096002e-01 0.000000000000000000e+00 0.000000000000000000e+00 0.000000000000000000e+00 -1.699776827882354315e-04 6.828936366468748491e-05 0.000000000000000000e+00 0.000000000000000000e+00 0.000000000000000000e+00 0.000000000000000000e+00 0.000000000000000000e+00 0.000000000000000000e+00 0.000000000000000000e+00 0.000000000000000000e+00
2.899999999999999911e+00 1.156433825067272744e-08 0.000000000000000000e+00 9.999999884356595148e-01 0.000000000000000000e+00 0.000000000000000000e+00 0.000000000000000000e+00 -8.237426769649369631e-05 -6.821908221265963188e-05 0.000000000000000000e+00 0.000000000000000000e+00 0.000000000000000000e+00 0.000000000000000000e+00 0.000000000000000000e+00 0.000000000000000000e+00 0.000000000000000000e+00 0.000000000000000000e+00
3.000000000000000000e+00 4.395744505269835074e-09 0.000000000000000000e+00 9.999999956042544547e-01 0.000000000000000000e+00 0.000000000000000000e+00 0.000000000000000000e+00 1.942906359449458244e-05 -6.245600067505053708e-05 0.000000000000000000e+00 0.000000000000000000e+00 0.000000000000000000e+00 0.000000000000000000e+00 0.000000000000000000e+00 0.000000000000000000e+00 0.000000000000000000e+00 0.000000000000000000e+00
