0.000000000000000000e+00 8.327231725589743463e-12 9.368811612815849772e-12 -1.000000000000000000e+00
1.025641025641025605e-01 2.194560808446631983e-01 2.275207284485280812e-01 -9.460716233676205178e-01
2.051282051282051211e-01 4.307691517045550977e-01 3.981386698987804951e-01 -7.955536588578864254e-01
3.076923076923077094e-01 6.196574238679756208e-01 4.713340497045165334e-01 -5.781208876454563272e-01
4.102564102564102422e-01 7.645522928109479421e-01 4.337542446832498566e-01 -3.317527309651481238e-01
5.128205128205127750e-01 8.420183819305399053e-01 3.012448078436621435e-01 -9.161094394467610147e-02
6.153846153846154188e-01 8.358618056082814940e-01 1.123097185778125784e-01 1.175016499168391182e-01
7.179487179487179516e-01 7.452192580677108324e-01 -8.416907367017120722e-02 2.835200616274649588e-01
8.205128205128204844e-01 5.876074843404346382e-01 -2.429486073133013679e-01 4.050659423172507378e-01
9.230769230769230171e-01 3.953224845100309359e-01 -3.342109062683879528e-01 4.875277187182964767e-01
1.025641025641025550e+00 2.063902757394506793e-01 -3.499532657185849827e-01 5.389461807256344938e-01
1.128205128205128194e+00 5.332441386519461840e-02 -3.031706395259287645e-01 5.671548597821393090e-01
1.230769230769230838e+00 -4.569483357604754714e-02 -2.204537600795341001e-01 5.783175563407075837e-01
1.333333333333333259e+00 -8.981908560472130765e-02 -1.310163390900601910e-01 5.768725929346363301e-01
1.435897435897435903e+00 -9.183292096667775017e-02 -5.698806099275521841e-02 5.661900896307255904e-01
1.538461538461538325e+00 -7.041802243861752797e-02 -8.646436244133637317e-03 5.494065135528538590e-01
1.641025641025640969e+00 -4.254445523753880992e-02 1.465885583658541047e-02 5.299355678753401300e-01
1.743589743589743613e+00 -1.908075873096636704e-02 1.999774898272933463e-02 5.114905480594105214e-01
1.846153846153846034e+00 -4.227763843248136949e-03 1.592810002292950611e-02 4.977361101237491314e-01
1.948717948717948678e+00 2.554914460943544761e-03 9.210344328853811019e-03 4.918128763161428996e-01
2.051282051282051100e+00 3.982019694517132009e-03 3.648883054650849285e-03 4.959433984073053359e-01
2.153846153846153744e+00 2.942922145925818030e-03 4.535834727859341248e-04 5.112101330090794704e-01
2.256410256410256387e+00 1.423811722039164656e-03 -7.174973944653939345e-04 5.375058601991216101e-01
2.358974358974359031e+00 3.687684727763332229e-04 -7.492644060405011632e-04 5.736235825518219977e-01
2.461538461538461675e+00 -9.342972127943262707e-05 -4.176808363300379100e-04 6.174560073945867256e-01
2.564102564102563875e+00 -1.686295260592866820e-04 -1.345978222286225350e-04 6.662831258336889828e-01
2.666666666666666519e+00 -1.011181176367236212e-04 7.424923440926565273e-06 7.171235012253043273e-01
2.769230769230769162e+00 -3.503006064101526871e-05 3.206620468658885983e-05 7.671029993947932057e-01
2.871794871794871806e+00 -1.543430425651392957e-06 2.077194072876347109e-05 8.137813061602876541e-01
2.974358974358974450e+00 7.501493369382937738e-06 3.676897029306478145e-06 8.553789028116800530e-01
3.076923076923076650e+00 -8.552502799423173162e-07 -7.814488913360425871e-07 8.908701871071807998e-01
3.179487179487179294e+00 3.276433628027072969e-07 1.938068238910037697e-06 9.199449284548947281e-01
3.282051282051281937e+00 -2.787791477505006670e-06 -7.838858211088601928e-07 9.428722336820926087e-01
3.384615384615384581e+00 -3.397525492574072572e-06 2.439927650738362707e-06 9.603152007093113118e-01
3.487179487179487225e+00 4.335319983594083481e-07 -8.043186251829625910e-07 9.731447492132825339e-01
3.589743589743589425e+00 -1.562738986054688739e-06 -6.606389632590778006e-07 9.822842334415731180e-01
3.692307692307692069e+00 6.254405413168308454e-07 8.718742133402474381e-07 9.886002807617791932e-01
3.794871794871794712e+00 1.403394101763528703e-06 -5.840204239436344182e-08 9.928404427087769157e-01
3.897435897435897356e+00 -6.758919294752007387e-07 -1.076872655268315821e-07 9.956089965537640030e-01
4.000000000000000000e+00 1.376214206912148523e-06 2.327558861916385162e-06 9.973689368468493521e-01
