0.000000000000000000e+00 7.933656369615513312e-12 9.580115210131664614e-12 -1.000000000000000000e+00
1.025641025641025605e-01 2.102787562555309964e-01 2.345512371713731337e-01 -9.488746490402134581e-01
2.051282051282051211e-01 4.178484141640232963e-01 4.209005941648176763e-01 -8.036015067862175565e-01
3.076923076923077094e-01 6.147629928188412807e-01 5.229175329828275043e-01 -5.853087629910296297e-01
4.102564102564102422e-01 7.837662648302946566e-01 5.216748681939596954e-01 -3.228660870368965097e-01
5.128205128205127750e-01 8.998448780660041058e-01 4.191236043619407381e-01 -4.803479775013742847e-02
6.153846153846154188e-01 9.391851723648880768e-01 2.406135234143571833e-01 2.113113778631258988e-01
7.179487179487179516e-01 8.898574023110593645e-01 2.913467523576601659e-02 4.366980395006910820e-01
8.205128205128204844e-01 7.578481577137009539e-01 -1.674045163608821607e-01 6.192257287964394452e-01
9.230769230769230171e-01 5.672872931490086090e-01 -3.090576600603520130e-01 7.571337836600972038e-01
1.025641025641025550e+00 3.551921646091414364e-01 -3.736847566343709515e-01 8.540057839300335685e-01
1.128205128205128194e+00 1.609979517828812601e-01 -3.615583382532979173e-01 9.172566013265743834e-01
1.230769230769230838e+00 1.478989047585764494e-02 -2.927069309314861978e-01 9.557445179578324401e-01
1.333333333333333259e+00 -7.057118538939818886e-02 -1.975241356742512000e-01 9.776648162585656054e-01
1.435897435897435903e+00 -1.000377855570288577e-01 -1.053027433262115481e-01 9.893762166172389572e-01
1.538461538461538325e+00 -9.063631013005085668e-02 -3.551447591387459773e-02 9.952471056637834934e-01
1.641025641025640969e+00 -6.291223300222990866e-02 5.256523881606606219e-03 9.980046914944310510e-01
1.743589743589743613e+00 -3.359092082826124759e-02 2.096464915235564733e-02 9.992156919732825271e-01
1.846153846153846034e+00 -1.195900462000660386e-02 2.079625844404204421e-02 9.997122001221738774e-01
1.948717948717948678e+00 -2.171328136604568082e-04 1.402328735114740169e-02 9.999016445108565021e-01
2.051282051282051100e+00 3.823038720958152510e-03 6.913785898867505150e-03 9.999687913711232667e-01
2.153846153846153744e+00 3.688908496055331651e-03 2.172646521787094734e-03 9.999908357136897408e-01
2.256410256410256387e+00 2.222963046241138631e-03 -3.339233885712175956e-05 9.999975286621393122e-01
2.358974358974359031e+00 9.279562928411306481e-04 -5.998920796235178302e-04 9.999993895148507894e-01
2.461538461538461675e+00 2.179713749923309872e-04 -4.786251680349319355e-04 9.999998617079651764e-01
2.564102564102563875e+00 -3.908075158737017891e-05 -2.361581878221136405e-04 9.999999713569865945e-01
2.666666666666666519e+00 -6.569535795625376336e-05 -7.554225868654045311e-05 9.999999949947584454e-01
2.769230769230769162e+00 -4.289391988384983541e-05 -7.853761493212332585e-06 9.999999990553233298e-01
2.871794871794871806e+00 -1.482284041466279825e-05 6.634793868502742619e-06 9.999999998751580854e-01
2.974358974358974450e+00 -3.979248628019045278e-06 6.368004266990724327e-06 9.999999999790710747e-01
3.076923076923076650e+00 -1.813944174000701611e-06 1.329265146781627934e-06 1.000000000004004574e+00
3.179487179487179294e+00 5.076073378988441050e-07 2.435680057008629365e-06 1.000000000002626344e+00
3.282051282051281937e+00 -5.426820170731317632e-07 -3.481060617594333564e-06 9.999999999995037303e-01
3.384615384615384581e+00 5.077965379633742647e-07 1.739436740745309687e-06 1.000000000006315171e+00
3.487179487179487225e+00 -7.005957425629465930e-07 -1.609880549211858286e-06 1.000000000007624568e+00
3.589743589743589425e+00 -3.231595209633298785e-07 -8.380752913279555024e-07 1.000000000007604806e+00
3.692307692307692069e+00 -8.200961137445320873e-07 -8.217760752549980447e-07 1.000000000005969003e+00
3.794871794871794712e+00 1.176973677259330606e-06 -4.320165073904701901e-06 1.000000000000170308e+00
3.897435897435897356e+00 -7.870266049810795010e-07 -5.328838465846388991e-06 9.999999999948533391e-01
4.000000000000000000e+00 1.514096297728143032e-06 1.908121832131750037e-06 1.000000000008830714e+00
