0.000000000000000000e+00 8.137282608283230471e-12 9.445609301085605666e-12 -1.000000000000000000e+00
1.025641025641025605e-01 2.149933115486102053e-01 2.303058721325011160e-01 -9.478398532928452580e-01
2.051282051282051211e-01 4.245820874968659342e-01 4.079211246341911679e-01 -8.010042225842074481e-01
3.076923076923077094e-01 6.176950151976553505e-01 4.945406776173881802e-01 -5.847475898325525945e-01
4.102564102564102422e-01 7.758233131219244294e-01 4.751372374171742297e-01 -3.313012822038557403e-01
5.128205128205127750e-01 8.763585761890061443e-01 3.594221857288334432e-01 -7.134493863914118106e-02
6.153846153846154188e-01 8.995662729480402575e-01 1.775181173911816734e-01 1.710711798714192877e-01
7.179487179487179516e-01 8.364313717913656188e-01 -2.783816580106221461e-02 3.798505853080608730e-01
8.205128205128204844e-01 6.945249398084967218e-01 -2.112182536525712140e-01 5.462989872084936804e-01
9.230769230769230171e-01 4.991463113119046779e-01 -3.354040112286601483e-01 6.681901943054366910e-01
1.025641025641025550e+00 2.880830762121047717e-01 -3.809759387435074363e-01 7.489293365215460296e-01
1.128205128205128194e+00 1.009052325585877846e-01 -3.509628736301186880e-01 7.963583945725648539e-01
1.230769230769230838e+00 -3.303075857942169846e-02 -2.679583958819444778e-01 8.208404274720363381e-01
1.333333333333333259e+00 -1.026562707430471316e-01 -1.644696837422650881e-01 8.329469841815998477e-01
1.435897435897435903e+00 -1.157330833242265766e-01 -7.080696686662751871e-02 8.413854945082606118e-01
1.538461538461538325e+00 -9.243746045649503529e-02 -5.801599576072833699e-03 8.518091022687035441e-01
1.641025641025640969e+00 -5.571050431177247686e-02 2.625456284614952757e-02 8.666350706538450410e-01
1.743589743589743613e+00 -2.295296375653738466e-02 3.244422996070146781e-02 8.856597654810529630e-01
1.846153846153846034e+00 -2.300162435179234355e-03 2.466471927846220630e-02 9.070776705965623021e-01
1.948717948717948678e+00 6.269109249751101884e-03 1.346373301533412142e-02 9.285456581262352405e-01
2.051282051282051100e+00 7.032288957211293122e-03 4.828612656646443305e-03 9.480155398366979513e-01
2.153846153846153744e+00 4.670686056990715380e-03 2.947308560532560517e-04 9.641916218919368564e-01
2.256410256410256387e+00 2.169488994055104956e-03 -1.130412479142505963e-03 9.766178594887067188e-01
2.358974358974359031e+00 6.279596375644583501e-04 -1.044999846197728656e-03 9.855063945933213443e-01
2.461538461538461675e+00 -6.275740491775187117e-06 -5.813658084399515131e-04 9.914596718591722757e-01
2.564102564102563875e+00 -1.433525179340776714e-04 -2.209235118908594382e-04 9.952097560759072259e-01
2.666666666666666519e+00 -9.755974788332554665e-05 -4.827386761076842957e-05 9.974393225177290434e-01
2.769230769230769162e+00 -4.486097401417554883e-05 5.384446703849353998e-06 9.986940244292710211e-01
2.871794871794871806e+00 -1.166218943858103404e-05 1.137663096635643268e-05 9.993639228866193491e-01
2.974358974358974450e+00 3.673672957596981330e-06 6.744051597768139463e-06 9.997039002517643658e-01
3.076923076923076650e+00 -1.781661086838540280e-06 2.626687360138104993e-06 9.998681618613952660e-01
3.179487179487179294e+00 -2.336818564552158983e-06 2.121614410476833505e-06 9.999438172716462736e-01
3.282051282051281937e+00 4.901508350614667886e-07 -1.117773351131263123e-06 9.999770713377910125e-01
3.384615384615384581e+00 5.816293117966590406e-07 1.663931922780601035e-06 9.999910338634647733e-01
3.487179487179487225e+00 2.329518629579415449e-07 1.464325848357324088e-06 9.999966388011994889e-01
3.589743589743589425e+00 2.901702078604097350e-06 -3.187414729844619890e-06 9.999987914926626864e-01
3.692307692307692069e+00 2.388566384956605042e-06 -4.544061712466488847e-07 9.999995830873312785e-01
3.794871794871794712e+00 2.616106645206081102e-06 1.988438512065221364e-06 9.999998619411678558e-01
3.897435897435897356e+00 -8.335144400678324264e-07 4.066275279608900156e-07 9.999999561062661302e-01
4.000000000000000000e+00 1.295639554274652389e-06 -2.043585722869435583e-06 9.999999865966937573e-01
