1.000000000000000056e-01 -5.770128433500808923e-02 -2.992194499787912965e-01 -9.472221502694415651e-01
2.000000000000000111e-01 -8.660046417046649014e-02 -5.661076310610604345e-01 -7.975795930807100254e-01
2.999999999999999889e-01 -6.749938562034779599e-02 -7.715477850285792361e-01 -5.749380482164641037e-01
4.000000000000000222e-01 2.785079804723276063e-03 -8.934044095515596418e-01 -3.124704536875689831e-01
5.000000000000000000e-01 1.103463674043416998e-01 -9.206217992883248824e-01 -4.507986711695426835e-02
5.999999999999999778e-01 2.288133606646628182e-01 -8.564563102424467278e-01 1.975676133157003578e-01
6.999999999999999556e-01 3.280723669348736826e-01 -7.191476932476483785e-01 3.955989648483257404e-01
7.999999999999999334e-01 3.840401084365370199e-01 -5.388137393801397668e-01 5.403481145711899192e-01
8.999999999999999112e-01 3.860508591498654773e-01 -3.507118313734317594e-01 6.329985142241622009e-01
9.999999999999998890e-01 3.393022488472350329e-01 -1.866186726674954333e-01 6.815415737325292156e-01
1.099999999999999867e+00 2.616561112757281871e-01 -6.715133765313684167e-02 6.972777155510605507e-01
1.199999999999999956e+00 1.762249356406976886e-01 2.216835351594960511e-03 6.918157342776961594e-01
1.300000000000000044e+00 1.027900841404988663e-01 2.995428784531762104e-02 6.750514265422694615e-01
1.399999999999999911e+00 5.151577062688402625e-02 3.261717220999217626e-02 6.541984427202868213e-01
1.500000000000000000e+00 2.143261103816511068e-02 2.685374415812085899e-02 6.336870006625922036e-01
1.599999999999999867e+00 4.022507840485077188e-03 2.276666691201365694e-02 6.156520179967156503e-01
1.699999999999999956e+00 -1.018691354205435162e-02 2.159747461578941097e-02 6.007195249720848063e-01
1.800000000000000044e+00 -2.568743992511363788e-02 1.854273816192613181e-02 5.888197145219389306e-01
1.899999999999999911e+00 -4.005942507726653612e-02 8.736306482832521467e-03 5.797917234002093467e-01
2.000000000000000000e+00 -4.707713235881458291e-02 -7.507656954032574000e-03 5.736333407282806496e-01
2.099999999999999645e+00 -4.266079593038245993e-02 -2.373183409512114039e-02 5.703997002981473496e-01
2.199999999999999734e+00 -2.939469425833381513e-02 -3.145690015300219022e-02 5.699297483735514813e-01
2.299999999999999822e+00 -1.606081268068113369e-02 -2.653481823306284848e-02 5.716710262886350868e-01
2.399999999999999911e+00 -1.208928938837308155e-02 -1.292483038830978016e-02 5.747989907719479596e-01
2.500000000000000000e+00 -2.078112223817235246e-02 -6.262579601551440493e-04 5.785961201107060470e-01
2.600000000000000089e+00 -3.654307634997325943e-02 1.251306735458887357e-03 5.828244607594799120e-01
2.699999999999999734e+00 -4.873249356606108168e-02 -8.741461775218646937e-03 5.877783277011473517e-01
2.799999999999999822e+00 -4.960466360374578970e-02 -2.316290564433145377e-02 5.939247495605649574e-01
2.899999999999999911e+00 -4.030797820770196105e-02 -3.135400616196974688e-02 6.013783278953480638e-01
3.000000000000000000e+00 -2.996826096119097754e-02 -2.782861950001866078e-02 6.096393980982109939e-01
