1.000000000000000056e-01 9.996029612164877287e-01 0.000000000000000000e+00 3.970387835122492779e-04 0.000000000000000000e+00 0.000000000000000000e+00 0.000000000000000000e+00 -8.917633922468595764e-03 -1.781451474829708753e-02 0.000000000000000000e+00 0.000000000000000000e+00 0.000000000000000000e+00 0.000000000000000000e+00 0.000000000000000000e+00 0.000000000000000000e+00 0.000000000000000000e+00 0.000000000000000000e+00
2.000000000000000111e-01 9.984507467435386197e-01 0.000000000000000000e+00 1.549253256461325919e-03 0.000000000000000000e+00 0.000000000000000000e+00 0.000000000000000000e+00 -1.725830069569096042e-02 -3.534125126522164734e-02 0.000000000000000000e+00 0.000000000000000000e+00 0.000000000000000000e+00 0.000000000000000000e+00 0.000000000000000000e+00 0.000000000000000000e+00 0.000000000000000000e+00 0.000000000000000000e+00
2.999999999999999889e-01 9.966561249180250215e-01 0.000000000000000000e+00 3.343875081974827159e-03 0.000000000000000000e+00 0.000000000000000000e+00 0.000000000000000000e+00 -2.448587709235303111e-02 -5.227939783817585340e-02 0.000000000000000000e+00 0.000000000000000000e+00 0.000000000000000000e+00 0.000000000000000000e+00 0.000000000000000000e+00 0.000000000000000000e+00 0.000000000000000000e+00 0.000000000000000000e+00
4.000000000000000222e-01 9.943947451688366357e-01 0.000000000000000000e+00 5.605254831163708658e-03 0.000000000000000000e+00 0.000000000000000000e+00 0.000000000000000000e+00 -3.013202401965351870e-02 -6.830737083275278954e-02 0.000000000000000000e+00 0.000000000000000000e+00 0.000000000000000000e+00 0.000000000000000000e+00 0.000000000000000000e+00 0.000000000000000000e+00 0.000000000000000000e+00 0.000000000000000000e+00
5.000000000000000000e-01 9.918881195266581186e-01 0.000000000000000000e+00 8.111880473341839815e-03 0.000000000000000000e+00 0.000000000000000000e+00 0.000000000000000000e+00 -3.383099435218545753e-02 -8.307551826735744271e-02 0.000000000000000000e+00 0.000000000000000000e+00 0.000000000000000000e+00 0.000000000000000000e+00 0.000000000000000000e+00 0.000000000000000000e+00 0.000000000000000000e+00 0.000000000000000000e+00
5.999999999999999778e-01 9.893813995315536847e-01 0.000000000000000000e+00 1.061860046844597533e-02 0.000000000000000000e+00 0.000000000000000000e+00 0.000000000000000000e+00 -3.535169462318083627e-02 -9.620864634880486876e-02 0.000000000000000000e+00 0.000000000000000000e+00 0.000000000000000000e+00 0.000000000000000000e+00 0.000000000000000000e+00 0.000000000000000000e+00 0.000000000000000000e+00 0.000000000000000000e+00
6.999999999999999556e-01 9.871199228347347088e-01 0.000000000000000000e+00 1.288007716526702422e-02 0.000000000000000000e+00 0.000000000000000000e+00 0.000000000000000000e+00 -3.460423689118209689e-02 -1.073160168831175515e-01 0.000000000000000000e+00 0.000000000000000000e+00 0.000000000000000000e+00 0.000000000000000000e+00 0.000000000000000000e+00 0.000000000000000000e+00 0.000000000000000000e+00 0.000000000000000000e+00
7.999999999999999334e-01 9.853255010124186697e-01 0.000000000000000000e+00 1.467449898758114990e-02 0.000000000000000000e+00 0.000000000000000000e+00 0.000000000000000000e+00 -3.166091421634276148e-02 -1.160032102455960112e-01 0.000000000000000000e+00 0.000000000000000000e+00 0.000000000000000000e+00 0.000000000000000000e+00 0.000000000000000000e+00 0.000000000000000000e+00 0.000000000000000000e+00 0.000000000000000000e+00
8.999999999999999112e-01 9.841734143760474396e-01 0.000000000000000000e+00 1.582658562395388227e-02 0.000000000000000000e+00 0.000000000000000000e+00 0.000000000000000000e+00 -2.675233895804728090e-02 -1.219033111834902094e-01 0.000000000000000000e+00 0.000000000000000000e+00 0.000000000000000000e+00 0.000000000000000000e+00 0.000000000000000000e+00 0.000000000000000000e+00 0.000000000000000000e+00 0.000000000000000000e+00
9.999999999999998890e-01 9.837768376060356257e-01 0.000000000000000000e+00 1.622316239396361798e-02 0.000000000000000000e+00 0.000000000000000000e+00 0.000000000000000000e+00 -2.025900693988928053e-02 -1.246978121059903188e-01 0.000000000000000000e+00 0.000000000000000000e+00 0.000000000000000000e+00 0.000000000000000000e+00 0.000000000000000000e+00 0.000000000000000000e+00 0.000000000000000000e+00 0.000000000000000000e+00
1.099999999999999867e+00 9.841738912527356886e-01 0.000000000000000000e+00 1.582610874726480404e-02 0.000000000000000000e+00 0.000000000000000000e+00 0.000000000000000000e+00 -1.269568656086130648e-02 -1.241549945362223767e-01 0.000000000000000000e+00 0.000000000000000000e+00 0.000000000000000000e+00 0.000000000000000000e+00 0.000000000000000000e+00 0.000000000000000000e+00 0.000000000000000000e+00 0.000000000000000000e+00
1.199999999999999956e+00 9.853258955913322126e-01 0.000000000000000000e+00 1.467410440866781865e-02 0.000000000000000000e+00 0.000000000000000000e+00 0.000000000000000000e+00 -4.678611457058508283e-03 -1.201535893526470139e-01 0.000000000000000000e+00 0.000000000000000000e+00 0.000000000000000000e+00 0.000000000000000000e+00 0.000000000000000000e+00 0.000000000000000000e+00 0.000000000000000000e+00 0.000000000000000000e+00
1.300000000000000044e+00 9.871207313695118390e-01 0.000000000000000000e+00 1.287926863048854779e-02 0.000000000000000000e+00 0.000000000000000000e+00 0.000000000000000000e+00 3.104216378231557105e-03 -1.127109435114259095e-01 0.000000000000000000e+00 0.000000000000000000e+00 0.000000000000000000e+00 0.000000000000000000e+00 0.000000000000000000e+00 0.000000000000000000e+00 0.000000000000000000e+00 0.000000000000000000e+00
1.399999999999999911e+00 9.893823449080773047e-01 0.000000000000000000e+00 1.061765509192329551e-02 0.000000000000000000e+00 0.000000000000000000e+00 0.000000000000000000e+00 9.942120239443019702e-03 -1.020101697629800658e-01 0.000000000000000000e+00 0.000000000000000000e+00 0.000000000000000000e+00 0.000000000000000000e+00 0.000000000000000000e+00 0.000000000000000000e+00 0.000000000000000000e+00 0.000000000000000000e+00
1.500000000000000000e+00 9.918890198090968280e-01 0.000000000000000000e+00 8.110980190902823336e-03 0.000000000000000000e+00 0.000000000000000000e+00 0.000000000000000000e+00 1.514930632660721477e-02 -8.840639688725759893e-02 0.000000000000000000e+00 0.000000000000000000e+00 0.000000000000000000e+00 0.000000000000000000e+00 0.000000000000000000e+00 0.000000000000000000e+00 0.000000000000000000e+00 0.000000000000000000e+00
1.599999999999999867e+00 9.943957882327871811e-01 0.000000000000000000e+00 5.604211767213601245e-03 0.000000000000000000e+00 0.000000000000000000e+00 0.000000000000000000e+00 1.810660520772032142e-02 -7.242206318504579299e-02 0.000000000000000000e+00 0.000000000000000000e+00 0.000000000000000000e+00 0.000000000000000000e+00 0.000000000000000000e+00 0.000000000000000000e+00 0.000000000000000000e+00 0.000000000000000000e+00
1.699999999999999956e+00 9.966569442243325971e-01 0.000000000000000000e+00 3.343055775667210742e-03 0.000000000000000000e+00 0.000000000000000000e+00 0.000000000000000000e+00 1.831116718997875814e-02 -5.474103258862217380e-02 0.000000000000000000e+00 0.000000000000000000e+00 0.000000000000000000e+00 0.000000000000000000e+00 0.000000000000000000e+00 0.000000000000000000e+00 0.000000000000000000e+00 0.000000000000000000e+00
1.800000000000000044e+00 9.984514194187584790e-01 0.000000000000000000e+00 1.548580581242153722e-03 0.000000000000000000e+00 0.000000000000000000e+00 0.000000000000000000e+00 1.542340837885057200e-02 -3.617044079937965090e-02 0.000000000000000000e+00 0.000000000000000000e+00 0.000000000000000000e+00 0.000000000000000000e+00 0.000000000000000000e+00 0.000000000000000000e+00 0.000000000000000000e+00 0.000000000000000000e+00
1.899999999999999911e+00 9.996033203495433561e-01 0.000000000000000000e+00 3.966796504574956876e-04 0.000000000000000000e+00 0.000000000000000000e+00 0.000000000000000000e+00 9.295742775989237344e-03 -1.760998203327354336e-02 0.000000000000000000e+00 0.000000000000000000e+00 0.000000000000000000e+00 0.000000000000000000e+00 0.000000000000000000e+00 0.000000000000000000e+00 0.000000000000000000e+00 0.000000000000000000e+00
2.000000000000000000e+00 9.999999999766031600e-01 0.000000000000000000e+00 2.339713224219634112e-11 0.000000000000000000e+00 0.000000000000000000e+00 0.000000000000000000e+00 -5.204508032461144446e-06 9.046115755840945495e-06 0.000000000000000000e+00 0.000000000000000000e+00 0.000000000000000000e+00 0.000000000000000000e+00 0.000000000000000000e+00 0.000000000000000000e+00 0.000000000000000000e+00 0.000000000000000000e+00
2.099999999999999645e+00 9.996025522144671438e-01 0.000000000000000000e+00 3.974477855330523337e-04 0.000000000000000000e+00 0.000000000000000000e+00 0.000000000000000000e+00 -1.218921911783045486e-02 1.577063429372941444e-02 0.000000000000000000e+00 0.000000000000000000e+00 0.000000000000000000e+00 0.000000000000000000e+00 0.000000000000000000e+00 0.000000000000000000e+00 0.000000000000000000e+00 0.000000000000000000e+00
2.199999999999999734e+00 9.984499365557999440e-01 0.000000000000000000e+00 1.550063444200501430e-03 0.000000000000000000e+00 0.000000000000000000e+00 0.000000000000000000e+00 -2.674611669131588682e-02 2.884971681350029932e-02 0.000000000000000000e+00 0.000000000000000000e+00 0.000000000000000000e+00 0.000000000000000000e+00 0.000000000000000000e+00 0.000000000000000000e+00 0.000000000000000000e+00 0.000000000000000000e+00
2.299999999999999822e+00 9.966549451723073494e-01 0.000000000000000000e+00 3.345054827692458491e-03 0.000000000000000000e+00 0.000000000000000000e+00 0.000000000000000000e+00 -4.297704214312465798e-02 3.855955508791640562e-02 0.000000000000000000e+00 0.000000000000000000e+00 0.000000000000000000e+00 0.000000000000000000e+00 0.000000000000000000e+00 0.000000000000000000e+00 0.000000000000000000e+00 0.000000000000000000e+00
2.399999999999999911e+00 9.943931052956116456e-01 0.000000000000000000e+00 5.606894704387417605e-03 0.000000000000000000e+00 0.000000000000000000e+00 0.000000000000000000e+00 -6.002409746764642007e-02 4.441357315618049001e-02 0.000000000000000000e+00 0.000000000000000000e+00 0.000000000000000000e+00 0.000000000000000000e+00 0.000000000000000000e+00 0.000000000000000000e+00 0.000000000000000000e+00 0.000000000000000000e+00
2.500000000000000000e+00 9.918860598571735965e-01 0.000000000000000000e+00 8.113940142827172006e-03 0.000000000000000000e+00 0.000000000000000000e+00 0.000000000000000000e+00 -7.692009098134768019e-02 4.616712954481910075e-02 0.000000000000000000e+00 0.000000000000000000e+00 0.000000000000000000e+00 0.000000000000000000e+00 0.000000000000000000e+00 0.000000000000000000e+00 0.000000000000000000e+00 0.000000000000000000e+00
2.600000000000000089e+00 9.893793021138506116e-01 0.000000000000000000e+00 1.062069788615017940e-02 0.000000000000000000e+00 0.000000000000000000e+00 0.000000000000000000e+00 -9.266006313170142838e-02 4.384075423699430873e-02 0.000000000000000000e+00 0.000000000000000000e+00 0.000000000000000000e+00 0.000000000000000000e+00 0.000000000000000000e+00 0.000000000000000000e+00 0.000000000000000000e+00 0.000000000000000000e+00
2.699999999999999734e+00 9.871172908697447568e-01 0.000000000000000000e+00 1.288270913025551037e-02 0.000000000000000000e+00 0.000000000000000000e+00 0.000000000000000000e+00 -1.062676296278753235e-01 3.773507720879393235e-02 0.000000000000000000e+00 0.000000000000000000e+00 0.000000000000000000e+00 0.000000000000000000e+00 0.000000000000000000e+00 0.000000000000000000e+00 0.000000000000000000e+00 0.000000000000000000e+00
2.799999999999999822e+00 9.853227915185173158e-01 0.000000000000000000e+00 1.467720848148205103e-02 0.000000000000000000e+00 0.000000000000000000e+00 0.000000000000000000e+00 -1.168515171160298266e-01 2.841674191909273478e-02 0.000000000000000000e+00 0.000000000000000000e+00 0.000000000000000000e+00 0.000000000000000000e+00 0.000000000000000000e+00 0.000000000000000000e+00 0.000000000000000000e+00 0.000000000000000000e+00
2.899999999999999911e+00 9.841707464420998974e-01 0.000000000000000000e+00 1.582925355790017544e-02 0.000000000000000000e+00 0.000000000000000000e+00 0.000000000000000000e+00 -1.236929754629384204e-01 1.669540821690017329e-02 0.000000000000000000e+00 0.000000000000000000e+00 0.000000000000000000e+00 0.000000000000000000e+00 0.000000000000000000e+00 0.000000000000000000e+00 0.000000000000000000e+00 0.000000000000000000e+00
3.000000000000000000e+00 9.837738628433526644e-01 0.000000000000000000e+00 1.622613715664643352e-02 0.000000000000000000e+00 0.000000000000000000e+00 0.000000000000000000e+00 -1.262939638166293288e-01 3.561548986222497215e-03 0.000000000000000000e+00 0.000000000000000000e+00 0.000000000000000000e+00 0.000000000000000000e+00 0.000000000000000000e+00 0.000000000000000000e+00 0.000000000000000000e+00 0.000000000000000000e+00
