1.000000000000000056e-01 9.874571899443554956e-01 0.000000000000000000e+00 1.254281005564452690e-02 0.000000000000000000e+00 0.000000000000000000e+00 0.000000000000000000e+00 1.020608970304331814e-01 4.437410527893745349e-02 0.000000000000000000e+00 0.000000000000000000e+00 0.000000000000000000e+00 0.000000000000000000e+00 0.000000000000000000e+00 0.000000000000000000e+00 0.000000000000000000e+00 0.000000000000000000e+00
2.000000000000000111e-01 9.510572706569055956e-01 0.000000000000000000e+00 4.894272934309384926e-02 0.000000000000000000e+00 0.000000000000000000e+00 0.000000000000000000e+00 1.959627457045843846e-01 9.025486648612715546e-02 0.000000000000000000e+00 0.000000000000000000e+00 0.000000000000000000e+00 0.000000000000000000e+00 0.000000000000000000e+00 0.000000000000000000e+00 0.000000000000000000e+00 0.000000000000000000e+00
2.999999999999999889e-01 8.943624010273569791e-01 0.000000000000000000e+00 1.056375989726428960e-01 0.000000000000000000e+00 0.000000000000000000e+00 0.000000000000000000e+00 2.742526170099026661e-01 1.387940872628222466e-01 0.000000000000000000e+00 0.000000000000000000e+00 0.000000000000000000e+00 0.000000000000000000e+00 0.000000000000000000e+00 0.000000000000000000e+00 0.000000000000000000e+00 0.000000000000000000e+00
4.000000000000000222e-01 8.229231671438232976e-01 0.000000000000000000e+00 1.770768328561770633e-01 0.000000000000000000e+00 0.000000000000000000e+00 0.000000000000000000e+00 3.308126983896934603e-01 1.904825102344576970e-01 0.000000000000000000e+00 0.000000000000000000e+00 0.000000000000000000e+00 0.000000000000000000e+00 0.000000000000000000e+00 0.000000000000000000e+00 0.000000000000000000e+00 0.000000000000000000e+00
5.000000000000000000e-01 7.437315373993554912e-01 0.000000000000000000e+00 2.562684626006441757e-01 0.000000000000000000e+00 0.000000000000000000e+00 0.000000000000000000e+00 3.613954204785599367e-01 2.449250653250588661e-01 0.000000000000000000e+00 0.000000000000000000e+00 0.000000000000000000e+00 0.000000000000000000e+00 0.000000000000000000e+00 0.000000000000000000e+00 0.000000000000000000e+00 0.000000000000000000e+00
5.999999999999999778e-01 6.645415526726429212e-01 0.000000000000000000e+00 3.354584473273561906e-01 0.000000000000000000e+00 0.000000000000000000e+00 0.000000000000000000e+00 3.639802188083407497e-01 3.007398839493283793e-01 0.000000000000000000e+00 0.000000000000000000e+00 0.000000000000000000e+00 0.000000000000000000e+00 0.000000000000000000e+00 0.000000000000000000e+00 0.000000000000000000e+00 0.000000000000000000e+00
6.999999999999999556e-01 5.931016205933141716e-01 0.000000000000000000e+00 4.068983794066846071e-01 0.000000000000000000e+00 0.000000000000000000e+00 0.000000000000000000e+00 3.389531849342580783e-01 3.555880010142691283e-01 0.000000000000000000e+00 0.000000000000000000e+00 0.000000000000000000e+00 0.000000000000000000e+00 0.000000000000000000e+00 0.000000000000000000e+00 0.000000000000000000e+00 0.000000000000000000e+00
7.999999999999999334e-01 5.364081606389278223e-01 0.000000000000000000e+00 4.635918393610724553e-01 0.000000000000000000e+00 0.000000000000000000e+00 0.000000000000000000e+00 2.890606279056536221e-01 4.063476332895425425e-01 0.000000000000000000e+00 0.000000000000000000e+00 0.000000000000000000e+00 0.000000000000000000e+00 0.000000000000000000e+00 0.000000000000000000e+00 0.000000000000000000e+00 0.000000000000000000e+00
8.999999999999999112e-01 5.000086845009279468e-01 0.000000000000000000e+00 4.999913154990725528e-01 0.000000000000000000e+00 0.000000000000000000e+00 0.000000000000000000e+00 2.191820595207240596e-01 4.493987369739797511e-01 0.000000000000000000e+00 0.000000000000000000e+00 0.000000000000000000e+00 0.000000000000000000e+00 0.000000000000000000e+00 0.000000000000000000e+00 0.000000000000000000e+00 0.000000000000000000e+00
9.999999999999998890e-01 4.874657489849121283e-01 0.000000000000000000e+00 5.125342510150879827e-01 0.000000000000000000e+00 0.000000000000000000e+00 0.000000000000000000e+00 1.358975617976543038e-01 4.810142878454189974e-01 0.000000000000000000e+00 0.000000000000000000e+00 0.000000000000000000e+00 0.000000000000000000e+00 0.000000000000000000e+00 0.000000000000000000e+00 0.000000000000000000e+00 0.000000000000000000e+00
1.099999999999999867e+00 5.000095550238656816e-01 0.000000000000000000e+00 4.999904449761344294e-01 0.000000000000000000e+00 0.000000000000000000e+00 0.000000000000000000e+00 4.692919712518599934e-02 4.977927784190961935e-01 0.000000000000000000e+00 0.000000000000000000e+00 0.000000000000000000e+00 0.000000000000000000e+00 0.000000000000000000e+00 0.000000000000000000e+00 0.000000000000000000e+00 0.000000000000000000e+00
1.199999999999999956e+00 5.364087966999059320e-01 0.000000000000000000e+00 4.635912033000963994e-01 0.000000000000000000e+00 0.000000000000000000e+00 0.000000000000000000e+00 -3.953604036590420423e-02 4.971029078963880021e-01 0.000000000000000000e+00 0.000000000000000000e+00 0.000000000000000000e+00 0.000000000000000000e+00 0.000000000000000000e+00 0.000000000000000000e+00 0.000000000000000000e+00 0.000000000000000000e+00
1.300000000000000044e+00 5.931046388060935426e-01 0.000000000000000000e+00 4.068953611939068460e-01 0.000000000000000000e+00 0.000000000000000000e+00 0.000000000000000000e+00 -1.155411930207695115e-01 4.774743541236207145e-01 0.000000000000000000e+00 0.000000000000000000e+00 0.000000000000000000e+00 0.000000000000000000e+00 0.000000000000000000e+00 0.000000000000000000e+00 0.000000000000000000e+00 0.000000000000000000e+00
1.399999999999999911e+00 6.645445369209768138e-01 0.000000000000000000e+00 3.354554630790216319e-01 0.000000000000000000e+00 0.000000000000000000e+00 0.000000000000000000e+00 -1.740512971520989938e-01 4.388977571314731652e-01 0.000000000000000000e+00 0.000000000000000000e+00 0.000000000000000000e+00 0.000000000000000000e+00 0.000000000000000000e+00 0.000000000000000000e+00 0.000000000000000000e+00 0.000000000000000000e+00
1.500000000000000000e+00 7.437350018581674327e-01 0.000000000000000000e+00 2.562649981418322898e-01 0.000000000000000000e+00 0.000000000000000000e+00 0.000000000000000000e+00 -2.095556221502239413e-01 3.829878458048426304e-01 0.000000000000000000e+00 0.000000000000000000e+00 0.000000000000000000e+00 0.000000000000000000e+00 0.000000000000000000e+00 0.000000000000000000e+00 0.000000000000000000e+00 0.000000000000000000e+00
1.599999999999999867e+00 8.229273923868187790e-01 0.000000000000000000e+00 1.770726076131803051e-01 0.000000000000000000e+00 0.000000000000000000e+00 0.000000000000000000e+00 -2.185398101785638036e-01 3.129828277390730440e-01 0.000000000000000000e+00 0.000000000000000000e+00 0.000000000000000000e+00 0.000000000000000000e+00 0.000000000000000000e+00 0.000000000000000000e+00 0.000000000000000000e+00 0.000000000000000000e+00
1.699999999999999956e+00 8.943660044655000751e-01 0.000000000000000000e+00 1.056339955345001191e-01 0.000000000000000000e+00 0.000000000000000000e+00 0.000000000000000000e+00 -1.997854368001161229e-01 2.335834618466198775e-01 0.000000000000000000e+00 0.000000000000000000e+00 0.000000000000000000e+00 0.000000000000000000e+00 0.000000000000000000e+00 0.000000000000000000e+00 0.000000000000000000e+00 0.000000000000000000e+00
1.800000000000000044e+00 9.510594802491760813e-01 0.000000000000000000e+00 4.894051975082384931e-02 0.000000000000000000e+00 0.000000000000000000e+00 0.000000000000000000e+00 -1.544681041498144058e-01 1.506152386985472047e-01 0.000000000000000000e+00 0.000000000000000000e+00 0.000000000000000000e+00 0.000000000000000000e+00 0.000000000000000000e+00 0.000000000000000000e+00 0.000000000000000000e+00 0.000000000000000000e+00
1.899999999999999911e+00 9.874585294737098229e-01 0.000000000000000000e+00 1.254147052628939302e-02 0.000000000000000000e+00 0.000000000000000000e+00 0.000000000000000000e+00 -8.605443300265314122e-02 7.056073010697258563e-02 0.000000000000000000e+00 0.000000000000000000e+00 0.000000000000000000e+00 0.000000000000000000e+00 0.000000000000000000e+00 0.000000000000000000e+00 0.000000000000000000e+00 0.000000000000000000e+00
2.000000000000000000e+00 9.999999999008841733e-01 0.000000000000000000e+00 9.911509911409972722e-11 0.000000000000000000e+00 0.000000000000000000e+00 0.000000000000000000e+00 5.162859163869518638e-06 -4.538117720986282327e-06 0.000000000000000000e+00 0.000000000000000000e+00 0.000000000000000000e+00 0.000000000000000000e+00 0.000000000000000000e+00 0.000000000000000000e+00 0.000000000000000000e+00 0.000000000000000000e+00
2.099999999999999645e+00 9.874558344885407957e-01 0.000000000000000000e+00 1.254416551146075864e-02 0.000000000000000000e+00 0.000000000000000000e+00 0.000000000000000000e+00 9.675041566398387416e-02 -5.501060369668182154e-02 0.000000000000000000e+00 0.000000000000000000e+00 0.000000000000000000e+00 0.000000000000000000e+00 0.000000000000000000e+00 0.000000000000000000e+00 0.000000000000000000e+00 0.000000000000000000e+00
2.199999999999999734e+00 9.510550242917250596e-01 0.000000000000000000e+00 4.894497570827582161e-02 0.000000000000000000e+00 0.000000000000000000e+00 0.000000000000000000e+00 1.963128920645759168e-01 -8.950203076128768198e-02 0.000000000000000000e+00 0.000000000000000000e+00 0.000000000000000000e+00 0.000000000000000000e+00 0.000000000000000000e+00 0.000000000000000000e+00 0.000000000000000000e+00 0.000000000000000000e+00
2.299999999999999822e+00 8.943586743994929034e-01 0.000000000000000000e+00 1.056413256005077628e-01 0.000000000000000000e+00 0.000000000000000000e+00 0.000000000000000000e+00 2.906096644615963620e-01 -1.001362012739746982e-01 0.000000000000000000e+00 0.000000000000000000e+00 0.000000000000000000e+00 0.000000000000000000e+00 0.000000000000000000e+00 0.000000000000000000e+00 0.000000000000000000e+00 0.000000000000000000e+00
2.399999999999999911e+00 8.229179758982374526e-01 0.000000000000000000e+00 1.770820241017624086e-01 0.000000000000000000e+00 0.000000000000000000e+00 0.000000000000000000e+00 3.720231232372984143e-01 -8.557322514165613403e-02 0.000000000000000000e+00 0.000000000000000000e+00 0.000000000000000000e+00 0.000000000000000000e+00 0.000000000000000000e+00 0.000000000000000000e+00 0.000000000000000000e+00 0.000000000000000000e+00
2.500000000000000000e+00 7.437257902381261276e-01 0.000000000000000000e+00 2.562742097618742054e-01 0.000000000000000000e+00 0.000000000000000000e+00 0.000000000000000000e+00 4.340716865614845377e-01 -4.668522536976817822e-02 0.000000000000000000e+00 0.000000000000000000e+00 0.000000000000000000e+00 0.000000000000000000e+00 0.000000000000000000e+00 0.000000000000000000e+00 0.000000000000000000e+00 0.000000000000000000e+00
2.600000000000000089e+00 6.645335848929226907e-01 0.000000000000000000e+00 3.354664151070793632e-01 0.000000000000000000e+00 0.000000000000000000e+00 0.000000000000000000e+00 4.719618252924587254e-01 1.344375990209703553e-02 0.000000000000000000e+00 0.000000000000000000e+00 0.000000000000000000e+00 0.000000000000000000e+00 0.000000000000000000e+00 0.000000000000000000e+00 0.000000000000000000e+00 0.000000000000000000e+00
2.699999999999999734e+00 5.930945813713218717e-01 0.000000000000000000e+00 4.069054186286763519e-01 0.000000000000000000e+00 0.000000000000000000e+00 0.000000000000000000e+00 4.829946552218445377e-01 8.971935231359351448e-02 0.000000000000000000e+00 0.000000000000000000e+00 0.000000000000000000e+00 0.000000000000000000e+00 0.000000000000000000e+00 0.000000000000000000e+00 0.000000000000000000e+00 0.000000000000000000e+00
2.799999999999999822e+00 5.363989372773981801e-01 0.000000000000000000e+00 4.636010627226026526e-01 0.000000000000000000e+00 0.000000000000000000e+00 0.000000000000000000e+00 4.667928770523298576e-01 1.754409511412925449e-01 0.000000000000000000e+00 0.000000000000000000e+00 0.000000000000000000e+00 0.000000000000000000e+00 0.000000000000000000e+00 0.000000000000000000e+00 0.000000000000000000e+00 0.000000000000000000e+00
2.899999999999999911e+00 4.999991429219377004e-01 0.000000000000000000e+00 5.000008570780614114e-01 0.000000000000000000e+00 0.000000000000000000e+00 0.000000000000000000e+00 4.253210816733804522e-01 2.628725509109207104e-01 0.000000000000000000e+00 0.000000000000000000e+00 0.000000000000000000e+00 0.000000000000000000e+00 0.000000000000000000e+00 0.000000000000000000e+00 0.000000000000000000e+00 0.000000000000000000e+00
3.000000000000000000e+00 4.874574893749121229e-01 0.000000000000000000e+00 5.125425106250905971e-01 0.000000000000000000e+00 0.000000000000000000e+00 0.000000000000000000e+00 3.627079531260706813e-01 3.439267745702631052e-01 0.000000000000000000e+00 0.000000000000000000e+00 0.000000000000000000e+00 0.000000000000000000e+00 0.000000000000000000e+00 0.000000000000000000e+00 0.000000000000000000e+00 0.000000000000000000e+00
