1.000000000000000056e-01 9.940836732605735637e-01 0.000000000000000000e+00 5.916326739426333060e-03 0.000000000000000000e+00 0.000000000000000000e+00 0.000000000000000000e+00 -7.613049248004330471e-02 -9.245103156571680275e-03 0.000000000000000000e+00 0.000000000000000000e+00 0.000000000000000000e+00 0.000000000000000000e+00 0.000000000000000000e+00 0.000000000000000000e+00 0.000000000000000000e+00 0.000000000000000000e+00
2.000000000000000111e-01 9.769138512879348424e-01 0.000000000000000000e+00 2.308614871206434577e-02 0.000000000000000000e+00 0.000000000000000000e+00 0.000000000000000000e+00 -1.494082308640859169e-01 -1.517758476917654281e-02 0.000000000000000000e+00 0.000000000000000000e+00 0.000000000000000000e+00 0.000000000000000000e+00 0.000000000000000000e+00 0.000000000000000000e+00 0.000000000000000000e+00 0.000000000000000000e+00
2.999999999999999889e-01 9.501713540760319265e-01 0.000000000000000000e+00 4.982864592396744202e-02 0.000000000000000000e+00 0.000000000000000000e+00 0.000000000000000000e+00 -2.170826013096361085e-01 -1.486258102236872464e-02 0.000000000000000000e+00 0.000000000000000000e+00 0.000000000000000000e+00 0.000000000000000000e+00 0.000000000000000000e+00 0.000000000000000000e+00 0.000000000000000000e+00 0.000000000000000000e+00
4.000000000000000222e-01 9.164734957978687424e-01 0.000000000000000000e+00 8.352650420213099391e-02 0.000000000000000000e+00 0.000000000000000000e+00 0.000000000000000000e+00 -2.766095636356946108e-01 -6.080844022745522659e-03 0.000000000000000000e+00 0.000000000000000000e+00 0.000000000000000000e+00 0.000000000000000000e+00 0.000000000000000000e+00 0.000000000000000000e+00 0.000000000000000000e+00 0.000000000000000000e+00
5.000000000000000000e-01 8.791187855775347559e-01 0.000000000000000000e+00 1.208812144224657714e-01 0.000000000000000000e+00 0.000000000000000000e+00 0.000000000000000000e+00 -3.257532613631245466e-01 1.239996774645592270e-02 0.000000000000000000e+00 0.000000000000000000e+00 0.000000000000000000e+00 0.000000000000000000e+00 0.000000000000000000e+00 0.000000000000000000e+00 0.000000000000000000e+00 0.000000000000000000e+00
5.999999999999999778e-01 8.417654845212403369e-01 0.000000000000000000e+00 1.582345154787604402e-01 0.000000000000000000e+00 0.000000000000000000e+00 0.000000000000000000e+00 -3.626894651676095260e-01 4.065348078724057013e-02 0.000000000000000000e+00 0.000000000000000000e+00 0.000000000000000000e+00 0.000000000000000000e+00 0.000000000000000000e+00 0.000000000000000000e+00 0.000000000000000000e+00 0.000000000000000000e+00
6.999999999999999556e-01 8.080671675895449990e-01 0.000000000000000000e+00 1.919328324104553618e-01 0.000000000000000000e+00 0.000000000000000000e+00 0.000000000000000000e+00 -3.861109151065897360e-01 7.754341813511300696e-02 0.000000000000000000e+00 0.000000000000000000e+00 0.000000000000000000e+00 0.000000000000000000e+00 0.000000000000000000e+00 0.000000000000000000e+00 0.000000000000000000e+00 0.000000000000000000e+00
7.999999999999999334e-01 7.813251067283012441e-01 0.000000000000000000e+00 2.186748932716998661e-01 0.000000000000000000e+00 0.000000000000000000e+00 0.000000000000000000e+00 -3.953077776398098431e-01 1.207805663673098551e-01 0.000000000000000000e+00 0.000000000000000000e+00 0.000000000000000000e+00 0.000000000000000000e+00 0.000000000000000000e+00 0.000000000000000000e+00 0.000000000000000000e+00 0.000000000000000000e+00
8.999999999999999112e-01 7.641550953474708363e-01 0.000000000000000000e+00 2.358449046525275816e-01 0.000000000000000000e+00 0.000000000000000000e+00 0.000000000000000000e+00 -3.902492375947711478e-01 1.671155828063603799e-01 0.000000000000000000e+00 0.000000000000000000e+00 0.000000000000000000e+00 0.000000000000000000e+00 0.000000000000000000e+00 0.000000000000000000e+00 0.000000000000000000e+00 0.000000000000000000e+00
9.999999999999998890e-01 7.582398675801285126e-01 0.000000000000000000e+00 2.417601324198729862e-01 0.000000000000000000e+00 0.000000000000000000e+00 0.000000000000000000e+00 -3.716227691119419196e-01 2.126233481807170422e-01 0.000000000000000000e+00 0.000000000000000000e+00 0.000000000000000000e+00 0.000000000000000000e+00 0.000000000000000000e+00 0.000000000000000000e+00 0.000000000000000000e+00 0.000000000000000000e+00
1.099999999999999867e+00 7.641569240896896043e-01 0.000000000000000000e+00 2.358430759103121999e-01 0.000000000000000000e+00 0.000000000000000000e+00 0.000000000000000000e+00 -3.408553381062626730e-01 2.530588026636771404e-01 0.000000000000000000e+00 0.000000000000000000e+00 0.000000000000000000e+00 0.000000000000000000e+00 0.000000000000000000e+00 0.000000000000000000e+00 0.000000000000000000e+00 0.000000000000000000e+00
1.199999999999999956e+00 7.813265955671612195e-01 0.000000000000000000e+00 2.186734044328401683e-01 0.000000000000000000e+00 0.000000000000000000e+00 0.000000000000000000e+00 -3.000773549830113573e-01 2.842691114451635359e-01 0.000000000000000000e+00 0.000000000000000000e+00 0.000000000000000000e+00 0.000000000000000000e+00 0.000000000000000000e+00 0.000000000000000000e+00 0.000000000000000000e+00 0.000000000000000000e+00
1.300000000000000044e+00 8.080705146721971488e-01 0.000000000000000000e+00 1.919294853278052937e-01 0.000000000000000000e+00 0.000000000000000000e+00 0.000000000000000000e+00 -2.520505731777832326e-01 3.025938968154838205e-01 0.000000000000000000e+00 0.000000000000000000e+00 0.000000000000000000e+00 0.000000000000000000e+00 0.000000000000000000e+00 0.000000000000000000e+00 0.000000000000000000e+00 0.000000000000000000e+00
1.399999999999999911e+00 8.417682942784181499e-01 0.000000000000000000e+00 1.582317057215814615e-01 0.000000000000000000e+00 0.000000000000000000e+00 0.000000000000000000e+00 -2.000385623827069526e-01 3.052523657999153261e-01 0.000000000000000000e+00 0.000000000000000000e+00 0.000000000000000000e+00 0.000000000000000000e+00 0.000000000000000000e+00 0.000000000000000000e+00 0.000000000000000000e+00 0.000000000000000000e+00
1.500000000000000000e+00 8.791229085873030202e-01 0.000000000000000000e+00 1.208770914126962442e-01 0.000000000000000000e+00 0.000000000000000000e+00 0.000000000000000000e+00 -1.476353713618731300e-01 2.906365724758754876e-01 0.000000000000000000e+00 0.000000000000000000e+00 0.000000000000000000e+00 0.000000000000000000e+00 0.000000000000000000e+00 0.000000000000000000e+00 0.000000000000000000e+00 0.000000000000000000e+00
1.599999999999999867e+00 9.164765495126858674e-01 0.000000000000000000e+00 8.352345048731417421e-02 0.000000000000000000e+00 0.000000000000000000e+00 0.000000000000000000e+00 -9.855290127351096219e-02 2.585239045019387949e-01 0.000000000000000000e+00 0.000000000000000000e+00 0.000000000000000000e+00 0.000000000000000000e+00 0.000000000000000000e+00 0.000000000000000000e+00 0.000000000000000000e+00 0.000000000000000000e+00
1.699999999999999956e+00 9.501738712106105877e-01 0.000000000000000000e+00 4.982612878939038370e-02 0.000000000000000000e+00 0.000000000000000000e+00 0.000000000000000000e+00 -5.637766806511088080e-02 2.101548095292642693e-01 0.000000000000000000e+00 0.000000000000000000e+00 0.000000000000000000e+00 0.000000000000000000e+00 0.000000000000000000e+00 0.000000000000000000e+00 0.000000000000000000e+00 0.000000000000000000e+00
1.800000000000000044e+00 9.769161253683097401e-01 0.000000000000000000e+00 2.308387463169101275e-02 0.000000000000000000e+00 0.000000000000000000e+00 0.000000000000000000e+00 -2.431389931996185208e-02 1.481885398218902583e-01 0.000000000000000000e+00 0.000000000000000000e+00 0.000000000000000000e+00 0.000000000000000000e+00 0.000000000000000000e+00 0.000000000000000000e+00 0.000000000000000000e+00 0.000000000000000000e+00
1.899999999999999911e+00 9.940848858797936005e-01 0.000000000000000000e+00 5.915114120205622328e-03 0.000000000000000000e+00 0.000000000000000000e+00 0.000000000000000000e+00 -4.945228607156701081e-03 7.652235123451378573e-02 0.000000000000000000e+00 0.000000000000000000e+00 0.000000000000000000e+00 0.000000000000000000e+00 0.000000000000000000e+00 0.000000000000000000e+00 0.000000000000000000e+00 0.000000000000000000e+00
2.000000000000000000e+00 9.999999998084716513e-01 0.000000000000000000e+00 1.915282394558296715e-10 0.000000000000000000e+00 0.000000000000000000e+00 0.000000000000000000e+00 -6.595535319826779653e-07 -8.008320772813561184e-06 0.000000000000000000e+00 0.000000000000000000e+00 0.000000000000000000e+00 0.000000000000000000e+00 0.000000000000000000e+00 0.000000000000000000e+00 0.000000000000000000e+00 0.000000000000000000e+00
2.099999999999999645e+00 9.940821842890925630e-01 0.000000000000000000e+00 5.917815710908171621e-03 0.000000000000000000e+00 0.000000000000000000e+00 0.000000000000000000e+00 -1.020028573841461929e-02 -7.601808619100676456e-02 0.000000000000000000e+00 0.000000000000000000e+00 0.000000000000000000e+00 0.000000000000000000e+00 0.000000000000000000e+00 0.000000000000000000e+00 0.000000000000000000e+00 0.000000000000000000e+00
2.199999999999999734e+00 9.769111896578080989e-01 0.000000000000000000e+00 2.308881034219264355e-02 0.000000000000000000e+00 0.000000000000000000e+00 0.000000000000000000e+00 -3.514541575732273160e-02 -1.460154684938511083e-01 0.000000000000000000e+00 0.000000000000000000e+00 0.000000000000000000e+00 0.000000000000000000e+00 0.000000000000000000e+00 0.000000000000000000e+00 0.000000000000000000e+00 0.000000000000000000e+00
2.299999999999999822e+00 9.501673187779593466e-01 0.000000000000000000e+00 4.983268122203987627e-02 0.000000000000000000e+00 0.000000000000000000e+00 0.000000000000000000e+00 -7.329392019812550063e-02 -2.048838367074248545e-01 0.000000000000000000e+00 0.000000000000000000e+00 0.000000000000000000e+00 0.000000000000000000e+00 0.000000000000000000e+00 0.000000000000000000e+00 0.000000000000000000e+00 0.000000000000000000e+00
2.399999999999999911e+00 9.164680984633905014e-01 0.000000000000000000e+00 8.353190153661033124e-02 0.000000000000000000e+00 0.000000000000000000e+00 0.000000000000000000e+00 -1.220376600127505706e-01 -2.483165978531987061e-01 0.000000000000000000e+00 0.000000000000000000e+00 0.000000000000000000e+00 0.000000000000000000e+00 0.000000000000000000e+00 0.000000000000000000e+00 0.000000000000000000e+00 0.000000000000000000e+00
2.500000000000000000e+00 8.791119029024551113e-01 0.000000000000000000e+00 1.208880970975427099e-01 0.000000000000000000e+00 0.000000000000000000e+00 0.000000000000000000e+00 -1.778513137800626920e-01 -2.732088502377686412e-01 0.000000000000000000e+00 0.000000000000000000e+00 0.000000000000000000e+00 0.000000000000000000e+00 0.000000000000000000e+00 0.000000000000000000e+00 0.000000000000000000e+00 0.000000000000000000e+00
2.600000000000000089e+00 8.417569194871953320e-01 0.000000000000000000e+00 1.582430805128033358e-01 0.000000000000000000e+00 0.000000000000000000e+00 0.000000000000000000e+00 -2.365353353854855178e-01 -2.779446763846129542e-01 0.000000000000000000e+00 0.000000000000000000e+00 0.000000000000000000e+00 0.000000000000000000e+00 0.000000000000000000e+00 0.000000000000000000e+00 0.000000000000000000e+00 0.000000000000000000e+00
2.699999999999999734e+00 8.080586275240349003e-01 0.000000000000000000e+00 1.919413724759667095e-01 0.000000000000000000e+00 0.000000000000000000e+00 0.000000000000000000e+00 -2.935376139507027138e-01 -2.625558062990580588e-01 0.000000000000000000e+00 0.000000000000000000e+00 0.000000000000000000e+00 0.000000000000000000e+00 0.000000000000000000e+00 0.000000000000000000e+00 0.000000000000000000e+00 0.000000000000000000e+00
2.799999999999999822e+00 7.813156522098675394e-01 0.000000000000000000e+00 2.186843477901329602e-01 0.000000000000000000e+00 0.000000000000000000e+00 0.000000000000000000e+00 -3.442865341206944318e-01 -2.287537670483621999e-01 0.000000000000000000e+00 0.000000000000000000e+00 0.000000000000000000e+00 0.000000000000000000e+00 0.000000000000000000e+00 0.000000000000000000e+00 0.000000000000000000e+00 0.000000000000000000e+00
2.899999999999999911e+00 7.641446879222326682e-01 0.000000000000000000e+00 2.358553120777670264e-01 0.000000000000000000e+00 0.000000000000000000e+00 0.000000000000000000e+00 -3.845789062626556176e-01 -1.797961307280879217e-01 0.000000000000000000e+00 0.000000000000000000e+00 0.000000000000000000e+00 0.000000000000000000e+00 0.000000000000000000e+00 0.000000000000000000e+00 0.000000000000000000e+00 0.000000000000000000e+00
3.000000000000000000e+00 7.582304566548428992e-01 0.000000000000000000e+00 2.417695433451576836e-01 0.000000000000000000e+00 0.000000000000000000e+00 0.000000000000000000e+00 -4.109289374988824850e-01 -1.202266179365423238e-01 0.000000000000000000e+00 0.000000000000000000e+00 0.000000000000000000e+00 0.000000000000000000e+00 0.000000000000000000e+00 0.000000000000000000e+00 0.000000000000000000e+00 0.000000000000000000e+00
