1.000000000000000000e+00 3.819203709445799511e-02 -4.218070150864003942e-01 2.586924777617112259e-01
1.051724137931034475e+00 -4.690550051387745029e-02 -3.823742474868644936e-01 2.666337840073066401e-01
1.103448275862068950e+00 -1.156257487978864934e-01 -3.292489793440953605e-01 2.740377429145847699e-01
1.155172413793103425e+00 -1.660623967076252927e-01 -2.671728091855559706e-01 2.820251833471859038e-01
1.206896551724137900e+00 -1.976927131870238608e-01 -2.010910982314694784e-01 2.914834775786267484e-01
1.258620689655172376e+00 -2.113382453396923655e-01 -1.357590230802044051e-01 3.030761361620002980e-01
1.310344827586206851e+00 -2.090080035962902649e-01 -7.533803168037106479e-02 3.172504315252326901e-01
1.362068965517241326e+00 -1.936267304559046165e-01 -2.311165881122428933e-02 3.342604166446646041e-01
1.413793103448275801e+00 -1.687087359614466986e-01 1.873715906811018739e-02 3.541879083808837647e-01
1.465517241379310276e+00 -1.379660553241394416e-01 4.917631084846833811e-02 3.769658362135911989e-01
1.517241379310344751e+00 -1.049804389384043635e-01 6.828278242417552824e-02 4.024018298634238211e-01
1.568965517241379448e+00 -7.284538007292712392e-02 7.707356075043006460e-02 4.302103937379596621e-01
1.620689655172413701e+00 -4.398978032830549306e-02 7.728367330968070881e-02 4.600272226929749131e-01
1.672413793103448398e+00 -2.003961782838190736e-02 7.104466472826609369e-02 4.914395388352822969e-01
1.724137931034482651e+00 -1.774368570454730454e-03 6.061255939025753103e-02 5.240061642607042325e-01
1.775862068965517349e+00 1.072377188237722337e-02 4.810311936156917711e-02 5.572729058543903768e-01
1.827586206896551602e+00 1.798942732476431147e-02 3.530928261812021213e-02 5.907935335301818247e-01
1.879310344827586299e+00 2.092612303383179287e-02 2.356375577923409612e-02 6.241424808104182320e-01
1.931034482758620552e+00 2.064555883230016070e-02 1.371299904669487715e-02 6.569258327527568442e-01
1.982758620689655249e+00 1.826763007207844736e-02 6.153086685622814050e-03 6.887922228435870986e-01
2.034482758620689502e+00 1.479097336195137925e-02 8.873211965449226413e-04 7.194380561577923272e-01
2.086206896551724199e+00 1.101817850898801146e-02 -2.329403835566380698e-03 7.486113153082305516e-01
2.137931034482758896e+00 7.505245506887774608e-03 -3.909223362466890568e-03 7.761142494609530873e-01
2.189655172413793149e+00 4.572471358452150601e-03 -4.299315895969442469e-03 8.018020574188885474e-01
2.241379310344827402e+00 2.359999990906574453e-03 -3.960199008527389916e-03 8.255806821690631070e-01
2.293103448275862100e+00 8.438702411992390039e-04 -3.228850041999974801e-03 8.474035499107595015e-01
2.344827586206896797e+00 -6.733710734195888503e-05 -2.385003128128223432e-03 8.672660057412056034e-01
2.396551724137931050e+00 -5.287684610170492868e-04 -1.607186518723471760e-03 8.851998756947748737e-01
2.448275862068965303e+00 -6.729873779575516485e-04 -9.694376663141796892e-04 9.012677381123330722e-01
2.500000000000000000e+00 -6.406265153063506928e-04 -5.030830435711487313e-04 9.155563408148919002e-01
