1.000000000000000056e-01 1.001325817196964119e-01 2.964458638189821360e-01 -9.463452390660950231e-01
2.000000000000000111e-01 2.106126543539061924e-01 5.456769876858753587e-01 -7.953330612214751794e-01
3.000000000000000444e-01 3.339299904269114050e-01 7.097188871006285815e-01 -5.740297710210827686e-01
4.000000000000000222e-01 4.606583561966475227e-01 7.673524043177984977e-01 -3.193006104812229906e-01
5.000000000000000000e-01 5.711791480075769645e-01 7.182412304303711359e-01 -6.862939536620282777e-02
5.999999999999999778e-01 6.424646584639857050e-01 5.824151109079581667e-01 1.478750138982989903e-01
7.000000000000000666e-01 6.568612122013864907e-01 3.948979945788089196e-01 3.121309698670012844e-01
8.000000000000000444e-01 6.090934202800066810e-01 1.966867009813766665e-01 4.187367224463099946e-01
9.000000000000000222e-01 5.085838186045226195e-01 2.465939232628117095e-02 4.725089664504293352e-01
1.000000000000000000e+00 3.764506333676057026e-01 -9.656587590319096193e-02 4.844257076854946997e-01
1.100000000000000089e+00 2.387025554821200490e-01 -1.585109549359660919e-01 4.676100779354427917e-01
1.200000000000000178e+00 1.185620845658888894e-01 -1.677003168647039633e-01 4.343209413939056462e-01
1.300000000000000266e+00 3.072241018930717618e-02 -1.405739426418800841e-01 3.943380810105543977e-01
1.400000000000000133e+00 -2.074583371110924959e-02 -9.671449235785793686e-02 3.545234430335034714e-01
1.500000000000000222e+00 -4.085218937216136131e-02 -5.283817421494836630e-02 3.191518249773242499e-01
1.600000000000000089e+00 -3.978393846987160476e-02 -1.928202799508747789e-02 2.905629456618882833e-01
1.700000000000000178e+00 -2.854146363267578979e-02 5.649210250609921482e-04 2.698301702942065838e-01
1.800000000000000266e+00 -1.568434172971774204e-02 8.523050841342662970e-03 2.572804198959707245e-01
1.900000000000000133e+00 -5.947695531766087999e-03 8.908008524688487348e-03 2.528310566227078282e-01
2.000000000000000000e+00 -5.913491212305383229e-04 6.071398017156233451e-03 2.561675460604161958e-01
2.100000000000000089e+00 1.281539451332573470e-03 2.985773741828686746e-03 2.668133254402085264e-01
2.200000000000000178e+00 1.264530201697298658e-03 9.573855301139208010e-04 2.841389021834005435e-01
2.300000000000000266e+00 6.763163883539155888e-04 7.810785574328594117e-05 3.073459764566589536e-01
2.400000000000000355e+00 2.124003241408486150e-04 -9.357303385286440693e-05 3.354501797349591641e-01
2.500000000000000444e+00 3.212848474210771535e-05 -1.458889186245944391e-05 3.672758305151651581e-01
2.600000000000000089e+00 3.639769129446993436e-05 4.741268983431724544e-05 4.014722684025472388e-01
2.700000000000000178e+00 7.843869889275466040e-05 2.943862450286705747e-05 4.365553372263097365e-01
2.800000000000000266e+00 7.609377263993199222e-05 -2.298422378913246399e-05 4.709731889010920214e-01
2.900000000000000355e+00 2.845447967659259063e-05 -4.824958469324579701e-05 5.031934116722061034e-01
3.000000000000000444e+00 -2.011352332818569304e-05 -1.652878074026545933e-05 5.318006157072701079e-01
3.100000000000000089e+00 -2.104146362751149814e-05 4.536852396496881461e-05 5.555934738320225108e-01
3.200000000000000178e+00 3.379179012955330633e-05 8.525238120131789694e-05 5.736686343716426162e-01
3.300000000000000266e+00 9.895169517976316941e-05 6.582402038648731027e-05 5.854780267456788367e-01
3.400000000000000355e+00 1.188701121584601235e-04 -1.236427907025897443e-06 5.908545596620071727e-01
3.500000000000000444e+00 7.241133903922541385e-05 -5.436648186560134942e-05 5.900016874579343540e-01
3.600000000000000089e+00 5.778343874416581315e-07 -4.358935825501616018e-05 5.834517779718129127e-01
3.700000000000000178e+00 -3.111104701317151414e-05 2.673396447668840788e-05 5.720001745919524039e-01
3.800000000000000266e+00 1.335120027962611322e-05 9.440250905587474603e-05 5.566255151270411705e-01
3.900000000000000355e+00 9.641878757189754738e-05 8.944087243649602318e-05 5.384070841115732309e-01
4.000000000000000000e+00 1.343529221144151159e-04 1.194069031631747123e-05 5.184476498767927044e-01
4.099999999999999645e+00 8.558809897154730131e-05 -5.969274990679753130e-05 4.978092253175642745e-01
4.200000000000000178e+00 -5.552999626153151333e-06 -5.673982864975788798e-05 4.774639996117646668e-01
4.299999999999999822e+00 -4.599025748072374547e-05 2.527498257593920733e-05 4.582621204293251260e-01
4.399999999999999467e+00 7.641218314077807540e-06 1.004580005763837413e-04 4.409138704640382378e-01
4.500000000000000000e+00 9.995257693216972987e-05 9.247850445014064015e-05 4.259846082231988351e-01
4.599999999999999645e+00 1.381651900802026249e-04 2.407025573560832277e-06 4.138980994306478700e-01
4.700000000000000178e+00 7.540665742420402714e-05 -7.483048544630287982e-05 4.049463930376966392e-01
4.799999999999999822e+00 -2.509965773827317343e-05 -5.553558745327239051e-05 3.993026472322341869e-01
4.900000000000000355e+00 -5.235616206938751736e-05 4.865703809270751463e-05 3.970356466516202776e-01
5.000000000000000000e+00 3.066834033805155587e-05 1.212423264089018899e-04 3.981243218189677302e-01
5.099999999999999645e+00 1.344838042099664359e-04 8.055394526870705819e-05 4.024713801616498499e-01
5.200000000000000178e+00 1.454556833715289158e-04 -3.126563609816225466e-05 4.099160916067284277e-01
5.299999999999999822e+00 4.765479031751223405e-05 -8.925463725213670274e-05 4.202459111934553349e-01
5.400000000000000355e+00 -5.124142041640393974e-05 -2.193032013375324860e-05 4.332069977379983117e-01
5.500000000000000000e+00 -2.846332589441385690e-05 1.011109974361773392e-04 4.485143060819017924e-01
5.599999999999999645e+00 9.803693934551597068e-05 1.370989360086721212e-04 4.658603860499697658e-01
5.700000000000000178e+00 1.854530200048934408e-04 4.024096789418182282e-05 4.849241771118930067e-01
5.799999999999999822e+00 1.325029186569653852e-04 -8.127358927751654580e-05 5.053795645783731860e-01
5.900000000000000355e+00 -7.644515648342517512e-07 -7.890691717037390262e-05 5.269021363988020124e-01
6.000000000000000000e+00 -5.460261146062908810e-05 5.614224106237263116e-05 5.491770070361143841e-01
6.099999999999999645e+00 5.355424469898700747e-05 1.639640597075437095e-04 5.719049637104259842e-01
6.200000000000000178e+00 1.988102435786497113e-04 1.120135024224530200e-04 5.948074950461189614e-01
6.299999999999999822e+00 2.111858957957535657e-04 -4.037407989599193218e-05 6.176315497230654428e-01
6.400000000000000355e+00 7.207499366436559396e-05 -1.067842812331892561e-04 6.401523648845471870e-01
6.500000000000000000e+00 -4.559763259883092086e-05 4.446668806674966518e-06 6.621759795697048645e-01
6.599999999999999645e+00 1.875925784335911886e-05 1.644383189238355150e-04 6.835396724762959897e-01
6.700000000000000178e+00 1.929169251446541703e-04 1.723944423545144581e-04 7.041121248740028760e-01
6.799999999999999822e+00 2.707048440107141037e-04 1.290175578774476526e-05 7.237925113604122274e-01
6.900000000000000355e+00 1.487058631384550848e-04 -1.109571055819690726e-04 7.425076030663605442e-01
7.000000000000000000e+00 -1.754354652499900806e-05 -3.625075229847535301e-05 7.602106555186913805e-01
7.099999999999999645e+00 -2.464617596511800988e-06 1.510491076329702415e-04 7.768773970122505590e-01
7.200000000000000178e+00 1.810190139736922758e-04 2.132028354161696285e-04 7.925035544292067247e-01
7.299999999999999822e+00 3.120824909318901767e-04 6.606529497130637148e-05 8.071011462834621897e-01
7.400000000000000355e+00 2.128659210747527533e-04 -1.032029696896189582e-04 8.206958496934821934e-01
7.500000000000000000e+00 1.724294850749231799e-05 -7.190957862737720556e-05 8.333235589286771550e-01
7.599999999999999645e+00 -1.547117201157610650e-05 1.348621192631590247e-04 8.450278363469891918e-01
7.700000000000000178e+00 1.694154652257066625e-04 2.440457693926636736e-04 8.558576891045922563e-01
7.799999999999999822e+00 3.387836682081765607e-04 1.083403452616532207e-04 8.658653956597456292e-01
7.900000000000000355e+00 2.676508459789561319e-04 -9.603979226691296983e-05 8.751048145244872956e-01
8.000000000000000000e+00 4.984727176854449618e-05 -9.005460075875802294e-05 8.836297350805886186e-01
8.099999999999999645e+00 -2.337000300090812409e-05 1.236013649024865480e-04 8.914930537762723040e-01
8.199999999999999289e+00 1.648420344691962469e-04 2.676347466871242873e-04 8.987459126781726093e-01
8.300000000000000711e+00 3.628094685187763084e-04 1.381479742801701351e-04 9.054370956207035137e-01
8.400000000000000355e+00 3.060682031059661795e-04 -8.932210026830892432e-05 9.116125856824242035e-01
8.500000000000000000e+00 7.170331104008253944e-05 -1.045233433979690115e-04 9.173153524976883633e-01
8.599999999999999645e+00 -1.854249846571701907e-05 1.243894657141881384e-04 9.225851758179013373e-01
8.699999999999999289e+00 1.694522373079824042e-04 2.877176539630101515e-04 9.274587897249835233e-01
8.800000000000000711e+00 3.890694181438623337e-04 1.581190623290310915e-04 9.319700509050073967e-01
8.900000000000000355e+00 3.354381520464555814e-04 -9.155322323899016900e-05 9.361497360525868894e-01
9.000000000000000000e+00 7.728332703426437299e-05 -1.113252200227751818e-04 9.400260093417218688e-01
9.099999999999999645e+00 -2.070594000413730583e-05 1.339273648576234097e-04 9.436243562486239522e-01
9.199999999999999289e+00 1.903664141061111367e-04 3.075895720544155956e-04 9.469678969094948995e-01
9.300000000000000711e+00 4.200972752120851359e-04 1.603017165401078017e-04 9.500778577039473705e-01
9.400000000000000355e+00 3.495423062678142730e-04 -1.014238203370767589e-04 9.529733867927414614e-01
9.500000000000000000e+00 7.503170867107099751e-05 -1.097372202566517944e-04 9.556717311739238996e-01
9.599999999999999645e+00 -1.059765438962147889e-05 1.600353704972391658e-04 9.581885010511516088e-01
9.700000000000001066e+00 2.193067257694552533e-04 3.241685537044364717e-04 9.605380158243981281e-01
9.800000000000000711e+00 4.503121246445799977e-04 1.510174198854987468e-04 9.627333068020371698e-01
9.900000000000000355e+00 3.528233166707911992e-04 -1.204671265832489389e-04 9.647862247943009839e-01
1.000000000000000000e+01 5.950717886430092503e-05 -9.761665723596750813e-05 9.667074574938225862e-01
