1.000000000000000056e-01 9.735780877013464618e-01 0.000000000000000000e+00 2.642191229865333002e-02 0.000000000000000000e+00 0.000000000000000000e+00 0.000000000000000000e+00 -9.383353125858394372e-02 1.300732995531806990e-01 0.000000000000000000e+00 0.000000000000000000e+00 0.000000000000000000e+00 0.000000000000000000e+00 0.000000000000000000e+00 0.000000000000000000e+00 0.000000000000000000e+00 0.000000000000000000e+00
2.000000000000000111e-01 8.983844386906891799e-01 0.000000000000000000e+00 1.016155613093127075e-01 0.000000000000000000e+00 0.000000000000000000e+00 0.000000000000000000e+00 -1.891344337730050396e-01 2.356225900584465460e-01 0.000000000000000000e+00 0.000000000000000000e+00 0.000000000000000000e+00 0.000000000000000000e+00 0.000000000000000000e+00 0.000000000000000000e+00 0.000000000000000000e+00 0.000000000000000000e+00
2.999999999999999889e-01 7.856156436470090876e-01 0.000000000000000000e+00 2.143843563529894136e-01 0.000000000000000000e+00 0.000000000000000000e+00 0.000000000000000000e+00 -2.833868094618255951e-01 2.968427535223936431e-01 0.000000000000000000e+00 0.000000000000000000e+00 0.000000000000000000e+00 0.000000000000000000e+00 0.000000000000000000e+00 0.000000000000000000e+00 0.000000000000000000e+00 0.000000000000000000e+00
4.000000000000000222e-01 6.508850676612397690e-01 0.000000000000000000e+00 3.491149323387636727e-01 0.000000000000000000e+00 0.000000000000000000e+00 0.000000000000000000e+00 -3.681528972892030849e-01 3.028153573154773182e-01 0.000000000000000000e+00 0.000000000000000000e+00 0.000000000000000000e+00 0.000000000000000000e+00 0.000000000000000000e+00 0.000000000000000000e+00 0.000000000000000000e+00 0.000000000000000000e+00
5.000000000000000000e-01 5.107291815839393179e-01 0.000000000000000000e+00 4.892708184160683427e-01 0.000000000000000000e+00 0.000000000000000000e+00 0.000000000000000000e+00 -4.303880189201719775e-01 2.542656837317633367e-01 0.000000000000000000e+00 0.000000000000000000e+00 0.000000000000000000e+00 0.000000000000000000e+00 0.000000000000000000e+00 0.000000000000000000e+00 0.000000000000000000e+00 0.000000000000000000e+00
5.999999999999999778e-01 3.793834639660441099e-01 0.000000000000000000e+00 6.206165360339656045e-01 0.000000000000000000e+00 0.000000000000000000e+00 0.000000000000000000e+00 -4.567159087630095482e-01 1.638970102697860087e-01 0.000000000000000000e+00 0.000000000000000000e+00 0.000000000000000000e+00 0.000000000000000000e+00 0.000000000000000000e+00 0.000000000000000000e+00 0.000000000000000000e+00 0.000000000000000000e+00
6.999999999999999556e-01 2.666278830067040362e-01 0.000000000000000000e+00 7.333721169932932993e-01 0.000000000000000000e+00 0.000000000000000000e+00 0.000000000000000000e+00 -4.389383443432684495e-01 5.357783912569263202e-02 0.000000000000000000e+00 0.000000000000000000e+00 0.000000000000000000e+00 0.000000000000000000e+00 0.000000000000000000e+00 0.000000000000000000e+00 0.000000000000000000e+00 0.000000000000000000e+00
7.999999999999999334e-01 1.771681510720232444e-01 0.000000000000000000e+00 8.228318489279776715e-01 0.000000000000000000e+00 0.000000000000000000e+00 0.000000000000000000e+00 -3.783355498211305457e-01 -5.139853134148887615e-02 0.000000000000000000e+00 0.000000000000000000e+00 0.000000000000000000e+00 0.000000000000000000e+00 0.000000000000000000e+00 0.000000000000000000e+00 0.000000000000000000e+00 0.000000000000000000e+00
8.999999999999999112e-01 1.112069474381552070e-01 0.000000000000000000e+00 8.887930525618489286e-01 0.000000000000000000e+00 0.000000000000000000e+00 0.000000000000000000e+00 -2.865549302863972247e-01 -1.293299431200173599e-01 0.000000000000000000e+00 0.000000000000000000e+00 0.000000000000000000e+00 0.000000000000000000e+00 0.000000000000000000e+00 0.000000000000000000e+00 0.000000000000000000e+00 0.000000000000000000e+00
9.999999999999998890e-01 6.588139363928532943e-02 0.000000000000000000e+00 9.341186063607155310e-01 0.000000000000000000e+00 0.000000000000000000e+00 0.000000000000000000e+00 -1.825422109402347615e-01 -1.679862399691424701e-01 0.000000000000000000e+00 0.000000000000000000e+00 0.000000000000000000e+00 0.000000000000000000e+00 0.000000000000000000e+00 0.000000000000000000e+00 0.000000000000000000e+00 0.000000000000000000e+00
1.099999999999999867e+00 3.679542145030667566e-02 0.000000000000000000e+00 9.632045785496908819e-01 0.000000000000000000e+00 0.000000000000000000e+00 0.000000000000000000e+00 -8.655039573913704543e-02 -1.671841720476836546e-01 0.000000000000000000e+00 0.000000000000000000e+00 0.000000000000000000e+00 0.000000000000000000e+00 0.000000000000000000e+00 0.000000000000000000e+00 0.000000000000000000e+00 0.000000000000000000e+00
1.199999999999999956e+00 1.934831649555096220e-02 0.000000000000000000e+00 9.806516835044489788e-01 0.000000000000000000e+00 0.000000000000000000e+00 0.000000000000000000e+00 -1.391612338785864524e-02 -1.370412368848012152e-01 0.000000000000000000e+00 0.000000000000000000e+00 0.000000000000000000e+00 0.000000000000000000e+00 0.000000000000000000e+00 0.000000000000000000e+00 0.000000000000000000e+00 0.000000000000000000e+00
1.300000000000000044e+00 9.565993215020409529e-03 0.000000000000000000e+00 9.904340067849761731e-01 0.000000000000000000e+00 0.000000000000000000e+00 0.000000000000000000e+00 2.879390891789097504e-02 -9.298062019279189350e-02 0.000000000000000000e+00 0.000000000000000000e+00 0.000000000000000000e+00 0.000000000000000000e+00 0.000000000000000000e+00 0.000000000000000000e+00 0.000000000000000000e+00 0.000000000000000000e+00
1.399999999999999911e+00 4.440019531762292963e-03 0.000000000000000000e+00 9.955599804682379039e-01 0.000000000000000000e+00 0.000000000000000000e+00 0.000000000000000000e+00 4.407865354387342088e-02 -4.977326582568847996e-02 0.000000000000000000e+00 0.000000000000000000e+00 0.000000000000000000e+00 0.000000000000000000e+00 0.000000000000000000e+00 0.000000000000000000e+00 0.000000000000000000e+00 0.000000000000000000e+00
1.500000000000000000e+00 1.930277282896021920e-03 0.000000000000000000e+00 9.980697227171068109e-01 0.000000000000000000e+00 0.000000000000000000e+00 0.000000000000000000e+00 4.041877012621013232e-02 -1.711357025744074042e-02 0.000000000000000000e+00 0.000000000000000000e+00 0.000000000000000000e+00 0.000000000000000000e+00 0.000000000000000000e+00 0.000000000000000000e+00 0.000000000000000000e+00 0.000000000000000000e+00
1.599999999999999867e+00 7.843682133477747993e-04 0.000000000000000000e+00 9.992156317866555115e-01 0.000000000000000000e+00 0.000000000000000000e+00 0.000000000000000000e+00 2.793756832004410176e-02 1.801434432743999467e-03 0.000000000000000000e+00 0.000000000000000000e+00 0.000000000000000000e+00 0.000000000000000000e+00 0.000000000000000000e+00 0.000000000000000000e+00 0.000000000000000000e+00 0.000000000000000000e+00
1.699999999999999956e+00 2.974021357656114230e-04 0.000000000000000000e+00 9.997025978642296584e-01 0.000000000000000000e+00 0.000000000000000000e+00 0.000000000000000000e+00 1.472746617742722378e-02 8.967460289721309458e-03 0.000000000000000000e+00 0.000000000000000000e+00 0.000000000000000000e+00 0.000000000000000000e+00 0.000000000000000000e+00 0.000000000000000000e+00 0.000000000000000000e+00 0.000000000000000000e+00
1.800000000000000044e+00 1.047468576118628492e-04 0.000000000000000000e+00 9.998952531423863643e-01 0.000000000000000000e+00 0.000000000000000000e+00 0.000000000000000000e+00 5.133212644714283540e-03 8.853582915505841741e-03 0.000000000000000000e+00 0.000000000000000000e+00 0.000000000000000000e+00 0.000000000000000000e+00 0.000000000000000000e+00 0.000000000000000000e+00 0.000000000000000000e+00 0.000000000000000000e+00
1.899999999999999911e+00 3.425504248098271723e-05 0.000000000000000000e+00 9.999657449575267698e-01 0.000000000000000000e+00 0.000000000000000000e+00 0.000000000000000000e+00 5.885484482484123093e-05 5.852378878033292868e-03 0.000000000000000000e+00 0.000000000000000000e+00 0.000000000000000000e+00 0.000000000000000000e+00 0.000000000000000000e+00 0.000000000000000000e+00 0.000000000000000000e+00 0.000000000000000000e+00
2.000000000000000000e+00 1.034513611160607122e-05 0.000000000000000000e+00 9.999896548638973481e-01 0.000000000000000000e+00 0.000000000000000000e+00 0.000000000000000000e+00 -1.595751494157460031e-03 2.792581993771234283e-03 0.000000000000000000e+00 0.000000000000000000e+00 0.000000000000000000e+00 0.000000000000000000e+00 0.000000000000000000e+00 0.000000000000000000e+00 0.000000000000000000e+00 0.000000000000000000e+00
2.099999999999999645e+00 2.865557981291384919e-06 0.000000000000000000e+00 9.999971344420158781e-01 0.000000000000000000e+00 0.000000000000000000e+00 0.000000000000000000e+00 -1.478077255408053597e-03 8.250649140409917941e-04 0.000000000000000000e+00 0.000000000000000000e+00 0.000000000000000000e+00 0.000000000000000000e+00 0.000000000000000000e+00 0.000000000000000000e+00 0.000000000000000000e+00 0.000000000000000000e+00
2.199999999999999734e+00 7.179034297691325852e-07 0.000000000000000000e+00 9.999992820965705187e-01 0.000000000000000000e+00 0.000000000000000000e+00 0.000000000000000000e+00 -8.464208859752368232e-04 -3.684673725275464703e-05 0.000000000000000000e+00 0.000000000000000000e+00 0.000000000000000000e+00 0.000000000000000000e+00 0.000000000000000000e+00 0.000000000000000000e+00 0.000000000000000000e+00 0.000000000000000000e+00
2.299999999999999822e+00 1.689493874966681057e-07 0.000000000000000000e+00 9.999998310506112986e-01 0.000000000000000000e+00 0.000000000000000000e+00 0.000000000000000000e+00 -3.347875690291699392e-04 -2.381654956473743337e-04 0.000000000000000000e+00 0.000000000000000000e+00 0.000000000000000000e+00 0.000000000000000000e+00 0.000000000000000000e+00 0.000000000000000000e+00 0.000000000000000000e+00 0.000000000000000000e+00
2.399999999999999911e+00 3.469792599873387135e-08 0.000000000000000000e+00 9.999999653020751333e-01 0.000000000000000000e+00 0.000000000000000000e+00 0.000000000000000000e+00 -6.824800704057779803e-05 -1.729409443746097162e-04 0.000000000000000000e+00 0.000000000000000000e+00 0.000000000000000000e+00 0.000000000000000000e+00 0.000000000000000000e+00 0.000000000000000000e+00 0.000000000000000000e+00 0.000000000000000000e+00
2.500000000000000000e+00 6.980378794031180786e-09 0.000000000000000000e+00 9.999999930196227238e-01 0.000000000000000000e+00 0.000000000000000000e+00 0.000000000000000000e+00 2.084115055705128503e-05 -7.988128937949260733e-05 0.000000000000000000e+00 0.000000000000000000e+00 0.000000000000000000e+00 0.000000000000000000e+00 0.000000000000000000e+00 0.000000000000000000e+00 0.000000000000000000e+00 0.000000000000000000e+00
2.600000000000000089e+00 9.446557825537273483e-10 0.000000000000000000e+00 9.999999990553469775e-01 0.000000000000000000e+00 0.000000000000000000e+00 0.000000000000000000e+00 2.315136513481037326e-05 -1.654449046783386073e-05 0.000000000000000000e+00 0.000000000000000000e+00 0.000000000000000000e+00 0.000000000000000000e+00 0.000000000000000000e+00 0.000000000000000000e+00 0.000000000000000000e+00 0.000000000000000000e+00
2.699999999999999734e+00 2.762825077167932897e-10 0.000000000000000000e+00 9.999999997237258853e-01 0.000000000000000000e+00 0.000000000000000000e+00 0.000000000000000000e+00 8.685648340488018798e-06 4.435397931417107966e-06 0.000000000000000000e+00 0.000000000000000000e+00 0.000000000000000000e+00 0.000000000000000000e+00 0.000000000000000000e+00 0.000000000000000000e+00 0.000000000000000000e+00 0.000000000000000000e+00
2.799999999999999822e+00 2.680712895520270976e-10 0.000000000000000000e+00 9.999999997319268807e-01 0.000000000000000000e+00 0.000000000000000000e+00 0.000000000000000000e+00 8.176520382002182817e-06 5.162395494428376613e-06 0.000000000000000000e+00 0.000000000000000000e+00 0.000000000000000000e+00 0.000000000000000000e+00 0.000000000000000000e+00 0.000000000000000000e+00 0.000000000000000000e+00 0.000000000000000000e+00
2.899999999999999911e+00 1.531876475965311556e-10 0.000000000000000000e+00 9.999999998468159790e-01 0.000000000000000000e+00 0.000000000000000000e+00 0.000000000000000000e+00 4.260935159152784731e-06 -2.553723685320915426e-06 0.000000000000000000e+00 0.000000000000000000e+00 0.000000000000000000e+00 0.000000000000000000e+00 0.000000000000000000e+00 0.000000000000000000e+00 0.000000000000000000e+00 0.000000000000000000e+00
3.000000000000000000e+00 2.061942335211204466e-10 0.000000000000000000e+00 9.999999997938113783e-01 0.000000000000000000e+00 0.000000000000000000e+00 0.000000000000000000e+00 -1.534575542011435894e-06 5.910697981606461392e-06 0.000000000000000000e+00 0.000000000000000000e+00 0.000000000000000000e+00 0.000000000000000000e+00 0.000000000000000000e+00 0.000000000000000000e+00 0.000000000000000000e+00 0.000000000000000000e+00
