0.000000000000000000e+00 -7.640520540866584046e-12 1.010314019289669738e-11 -1.000000000000000000e+00
2.068965517241379282e-01 -4.021046520435013760e-01 4.449988333367230764e-01 -7.935578525812672090e-01
4.137931034482758563e-01 -7.369123092365449379e-01 5.464911054610275265e-01 -3.099091582016941238e-01
6.206896551724138122e-01 -8.763273740995395356e-01 2.725718739895662823e-01 2.056610510419748239e-01
8.275862068965517127e-01 -7.168268389007544927e-01 -1.283193194622755384e-01 6.013604714093808701e-01
1.034482758620689724e+00 -3.396235534582766613e-01 -3.454523726396488414e-01 8.389347669064243229e-01
1.241379310344827624e+00 -9.958808939580086894e-03 -2.744934110837943253e-01 9.473917766548972663e-01
1.448275862068965525e+00 9.654781824040363503e-02 -9.283611336204061759e-02 9.818468836326150750e-01
1.655172413793103425e+00 5.601111346583443479e-02 8.482557211188346269e-03 9.883195513348537187e-01
1.862068965517241326e+00 9.062774109884468715e-03 1.879524203349482517e-02 9.893292534745227185e-01
2.068965517241379448e+00 -3.586272966636985457e-03 5.624122741525391933e-03 9.909906010723962266e-01
2.275862068965517349e+00 -1.828451317374468321e-03 -1.053131572409803270e-04 9.934165124589577900e-01
2.482758620689655249e+00 -1.692659903443424622e-04 -3.873691355549229018e-04 9.957740436977351450e-01
2.689655172413793149e+00 5.406418179247362172e-05 -6.082647255752867451e-05 9.975819502681156914e-01
2.896551724137931050e+00 1.371598305345320232e-05 3.063293386168523455e-06 9.987553378085692879e-01
3.103448275862068950e+00 -2.181513799262168100e-06 -4.589609052287894511e-07 9.994196391614851294e-01
3.310344827586206851e+00 -1.293917144505622710e-06 -1.476716628100988722e-06 9.997532160547166757e-01
3.517241379310344751e+00 2.553168090230601800e-06 1.690892305643926853e-06 9.999036457450369841e-01
3.724137931034482651e+00 8.715482397244721603e-07 5.328259529340905694e-06 9.999652293822378635e-01
3.931034482758620552e+00 -6.530663314698545649e-07 2.220487027246805299e-06 9.999883338283265255e-01
4.137931034482758896e+00 2.327037376413212710e-06 2.781127611406427834e-07 9.999963417380215436e-01
4.344827586206896797e+00 -8.899816878950417057e-06 2.608606153107547434e-06 9.999989229450851891e-01
4.551724137931034697e+00 -9.656607065202742112e-07 2.312490996522045718e-06 9.999997011081276366e-01
4.758620689655172598e+00 -1.260984466570841398e-07 4.593015279786026197e-06 9.999999215143160480e-01
4.965517241379310498e+00 -5.250525180390974558e-06 5.258825762452014487e-08 9.999999804291942462e-01
5.172413793103448398e+00 -4.196824524600329746e-07 -2.430005567209322169e-06 9.999999953645111184e-01
5.379310344827586299e+00 4.693823271570488641e-07 4.092726280370692369e-06 9.999999989592187610e-01
5.586206896551724199e+00 -2.447672788174484395e-06 4.060891152108701894e-06 9.999999997820399056e-01
5.793103448275862100e+00 4.924519318405847381e-06 4.422286147708236258e-06 9.999999999536577366e-01
6.000000000000000000e+00 3.876112800676286236e-06 -2.860637259361871038e-06 1.000000000007087220e+00
