1.000000000000000000e+00 2.945007221123167596e-01 -3.891965811046720902e-01 6.512232592679940701e-01
1.051724137931034475e+00 2.030449656933469571e-01 -3.858973372447713213e-01 7.017760849178519278e-01
1.103448275862068950e+00 1.198860543366787879e-01 -3.669455724935385965e-01 7.470795775291372287e-01
1.155172413793103425e+00 4.795574387785728893e-02 -3.351727579608786978e-01 7.873895213432481333e-01
1.206896551724137900e+00 -1.078037763793370657e-02 -2.940010686696136188e-01 8.229480073507419169e-01
1.258620689655172376e+00 -5.539214504003051043e-02 -2.470990304125263992e-01 8.540099966600170900e-01
1.310344827586206851e+00 -8.597608984000187915e-02 -1.980669007418925098e-01 8.808532816047269787e-01
1.362068965517241326e+00 -1.035424356452528949e-01 -1.501410232693709546e-01 9.037851145210946679e-01
1.413793103448275801e+00 -1.098094193398074514e-01 -1.059731639551978050e-01 9.231403733693039904e-01
1.465517241379310276e+00 -1.069783381007581580e-01 -6.751155549704149217e-02 9.392718313751268200e-01
1.517241379310344751e+00 -9.748106696757485867e-02 -3.591420463038313277e-02 9.525453560941907760e-01
1.568965517241379448e+00 -8.372514508841731595e-02 -1.161522016068253921e-02 9.633266840530204655e-01
1.620689655172413701e+00 -6.790981777192975355e-02 5.620099850469954805e-03 9.719708654723238084e-01
1.672413793103448398e+00 -5.187130341619840962e-02 1.650360177164877928e-02 9.788123168362533599e-01
1.724137931034482651e+00 -3.697708214040586888e-02 2.209552188972786768e-02 9.841589607043029764e-01
1.775862068965517349e+00 -2.415312347370106999e-02 2.361250986745145816e-02 9.882843695580806331e-01
1.827586206896551602e+00 -1.385719855966510185e-02 2.228254954132987548e-02 9.914284398809375398e-01
1.879310344827586299e+00 -6.187120093190227182e-03 1.922331261718341483e-02 9.937954031164207835e-01
1.931034482758620552e+00 -9.522739401433485962e-04 1.536987530656664866e-02 9.955560093322055604e-01
1.982758620689655249e+00 2.219501236034475411e-03 1.141311591527228303e-02 9.968503062190354758e-01
2.034482758620689502e+00 3.783514523779400035e-03 7.827711317092983165e-03 9.977907297435383294e-01
2.086206896551724199e+00 4.209551243371906573e-03 4.870100128914756944e-03 9.984662592269952786e-01
2.137931034482758896e+00 3.914193269449337681e-03 2.633880638667377566e-03 9.989460647760497469e-01
2.189655172413793149e+00 3.245680039040431831e-03 1.084481040153940923e-03 9.992830853873870822e-01
2.241379310344827402e+00 2.450402386174357211e-03 1.175150105364090956e-04 9.995172298163422786e-01
2.293103448275862100e+00 1.694338204426889139e-03 -3.937136016628351842e-04 9.996781377609016417e-01
2.344827586206896797e+00 1.069855105575742357e-03 -5.935382108338270761e-04 9.997875320679202593e-01
2.396551724137931050e+00 5.912957377559229042e-04 -6.044689742061646730e-04 9.998611306278091249e-01
2.448275862068965303e+00 2.778103753307292496e-04 -5.153206708662439513e-04 9.999101171879734018e-01
2.500000000000000000e+00 8.066408232929885404e-05 -3.807794208554480739e-04 9.999423957649768990e-01
