1.000000000000000056e-01 8.001862678226970838e-01 0.000000000000000000e+00 1.998133738026495743e-01 3.583746540840544081e-07 0.000000000000000000e+00 0.000000000000000000e+00 1.502718025985346484e-01 3.705486516133085217e-01 0.000000000000000000e+00 0.000000000000000000e+00 0.000000000000000000e+00 0.000000000000000000e+00 1.850096770569678670e-05 2.669564813550459885e-04 -4.811499281823279238e-04 2.350770593280831491e-04
2.000000000000000111e-01 6.709881730693170176e-01 0.000000000000000000e+00 3.290098710154762407e-01 1.955915208225701129e-06 0.000000000000000000e+00 0.000000000000000000e+00 1.502712521241287014e-01 4.451744411324405348e-01 0.000000000000000000e+00 0.000000000000000000e+00 0.000000000000000000e+00 0.000000000000000000e+00 7.354840671324307526e-05 7.988153992166302682e-04 -1.047263374242208287e-03 4.643655845594417625e-04
3.000000000000000444e-01 5.250526862462860933e-01 0.000000000000000000e+00 4.749416139220606348e-01 5.699831653291917610e-06 0.000000000000000000e+00 0.000000000000000000e+00 1.502703497393388654e-01 4.762228388020872671e-01 0.000000000000000000e+00 0.000000000000000000e+00 0.000000000000000000e+00 0.000000000000000000e+00 1.637868886756302291e-04 1.637150298220201982e-03 -1.589744986103989403e-03 6.822190253957984962e-04
4.000000000000000222e-01 3.766664276495512165e-01 0.000000000000000000e+00 6.233210053363315017e-01 1.256701411226705813e-05 0.000000000000000000e+00 0.000000000000000000e+00 1.502691176772457393e-01 4.606552818434381802e-01 0.000000000000000000e+00 0.000000000000000000e+00 0.000000000000000000e+00 0.000000000000000000e+00 2.869931003876109114e-04 2.784047202904994019e-03 -1.988317156138672600e-03 8.832707379279994319e-04
5.000000000000000000e-01 2.403523553510754085e-01 0.000000000000000000e+00 7.596241691212998193e-01 2.347552763116426586e-05 0.000000000000000000e+00 0.000000000000000000e+00 1.502675862618936542e-01 3.999963883584410906e-01 0.000000000000000000e+00 0.000000000000000000e+00 0.000000000000000000e+00 0.000000000000000000e+00 4.401346222644403447e-04 4.199864245029973943e-03 -2.124461841685929085e-03 1.062572459821572654e-03
5.999999999999999778e-01 1.294556183226936164e-01 0.000000000000000000e+00 8.705052266026677144e-01 3.915507463859094889e-05 0.000000000000000000e+00 0.000000000000000000e+00 1.502657932382840678e-01 3.001865813934467275e-01 0.000000000000000000e+00 0.000000000000000000e+00 0.000000000000000000e+00 0.000000000000000000e+00 6.194369896952701916e-04 5.805255802185291768e-03 -1.894968176457062200e-03 1.215705555689164906e-03
7.000000000000000666e-01 5.482775722398627177e-02 0.000000000000000000e+00 9.451122104533422608e-01 6.003232267326412256e-05 0.000000000000000000e+00 0.000000000000000000e+00 1.502637827120875680e-01 1.709946732611062614e-01 0.000000000000000000e+00 0.000000000000000000e+00 0.000000000000000000e+00 0.000000000000000000e+00 8.204896172947052447e-04 7.487594936975561569e-03 -1.224245080217191721e-03 1.338903125431635793e-03
8.000000000000000444e-01 2.377428680976006320e-02 0.000000000000000000e+00 9.761395735738590540e-01 8.613961638627257199e-05 0.000000000000000000e+00 0.000000000000000000e+00 1.502616042135456464e-01 2.506935137858753992e-02 0.000000000000000000e+00 0.000000000000000000e+00 0.000000000000000000e+00 0.000000000000000000e+00 1.038339465781941548e-03 9.110770521517718573e-03 -7.414774663742081486e-05 1.429129121306457837e-03
9.000000000000000222e-01 3.933293073995279554e-02 0.000000000000000000e+00 9.605500082372822046e-01 1.170610227652772625e-04 0.000000000000000000e+00 0.000000000000000000e+00 1.502593114152837583e-01 -1.233020122149776632e-01 0.000000000000000000e+00 0.000000000000000000e+00 0.000000000000000000e+00 0.000000000000000000e+00 1.267619301928229374e-03 1.052787289385842713e-02 1.549715791963971736e-03 1.484161062682879837e-03
1.000000000000000000e+00 9.997814506583732608e-02 0.000000000000000000e+00 8.998699337459101777e-01 1.519211882504271937e-04 0.000000000000000000e+00 0.000000000000000000e+00 1.502569607524621154e-01 -2.595961719235881926e-01 0.000000000000000000e+00 0.000000000000000000e+00 0.000000000000000000e+00 0.000000000000000000e+00 1.502685567265411208e-03 1.159531136271619960e-02 3.595950137850649833e-03 1.502644741219762679e-03
1.100000000000000089e+00 1.997711214317731687e-01 0.000000000000000000e+00 8.000394614793275849e-01 1.894170888961862489e-04 0.000000000000000000e+00 0.000000000000000000e+00 1.502546101140439516e-01 -3.704704203817803521e-01 0.000000000000000000e+00 0.000000000000000000e+00 0.000000000000000000e+00 0.000000000000000000e+00 1.737749416217448765e-03 1.218693450704197434e-02 5.969710051968358903e-03 1.484124712931425777e-03
1.200000000000000178e+00 3.289402296698180628e-01 0.000000000000000000e+00 6.708318764660106126e-01 2.278938641765630268e-04 0.000000000000000000e+00 0.000000000000000000e+00 1.502523173927014233e-01 -4.450705928705752656e-01 0.000000000000000000e+00 0.000000000000000000e+00 0.000000000000000000e+00 0.000000000000000000e+00 1.967021551099550330e-03 1.220693633489332644e-02 8.539394357177191100e-03 1.429057053874373999e-03
1.300000000000000266e+00 4.748372843139835320e-01 0.000000000000000000e+00 5.248972585640163668e-01 2.654571219991528892e-04 0.000000000000000000e+00 0.000000000000000000e+00 1.502501390628188105e-01 -4.760941970681510371e-01 0.000000000000000000e+00 0.000000000000000000e+00 0.000000000000000000e+00 0.000000000000000000e+00 2.184854534217558174e-03 1.160017785036259255e-02 1.114704252152741437e-02 1.338798706005555001e-03
1.400000000000000133e+00 6.231820682018949231e-01 0.000000000000000000e+00 3.765178180864475754e-01 3.001137116563970791e-04 0.000000000000000000e+00 0.000000000000000000e+00 1.502481287068517246e-01 -4.605047797346837335e-01 0.000000000000000000e+00 0.000000000000000000e+00 0.000000000000000000e+00 0.000000000000000000e+00 2.385890129690116605e-03 1.035884587826075946e-02 1.362159592382921822e-02 1.215569036055376678e-03
1.500000000000000222e+00 7.594469141162880632e-01 0.000000000000000000e+00 2.402231637325744629e-01 3.299221511370058679e-04 0.000000000000000000e+00 0.000000000000000000e+00 1.502463358862384801e-01 -3.998284361520184071e-01 0.000000000000000000e+00 0.000000000000000000e+00 0.000000000000000000e+00 0.000000000000000000e+00 2.565172206298139707e-03 8.524953617224054897e-03 1.579334212743202515e-02 1.062404847375334046e-03
1.600000000000000089e+00 8.702886558061455613e-01 0.000000000000000000e+00 1.293581947507808083e-01 3.531494430758031280e-04 0.000000000000000000e+00 0.000000000000000000e+00 1.502448047788556562e-01 -3.000091127058526208e-01 0.000000000000000000e+00 0.000000000000000000e+00 0.000000000000000000e+00 0.000000000000000000e+00 2.718282944081367586e-03 6.188191335105819833e-03 1.750891543282129259e-02 8.830824122116417594e-04
1.700000000000000178e+00 9.448600383231862132e-01 0.000000000000000000e+00 5.477154931369398322e-02 3.684123631205958572e-04 0.000000000000000000e+00 0.000000000000000000e+00 1.502435730263933511e-01 -1.708166177311745138e-01 0.000000000000000000e+00 0.000000000000000000e+00 0.000000000000000000e+00 0.000000000000000000e+00 2.841458189427485681e-03 3.479171053278392201e-03 1.864491834764583564e-02 6.820112651873325420e-04
1.800000000000000266e+00 9.758587336505478715e-01 0.000000000000000000e+00 2.376647806143260613e-02 3.747882880180975211e-04 0.000000000000000000e+00 0.000000000000000000e+00 1.502426709670990623e-01 -2.489708143435812385e-02 0.000000000000000000e+00 0.000000000000000000e+00 0.000000000000000000e+00 0.000000000000000000e+00 2.931664119466282411e-03 5.592342731079980554e-04 1.911870806915784080e-02 4.641399671756133295e-04
1.900000000000000133e+00 9.602485857959990323e-01 0.000000000000000000e+00 3.937952141310043647e-02 3.718927909008917310e-04 0.000000000000000000e+00 0.000000000000000000e+00 1.502421208577475187e-01 1.234562075523821384e-01 0.000000000000000000e+00 0.000000000000000000e+00 0.000000000000000000e+00 0.000000000000000000e+00 2.986675053468536723e-03 -2.392641309419541243e-03 1.889588247402450988e-02 2.348447054117977441e-04
2.000000000000000000e+00 8.995610109853551251e-01 0.000000000000000000e+00 1.000790768178598522e-01 3.599121967868400707e-04 0.000000000000000000e+00 0.000000000000000000e+00 1.502419362160421767e-01 2.597202266093798229e-01 0.000000000000000000e+00 0.000000000000000000e+00 0.000000000000000000e+00 0.000000000000000000e+00 3.005139220822801872e-03 -5.195076384941729394e-03 1.799341489426865837e-02 -2.287737712228731859e-07
2.100000000000000089e+00 7.997317784706334809e-01 0.000000000000000000e+00 1.999286364531334126e-01 3.395850762342555030e-04 0.000000000000000000e+00 0.000000000000000000e+00 1.502421215912979335e-01 3.705625289594485783e-01 0.000000000000000000e+00 0.000000000000000000e+00 0.000000000000000000e+00 0.000000000000000000e+00 2.986601694626935151e-03 -7.679387433051958201e-03 1.647791270406574055e-02 -2.353078688672822962e-04
2.200000000000000178e+00 6.705412967000534685e-01 0.000000000000000000e+00 3.291465583871588940e-01 3.121449127823125555e-04 0.000000000000000000e+00 0.000000000000000000e+00 1.502426724129045099e-01 4.451218934423525897e-01 0.000000000000000000e+00 0.000000000000000000e+00 0.000000000000000000e+00 0.000000000000000000e+00 2.931519528005788015e-03 -9.702969504974109927e-03 1.445995212261564147e-02 -4.645849775730162253e-04
2.300000000000000266e+00 5.246303685778166415e-01 0.000000000000000000e+00 4.750904189436402913e-01 2.792124785444151228e-04 0.000000000000000000e+00 0.000000000000000000e+00 1.502435751507722739e-01 4.761026454642330874e-01 0.000000000000000000e+00 0.000000000000000000e+00 0.000000000000000000e+00 0.000000000000000000e+00 2.841245740877221173e-03 -1.116147377371147671e-02 1.208377577010977429e-02 -6.824282135459545798e-04
2.400000000000000355e+00 3.762923411026520282e-01 0.000000000000000000e+00 6.234649891355478202e-01 2.426697617929032174e-04 0.000000000000000000e+00 0.000000000000000000e+00 1.502448075275292783e-01 4.604688898278339049e-01 0.000000000000000000e+00 0.000000000000000000e+00 0.000000000000000000e+00 0.000000000000000000e+00 2.718008067077615653e-03 -1.199618829194357313e-02 9.514949795158380089e-03 -8.834607425763544393e-04
2.500000000000000444e+00 2.400505849088373223e-01 0.000000000000000000e+00 7.597449110790724935e-01 2.045040120903026553e-04 0.000000000000000000e+00 0.000000000000000000e+00 1.502463391662086922e-01 3.997539845121138580e-01 0.000000000000000000e+00 0.000000000000000000e+00 0.000000000000000000e+00 0.000000000000000000e+00 2.564844198342389973e-03 -1.219805135826647867e-02 6.925453529059215525e-03 -1.062732848954542342e-03
2.600000000000000089e+00 1.292355856463383856e-01 0.000000000000000000e+00 8.705977634648888186e-01 1.666508887787468733e-04 0.000000000000000000e+00 0.000000000000000000e+00 1.502481324603210933e-01 2.998961660337429724e-01 0.000000000000000000e+00 0.000000000000000000e+00 0.000000000000000000e+00 0.000000000000000000e+00 2.385514785520452975e-03 -1.180657488273810854e-02 4.478722367168827545e-03 -1.215841727210747840e-03
2.700000000000000178e+00 5.470356087764616931e-02 0.000000000000000000e+00 9.451655830438837613e-01 1.308560784685131224e-04 0.000000000000000000e+00 0.000000000000000000e+00 1.502501432034915041e-01 1.706716635190932696e-01 0.000000000000000000e+00 0.000000000000000000e+00 0.000000000000000000e+00 0.000000000000000000e+00 2.184440470720570762e-03 -1.090453495404609605e-02 2.316321727813690050e-03 -1.339009663214686023e-03
2.800000000000000266e+00 2.375429631666277006e-02 0.000000000000000000e+00 9.761471549362822353e-01 9.854874705017134962e-05 0.000000000000000000e+00 0.000000000000000000e+00 1.502523217858168225e-01 2.473717961683799885e-02 0.000000000000000000e+00 0.000000000000000000e+00 0.000000000000000000e+00 0.000000000000000000e+00 1.966582237492906123e-03 -9.608883062905707040e-03 5.462088340917040834e-04 -1.429199772695597314e-03
2.900000000000000355e+00 3.941737210783591988e-02 0.000000000000000000e+00 9.605118785830562000e-01 7.074930910790704574e-05 0.000000000000000000e+00 0.000000000000000000e+00 1.502546147004565069e-01 -1.236301133222102583e-01 0.000000000000000000e+00 0.000000000000000000e+00 0.000000000000000000e+00 0.000000000000000000e+00 1.737290780823972812e-03 -8.058372827009789921e-03 -7.654476840654851838e-04 -1.484197324802468375e-03
3.000000000000000444e+00 1.001623739652469786e-01 0.000000000000000000e+00 8.997895969982095954e-01 4.802903654568237770e-05 0.000000000000000000e+00 0.000000000000000000e+00 1.502569653950669160e-01 -2.598998002742211044e-01 0.000000000000000000e+00 0.000000000000000000e+00 0.000000000000000000e+00 0.000000000000000000e+00 1.502221317566416288e-03 -6.399949909930068188e-03 -1.597736302889679475e-03 -1.502644705445793172e-03
3.100000000000000089e+00 2.000441755323198179e-01 0.000000000000000000e+00 7.999253221439177608e-01 3.050232376574959269e-05 0.000000000000000000e+00 0.000000000000000000e+00 1.502593159952059221e-01 -3.707324372010226132e-01 0.000000000000000000e+00 0.000000000000000000e+00 0.000000000000000000e+00 0.000000000000000000e+00 1.267161302115097634e-03 -4.774294034014847470e-03 -1.974662934050944955e-03 -1.484088479833675991e-03
3.200000000000000178e+00 3.292886396637852986e-01 0.000000000000000000e+00 6.706934914172621998e-01 1.786891895134146689e-05 0.000000000000000000e+00 0.000000000000000000e+00 1.502616086522632621e-01 -4.452787849432217060e-01 0.000000000000000000e+00 0.000000000000000000e+00 0.000000000000000000e+00 0.000000000000000000e+00 1.037895596079044030e-03 -3.302626316225502293e-03 -1.960110854114047001e-03 -1.428984846889576592e-03
3.300000000000000266e+00 4.752430362184834056e-01 0.000000000000000000e+00 5.247474703792553985e-01 9.493402262522959386e-06 0.000000000000000000e+00 0.000000000000000000e+00 1.502637868666848731e-01 -4.762387802434585038e-01 0.000000000000000000e+00 0.000000000000000000e+00 0.000000000000000000e+00 0.000000000000000000e+00 8.200741517424838759e-04 -2.075841401157670595e-03 -1.649114705781501737e-03 -1.338691372931620190e-03
3.400000000000000355e+00 6.236171835616476367e-01 0.000000000000000000e+00 3.763783036479241284e-01 4.512790428290337294e-06 0.000000000000000000e+00 0.000000000000000000e+00 1.502657969580263320e-01 -4.605824222056108530e-01 0.000000000000000000e+00 0.000000000000000000e+00 0.000000000000000000e+00 0.000000000000000000e+00 6.190650193496148156e-04 -1.146854354627251929e-03 -1.156274560777178920e-03 -1.215435228819582159e-03
3.500000000000000444e+00 7.598982217695818830e-01 0.000000000000000000e+00 2.400998158265107429e-01 1.962403905591991883e-06 0.000000000000000000e+00 0.000000000000000000e+00 1.502675895764717939e-01 -3.998388103726799314e-01 0.000000000000000000e+00 0.000000000000000000e+00 0.000000000000000000e+00 0.000000000000000000e+00 4.398031773246704676e-04 -5.270162345098799907e-04 -6.023886958723521793e-04 -1.062240922386269463e-03
3.600000000000000089e+00 8.707341545061879629e-01 0.000000000000000000e+00 1.292649385600421752e-01 9.069337704069855135e-07 0.000000000000000000e+00 0.000000000000000000e+00 1.502691204176332673e-01 -2.999576448236133119e-01 0.000000000000000000e+00 0.000000000000000000e+00 0.000000000000000000e+00 0.000000000000000000e+00 2.867190603336243308e-04 -1.871548188151045909e-04 -1.009825389486300446e-04 -8.828934376522557361e-04
3.700000000000000178e+00 9.452806770657024016e-01 0.000000000000000000e+00 5.471876269425356848e-02 5.602400424220895799e-07 0.000000000000000000e+00 0.000000000000000000e+00 1.502703518516151082e-01 -1.707144147587474348e-01 0.000000000000000000e+00 0.000000000000000000e+00 0.000000000000000000e+00 0.000000000000000000e+00 1.635756623269863654e-04 -6.243918756109408694e-05 2.544153874496872113e-04 -6.818043192048373058e-04
3.800000000000000266e+00 9.762406954392852665e-01 0.000000000000000000e+00 2.375891984457107267e-02 3.847161418220250380e-07 0.000000000000000000e+00 0.000000000000000000e+00 1.502712535633423385e-01 -2.475831388988528406e-02 0.000000000000000000e+00 0.000000000000000000e+00 0.000000000000000000e+00 0.000000000000000000e+00 7.340448934376112683e-05 -6.125535220448959475e-05 4.004392842876074447e-04 -4.639224205883568609e-04
3.900000000000000355e+00 9.605822221784633408e-01 0.000000000000000000e+00 3.941761995472115032e-02 1.578668160261758734e-07 0.000000000000000000e+00 0.000000000000000000e+00 1.502718033282477994e-01 1.236213916261015566e-01 0.000000000000000000e+00 0.000000000000000000e+00 0.000000000000000000e+00 0.000000000000000000e+00 1.842799518906451661e-05 -7.670157373170363518e-05 3.108044516935754746e-04 -2.346158626303281470e-04
4.000000000000000000e+00 8.998380755540441589e-01 0.000000000000000000e+00 1.001619244445582230e-01 1.397400556584490555e-12 0.000000000000000000e+00 0.000000000000000000e+00 1.502719876074695149e-01 2.598996738637853188e-01 0.000000000000000000e+00 0.000000000000000000e+00 0.000000000000000000e+00 0.000000000000000000e+00 7.415474055648851645e-11 3.121386503360503834e-07 -8.095523597619344328e-07 4.683501443827170948e-07
4.099999999999999645e+00 7.999565158739901927e-01 0.000000000000000000e+00 2.000431240936116073e-01 3.600323962715767471e-07 0.000000000000000000e+00 0.000000000000000000e+00 1.502718018692216773e-01 3.707346568376190254e-01 0.000000000000000000e+00 0.000000000000000000e+00 0.000000000000000000e+00 0.000000000000000000e+00 1.857389923857351684e-05 2.677255076337577990e-04 -4.822158008164955040e-04 2.355370764950987937e-04
4.200000000000000178e+00 6.707098620228262309e-01 0.000000000000000000e+00 3.292881770629429994e-01 1.960914229912691966e-06 0.000000000000000000e+00 0.000000000000000000e+00 1.502712506720140506e-01 4.452812306067168158e-01 0.000000000000000000e+00 0.000000000000000000e+00 0.000000000000000000e+00 0.000000000000000000e+00 7.369362101394836878e-05 8.001717719119610201e-04 -1.048404978390237493e-03 4.648122603462544232e-04
4.299999999999999822e+00 5.247579260919016386e-01 0.000000000000000000e+00 4.752363639355714486e-01 5.709972531410070625e-06 0.000000000000000000e+00 0.000000000000000000e+00 1.502703476273368199e-01 4.762382459182200600e-01 0.000000000000000000e+00 0.000000000000000000e+00 0.000000000000000000e+00 0.000000000000000000e+00 1.639980906688308935e-04 1.639112804327546918e-03 -1.590711742970029327e-03 6.826333658833530016e-04
4.399999999999999467e+00 3.763794889844681579e-01 0.000000000000000000e+00 6.236079266506598939e-01 1.258436486879273664e-05 0.000000000000000000e+00 0.000000000000000000e+00 1.502691149255853120e-01 4.605783597070673419e-01 0.000000000000000000e+00 0.000000000000000000e+00 0.000000000000000000e+00 0.000000000000000000e+00 2.872682722355458210e-04 2.786608462865373080e-03 -1.988884311637965224e-03 8.836493477356613608e-04
4.500000000000000000e+00 2.401013172479381508e-01 0.000000000000000000e+00 7.598751808484869308e-01 2.350190357471931634e-05 0.000000000000000000e+00 0.000000000000000000e+00 1.502675829262963281e-01 3.998333161054682949e-01 0.000000000000000000e+00 0.000000000000000000e+00 0.000000000000000000e+00 0.000000000000000000e+00 4.404681958360291000e-04 4.202915654116518539e-03 -2.124398235024337230e-03 1.062905916005333056e-03
4.599999999999999645e+00 1.292679056809132865e-01 0.000000000000000000e+00 8.706929029149514943e-01 3.919140413585102330e-05 0.000000000000000000e+00 0.000000000000000000e+00 1.502657894351895618e-01 2.999547264454590634e-01 0.000000000000000000e+00 0.000000000000000000e+00 0.000000000000000000e+00 0.000000000000000000e+00 6.198173073466360346e-04 5.808571432979519646e-03 -1.894090264802908517e-03 1.215981770018443632e-03
4.700000000000000178e+00 5.472198460694526617e-02 0.000000000000000000e+00 9.452179367047018888e-01 6.007868835286844902e-05 0.000000000000000000e+00 0.000000000000000000e+00 1.502637785672312210e-01 1.707190591136987512e-01 0.000000000000000000e+00 0.000000000000000000e+00 0.000000000000000000e+00 0.000000000000000000e+00 8.209041018531994987e-04 7.490899096332446008e-03 -1.222455659321852435e-03 1.339114218297682421e-03
4.799999999999999822e+00 2.375890578099204911e-02 0.000000000000000000e+00 9.761548983585233152e-01 8.619586048545950833e-05 0.000000000000000000e+00 0.000000000000000000e+00 1.502615998028355437e-01 2.477543320065161633e-02 0.000000000000000000e+00 0.000000000000000000e+00 0.000000000000000000e+00 0.000000000000000000e+00 1.038780539983009260e-03 9.113805236261828674e-03 -7.141244682208159960e-05 1.429272335166275037e-03
4.900000000000000355e+00 3.941026860741719123e-02 0.000000000000000000e+00 9.604726044074475277e-01 1.171269851342951875e-04 0.000000000000000000e+00 0.000000000000000000e+00 1.502593067661248949e-01 -1.235905243979203705e-01 0.000000000000000000e+00 0.000000000000000000e+00 0.000000000000000000e+00 0.000000000000000000e+00 1.268084207227422773e-03 1.053039500669328624e-02 1.553400599751815188e-03 1.484234590276214266e-03
5.000000000000000000e+00 1.001422598183791812e-01 0.000000000000000000e+00 8.997057457187267460e-01 1.519944628895406849e-04 0.000000000000000000e+00 0.000000000000000000e+00 1.502569560049977770e-01 -2.598488149914043310e-01 0.000000000000000000e+00 0.000000000000000000e+00 0.000000000000000000e+00 0.000000000000000000e+00 1.503160319645569908e-03 1.159701670660188109e-02 3.600434443568882158e-03 1.502644625252514072e-03
5.099999999999999645e+00 2.000022266194871889e-01 0.000000000000000000e+00 7.998082802810635439e-01 1.894930994486808407e-04 0.000000000000000000e+00 0.000000000000000000e+00 1.502546054858878988e-01 -3.706575016132778733e-01 0.000000000000000000e+00 0.000000000000000000e+00 0.000000000000000000e+00 0.000000000000000000e+00 1.738212230917570269e-03 1.218756583235822838e-02 5.974666105531465515e-03 1.484051292781463256e-03
5.200000000000000178e+00 3.292156635847935386e-01 0.000000000000000000e+00 6.705563670187574266e-01 2.279693964453786536e-04 0.000000000000000000e+00 0.000000000000000000e+00 1.502523129715601646e-01 -4.451762577863734305e-01 0.000000000000000000e+00 0.000000000000000000e+00 0.000000000000000000e+00 0.000000000000000000e+00 1.967463664151316866e-03 1.220636787504328184e-02 8.544548140192856356e-03 1.428913273818973977e-03
5.299999999999999822e+00 4.751347944322036332e-01 0.000000000000000000e+00 5.245996759596479597e-01 2.655296081495695198e-04 0.000000000000000000e+00 0.000000000000000000e+00 1.502501348798209457e-01 -4.761097011177097826e-01 0.000000000000000000e+00 0.000000000000000000e+00 0.000000000000000000e+00 0.000000000000000000e+00 2.185272838513364901e-03 1.159833265833819411e-02 1.115215437963943540e-02 1.338585422473857972e-03
5.400000000000000355e+00 6.234718144988609101e-01 0.000000000000000000e+00 3.762280066131645229e-01 3.001788879751547895e-04 0.000000000000000000e+00 0.000000000000000000e+00 1.502481248825225379e-01 -4.604270332862910875e-01 0.000000000000000000e+00 0.000000000000000000e+00 0.000000000000000000e+00 0.000000000000000000e+00 2.386272568503438381e-03 1.035574239784442171e-02 1.362630347125199509e-02 1.215291008591160840e-03
5.500000000000000000e+00 7.596943251302273881e-01 0.000000000000000000e+00 2.399756999655767165e-01 3.299749041936041270e-04 0.000000000000000000e+00 0.000000000000000000e+00 1.502463325985388121e-01 -3.996676236664288839e-01 0.000000000000000000e+00 0.000000000000000000e+00 0.000000000000000000e+00 0.000000000000000000e+00 2.565500966617948950e-03 8.520807214145718553e-03 1.579721683533125143e-02 1.062075890898799826e-03
5.599999999999999645e+00 8.704758296576358134e-01 0.000000000000000000e+00 1.291709822920665551e-01 3.531880502952983018e-04 0.000000000000000000e+00 0.000000000000000000e+00 1.502448020234997683e-01 -2.997777765890051183e-01 0.000000000000000000e+00 0.000000000000000000e+00 0.000000000000000000e+00 0.000000000000000000e+00 2.718558471527376865e-03 6.183129130608726841e-03 1.751178166305304706e-02 8.827029386723491246e-04
5.700000000000000178e+00 9.449692701885075152e-01 0.000000000000000000e+00 5.466229519835364564e-02 3.684346131383349206e-04 0.000000000000000000e+00 0.000000000000000000e+00 1.502435708441846596e-01 -1.705316717185935416e-01 0.000000000000000000e+00 0.000000000000000000e+00 0.000000000000000000e+00 0.000000000000000000e+00 2.841676402826744628e-03 3.473377551183129235e-03 1.864657700785923161e-02 6.815826627696240344e-04
5.799999999999999822e+00 9.758741656877604198e-01 0.000000000000000000e+00 2.375104255448333423e-02 3.747917577530133549e-04 0.000000000000000000e+00 0.000000000000000000e+00 1.502426695199151896e-01 -2.460004758867287422e-02 0.000000000000000000e+00 0.000000000000000000e+00 0.000000000000000000e+00 0.000000000000000000e+00 2.931808829446454386e-03 5.533436422011558378e-04 1.911895871608941533e-02 4.636941222990418883e-04
5.900000000000000355e+00 9.601718994001067209e-01 0.000000000000000000e+00 3.945622267143906320e-02 3.718779284600373723e-04 0.000000000000000000e+00 0.000000000000000000e+00 1.502421201298488884e-01 1.237419061354477490e-01 0.000000000000000000e+00 0.000000000000000000e+00 0.000000000000000000e+00 0.000000000000000000e+00 2.986747836595898993e-03 -2.398381770187464797e-03 1.889475592000234086e-02 2.343842549095815318e-04
6.000000000000000000e+00 8.993967974597399939e-01 0.000000000000000000e+00 1.002433231913986839e-01 3.598793488583993229e-04 0.000000000000000000e+00 0.000000000000000000e+00 1.502419362174770290e-01 2.599728429481452108e-01 0.000000000000000000e+00 0.000000000000000000e+00 0.000000000000000000e+00 0.000000000000000000e+00 3.005139073218511536e-03 -5.200446118275615058e-03 1.799095143021861576e-02 -7.036040345454669266e-07
