1.000000000000000056e-01 8.002043954209235865e-01 0.000000000000000000e+00 1.997952462298900056e-01 3.583491906044042796e-07 0.000000000000000000e+00 0.000000000000000000e+00 1.502335095817664834e-01 3.705494930145544763e-01 0.000000000000000000e+00 0.000000000000000000e+00 0.000000000000000000e+00 0.000000000000000000e+00 1.855869690306285679e-05 2.669307764985645788e-04 -4.811071709569003695e-04 2.351350391930153198e-04
2.000000000000000111e-01 6.711224860215299071e-01 0.000000000000000000e+00 3.288755586825411470e-01 1.955295927550473889e-06 0.000000000000000000e+00 0.000000000000000000e+00 1.500117604263779270e-01 4.452103483824793595e-01 0.000000000000000000e+00 0.000000000000000000e+00 0.000000000000000000e+00 0.000000000000000000e+00 7.428821305339543258e-05 7.984549466700231702e-04 -1.047010914212271118e-03 4.647700608462745084e-04
3.000000000000000444e-01 5.254781357716433732e-01 0.000000000000000000e+00 4.745161690567513135e-01 5.695171603788855893e-06 0.000000000000000000e+00 0.000000000000000000e+00 1.495801980626075833e-01 4.764175019980909642e-01 0.000000000000000000e+00 0.000000000000000000e+00 0.000000000000000000e+00 0.000000000000000000e+00 1.673220051160782644e-04 1.635375906864151591e-03 -1.589184298856759214e-03 6.835067060990738077e-04
4.000000000000000222e-01 3.775770170476465126e-01 0.000000000000000000e+00 6.224104351615552533e-01 1.254779079281669732e-05 0.000000000000000000e+00 0.000000000000000000e+00 1.491098681640115053e-01 4.612744548705192682e-01 0.000000000000000000e+00 0.000000000000000000e+00 0.000000000000000000e+00 0.000000000000000000e+00 2.980137558084726868e-04 2.778680213385337563e-03 -1.987912378856327919e-03 8.865448614696401584e-04
5.000000000000000000e-01 2.418879942403503458e-01 0.000000000000000000e+00 7.580885872989920893e-01 2.341846065580905582e-05 0.000000000000000000e+00 0.000000000000000000e+00 1.489675310042960776e-01 4.014737881444036538e-01 0.000000000000000000e+00 0.000000000000000000e+00 0.000000000000000000e+00 0.000000000000000000e+00 4.670138170570685508e-04 4.187501145612154869e-03 -2.125875628630207945e-03 1.070185631068129367e-03
5.999999999999999778e-01 1.316089920292548565e-01 0.000000000000000000e+00 8.683519893829069192e-01 3.901858783443374945e-05 0.000000000000000000e+00 0.000000000000000000e+00 1.496770955653611013e-01 3.031166394227853278e-01 0.000000000000000000e+00 0.000000000000000000e+00 0.000000000000000000e+00 0.000000000000000000e+00 6.752463345693466255e-04 5.781514571478865716e-03 -1.901768380187159393e-03 1.232263784598661583e-03
7.000000000000000666e-01 5.736201749141284917e-02 0.000000000000000000e+00 9.425782314688994079e-01 5.975103969189068167e-05 0.000000000000000000e+00 0.000000000000000000e+00 1.518520721961150177e-01 1.760941148309810300e-01 0.000000000000000000e+00 0.000000000000000000e+00 0.000000000000000000e+00 0.000000000000000000e+00 9.237332492054553578e-04 7.447600028733562805e-03 -1.242557579711225674e-03 1.372403311421597615e-03
8.000000000000000444e-01 2.614953695916488394e-02 0.000000000000000000e+00 9.737648409243476744e-01 8.562211648586511719e-05 0.000000000000000000e+00 0.000000000000000000e+00 1.561027778673305944e-01 3.309716469811526535e-02 0.000000000000000000e+00 0.000000000000000000e+00 0.000000000000000000e+00 0.000000000000000000e+00 1.213323751750853717e-03 9.050063648786525056e-03 -1.130953084562880731e-04 1.492041600743631647e-03
9.000000000000000222e-01 4.067046647055706787e-02 0.000000000000000000e+00 9.592133435436317468e-01 1.161899858161975492e-04 0.000000000000000000e+00 0.000000000000000000e+00 1.629308656262315469e-01 -1.116476022691946651e-01 0.000000000000000000e+00 0.000000000000000000e+00 0.000000000000000000e+00 0.000000000000000000e+00 1.544354223581863046e-03 1.044346468962524879e-02 1.477888914216068418e-03 1.594159741936526046e-03
1.000000000000000000e+00 9.906586376287769558e-02 0.000000000000000000e+00 9.007835798199511634e-01 1.505564171715859990e-04 0.000000000000000000e+00 0.000000000000000000e+00 1.726312936523738406e-01 -2.437936419489644402e-01 0.000000000000000000e+00 0.000000000000000000e+00 0.000000000000000000e+00 0.000000000000000000e+00 1.916167026237666424e-03 1.148682080917293354e-02 3.476089422770965286e-03 1.682796436892053426e-03
1.100000000000000089e+00 1.951200210265133517e-01 0.000000000000000000e+00 8.046925740067081279e-01 1.874049667816170392e-04 0.000000000000000000e+00 0.000000000000000000e+00 1.852026034632876794e-01 -3.503021948321240475e-01 0.000000000000000000e+00 0.000000000000000000e+00 0.000000000000000000e+00 0.000000000000000000e+00 2.326706760725697279e-03 1.205777013770008461e-02 5.784538897710452508e-03 1.762262984232724951e-03
1.200000000000000178e+00 3.188922076530585348e-01 0.000000000000000000e+00 6.808827138947558533e-01 2.250784521804099255e-04 0.000000000000000000e+00 0.000000000000000000e+00 2.002949981157671477e-01 -4.207256889849554926e-01 0.000000000000000000e+00 0.000000000000000000e+00 0.000000000000000000e+00 0.000000000000000000e+00 2.772062000971691961e-03 1.206514398777279104e-02 8.270655227565192405e-03 1.836307887494970223e-03
1.300000000000000266e+00 4.577151757422459610e-01 0.000000000000000000e+00 5.420231294414621370e-01 2.616948162896411112e-04 0.000000000000000000e+00 0.000000000000000000e+00 2.171901175253221072e-01 -4.482417481132801029e-01 0.000000000000000000e+00 0.000000000000000000e+00 0.000000000000000000e+00 0.000000000000000000e+00 3.246106419375823036e-03 1.145894569014073265e-02 1.077703102966663488e-02 1.907168328782407217e-03
1.400000000000000133e+00 5.974649563536561514e-01 0.000000000000000000e+00 4.022397559940964484e-01 2.952876522453669089e-04 0.000000000000000000e+00 0.000000000000000000e+00 2.348317956603151180e-01 -4.303233506555765309e-01 0.000000000000000000e+00 0.000000000000000000e+00 0.000000000000000000e+00 0.000000000000000000e+00 3.740256018918478725e-03 1.023654815075042933e-02 1.313484472500572875e-02 1.974810968204108053e-03
1.500000000000000222e+00 7.239808918647941960e-01 0.000000000000000000e+00 2.756951460780020513e-01 3.239620572008360404e-04 0.000000000000000000e+00 0.000000000000000000e+00 2.518976194613040120e-01 -3.689791419074274215e-01 0.000000000000000000e+00 0.000000000000000000e+00 0.000000000000000000e+00 0.000000000000000000e+00 4.243384112570153938e-03 8.444433541676869479e-03 1.517878809309509969e-02 2.036352424161229531e-03
1.600000000000000089e+00 8.244648832068339761e-01 0.000000000000000000e+00 1.751890731441789750e-01 3.460436489893502503e-04 0.000000000000000000e+00 0.000000000000000000e+00 2.669126520961778715e-01 -2.705455128487720962e-01 0.000000000000000000e+00 0.000000000000000000e+00 0.000000000000000000e+00 0.000000000000000000e+00 4.741946584661533952e-03 6.175516859545084232e-03 1.676157006581967257e-02 2.085810544655300903e-03
1.700000000000000178e+00 8.887651259615318988e-01 0.000000000000000000e+00 1.108746566977162479e-01 3.602173407549830652e-04 0.000000000000000000e+00 0.000000000000000000e+00 2.783926483297464172e-01 -1.450484778006392583e-01 0.000000000000000000e+00 0.000000000000000000e+00 0.000000000000000000e+00 0.000000000000000000e+00 5.220294058441665892e-03 3.561952223409707140e-03 1.776733573311781514e-02 2.114329958764280502e-03
1.800000000000000266e+00 9.103824964919752238e-01 0.000000000000000000e+00 8.925186830027966034e-02 3.656352077459906627e-04 0.000000000000000000e+00 0.000000000000000000e+00 2.850022679394230152e-01 -5.200563006793564903e-03 0.000000000000000000e+00 0.000000000000000000e+00 0.000000000000000000e+00 0.000000000000000000e+00 5.661221539543484678e-03 7.643271816580527248e-04 1.812215186648014412e-02 2.110806710029770016e-03
1.900000000000000133e+00 8.871117985356915536e-01 0.000000000000000000e+00 1.125262155257197305e-01 3.619859385871922316e-04 0.000000000000000000e+00 0.000000000000000000e+00 2.857137953514605755e-01 1.348738674384974967e-01 0.000000000000000000e+00 0.000000000000000000e+00 0.000000000000000000e+00 0.000000000000000000e+00 6.046768309297329176e-03 -2.041935516171093645e-03 1.780073079804876668e-02 2.063002682216982971e-03
2.000000000000000000e+00 8.212563918498194671e-01 0.000000000000000000e+00 1.783940880099919579e-01 3.495201401903259559e-04 0.000000000000000000e+00 0.000000000000000000e+00 2.799455568175454045e-01 2.610321254742145602e-01 0.000000000000000000e+00 0.000000000000000000e+00 0.000000000000000000e+00 0.000000000000000000e+00 6.359143963777111330e-03 -4.681198014302410081e-03 1.682879288411481475e-02 1.958922988318072440e-03
2.100000000000000089e+00 7.193880390486758758e-01 0.000000000000000000e+00 2.802829354337653678e-01 3.290255175575553946e-04 0.000000000000000000e+00 0.000000000000000000e+00 2.676590995443982601e-01 3.605423663267214307e-01 0.000000000000000000e+00 0.000000000000000000e+00 0.000000000000000000e+00 0.000000000000000000e+00 6.581747076052210307e-03 -6.992913812661778056e-03 1.528065265176438946e-02 1.788484379179719648e-03
2.200000000000000178e+00 5.916911839743316248e-01 0.000000000000000000e+00 4.080070537308134737e-01 3.017622948541497921e-04 0.000000000000000000e+00 0.000000000000000000e+00 2.494188797525434542e-01 4.233254055642846070e-01 0.000000000000000000e+00 0.000000000000000000e+00 0.000000000000000000e+00 0.000000000000000000e+00 6.700413398219699952e-03 -8.844524025951351620e-03 1.327261691280503739e-02 1.545228056011750195e-03
2.300000000000000266e+00 4.509432002269988526e-01 0.000000000000000000e+00 5.487874432625844401e-01 2.693565104196522916e-04 0.000000000000000000e+00 0.000000000000000000e+00 2.263792129311912871e-01 4.429722544180776933e-01 0.000000000000000000e+00 0.000000000000000000e+00 0.000000000000000000e+00 0.000000000000000000e+00 6.704424368269104942e-03 -1.014249303949810513e-02 1.095248328948399824e-02 1.227842206789213830e-03
2.400000000000000355e+00 3.112187803548788767e-01 0.000000000000000000e+00 6.885475580520021843e-01 2.336615931205086242e-04 0.000000000000000000e+00 0.000000000000000000e+00 2.002162613758208531e-01 4.173755856260192854e-01 0.000000000000000000e+00 0.000000000000000000e+00 0.000000000000000000e+00 0.000000000000000000e+00 6.587561276851510057e-03 -1.083933376962916383e-02 8.485993567139979779e-03 8.413018943760939379e-04
2.500000000000000444e+00 1.865110649580825619e-01 0.000000000000000000e+00 8.132923188682971150e-01 1.966161736157054059e-04 0.000000000000000000e+00 0.000000000000000000e+00 1.730039352633812311e-01 3.489378940040572807e-01 0.000000000000000000e+00 0.000000000000000000e+00 0.000000000000000000e+00 0.000000000000000000e+00 6.348959544201851490e-03 -1.093604757342638879e-02 6.042595367292669800e-03 3.976593712820226728e-04
2.600000000000000089e+00 8.930132080981824372e-02 0.000000000000000000e+00 9.105385967175647632e-01 1.600824726169457722e-04 0.000000000000000000e+00 0.000000000000000000e+00 1.470299755923587248e-01 2.443245493969389559e-01 0.000000000000000000e+00 0.000000000000000000e+00 0.000000000000000000e+00 0.000000000000000000e+00 5.993574834323251756e-03 -1.048037839173438825e-02 3.780014250703695160e-03 -8.407365992995891166e-05
2.700000000000000178e+00 2.934259711539724536e-02 0.000000000000000000e+00 9.705316850129502848e-01 1.257178716503786007e-04 0.000000000000000000e+00 0.000000000000000000e+00 1.245952566834430536e-01 1.138153843049535263e-01 0.000000000000000000e+00 0.000000000000000000e+00 0.000000000000000000e+00 0.000000000000000000e+00 5.532500513553272915e-03 -9.560576149366381560e-03 1.831433204959555120e-03 -5.785681967945475708e-04
2.800000000000000266e+00 1.266345435510830321e-02 0.000000000000000000e+00 9.872416939851494933e-01 9.485165974570179920e-05 0.000000000000000000e+00 0.000000000000000000e+00 1.077853347376706017e-01 -2.973568445200544183e-02 0.000000000000000000e+00 0.000000000000000000e+00 0.000000000000000000e+00 0.000000000000000000e+00 4.982666546361529114e-03 -8.295453422397316284e-03 2.941401243171106144e-04 -1.055760946734706461e-03
2.900000000000000355e+00 4.097703361259672633e-02 0.000000000000000000e+00 9.589545544175528402e-01 6.841196984774254076e-05 0.000000000000000000e+00 0.000000000000000000e+00 9.825743423638903795e-02 -1.721644281161297529e-01 0.000000000000000000e+00 0.000000000000000000e+00 0.000000000000000000e+00 0.000000000000000000e+00 4.366354877470443770e-03 -6.821943688416804048e-03 -7.773770278764846435e-04 -1.482904139357484920e-03
3.000000000000000444e+00 1.115042977084874654e-01 0.000000000000000000e+00 8.884488160132455459e-01 4.688627827008051268e-05 0.000000000000000000e+00 0.000000000000000000e+00 9.706133895861432381e-02 -2.994076766444098148e-01 0.000000000000000000e+00 0.000000000000000000e+00 0.000000000000000000e+00 0.000000000000000000e+00 3.710169746298097680e-03 -5.281164541060427882e-03 -1.374426010209704599e-03 -1.827286137152000708e-03
3.100000000000000089e+00 2.172591397714788986e-01 0.000000000000000000e+00 7.827105328044391408e-01 3.032742407838645777e-05 0.000000000000000000e+00 0.000000000000000000e+00 1.045072478236517416e-01 -3.989100802082972130e-01 0.000000000000000000e+00 0.000000000000000000e+00 0.000000000000000000e+00 0.000000000000000000e+00 3.043689147825038698e-03 -3.804412007302862379e-03 -1.532534283760162829e-03 -2.059186438182505213e-03
3.200000000000000178e+00 3.477290019860068693e-01 0.000000000000000000e+00 6.522525927951413616e-01 1.840521885257753054e-05 0.000000000000000000e+00 0.000000000000000000e+00 1.201045107454428718e-01 -4.608492687579259228e-01 0.000000000000000000e+00 0.000000000000000000e+00 0.000000000000000000e+00 0.000000000000000000e+00 2.397984063427806116e-03 -2.500904727163622259e-03 -1.325454951901094405e-03 -2.154808072339789785e-03
3.300000000000000266e+00 4.899297888767126796e-01 0.000000000000000000e+00 5.100597237045388921e-01 1.048741874934509974e-05 0.000000000000000000e+00 0.000000000000000000e+00 1.425746445865455347e-01 -4.791303811484433628e-01 0.000000000000000000e+00 0.000000000000000000e+00 0.000000000000000000e+00 0.000000000000000000e+00 1.803714732695301014e-03 -1.447695806782236866e-03 -8.557254016170038648e-04 -2.099007615927040230e-03
3.400000000000000355e+00 6.297095109353021414e-01 0.000000000000000000e+00 3.702847388102121773e-01 5.750254484262134129e-06 0.000000000000000000e+00 0.000000000000000000e+00 1.699415223001662367e-01 -4.519863931963730153e-01 0.000000000000000000e+00 0.000000000000000000e+00 0.000000000000000000e+00 0.000000000000000000e+00 1.289298273216487765e-03 -6.833311937129262544e-04 -2.423840074749608923e-04 -1.887389762155866364e-03
3.500000000000000444e+00 7.531383193547563915e-01 0.000000000000000000e+00 2.468583773514935742e-01 3.303293746357339236e-06 0.000000000000000000e+00 0.000000000000000000e+00 1.997003569240258236e-01 -3.821495377064213494e-01 0.000000000000000000e+00 0.000000000000000000e+00 0.000000000000000000e+00 0.000000000000000000e+00 8.792393550891571636e-04 -2.058736903715987815e-04 3.925727013158212750e-04 -1.527653132875399613e-03
3.600000000000000089e+00 8.479085766695355630e-01 0.000000000000000000e+00 1.520891106833255069e-01 2.312647137856958363e-06 0.000000000000000000e+00 0.000000000000000000e+00 2.290357043138067927e-01 -2.765868889143166531e-01 0.000000000000000000e+00 0.000000000000000000e+00 0.000000000000000000e+00 0.000000000000000000e+00 5.925392649624694995e-04 2.501360723455488819e-05 9.378126013491996016e-04 -1.039913935489722527e-03
3.700000000000000178e+00 9.045589722425715351e-01 0.000000000000000000e+00 9.543891550696069481e-02 2.112250465238570506e-06 0.000000000000000000e+00 0.000000000000000000e+00 2.550888158364311153e-01 -1.458074820034947761e-01 0.000000000000000000e+00 0.000000000000000000e+00 0.000000000000000000e+00 0.000000000000000000e+00 4.414801579919826234e-04 8.176899737631248730e-05 1.304909879877835235e-03 -4.559225461577329067e-04
3.800000000000000266e+00 9.174203034963185344e-01 0.000000000000000000e+00 8.257740619158963902e-02 2.290312091893130426e-06 0.000000000000000000e+00 0.000000000000000000e+00 2.752276355297930688e-01 -2.817195688911339202e-03 0.000000000000000000e+00 0.000000000000000000e+00 0.000000000000000000e+00 0.000000000000000000e+00 4.308276564868873128e-04 5.929224842552503869e-05 1.437956493253110448e-03 1.829208832725033596e-04
3.900000000000000355e+00 8.851776507399026217e-01 0.000000000000000000e+00 1.148196071207005370e-01 2.742139394757419761e-06 0.000000000000000000e+00 0.000000000000000000e+00 2.873111097404189018e-01 1.381595946931829244e-01 0.000000000000000000e+00 0.000000000000000000e+00 0.000000000000000000e+00 0.000000000000000000e+00 5.575822294869968313e-04 6.287622925986785711e-05 1.319571012701679837e-03 8.282588663741347708e-04
4.000000000000000000e+00 8.110063486514279552e-01 0.000000000000000000e+00 1.889899678205224920e-01 3.683528050009426495e-06 0.000000000000000000e+00 0.000000000000000000e+00 2.899131950867418483e-01 2.631015016964737274e-01 0.000000000000000000e+00 0.000000000000000000e+00 0.000000000000000000e+00 0.000000000000000000e+00 8.112185164981892136e-04 1.951264081403789985e-04 9.727761080527411912e-04 1.428660521221499554e-03
4.099999999999999645e+00 7.022557652268902606e-01 0.000000000000000000e+00 2.977386113229006370e-01 5.623450208473172337e-06 0.000000000000000000e+00 0.000000000000000000e+00 2.824764336349717686e-01 3.595771410182302397e-01 0.000000000000000000e+00 0.000000000000000000e+00 0.000000000000000000e+00 0.000000000000000000e+00 1.174477397311013242e-03 5.430663744218008904e-04 4.584153177660782561e-04 1.933637937399818561e-03
4.200000000000000178e+00 5.697262667346857379e-01 0.000000000000000000e+00 4.302644344311669644e-01 9.298834148368464002e-06 0.000000000000000000e+00 0.000000000000000000e+00 2.653985163434139372e-01 4.179671943744439067e-01 0.000000000000000000e+00 0.000000000000000000e+00 0.000000000000000000e+00 0.000000000000000000e+00 1.624604277071864996e-03 1.166884128469571329e-03 -1.314347623228750072e-04 2.297937092234151202e-03
4.299999999999999822e+00 4.265851997636885273e-01 0.000000000000000000e+00 5.733992216565976241e-01 1.557857971133746216e-05 0.000000000000000000e+00 0.000000000000000000e+00 2.400110869390282842e-01 4.324329962958364248e-01 0.000000000000000000e+00 0.000000000000000000e+00 0.000000000000000000e+00 0.000000000000000000e+00 2.135008471873915247e-03 2.091526678131210275e-03 -6.836761402401736725e-04 2.485594004776728750e-03
4.399999999999999467e+00 2.870697740511697349e-01 0.000000000000000000e+00 7.129048791842492738e-01 2.534676458131244789e-05 0.000000000000000000e+00 0.000000000000000000e+00 2.084808594684673666e-01 4.014837113648413447e-01 0.000000000000000000e+00 0.000000000000000000e+00 0.000000000000000000e+00 0.000000000000000000e+00 2.677175146728622696e-03 3.301903171449860081e-03 -1.076609917200934633e-03 2.473297407003263292e-03
4.500000000000000000e+00 1.650672318635812152e-01 0.000000000000000000e+00 8.348933918124437081e-01 3.937632397753195308e-05 0.000000000000000000e+00 0.000000000000000000e+00 1.736172794729656244e-01 3.281319518236875399e-01 0.000000000000000000e+00 0.000000000000000000e+00 0.000000000000000000e+00 0.000000000000000000e+00 3.222592037649579452e-03 4.742355181742504040e-03 -1.193709924634789570e-03 2.252730980393534681e-03
4.599999999999999645e+00 7.272686725660611196e-02 0.000000000000000000e+00 9.272149224434708126e-01 5.821029992374680151e-05 0.000000000000000000e+00 0.000000000000000000e+00 1.386156438965782389e-01 2.195885602984468110e-01 0.000000000000000000e+00 0.000000000000000000e+00 0.000000000000000000e+00 0.000000000000000000e+00 3.744806990013449955e-03 6.320591595337386563e-03 -9.370434515453112670e-04 1.831775547314446048e-03
4.700000000000000178e+00 1.926199088226438969e-02 0.000000000000000000e+00 9.806559518297344180e-01 8.205728800351994880e-05 0.000000000000000000e+00 0.000000000000000000e+00 1.067577912274405294e-01 8.655725677196950130e-02 0.000000000000000000e+00 0.000000000000000000e+00 0.000000000000000000e+00 0.000000000000000000e+00 4.221051226184965692e-03 7.915345447845041280e-03 -2.391260895361753359e-04 1.234263038677768870e-03
4.799999999999999822e+00 1.002211165336859208e-02 0.000000000000000000e+00 9.898671672227451479e-01 1.107211238876264480e-04 0.000000000000000000e+00 0.000000000000000000e+00 8.108919697486173528e-02 -5.783678814365707938e-02 0.000000000000000000e+00 0.000000000000000000e+00 0.000000000000000000e+00 0.000000000000000000e+00 4.633730124830925078e-03 9.387638024162836894e-03 9.281007533610928636e-04 4.982849516542203674e-04
4.900000000000000355e+00 4.596805987398088628e-02 0.000000000000000000e+00 9.538883750457445299e-01 1.435650802733719460e-04 0.000000000000000000e+00 0.000000000000000000e+00 6.412360853749425604e-02 -1.993402936003061954e-01 0.000000000000000000e+00 0.000000000000000000e+00 0.000000000000000000e+00 0.000000000000000000e+00 4.971258846292125021e-03 1.059394357937097457e-02 2.548070897346866020e-03 -3.267157433113178160e-04
5.000000000000000000e+00 1.235665652887012605e-01 0.000000000000000000e+00 8.762539180278078321e-01 1.795166834909257022e-04 0.000000000000000000e+00 0.000000000000000000e+00 5.758710866000277262e-02 -3.239743898052337423e-01 0.000000000000000000e+00 0.000000000000000000e+00 0.000000000000000000e+00 0.000000000000000000e+00 5.228458787005215401e-03 1.140023735905671201e-02 4.558583885007412573e-03 -1.183880624816389168e-03
5.099999999999999645e+00 2.351385500145006247e-01 0.000000000000000000e+00 7.646443274099027354e-01 2.171225755930662781e-04 0.000000000000000000e+00 0.000000000000000000e+00 6.222995404921156243e-02 -4.194338890016289789e-01 0.000000000000000000e+00 0.000000000000000000e+00 0.000000000000000000e+00 0.000000000000000000e+00 5.406385859731644046e-03 1.169583408580459304e-02 6.855564420855045013e-03 -2.013733966674680163e-03
5.200000000000000178e+00 3.696392651568834453e-01 0.000000000000000000e+00 6.301060902902799743e-01 2.546445528413417668e-04 0.000000000000000000e+00 0.000000000000000000e+00 7.773005731639226479e-02 -4.763087068094884469e-01 0.000000000000000000e+00 0.000000000000000000e+00 0.000000000000000000e+00 0.000000000000000000e+00 5.511653413542933443e-03 1.140503202914972328e-02 9.301191478751785063e-03 -2.759431722140743160e-03
5.299999999999999822e+00 5.137126310486739289e-01 0.000000000000000000e+00 4.859972016437947295e-01 2.901673075359241104e-04 0.000000000000000000e+00 0.000000000000000000e+00 1.027167018227083256e-01 -4.889909666775253405e-01 0.000000000000000000e+00 0.000000000000000000e+00 0.000000000000000000e+00 0.000000000000000000e+00 5.555133258684407521e-03 1.049576032361948345e-02 1.173450658694218975e-02 -3.371048490362287420e-03
5.400000000000000355e+00 6.530609090336957356e-01 0.000000000000000000e+00 3.466173310334211277e-01 3.217599328857732627e-04 0.000000000000000000e+00 0.000000000000000000e+00 1.348694876726269365e-01 -4.562591841369998402e-01 0.000000000000000000e+00 0.000000000000000000e+00 0.000000000000000000e+00 0.000000000000000000e+00 5.550596170001993908e-03 8.984344528491342713e-03 1.398601726367022617e-02 -3.810532305309760701e-03
5.500000000000000000e+00 7.738450301603964077e-01 0.000000000000000000e+00 2.258073515357707228e-01 3.476183038294279300e-04 0.000000000000000000e+00 0.000000000000000000e+00 1.711387597672780758e-01 -3.813809321508689343e-01 0.000000000000000000e+00 0.000000000000000000e+00 0.000000000000000000e+00 0.000000000000000000e+00 5.512799188456874756e-03 6.935690901158377518e-03 1.589228193170797582e-02 -4.054389431644634355e-03
5.599999999999999645e+00 8.640591184358935584e-01 0.000000000000000000e+00 1.355746679277114453e-01 3.662136363978780789e-04 0.000000000000000000e+00 0.000000000000000000e+00 2.080186756657575187e-01 -2.717954156185369285e-01 0.000000000000000000e+00 0.000000000000000000e+00 0.000000000000000000e+00 0.000000000000000000e+00 5.455854934071354551e-03 4.459028310443611219e-03 1.731048629730165891e-02 -4.096009900555760454e-03
5.700000000000000178e+00 9.147220087140598421e-01 0.000000000000000000e+00 8.490157561835560973e-02 3.764156675856061601e-04 0.000000000000000000e+00 0.000000000000000000e+00 2.418914476121635515e-01 -1.383829751894466997e-01 0.000000000000000000e+00 0.000000000000000000e+00 0.000000000000000000e+00 0.000000000000000000e+00 5.391631638442602632e-03 1.699583326956723150e-03 1.813138776064896970e-02 -3.945690591723472265e-03
5.799999999999999822e+00 9.207844226537427179e-01 0.000000000000000000e+00 7.883798551127368937e-02 3.775918349814173249e-04 0.000000000000000000e+00 0.000000000000000000e+00 2.693716844429606128e-01 5.627744943107209144e-03 0.000000000000000000e+00 0.000000000000000000e+00 0.000000000000000000e+00 0.000000000000000000e+00 5.328335187392219813e-03 -1.173635167025503800e-03 1.828950576685628437e-02 -3.629691278850611866e-03
5.900000000000000355e+00 8.816174730162918971e-01 0.000000000000000000e+00 1.180128709812134219e-01 3.696560024942777871e-04 0.000000000000000000e+00 0.000000000000000000e+00 2.876450198725227780e-01 1.459539351569614229e-01 0.000000000000000000e+00 0.000000000000000000e+00 0.000000000000000000e+00 0.000000000000000000e+00 5.269781750623578342e-03 -3.981653932591774567e-03 1.776894759997290144e-02 -3.187427165747768430e-03
6.000000000000000000e+00 8.010894640515745513e-01 0.000000000000000000e+00 1.985574570837532193e-01 3.530788646720683715e-04 0.000000000000000000e+00 0.000000000000000000e+00 2.947433517058152819e-01 2.686794319920580154e-01 0.000000000000000000e+00 0.000000000000000000e+00 0.000000000000000000e+00 0.000000000000000000e+00 5.214781986502201039e-03 -6.550762504062844320e-03 1.660515604090970210e-02 -2.667686446947892167e-03
