1.000000000000000056e-01 8.002527137336611363e-01 0.000000000000000000e+00 1.997469279361885897e-01 3.583301529606975975e-07 0.000000000000000000e+00 0.000000000000000000e+00 1.501403532484878178e-01 3.705481014310041399e-01 0.000000000000000000e+00 0.000000000000000000e+00 0.000000000000000000e+00 0.000000000000000000e+00 1.869636174894766638e-05 2.668816091466610181e-04 -4.810356595306834759e-04 2.352857233819397520e-04
2.000000000000000111e-01 6.715231765268971920e-01 0.000000000000000000e+00 3.284748694298439409e-01 1.954043255201220030e-06 0.000000000000000000e+00 0.000000000000000000e+00 1.493858654172302847e-01 4.452666065927567418e-01 0.000000000000000000e+00 0.000000000000000000e+00 0.000000000000000000e+00 0.000000000000000000e+00 7.605420284912280777e-05 7.975398807172519441e-04 -1.046522840538610969e-03 4.658060519585117444e-04
3.000000000000000444e-01 5.267906239629622789e-01 0.000000000000000000e+00 4.732036912555712682e-01 5.684781470603117203e-06 0.000000000000000000e+00 0.000000000000000000e+00 1.479147004534053789e-01 4.768652945057695880e-01 0.000000000000000000e+00 0.000000000000000000e+00 0.000000000000000000e+00 0.000000000000000000e+00 1.757457823556356983e-04 1.630697088742949366e-03 -1.588380387697791536e-03 6.868313614376837621e-04
4.000000000000000222e-01 3.804549660565083036e-01 0.000000000000000000e+00 6.195325311108582644e-01 1.250283262976068943e-05 0.000000000000000000e+00 0.000000000000000000e+00 1.462911717488010743e-01 4.629288510657147970e-01 0.000000000000000000e+00 0.000000000000000000e+00 0.000000000000000000e+00 0.000000000000000000e+00 3.241519608973633128e-04 2.764206404747810743e-03 -1.988935629038163840e-03 8.949300657705057394e-04
5.000000000000000000e-01 2.468043064009093346e-01 0.000000000000000000e+00 7.531724127295921223e-01 2.328086949725866517e-05 0.000000000000000000e+00 0.000000000000000000e+00 1.457105919709321684e-01 4.057765620533228534e-01 0.000000000000000000e+00 0.000000000000000000e+00 0.000000000000000000e+00 0.000000000000000000e+00 5.304335514831240005e-04 4.153690997074388144e-03 -2.135209201470386706e-03 1.089357845623890788e-03
5.999999999999999778e-01 1.384946420642974851e-01 0.000000000000000000e+00 8.614666758003085567e-01 3.868213539450370046e-05 0.000000000000000000e+00 0.000000000000000000e+00 1.478480656611885213e-01 3.121689742070382079e-01 0.000000000000000000e+00 0.000000000000000000e+00 0.000000000000000000e+00 0.000000000000000000e+00 8.060632815155658335e-04 5.716085424120309275e-03 -1.932993664400690969e-03 1.273108004747063862e-03
7.000000000000000666e-01 6.523986327059766444e-02 0.000000000000000000e+00 9.347010906611604719e-01 5.904606824170976516e-05 0.000000000000000000e+00 0.000000000000000000e+00 1.545942616124336977e-01 1.925626797164622372e-01 0.000000000000000000e+00 0.000000000000000000e+00 0.000000000000000000e+00 0.000000000000000000e+00 1.163898737497592309e-03 7.337285882290783649e-03 -1.319090539201159176e-03 1.453326380946744645e-03
8.000000000000000444e-01 3.280571896237832047e-02 0.000000000000000000e+00 9.671099723681252369e-01 8.430866949745695089e-05 0.000000000000000000e+00 0.000000000000000000e+00 1.677247257803202718e-01 5.995960616784850455e-02 0.000000000000000000e+00 0.000000000000000000e+00 0.000000000000000000e+00 0.000000000000000000e+00 1.616838365619429046e-03 8.883782342160492437e-03 -2.703770262036181361e-04 1.640945698528873406e-03
9.000000000000000222e-01 4.246550421221712696e-02 0.000000000000000000e+00 9.574205393664620978e-01 1.139564213173627298e-04 0.000000000000000000e+00 0.000000000000000000e+00 1.885449075795749829e-01 -7.147141948896471031e-02 0.000000000000000000e+00 0.000000000000000000e+00 0.000000000000000000e+00 0.000000000000000000e+00 2.176137092102229352e-03 1.021609738032726485e-02 1.191178277880543214e-03 1.849408339878937362e-03
1.000000000000000000e+00 9.092765847864284212e-02 0.000000000000000000e+00 9.089253092100100240e-01 1.470323113526695962e-04 0.000000000000000000e+00 0.000000000000000000e+00 2.175625614324738222e-01 -1.879174874204959655e-01 0.000000000000000000e+00 0.000000000000000000e+00 0.000000000000000000e+00 0.000000000000000000e+00 2.849538111672601706e-03 1.120363876452077842e-02 2.998389890975246014e-03 2.092596923224621271e-03
1.100000000000000089e+00 1.707690892394254922e-01 0.000000000000000000e+00 8.290487278960809725e-01 1.821828644881899617e-04 0.000000000000000000e+00 0.000000000000000000e+00 2.542410909941489328e-01 -2.773758528162376114e-01 0.000000000000000000e+00 0.000000000000000000e+00 0.000000000000000000e+00 0.000000000000000000e+00 3.639513061903411686e-03 1.173850146556037859e-02 5.043479941358489441e-03 2.382123406941838613e-03
1.200000000000000178e+00 2.713194475128679617e-01 0.000000000000000000e+00 7.284628002296184013e-01 2.177522575137002625e-04 0.000000000000000000e+00 0.000000000000000000e+00 2.968789213548468364e-01 -3.309214869756644251e-01 0.000000000000000000e+00 0.000000000000000000e+00 0.000000000000000000e+00 0.000000000000000000e+00 4.541450078007953223e-03 1.174732524456385818e-02 7.187330827733317239e-03 2.724462846450972225e-03
1.300000000000000266e+00 3.798654424570370169e-01 0.000000000000000000e+00 6.198826583596643847e-01 2.518991833003118679e-04 0.000000000000000000e+00 0.000000000000000000e+00 3.426381459876693403e-01 -3.436147569877478491e-01 0.000000000000000000e+00 0.000000000000000000e+00 0.000000000000000000e+00 0.000000000000000000e+00 5.542502685524983499e-03 1.119949102780753644e-02 9.271727731688208726e-03 3.118150029048728355e-03
1.400000000000000133e+00 4.831051907138942947e-01 0.000000000000000000e+00 5.166120605271798949e-01 2.827487589247436707e-04 0.000000000000000000e+00 0.000000000000000000e+00 3.877437954324877700e-01 -3.150122494689267527e-01 0.000000000000000000e+00 0.000000000000000000e+00 0.000000000000000000e+00 0.000000000000000000e+00 6.620797518743362815e-03 1.011120463347745142e-02 1.113471193097068448e-02 3.551842246870961541e-03
1.500000000000000222e+00 5.686205509879311837e-01 0.000000000000000000e+00 4.310709047896879587e-01 3.085442223826832375e-04 0.000000000000000000e+00 0.000000000000000000e+00 4.278159196582362322e-01 -2.491772747579194258e-01 0.000000000000000000e+00 0.000000000000000000e+00 0.000000000000000000e+00 0.000000000000000000e+00 7.745382902329867383e-03 8.544792613236847426e-03 1.262615079663800301e-02 4.003111522223937874e-03
1.600000000000000089e+00 6.262402961062233375e-01 0.000000000000000000e+00 3.734319150654832886e-01 3.277888282972426159e-04 0.000000000000000000e+00 0.000000000000000000e+00 4.583434906789377039e-01 -1.542055703978270076e-01 0.000000000000000000e+00 0.000000000000000000e+00 0.000000000000000000e+00 0.000000000000000000e+00 8.877131595304276271e-03 6.603282863887337782e-03 1.362239881679338203e-02 4.439011532620451735e-03
1.700000000000000178e+00 6.491709185321969944e-01 0.000000000000000000e+00 3.504897108600590894e-01 3.393706077455889056e-04 0.000000000000000000e+00 0.000000000000000000e+00 4.752042516931590521e-01 -4.133577965562520301e-02 0.000000000000000000e+00 0.000000000000000000e+00 0.000000000000000000e+00 0.000000000000000000e+00 9.970077602394626301e-03 4.420798429263505906e-03 1.403910090231440082e-02 4.818005294227912204e-03
1.800000000000000266e+00 6.347033452519309504e-01 0.000000000000000000e+00 3.649540010311594918e-01 3.426537169114377674e-04 0.000000000000000000e+00 0.000000000000000000e+00 4.752042465051919407e-01 7.627876253270580997e-02 0.000000000000000000e+00 0.000000000000000000e+00 0.000000000000000000e+00 0.000000000000000000e+00 1.097404374854786015e-02 2.150164832077884440e-03 1.383982710251111664e-02 5.093392402701909551e-03
1.900000000000000133e+00 5.844873616088609447e-01 0.000000000000000000e+00 4.151751140122326711e-01 3.375243789012367913e-04 0.000000000000000000e+00 0.000000000000000000e+00 4.565497343886948389e-01 1.850052610335636560e-01 0.000000000000000000e+00 0.000000000000000000e+00 0.000000000000000000e+00 0.000000000000000000e+00 1.183761207804550145e-02 -5.160101991156756902e-05 1.304029295946467631e-02 5.218188688216491081e-03
2.000000000000000000e+00 5.043005467770086403e-01 0.000000000000000000e+00 4.953750611279754135e-01 3.243920950166664713e-04 0.000000000000000000e+00 0.000000000000000000e+00 4.191934166924023430e-01 2.722035892408715685e-01 0.000000000000000000e+00 0.000000000000000000e+00 0.000000000000000000e+00 0.000000000000000000e+00 1.251170303127809719e-02 -2.037901217231757271e-03 1.170738701318360837e-02 5.150553384413138029e-03
2.100000000000000089e+00 4.033804875350916475e-01 0.000000000000000000e+00 5.963153617629436409e-01 3.041507019661785372e-04 0.000000000000000000e+00 0.000000000000000000e+00 3.650135289333417687e-01 3.275776316666700327e-01 0.000000000000000000e+00 0.000000000000000000e+00 0.000000000000000000e+00 0.000000000000000000e+00 1.295327237689413227e-02 -3.685440378288868443e-03 9.953437169126208572e-03 4.859788761690197328e-03
2.200000000000000178e+00 2.933444124009746967e-01 0.000000000000000000e+00 7.063774938172435736e-01 2.780937817785011836e-04 0.000000000000000000e+00 0.000000000000000000e+00 2.977662235064197360e-01 3.443067909523612191e-01 0.000000000000000000e+00 0.000000000000000000e+00 0.000000000000000000e+00 0.000000000000000000e+00 1.312923786756980959e-02 -4.905334040262171978e-03 7.925483814560275661e-03 4.331739026850312153e-03
2.300000000000000266e+00 1.868741502163799861e-01 0.000000000000000000e+00 8.128780526223675640e-01 2.477971612540972191e-04 0.000000000000000000e+00 0.000000000000000000e+00 2.228371542230758728e-01 3.197647536061532514e-01 0.000000000000000000e+00 0.000000000000000000e+00 0.000000000000000000e+00 0.000000000000000000e+00 1.301954603305114852e-02 -5.649804885025827388e-03 5.791578493477701761e-03 3.572744368738565816e-03
2.400000000000000355e+00 9.626861098497833946e-02 0.000000000000000000e+00 9.035163952552456301e-01 2.149937597718680525e-04 0.000000000000000000e+00 0.000000000000000000e+00 1.467696875318820759e-01 2.558103338387848757e-01 0.000000000000000000e+00 0.000000000000000000e+00 0.000000000000000000e+00 0.000000000000000000e+00 1.262012797174377927e-02 -5.914622320698273081e-03 3.724640475893489528e-03 2.612317703902799181e-03
2.500000000000000444e+00 3.206060761767446504e-02 0.000000000000000000e+00 9.677579601098869055e-01 1.814322724386272748e-04 0.000000000000000000e+00 0.000000000000000000e+00 7.664775931481976334e-02 1.585939115430078650e-01 0.000000000000000000e+00 0.000000000000000000e+00 0.000000000000000000e+00 0.000000000000000000e+00 1.194433307990307169e-02 -5.737197344515302007e-03 1.886206055714627653e-03 1.503015468549945277e-03
2.600000000000000089e+00 1.813914937444491195e-03 0.000000000000000000e+00 9.980373383278478006e-01 1.487467347089570051e-04 0.000000000000000000e+00 0.000000000000000000e+00 1.935460391126207422e-02 3.789134282961428152e-02 0.000000000000000000e+00 0.000000000000000000e+00 0.000000000000000000e+00 0.000000000000000000e+00 1.102344230897677087e-02 -5.190232660419531914e-03 4.108255453913017526e-04 3.178619941071885065e-04
2.700000000000000178e+00 9.278468485103630661e-03 0.000000000000000000e+00 9.906031818038546488e-01 1.183497110407813631e-04 0.000000000000000000e+00 0.000000000000000000e+00 -1.916854811071342854e-02 -9.393533448703199340e-02 0.000000000000000000e+00 0.000000000000000000e+00 0.000000000000000000e+00 0.000000000000000000e+00 9.905800611406424816e-03 -4.371809099807812994e-03 -6.062439439889972300e-04 -8.547352598682602873e-04
2.800000000000000266e+00 5.396163174791283185e-02 0.000000000000000000e+00 9.459470193269651217e-01 9.134892512155903712e-05 0.000000000000000000e+00 0.000000000000000000e+00 -3.460220964788524728e-02 -2.232656041192591923e-01 0.000000000000000000e+00 0.000000000000000000e+00 0.000000000000000000e+00 0.000000000000000000e+00 8.654258289913920738e-03 -3.393384323279312765e-03 -1.117485914686908556e-03 -1.918479121533098750e-03
2.900000000000000355e+00 1.311712677314463282e-01 0.000000000000000000e+00 8.687602192337452456e-01 6.851303481154320102e-05 0.000000000000000000e+00 0.000000000000000000e+00 -2.482470035479450096e-02 -3.366602353129302116e-01 0.000000000000000000e+00 0.000000000000000000e+00 0.000000000000000000e+00 0.000000000000000000e+00 7.342995761443899851e-03 -2.366814886279461783e-03 -1.127008501578190963e-03 -2.777911743743351290e-03
3.000000000000000444e+00 2.325498532132969920e-01 0.000000000000000000e+00 7.673998861302512298e-01 5.026065645131369384e-05 0.000000000000000000e+00 0.000000000000000000e+00 9.772548140292524818e-03 -4.223307088023497413e-01 0.000000000000000000e+00 0.000000000000000000e+00 0.000000000000000000e+00 0.000000000000000000e+00 6.052567432023227105e-03 -1.391563722153072976e-03 -6.887557620883113900e-04 -3.348689859449670465e-03
3.100000000000000089e+00 3.469904158385705428e-01 0.000000000000000000e+00 6.529728916231886116e-01 3.669253823587030231e-05 0.000000000000000000e+00 0.000000000000000000e+00 6.620226590104651143e-02 -4.713730925480599243e-01 0.000000000000000000e+00 0.000000000000000000e+00 0.000000000000000000e+00 0.000000000000000000e+00 4.864454165205381320e-03 -5.443516263341482758e-04 1.002264679329407937e-04 -3.566779189465262446e-03
3.200000000000000178e+00 4.618798107312668821e-01 0.000000000000000000e+00 5.380925319400472473e-01 2.765732868929925809e-05 0.000000000000000000e+00 0.000000000000000000e+00 1.390839084506809986e-01 -4.787376556614308387e-01 0.000000000000000000e+00 0.000000000000000000e+00 0.000000000000000000e+00 0.000000000000000000e+00 3.855605054111979450e-03 1.284979654589026162e-04 1.110904526324744653e-03 -3.397094770292100746e-03
3.300000000000000266e+00 5.645141584875230656e-01 0.000000000000000000e+00 4.354630122875043918e-01 2.282922497134139912e-05 0.000000000000000000e+00 0.000000000000000000e+00 2.211064891072607730e-01 -4.437757944211434546e-01 0.000000000000000000e+00 0.000000000000000000e+00 0.000000000000000000e+00 0.000000000000000000e+00 3.092504174534648712e-03 6.145738795106517934e-04 2.196525815430273171e-03 -2.839488525678785045e-03
3.400000000000000355e+00 6.435101159613264565e-01 0.000000000000000000e+00 3.564680836967785149e-01 2.180034189640814857e-05 0.000000000000000000e+00 0.000000000000000000e+00 3.037443707373397306e-01 -3.703109142565430556e-01 0.000000000000000000e+00 0.000000000000000000e+00 0.000000000000000000e+00 0.000000000000000000e+00 2.626255753677511108e-03 9.348298874709258261e-04 3.208949544534511669e-03 -1.931678861928426026e-03
3.500000000000000444e+00 6.900866408524615192e-01 0.000000000000000000e+00 3.098891895409141006e-01 2.416960662722855767e-05 0.000000000000000000e+00 0.000000000000000000e+00 3.781086683880888755e-01 -2.662409117158103244e-01 0.000000000000000000e+00 0.000000000000000000e+00 0.000000000000000000e+00 0.000000000000000000e+00 2.488618356544716227e-03 1.138717980407299643e-03 4.014794668543280112e-03 -7.486963552363133222e-04
3.600000000000000089e+00 6.990448851148800546e-01 0.000000000000000000e+00 3.009254995814579781e-01 2.961530366019228427e-05 0.000000000000000000e+00 0.000000000000000000e+00 4.358835019309626468e-01 -1.427094996242169178e-01 0.000000000000000000e+00 0.000000000000000000e+00 0.000000000000000000e+00 0.000000000000000000e+00 2.689345983043357324e-03 1.295923755008611660e-03 4.510027147326079941e-03 6.017321205677393908e-04
3.700000000000000178e+00 6.693602449343952765e-01 0.000000000000000000e+00 3.306018082822089199e-01 3.794678339607902406e-05 0.000000000000000000e+00 0.000000000000000000e+00 4.702391664954261308e-01 -1.291636058209740499e-02 0.000000000000000000e+00 0.000000000000000000e+00 0.000000000000000000e+00 0.000000000000000000e+00 3.215350793378219958e-03 1.485528391695493597e-03 4.631467410569220337e-03 1.987354493345900360e-03
3.800000000000000266e+00 6.043056865484617290e-01 0.000000000000000000e+00 3.956451871213655935e-01 4.912633017605961275e-05 0.000000000000000000e+00 0.000000000000000000e+00 4.766037645959713687e-01 1.092679640087318022e-01 0.000000000000000000e+00 0.000000000000000000e+00 0.000000000000000000e+00 0.000000000000000000e+00 4.031638581811857955e-03 1.783952491914550216e-03 4.363923354915401343e-03 3.262436711063166316e-03
3.900000000000000355e+00 5.111066908385899499e-01 0.000000000000000000e+00 4.888300502466276232e-01 6.325891478187097711e-05 0.000000000000000000e+00 0.000000000000000000e+00 4.532254395334431862e-01 2.107866455104471237e-01 0.000000000000000000e+00 0.000000000000000000e+00 0.000000000000000000e+00 0.000000000000000000e+00 5.083954393246291337e-03 2.253057063881247664e-03 3.742124949209408875e-03 4.281186137227077117e-03
4.000000000000000000e+00 4.001341393893855791e-01 0.000000000000000000e+00 5.997853094568380561e-01 8.055115377279492106e-05 0.000000000000000000e+00 0.000000000000000000e+00 4.014470184903542460e-01 2.807754735673091417e-01 0.000000000000000000e+00 0.000000000000000000e+00 0.000000000000000000e+00 0.000000000000000000e+00 6.303097774856719279e-03 2.929907345270053257e-03 2.847208307056104011e-03 4.911687118375302266e-03
4.099999999999999645e+00 2.837687426646646194e-01 0.000000000000000000e+00 7.161300106139141253e-01 1.012467214214361386e-04 0.000000000000000000e+00 0.000000000000000000e+00 3.256587110402677232e-01 3.117077401528388636e-01 0.000000000000000000e+00 0.000000000000000000e+00 0.000000000000000000e+00 0.000000000000000000e+00 7.610374493266261649e-03 3.819426080660337681e-03 1.798332801256829908e-03 5.049421078025093448e-03
4.200000000000000178e+00 1.750259616835256049e-01 0.000000000000000000e+00 8.248484922802113983e-01 1.255460362581713044e-04 0.000000000000000000e+00 0.000000000000000000e+00 2.329015331070257433e-01 3.002112173835146947e-01 0.000000000000000000e+00 0.000000000000000000e+00 0.000000000000000000e+00 0.000000000000000000e+00 8.923908403126262767e-03 4.890840118600955910e-03 7.396593726742571638e-04 4.628900382366629707e-03
4.299999999999999822e+00 8.611571212793869834e-02 0.000000000000000000e+00 9.137307731765592633e-01 1.535146955037705097e-04 0.000000000000000000e+00 0.000000000000000000e+00 1.322185637943960046e-01 2.473960878234276184e-01 0.000000000000000000e+00 0.000000000000000000e+00 0.000000000000000000e+00 0.000000000000000000e+00 1.016496363452980452e-02 6.078208201998207966e-03 -1.748085870166210597e-04 3.631730712199097554e-03
4.399999999999999467e+00 2.708243070401521180e-02 0.000000000000000000e+00 9.727325594211179149e-01 1.850098748679653482e-04 0.000000000000000000e+00 0.000000000000000000e+00 3.370518355912440617e-02 1.587700214829803336e-01 0.000000000000000000e+00 0.000000000000000000e+00 0.000000000000000000e+00 0.000000000000000000e+00 1.126423126760773066e-02 7.285754570444491311e-03 -7.988796885721440250e-04 2.091006127420952983e-03
4.500000000000000000e+00 4.684748919145594569e-03 0.000000000000000000e+00 9.950956415098888286e-01 2.196095709663573687e-04 0.000000000000000000e+00 0.000000000000000000e+00 -5.251745138968951648e-02 4.363128372381790132e-02 0.000000000000000000e+00 0.000000000000000000e+00 0.000000000000000000e+00 0.000000000000000000e+00 1.216688707977199059e-02 8.396391146069413086e-03 -1.010273888514526611e-03 9.034284490418175752e-05
4.599999999999999645e+00 2.163689989224799881e-02 0.000000000000000000e+00 9.781065205797925266e-01 2.565795279586732510e-04 0.000000000000000000e+00 0.000000000000000000e+00 -1.173920667596181355e-01 -8.592025397131927700e-02 0.000000000000000000e+00 0.000000000000000000e+00 0.000000000000000000e+00 0.000000000000000000e+00 1.283632014677810358e-02 9.283910382483480037e-03 -7.250806263402032438e-04 -2.241839080946010122e-03
4.700000000000000178e+00 7.630045182596865982e-02 0.000000000000000000e+00 9.234046810709172215e-01 2.948671031105841792e-04 0.000000000000000000e+00 0.000000000000000000e+00 -1.539158713168592707e-01 -2.162546960849020261e-01 0.000000000000000000e+00 0.000000000000000000e+00 0.000000000000000000e+00 0.000000000000000000e+00 1.325628340754009780e-02 9.826118803496344117e-03 9.160886835193611348e-05 -4.742372837306750750e-03
4.799999999999999822e+00 1.628539483201796312e-01 0.000000000000000000e+00 8.368129178378623800e-01 3.331338419601925348e-04 0.000000000000000000e+00 0.000000000000000000e+00 -1.579446409784201477e-01 -3.336641621775091049e-01 0.000000000000000000e+00 0.000000000000000000e+00 0.000000000000000000e+00 0.000000000000000000e+00 1.343087085403562274e-02 9.918790640707733641e-03 1.419924325540459099e-03 -7.227446009667994921e-03
4.900000000000000355e+00 2.719278885739477847e-01 0.000000000000000000e+00 7.277022901581720049e-01 3.698212678800739668e-04 0.000000000000000000e+00 0.000000000000000000e+00 -1.286912258821761301e-01 -4.258181661563117393e-01 0.000000000000000000e+00 0.000000000000000000e+00 0.000000000000000000e+00 0.000000000000000000e+00 1.338279113256395959e-02 9.487922963461381184e-03 3.185206794244716758e-03 -9.508899733076330019e-03
5.000000000000000000e+00 3.916281565084110960e-01 0.000000000000000000e+00 6.079685936756242803e-01 4.032498159641571367e-04 0.000000000000000000e+00 0.000000000000000000e+00 -6.888242369956122657e-02 -4.830660653278995853e-01 0.000000000000000000e+00 0.000000000000000000e+00 0.000000000000000000e+00 0.000000000000000000e+00 1.314990509800472579e-02 8.499600840669332275e-03 5.263547562803585350e-03 -1.141135615181274043e-02
5.099999999999999645e+00 5.088619425531024643e-01 0.000000000000000000e+00 4.907063190912591688e-01 4.317383556341601201e-04 0.000000000000000000e+00 0.000000000000000000e+00 1.545520748406596818e-02 -4.994626157600030592e-01 0.000000000000000000e+00 0.000000000000000000e+00 0.000000000000000000e+00 0.000000000000000000e+00 1.278025605490255671e-02 6.965758590528739469e-03 7.492582540842029383e-03 -1.278891805754591056e-02
5.200000000000000178e+00 6.107699758736064855e-01 0.000000000000000000e+00 3.887762968311762601e-01 4.537272952168221402e-04 0.000000000000000000e+00 0.000000000000000000e+00 1.155739096109638930e-01 -4.733873212746707582e-01 0.000000000000000000e+00 0.000000000000000000e+00 0.000000000000000000e+00 0.000000000000000000e+00 1.232632066082248179e-02 4.945728837164640491e-03 9.686409784048208294e-03 -1.353870284500321639e-02
5.299999999999999822e+00 6.861470797411121092e-01 0.000000000000000000e+00 3.133850100302030262e-01 4.679102286833488255e-04 0.000000000000000000e+00 0.000000000000000000e+00 2.208913002585621843e-01 -4.077195610481512689e-01 0.000000000000000000e+00 0.000000000000000000e+00 0.000000000000000000e+00 0.000000000000000000e+00 1.183935530515978045e-02 2.542777216546335088e-03 1.165323982743801147e-02 -1.361092350519619090e-02
5.400000000000000355e+00 7.267027065423828924e-01 0.000000000000000000e+00 2.728239511969568487e-01 4.733422606603287391e-04 0.000000000000000000e+00 0.000000000000000000e+00 3.200883493770913524e-01 -3.095243818254696522e-01 0.000000000000000000e+00 0.000000000000000000e+00 0.000000000000000000e+00 0.000000000000000000e+00 1.136346427513063202e-02 -1.038355070458307349e-04 1.321428381716733234e-02 -1.301390813466098834e-02
5.500000000000000000e+00 7.279682427988575233e-01 0.000000000000000000e+00 2.715622269218291307e-01 4.695302793127964828e-04 0.000000000000000000e+00 0.000000000000000000e+00 4.023128892832510961e-01 -1.892960945749098400e-01 0.000000000000000000e+00 0.000000000000000000e+00 0.000000000000000000e+00 0.000000000000000000e+00 1.093133160570423403e-02 -2.830667106518520819e-03 1.422134999928372119e-02 -1.181339649013016246e-02
5.599999999999999645e+00 6.898112812958669959e-01 0.000000000000000000e+00 3.097322466069458713e-01 4.564720971877441022e-04 0.000000000000000000e+00 0.000000000000000000e+00 4.583399051632552901e-01 -5.984412660875269852e-02 0.000000000000000000e+00 0.000000000000000000e+00 0.000000000000000000e+00 0.000000000000000000e+00 1.056070508318644047e-02 -5.464031001168269744e-03 1.457194924469393249e-02 -1.012609978842235123e-02
5.700000000000000178e+00 6.164418593111945510e-01 0.000000000000000000e+00 3.831234577964827137e-01 4.346828923242135258e-04 0.000000000000000000e+00 0.000000000000000000e+00 4.816015282436767464e-01 6.506376300867010298e-02 0.000000000000000000e+00 0.000000000000000000e+00 0.000000000000000000e+00 0.000000000000000000e+00 1.025366897507950896e-02 -7.835782323862013066e-03 1.421998104428222852e-02 -8.108567528414422146e-03
5.799999999999999822e+00 5.159854133712441504e-01 0.000000000000000000e+00 4.836094403656156504e-01 4.051462631386952410e-04 0.000000000000000000e+00 0.000000000000000000e+00 4.689280237341856838e-01 1.721683004522647498e-01 0.000000000000000000e+00 0.000000000000000000e+00 0.000000000000000000e+00 0.000000000000000000e+00 9.996620019196610779e-03 -9.797966419136973359e-03 1.318128640531265536e-02 -5.941653877135319971e-03
5.900000000000000355e+00 3.995620609876096574e-01 0.000000000000000000e+00 6.000686839287443508e-01 3.692550836446620256e-04 0.000000000000000000e+00 0.000000000000000000e+00 4.209474415871168329e-01 2.501358599876004063e-01 0.000000000000000000e+00 0.000000000000000000e+00 0.000000000000000000e+00 0.000000000000000000e+00 9.763162460707243764e-03 -1.123650589666229903e-02 1.153273181991565539e-02 -3.812666185952084171e-03
6.000000000000000000e+00 2.800714411839333451e-01 0.000000000000000000e+00 7.195998588994418910e-01 3.286999166239589778e-04 0.000000000000000000e+00 0.000000000000000000e+00 3.420707596500310310e-01 2.907351942688858881e-01 0.000000000000000000e+00 0.000000000000000000e+00 0.000000000000000000e+00 0.000000000000000000e+00 9.518064848538206404e-03 -1.208051537037700511e-02 9.405342627040206779e-03 -1.897101486050801816e-03
