0.000000000000000000e+00 -1.534266900172774622e-09 -1.788958874805612604e-09 -1.000000000000000000e+00
1.189743589743589708e-01 -3.132739685513577510e-02 3.863400481024092947e-02 -9.987618718533690654e-01
2.379487179487179416e-01 -6.262246931936207850e-02 7.682521086199392557e-02 -9.950753286554442356e-01
3.569230769230768985e-01 -9.380374361131305072e-02 1.141802547579676003e-01 -9.890205482444223151e-01
4.758974358974358831e-01 -1.247947603713399634e-01 1.503598253667220996e-01 -9.807218866663406365e-01
5.948717948717948678e-01 -1.554972444573086976e-01 1.850989975276569055e-01 -9.703378256803782964e-01
7.138461538461537970e-01 -1.857868130068917878e-01 2.182101491284749728e-01 -9.580518842079255304e-01
8.328205128205128371e-01 -2.155227881476222129e-01 2.495705622526719625e-01 -9.440654508535537559e-01
9.517948717948717663e-01 -2.445546420848556668e-01 2.791081977651519441e-01 -9.285935868023030837e-01
1.070769230769230695e+00 -2.727440343956766267e-01 3.067881355774572660e-01 -9.118582367737498862e-01
1.189743589743589736e+00 -2.999784174185697871e-01 3.326003243761747052e-01 -8.940822129535471730e-01
1.308717948717948776e+00 -3.261781014773054155e-01 3.565673458442653598e-01 -8.754769775963163747e-01
1.427692307692307594e+00 -3.513087072179152948e-01 3.787417033164361957e-01 -8.562293104438878366e-01
1.546666666666666634e+00 -3.753586658374655771e-01 3.992088034292899379e-01 -8.364982350868636063e-01
1.665641025641025674e+00 -3.983256650044654235e-01 4.180828948794837463e-01 -8.164152452030615237e-01
1.784615384615384492e+00 -4.202039500471339561e-01 4.355027857975695138e-01 -7.960878594873935787e-01
1.903589743589743533e+00 -4.409703390077633900e-01 4.516011140113082023e-01 -7.756229487365199349e-01
2.022564102564102573e+00 -4.606017508751200640e-01 4.664970236766904366e-01 -7.551260758216772340e-01
2.141538461538461391e+00 -4.790846433672401594e-01 4.802805374832539997e-01 -7.347086793007423511e-01
2.260512820512820653e+00 -4.964315004172841772e-01 4.930084154073833269e-01 -7.144832572843990981e-01
2.379487179487179471e+00 -5.127051299576987908e-01 5.047209368366318838e-01 -6.945341133071677442e-01
2.498461538461538289e+00 -5.279987649796240579e-01 5.154604134288995887e-01 -6.749109953607437262e-01
2.617435897435897552e+00 -5.424213777669466552e-01 5.252899315944605796e-01 -6.556188850470733298e-01
2.736410256410256370e+00 -5.560627262687869443e-01 5.343081241133309511e-01 -6.366280542114518548e-01
2.855384615384615188e+00 -5.689684128188547962e-01 5.426395157614639642e-01 -6.179022162986530509e-01
2.974358974358974450e+00 -5.811424375366044393e-01 5.504119324857547069e-01 -5.994211196657356355e-01
3.093333333333333268e+00 -5.925466414461844078e-01 5.577343374580628899e-01 -5.812108664840964778e-01
3.212307692307692086e+00 -6.031449588158521724e-01 5.646676638556550332e-01 -5.633395652732048342e-01
3.331282051282051349e+00 -6.129353815092629665e-01 5.712161708648526570e-01 -5.459000781679701486e-01
3.450256410256410167e+00 -6.219722815379260528e-01 5.773408835067315170e-01 -5.289728789272050147e-01
3.569230769230768985e+00 -6.303656972490856436e-01 5.829926556421719530e-01 -5.125843573539338172e-01
3.688205128205128247e+00 -6.382537244093262618e-01 5.881455464564553370e-01 -4.966898819147786970e-01
3.807179487179487065e+00 -6.457504059509880934e-01 5.928294839197011390e-01 -4.811893985122311368e-01
3.926153846153845883e+00 -6.529167481016964203e-01 5.971324723854952721e-01 -4.659570182497804747e-01
4.045128205128205146e+00 -6.597349365492863882e-01 6.011811076236839302e-01 -4.509038691905305485e-01
4.164102564102564408e+00 -6.661272498589637658e-01 6.051035691371671188e-01 -4.360128231425291490e-01
4.283076923076922782e+00 -6.720057412163542576e-01 6.089797984380704854e-01 -4.213487039732083383e-01
4.402051282051282044e+00 -6.773127848485865909e-01 6.128145658088020031e-01 -4.070483690390043208e-01
4.521025641025641306e+00 -6.820735515675955263e-01 6.165425459271040021e-01 -3.932346310869095363e-01
4.639999999999999680e+00 -6.863894775116704539e-01 6.200516560195412641e-01 -3.799839447894903799e-01
