0.000000000000000000e+00 -2.905756919627300989e-10 -4.519627526121992820e-09 -1.000000000000000000e+00
1.189743589743589708e-01 2.137323326374419852e-01 2.941018994572138778e-01 -9.315682973307226611e-01
2.379487179487179416e-01 3.953244306288731247e-01 5.437884691367731449e-01 -7.402744178949184350e-01
3.569230769230768985e-01 5.223961296275154709e-01 7.156134970418647212e-01 -4.636704006322673322e-01
4.758974358974358831e-01 5.879942113358517242e-01 7.945767232475617892e-01 -1.513266701789345026e-01
5.948717948717948678e-01 6.001844033747973928e-01 7.858065690403398529e-01 1.492508881113963071e-01
7.138461538461537970e-01 5.763592374359852721e-01 7.103476976195869375e-01 4.039881096632958468e-01
8.328205128205128371e-01 5.354149022642706868e-01 5.970051033776559990e-01 5.974174442226182213e-01
9.517948717948717663e-01 4.913987606730428892e-01 4.734068446440395928e-01 7.310311924288610541e-01
1.070769230769230695e+00 4.510025479125587822e-01 3.593741827267072919e-01 8.169709640681537266e-01
1.189743589743589736e+00 4.148787940503669280e-01 2.644268556301824225e-01 8.706030283102131895e-01
1.308717948717948776e+00 3.810557090241830647e-01 1.893148319624280984e-01 9.049600841254800132e-01
1.427692307692307594e+00 3.480232058554958985e-01 1.299953584700883069e-01 9.284276571046650162e-01
1.546666666666666634e+00 3.159842173088697193e-01 8.170142959486537126e-02 9.452386663923364463e-01
1.665641025641025674e+00 2.862393045841356565e-01 4.140757778835410519e-02 9.572617713379464321e-01
1.784615384615384492e+00 2.597781510616112288e-01 8.118023293729889622e-03 9.656331095585101165e-01
1.903589743589743533e+00 2.363956083644526418e-01 -1.827350712838904379e-02 9.714840635000296931e-01
2.022564102564102573e+00 2.148954675205909659e-01 -3.829057515377927434e-02 9.758852517754434963e-01
2.141538461538461391e+00 1.940604755861861097e-01 -5.338666174834472838e-02 9.795349880882449067e-01
2.260512820512820653e+00 1.735468164723272255e-01 -6.543661619614803138e-02 9.826485028535869581e-01
2.379487179487179471e+00 1.539684872282269801e-01 -7.582658439221230673e-02 9.851612423951487951e-01
2.498461538461538289e+00 1.362675291819700485e-01 -8.489055246829645129e-02 9.870276011040145514e-01
2.617435897435897552e+00 1.208601100861667471e-01 -9.212961118687601481e-02 9.883844233938863244e-01
2.736410256410256370e+00 1.072824302203921748e-01 -9.696633495132472857e-02 9.894881842829658103e-01
2.855384615384615188e+00 9.454267656328696479e-02 -9.946123157524808245e-02 9.905392785095039621e-01
2.974358974358974450e+00 8.186912457103806551e-02 -1.004252458031602291e-01 9.915700654816455017e-01
3.093333333333333268e+00 6.925313442507506634e-02 -1.009274432275148875e-01 9.924800694213617991e-01
3.212307692307692086e+00 5.735834104166782216e-02 -1.015754791552117564e-01 9.931724529186981565e-01
3.331282051282051349e+00 4.693637403664051994e-02 -1.022081531206479321e-01 9.936546587158987531e-01
3.450256410256410167e+00 3.818667231741718071e-02 -1.021357379543260668e-01 9.940368238606711593e-01
3.569230769230768985e+00 3.058100699992241309e-02 -1.007865529968888646e-01 9.944375490835732911e-01
3.688205128205128247e+00 2.326325254407485624e-02 -9.821678195317355697e-02 9.948927004395067275e-01
3.807179487179487065e+00 1.568860754875461144e-02 -9.511179600417148106e-02 9.953425790634055081e-01
3.926153846153845883e+00 8.010994128290174071e-03 -9.228908279973441209e-02 9.956996608399329984e-01
4.045128205128205146e+00 9.040459295672513204e-04 -9.009888548778587081e-02 9.959320545244430001e-01
4.164102564102564408e+00 -4.996090794129198071e-03 -8.820830106786337055e-02 9.960891685699960751e-01
4.283076923076922782e+00 -9.623795974576019804e-03 -8.591448271388486824e-02 9.962556880235312606e-01
4.402051282051282044e+00 -1.353198159079153223e-02 -8.271261926338541182e-02 9.964812294264233650e-01
4.521025641025641306e+00 -1.748459798064733867e-02 -7.872777896648144869e-02 9.967424853857429490e-01
4.639999999999999680e+00 -2.187455862705177390e-02 -7.461883667926533237e-02 9.969718709704903370e-01
