0.000000000000000000e+00 1.446586111867412248e-09 2.570866350325195625e-09 -1.000000000000000000e+00
1.189743589743589708e-01 4.790318911000144425e-02 1.347173998340393114e-02 -9.987609070784509990e-01
2.379487179487179416e-01 9.556119207092522716e-02 2.691317846035285594e-02 -9.950592334905975500e-01
3.569230769230768985e-01 1.427277519457290089e-01 4.026248094504582958e-02 -9.889420814338401033e-01
4.758974358974358831e-01 1.891771076883467517e-01 5.347373425554535764e-02 -9.804850170677167354e-01
5.948717948717948678e-01 2.346904012180859866e-01 6.650105690281468696e-02 -9.697916646061432999e-01
7.138461538461537970e-01 2.790739636007967817e-01 7.928923450759510494e-02 -9.569892052187356501e-01
8.328205128205128371e-01 3.221585985861042944e-01 9.179009335735094366e-02 -9.422236247818651655e-01
9.517948717948717663e-01 3.637994613257557464e-01 1.039547707671130694e-01 -9.256564382827506821e-01
1.070769230769230695e+00 4.038770298594583918e-01 1.157370740055348457e-01 -9.074603585126312932e-01
1.189743589743589736e+00 4.423031566778866663e-01 1.270943005646772428e-01 -8.878122149040666988e-01
1.308717948717948776e+00 4.790102693461072980e-01 1.379791738283957514e-01 -8.668944771156473772e-01
1.427692307692307594e+00 5.139616992121087691e-01 1.483678330985305216e-01 -8.448816725500539748e-01
1.546666666666666634e+00 5.471387852665869911e-01 1.582252482492400303e-01 -8.219477929915247616e-01
1.665641025641025674e+00 5.785466887007895131e-01 1.675360346186486882e-01 -7.982538683654036848e-01
1.784615384615384492e+00 6.082016931117547598e-01 1.762752415345958390e-01 -7.739581203870194992e-01
1.903589743589743533e+00 6.361374678451665599e-01 1.844425042336975407e-01 -7.492016587246429493e-01
2.022564102564102573e+00 6.624020072258690606e-01 1.920260581833675428e-01 -7.241148000529517015e-01
2.141538461538461391e+00 6.870497809204841877e-01 1.990299777976345386e-01 -6.988146948514226686e-01
2.260512820512820653e+00 7.101394177669589913e-01 2.054599787792096288e-01 -6.734093694391461993e-01
2.379487179487179471e+00 7.317385558526178224e-01 2.113259010766176116e-01 -6.479905068279619984e-01
2.498461538461538289e+00 7.519132878487211347e-01 2.166319120267157783e-01 -6.226462618542443206e-01
2.617435897435897552e+00 7.707369726948840594e-01 2.214020613829925099e-01 -5.974417985523806651e-01
2.736410256410256370e+00 7.882762511575721609e-01 2.256501718237565735e-01 -5.724450533633138605e-01
2.855384615384615188e+00 8.046046632371157692e-01 2.293958839613094436e-01 -5.477037475992697635e-01
2.974358974358974450e+00 8.197872737125622145e-01 2.326587940244096986e-01 -5.232676247570334782e-01
3.093333333333333268e+00 8.338948053602527333e-01 2.354591138650307669e-01 -4.991678463453684267e-01
3.212307692307692086e+00 8.469873549823219161e-01 2.378171660757842365e-01 -4.754421950457037860e-01
3.331282051282051349e+00 8.591297886561022334e-01 2.397557426687091375e-01 -4.521093575576844992e-01
3.450256410256410167e+00 8.703781799871853631e-01 2.412972488763791556e-01 -4.291933794635341970e-01
3.569230769230768985e+00 8.807901645654068190e-01 2.424598858208747432e-01 -4.067077912771530079e-01
3.688205128205128247e+00 8.904182224164900461e-01 2.432664014026889032e-01 -3.846635229935071454e-01
3.807179487179487065e+00 8.993132468921248845e-01 2.437411381503909458e-01 -3.630633301623777398e-01
3.926153846153845883e+00 9.075206437039502472e-01 2.438974860015820645e-01 -3.419198904163606723e-01
4.045128205128205146e+00 9.150871924298366045e-01 2.437555128624878664e-01 -3.212280785693674146e-01
4.164102564102564408e+00 9.220531125794807492e-01 2.433340970073996079e-01 -3.009904742673804590e-01
4.283076923076922782e+00 9.284569199069490075e-01 2.426544072822464093e-01 -2.812030826752383028e-01
4.402051282051282044e+00 9.343348593048621531e-01 2.417265902517298226e-01 -2.618685238752975208e-01
4.521025641025641306e+00 9.397199951354864300e-01 2.405715120105522131e-01 -2.429816769634512985e-01
4.639999999999999680e+00 9.446457762679170145e-01 2.392054540909342997e-01 -2.245294018125968405e-01
