0.000000000000000000e+00 7.713282695055081310e-11 -4.383907421048068955e-09 -1.000000000000000000e+00
1.189743589743589708e-01 -1.688060520784180341e-01 3.810677862473854649e-01 -9.090039602405610708e-01
2.379487179487179416e-01 -3.359196723049205358e-01 6.744539887816025647e-01 -6.574664310963763691e-01
3.569230769230768985e-01 -4.893395823888171958e-01 8.179767981869299209e-01 -3.024073045941196303e-01
4.758974358974358831e-01 -6.040632032538103546e-01 7.926446739689774201e-01 8.252786436643383405e-02
5.948717948717948678e-01 -6.499076505255340086e-01 6.268196052312912103e-01 4.297760248569491570e-01
7.138461538461537970e-01 -6.064782834292525848e-01 3.852178728037365385e-01 6.955458874724013141e-01
8.328205128205128371e-01 -4.770560434590099819e-01 1.461080254458275440e-01 8.666403080988038798e-01
9.517948717948717663e-01 -2.929098367664416669e-01 -2.537006270655547957e-02 9.558021400992384731e-01
1.070769230769230695e+00 -1.042589800293564628e-01 -9.794942729022246275e-02 9.897145155456611443e-01
1.189743589743589736e+00 3.883205551407082484e-02 -8.095923695505032047e-02 9.959603131634496842e-01
1.308717948717948776e+00 1.065400846286670561e-01 -1.467320682379492230e-02 9.941996984433644213e-01
1.427692307692307594e+00 1.003093892249123653e-01 5.094673864766738336e-02 9.936506173680487164e-01
1.546666666666666634e+00 4.926796174951366541e-02 7.923926446385226585e-02 9.956370085481346388e-01
1.665641025641025674e+00 -5.997924741898065515e-03 6.093463908426815373e-02 9.981234839762448408e-01
1.784615384615384492e+00 -3.368835823791585526e-02 1.343449149133021242e-02 9.993419327412144115e-01
1.903589743589743533e+00 -2.448078509594335539e-02 -3.297977239502986740e-02 9.991559827596222521e-01
2.022564102564102573e+00 7.902312379028657296e-03 -5.359685333730050683e-02 9.985311611694412948e-01
2.141538461538461391e+00 3.831796087248207777e-02 -4.223262320809794551e-02 9.983725091120037032e-01
2.260512820512820653e+00 4.658991103447751581e-02 -1.213317481173475064e-02 9.988402088054239014e-01
2.379487179487179471e+00 2.889983336730857916e-02 1.442391971169747211e-02 9.994780993313209239e-01
2.498461538461538289e+00 -1.877210434500320956e-03 2.066620606175773034e-02 9.997845755103885734e-01
2.617435897435897552e+00 -2.603747460043800283e-02 4.937045501683402435e-03 9.996486593694761114e-01
2.736410256410256370e+00 -3.007328207022626210e-02 -1.996664995486442662e-02 9.993480981396031249e-01
2.855384615384615188e+00 -1.467299137420364011e-02 -3.639857597865257810e-02 9.992294594514414818e-01
2.974358974358974450e+00 7.036421106342283238e-03 -3.377057743146950203e-02 9.994046928275274189e-01
3.093333333333333268e+00 1.910494410192864478e-02 -1.486832606548823925e-02 9.997068167165338304e-01
3.212307692307692086e+00 1.348200210893995242e-02 7.005191007073139839e-03 9.998845044189983433e-01
3.331282051282051349e+00 -5.272357303233873860e-03 1.764447893135105694e-02 9.998303392289054070e-01
3.450256410256410167e+00 -2.393154218644223327e-02 1.143368136664160359e-02 9.996480975389413492e-01
3.569230769230768985e+00 -3.008511358436992758e-02 -5.414997099196367653e-03 9.995325397557235370e-01
3.688205128205128247e+00 -2.054318693526433967e-02 -1.983900304592043501e-02 9.995919875892531614e-01
3.807179487179487065e+00 -2.973007150062629590e-03 -2.127264421995631039e-02 9.997691950291103247e-01
3.926153846153845883e+00 9.952284706258331809e-03 -8.750688069043874306e-03 9.999121226471404666e-01
4.045128205128205146e+00 9.573347303223803118e-03 8.917202670128901096e-03 9.999143520257032236e-01
4.164102564102564408e+00 -3.014903249365121201e-03 1.976370298760638314e-02 9.998000430912715730e-01
4.283076923076922782e+00 -1.815582845276660084e-02 1.710728760432447815e-02 9.996886945026631777e-01
4.402051282051282044e+00 -2.480414881085011430e-02 4.024696991197953058e-03 9.996841169966277363e-01
4.521025641025641306e+00 -1.836408767838926953e-02 -9.256860278662609048e-03 9.997884204652590645e-01
4.639999999999999680e+00 -3.655084361726376567e-03 -1.286240132737265229e-02 9.999105327652532127e-01
