0.000000000000000000e+00 2.414143260354382137e-14 -1.100053931672694408e-13 -1.000000000000000000e+00
1.189743589743589708e-01 3.930081465546364679e-03 -1.742038284738741186e-02 -9.998405296310891588e-01
2.379487179487179416e-01 7.994198390172296484e-03 -3.276150040221301879e-02 -9.994312266693738955e-01
3.569230769230768985e-01 1.211616175953611138e-02 -4.409834670403835893e-02 -9.989537198648951177e-01
4.758974358974358831e-01 1.584376213842787068e-02 -4.982949920415685047e-02 -9.986320624326705531e-01
5.948717948717948678e-01 1.826622600899585613e-02 -4.884099509386929244e-02 -9.986395256349552829e-01
7.138461538461537970e-01 1.805458340562373157e-02 -4.068535042939245422e-02 -9.990088759330636448e-01
8.328205128205128371e-01 1.360213477782411945e-02 -2.572381323636675765e-02 -9.995765440135022661e-01
9.517948717948717663e-01 3.290788068584419180e-03 -5.207024134610048136e-03 -9.999810286048943508e-01
1.070769230769230695e+00 -1.419033079517501537e-02 1.872685878066903883e-02 -9.997239314350437889e-01
1.189743589743589736e+00 -3.948999675081125982e-02 4.319733913017062554e-02 -9.982857957581893205e-01
1.308717948717948776e+00 -7.229491189889727942e-02 6.485511990851791642e-02 -9.952724547195161975e-01
1.427692307692307594e+00 -1.111237530205428370e-01 8.029357635958725425e-02 -9.905576476461942503e-01
1.546666666666666634e+00 -1.532964509954764798e-01 8.654979102048590556e-02 -9.843827159873961286e-01
1.665641025641025674e+00 -1.950854834617636591e-01 8.162464376521913478e-02 -9.773837893264430976e-01
1.784615384615384492e+00 -2.320812994243164618e-01 6.495775436838016614e-02 -9.705249921324005102e-01
1.903589743589743533e+00 -2.597320123989206864e-01 3.773211223777003798e-02 -9.649432985922450356e-01
2.022564102564102573e+00 -2.740032692185435659e-01 2.973406716679935502e-03 -9.617241638981923746e-01
2.141538461538461391e+00 -2.720484346654696850e-01 -3.467043534233604785e-02 -9.616587801967209082e-01
2.260512820512820653e+00 -2.528213700158822852e-01 -6.939567157732014213e-02 -9.650210343314928885e-01
2.379487179487179471e+00 -2.174808279996926219e-01 -9.501495603919006550e-02 -9.714289717783335387e-01
2.498461538461538289e+00 -1.695032691576679740e-01 -1.058494869830226420e-01 -9.798288252594486991e-01
2.617435897435897552e+00 -1.144691317889686422e-01 -9.768127046214492015e-02 -9.886127587132788053e-01
2.736410256410256370e+00 -5.947802290961464594e-02 -6.857708561702151318e-02 -9.958712507478891807e-01
2.855384615384615188e+00 -1.226893519262150720e-02 -1.944401038715147176e-02 -9.997356670418140467e-01
2.974358974358974450e+00 1.986803855985952091e-02 4.579746719749315520e-02 -9.987531487792242757e-01
3.093333333333333268e+00 3.122107653670121857e-02 1.205193995188500455e-01 -9.922198938509578792e-01
3.212307692307692086e+00 1.866355420861025294e-02 1.961272902457178724e-01 -9.804008143726905544e-01
3.331282051282051349e+00 -1.763598353239841099e-02 2.631979908191601214e-01 -9.645806290118549287e-01
3.450256410256410167e+00 -7.395793209237280785e-02 3.128421962828821790e-01 -9.469213193930938743e-01
3.569230769230768985e+00 -1.433014582260556669e-01 3.381023378910474331e-01 -9.301352059876538680e-01
3.688205128205128247e+00 -2.161940025558707068e-01 3.351560959252907201e-01 -9.170226515185265770e-01
3.807179487179487065e+00 -2.819497713027610541e-01 3.041205912792816490e-01 -9.099532922757034292e-01
3.926153846153845883e+00 -3.302255242651050970e-01 2.492889044076561644e-01 -9.103879096924550884e-01
4.045128205128205146e+00 -3.526351479914168197e-01 1.787378355586832779e-01 -9.185321110026728464e-01
4.164102564102564408e+00 -3.441782119198859013e-01 1.033024027452646709e-01 -9.332041427732215011e-01
4.283076923076922782e+00 -3.042274122816427950e-01 3.505346757887897735e-02 -9.519542714235353920e-01
4.402051282051282044e+00 -2.368973008190627394e-01 -1.449955454048577896e-02 -9.714264918255379744e-01
4.521025641025641306e+00 -1.506758316577720136e-01 -3.623055047958821662e-02 -9.879190974026519356e-01
4.639999999999999680e+00 -5.733894866131718920e-02 -2.493732947560707222e-02 -9.980432732801005624e-01
