0.000000000000000000e+00 -7.949297338895537880e-10 -2.291254360435211470e-09 -1.000000000000000000e+00
1.189743589743589708e-01 -3.767697905549550752e-01 1.290516308299038684e-01 -9.172717098354905563e-01
2.379487179487179416e-01 -7.005093918882232540e-01 1.897085190811218791e-01 -6.879617601512062475e-01
3.569230769230768985e-01 -9.212703900908491006e-01 1.417635189782480154e-01 -3.621542666200078253e-01
4.758974358974358831e-01 -9.999401119975200869e-01 -9.523887429033817131e-03 -4.465659715435602549e-03
5.948717948717948678e-01 -9.208732299171631386e-01 -2.142078666104635931e-01 3.257284741216465163e-01
7.138461538461537970e-01 -7.036086074678824520e-01 -3.970924416738943474e-01 5.892755848038147004e-01
8.328205128205128371e-01 -4.050490412587114952e-01 -4.887698710966926763e-01 7.726799484124083905e-01
9.517948717948717663e-01 -1.062432471320860494e-01 -4.553730582671983718e-01 8.839368511188999689e-01
1.070769230769230695e+00 1.141662972562537542e-01 -3.134668209037856923e-01 9.427100986801669746e-01
1.189743589743589736e+00 2.092827508423786842e-01 -1.223807366082081960e-01 9.701660061485466446e-01
1.308717948717948776e+00 1.816690904428209241e-01 4.331965590841006797e-02 9.824044632085668916e-01
1.427692307692307594e+00 7.939045527471895458e-02 1.280824721290347579e-01 9.885803227811844618e-01
1.546666666666666634e+00 -2.890099185674220583e-02 1.192573424118256731e-01 9.924422504148225910e-01
1.665641025641025674e+00 -8.748024847245067237e-02 4.840362694864315529e-02 9.949892688463716217e-01
1.784615384615384492e+00 -7.812459538965528527e-02 -2.996468975670857349e-02 9.964929086548435233e-01
1.903589743589743533e+00 -2.299702561634008741e-02 -6.965845713541007900e-02 9.973055458690746056e-01
2.022564102564102573e+00 3.439217822467410118e-02 -5.618570604011887543e-02 9.978275945341096298e-01
2.141538461538461391e+00 5.776675319968167799e-02 -9.497133738353501220e-03 9.982847374694026055e-01
2.260512820512820653e+00 3.859690983592371089e-02 3.366859240798245057e-02 9.986873184506591672e-01
2.379487179487179471e+00 -2.912078402384144470e-03 4.529808864049143791e-02 9.989691163432985466e-01
2.498461538461538289e+00 -3.510569277553102219e-02 2.278219189974002579e-02 9.991237545738046455e-01
2.617435897435897552e+00 -3.738211216942111115e-02 -1.293200275324117229e-02 9.992172291288237140e-01
2.736410256410256370e+00 -1.269811928080009575e-02 -3.469928400124001194e-02 9.993169985981203984e-01
2.855384615384615188e+00 1.743804548122560721e-02 -2.875107660188576733e-02 9.994343685227120577e-01
2.974358974358974450e+00 3.032246738292286581e-02 -2.847402327677869827e-03 9.995360061268929730e-01
3.093333333333333268e+00 1.847951752051121485e-02 2.165881045410843198e-02 9.995945193072858226e-01
3.212307692307692086e+00 -6.493448353053800359e-03 2.680052527549708213e-02 9.996196138552271293e-01
3.331282051282051349e+00 -2.437850928670219630e-02 1.091376234521849661e-02 9.996431310542734927e-01
3.450256410256410167e+00 -2.227536975163528152e-02 -1.165217999977047336e-02 9.996838780742092201e-01
3.569230769230768985e+00 -3.680374267027376051e-03 -2.281545096721689439e-02 9.997328366454570903e-01
3.688205128205128247e+00 1.554480428369646450e-02 -1.487435429018842299e-02 9.997684519808582859e-01
3.807179487179487065e+00 2.040137718744773274e-02 4.390759341188162079e-03 9.997821532938072631e-01
3.926153846153845883e+00 8.330793763634249116e-03 1.894255437681326842e-02 9.997857909459346715e-01
4.045128205128205146e+00 -9.683963368826237206e-03 1.767299018464968050e-02 9.997968493703240922e-01
4.164102564102564408e+00 -1.874108726010728296e-02 2.817352333001530394e-03 9.998203319897313035e-01
4.283076923076922782e+00 -1.213933031166435778e-02 -1.270726735708828381e-02 9.998455046114133049e-01
4.402051282051282044e+00 3.789263292900663105e-03 -1.632423452206850992e-02 9.998595087721650065e-01
4.521025641025641306e+00 1.558382745865328871e-02 -5.898083870566648429e-03 9.998611073851139119e-01
4.639999999999999680e+00 1.395589517275309076e-02 9.150306071374424144e-03 9.998606812810727495e-01
