0.000000000000000000e+00 2.953719579849471949e-09 -1.820302017664558848e-09 -1.000000000000000000e+00
1.189743589743589708e-01 2.624374517301661935e-01 6.913289193872532157e-03 -9.649221725165796348e-01
2.379487179487179416e-01 4.982781731175413564e-01 4.857141136236842183e-02 -8.656508017074980854e-01
3.569230769230768985e-01 6.793778594829705808e-01 1.492879038320803209e-01 -7.184331476579814968e-01
4.758974358974358831e-01 7.768153883517886493e-01 3.146972301913134595e-01 -5.454423388988317578e-01
5.948717948717948678e-01 7.651909749411700545e-01 5.274440543182882246e-01 -3.691434906841990493e-01
7.138461538461537970e-01 6.300685587459214920e-01 7.483766884538006758e-01 -2.071857651929978894e-01
8.328205128205128371e-01 3.763388205050179902e-01 9.238716107168161162e-01 -6.935265124567130401e-02
9.517948717948717663e-01 3.417925189285500598e-02 9.984912910485940207e-01 4.273562130228691219e-02
1.070769230769230695e+00 -3.408240244893613324e-01 9.305922966960554765e-01 1.334788650162627988e-01
1.189743589743589736e+00 -6.753795942608697978e-01 7.069858572909517580e-01 2.097937228812327692e-01
1.308717948717948776e+00 -8.937777135932634121e-01 3.521502734830216363e-01 2.777266083914088912e-01
1.427692307692307594e+00 -9.375296652525830776e-01 -7.187157859158083140e-02 3.403728386053018196e-01
1.546666666666666634e+00 -7.840200074542319486e-01 -4.766597838178767699e-01 3.976049926567435389e-01
1.665641025641025674e+00 -4.579437671811772415e-01 -7.681952480077183232e-01 4.473766926588875203e-01
1.784615384615384492e+00 -3.059759086276625517e-02 -8.724625282024638384e-01 4.877046509902729365e-01
1.903589743589743533e+00 3.947721964551039742e-01 -7.586028661181137833e-01 5.183241952056044655e-01
2.022564102564102573e+00 7.090020281052620277e-01 -4.520248239969275050e-01 5.412701731510612957e-01
2.141538461538461391e+00 8.277297526593689891e-01 -3.205246392808475120e-02 5.601965095995911081e-01
2.260512820512820653e+00 7.176958493245919612e-01 3.870460092440399791e-01 5.788717039809334608e-01
2.379487179487179471e+00 4.097438160535832874e-01 6.874096912375771140e-01 5.996354692472715131e-01
2.498461538461538289e+00 -6.888189951636758401e-03 7.825375714855068443e-01 6.225534071024431126e-01
2.617435897435897552e+00 -4.088675558183635372e-01 6.449681939802646147e-01 6.456230026516287523e-01
2.736410256410256370e+00 -6.752603512680095399e-01 3.170835855738202702e-01 6.659336242888485025e-01
2.855384615384615188e+00 -7.252795935525941928e-01 -9.967359965934702304e-02 6.811909920596495027e-01
2.974358974358974450e+00 -5.449755388182769833e-01 -4.750694600296796466e-01 6.908671022659129690e-01
3.093333333333333268e+00 -1.933795428176428577e-01 -6.910061079739409085e-01 6.964924470288229585e-01
3.212307692307692086e+00 2.150027694059319372e-01 -6.800032141173144584e-01 7.009681548153477992e-01
3.331282051282051349e+00 5.466819328004944856e-01 -4.482765905358376823e-01 7.072298374986594194e-01
3.450256410256410167e+00 6.930951091432880906e-01 -7.483316092568231825e-02 7.169424417283861706e-01
3.569230769230768985e+00 6.073082733637233943e-01 3.139712856718060996e-01 7.297851013576931445e-01
3.688205128205128247e+00 3.206201506304625637e-01 5.866273106942833104e-01 7.436794338127206139e-01
3.807179487179487065e+00 -6.733180003927660695e-02 6.513019531344726998e-01 7.558177560473693379e-01
3.926153846153845883e+00 -4.222933633898917627e-01 4.878071011604802609e-01 7.640033030701131045e-01
4.045128205128205146e+00 -6.217710999490830837e-01 1.551368818259898918e-01 7.676730326096390389e-01
4.164102564102564408e+00 -5.979907800849311172e-01 -2.287357059921146796e-01 7.681637846902167333e-01
4.283076923076922782e+00 -3.620588993937486899e-01 -5.281564323617988777e-01 7.680838304098853708e-01
4.402051282051282044e+00 -3.610735434155243340e-04 -6.379244129970107480e-01 7.700915590278708533e-01
4.521025641025641306e+00 3.561197468509814668e-01 -5.210086228944021958e-01 7.757045651149813148e-01
4.639999999999999680e+00 5.788424275685503106e-01 -2.220484313619426331e-01 7.846177683060410191e-01
