0.000000000000000000e+00 -2.163581767184150547e-09 -1.480337846768282290e-09 -1.000000000000000000e+00
1.189743589743589708e-01 3.914998684843523646e-01 -1.428062925322202970e-01 -9.090274900035935080e-01
2.379487179487179416e-01 7.148805018008819179e-01 -2.371247000745654032e-01 -6.578076901946534605e-01
3.569230769230768985e-01 9.178836887770954744e-01 -2.552716469995812698e-01 -3.038364793331201907e-01
4.758974358974358831e-01 9.763400242033237753e-01 -2.012347672083092953e-01 7.908722535816453680e-02
5.948717948717948678e-01 8.993686198952350885e-01 -1.067407586684161469e-01 4.239502113563945462e-01
7.138461538461537970e-01 7.254990781484744744e-01 -1.506805682711034877e-02 6.880534790629945219e-01
8.328205128205128371e-01 5.101426918179816639e-01 3.897040153306438603e-02 8.592040456248442037e-01
9.517948717948717663e-01 3.081076094851128988e-01 4.297901298962605865e-02 9.503789706617445932e-01
1.070769230769230695e+00 1.573547517763976278e-01 8.754169951810553130e-03 9.875027711553812093e-01
1.189743589743589736e+00 7.021093873729813972e-02 -3.764098624987026465e-02 9.968214522293540325e-01
1.308717948717948776e+00 3.523085603848944564e-02 -7.103983144622919021e-02 9.968508203472599138e-01
1.427692307692307594e+00 2.800372800329492540e-02 -7.914267730230106768e-02 9.964695811614457943e-01
1.546666666666666634e+00 2.508714133905819849e-02 -6.557356952581182286e-02 9.975320718767073380e-01
1.665641025641025674e+00 1.411682049364447467e-02 -4.392333109949417974e-02 9.989349901169952695e-01
1.784615384615384492e+00 -4.127622315493940930e-03 -2.764193087919256803e-02 9.996092588638147980e-01
1.903589743589743533e+00 -2.120017535557618821e-02 -2.232038012215703179e-02 9.995259462678568463e-01
2.022564102564102573e+00 -2.935653518459908906e-02 -2.444552172302514106e-02 9.992698949588747492e-01
2.141538461538461391e+00 -2.726181603094485206e-02 -2.611317714869902662e-02 9.992870513106130170e-01
2.260512820512820653e+00 -2.006649627698116334e-02 -2.162304855727113090e-02 9.995646815806782381e-01
2.379487179487179471e+00 -1.486866990931763957e-02 -1.124255982202145704e-02 9.998261739942096993e-01
2.498461538461538289e+00 -1.546987502514697230e-02 -8.265002561744401455e-05 9.998802677943302575e-01
2.617435897435897552e+00 -2.025418534808730991e-02 6.393556068614539289e-03 9.997743357541961640e-01
2.736410256410256370e+00 -2.423379920886674713e-02 6.528140091238413510e-03 9.996849056593367644e-01
2.855384615384615188e+00 -2.335370202346541413e-02 3.273851963667055373e-03 9.997218120805129171e-01
2.974358974358974450e+00 -1.754756798441614585e-02 1.475181504997508108e-03 9.998448704477622684e-01
3.093333333333333268e+00 -1.045532058983401902e-02 4.011147127182162868e-03 9.999372493176147403e-01
3.212307692307692086e+00 -6.321823697022652989e-03 9.792216571836358935e-03 9.999320222941278091e-01
3.331282051282051349e+00 -6.693055867835759690e-03 1.500193764502467941e-02 9.998649968257021792e-01
3.450256410256410167e+00 -9.468592819046949688e-03 1.631735734175648878e-02 9.998219534701324740e-01
3.569230769230768985e+00 -1.084709679212792280e-02 1.350482093931890115e-02 9.998498990024465849e-01
3.688205128205128247e+00 -8.456911577145696801e-03 9.419682842030045050e-03 9.999198192169176380e-01
3.807179487179487065e+00 -3.144132585023812383e-03 7.563155870107026585e-03 9.999664204314997473e-01
3.926153846153845883e+00 1.889122893678049121e-03 9.296505563990250381e-03 9.999549614522208474e-01
4.045128205128205146e+00 3.770423911604772749e-03 1.290494524901598591e-02 9.999095634418657674e-01
4.164102564102564408e+00 2.227224215069992935e-03 1.516495532601710994e-02 9.998824623427486902e-01
4.283076923076922782e+00 -3.435089691846450466e-04 1.400903365046829788e-02 9.999017519204252968e-01
4.402051282051282044e+00 -9.216590450540186955e-04 1.015932436047508637e-02 9.999479245841383923e-01
4.521025641025641306e+00 1.669246129045967586e-03 6.413543223663048000e-03 9.999780103806406029e-01
4.639999999999999680e+00 5.894401010812965608e-03 5.316345725815050521e-03 9.999684611324954897e-01
