0.000000000000000000e+00 2.889238788534586296e-09 1.325497751911694559e-09 -1.000000000000000000e+00
1.189743589743589708e-01 -5.381536824735934366e-02 -3.117586441877558956e-01 -9.486325877686148100e-01
2.379487179487179416e-01 -6.597255032212076542e-02 -5.900889120013546041e-01 -8.046295026146192964e-01
3.569230769230768985e-01 -6.267509529192888396e-03 -8.030599203237865913e-01 -5.958478714963316714e-01
4.758974358974358831e-01 1.353873927745981032e-01 -9.225785555425506379e-01 -3.612390032902991766e-01
5.948717948717948678e-01 3.449377714417959373e-01 -9.278621738370582683e-01 -1.416406812112498137e-01
7.138461538461537970e-01 5.859809039697781996e-01 -8.097667951722609114e-01 2.959910972863602496e-02
8.328205128205128371e-01 8.071367307255581380e-01 -5.749738002212936294e-01 1.338198322844459109e-01
9.517948717948717663e-01 9.535121894501523698e-01 -2.485591006331899777e-01 1.703097422846654718e-01
1.070769230769230695e+00 9.797773702207824842e-01 1.265035119538323038e-01 1.549374206649065666e-01
1.189743589743589736e+00 8.619353299538806690e-01 4.938577912501795897e-01 1.146481538829148134e-01
1.308717948717948776e+00 6.049694406371328714e-01 7.922567240937996580e-01 7.945655573995802357e-02
1.427692307692307594e+00 2.443777030969605524e-01 9.668305325879333889e-01 7.409678376756875795e-02
1.546666666666666634e+00 -1.591472805229215415e-01 9.809161569500860489e-01 1.115699417782281405e-01
1.665641025641025674e+00 -5.311193279069879036e-01 8.256495969085362319e-01 1.902305698445248272e-01
1.784615384615384492e+00 -7.985211616744556373e-01 5.246576119433689067e-01 2.950797081409001210e-01
1.903589743589743533e+00 -9.057442620245240716e-01 1.320526247469530623e-01 4.026966890363673501e-01
2.022564102564102573e+00 -8.276113297399381175e-01 -2.766072832747516475e-01 4.883898634085554469e-01
2.141538461538461391e+00 -5.764020458386104329e-01 -6.190121152775011071e-01 5.334438997731728582e-01
2.260512820512820653e+00 -2.009218877507051026e-01 -8.235188579649957985e-01 5.304947893897228317e-01
2.379487179487179471e+00 2.225609931100081540e-01 -8.454040151048215490e-01 4.855258405162926061e-01
2.498461538461538289e+00 6.059147839449321449e-01 -6.780538063489411904e-01 4.160357143557810167e-01
2.617435897435897552e+00 8.680426376967144142e-01 -3.560796539404645911e-01 3.459531680558049493e-01
2.736410256410256370e+00 9.529429661111938898e-01 5.089858449436229781e-02 2.988022206642409473e-01
2.855384615384615188e+00 8.427462621090010542e-01 4.528036686161733826e-01 2.910690792865376908e-01
2.974358974358974450e+00 5.625730816692806613e-01 7.590385621355240087e-01 3.276371249495322324e-01
3.093333333333333268e+00 1.757539538169824445e-01 8.992509698436812471e-01 4.005413900090064039e-01
3.212307692307692086e+00 -2.298171163160901420e-01 8.400572243825505936e-01 4.913906527695345305e-01
3.331282051282051349e+00 -5.613244692414931514e-01 5.935858898896385627e-01 5.766709281978392720e-01
3.450256410256410167e+00 -7.422844675038340334e-01 2.154955623930978059e-01 6.344727432288235214e-01
3.569230769230768985e+00 -7.304755948117986897e-01 -2.073707788828862419e-01 6.506792332460552553e-01
3.688205128205128247e+00 -5.282261652469686375e-01 -5.770090530486726710e-01 6.229105844734357245e-01
3.807179487179487065e+00 -1.824314731155530500e-01 -8.073646718750716600e-01 5.611233262926572651e-01
3.926153846153845883e+00 2.259564131837040746e-01 -8.449636437584896465e-01 4.847234439094845748e-01
4.045128205128205146e+00 6.007148335023339003e-01 -6.820565870774584205e-01 4.170322699308641745e-01
4.164102564102564408e+00 8.530869958506159811e-01 -3.588984379101369804e-01 3.786942085784605894e-01
4.283076923076922782e+00 9.230764442133431169e-01 4.556995524481272097e-02 3.818744869999630143e-01
4.402051282051282044e+00 7.941281348101947302e-01 4.325595043940455020e-01 4.268821551921366253e-01
4.521025641025641306e+00 4.975016014598866443e-01 7.073216095020291583e-01 5.021606661196543753e-01
4.639999999999999680e+00 1.050966249907324401e-01 8.022775291046250201e-01 5.876091082430562329e-01
