0.000000000000000000e+00 2.390866352432005415e-13 -4.063040821030793111e-13 -1.000000000000000000e+00
1.189743589743589708e-01 -8.041345544537623069e-02 1.330013504975878780e-01 -9.878483268778535109e-01
2.379487179487179416e-01 -1.637893249021854236e-01 2.503064498428113627e-01 -9.542115793230875331e-01
3.569230769230768985e-01 -2.510136173365950518e-01 3.383696910317905426e-01 -9.069168186871915394e-01
4.758974358974358831e-01 -3.393637672743227141e-01 3.876764710399632774e-01 -8.570526161371472273e-01
5.948717948717948678e-01 -4.219484625502424313e-01 3.941270852659723989e-01 -8.164700454892993564e-01
7.138461538461537970e-01 -4.883373792235715660e-01 3.597251885156003692e-01 -7.950625083012756722e-01
8.328205128205128371e-01 -5.263075308171846212e-01 2.924723230604492352e-01 -7.984111238346341954e-01
9.517948717948717663e-01 -5.244102882704856361e-01 2.054232809065518195e-01 -8.263141803043614342e-01
1.070769230769230695e+00 -4.748222735785200821e-01 1.150127647495770428e-01 -8.725341670051479648e-01
1.189743589743589736e+00 -3.758620635920619235e-01 3.880904295954487604e-02 -9.258626069560225158e-01
1.308717948717948776e+00 -2.335740759800492006e-01 -7.004094128871124481e-03 -9.723137835968577170e-01
1.427692307692307594e+00 -6.193674059163814527e-02 -1.010293858076210735e-02 -9.980289429015984926e-01
1.546666666666666634e+00 1.184960532610779688e-01 3.591070224911416947e-02 -9.923049466052338285e-01
1.665641025641025674e+00 2.834102577022533653e-01 1.301895974830593605e-01 -9.501206738114591488e-01
1.784615384615384492e+00 4.085718671809260294e-01 2.643197951792212730e-01 -8.736155187332377281e-01
1.903589743589743533e+00 4.740583666999893531e-01 4.231130371554063241e-01 -7.721683908814519492e-01
2.022564102564102573e+00 4.680916631338473133e-01 5.864922901457949589e-01 -6.609969656092345991e-01
2.141538461538461391e+00 3.897234591955080485e-01 7.322531661456037622e-01 -5.584988145056595243e-01
2.260512820512820653e+00 2.497916558330268433e-01 8.393474699452573295e-01 -4.828042587513305395e-01
2.379487179487179471e+00 6.986689255204117655e-02 8.911977526700455288e-01 -4.482021665896238072e-01
2.498461538461538289e+00 -1.207842432330097082e-01 8.785444302452098952e-01 -4.621372614040455962e-01
2.617435897435897552e+00 -2.897440074129538634e-01 8.013141968146876293e-01 -5.233965672707706629e-01
2.736410256410256370e+00 -4.067987271352596634e-01 6.691572245632566585e-01 -6.218869705771700174e-01
2.855384615384615188e+00 -4.491668121705902350e-01 5.004733401289018779e-01 -7.401186449778405230e-01
2.974358974358974450e+00 -4.056955211780345349e-01 3.199768917512009203e-01 -8.561693353923672811e-01
3.093333333333333268e+00 -2.791966111665692418e-01 1.551244603879828043e-01 -9.476210505120411520e-01
3.212307692307692086e+00 -8.648680909086574331e-02 3.189048396919183515e-02 -9.957424512465786748e-01
3.331282051282051349e+00 1.440182213872910344e-01 -2.942308064929900768e-02 -9.891375201165573117e-01
3.450256410256410167e+00 3.767685877257057059e-01 -1.767625955102609947e-02 -9.261387483963485767e-01
3.569230769230768985e+00 5.749331404026071235e-01 6.694614064522447228e-02 -8.154569868068396454e-01
3.688205128205128247e+00 7.066388398592670095e-01 2.125347076089340037e-01 -6.749003957050597746e-01
3.807179487179487065e+00 7.505106868924478203e-01 3.969456408169432793e-01 -5.283633861948264787e-01
3.926153846153845883e+00 6.995578791861001289e-01 5.910699913680219630e-01 -4.015657297473095300e-01
4.045128205128205146e+00 5.626531079247486522e-01 7.633490019724217257e-01 -3.173638011576378481e-01
4.164102564102564408e+00 3.633161785387598042e-01 8.849131429849311781e-01 -2.914276659180646822e-01
4.283076923076922782e+00 1.359415960678130864e-01 9.344368190068218505e-01 -3.291621354282866507e-01
4.402051282051282044e+00 -7.992186586703081685e-02 9.019099109977475326e-01 -4.244655386088949101e-01
4.521025641025641306e+00 -2.462670325338713884e-01 7.906525285438409378e-01 -5.605542999329268250e-01
4.639999999999999680e+00 -3.331904122701343507e-01 6.171352978167526926e-01 -7.128311002458224133e-01
