0.000000000000000000e+00 2.018249856844495730e-09 3.733359161716337319e-09 -1.000000000000000000e+00
1.189743589743589708e-01 2.073027148204252545e-01 2.649527445311085361e-03 -9.782713622385599272e-01
2.379487179487179416e-01 3.984799457713198989e-01 3.139040624420309789e-02 -9.166355508892919390e-01
3.569230769230768985e-01 5.554067158698057227e-01 1.059726834535351658e-01 -8.247918131778063655e-01
4.758974358974358831e-01 6.574811723550275655e-01 2.344838280274441078e-01 -7.160451547643482684e-01
5.948717948717948678e-01 6.835817460909967558e-01 4.098050103422886115e-01 -6.039517649813244127e-01
7.138461538461537970e-01 6.165502217379393857e-01 6.088016053817533191e-01 -4.992055644977603235e-01
8.328205128205128371e-01 4.492872591318469722e-01 7.949555968170050058e-01 -4.076332095850579984e-01
9.517948717948717663e-01 1.906210065772461493e-01 9.245703975344679026e-01 -3.298643608799851079e-01
1.070769230769230695e+00 -1.311887524292378038e-01 9.559383806793960714e-01 -2.625793280497283333e-01
1.189743589743589736e+00 -4.692491515365183607e-01 8.599200735765961667e-01 -2.007954084750083745e-01
1.308717948717948776e+00 -7.641245850520496097e-01 6.296086372787961238e-01 -1.402936640150530823e-01
1.427692307692307594e+00 -9.548053987673577048e-01 2.863933888595640020e-01 -7.937867869211237548e-02
1.546666666666666634e+00 -9.925852414744027463e-01 -1.198960085890475591e-01 -1.936177128207216061e-02
1.665641025641025674e+00 -8.546028870714688086e-01 -5.179919591926764877e-01 3.624413457030644520e-02
1.784615384615384492e+00 -5.532854094010740686e-01 -8.287851359631649428e-01 8.346234117434628286e-02
1.903589743589743533e+00 -1.384013322992492800e-01 -9.831046037860646791e-01 1.196914286443377801e-01
2.022564102564102573e+00 3.100432238451859002e-01 -9.395790055490109705e-01 1.450524764779555775e-01
2.141538461538461391e+00 6.975100250246311084e-01 -6.978762626437402528e-01 1.625555529829686152e-01
2.260512820512820653e+00 9.363289348239510756e-01 -3.031134891674307497e-01 1.771616676564621295e-01
2.379487179487179471e+00 9.677012417972208347e-01 1.608627416308978098e-01 1.940451847639915461e-01
2.498461538461538289e+00 7.785993178522471192e-01 5.888905102929994362e-01 2.167193051522553482e-01
2.617435897435897552e+00 4.084189144188712373e-01 8.790678322853242577e-01 2.457847257465178015e-01
2.736410256410256370e+00 -5.742236647428361485e-02 9.586358336649761780e-01 2.787413652623193516e-01
2.855384615384615188e+00 -5.064166594397556675e-01 8.042489781364718926e-01 3.109707223800310949e-01
2.974358974358974450e+00 -8.264119377373847497e-01 4.506773284985450267e-01 3.375065237567510534e-01
3.093333333333333268e+00 -9.347512334225741570e-01 -1.538116890506430190e-02 3.549382194141164071e-01
3.212307692307692086e+00 -8.012599276858948238e-01 -4.757715930962222450e-01 3.627693309047350101e-01
3.331282051282051349e+00 -4.583560379347751401e-01 -8.109498918297924908e-01 3.636587738356245048e-01
3.450256410256410167e+00 5.359529230236331765e-03 -9.319549961752126022e-01 3.625035675593500373e-01
3.569230769230768985e+00 4.671723759892189021e-01 -8.054410772262255991e-01 3.646811542944923268e-01
3.688205128205128247e+00 8.027042057182453005e-01 -4.644278754648705210e-01 3.740996526032335234e-01
3.807179487179487065e+00 9.200548311976284310e-01 -1.029248552325945365e-03 3.917603066487407304e-01
3.926153846153845883e+00 7.861230451022898080e-01 4.576459386388123107e-01 4.153903356800277558e-01
4.045128205128205146e+00 4.371938880152880791e-01 7.842076029180753416e-01 4.402939226285101926e-01
4.164102564102564408e+00 -2.979827760166497974e-02 8.868583720532404735e-01 4.610568106928351062e-01
4.283076923076922782e+00 -4.835940607208952802e-01 7.360988756975139768e-01 4.735763095485068797e-01
4.402051282051282044e+00 -7.954904875148416377e-01 3.742467157501785380e-01 4.765644291317236991e-01
4.521025641025641306e+00 -8.763580221717652829e-01 -9.556754970322439702e-02 4.720622631066389019e-01
4.639999999999999680e+00 -7.030301323808201275e-01 -5.383041803478743059e-01 4.647111303453982378e-01
