0.000000000000000000e+00 1.455522996159034846e-12 6.278217820640867463e-13 -1.000000000000000000e+00
1.189743589743589708e-01 2.887270821933723419e-01 1.293876771020498473e-01 -9.486282206601736045e-01
2.379487179487179416e-01 5.307673818373351837e-01 2.662177254037752516e-01 -8.046204751235560559e-01
3.569230769230768985e-01 6.875926331622970178e-01 4.142492377705621620e-01 -5.963337485723388953e-01
4.758974358974358831e-01 7.355658584431123970e-01 5.708110968027005905e-01 -3.648527916238030744e-01
5.948717948717948678e-01 6.700638447122005958e-01 7.257322805686799994e-01 -1.559714742775655805e-01
7.138461538461537970e-01 5.062698194527061046e-01 8.623021090061331329e-01 -1.122240401016728374e-02
8.328205128205128371e-01 2.764989782398655782e-01 9.601684513597319448e-01 4.030954981760489358e-02
9.517948717948717663e-01 2.453127172828242775e-02 9.996249118344753271e-01 -1.217588656534831712e-02
1.070769230769230695e+00 -2.020669688979597478e-01 9.663987727378121617e-01 -1.588784189229856814e-01
1.189743589743589736e+00 -3.602695657636337256e-01 8.558794035532223399e-01 -3.710475528873403150e-01
1.308717948717948776e+00 -4.191190598682862922e-01 6.757913145383362963e-01 -6.063376225603326342e-01
1.427692307692307594e+00 -3.651394639104739159e-01 4.465861888670665802e-01 -8.168438943463827151e-01
1.546666666666666634e+00 -2.046924034704634687e-01 1.992495760556787232e-01 -9.583322108256370209e-01
1.665641025641025674e+00 3.714886013512891383e-02 -2.922988248590446467e-02 -9.988821634313319597e-01
1.784615384615384492e+00 3.209797445968421425e-01 -2.020263913412273793e-01 -9.252877069484584105e-01
1.903589743589743533e+00 5.999393414641089883e-01 -2.891437832248600626e-01 -7.459682695674549890e-01
2.022564102564102573e+00 8.278833132314687981e-01 -2.733495825189610207e-01 -4.897848764566412050e-01
2.141538461538461391e+00 9.674002271756440008e-01 -1.541267860656704847e-01 -2.009520701155740330e-01
2.260512820512820653e+00 9.962977027205567326e-01 5.119336865958755423e-02 6.906610790136447076e-02
2.379487179487179471e+00 9.114094513985315782e-01 3.095422088521748716e-01 2.711391381318764005e-01
2.498461538461538289e+00 7.290764893533121516e-01 5.772280462293779557e-01 3.677706562492814024e-01
2.617435897435897552e+00 4.822452428188644946e-01 8.072229728372050106e-01 3.403389436401771384e-01
2.736410256410256370e+00 2.146638909924803440e-01 9.574498783859430873e-01 1.928967184029150295e-01
2.855384615384615188e+00 -2.675467347861712475e-02 9.984775754277055437e-01 -4.823606437194862678e-02
2.974358974358974450e+00 -2.000855932994710651e-01 9.192417961040928454e-01 -3.390579236463294732e-01
3.093333333333333268e+00 -2.756278303303807964e-01 7.296395537369296802e-01 -6.258237934747026276e-01
3.212307692307692086e+00 -2.409660260673265053e-01 4.594052230984113083e-01 -8.549164956316811503e-01
3.331282051282051349e+00 -1.029851587108654987e-01 1.533666143189627296e-01 -9.827882468817403794e-01
3.450256410256410167e+00 1.134956634186022190e-01 -1.361918070418438043e-01 -9.841598061517263796e-01
3.569230769230768985e+00 3.702082363734249260e-01 -3.587132503723408639e-01 -8.568959484191577269e-01
3.688205128205128247e+00 6.222350845804670572e-01 -4.744996925968674173e-01 -6.226343562949187005e-01
3.807179487179487065e+00 8.259237491938048459e-01 -4.620843882194556329e-01 -3.229984174570729172e-01
3.926153846153845883e+00 9.465012811710927787e-01 -3.224738316150929096e-01 -1.208104646280634339e-02
4.045128205128205146e+00 9.640803191682288942e-01 -7.942802546593220880e-02 2.534567612797248293e-01
4.164102564102564408e+00 8.770082278032697021e-01 2.244017165389188551e-01 4.248534278320024726e-01
4.283076923076922782e+00 7.019817126143279573e-01 5.348088328898029653e-01 4.703202953814272225e-01
4.402051282051282044e+00 4.709471919324579869e-01 7.956175604392230483e-01 3.810530686500829822e-01
4.521025641025641306e+00 2.253380272950862850e-01 9.587941685925864821e-01 1.730217213341483373e-01
4.639999999999999680e+00 8.705901779834490650e-03 9.932337862440495657e-01 -1.158052171369975264e-01
