0.000000000000000000e+00 1.903530839178702669e-09 1.422080753513878489e-09 -1.000000000000000000e+00
1.189743589743589708e-01 -1.230921018716124443e-01 -9.666939612203367949e-02 -9.876752540866553520e-01
2.379487179487179416e-01 -2.425092574197020290e-01 -1.892282416727495697e-01 -9.515145660178510045e-01
3.569230769230768985e-01 -3.549365583532176349e-01 -2.740019750328115955e-01 -8.938343908812272920e-01
4.758974358974358831e-01 -4.576933383181707171e-01 -3.481208681649680114e-01 -8.181225791613560006e-01
5.948717948717948678e-01 -5.489166810604233504e-01 -4.097234419862803012e-01 -7.285684855690351958e-01
7.138461538461537970e-01 -6.275957227743171885e-01 -4.579932624294507648e-01 -6.295710582882407813e-01
8.328205128205128371e-01 -6.935123198877225503e-01 -4.930340364336734948e-01 -5.253106117375385686e-01
9.517948717948717663e-01 -7.470880927010696837e-01 -5.156784097425921587e-01 -4.194373270366421047e-01
1.070769230769230695e+00 -7.892052633812616236e-01 -5.272360572170731174e-01 -3.149114689332010997e-01
1.189743589743589736e+00 -8.210321295779748896e-01 -5.292684642359756220e-01 -2.139459114831089304e-01
1.308717948717948776e+00 -8.438549248712712281e-01 -5.234079771985942209e-01 -1.180867419532448531e-01
1.427692307692307594e+00 -8.589762017708879593e-01 -5.112261247720630841e-01 -2.826977074042770488e-02
1.546666666666666634e+00 -8.676307169121663110e-01 -4.941461625427105431e-01 5.502696605030375082e-02
1.665641025641025674e+00 -8.709373819082568691e-01 -4.734146371017186050e-01 1.316745747244407183e-01
1.784615384615384492e+00 -8.698847929025810277e-01 -4.500756071353247956e-01 2.018020591999493685e-01
1.903589743589743533e+00 -8.653188238673571453e-01 -4.249948686206191373e-01 2.656963645094201909e-01
2.022564102564102573e+00 -8.579575235841285785e-01 -3.988636886532774817e-01 3.237417475161821212e-01
2.141538461538461391e+00 -8.483956267995598211e-01 -3.722305270287176726e-01 3.763795941569079706e-01
2.260512820512820653e+00 -8.371272464628504162e-01 -3.455181167011214249e-01 4.240610077500305830e-01
2.379487179487179471e+00 -8.245540473484184174e-01 -3.190443462063692892e-01 4.672409567865721813e-01
2.498461538461538289e+00 -8.110053454032116749e-01 -2.930461148799859417e-01 5.063470415520959778e-01
2.617435897435897552e+00 -7.967423709329589654e-01 -2.677021446010222627e-01 5.417844661755459867e-01
2.736410256410256370e+00 -7.819802271168148078e-01 -2.431307209607037612e-01 5.739232269706489031e-01
2.855384615384615188e+00 -7.668865518281512417e-01 -2.194127970102816572e-01 6.031059303203158972e-01
2.974358974358974450e+00 -7.515991232900743890e-01 -1.965965061530396962e-01 6.296367986540838402e-01
3.093333333333333268e+00 -7.362263210229207377e-01 -1.747100684928547532e-01 6.537899775541439196e-01
3.212307692307692086e+00 -7.208518227684747037e-01 -1.537633849184119050e-01 6.758134398161969036e-01
3.331282051282051349e+00 -7.055424943428489915e-01 -1.337482570325855269e-01 6.959279560505000628e-01
3.450256410256410167e+00 -6.903543451469341674e-01 -1.146514220615915680e-01 7.143253002064779977e-01
3.569230769230768985e+00 -6.753229119754551313e-01 -9.644991267353880682e-02 7.311848346499050244e-01
3.688205128205128247e+00 -6.604830233906129333e-01 -7.912020098739874774e-02 7.466573596412258151e-01
3.807179487179487065e+00 -6.458566635649308774e-01 -6.262640652080564418e-02 7.608825809635477722e-01
3.926153846153845883e+00 -6.314617852056330083e-01 -4.694268216677338623e-02 7.739817491379388237e-01
4.045128205128205146e+00 -6.173112891506072897e-01 -3.202879813309772450e-02 7.860638731420236391e-01
4.164102564102564408e+00 -6.034128219393368742e-01 -1.786169894763700583e-02 7.972261593145114622e-01
4.283076923076922782e+00 -5.897707571524162251e-01 -4.398457579832315556e-03 8.075561028050810553e-01
4.402051282051282044e+00 -5.763926001976130697e-01 8.387992302724051052e-03 8.171273304607167276e-01
4.521025641025641306e+00 -5.632744392741635409e-01 2.052929178255585851e-02 8.260123654681089667e-01
4.639999999999999680e+00 -5.504151793699312289e-01 3.205894906260678412e-02 8.342730065351989799e-01
