0.000000000000000000e+00 -2.678748848383033671e-09 3.352556055241603074e-09 -1.000000000000000000e+00
1.189743589743589708e-01 -2.893190606427012979e-01 -2.201633736510038297e-01 -9.315682498790847088e-01
2.379487179487179416e-01 -5.038590145850936342e-01 -4.450973646463837197e-01 -7.402754597755771826e-01
3.569230769230768985e-01 -5.860291512682975767e-01 -6.645087620278566920e-01 -4.636682744054501648e-01
4.758974358974358831e-01 -5.104159883098040584e-01 -8.465014727514688087e-01 -1.513260169513627185e-01
5.948717948717948678e-01 -2.933012543822408613e-01 -9.442916286414536620e-01 1.492530256178348502e-01
7.138461538461537970e-01 7.609501908860255570e-03 -9.147275419633558169e-01 4.039870085206393457e-01
8.328205128205128371e-01 3.062678984316931086e-01 -7.411334832529801186e-01 5.974217035713423885e-01
9.517948717948717663e-01 5.133252425700234323e-01 -4.495385322873025613e-01 7.310304088198364969e-01
1.070769230769230695e+00 5.663386261718335035e-01 -1.086863782486359731e-01 8.169714446373210759e-01
1.189743589743589736e+00 4.540959168582187622e-01 1.893245780265921663e-01 8.706024108389568417e-01
1.308717948717948776e+00 2.235601782400069570e-01 3.620283165599043063e-01 9.049599709941138492e-01
1.427692307692307594e+00 -3.607047556507284036e-02 3.697557945247890165e-01 9.284267973314905831e-01
1.546666666666666634e+00 -2.280920439549789791e-01 2.334415036563963208e-01 9.452387479078230292e-01
1.665641025641025674e+00 -2.879383707915425528e-01 2.717160628598144778e-02 9.572621112987695913e-01
1.784615384615384492e+00 -2.099147842079309711e-01 -1.532534637963254009e-01 9.656329465940365342e-01
1.903589743589743533e+00 -4.775717803603446443e-02 -2.322422101563626773e-01 9.714838352897893214e-01
2.022564102564102573e+00 1.122638465889687215e-01 -1.871965199380974665e-01 9.758854853341740743e-01
2.141538461538461391e+00 1.933515531735518767e-01 -5.590238755471908794e-02 9.795348084921242648e-01
2.260512820512820653e+00 1.645632767929661733e-01 8.555364327205265684e-02 9.826484537221361615e-01
2.379487179487179471e+00 5.315936457647439661e-02 1.631858161296300680e-01 9.851614440769179692e-01
2.498461538461538289e+00 -7.324782625443389261e-02 1.428630161087429962e-01 9.870276621097731073e-01
2.617435897435897552e+00 -1.449738224000930997e-01 4.557338555135048708e-02 9.883847545877030294e-01
2.736410256410256370e+00 -1.278795918945928312e-01 -6.751732556454639878e-02 9.894882736271624069e-01
2.855384615384615188e+00 -3.986025361611270079e-02 -1.313080443122079388e-01 9.905393687457392238e-01
2.974358974358974450e+00 6.246253932864971603e-02 -1.135184447393204482e-01 9.915699374970577962e-01
3.093333333333333268e+00 1.183824161024774335e-01 -3.110168400228779245e-02 9.924803743625089103e-01
3.212307692307692086e+00 9.852572434552632485e-02 6.244874583523997436e-02 9.931726329149495047e-01
3.331282051282051349e+00 2.034232747903209904e-02 1.106152269271538369e-01 9.936546395551989486e-01
3.450256410256410167e+00 -6.484513865129321042e-02 8.766602899000590365e-02 9.940366620530748376e-01
3.569230769230768985e+00 -1.045731054244040670e-01 1.254316480479096552e-02 9.944376665826127892e-01
3.688205128205128247e+00 -7.727215185387834029e-02 -6.493660064582371105e-02 9.948926714062958920e-01
3.807179487179487065e+00 -4.045265786767667654e-03 -9.631299636546093723e-02 9.953424807492260440e-01
3.926153846153845883e+00 6.646574563537445413e-02 -6.452483317005627828e-02 9.956997998668498662e-01
4.045128205128205146e+00 8.984302254796595888e-02 6.791779647254768404e-03 9.959324079702233101e-01
4.164102564102564408e+00 5.383385466504932854e-02 7.005697629144519434e-02 9.960889569684414635e-01
4.283076923076922782e+00 -1.523347302638095382e-02 8.509723831281035267e-02 9.962558364312799064e-01
4.402051282051282044e+00 -7.091750095170103185e-02 4.466593273271696196e-02 9.964812960782871709e-01
4.521025641025641306e+00 -7.753382165270759907e-02 -2.219207814940810097e-02 9.967423709110221353e-01
4.639999999999999680e+00 -3.295573157491113458e-02 -7.042842541362795417e-02 9.969719728812225235e-01
