0.000000000000000000e+00 2.220950878701438996e-09 3.744153041288118362e-10 -1.000000000000000000e+00
1.189743589743589708e-01 3.790197130754825727e-02 2.600364201370455319e-01 -9.648533437417470271e-01
2.379487179487179416e-01 3.386920391208958492e-02 5.013387036088833293e-01 -8.645849116246604460e-01
3.569230769230768985e-01 -4.320977653688207187e-02 6.994873634940139695e-01 -7.133317806543350015e-01
4.758974358974358831e-01 -2.039884702200479016e-01 8.227118015910074300e-01 -5.305879516835350085e-01
5.948717948717948678e-01 -4.318953935358353924e-01 8.367406304246693960e-01 -3.366296726288088847e-01
7.138461538461537970e-01 -6.820874167434212154e-01 7.160328791180594621e-01 -1.484614456042002706e-01
8.328205128205128371e-01 -8.886240057633694178e-01 4.580701560712948095e-01 2.249560840207987314e-02
9.517948717948717663e-01 -9.807178060845951340e-01 9.491755674608731708e-02 1.707935058057265254e-01
1.070769230769230695e+00 -9.054168682835438409e-01 -3.045614686462311260e-01 2.957200295796258982e-01
1.189743589743589736e+00 -6.502421972692317143e-01 -6.462851916036911337e-01 3.993607135697340160e-01
1.308717948717948776e+00 -2.568559434044880296e-01 -8.360258697352711543e-01 4.848452609713606032e-01
1.427692307692307594e+00 1.822654351012281404e-01 -8.114482922888484051e-01 5.552664692358003640e-01
1.546666666666666634e+00 5.471783090994404297e-01 -5.696428519642712240e-01 6.132645749537540825e-01
1.665641025641025674e+00 7.289912490002150580e-01 -1.775509301647971161e-01 6.610889279844844868e-01
1.784615384615384492e+00 6.708799334454050856e-01 2.427657790416082595e-01 7.006972326962080944e-01
1.903589743589743533e+00 3.949309759907314032e-01 5.527663568044802744e-01 7.338058996359998476e-01
2.022564102564102573e+00 1.230843512861901079e-03 6.477969016518800860e-01 7.618072806892204341e-01
2.141538461538461391e+00 -3.646518613659149866e-01 4.996724121895923520e-01 7.857159850757472475e-01
2.260512820512820653e+00 -5.660242400447754729e-01 1.721661102936941634e-01 8.062064867839913163e-01
2.379487179487179471e+00 -5.303024854974339730e-01 -2.004762086999647419e-01 8.237611306230450126e-01
2.498461538461538289e+00 -2.809806590861209652e-01 -4.662958527419477917e-01 8.388159384514791705e-01
2.617435897435897552e+00 6.989299371222451596e-02 -5.191435348752156953e-01 8.518211904497978715e-01
2.736410256410256370e+00 3.684395695806719218e-01 -3.450825064532903053e-01 8.632294108870316451e-01
2.855384615384615188e+00 4.861371742528224349e-01 -2.955065000556900134e-02 8.733798341778054031e-01
2.974358974358974450e+00 3.776390549546801978e-01 2.804215440642929824e-01 8.824667639488126269e-01
3.093333333333333268e+00 1.016528703830972546e-01 4.433411916249277440e-01 8.905675538382876733e-01
3.212307692307692086e+00 -2.065483614210526508e-01 3.891457029646422927e-01 8.977186918235066093e-01
3.331282051282051349e+00 -3.995372751850739257e-01 1.520738765030170692e-01 9.040127822246663003e-01
3.450256410256410167e+00 -3.887513199844326306e-01 -1.465024099021472459e-01 9.096181746512239652e-01
3.569230769230768985e+00 -1.872411908580056128e-01 -3.580842431365873768e-01 9.147198046262653426e-01
3.688205128205128247e+00 9.780384312494383448e-02 -3.808471852172673477e-01 9.194486739405551834e-01
3.807179487179487065e+00 3.198930153521645781e-01 -2.102209917715832099e-01 9.238353431547331462e-01
3.926153846153845883e+00 3.681164678238176835e-01 5.999091319790725296e-02 9.278402982089447582e-01
4.045128205128205146e+00 2.236582859161868053e-01 2.870826820604504559e-01 9.314273416014925422e-01
4.164102564102564408e+00 -3.166417312156705188e-02 3.542331696640613203e-01 9.346190252172582591e-01
4.283076923076922782e+00 -2.598003591050129235e-01 2.314522951071338319e-01 9.375127549204068655e-01
4.402051282051282044e+00 -3.404064064955271141e-01 -9.802033078310484759e-03 9.402255187913322043e-01
4.521025641025641306e+00 -2.349598401191723418e-01 -2.363575494755017770e-01 9.428285550649916358e-01
4.639999999999999680e+00 -6.287415711391769468e-03 -3.261005318800790920e-01 9.453124904908083437e-01
