0.000000000000000000e+00 -2.621122016711239946e-09 -7.175837397011254073e-10 -1.000000000000000000e+00
1.189743589743589708e-01 6.503189324748692712e-03 -3.006128697559275545e-02 -9.995265581642192032e-01
2.379487179487179416e-01 1.597570677963238914e-02 -5.900889425194011384e-02 -9.981289669240834828e-01
3.569230769230768985e-01 3.100373867298391456e-02 -8.537662151704475400e-02 -9.958653123553563580e-01
4.758974358974358831e-01 5.354084043936287174e-02 -1.071074338040685775e-01 -9.928035630565741343e-01
5.948717948717948678e-01 8.449654460243068155e-02 -1.214539597277582705e-01 -9.889925343123616708e-01
7.138461538461537970e-01 1.233444848550828837e-01 -1.251104872148910419e-01 -9.844439477873633271e-01
8.328205128205128371e-01 1.677910687871275452e-01 -1.146096075996748120e-01 -9.791356350363105143e-01
9.517948717948717663e-01 2.136079394470671022e-01 -8.695357846798856816e-02 -9.730395271888995223e-01
1.070769230769230695e+00 2.547303729248870385e-01 -4.044967377527215746e-02 -9.661629440336532149e-01
1.189743589743589736e+00 2.837191657307827630e-01 2.441230604138433513e-02 -9.585934696548475964e-01
1.308717948717948776e+00 2.926727882559724270e-01 1.042028407913768162e-01 -9.505144708104814599e-01
1.427692307692307594e+00 2.744844877264289162e-01 1.921343842139951463e-01 -9.421971181037700482e-01
1.546666666666666634e+00 2.243780948575306855e-01 2.782009441282173867e-01 -9.339437370881285005e-01
1.665641025641025674e+00 1.414330656431607713e-01 3.499822152027185496e-01 -9.260134139006326315e-01
1.784615384615384492e+00 2.980966859578187966e-02 3.942078792621127592e-01 -9.185329530541032073e-01
1.903589743589743533e+00 -1.007130454813035259e-01 3.988873030899030003e-01 -9.114475520619111926e-01
2.022564102564102573e+00 -2.351189307449358945e-01 3.557788698624330670e-01 -9.045058978011388806e-01
2.141538461538461391e+00 -3.546616069409609384e-01 2.627122607781947616e-01 -8.973223784959343252e-01
2.260512820512820653e+00 -4.394481729008006821e-01 1.252896846737568404e-01 -8.894815455046195529e-01
2.379487179487179471e+00 -4.717875755226892953e-01 -4.255737839165828901e-02 -8.806784442515711575e-01
2.498461538461538289e+00 -4.398119207965246469e-01 -2.195217314405365494e-01 -8.708411718375916877e-01
2.617435897435897552e+00 -3.406555687632346063e-01 -3.794624763266820078e-01 -8.602035596881304480e-01
2.736410256410256370e+00 -1.824788293431589548e-01 -4.953796064063411553e-01 -8.492868542697906697e-01
2.855384615384615188e+00 1.531370157281852773e-02 -5.442171613174784373e-01 -8.387969660598807442e-01
2.974358974358974450e+00 2.240102418809447882e-01 -5.116968191540007815e-01 -8.294410956090235709e-01
3.093333333333333268e+00 4.096438833744683872e-01 -3.961622298613909909e-01 -8.217261010582171954e-01
3.212307692307692086e+00 5.386657547167330584e-01 -2.105063958976742255e-01 -8.157894370611016299e-01
3.331282051282051349e+00 5.843138593313881302e-01 1.849090886941023859e-02 -8.113084305291978771e-01
3.450256410256410167e+00 5.324517215554156468e-01 2.536632890450462585e-01 -8.075493230736788819e-01
3.569230769230768985e+00 3.856284167188617218e-01 4.534580997918464806e-01 -8.035248088212603168e-01
3.688205128205128247e+00 1.642622542922261286e-01 5.794781404350848319e-01 -7.982533680893068029e-01
3.807179487179487065e+00 -9.562548687161581684e-02 6.042390210892887303e-01 -7.910348310710837438e-01
3.926153846153845883e+00 -3.480624526133284102e-01 5.175090510597838422e-01 -7.816787621753487070e-01
4.045128205128205146e+00 -5.453445906879561544e-01 3.297745285834722817e-01 -7.706052122918476410e-01
4.164102564102564408e+00 -6.473754758789359576e-01 7.180952197164640338e-02 -7.587702529639163140e-01
4.283076923076922782e+00 -6.302431956473902863e-01 -2.099569629816412930e-01 -7.474590756331891406e-01
4.402051282051282044e+00 -4.922116919618471087e-01 -4.616838114948189076e-01 -7.379423242808911265e-01
4.521025641025641306e+00 -2.555575636065769429e-01 -6.325605851124941337e-01 -7.311226752615138658e-01
4.639999999999999680e+00 3.644685122779606212e-02 -6.853822944650551641e-01 -7.272589181034323502e-01
