0.000000000000000000e+00 -4.087798039976485575e-10 -2.323876730516015278e-09 -1.000000000000000000e+00
1.189743589743589708e-01 -3.918012859460628244e-02 3.068903479480331389e-02 -9.987606290953497945e-01
2.379487179487179416e-01 -7.818854813507844503e-02 6.124895142457231767e-02 -9.950550359149705759e-01
3.569230769230768985e-01 -1.168394972348215655e-01 9.156209541969448362e-02 -9.889206396138918720e-01
4.758974358974358831e-01 -1.549627572651377516e-01 1.215094091333960846e-01 -9.804186989123692131e-01
5.948717948717948678e-01 -1.923967389244358728e-01 1.509820969108892075e-01 -9.696321016589460884e-01
7.138461538461537970e-01 -2.289884807991280358e-01 1.798767121636193622e-01 -9.566644354791760119e-01
8.328205128205128371e-01 -2.645995978108093283e-01 2.081037838865494316e-01 -9.416356766667559608e-01
9.517948717948717663e-01 -2.991061181816492831e-01 2.355786201339687413e-01 -9.246814582795181980e-01
1.070769230769230695e+00 -3.323963008707480626e-01 2.622360402500814591e-01 -9.059482265999869721e-01
1.189743589743589736e+00 -3.643810614545443527e-01 2.880152485431548559e-01 -8.855905174246607725e-01
1.308717948717948776e+00 -3.949841499402600986e-01 3.128740569863262544e-01 -8.637672905542869151e-01
1.427692307692307594e+00 -4.241447266534310034e-01 3.367800810855980376e-01 -8.406406447982253116e-01
1.546666666666666634e+00 -4.518247069003607508e-01 3.597090531113324996e-01 -8.163698827158665239e-01
1.665641025641025674e+00 -4.779896585708555135e-01 3.816494833067327619e-01 -7.911164346406172054e-01
1.784615384615384492e+00 -5.026307044679446667e-01 4.026026175257949591e-01 -7.650286693573485897e-01
1.903589743589743533e+00 -5.257477754762965860e-01 4.225682728135144450e-01 -7.382549734343346604e-01
2.022564102564102573e+00 -5.473470462182403740e-01 4.415634450181318282e-01 -7.109344105682710024e-01
2.141538461538461391e+00 -5.674530132359068002e-01 4.596056878342172913e-01 -6.831941379162697059e-01
2.260512820512820653e+00 -5.860933222640940521e-01 4.767172406071002455e-01 -6.551561478651131143e-01
2.379487179487179471e+00 -6.033055555376545254e-01 4.929283651303590919e-01 -6.269274972028821002e-01
2.498461538461538289e+00 -6.191316701091003072e-01 5.082642680707532001e-01 -5.986127611033673634e-01
2.617435897435897552e+00 -6.336188252643842889e-01 5.227610039672185849e-01 -5.702996861000494411e-01
2.736410256410256370e+00 -6.468188616137193758e-01 5.364505143896305395e-01 -5.420697598501075243e-01
2.855384615384615188e+00 -6.587856639448775864e-01 5.493701471680394466e-01 -5.139913649183139865e-01
2.974358974358974450e+00 -6.695700441722252094e-01 5.615549359517176820e-01 -4.861327690471714535e-01
3.093333333333333268e+00 -6.792343341833205761e-01 5.730339922131588715e-01 -4.585473445775299917e-01
3.212307692307692086e+00 -6.878280667010612248e-01 5.838483467491542012e-01 -4.312846061204597126e-01
3.331282051282051349e+00 -6.954092517606214052e-01 5.940325102604313567e-01 -4.043809644560163452e-01
3.450256410256410167e+00 -7.020374226064236556e-01 6.036131757842693180e-01 -3.778717764540173163e-01
3.569230769230768985e+00 -7.077612275301694567e-01 6.126279901125870619e-01 -3.517859656068590968e-01
3.688205128205128247e+00 -7.126340077770083603e-01 6.211039192699527867e-01 -3.261517570660066867e-01
3.807179487179487065e+00 -7.167053819589856989e-01 6.290732443977129495e-01 -3.009857576433542237e-01
3.926153846153845883e+00 -7.200295226269578519e-01 6.365616627714896225e-01 -2.762948234810986836e-01
4.045128205128205146e+00 -7.226483238477259263e-01 6.435960539918690326e-01 -2.521022373153078977e-01
4.164102564102564408e+00 -7.246070063229674840e-01 6.502056107906660776e-01 -2.284059973281187816e-01
4.283076923076922782e+00 -7.259495235358066623e-01 6.564106022254251327e-01 -2.052176911145517368e-01
4.402051282051282044e+00 -7.267165813602334268e-01 6.622352328514621300e-01 -1.825358749290421634e-01
4.521025641025641306e+00 -7.269454057716686624e-01 6.677019357243315634e-01 -1.603630141629918127e-01
4.639999999999999680e+00 -7.266735328649955861e-01 6.728302639637838700e-01 -1.386966812649154668e-01
