0.000000000000000000e+00 3.643183440906851182e-09 -6.190146934757255853e-10 -1.000000000000000000e+00
1.189743589743589708e-01 1.470486605776331890e-03 -1.005578204661724748e-02 -9.999482464068776277e-01
2.379487179487179416e-01 4.206099169246739489e-03 -1.955510517385313299e-02 -9.997997284227725379e-01
3.569230769230768985e-01 9.270470144598478429e-03 -2.782173159763216483e-02 -9.995696228004511408e-01
4.758974358974358831e-01 1.745621508668395577e-02 -3.401727467024937696e-02 -9.992684166560833470e-01
5.948717948717948678e-01 2.910897109057595383e-02 -3.711113203857051290e-02 -9.988866492374254280e-01
7.138461538461537970e-01 4.400608524760347973e-02 -3.594416412819173567e-02 -9.983839038988547854e-01
8.328205128205128371e-01 6.125882772389625724e-02 -2.936234615801641343e-02 -9.976893069095209565e-01
9.517948717948717663e-01 7.928468983107683776e-02 -1.642600115162881624e-02 -9.967159273217036652e-01
1.070769230769230695e+00 9.586649339962627359e-02 3.330048497969863644e-03 -9.953877545021039275e-01
1.189743589743589736e+00 1.083344724174465090e-01 2.963019102681614669e-02 -9.936718077230207724e-01
1.308717948717948776e+00 1.138581410035189034e-01 6.123607332815526882e-02 -9.916068421951044209e-01
1.427692307692307594e+00 1.098475842059399576e-01 9.582437718259742554e-02 -9.893172205196908431e-01
1.546666666666666634e+00 9.442218022774623298e-02 1.300182103442494297e-01 -9.870039572736912792e-01
1.665641025641025674e+00 6.688669820849536818e-02 1.596100708351176067e-01 -9.849099760592521235e-01
1.784615384615384492e+00 2.812536927210536331e-02 1.799850885953603319e-01 -9.832654913117544471e-01
1.903589743589743533e+00 -1.917035237030247086e-02 1.867216740949673714e-01 -9.822240593726463409e-01
2.022564102564102573e+00 -7.051415957480931807e-02 1.763143164934200535e-01 -9.818032222557377953e-01
2.141538461538461391e+00 -1.199361260250560030e-01 1.468967011824270086e-01 -9.818519444167282950e-01
2.260512820512820653e+00 -1.606034043498866803e-01 9.885696868211661659e-02 -9.820541849278382474e-01
2.379487179487179471e+00 -1.856982217123949730e-01 3.523270951084034319e-02 -9.819732137847581033e-01
2.498461538461538289e+00 -1.894651101602145560e-01 -3.828427181869947793e-02 -9.811390169972743491e-01
2.617435897435897552e+00 -1.682706802723331618e-01 -1.137374449092855982e-01 -9.791552847718123509e-01
2.736410256410256370e+00 -1.215139435972400345e-01 -1.817419192522609361e-01 -9.758074807163011899e-01
2.855384615384615188e+00 -5.217566818832605757e-02 -2.326993533996262187e-01 -9.711458834109393257e-01
2.974358974358974450e+00 3.309908888871752886e-02 -2.582204810091011660e-01 -9.655163472964071181e-01
3.093333333333333268e+00 1.245199682840374827e-01 -2.525764041810313887e-01 -9.595283648986506764e-01
3.212307692307692086e+00 2.102350891800835453e-01 -2.139205991735681489e-01 -9.539567887557802717e-01
3.331282051282051349e+00 2.779022700001592683e-01 -1.450568633808869135e-01 -9.495909236051640612e-01
3.450256410256410167e+00 3.165411939169065492e-01 -5.353694652832061140e-02 -9.470635632964798933e-01
3.569230769230768985e+00 3.183835369864192466e-01 4.897522180387187118e-02 -9.466927965797988787e-01
3.688205128205128247e+00 2.804288227185777194e-01 1.481088984709736933e-01 -9.483762109120581485e-01
3.807179487179487065e+00 2.053925003343739508e-01 2.287605245979490720e-01 -9.515654236268662469e-01
3.926153846153845883e+00 1.018258742909223802e-01 2.774094550124313052e-01 -9.553376069589799569e-01
4.045128205128205146e+00 -1.670967589915205165e-02 2.844091494438214518e-01 -9.585545861630303532e-01
4.164102564102564408e+00 -1.333610542797337706e-01 2.458415928721063293e-01 -9.600893322657299001e-01
4.283076923076922782e+00 -2.304129998372819732e-01 1.646264728882618211e-01 -9.590634397545004797e-01
4.402051282051282044e+00 -2.920553954767550198e-01 5.057501766382688224e-02 -9.550603427555053315e-01
4.521025641025641306e+00 -3.070913723754120084e-01 -8.067851866801700744e-02 -9.482509492262958251e-01
4.639999999999999680e+00 -2.710670939919557210e-01 -2.098188624748217046e-01 -9.394105197538759056e-01
