0.000000000000000000e+00 1.339226481472480102e-09 -8.201668455552738332e-09 -1.000000000000000000e+00
1.189743589743589708e-01 7.814824811616034872e-02 1.922050774473320622e-01 -9.782367121355091122e-01
2.379487179487179416e-01 1.552399018435519917e-01 3.696812821299346741e-01 -9.160950381459452840e-01
3.569230769230768985e-01 2.300348639261647898e-01 5.206621232081191097e-01 -8.221833423594198109e-01
4.758974358974358831e-01 3.009674763507358408e-01 6.384649058054434612e-01 -7.083563304244072656e-01
5.948717948717948678e-01 3.662822675924335414e-01 7.221022592194608070e-01 -5.868481098066407053e-01
7.138461538461537970e-01 4.243390593032045910e-01 7.753559340206456207e-01 -4.676994142600306437e-01
8.328205128205128371e-01 4.740112269653768418e-01 8.048013929808979228e-01 -3.571973692257193189e-01
9.517948717948717663e-01 5.150093293829927088e-01 8.175188185303439159e-01 -2.577001974396348483e-01
1.070769230769230695e+00 5.480123441517191774e-01 8.192817976725690343e-01 -1.686425096217464281e-01
1.189743589743589736e+00 5.745057114297456025e-01 8.137283474061625110e-01 -8.814513017211889068e-02
1.308717948717948776e+00 5.963869530204910507e-01 8.025530283151237620e-01 -1.453733685313955172e-02
1.427692307692307594e+00 6.154419121831814499e-01 7.863980903955569701e-01 5.281503602885188886e-02
1.546666666666666634e+00 6.328873253994093950e-01 7.658669766289001313e-01 1.134974835497613854e-01
1.665641025641025674e+00 6.491389277382224599e-01 7.421594460419591588e-01 1.667287785703912006e-01
1.784615384615384492e+00 6.638728868783598802e-01 7.170866271403200098e-01 2.122269453077186008e-01
1.903589743589743533e+00 6.763717315470798574e-01 6.925412655674747509e-01 2.507764889166193001e-01
2.022564102564102573e+00 6.859973812060595755e-01 6.697887068946317690e-01 2.842039752196323654e-01
2.141538461538461391e+00 6.926022362630505080e-01 6.489882511625539863e-01 3.147981377359298505e-01
2.260512820512820653e+00 6.967192193543172429e-01 6.292279553402957415e-01 3.444361554871704922e-01
2.379487179487179471e+00 6.994424315567440154e-01 6.090647373423382360e-01 3.739017044976689630e-01
2.498461538461538289e+00 7.020445365898456691e-01 5.873325901786268233e-01 4.026863286923003660e-01
2.617435897435897552e+00 7.055062754936872738e-01 5.637955061459904993e-01 4.293928540849754616e-01
2.736410256410256370e+00 7.101364713547181351e-01 5.393431295861348396e-01 4.525463296637084465e-01
2.855384615384615188e+00 7.154619151788900178e-01 5.156280311292364971e-01 4.714077170812150386e-01
2.974358974358974450e+00 7.204384947286012197e-01 4.942896339805185613e-01 4.864458862245167325e-01
3.093333333333333268e+00 7.239080409411460248e-01 4.761652544068774584e-01 4.992068196984410511e-01
3.212307692307692086e+00 7.251225528360569772e-01 4.608465220002389007e-01 5.116655170702933964e-01
3.331282051282051349e+00 7.240846945406717028e-01 4.468325088592515759e-01 5.253818720761883609e-01
3.450256410256410167e+00 7.216025550629814322e-01 4.321901208063645417e-01 5.408195114629678057e-01
3.569230769230768985e+00 7.189816771192067968e-01 4.154508822877776009e-01 5.571808273916867282e-01
3.688205128205128247e+00 7.174904263079383560e-01 3.963197367828794615e-01 5.728202042094914237e-01
3.807179487179487065e+00 7.178378824478957032e-01 3.758298314826942210e-01 5.860424669794577213e-01
3.926153846153845883e+00 7.198523945844457206e-01 3.559136212496364360e-01 5.959221986655054426e-01
4.045128205128205146e+00 7.225451592291216585e-01 3.385124072996523736e-01 6.027629797894178409e-01
4.164102564102564408e+00 7.245197438140563717e-01 3.246632020490749504e-01 6.079888214615072339e-01
4.283076923076922782e+00 7.245683723299072287e-01 3.140020172590322622e-01 6.135054807996426218e-01
4.402051282051282044e+00 7.222067253826685018e-01 3.048727127370238765e-01 6.208508547008623202e-01
4.521025641025641306e+00 7.179061899059145935e-01 2.950549727808460254e-01 6.305070633754156217e-01
4.639999999999999680e+00 7.129274974570840584e-01 2.827561474289332910e-01 6.416926542828736979e-01
