0.000000000000000000e+00 1.908632315429337269e-09 -1.453070004570244258e-09 -1.000000000000000000e+00
1.189743589743589708e-01 -1.732355870111691454e-01 -3.587094616200904307e-01 -9.172311559858945529e-01
2.379487179487179416e-01 -2.767127684052132497e-01 -6.715099475330519319e-01 -6.873835221362967207e-01
3.569230769230768985e-01 -2.659768960463331222e-01 -8.943057122897678513e-01 -3.598081286723046057e-01
4.758974358974358831e-01 -1.383289917093966925e-01 -9.903794394670905055e-01 8.906110144702803627e-04
5.948717948717948678e-01 6.550288031562936930e-02 -9.402920133140054704e-01 3.339887018347418302e-01
7.138461538461537970e-01 2.755943677031896244e-01 -7.525252342808000927e-01 5.981170352547404701e-01
8.328205128205128371e-01 4.183640960397553288e-01 -4.685571296543709074e-01 7.780866109981380285e-01
9.517948717948717663e-01 4.442586063735811663e-01 -1.568401131651975255e-01 8.820604460244769740e-01
1.070769230769230695e+00 3.468813451551453486e-01 1.052716711029912378e-01 9.319804962705331430e-01
1.189743589743589736e+00 1.655341802063974299e-01 2.564330715623026613e-01 9.522802072296252529e-01
1.308717948717948776e+00 -3.058173618900247859e-02 2.731055081000693385e-01 9.614965041764919063e-01
1.427692307692307594e+00 -1.705229194964036632e-01 1.781830724301277646e-01 9.691080510843047557e-01
1.546666666666666634e+00 -2.104326702707749741e-01 3.128547545107102090e-02 9.771066141926936233e-01
1.665641025641025674e+00 -1.504630700722432990e-01 -9.626996084910868778e-02 9.839163136539920140e-01
1.784615384615384492e+00 -3.214403432599485799e-02 -1.512058490993966609e-01 9.879788097592617779e-01
1.903589743589743533e+00 8.256325710373335625e-02 -1.194124962452085548e-01 9.894051906889980152e-01
2.022564102564102573e+00 1.406470313800436134e-01 -2.865265981192138822e-02 9.896444400011825682e-01
2.141538461538461391e+00 1.218647962672576995e-01 6.814726723094480243e-02 9.902038371421392204e-01
2.260512820512820653e+00 4.563017229808898068e-02 1.206102551033729209e-01 9.916500735294486724e-01
2.379487179487179471e+00 -4.187256667366438118e-02 1.057012740143948581e-01 9.935154169754216724e-01
2.498461538461538289e+00 -9.319353767362240082e-02 3.727448958312594429e-02 9.949495721637202639e-01
2.617435897435897552e+00 -8.425848839646882249e-02 -4.384956888795198821e-02 9.954781992601202667e-01
2.736410256410256370e+00 -2.535990609153081915e-02 -9.333736272439274728e-02 9.953110668084016455e-01
2.855384615384615188e+00 4.674360420701250546e-02 -8.737188976193274725e-02 9.950780248230894909e-01
2.974358974358974450e+00 9.057545656477804241e-02 -3.428200385336958173e-02 9.952989186291971713e-01
3.093333333333333268e+00 8.316240990102204134e-02 3.200150326613614843e-02 9.960216328532518482e-01
3.212307692307692086e+00 3.182963987661400346e-02 7.241293625737600659e-02 9.968663420302876776e-01
3.331282051282051349e+00 -3.159722392559495552e-02 6.507599124808098601e-02 9.973795938630797275e-01
3.450256410256410167e+00 -7.019617227026569983e-02 1.689871065414132525e-02 9.973897212662463652e-01
3.569230769230768985e+00 -6.345558873968708269e-02 -4.185942663195413305e-02 9.971060465573520215e-01
3.688205128205128247e+00 -1.838947346663761390e-02 -7.624592763675928919e-02 9.969190816713153769e-01
3.807179487179487065e+00 3.580743317759312039e-02 -6.729935664107890292e-02 9.970897220811537620e-01
3.926153846153845883e+00 6.594203727819389349e-02 -2.254331531476055223e-02 9.975684409778301509e-01
4.045128205128205146e+00 5.467542545732721748e-02 2.957403002789221053e-02 9.980658241897846228e-01
4.164102564102564408e+00 1.024778261300432133e-02 5.746431836981303470e-02 9.982946876136625791e-01
4.283076923076922782e+00 -3.942778139648566577e-02 4.548898423103074629e-02 9.981861715983587624e-01
4.402051282051282044e+00 -6.432010748702568503e-02 2.799022144170243420e-03 9.979250892787385752e-01
4.521025641025641306e+00 -5.059207922932237866e-02 -4.307285294744906540e-02 9.977898311133001075e-01
4.639999999999999680e+00 -8.482237153098849680e-03 -6.362394519611735966e-02 9.979375936973691186e-01
