0.000000000000000000e+00 2.497296740758576325e-09 4.399949855064739462e-09 -1.000000000000000000e+00
1.189743589743589708e-01 8.095689054520054800e-03 -6.254532223720171008e-03 -9.999476236306942267e-01
2.379487179487179416e-01 1.619961310593492909e-02 -1.250056869482693220e-02 -9.997905475572778089e-01
3.569230769230768985e-01 2.430382268230410828e-02 -1.874632206581661187e-02 -9.995287162338977183e-01
4.758974358974358831e-01 3.240767582384031231e-02 -2.498726212360809218e-02 -9.991621790563778305e-01
5.948717948717948678e-01 4.051022627790677733e-02 -3.122156608148686854e-02 -9.986910148459219316e-01
7.138461538461537970e-01 4.860889583554466042e-02 -3.745189757803489561e-02 -9.981152564709870889e-01
8.328205128205128371e-01 5.670858863140269823e-02 -4.367331869072046957e-02 -9.974348292044876718e-01
9.517948717948717663e-01 6.480445610859759953e-02 -4.988358797448034371e-02 -9.966500882393463101e-01
1.070769230769230695e+00 7.289983364558157153e-02 -5.608641284296227159e-02 -9.957606357803523434e-01
1.189743589743589736e+00 8.099287707934504921e-02 -6.227414036834793415e-02 -9.947669713660500790e-01
1.308717948717948776e+00 8.907942246848633838e-02 -6.844975607882350377e-02 -9.936692887324677370e-01
1.427692307692307594e+00 9.716916793583862955e-02 -7.461006145985425719e-02 -9.924669187721987251e-01
1.546666666666666634e+00 1.052547031535600308e-01 -8.075064939007749187e-02 -9.911608337978072836e-01
1.665641025641025674e+00 1.133384012295031579e-01 -8.687517684124593242e-02 -9.897505003766897680e-01
1.784615384615384492e+00 1.214208098777060929e-01 -9.297805636165419607e-02 -9.882362748186260815e-01
1.903589743589743533e+00 1.294980305543970700e-01 -9.905691186339429799e-02 -9.866188619784613811e-01
2.022564102564102573e+00 1.375741816525847816e-01 -1.051104467918390073e-01 -9.848978891074647857e-01
2.141538461538461391e+00 1.456476702050084060e-01 -1.111372380490513734e-01 -9.830737037054065874e-01
2.260512820512820653e+00 1.537147768442346796e-01 -1.171302984852595069e-01 -9.811477051537723648e-01
2.379487179487179471e+00 1.617848338197146740e-01 -1.230918108261051247e-01 -9.791182536041227458e-01
2.498461538461538289e+00 1.698472210134915894e-01 -1.290163435788399815e-01 -9.769877718641620801e-01
2.617435897435897552e+00 1.779061692160194830e-01 -1.349026924677431960e-01 -9.747558571342019862e-01
2.736410256410256370e+00 1.859617395421183650e-01 -1.407475549653152691e-01 -9.724230556749312582e-01
2.855384615384615188e+00 1.940083011966735049e-01 -1.465472913536159105e-01 -9.699911502177159806e-01
2.974358974358974450e+00 2.020483039326844144e-01 -1.522965417285708778e-01 -9.674607625297122482e-01
3.093333333333333268e+00 2.100823102357390337e-01 -1.579985697665292066e-01 -9.648315265548869091e-01
3.212307692307692086e+00 2.181032665157217332e-01 -1.636472797623927944e-01 -9.621062570981110396e-01
3.331282051282051349e+00 2.261132173980310300e-01 -1.692362045657100633e-01 -9.592860653495210999e-01
3.450256410256410167e+00 2.341113528910891417e-01 -1.747680153699313621e-01 -9.563711449734858538e-01
3.569230769230768985e+00 2.420930067473116565e-01 -1.802383525832781108e-01 -9.533639286968336179e-01
3.688205128205128247e+00 2.500533759214274010e-01 -1.856422251780858179e-01 -9.502672564937901800e-01
3.807179487179487065e+00 2.579977143030468545e-01 -1.909821679273807082e-01 -9.470799822741378104e-01
3.926153846153845883e+00 2.659211968976712415e-01 -1.962543963423948601e-01 -9.438048244097630990e-01
4.045128205128205146e+00 2.738207415377378329e-01 -2.014556623229861176e-01 -9.404441242007319790e-01
4.164102564102564408e+00 2.816919112092943767e-01 -2.065804431123294815e-01 -9.370013010083518834e-01
4.283076923076922782e+00 2.895363518918180334e-01 -2.116333285213892190e-01 -9.334758706894584757e-01
4.402051282051282044e+00 2.973500290846600724e-01 -2.166132473212974141e-01 -9.298702824064812855e-01
4.521025641025641306e+00 3.051281678052258917e-01 -2.215143587283560367e-01 -9.261885259911255552e-01
4.639999999999999680e+00 3.128714613019990542e-01 -2.263355155356669146e-01 -9.224318923882749433e-01
