1.000000000000000056e-01 -7.241261798135500971e-03 2.791718368695037533e-01 -9.600235698837966680e-01
2.000000000000000111e-01 -4.050890633668580154e-02 5.296967777699190805e-01 -8.454866804418550430e-01
2.999999999999999889e-01 -1.175964859623060965e-01 7.247553795759607009e-01 -6.711012881414423203e-01
4.000000000000000222e-01 -2.421966332901781815e-01 8.415192273587972505e-01 -4.571769618864570117e-01
5.000000000000000000e-01 -4.018138349588301073e-01 8.639074134692779072e-01 -2.252267928037667011e-01
5.999999999999999778e-01 -5.696119831062476102e-01 7.860359583330650546e-01 5.644332401820897037e-03
6.999999999999999556e-01 -7.099071745578151571e-01 6.158065446843385971e-01 2.207621817719777890e-01
7.999999999999999334e-01 -7.865998821343880287e-01 3.773688298025021925e-01 4.104789047949499725e-01
8.999999999999999112e-01 -7.734566259648174569e-01 1.103307943510749012e-01 5.697879412039847935e-01
9.999999999999998890e-01 -6.638685770734533698e-01 -1.362196579954974562e-01 6.974679420456612045e-01
1.099999999999999867e+00 -4.762300883896585235e-01 -3.151820058278415604e-01 7.952198010245397075e-01
1.199999999999999956e+00 -2.513811729247587001e-01 -3.954852494048690659e-01 8.666701388952723351e-01
1.300000000000000044e+00 -4.090496054914122270e-02 -3.729582531660291522e-01 9.165196399900953361e-01
1.399999999999999911e+00 1.100163377494151329e-01 -2.722528810886596373e-01 9.497135217104446525e-01
1.500000000000000000e+00 1.780998245528933599e-01 -1.375913557007622523e-01 9.708214341955943016e-01
1.599999999999999867e+00 1.684777765984422637e-01 -1.580707891610197424e-02 9.836623348270888689e-01
1.699999999999999956e+00 1.093952587374943664e-01 6.057944162120344062e-02 9.911504535716370023e-01
1.800000000000000044e+00 3.799235579222191156e-02 8.267876788425849999e-02 9.953492737107543231e-01
1.899999999999999911e+00 -1.545203836435124836e-02 6.347084129382064843e-02 9.976201873140607690e-01
2.000000000000000000e+00 -3.754490132668816815e-02 2.720824482032914785e-02 9.988097960736155301e-01
2.099999999999999645e+00 -3.239912553774600135e-02 -3.687734709392449101e-03 9.994158105261390368e-01
2.199999999999999734e+00 -1.435371442423700149e-02 -1.768678336788549396e-02 9.997172106149820880e-01
2.299999999999999822e+00 2.042466420011412528e-03 -1.570990983185575202e-02 9.998643573173233712e-01
2.399999999999999911e+00 9.096356428330853311e-03 -6.174543126505398390e-03 9.999352406834770557e-01
2.500000000000000000e+00 7.331491566501751635e-03 2.128709448007155142e-03 9.999690505589896583e-01
2.600000000000000089e+00 1.957818390173339442e-03 4.940492543226426836e-03 9.999851350091006896e-01
2.699999999999999734e+00 -1.980747216990996068e-03 3.135161803744107318e-03 9.999928215071109960e-01
2.799999999999999822e+00 -2.607028281945116509e-03 9.586477052636534386e-05 9.999964756265612431e-01
2.899999999999999911e+00 -1.060071107074748911e-03 -1.517202750151302884e-03 9.999982386230124032e-01
3.000000000000000000e+00 5.253616429844193024e-04 -1.207379298411338352e-03 9.999991137210360037e-01
