1.000000000000000056e-01 -1.290427151836942843e-01 9.684599358574212669e-02 -9.868985921203853318e-01
2.000000000000000111e-01 -2.478128057177845789e-01 1.945446285146938126e-01 -9.490738647821063134e-01
2.999999999999999889e-01 -3.469472773305209978e-01 2.934309551764865409e-01 -8.908006854393579754e-01
4.000000000000000222e-01 -4.188171934080501813e-01 3.928817435345812736e-01 -8.186794817858030759e-01
5.000000000000000000e-01 -4.582069372310035860e-01 4.910207860776584221e-01 -7.409082197210961063e-01
5.999999999999999778e-01 -4.627880352792794194e-01 5.846164556604105389e-01 -6.663713930891499437e-01
6.999999999999999556e-01 -4.333389428263084708e-01 6.691921439353294421e-01 -6.036548970474502340e-01
7.999999999999999334e-01 -3.736958406970322666e-01 7.393727260862887896e-01 -5.600708792476279951e-01
8.999999999999999112e-01 -2.904445003278443016e-01 7.893980478027083914e-01 -5.408259551681438015e-01
9.999999999999998890e-01 -1.923556169829213902e-01 8.137944254373981057e-01 -5.483957959521246206e-01
1.099999999999999867e+00 -8.964147487445620066e-02 8.080908090620022577e-01 -5.821972602895201243e-01
1.199999999999999956e+00 6.927713626698070448e-03 7.695173485252456702e-01 -6.385883310488770226e-01
1.300000000000000044e+00 8.695970404536809695e-02 6.975947393942547592e-01 -7.111958866522564149e-01
1.399999999999999911e+00 1.413605517278971324e-01 5.945284595174089581e-01 -7.915510752398846606e-01
1.500000000000000000e+00 1.631408558403092401e-01 4.653504939315113442e-01 -8.699620560863511320e-01
1.599999999999999867e+00 1.480603929574615119e-01 3.177751345314319686e-01 -9.365346143957559155e-01
1.699999999999999956e+00 9.503353576795381397e-02 1.617430532582300740e-01 -9.822463091515506450e-01
1.800000000000000044e+00 6.275480781064951379e-03 8.709089417773567196e-03 -9.999423833915100923e-01
1.899999999999999911e+00 -1.128366939627292453e-01 -1.292957941715553449e-01 -9.851652035124855988e-01
2.000000000000000000e+00 -2.541818690562210326e-01 -2.407372139793287902e-01 -9.367161634636784751e-01
2.099999999999999645e+00 -4.075382676872423837e-01 -3.156728175580460483e-01 -8.568916106186494908e-01
2.199999999999999734e+00 -5.614349967514367101e-01 -3.467799316687969480e-01 -7.513550582773248498e-01
2.299999999999999822e+00 -7.041045382619314230e-01 -3.301896999333787108e-01 -6.286585407902585132e-01
2.399999999999999911e+00 -8.244817661355772209e-01 -2.660310136883917709e-01 -4.994570218249825833e-01
2.500000000000000000e+00 -9.131563943835259156e-01 -1.586436029985159590e-01 -3.754698473658864555e-01
2.600000000000000089e+00 -9.631879623971784099e-01 -1.637963152611424111e-02 -2.683293808119701640e-01
2.699999999999999734e+00 -9.707295521305063790e-01 1.489708984423454563e-01 -1.883926971942203599e-01
2.799999999999999822e+00 -9.353915128467717999e-01 3.231158708444313854e-01 -1.436622827200095542e-01
2.899999999999999911e+00 -8.603155523873716737e-01 4.904692048485695954e-01 -1.389140369651868101e-01
3.000000000000000000e+00 -7.519474948130955294e-01 6.355312723218589088e-01 -1.751427036942673765e-01
