1.000000000000000056e-01 -1.912940289347691558e-01 1.463146790961898647e-01 -9.705661282096005316e-01
2.000000000000000111e-01 -3.630574987010146137e-01 2.905659251130267018e-01 -8.853026014277525224e-01
2.999999999999999889e-01 -4.977038106134773487e-01 4.304199731456296307e-01 -7.530136553009394440e-01
4.000000000000000222e-01 -5.813471751725447501e-01 5.630560337527418246e-01 -5.873698735806935911e-01
5.000000000000000000e-01 -6.051978113487790356e-01 6.850537727415209055e-01 -4.055082534667538985e-01
5.999999999999999778e-01 -5.664574839632577907e-01 7.924172047473317937e-01 -2.262761604381287595e-01
6.999999999999999556e-01 -4.686270562392373384e-01 8.807521692187384454e-01 -6.829574146483442798e-02
7.999999999999999334e-01 -3.212037892867853905e-01 9.455838300875095692e-01 5.195532402092643137e-02
8.999999999999999112e-01 -1.387790449717106744e-01 9.827986334138767432e-01 1.218492132099708580e-01
9.999999999999998890e-01 6.035314707288080838e-02 9.891508507207805723e-01 1.339331815788148139e-01
1.099999999999999867e+00 2.559789848751151675e-01 9.627843090352273814e-01 8.672447901207948340e-02
1.199999999999999956e+00 4.279152612092145258e-01 9.036929491182856822e-01 -1.508581525727854637e-02
1.300000000000000044e+00 5.580015752154590114e-01 8.140563528735476062e-01 -1.610791526079118907e-01
1.399999999999999911e+00 6.318785657117262922e-01 6.983977903377240892e-01 -3.361101018010210773e-01
1.500000000000000000e+00 6.404286615706740182e-01 5.635157904494186853e-01 -5.218247597458459675e-01
1.599999999999999867e+00 5.807098235781334994e-01 4.181694789880981977e-01 -6.985058233602481348e-01
1.699999999999999956e+00 4.562986489766561182e-01 2.725431908908437229e-01 -8.470606535482388955e-01
1.800000000000000044e+00 2.770106192094758946e-01 1.374974136242289036e-01 -9.509782213474438084e-01
1.899999999999999911e+00 5.801356427068068283e-02 2.368635379119953324e-02 -9.980347603002095447e-01
2.000000000000000000e+00 -1.815791907023917018e-01 -5.938188246848288832e-02 -9.815817795471246665e-01
2.099999999999999645e+00 -4.204879064842511061e-01 -1.042621617258972788e-01 -9.012875913762904423e-01
2.199999999999999734e+00 -6.372920532662725845e-01 -1.063623365805714260e-01 -7.632469411353313138e-01
2.299999999999999822e+00 -8.124533717984389058e-01 -6.451595113448081731e-02 -5.794456082304870748e-01
2.399999999999999911e+00 -9.301730024298279220e-01 1.872054851282256571e-02 -3.666438759603364850e-01
2.500000000000000000e+00 -9.799239643650610176e-01 1.371127549204904927e-01 -1.447381222821965407e-01
2.600000000000000089e+00 -9.574560606770259330e-01 2.811255405896353476e-01 6.516388656351666808e-02
2.699999999999999734e+00 -8.652320153687897974e-01 4.386379655244871945e-01 2.428380236846506834e-01
2.799999999999999822e+00 -7.122153743788457447e-01 5.959328723914603110e-01 3.709626440886635290e-01
2.899999999999999911e+00 -5.130489637987779572e-01 7.388748864293451790e-01 4.368577257220655485e-01
3.000000000000000000e+00 -2.866868639966230203e-01 8.541859991570600608e-01 4.337936456708019195e-01
