1.000000000000000056e-01 4.714896362737294039e-02 8.780462358760970920e-02 -9.950212677216099255e-01
2.000000000000000111e-01 8.939681486329058291e-02 1.737917557683018033e-01 -9.807163886891788751e-01
2.999999999999999889e-01 1.223384537932337979e-01 2.560067636322437834e-01 -9.589024139594600760e-01
4.000000000000000222e-01 1.425082567553337398e-01 3.322509360746441764e-01 -9.323629722341757464e-01
5.000000000000000000e-01 1.477484457019846431e-01 4.000428458597933279e-01 -9.045087712786515910e-01
5.999999999999999778e-01 1.374572202328809833e-01 4.566571621821077231e-01 -8.789594691102146085e-01
6.999999999999999556e-01 1.126933731449255155e-01 4.992575784781688730e-01 -8.590937513019601957e-01
7.999999999999999334e-01 7.612905392624115530e-02 5.251199874848703208e-01 -8.476162845401576940e-01
8.999999999999999112e-01 3.185914624397766237e-02 5.319134862601974101e-01 -8.461991712640380969e-01
9.999999999999998890e-01 -1.493884426267265420e-02 5.180196480689809313e-01 -8.552382562361048324e-01
1.099999999999999867e+00 -5.844553513937685019e-02 4.828585856417121347e-01 -8.737457898630354158e-01
1.199999999999999956e+00 -9.271123281650187065e-02 4.271532140922289500e-01 -8.994135638376096198e-01
1.300000000000000044e+00 -1.122154013193659983e-01 3.531121003637631151e-01 -9.288269743643822185e-01
1.399999999999999911e+00 -1.123820701655920962e-01 2.644844763043536773e-01 -9.578195193820454589e-01
1.500000000000000000e+00 -9.005137353474071404e-02 1.664722373796492794e-01 -9.819255288829416006e-01
1.599999999999999867e+00 -4.384363560006822313e-02 6.546140142784329097e-02 -9.968914384415691332e-01
1.699999999999999956e+00 2.563512288570522768e-02 -3.136908201069998209e-02 -9.991790736738598300e-01
1.800000000000000044e+00 1.157271923141596770e-01 -1.165869935213182662e-01 -9.864150698440344867e-01
1.899999999999999911e+00 2.218583420063729716e-01 -1.831262580617999958e-01 -9.577283797192182035e-01
2.000000000000000000e+00 3.378256841301414126e-01 -2.249283042512193465e-01 -9.139371230090420628e-01
2.099999999999999645e+00 4.562455866827014872e-01 -2.375634084889837461e-01 -8.575567569424943359e-01
2.199999999999999734e+00 5.691163232180015408e-01 -2.187413060454395930e-01 -7.926278140269422678e-01
2.299999999999999822e+00 6.684635595837591371e-01 -1.686771430726345389e-01 -7.243648879180382139e-01
2.399999999999999911e+00 7.469991720611565134e-01 -9.024920758930196629e-02 -6.586708711975299835e-01
2.500000000000000000e+00 7.987551471900407041e-01 1.108366489323858728e-02 -6.015541248257771922e-01
2.600000000000000089e+00 8.196313533583335920e-01 1.275864833324937830e-01 -5.585034762466233316e-01
2.699999999999999734e+00 8.077995861532846211e-01 2.498161423874874776e-01 -5.339023531882095552e-01
2.799999999999999822e+00 7.639424410273149002e-01 3.673360513049669929e-01 -5.305244308547378829e-01
2.899999999999999911e+00 6.912764325709178648e-01 4.696089161936585210e-01 -5.491851776685201525e-01
3.000000000000000000e+00 5.953844188706746143e-01 5.469085658476566802e-01 -5.885647057226524037e-01
