0.000000000000000000e+00 3.886289836421807685e-09 -5.142406466731650602e-10 -1.000000000000000000e+00
6.153846153846153494e-02 1.936539454477029243e-02 -1.137243346378459946e-01 -9.933231091931595813e-01
1.230769230769230699e-01 3.917076578856497349e-02 -2.256608493789907799e-01 -9.734171267352965673e-01
1.846153846153845979e-01 5.980146519642523528e-02 -3.340553896397482903e-01 -9.406528626091132939e-01
2.461538461538461398e-01 8.160164839241998425e-02 -4.372355701940566219e-01 -8.956350575613389875e-01
3.076923076923076539e-01 1.048344260647307846e-01 -5.336370347798616853e-01 -8.391877240000878979e-01
3.692307692307691958e-01 1.296624599023050162e-01 -6.218416504797714683e-01 -7.723304356788230907e-01
4.307692307692307376e-01 1.561372094358855489e-01 -7.006174020574220673e-01 -6.962391581927992457e-01
4.923076923076922795e-01 1.841771037960747703e-01 -7.689179625236175486e-01 -6.122381525364534172e-01
5.538461538461537659e-01 2.135852828132449033e-01 -8.259312993278439263e-01 -5.217370391420572684e-01
6.153846153846153078e-01 2.440329692446908116e-01 -8.710838157837715867e-01 -4.262051221256816236e-01
6.769230769230768496e-01 2.750827596121966367e-01 -9.040471504101891265e-01 -3.271352301463393286e-01
7.384615384615383915e-01 3.061932438202776829e-01 -9.247450953862074163e-01 -2.260110604812295698e-01
7.999999999999999334e-01 3.367545997430988480e-01 -9.333505566643939266e-01 -1.242641631085825565e-01
8.615384615384614753e-01 3.661006347183985987e-01 -9.302786649390606399e-01 -2.324511091157756629e-02
9.230769230769230171e-01 3.935429066088512728e-01 -9.161691295734233353e-01 7.580595181336442778e-02
9.846153846153845590e-01 4.183974087380709639e-01 -8.918642393425196824e-01 1.717859540073064517e-01
1.046153846153845990e+00 4.400166828571956956e-01 -8.583855146706105277e-01 2.637206196337704145e-01
1.107692307692307532e+00 4.578142319760165613e-01 -8.169016140482431299e-01 3.508094934901465622e-01
1.169230769230769074e+00 4.713009815074848396e-01 -7.686909224732175749e-01 4.324113102155884847e-01
1.230769230769230616e+00 4.800868416817251627e-01 -7.151113710437282389e-01 5.080579006678382914e-01
1.292307692307692157e+00 4.839124081747963602e-01 -6.575600370615590773e-01 5.774381797475348632e-01
1.353846153846153699e+00 4.826705622212803526e-01 -5.974326832233814999e-01 6.403867974348915748e-01
1.415384615384615241e+00 4.763798916609949807e-01 -5.360839209390002580e-01 6.968994181873440219e-01
1.476923076923076783e+00 4.652126747851940136e-01 -4.748066173594553963e-01 7.470803724872266960e-01
1.538461538461538325e+00 4.494737822930302551e-01 -4.147805412306448947e-01 7.911538192513526413e-01
1.599999999999999867e+00 4.295867909891827874e-01 -3.570634904011825705e-01 8.294308593671502194e-01
1.661538461538461409e+00 4.060956737468928712e-01 -3.025604074902823459e-01 8.622869340199350585e-01
1.723076923076922951e+00 3.796125225334364139e-01 -2.520115342694118077e-01 8.901574806666485706e-01
1.784615384615384492e+00 3.508190900820081781e-01 -2.059777132677299560e-01 9.135072544736475564e-01
1.846153846153846034e+00 3.204156212984797247e-01 -1.648468069770644973e-01 9.328216166432709011e-01
1.907692307692307576e+00 2.891294584798122513e-01 -1.288287752007822307e-01 9.485802914135686992e-01
1.969230769230769118e+00 2.576533501300859452e-01 -9.796545979050058639e-02 9.612570778813127603e-01
2.030769230769230660e+00 2.266414768413992364e-01 -7.215447740756505968e-02 9.713008632867647929e-01
2.092307692307691980e+00 1.966886382945338407e-01 -5.116008527079461687e-02 9.791294733362316816e-01
2.153846153846153744e+00 1.683042193428910815e-01 -3.462680828516559450e-02 9.851259989178120513e-01
2.215384615384615064e+00 1.418997109841493853e-01 -2.212522882168874508e-02 9.896331422540567413e-01
2.276923076923076827e+00 1.178001502712386905e-01 -1.316196499532294728e-02 9.929495983246369173e-01
2.338461538461538147e+00 9.621303263097714942e-02 -7.195237564155645971e-03 9.953343552467063260e-01
2.399999999999999911e+00 7.725464224979183836e-02 -3.692640545888102588e-03 9.970042305863352494e-01
