0.000000000000000000e+00 2.273030121650543450e-09 -5.611274053081853536e-09 -1.000000000000000000e+00
6.153846153846153494e-02 -8.580130289367945973e-02 -6.453102037627107823e-02 -9.942198485518759510e-01
1.230769230769230699e-01 -1.702808952316198499e-01 -1.285277819003469157e-01 -9.769766977604075198e-01
1.846153846153845979e-01 -2.521533286552249953e-01 -1.914372910903193725e-01 -9.485610483652507918e-01
2.461538461538461398e-01 -3.301996596009182938e-01 -2.527274871943536172e-01 -9.094469298813790958e-01
3.076923076923076539e-01 -4.032900611722231021e-01 -3.118764860027810615e-01 -8.602825071200143059e-01
3.692307692307691958e-01 -4.704204980599714370e-01 -3.683849031145799424e-01 -8.018678130081643429e-01
4.307692307692307376e-01 -5.307247856801974306e-01 -4.217776315350098004e-01 -7.351386339861891717e-01
4.923076923076922795e-01 -5.835040001908426976e-01 -4.716071019455237989e-01 -6.611376179889558724e-01
5.538461538461537659e-01 -6.282295673325535290e-01 -5.174570409796551695e-01 -5.809976003049349691e-01
6.153846153846153078e-01 -6.645590417269710004e-01 -5.589649214480971740e-01 -4.958943361480349643e-01
6.769230769230768496e-01 -6.923319821822895292e-01 -5.958078626747767004e-01 -4.070386611584616565e-01
7.384615384615383915e-01 -7.115707973414548970e-01 -6.277158409152902019e-01 -3.156428212370946951e-01
7.999999999999999334e-01 -7.224684312490896598e-01 -6.544852543840057324e-01 -2.228870487978248938e-01
8.615384615384614753e-01 -7.253773413464104092e-01 -6.759753342432098799e-01 -1.299039933549142045e-01
9.230769230769230171e-01 -7.207934526461617919e-01 -6.921136857754575100e-01 -3.775353231955162064e-02
9.846153846153845590e-01 -7.093358520819598168e-01 -7.028980703429940080e-01 5.260065600622836068e-02
1.046153846153845990e+00 -6.917200782386115909e-01 -7.083984159991235652e-01 1.403032794246479309e-01
1.107692307692307532e+00 -6.687357816257559762e-01 -7.087583149237142166e-01 2.245981287696281470e-01
1.169230769230769074e+00 -6.412249031936427812e-01 -7.041866685658315639e-01 3.048643458649354376e-01
1.230769230769230616e+00 -6.100466997958282622e-01 -6.949626829540120898e-01 3.806058250477970528e-01
1.292307692307692157e+00 -5.760620798932125641e-01 -6.814205767558627613e-01 4.514530366591440469e-01
1.353846153846153699e+00 -5.401156541165278435e-01 -6.639450435889798774e-01 5.171497544919938516e-01
1.415384615384615241e+00 -5.029982788486571099e-01 -6.429690062522688265e-01 5.775602957845815677e-01
1.476923076923076783e+00 -4.654537727996936880e-01 -6.189482674568700382e-01 6.326521296492753077e-01
1.538461538461538325e+00 -4.281440843515886274e-01 -5.923727339304130091e-01 6.824811791168320374e-01
1.599999999999999867e+00 -3.916513569655264426e-01 -5.637334046697040080e-01 7.271916921533615463e-01
1.661538461538461409e+00 -3.564651076337891356e-01 -5.335274354841292865e-01 7.669912140308290383e-01
1.723076923076922951e+00 -3.229874229074772285e-01 -5.022363075421443224e-01 8.021425857825387196e-01
1.784615384615384492e+00 -2.915235951125794700e-01 -4.703261083655838615e-01 8.329482030044262908e-01
1.846153846153846034e+00 -2.622932732678807111e-01 -4.382292216908981741e-01 8.597401986414088260e-01
1.907692307692307576e+00 -2.354325829605201925e-01 -4.063427173253851832e-01 8.828665246162097358e-01
1.969230769230769118e+00 -2.109915327875860336e-01 -3.750197089296324338e-01 9.026845324377215096e-01
2.030769230769230660e+00 -1.889764959222378637e-01 -3.445733794931745697e-01 9.195400964250443065e-01
2.092307692307691980e+00 -1.693113683335461528e-01 -3.152563481494872755e-01 9.337796037070276167e-01
2.153846153846153744e+00 -1.518917778821422260e-01 -2.872859760934568518e-01 9.457236361502445732e-01
2.215384615384615064e+00 -1.365708020488232699e-01 -2.608105004348228451e-01 9.556799095135432021e-01
2.276923076923076827e+00 -1.231792827589933553e-01 -2.359462988561767394e-01 9.639264636605850978e-01
2.338461538461538147e+00 -1.115372470202620897e-01 -2.127638476760824182e-01 9.707158316092237005e-01
2.399999999999999911e+00 -1.014474625210294023e-01 -1.912843274995787990e-01 9.762771814711839191e-01
