0.000000000000000000e+00 1.919092071591030371e-09 -2.318980472111579119e-09 -1.000000000000000000e+00
6.153846153846153494e-02 7.597847590790392236e-02 -7.994851806619046597e-02 -9.938982131929123831e-01
1.230769230769230699e-01 1.516398210480750797e-01 -1.581790085113873312e-01 -9.756951685429380294e-01
1.846153846153845979e-01 2.265996588277710833e-01 -2.330344359194129189e-01 -9.456964892403909584e-01
2.461538461538461398e-01 3.004789014500200417e-01 -3.029267024583216505e-01 -9.044003811418194205e-01
3.076923076923076539e-01 3.728566243806183955e-01 -3.663726098876228798e-01 -8.524899241251525650e-01
3.692307692307691958e-01 4.432661653428862092e-01 -4.220426032070082045e-01 -7.908116419668170805e-01
4.307692307692307376e-01 5.111932326090333767e-01 -4.687782779651559761e-01 -7.203569685974474668e-01
4.923076923076922795e-01 5.760656661213444663e-01 -5.056270092493206914e-01 -6.422410061141181625e-01
5.538461538461537659e-01 6.372698321418440726e-01 -5.318623462841768346e-01 -5.576662013014981323e-01
6.153846153846153078e-01 6.941457914061859302e-01 -5.469998400542099848e-01 -4.679029815412407700e-01
6.769230769230768496e-01 7.459998012168245207e-01 -5.508099233334181610e-01 -3.742616376829201452e-01
7.384615384615383915e-01 7.921249107318040217e-01 -5.433267882693684214e-01 -2.780504238652894422e-01
7.999999999999999334e-01 8.318106860524892010e-01 -5.248421272925301029e-01 -1.805798660871823225e-01
8.615384615384614753e-01 8.643828693316579770e-01 -4.959015278109245584e-01 -8.307111333768549266e-02
9.230769230769230171e-01 8.892015064824955184e-01 -4.572971903020617290e-01 1.329433095849179292e-02
9.846153846153845590e-01 9.057065271974283904e-01 -4.100390499186176152e-01 1.074272697458700937e-01
1.046153846153845990e+00 9.134316653029957989e-01 -3.553378750896553084e-01 1.983809253522755001e-01
1.107692307692307532e+00 9.120349574132654569e-01 -2.945719297125609648e-01 2.853028580663543035e-01
1.169230769230769074e+00 9.013133608693257859e-01 -2.292602670567323586e-01 3.674956266957656870e-01
1.230769230769230616e+00 8.812298305880276184e-01 -1.610096037604453190e-01 4.443984177096168553e-01
1.292307692307692157e+00 8.519230542011189122e-01 -9.148944151768423350e-02 5.155948984025580106e-01
1.353846153846153699e+00 8.137212125471285917e-01 -2.237629872193461211e-02 5.808093903164666116e-01
1.415384615384615241e+00 7.671416816768863445e-01 4.467646603315907072e-02 6.399073610923278199e-01
1.476923076923076783e+00 7.128886975431961703e-01 1.081007839972913664e-01 6.928845536338099631e-01
1.538461538461538325e+00 6.518573650412768927e-01 1.664367741553678948e-01 7.398426252428078609e-01
1.599999999999999867e+00 5.851078540291541064e-01 2.183792805597397635e-01 7.809909549527398465e-01
1.661538461538461409e+00 5.138377230513708760e-01 2.628149016654919290e-01 8.166320500572804564e-01
1.723076923076922951e+00 4.393842758670806203e-01 2.988540151954012791e-01 8.471231276105183339e-01
1.784615384615384492e+00 3.631546150365818626e-01 3.258432464561281106e-01 8.728893292686553673e-01
1.846153846153846034e+00 2.866239113493044277e-01 3.433884878715135480e-01 8.943840572801392552e-01
1.907692307692307576e+00 2.112719217280027706e-01 3.513664586083996566e-01 9.120846170726147895e-01
1.969230769230769118e+00 1.385575235268319827e-01 3.499233643147257600e-01 9.264711154813223271e-01
2.030769230769230660e+00 6.987418170439255172e-02 3.394687002789923969e-01 9.380151749152649820e-01
2.092307692307691980e+00 6.502710148975160420e-03 3.206538661755171660e-01 9.471711608369334234e-01
2.153846153846153744e+00 -5.041544194504041232e-02 2.943631777902009916e-01 9.543602136053382923e-01
2.215384615384615064e+00 -9.991446387954497355e-02 2.616672266804291880e-01 9.599700775699909761e-01
2.276923076923076827e+00 -1.412458149599763457e-01 2.238026275872242454e-01 9.643430335056257796e-01
2.338461538461538147e+00 -1.738783233392384442e-01 1.821268685034583557e-01 9.677767611283671911e-01
2.399999999999999911e+00 -1.975323094119845746e-01 1.380645891098155886e-01 9.705230875812470570e-01
