0.000000000000000000e+00 2.291070247372374454e-09 -2.745086754021971214e-09 -1.000000000000000000e+00
6.153846153846153494e-02 9.193304756808404199e-02 6.093412956404632014e-02 -9.938983238479328630e-01
1.230769230769230699e-01 1.824806437899907097e-01 1.212933184189348007e-01 -9.756975958221005829e-01
1.846153846153845979e-01 2.703034469659479355e-01 1.804702526574361032e-01 -9.457071367998517442e-01
2.461538461538461398e-01 3.541197500088781869e-01 2.378865024950515827e-01 -9.044351882137171561e-01
3.076923076923076539e-01 4.327515154956866339e-01 2.929847358434423676e-01 -8.525714852221610851e-01
3.692307692307691958e-01 5.051356077422476387e-01 3.452298477095863127e-01 -7.909770772023618779e-01
4.307692307692307376e-01 5.703636830303344674e-01 3.941246056074165227e-01 -7.206523038057083275e-01
4.923076923076922795e-01 6.276988660982975032e-01 4.391997216234936330e-01 -6.427167526131507547e-01
5.538461538461537659e-01 6.765720130572516755e-01 4.800365024576246920e-01 -5.583913388530126198e-01
6.153846153846153078e-01 7.166163128095264234e-01 5.162677082177833388e-01 -4.689489213755347885e-01
6.769230769230768496e-01 7.476568898325297585e-01 5.475810665442466529e-01 -3.756959429303351472e-01
7.384615384615383915e-01 7.697067854400733156e-01 5.737285138791963224e-01 -2.799456662311435862e-01
7.999999999999999334e-01 7.829648566626398187e-01 5.945307974640345883e-01 -1.829783784467039209e-01
8.615384615384614753e-01 7.877973114741386729e-01 6.098810562399934465e-01 -8.603535588617956809e-02
9.230769230769230171e-01 7.847270714993677121e-01 6.197498730222874563e-01 9.746597369345201198e-03
9.846153846153845590e-01 7.744092491464135142e-01 6.241813861089848814e-01 1.032933613554828517e-01
1.046153846153845990e+00 7.576060053855926402e-01 6.233015837670693449e-01 1.936756142968001637e-01
1.107692307692307532e+00 7.351630981303902690e-01 6.173122586064530015e-01 2.800773131553297990e-01
1.169230769230769074e+00 7.079825913863323494e-01 6.064883849954196826e-01 3.618226770497725564e-01
1.230769230769230616e+00 6.769908671591071680e-01 5.911715167266173854e-01 4.383875289594838520e-01
1.292307692307692157e+00 6.431213917556289905e-01 5.717691447812891514e-01 5.093719593005296975e-01
1.353846153846153699e+00 6.072794582479835723e-01 5.487339989268180673e-01 5.745333525089009186e-01
1.415384615384615241e+00 5.703284069912641918e-01 5.225695364276374821e-01 6.337456328554926799e-01
1.476923076923076783e+00 5.330618207736714798e-01 4.938069072419737360e-01 6.870136669346383895e-01
1.538461538461538325e+00 4.961914335198628345e-01 4.629955046623631665e-01 7.344509722976747534e-01
1.599999999999999867e+00 4.603366063007189313e-01 4.306986252330600728e-01 7.762595422945079982e-01
1.661538461538461409e+00 4.260093995952565216e-01 3.974664392461524365e-01 8.127283215877153522e-01
1.723076923076922951e+00 3.936121816533143525e-01 3.638374020828439304e-01 8.442059177174443541e-01
1.784615384615384492e+00 3.634483478085941965e-01 3.303123492383046589e-01 8.710865071277152927e-01
1.846153846153846034e+00 3.357045112312253554e-01 2.973617039874277834e-01 8.937963481732790205e-01
1.907692307692307576e+00 3.104742395742757233e-01 2.653971808984066927e-01 9.127782800980074329e-01
1.969230769230769118e+00 2.877596140087197440e-01 2.347802101445533307e-01 9.284758489046042174e-01
2.030769230769230660e+00 2.674859014640750265e-01 2.058115886419575880e-01 9.413225465311499951e-01
2.092307692307691980e+00 2.495114581018236244e-01 1.787151845050540810e-01 9.517356023899092854e-01
2.153846153846153744e+00 2.336463836391000082e-01 1.536641893681660043e-01 9.601004354915707584e-01
2.215384615384615064e+00 2.196660537765993959e-01 1.307550837934420840e-01 9.667711479716730727e-01
2.276923076923076827e+00 2.073150542758594173e-01 1.100253007927494420e-01 9.720657043751249615e-01
2.338461538461538147e+00 1.963457010353036325e-01 9.145840323342523115e-02 9.762585808228714246e-01
2.399999999999999911e+00 1.864999752360486374e-01 7.498442302185601149e-02 9.795878721568375136e-01
