1.000000000000000056e-01 0.000000000000000000e+00 -2.407890611766521499e-02 -8.573216259564144792e-01
2.000000000000000111e-01 0.000000000000000000e+00 -4.580088074152067340e-02 -7.303334429752061929e-01
2.999999999999999889e-01 0.000000000000000000e+00 -6.303951086118839142e-02 -5.325119346433356826e-01
4.000000000000000222e-01 0.000000000000000000e+00 -7.410748984779656767e-02 -2.831716582275006222e-01
5.000000000000000000e-01 0.000000000000000000e+00 -7.792131792238367327e-02 -6.658537766575125388e-03
5.999999999999999778e-01 0.000000000000000000e+00 -7.410769908042016962e-02 2.700389579990827293e-01
6.999999999999999556e-01 0.000000000000000000e+00 -6.304005080930751015e-02 5.199149293980841469e-01
7.999999999999999334e-01 0.000000000000000000e+00 -4.580159450805453697e-02 7.186018573240263718e-01
8.999999999999999112e-01 0.000000000000000000e+00 -2.407974112086851831e-02 8.467361110629373355e-01
9.999999999999998890e-01 0.000000000000000000e+00 -8.876504762766154607e-07 8.918566270826714382e-01
1.099999999999999867e+00 0.000000000000000000e+00 2.407778414330229155e-02 8.496220093757005376e-01
1.199999999999999956e+00 0.000000000000000000e+00 4.579980980508868704e-02 7.242280625387925719e-01
1.300000000000000044e+00 0.000000000000000000e+00 6.303845425787224510e-02 5.280006335387721350e-01
1.399999999999999911e+00 0.000000000000000000e+00 7.410645654667342985e-02 2.801825304138088613e-01
1.500000000000000000e+00 0.000000000000000000e+00 7.792041317200774919e-02 5.051867925090654070e-03
1.599999999999999867e+00 0.000000000000000000e+00 7.410697155963069660e-02 -2.704514356106978434e-01
1.699999999999999956e+00 0.000000000000000000e+00 6.303935072374344806e-02 -5.193663912726947940e-01
1.800000000000000044e+00 0.000000000000000000e+00 4.580109443951027592e-02 -7.173395977483487673e-01
1.899999999999999911e+00 0.000000000000000000e+00 2.407961886888791009e-02 -8.450165390237815988e-01
2.000000000000000000e+00 0.000000000000000000e+00 8.669272003809334825e-07 -8.899274363348474992e-01
2.099999999999999645e+00 0.000000000000000000e+00 -2.407787664881682818e-02 -8.477035439048884458e-01
2.199999999999999734e+00 0.000000000000000000e+00 -4.579964655284949476e-02 -7.225063660048387515e-01
2.299999999999999822e+00 0.000000000000000000e+00 -6.303827060449219977e-02 -5.266146817142516312e-01
2.399999999999999911e+00 0.000000000000000000e+00 -7.410620170389818628e-02 -2.792247628142681126e-01
2.500000000000000000e+00 0.000000000000000000e+00 -7.792018493541809365e-02 -4.562017798909467903e-03
2.600000000000000089e+00 0.000000000000000000e+00 -7.410673202612687305e-02 2.704823854714466513e-01
2.699999999999999734e+00 0.000000000000000000e+00 -6.303921748327988295e-02 5.189819770106235408e-01
2.799999999999999822e+00 0.000000000000000000e+00 -4.580109282155545025e-02 7.166211822303624190e-01
2.899999999999999911e+00 0.000000000000000000e+00 -2.407951974790547428e-02 8.440680177322428257e-01
3.000000000000000000e+00 0.000000000000000000e+00 -9.856862371667143901e-07 8.888609623701397844e-01
