1.000000000000000056e-01 -1.594221127129140381e-02 1.797052866999537812e-02 -8.575267155142027864e-01
2.000000000000000111e-01 -3.177701688811779279e-02 3.244079523404100329e-02 -7.334515628200838355e-01
2.999999999999999889e-01 -4.691027172163871745e-02 4.059067816496352704e-02 -5.469823788824020872e-01
4.000000000000000222e-01 -6.003317852073170036e-02 4.087045030923074085e-02 -3.235933507257534036e-01
5.000000000000000000e-01 -6.930287971201598562e-02 3.338366401797671773e-02 -9.057140818946081418e-02
5.999999999999999778e-01 -7.289972019094531630e-02 1.992790804355273893e-02 1.281994418036631889e-01
6.999999999999999556e-01 -6.974937954878239477e-02 3.608934927851456531e-03 3.158297067503891276e-01
7.999999999999999334e-01 -6.009870626247111602e-02 -1.193949746211333401e-02 4.637285756622114286e-01
8.999999999999999112e-01 -4.565720074457067790e-02 -2.352830074025438062e-02 5.708766955525851339e-01
9.999999999999998890e-01 -2.920618438002660355e-02 -2.926154272797326997e-02 6.417045933045871786e-01
1.099999999999999867e+00 -1.379626958325542649e-02 -2.895560218702122879e-02 6.835412991790739135e-01
1.199999999999999956e+00 -1.857964150680006810e-03 -2.397816046896605185e-02 7.043786345690736805e-01
1.300000000000000044e+00 5.418818570311862565e-03 -1.660033303282591743e-02 7.113402358680753768e-01
1.399999999999999911e+00 8.214836206083866652e-03 -9.144546814087531686e-03 7.099578898406477823e-01
1.500000000000000000e+00 7.727172954061631814e-03 -3.274339597116653240e-03 7.040684101338879897e-01
1.599999999999999867e+00 5.547884187033455018e-03 3.177646634139287204e-04 6.960662896303698721e-01
1.699999999999999956e+00 3.070777363949797611e-03 1.814174048004747741e-03 6.873031964371546509e-01
1.800000000000000044e+00 1.146342785661538279e-03 1.897660817670779407e-03 6.784605448964318164e-01
1.899999999999999911e+00 4.390972015708052411e-05 1.332747952252657814e-03 6.698375485772544158e-01
2.000000000000000000e+00 -3.663892457296216601e-04 6.825905668401544132e-04 6.615381853978031801e-01
2.099999999999999645e+00 -3.729938482167000145e-04 2.224959222350800952e-04 6.535793504926321607e-01
2.199999999999999734e+00 -2.346433378160463863e-04 -4.621035972598552376e-06 6.459451592345565318e-01
2.299999999999999822e+00 -1.011158220768212181e-04 -6.755655962430093524e-05 6.386109962632811055e-01
2.399999999999999911e+00 -2.368121560027369011e-05 -5.593081331543462787e-05 6.315526656398978700e-01
2.500000000000000000e+00 4.996927085805457459e-06 -2.798080196131038131e-05 6.247488726223958677e-01
2.600000000000000089e+00 9.702642133293350719e-06 -8.820401786495279424e-06 6.181813748867704961e-01
2.699999999999999734e+00 5.489942847445878826e-06 -4.587525183251773021e-07 6.118343858029732241e-01
2.799999999999999822e+00 2.284567411525859395e-06 1.476322446098776171e-06 6.056941972926669360e-01
2.899999999999999911e+00 3.825042474625020562e-07 7.547918338283911050e-07 5.997485817288020771e-01
3.000000000000000000e+00 -1.543353440986580987e-07 -2.609275249863902614e-08 5.939867247281068741e-01
