1.000000000000000056e-01 9.689117361256950611e-02 3.158704986414342247e-02 -9.943811655787250237e-01
2.000000000000000111e-01 1.923421299996919687e-01 6.222047697833399393e-02 -9.776596508600452484e-01
2.999999999999999889e-01 2.849556872596928914e-01 9.097740340988880181e-02 -9.502352792452120056e-01
4.000000000000000222e-01 3.734043716912167632e-01 1.170222833687674657e-01 -9.127593407776758427e-01
5.000000000000000000e-01 4.565007383639442251e-01 1.396212708980030803e-01 -8.660977661705246966e-01
5.999999999999999778e-01 5.331949364693827631e-01 1.581779002757577879e-01 -8.113039912953118327e-01
6.999999999999999556e-01 6.026111534206467502e-01 1.722516391512404765e-01 -7.495743352793515779e-01
7.999999999999999334e-01 6.640668578916875120e-01 1.815750120560880032e-01 -6.821952733705014538e-01
8.999999999999999112e-01 7.170768755815367657e-01 1.860300350947151071e-01 -6.105093933389507121e-01
9.999999999999998890e-01 7.613576125668117811e-01 1.856678097419809936e-01 -5.358582042359761877e-01
1.099999999999999867e+00 7.968176891874885204e-01 1.806909218197553790e-01 -4.595431470644203431e-01
1.199999999999999956e+00 8.235486990393239282e-01 1.714270943933900448e-01 -3.827873698825236537e-01
1.300000000000000044e+00 8.418003997838763297e-01 1.583171695350745201e-01 -3.067121769246866636e-01
1.399999999999999911e+00 8.519701284830593080e-01 1.418767220925857275e-01 -2.323028885025333889e-01
1.500000000000000000e+00 8.545689965278131517e-01 1.226766784493708018e-01 -1.604187624469884110e-01
1.599999999999999867e+00 8.502047514628031655e-01 1.013271286861454068e-01 -9.173822607576871679e-02
1.699999999999999956e+00 8.395510547555471437e-01 7.844239780464901113e-02 -2.680431276510986810e-02
1.800000000000000044e+00 8.233269425993448021e-01 5.461817843694621866e-02 3.399932509222011040e-02
1.899999999999999911e+00 8.022739522719466443e-01 3.042079290933236146e-02 9.042291984978013952e-02
2.000000000000000000e+00 7.771335176210624196e-01 6.371134701922742671e-03 1.423582248088751945e-01
2.099999999999999645e+00 7.486328606231622551e-01 -1.706760077841834589e-02 1.898045141979170514e-01
2.199999999999999734e+00 7.174719782680439861e-01 -3.949575694329104936e-02 2.328532536183098023e-01
2.299999999999999822e+00 6.843072668216670928e-01 -6.057631578776878634e-02 2.716835157128779099e-01
2.399999999999999911e+00 6.497435200166155056e-01 -8.004996790348573033e-02 3.065427410897658134e-01
2.500000000000000000e+00 6.143416821075484702e-01 -9.770875155461428152e-02 3.377051891260205996e-01
2.600000000000000089e+00 5.785904013229561382e-01 -1.134178585932822392e-01 3.655038234816126996e-01
2.699999999999999734e+00 5.429236798729055735e-01 -1.271016490862895143e-01 3.902796204391429380e-01
2.799999999999999822e+00 5.077171104114527322e-01 -1.387325719268564517e-01 4.123810885755531674e-01
2.899999999999999911e+00 4.732901198917293106e-01 -1.483220435259163805e-01 4.321521171049573784e-01
3.000000000000000000e+00 4.399005620854982701e-01 -1.559306186569822394e-01 4.499327652842774472e-01
