1.000000000000000056e-01 -2.702769729986450459e-02 -1.603260771974128474e-01 -9.861749634131362630e-01
2.000000000000000111e-01 -6.901104513730330070e-02 -3.113017884993037332e-01 -9.455311224005910065e-01
2.999999999999999889e-01 -1.383260074698657305e-01 -4.418716626703420025e-01 -8.804726217687489642e-01
4.000000000000000222e-01 -2.421115176445660100e-01 -5.382965601368804309e-01 -7.947216493136316506e-01
5.000000000000000000e-01 -3.796056156078491672e-01 -5.845344833435658360e-01 -6.929573084309034181e-01
5.999999999999999778e-01 -5.400099832544114076e-01 -5.645154682354325271e-01 -5.803095641138762417e-01
6.999999999999999556e-01 -7.015553403843977076e-01 -4.661528511612209047e-01 -4.620005889931622645e-01
7.999999999999999334e-01 -8.329842637209481371e-01 -2.868448566893022633e-01 -3.428730255335635246e-01
8.999999999999999112e-01 -8.982174239886320244e-01 -3.889107844164374495e-02 -2.270756869551163182e-01
9.999999999999998890e-01 -8.644425586238690951e-01 2.470489021742016678e-01 -1.179136845136252859e-01
1.099999999999999867e+00 -7.127108380920936792e-01 5.228746408212323615e-01 -1.776230043211429049e-02
1.199999999999999956e+00 -4.484126803719710730e-01 7.301485521107047294e-01 7.200734474232826920e-02
1.300000000000000044e+00 -1.077568713491323105e-01 8.136745575604577008e-01 1.508122653023794835e-01
1.399999999999999911e+00 2.439810456942814731e-01 7.392389337541356298e-01 2.187964347734750181e-01
1.500000000000000000e+00 5.252214569364030972e-01 5.101973738921370405e-01 2.766581979823212190e-01
1.599999999999999867e+00 6.610123287758887800e-01 1.757808569786949160e-01 3.254628275684596228e-01
1.699999999999999956e+00 6.104547666304425135e-01 -1.755976399597850568e-01 3.664956539351788001e-01
1.800000000000000044e+00 3.881856723454941149e-01 -4.402944941916225874e-01 4.011251167835614972e-01
1.899999999999999911e+00 6.851227276338203720e-02 -5.356951778077821968e-01 4.307334220045621609e-01
2.000000000000000000e+00 -2.349241284848107014e-01 -4.356322549976203717e-01 4.565817335983139991e-01
2.099999999999999645e+00 -4.109972181142842462e-01 -1.879361360479395449e-01 4.798101673931125521e-01
2.199999999999999734e+00 -3.990710169989306055e-01 9.905929655931614009e-02 5.013897138287536359e-01
2.299999999999999822e+00 -2.199700781342515676e-01 3.009600715395056580e-01 5.220961795735389321e-01
2.399999999999999911e+00 2.985509250792070524e-02 3.354096297342823441e-01 5.425282491225218440e-01
2.500000000000000000e+00 2.239895034966256360e-01 2.041219635431907042e-01 5.631049939651505687e-01
2.600000000000000089e+00 2.715878426677442170e-01 -7.227067627085012602e-03 5.840858262756345454e-01
2.699999999999999734e+00 1.664844486363730169e-01 -1.764539235043420806e-01 6.056047051555869531e-01
2.799999999999999822e+00 -1.152197929155351908e-02 -2.154499625297231213e-01 6.276649967077102543e-01
2.899999999999999911e+00 -1.478643503886556132e-01 -1.210536307516547616e-01 6.501951458830054209e-01
3.000000000000000000e+00 -1.662188467096306355e-01 2.795679427305029774e-02 6.730483038477791391e-01
