1.000000000000000056e-01 1.035145480883093716e-01 2.240239105035295164e-01 -9.670780067555159176e-01
2.000000000000000111e-01 2.073388404518216599e-01 4.230107892137525694e-01 -8.726435906168287238e-01
2.999999999999999889e-01 3.103229642937789245e-01 5.761435718022823727e-01 -7.287192577817604988e-01
4.000000000000000222e-01 4.090209984527838905e-01 6.700218101652903879e-01 -5.524411126554160667e-01
5.000000000000000000e-01 4.978496837514754247e-01 7.002149442802316770e-01 -3.626410558686343211e-01
5.999999999999999778e-01 5.701237891911158373e-01 6.709568019473561851e-01 -1.765761176706763524e-01
6.999999999999999556e-01 6.196076073804188677e-01 5.933211598087972938e-01 -7.552801971398837716e-03
7.999999999999999334e-01 6.419670833916338859e-01 4.825488461259798134e-01 1.362504434468275460e-01
8.999999999999999112e-01 6.357802754280703628e-01 3.551512343388371074e-01 2.516669471629390809e-01
9.999999999999998890e-01 6.027912984572394439e-01 2.264506748224085764e-01 3.397248628137590210e-01
1.099999999999999867e+00 5.475530904519193554e-01 1.088011391519952548e-01 4.042794158881464206e-01
1.199999999999999956e+00 4.765160598103822531e-01 1.067332502053388449e-02 4.507166965467875874e-01
1.300000000000000044e+00 3.969796988654270553e-01 -6.350548161138205860e-02 4.847568540498767287e-01
1.399999999999999911e+00 3.160023330895289084e-01 -1.129585625790051895e-01 5.116693165464460957e-01
1.500000000000000000e+00 2.395763807113666377e-01 -1.397537716060366364e-01 5.357352011402477521e-01
1.599999999999999867e+00 1.720590461220345702e-01 -1.478316812055933405e-01 5.600519004248135646e-01
1.699999999999999956e+00 1.159878314054275106e-01 -1.420294858079489686e-01 5.865091622026903373e-01
1.800000000000000044e+00 7.219854024349675603e-02 -1.272497370185067811e-01 6.159193092976754658e-01
1.899999999999999911e+00 4.010315077078226154e-02 -1.078429218925834598e-01 6.482405728073229456e-01
2.000000000000000000e+00 1.818934290883034849e-02 -8.722283914830675222e-02 6.828191368196921962e-01
2.099999999999999645e+00 4.438471752380969415e-03 -6.775241505367315953e-02 7.186376318461897839e-01
2.199999999999999734e+00 -3.250427781727377452e-03 -5.079745336752315016e-02 7.545379476896478810e-01
2.299999999999999822e+00 -6.789870597573306743e-03 -3.693186893001158821e-02 7.893942955030108788e-01
2.399999999999999911e+00 -7.744261059317261719e-03 -2.615591289985212328e-02 8.222417081397279670e-01
2.500000000000000000e+00 -7.263736060837262115e-03 -1.812087763764695658e-02 8.523478072263065419e-01
2.600000000000000089e+00 -6.137844465519331355e-03 -1.234562867905813349e-02 8.792388926576042429e-01
2.699999999999999734e+00 -4.845582056068981243e-03 -8.316246408970199080e-03 9.026930332526362788e-01
2.799999999999999822e+00 -3.641083339695910977e-03 -5.568412186532070186e-03 9.227026538766315289e-01
2.899999999999999911e+00 -2.637979943911383449e-03 -3.716835406568906076e-03 9.394274799115331920e-01
3.000000000000000000e+00 -1.852727947871985956e-03 -2.490638962251684897e-03 9.531449925478068241e-01
