1.000000000000000056e-01 7.013110554848748027e-03 -1.139144649930923237e-02 -9.698488519533540186e-01
2.000000000000000111e-01 2.315081040300587762e-06 -3.561498531105324292e-06 -8.844170839155033326e-01
2.999999999999999889e-01 9.058282995076969078e-11 -4.606662908858692204e-11 -7.603594968861139280e-01
4.000000000000000222e-01 9.847172305696219315e-11 -4.761946747011373730e-11 -6.224386599700560962e-01
5.000000000000000000e-01 9.770486852753821121e-11 -4.844764160084161776e-11 -4.916751855774255109e-01
5.999999999999999778e-01 9.088959431576666743e-11 -4.639659974728298905e-11 -3.791048027083150362e-01
6.999999999999999556e-01 8.112454529443340750e-11 -4.276483080194748013e-11 -2.882469033488190835e-01
7.999999999999999334e-01 7.069721931065701327e-11 -3.861868993385721459e-11 -2.183663467836190752e-01
8.999999999999999112e-01 6.103539773239245024e-11 -3.461645579160349165e-11 -1.664557912145406549e-01
9.999999999999998890e-01 5.279698709272596466e-11 -3.113985720188810776e-11 -1.287283679165015793e-01
1.099999999999999867e+00 4.611913803164087151e-11 -2.832341242609963339e-11 -1.016003381870997230e-01
1.199999999999999956e+00 4.089647381582673978e-11 -2.616425350714886292e-11 -8.213236677076732328e-02
1.300000000000000044e+00 3.689367988196089964e-11 -2.459549480791221014e-11 -6.810057967424028302e-02
1.399999999999999911e+00 3.387639664052199269e-11 -2.352822931910359792e-11 -5.790088410744318598e-02
1.500000000000000000e+00 3.162733420159171915e-11 -2.287497585338810833e-11 -5.040566194016192492e-02
1.599999999999999867e+00 2.996220371452745141e-11 -2.255617473491352569e-11 -4.483079837678125706e-02
1.699999999999999956e+00 2.873474161779998743e-11 -2.250283639807140478e-11 -4.063272100335954540e-02
1.800000000000000044e+00 2.782660327280993640e-11 -2.265549044662420674e-11 -3.743295040676208885e-02
1.899999999999999911e+00 2.714614008746466199e-11 -2.296336939204145035e-11 -3.496576017943234943e-02
2.000000000000000000e+00 2.661836765069080290e-11 -2.338302384049169463e-11 -3.304256314996108918e-02
2.099999999999999645e+00 2.618568323023296811e-11 -2.387727595855276834e-11 -3.152794665872997448e-02
2.199999999999999734e+00 2.580251108111566322e-11 -2.441393780244166391e-11 -3.032416349261913072e-02
2.299999999999999822e+00 2.543470764809009634e-11 -2.496566974916073969e-11 -2.935878507330208845e-02
2.399999999999999911e+00 2.505693009323133332e-11 -2.550987578962995690e-11 -2.857840014291699801e-02
2.500000000000000000e+00 2.465253011837025669e-11 -2.602797472815245571e-11 -2.794296679255164201e-02
2.600000000000000089e+00 2.421052682540459070e-11 -2.650549604269576602e-11 -2.742195061385791638e-02
2.699999999999999734e+00 2.372481237630571098e-11 -2.693086151459099493e-11 -2.699181569191882318e-02
2.799999999999999822e+00 2.319445736433869022e-11 -2.729664177339489127e-11 -2.663463469169832787e-02
2.899999999999999911e+00 2.262136628843428843e-11 -2.759786426649407525e-11 -2.633628003805462900e-02
3.000000000000000000e+00 2.200990931874712393e-11 -2.783259522588808546e-11 -2.608576258007253013e-02
