1.000000000000000056e-01 5.620904076673235300e-02 -2.341819369579521692e-02 -3.534307847267542102e-01
2.000000000000000111e-01 6.105478508926258027e-03 -2.641523790398270493e-03 -3.119273958138576996e-01
2.999999999999999889e-01 7.118771879391838295e-05 -3.285549660968564164e-05 -2.485847562842387060e-01
4.000000000000000222e-01 1.052283520953773135e-07 -5.338530450295900774e-08 -1.711214921749582563e-01
5.000000000000000000e-01 2.067426620931511548e-11 -1.194497265343972158e-11 -8.851566638530296294e-02
5.999999999999999778e-01 5.619183262304837522e-16 -3.480798496212782385e-16 -9.631413400550828743e-03
6.999999999999999556e-01 -3.308470035734631492e-17 3.306848444320212789e-16 5.801870635361165013e-02
7.999999999999999334e-01 3.478471622656188521e-18 7.257930951743679814e-16 1.091632873475552046e-01
8.999999999999999112e-01 1.149064234582395778e-16 7.005938184792354393e-16 1.412071605544826802e-01
9.999999999999998890e-01 -1.064996152672650519e-16 5.050273879706432131e-16 1.541853148199456569e-01
1.099999999999999867e+00 -5.055379776996688509e-17 8.945316746148367470e-16 1.503264442530210521e-01
1.199999999999999956e+00 -2.677298379659196839e-16 3.747672474299998619e-16 1.333603517595238208e-01
1.300000000000000044e+00 9.773465332006819691e-18 4.669384461079449202e-16 1.077412802306346590e-01
1.399999999999999911e+00 -1.587019433426949334e-16 1.841370966598164456e-16 7.792257033769010854e-02
1.500000000000000000e+00 -8.564018910608401057e-17 1.123338433289077165e-16 4.779509220747700515e-02
1.599999999999999867e+00 -2.157114820738289959e-17 1.113991660361193455e-16 2.034026276971064029e-02
1.699999999999999956e+00 2.372780962772112207e-18 -5.860303918027312365e-18 -2.506824983987660394e-03
1.800000000000000044e+00 -3.297384231921996131e-18 -1.066898700400692533e-16 -1.981312402190402513e-02
1.899999999999999911e+00 -3.126693340469842993e-18 -1.222377339355217480e-16 -3.148076121397977434e-02
2.000000000000000000e+00 -2.835497474284630128e-17 -1.958171996894519191e-16 -3.801958502114091698e-02
2.099999999999999645e+00 1.903108403947788658e-17 -7.705091120139424738e-17 -4.030770141549034485e-02
2.199999999999999734e+00 1.804577166162504623e-17 -3.456107542974835165e-17 -3.937932498786993196e-02
2.299999999999999822e+00 9.282008143349988252e-18 -1.387318177555059397e-16 -3.626011568775176774e-02
2.399999999999999911e+00 -5.944817090723469489e-18 -1.280085357569063695e-16 -3.185911271636123615e-02
2.500000000000000000e+00 5.231865000942059397e-18 -1.175675771863815163e-16 -2.690998097158297381e-02
2.600000000000000089e+00 -1.274785245640960544e-18 -9.855860700800585349e-17 -2.195343646211266042e-02
2.699999999999999734e+00 7.580309526875995315e-18 -5.236924704639609336e-17 -1.734896695480950268e-02
2.799999999999999822e+00 3.255091327234625387e-18 -3.876635153703112330e-17 -1.330261659417878231e-02
2.899999999999999911e+00 1.482879208676681026e-18 -2.585389729386820306e-17 -9.901668328885414316e-03
3.000000000000000000e+00 9.093261937456047613e-20 -2.804010714938104642e-17 -7.149706693404605899e-03
