1.000000000000000056e-01 3.919297812054022001e-02 -5.516840798323872225e-02 -3.499538828019005954e-01
2.000000000000000111e-01 4.239421951688813854e-03 -5.990870884362440620e-03 -2.985696550273075900e-01
2.999999999999999889e-01 4.905928181800531897e-05 -6.982149941861966723e-05 -2.204859542894608004e-01
4.000000000000000222e-01 7.165786274010458781e-08 -1.031495004589303719e-07 -1.256663872754684996e-01
5.000000000000000000e-01 1.382144249254247680e-11 -2.025108220008158295e-11 -2.561911863290507185e-02
5.999999999999999778e-01 -1.204144291636908215e-16 -1.152932585954629482e-15 6.840862961436217082e-02
6.999999999999999556e-01 -6.844533847582419309e-16 -1.976318708433074511e-15 1.470425532088325271e-01
7.999999999999999334e-01 -6.747157687516613106e-17 8.944460667160788308e-17 2.039100082805610226e-01
8.999999999999999112e-01 -2.629588268816472392e-16 -1.429626404753355713e-15 2.361436850660172670e-01
9.999999999999998890e-01 -2.326976921907080863e-16 2.513655301121065974e-16 2.442584461920204453e-01
1.099999999999999867e+00 -1.993995031071571857e-16 -4.728394960353459185e-16 2.315183595171116937e-01
1.199999999999999956e+00 -8.320268075937447942e-17 3.032208986878821446e-16 2.029971366398172772e-01
1.300000000000000044e+00 -5.423266838759033807e-17 -2.328717961489719126e-16 1.645493716243541238e-01
1.399999999999999911e+00 -1.560597505685382470e-17 2.698096673728539639e-16 1.218865722040535921e-01
1.500000000000000000e+00 6.788309696233662537e-18 5.735120931628125118e-16 7.988172430138873459e-02
1.599999999999999867e+00 -5.113015341313337160e-18 1.701466554985415781e-16 4.216438648359726454e-02
1.699999999999999956e+00 5.460631926137162741e-19 5.488556161667221941e-17 1.099113651594895748e-02
1.800000000000000044e+00 1.609270704013521479e-18 -2.578179285533964069e-17 -1.265662446241544968e-02
1.899999999999999911e+00 1.509667518844431044e-18 -8.977188264838999560e-17 -2.883474078180705072e-02
2.000000000000000000e+00 2.172836784532765414e-18 -1.452796299054481511e-16 -3.832781280141327185e-02
2.099999999999999645e+00 -8.841879414636076861e-20 -1.887352616710167922e-16 -4.233952060608687368e-02
2.199999999999999734e+00 4.625424543153033289e-19 -5.765411439612900706e-17 -4.222877982695207033e-02
2.299999999999999822e+00 -8.102572109888012507e-21 -1.739435309544256789e-16 -3.931168780793633383e-02
2.399999999999999911e+00 1.383436213576482127e-18 -1.023001211374564772e-16 -3.473302497366554525e-02
2.500000000000000000e+00 8.948137226572209787e-19 -1.468480988339929858e-16 -2.940484710644774430e-02
2.600000000000000089e+00 -2.893355334926427781e-19 -1.150844671881029587e-16 -2.399251353445535501e-02
2.699999999999999734e+00 5.815562622998175740e-19 -7.134360500465667884e-17 -1.893499350550440635e-02
2.799999999999999822e+00 1.013777497120674073e-19 -5.464210293071554224e-17 -1.448267819887280247e-02
2.899999999999999911e+00 5.966072838688516134e-21 -5.058342623070128208e-17 -1.074300234963826949e-02
3.000000000000000000e+00 5.240059243238280371e-20 -2.977191735722222299e-17 -7.723367479010306326e-03
