# hbar Omega (meV)
9.999999999999999124e-05
2.010997998999499575e-02
4.011995997998998864e-02
6.012993996998498847e-02
8.013991995997997442e-02
1.001498999499749742e-01
1.201598799399699879e-01
1.401698599299649461e-01
1.601798399199599876e-01
1.801898199099549458e-01
2.001997998999499595e-01
2.202097798899449732e-01
2.402197598799399314e-01
2.602297398699349729e-01
2.802397198599299033e-01
3.002496998499248893e-01
3.202596798399199862e-01
3.402696598299149722e-01
3.602796398199099026e-01
3.802896198099049441e-01
4.002995997998999300e-01
4.203095797898948605e-01
4.403195597798899019e-01
4.603295397698848879e-01
4.803395197598798183e-01
5.003494997498749708e-01
5.203594797398698457e-01
5.403694597298648317e-01
5.603794397198598176e-01
5.803894197098548036e-01
6.003993996998499005e-01
6.204093796898447755e-01
6.404193596798398724e-01
6.604293396698348584e-01
6.804393196598298443e-01
7.004492996498247193e-01
7.204592796398199273e-01
7.404692596298149132e-01
7.604792396198097881e-01
7.804892196098047741e-01
8.004991995997997600e-01
8.205091795897948570e-01
8.405191595797898430e-01
8.605291395697848289e-01
8.805391195597798148e-01
9.005490995497748008e-01
9.205590795397698978e-01
9.405690595297647727e-01
9.605790395197596476e-01
9.805890195097547446e-01
1.000598999499749509e+00
1.020608979489744605e+00
1.040618959479739702e+00
1.060628939469734799e+00
1.080638919459729896e+00
1.100648899449724549e+00
1.120658879439719646e+00
1.140668859429714743e+00
1.160678839419709840e+00
1.180688819409704937e+00
1.200698799399699812e+00
1.220708779389694687e+00
1.240718759379689562e+00
1.260728739369684881e+00
1.280738719359679756e+00
1.300748699349674631e+00
1.320758679339669506e+00
1.340768659329664603e+00
1.360778639319659700e+00
1.380788619309654575e+00
1.400798599299649672e+00
1.420808579289644547e+00
1.440818559279639643e+00
1.460828539269634740e+00
1.480838519259629393e+00
1.500848499249624490e+00
1.520858479239619809e+00
1.540868459229614462e+00
1.560878439219609559e+00
1.580888419209604434e+00
1.600898399199599753e+00
1.620908379189594850e+00
1.640918359179589725e+00
1.660928339169584822e+00
1.680938319159579919e+00
1.700948299149575016e+00
1.720958279139569669e+00
1.740968259129564988e+00
1.760978239119559641e+00
1.780988219109554516e+00
1.800998199099549613e+00
1.821008179089544710e+00
1.841018159079540029e+00
1.861028139069534459e+00
1.881038119059529778e+00
1.901048099049524875e+00
1.921058079039519750e+00
1.941068059029514403e+00
1.961078039019509722e+00
1.981088019009504597e+00
2.001097998999499694e+00
2.021107978989494569e+00
2.041117958979489888e+00
2.061127938969484763e+00
2.081137918959479638e+00
2.101147898949474513e+00
2.121157878939469832e+00
2.141167858929465151e+00
2.161177838919459138e+00
2.181187818909454901e+00
2.201197798899449332e+00
2.221207778889445095e+00
2.241217758879439526e+00
2.261227738869434400e+00
2.281237718859429719e+00
2.301247698849424594e+00
2.321257678839419913e+00
2.341267658829414788e+00
2.361277638819409663e+00
2.381287618809404094e+00
2.401297598799399413e+00
2.421307578789394732e+00
2.441317558779389607e+00
2.461327538769384482e+00
2.481337518759379801e+00
2.501347498749374232e+00
2.521357478739369995e+00
2.541367458729364426e+00
2.561377438719359745e+00
2.581387418709354620e+00
2.601397398699349495e+00
2.621407378689344370e+00
2.641417358679339689e+00
2.661427338669335008e+00
2.681437318659329438e+00
2.701447298649324757e+00
2.721457278639319632e+00
2.741467258629314507e+00
2.761477238619309382e+00
2.781487218609304701e+00
2.801497198599299132e+00
2.821507178589294451e+00
2.841517158579288882e+00
2.861527138569284645e+00
2.881537118559279520e+00
2.901547098549274839e+00
2.921557078539269714e+00
2.941567058529264589e+00
2.961577038519260352e+00
2.981587018509254339e+00
3.001596998499249214e+00
3.021606978489244089e+00
3.041616958479239408e+00
3.061626938469234283e+00
3.081636918459229157e+00
3.101646898449224921e+00
3.121656878439219351e+00
3.141666858429214226e+00
3.161676838419209101e+00
3.181686818409204420e+00
3.201696798399199739e+00
3.221706778389194170e+00
3.241716758379189489e+00
3.261726738369184808e+00
3.281736718359179239e+00
3.301746698349175002e+00
3.321756678339169433e+00
3.341766658329165196e+00
3.361776638319160071e+00
3.381786618309154946e+00
3.401796598299148933e+00
3.421806578289143808e+00
3.441816558279139571e+00
3.461826538269134002e+00
3.481836518259128876e+00
3.501846498249124640e+00
3.521856478239119514e+00
3.541866458229113945e+00
3.561876438219108820e+00
3.581886418209104139e+00
3.601896398199099458e+00
3.621906378189094333e+00
3.641916358179089652e+00
3.661926338169084527e+00
3.681936318159079846e+00
3.701946298149074277e+00
3.721956278139069152e+00
3.741966258129064915e+00
3.761976238119059346e+00
3.781986218109054665e+00
3.801996198099049984e+00
3.822006178089044859e+00
3.842016158079038401e+00
3.862026138069033721e+00
3.882036118059029040e+00
3.902046098049024359e+00
3.922056078039018789e+00
3.942066058029014108e+00
3.962076038019008983e+00
3.982086018009005191e+00
4.002095997998999621e+00
4.022105977988994496e+00
4.042115957978989371e+00
4.062125937968984246e+00
4.082135917958979121e+00
4.102145897948974884e+00
4.122155877938969759e+00
4.142165857928964634e+00
4.162175837918958621e+00
4.182185817908954384e+00
4.202195797898950147e+00
4.222205777888944134e+00
4.242215757878939897e+00
4.262225737868934772e+00
4.282235717858929647e+00
4.302245697848923633e+00
4.322255677838919397e+00
4.342265657828914271e+00
4.362275637818908258e+00
4.382285617808904021e+00
4.402295597798899784e+00
4.422305577788894659e+00
4.442315557778889534e+00
4.462325537768883521e+00
4.482335517758878396e+00
4.502345497748875047e+00
4.522355477738869034e+00
4.542365457728863909e+00
4.562375437718859672e+00
4.582385417708854547e+00
4.602395397698849422e+00
4.622405377688844297e+00
4.642415357678839172e+00
4.662425337668834047e+00
4.682435317658828922e+00
4.702445297648824685e+00
4.722455277638819560e+00
4.742465257628814435e+00
4.762475237618808421e+00
4.782485217608804184e+00
4.802495197598799059e+00
4.822505177588793934e+00
4.842515157578788809e+00
4.862525137568783684e+00
4.882535117558780335e+00
4.902545097548773434e+00
4.922555077538769197e+00
4.942565057528764072e+00
4.962575037518758059e+00
4.982585017508754710e+00
5.002594997498749585e+00
5.022604977488744460e+00
5.042614957478739335e+00
5.062624937468733322e+00
5.082634917458729085e+00
5.102644897448724848e+00
5.122654877438718835e+00
5.142664857428714598e+00
5.162674837418709473e+00
5.182684817408705236e+00
5.202694797398698334e+00
5.222704777388693209e+00
5.242714757378688972e+00
5.262724737368682959e+00
5.282734717358678722e+00
5.302744697348674485e+00
5.322754677338670248e+00
5.342764657328663347e+00
5.362774637318659110e+00
5.382784617308654873e+00
5.402794597298649748e+00
5.422804577288643735e+00
5.442814557278638610e+00
5.462824537268633485e+00
5.482834517258630136e+00
5.502844497248624123e+00
5.522854477238618998e+00
5.542864457228613873e+00
5.562874437218608747e+00
5.582884417208603622e+00
5.602894397198598497e+00
5.622904377188594260e+00
5.642914357178589135e+00
5.662924337168584010e+00
5.682934317158578885e+00
5.702944297148573760e+00
5.722954277138568635e+00
5.742964257128564398e+00
5.762974237118560161e+00
5.782984217108555036e+00
5.802994197098549023e+00
5.823004177088543010e+00
5.843014157078537885e+00
5.863024137068533648e+00
5.883034117058529411e+00
5.903044097048524286e+00
5.923054077038519161e+00
5.943064057028514036e+00
5.963074037018508911e+00
5.983084017008503785e+00
6.003093996998499549e+00
6.023103976988494423e+00
6.043113956978489298e+00
6.063123936968484173e+00
6.083133916958479048e+00
6.103143896948473923e+00
6.123153876938467910e+00
6.143163856928463673e+00
6.163173836918459436e+00
6.183183816908454311e+00
6.203193796898449186e+00
6.223203776888444061e+00
6.243213756878439824e+00
6.263223736868434699e+00
6.283233716858429574e+00
6.303243696848424449e+00
6.323253676838419324e+00
6.343263656828414199e+00
6.363273636818408185e+00
6.383283616808403060e+00
6.403293596798397935e+00
6.423303576788391922e+00
6.443313556778388573e+00
6.463323536768383448e+00
6.483333516758378323e+00
6.503343496748373198e+00
6.523353476738368961e+00
6.543363456728364724e+00
6.563373436718358711e+00
6.583383416708353586e+00
6.603393396698348461e+00
6.623403376688343336e+00
6.643413356678339987e+00
6.663423336668333086e+00
6.683433316658328849e+00
6.703443296648323724e+00
6.723453276638318599e+00
6.743463256628313474e+00
6.763473236618310125e+00
6.783483216608303223e+00
6.803493196598297210e+00
6.823503176588293861e+00
6.843513156578288736e+00
6.863523136568284500e+00
6.883533116558278486e+00
6.903543096548273361e+00
6.923553076538269124e+00
6.943563056528263999e+00
6.963573036518258874e+00
6.983583016508253749e+00
7.003592996498248624e+00
7.023602976488242611e+00
7.043612956478240150e+00
7.063622936468234137e+00
7.083632916458229012e+00
7.103642896448223887e+00
7.123652876438217874e+00
7.143662856428215413e+00
7.163672836418208512e+00
7.183682816408205163e+00
7.203692796398199150e+00
7.223702776388194025e+00
7.243712756378188899e+00
7.263722736368182886e+00
7.283732716358177761e+00
7.303742696348172636e+00
7.323752676338168399e+00
7.343762656328162386e+00
7.363772636318159037e+00
7.383782616308153024e+00
7.403792596298147011e+00
7.423802576288143662e+00
7.443812556278137649e+00
7.463822536268134300e+00
7.483832516258128287e+00
7.503842496248123162e+00
7.523852476238118925e+00
7.543862456228112912e+00
7.563872436218107786e+00
7.583882416208103550e+00
7.603892396198098425e+00
7.623902376188094188e+00
7.643912356178089063e+00
7.663922336168083049e+00
7.683932316158077924e+00
7.703942296148073687e+00
7.723952276138067674e+00
7.743962256128064325e+00
7.763972236118058312e+00
7.783982216108054075e+00
7.803992196098048062e+00
7.824002176088043825e+00
7.844012156078038700e+00
7.864022136068033575e+00
7.884032116058028450e+00
7.904042096048023325e+00
7.924052076038019088e+00
7.944062056028013963e+00
7.964072036018008838e+00
7.984082016008003713e+00
8.004091995997997699e+00
8.024101975987994351e+00
8.044111955977989226e+00
8.064121935967984101e+00
8.084131915957978975e+00
8.104141895947972074e+00
8.124151875937966949e+00
8.144161855927961824e+00
8.164171835917958475e+00
8.184181815907953350e+00
8.204191795897948225e+00
8.224201775887943100e+00
8.244211755877937975e+00
8.264221735867932850e+00
8.284231715857929501e+00
8.304241695847922600e+00
8.324251675837915698e+00
8.344261655827912350e+00
8.364271635817909001e+00
8.384281615807903876e+00
8.404291595797898751e+00
8.424301575787893626e+00
8.444311555777888501e+00
8.464321535767883375e+00
8.484331515757878250e+00
8.504341495747873125e+00
8.524351475737868000e+00
8.544361455727862875e+00
8.564371435717859526e+00
8.584381415707854401e+00
8.604391395697847500e+00
8.624401375687844151e+00
8.644411355677837250e+00
8.664421335667833901e+00
8.684431315657828776e+00
8.704441295647823651e+00
8.724451275637818526e+00
8.744461255627813401e+00
8.764471235617808276e+00
8.784481215607803151e+00
8.804491195597799802e+00
8.824501175587794677e+00
8.844511155577789552e+00
8.864521135567782650e+00
8.884531115557779302e+00
8.904541095547772400e+00
8.924551075537767275e+00
8.944561055527765703e+00
8.964571035517757025e+00
8.984581015507755453e+00
9.004590995497748551e+00
9.024600975487743426e+00
9.044610955477738301e+00
9.064620935467731400e+00
9.084630915457726275e+00
9.104640895447722926e+00
9.124650875437717801e+00
9.144660855427712676e+00
9.164670835417709327e+00
9.184680815407702426e+00
9.204690795397697300e+00
9.224700775387693952e+00
9.244710755377687050e+00
9.264720735367683702e+00
9.284730715357676800e+00
9.304740695347671675e+00
9.324750675337668326e+00
9.344760655327663201e+00
9.364770635317658076e+00
9.384780615307652951e+00
9.404790595297647826e+00
9.424800575287642701e+00
9.444810555277637576e+00
9.464820535267632451e+00
9.484830515257629102e+00
9.504840495247622201e+00
9.524850475237618852e+00
9.544860455227613727e+00
9.564870435217608602e+00
9.584880415207605253e+00
9.604890395197598352e+00
9.624900375187593227e+00
9.644910355177588102e+00
9.664920335167582977e+00
9.684930315157577851e+00
9.704940295147572726e+00
9.724950275137569378e+00
9.744960255127564253e+00
9.764970235117559128e+00
9.784980215107554002e+00
9.804990195097547101e+00
9.825000175087543752e+00
9.845010155077536851e+00
9.865020135067533502e+00
9.885030115057526601e+00
9.905040095047521476e+00
9.925050075037518127e+00
9.945060055027513002e+00
9.965070035017507877e+00
9.985080015007502752e+00
1.000508999499749763e+01
1.002509997498749250e+01
1.004510995497748738e+01
1.006511993496748225e+01
1.008512991495747713e+01
1.010513989494747200e+01
1.012514987493746688e+01
1.014515985492746353e+01
1.016516983491745840e+01
1.018517981490745328e+01
1.020518979489744815e+01
1.022519977488744303e+01
1.024520975487743790e+01
1.026521973486743100e+01
1.028522971485742765e+01
1.030523969484742253e+01
1.032524967483741918e+01
1.034525965482741228e+01
1.036526963481740893e+01
1.038527961480740203e+01
1.040528959479739690e+01
1.042529957478739355e+01
1.044530955477738665e+01
1.046531953476738330e+01
1.048532951475737640e+01
1.050533949474737305e+01
1.052534947473736970e+01
1.054535945472736458e+01
1.056536943471735768e+01
1.058537941470735255e+01
1.060538939469734743e+01
1.062539937468734230e+01
1.064540935467733895e+01
1.066541933466733205e+01
1.068542931465732870e+01
1.070543929464732358e+01
1.072544927463731845e+01
1.074545925462731510e+01
1.076546923461730820e+01
1.078547921460730485e+01
1.080548919459729795e+01
1.082549917458729283e+01
1.084550915457728770e+01
1.086551913456728258e+01
1.088552911455727568e+01
1.090553909454727410e+01
1.092554907453726898e+01
1.094555905452726208e+01
1.096556903451725873e+01
1.098557901450725183e+01
1.100558899449724670e+01
1.102559897448724158e+01
1.104560895447723645e+01
1.106561893446723310e+01
1.108562891445722798e+01
1.110563889444722463e+01
1.112564887443721773e+01
1.114565885442721438e+01
1.116566883441720925e+01
1.118567881440720235e+01
1.120568879439719900e+01
1.122569877438719210e+01
1.124570875437718875e+01
1.126571873436718008e+01
1.128572871435718028e+01
1.130573869434717160e+01
1.132574867433716648e+01
1.134575865432716313e+01
1.136576863431715623e+01
1.138577861430715288e+01
1.140578859429714598e+01
1.142579857428714263e+01
1.144580855427713573e+01
1.146581853426713060e+01
1.148582851425712903e+01
1.150583849424712213e+01
1.152584847423711878e+01
1.154585845422711188e+01
1.156586843421710853e+01
1.158587841420710340e+01
1.160588839419709650e+01
1.162589837418709315e+01
1.164590835417708625e+01
1.166591833416708290e+01
1.168592831415707956e+01
1.170593829414707443e+01
1.172594827413706575e+01
1.174595825412706596e+01
1.176596823411705728e+01
1.178597821410705215e+01
1.180598819409704703e+01
1.182599817408704368e+01
1.184600815407703678e+01
1.186601813406703343e+01
1.188602811405702830e+01
1.190603809404702496e+01
1.192604807403701628e+01
1.194605805402701293e+01
1.196606803401700603e+01
1.198607801400700268e+01
1.200608799399699755e+01
1.202609797398699243e+01
1.204610795397698730e+01
1.206611793396698040e+01
1.208612791395697883e+01
1.210613789394697015e+01
1.212614787393696858e+01
1.214615785392695990e+01
1.216616783391695655e+01
1.218617781390695143e+01
1.220618779389694630e+01
1.222619777388694118e+01
1.224620775387693783e+01
1.226621773386693270e+01
1.228622771385692936e+01
1.230623769384692245e+01
1.232624767383691733e+01
1.234625765382691398e+01
1.236626763381690708e+01
1.238627761380690018e+01
1.240628759379689683e+01
1.242629757378689170e+01
1.244630755377688835e+01
1.246631753376688323e+01
1.248632751375687988e+01
1.250633749374687298e+01
1.252634747373686785e+01
1.254635745372686095e+01
1.256636743371685760e+01
1.258637741370685070e+01
1.260638739369684735e+01
1.262639737368684223e+01
1.264640735367683710e+01
1.266641733366683020e+01
1.268642731365683041e+01
1.270643729364682173e+01
1.272644727363682016e+01
1.274645725362681148e+01
1.276646723361680813e+01
1.278647721360680123e+01
1.280648719359679788e+01
1.282649717358679098e+01
1.284650715357678763e+01
1.286651713356678428e+01
1.288652711355677916e+01
1.290653709354677403e+01
1.292654707353676713e+01
1.294655705352676378e+01
1.296656703351675688e+01
1.298657701350675175e+01
1.300658699349674841e+01
1.302659697348674150e+01
1.304660695347673993e+01
1.306661693346673303e+01
1.308662691345672791e+01
1.310663689344672456e+01
1.312664687343671588e+01
1.314665685342671075e+01
1.316666683341670563e+01
1.318667681340670228e+01
1.320668679339669538e+01
1.322669677338669203e+01
1.324670675337668690e+01
1.326671673336668178e+01
1.328672671335667843e+01
1.330673669334667153e+01
1.332674667333666463e+01
1.334675665332666483e+01
1.336676663331665615e+01
1.338677661330665281e+01
1.340678659329664590e+01
1.342679657328664078e+01
1.344680655327663743e+01
1.346681653326663408e+01
1.348682651325662718e+01
1.350683649324662206e+01
1.352684647323661871e+01
1.354685645322661358e+01
1.356686643321660668e+01
1.358687641320660155e+01
1.360688639319659643e+01
1.362689637318659308e+01
1.364690635317658796e+01
1.366691633316658461e+01
1.368692631315657593e+01
1.370693629314657436e+01
1.372694627313656746e+01
1.374695625312656233e+01
1.376696623311655543e+01
1.378697621310655208e+01
1.380698619309654873e+01
1.382699617308654361e+01
1.384700615307653848e+01
1.386701613306652980e+01
1.388702611305652646e+01
1.390703609304652488e+01
1.392704607303651798e+01
1.394705605302650930e+01
1.396706603301650595e+01
1.398707601300650438e+01
1.400708599299649570e+01
1.402709597298649236e+01
1.404710595297648901e+01
1.406711593296648033e+01
1.408712591295647876e+01
1.410713589294647186e+01
1.412714587293646673e+01
1.414715585292645983e+01
1.416716583291645648e+01
1.418717581290645313e+01
1.420718579289644623e+01
1.422719577288644288e+01
1.424720575287643598e+01
1.426721573286643263e+01
1.428722571285642928e+01
1.430723569284642238e+01
1.432724567283641548e+01
1.434725565282641035e+01
1.436726563281640878e+01
1.438727561280640010e+01
1.440728559279639676e+01
1.442729557278639163e+01
1.444730555277638828e+01
1.446731553276638316e+01
1.448732551275637803e+01
1.450733549274637113e+01
1.452734547273636601e+01
1.454735545272636266e+01
1.456736543271635753e+01
1.458737541270635063e+01
1.460738539269634728e+01
1.462739537268634038e+01
1.464740535267633881e+01
1.466741533266633191e+01
1.468742531265632856e+01
1.470743529264631988e+01
1.472744527263631831e+01
1.474745525262631318e+01
1.476746523261630450e+01
1.478747521260630116e+01
1.480748519259629603e+01
1.482749517258629268e+01
1.484750515257628578e+01
1.486751513256628243e+01
1.488752511255627375e+01
1.490753509254627218e+01
1.492754507253626706e+01
1.494755505252626016e+01
1.496756503251625503e+01
1.498757501250625168e+01
1.500758499249624833e+01
1.502759497248624321e+01
1.504760495247623631e+01
1.506761493246623118e+01
1.508762491245622428e+01
1.510763489244622271e+01
1.512764487243621758e+01
1.514765485242621068e+01
1.516766483241620556e+01
1.518767481240620398e+01
1.520768479239619708e+01
1.522769477238619373e+01
1.524770475237618683e+01
1.526771473236617993e+01
1.528772471235617658e+01
1.530773469234617323e+01
1.532774467233616456e+01
1.534775465232616121e+01
1.536776463231615431e+01
1.538777461230615451e+01
1.540778459229614761e+01
1.542779457228614248e+01
1.544780455227613558e+01
1.546781453226613401e+01
1.548782451225612711e+01
1.550783449224612376e+01
1.552784447223611508e+01
1.554785445222611173e+01
1.556786443221610838e+01
1.558787441220610326e+01
1.560788439219609636e+01
1.562789437218609478e+01
1.564790435217608788e+01
1.566791433216608453e+01
1.568792431215607763e+01
1.570793429214606718e+01
1.572794427213606383e+01
1.574795425212606403e+01
1.576796423211605358e+01
1.578797421210605201e+01
1.580798419209604866e+01
1.582799417208603820e+01
1.584800415207603841e+01
1.586801413206603151e+01
1.588802411205602816e+01
1.590803409204601770e+01
1.592804407203601791e+01
1.594805405202601101e+01
1.596806403201600588e+01
1.598807401200600253e+01
1.600808399199599918e+01
1.602809397198599228e+01
1.604810395197598893e+01
1.606811393196598203e+01
1.608812391195597513e+01
1.610813389194597178e+01
1.612814387193596843e+01
1.614815385192595798e+01
1.616816383191595463e+01
1.618817381190595128e+01
1.620818379189594793e+01
1.622819377188594103e+01
1.624820375187593768e+01
1.626821373186593434e+01
1.628822371185592743e+01
1.630823369184592408e+01
1.632824367183592074e+01
1.634825365182591028e+01
1.636826363181590693e+01
1.638827361180590358e+01
1.640828359179589668e+01
1.642829357178589333e+01
1.644830355177588643e+01
1.646831353176587953e+01
1.648832351175587974e+01
1.650833349174587283e+01
1.652834347173586238e+01
1.654835345172585903e+01
1.656836343171585924e+01
1.658837341170585233e+01
1.660838339169584543e+01
1.662839337168583853e+01
1.664840335167583163e+01
1.666841333166583539e+01
1.668842331165582848e+01
1.670843329164582514e+01
1.672844327163581468e+01
1.674845325162581133e+01
1.676846323161580798e+01
1.678847321160580108e+01
1.680848319159579418e+01
1.682849317158579083e+01
1.684850315157578748e+01
1.686851313156578058e+01
1.688852311155577723e+01
1.690853309154577033e+01
1.692854307153576343e+01
1.694855305152576364e+01
1.696856303151575318e+01
1.698857301150574983e+01
1.700858299149574293e+01
1.702859297148573958e+01
1.704860295147573623e+01
1.706861293146573288e+01
1.708862291145572954e+01
1.710863289144572263e+01
1.712864287143571929e+01
1.714865285142571594e+01
1.716866283141570548e+01
1.718867281140570213e+01
1.720868279139569523e+01
1.722869277138569188e+01
1.724870275137568498e+01
1.726871273136568163e+01
1.728872271135567473e+01
1.730873269134567138e+01
1.732874267133566804e+01
1.734875265132566113e+01
1.736876263131565423e+01
1.738877261130565088e+01
1.740878259129564753e+01
1.742879257128564063e+01
1.744880255127563728e+01
1.746881253126563394e+01
1.748882251125562703e+01
1.750883249124562369e+01
1.752884247123561678e+01
1.754885245122560988e+01
1.756886243121560653e+01
1.758887241120560674e+01
1.760888239119559628e+01
1.762889237118558938e+01
1.764890235117558603e+01
1.766891233116557913e+01
1.768892231115557578e+01
1.770893229114557244e+01
1.772894227113556553e+01
1.774895225112555863e+01
1.776896223111555884e+01
1.778897221110555193e+01
1.780898219109554503e+01
1.782899217108554168e+01
1.784900215107553478e+01
1.786901213106553143e+01
1.788902211105552809e+01
1.790903209104552118e+01
1.792904207103551784e+01
1.794905205102551093e+01
1.796906203101550759e+01
1.798907201100550068e+01
1.800908199099549734e+01
1.802909197098549043e+01
1.804910195097548709e+01
1.806911193096548018e+01
1.808912191095547684e+01
1.810913189094546993e+01
1.812914187093546659e+01
1.814915185092545968e+01
1.816916183091545633e+01
1.818917181090544943e+01
1.820918179089544608e+01
1.822919177088544274e+01
1.824920175087543939e+01
1.826921173086543249e+01
1.828922171085542914e+01
1.830923169084542224e+01
1.832924167083541889e+01
1.834925165082541199e+01
1.836926163081540508e+01
1.838927161080540174e+01
1.840928159079539483e+01
1.842929157078539149e+01
1.844930155077538458e+01
1.846931153076538124e+01
1.848932151075537433e+01
1.850933149074537098e+01
1.852934147073536408e+01
1.854935145072536073e+01
1.856936143071535383e+01
1.858937141070535048e+01
1.860938139069534714e+01
1.862939137068534379e+01
1.864940135067533689e+01
1.866941133066533354e+01
1.868942131065532308e+01
1.870943129064532329e+01
1.872944127063531639e+01
1.874945125062530948e+01
1.876946123061530614e+01
1.878947121060530279e+01
1.880948119059529589e+01
1.882949117058529254e+01
1.884950115057528564e+01
1.886951113056527873e+01
1.888952111055527538e+01
1.890953109054527204e+01
1.892954107053526158e+01
1.894955105052525823e+01
1.896956103051525488e+01
1.898957101050525154e+01
1.900958099049524819e+01
1.902959097048524484e+01
1.904960095047523438e+01
1.906961093046523459e+01
1.908962091045522769e+01
1.910963089044522434e+01
1.912964087043521388e+01
1.914965085042521054e+01
1.916966083041520719e+01
1.918967081040520029e+01
1.920968079039519694e+01
1.922969077038519004e+01
1.924970075037518669e+01
1.926971073036518334e+01
1.928972071035517644e+01
1.930973069034516598e+01
1.932974067033516263e+01
1.934975065032516284e+01
1.936976063031515594e+01
1.938977061030514903e+01
1.940978059029514569e+01
1.942979057028514589e+01
1.944980055027513899e+01
1.946981053026513209e+01
1.948982051025512874e+01
1.950983049024511828e+01
1.952984047023511849e+01
1.954985045022511159e+01
1.956986043021510469e+01
1.958987041020509778e+01
1.960988039019509444e+01
1.962989037018509109e+01
1.964990035017508774e+01
1.966991033016508084e+01
1.968992031015507393e+01
1.970993029014507059e+01
1.972994027013506724e+01
1.974995025012505678e+01
1.976996023011505343e+01
1.978997021010505009e+01
1.980998019009505029e+01
1.982999017008504339e+01
1.985000015007503649e+01
1.987001013006503314e+01
1.989002011005502624e+01
1.991003009004502289e+01
1.993004007003501954e+01
1.995005005002500909e+01
1.997006003001500574e+01
1.999007001000500239e+01
2.001007998999499549e+01
2.003008996998498858e+01
2.005009994997498524e+01
2.007010992996497833e+01
2.009011990995497499e+01
2.011012988994497164e+01
2.013013986993496118e+01
2.015014984992495783e+01
2.017015982991495804e+01
2.019016980990495469e+01
2.021017978989494424e+01
2.023018976988494089e+01
2.025019974987493754e+01
2.027020972986493064e+01
2.029021970985492729e+01
2.031022968984492394e+01
2.033023966983491349e+01
2.035024964982491014e+01
2.037025962981490679e+01
2.039026960980489989e+01
2.041027958979489298e+01
2.043028956978488964e+01
2.045029954977488273e+01
2.047030952976487939e+01
2.049031950975487604e+01
2.051032948974486914e+01
2.053033946973486223e+01
2.055034944972486244e+01
2.057035942971485554e+01
2.059036940970485219e+01
2.061037938969484529e+01
2.063038936968484549e+01
2.065039934967483504e+01
2.067040932966483169e+01
2.069041930965482479e+01
2.071042928964482144e+01
2.073043926963481809e+01
2.075044924962481119e+01
2.077045922961480429e+01
2.079046920960480094e+01
2.081047918959479404e+01
2.083048916958479069e+01
2.085049914957478379e+01
2.087050912956478044e+01
2.089051910955477354e+01
2.091052908954477019e+01
2.093053906953476329e+01
2.095054904952475994e+01
2.097055902951475659e+01
2.099056900950475324e+01
2.101057898949474989e+01
2.103058896948474299e+01
2.105059894947473609e+01
2.107060892946473274e+01
2.109061890945472584e+01
2.111062888944472249e+01
2.113063886943471559e+01
2.115064884942470869e+01
2.117065882941470178e+01
2.119066880940470199e+01
2.121067878939469509e+01
2.123068876938468819e+01
2.125069874937468128e+01
2.127070872936467794e+01
2.129071870935467459e+01
2.131072868934466769e+01
2.133073866933466434e+01
2.135074864932466099e+01
2.137075862931465764e+01
2.139076860930465429e+01
2.141077858929464739e+01
2.143078856928464049e+01
2.145079854927463359e+01
2.147080852926463379e+01
2.149081850925462689e+01
2.151082848924461999e+01
2.153083846923461664e+01
2.155084844922460974e+01
2.157085842921460639e+01
2.159086840920460304e+01
2.161087838919459614e+01
2.163088836918458924e+01
2.165089834917458234e+01
2.167090832916458254e+01
2.169091830915457564e+01
2.171092828914456874e+01
2.173093826913456184e+01
2.175094824912456559e+01
2.177095822911455869e+01
2.179096820910455179e+01
2.181097818909454844e+01
2.183098816908454509e+01
2.185099814907453464e+01
2.187100812906453484e+01
2.189101810905452794e+01
2.191102808904451749e+01
2.193103806903451414e+01
2.195104804902451434e+01
2.197105802901450389e+01
2.199106800900449699e+01
2.201107798899449719e+01
2.203108796898449029e+01
2.205109794897448339e+01
2.207110792896447649e+01
2.209111790895446958e+01
2.211112788894446979e+01
2.213113786893446644e+01
2.215114784892445954e+01
2.217115782891445619e+01
2.219116780890444929e+01
2.221117778889444594e+01
2.223118776888444259e+01
2.225119774887443569e+01
2.227120772886442879e+01
2.229121770885442899e+01
2.231122768884442209e+01
2.233123766883441519e+01
2.235124764882440829e+01
2.237125762881440494e+01
2.239126760880440159e+01
2.241127758879439469e+01
2.243128756878439134e+01
2.245129754877438444e+01
2.247130752876437754e+01
2.249131750875437774e+01
2.251132748874437084e+01
2.253133746873436749e+01
2.255134744872436059e+01
2.257135742871436079e+01
2.259136740870435389e+01
2.261137738869434699e+01
2.263138736868434009e+01
2.265139734867433674e+01
2.267140732866432984e+01
2.269141730865432649e+01
2.271142728864432314e+01
2.273143726863431624e+01
2.275144724862430934e+01
2.277145722861430954e+01
2.279146720860429909e+01
2.281147718859429574e+01
2.283148716858428884e+01
2.285149714857428549e+01
2.287150712856427859e+01
2.289151710855427524e+01
2.291152708854426834e+01
2.293153706853426144e+01
2.295154704852426164e+01
2.297155702851426184e+01
2.299156700850424784e+01
2.301157698849424449e+01
2.303158696848424114e+01
2.305159694847423424e+01
2.307160692846423089e+01
2.309161690845422399e+01
2.311162688844421709e+01
2.313163686843421729e+01
2.315164684842421039e+01
2.317165682841420349e+01
2.319166680840419659e+01
2.321167678839419324e+01
2.323168676838418989e+01
2.325169674837418299e+01
2.327170672836417964e+01
2.329171670835417274e+01
2.331172668834417294e+01
2.333173666833416249e+01
2.335174664832416269e+01
2.337175662831415579e+01
2.339176660830414889e+01
2.341177658829414199e+01
2.343178656828414219e+01
2.345179654827413529e+01
2.347180652826413194e+01
2.349181650825412504e+01
2.351182648824412169e+01
2.353183646823411834e+01
2.355184644822411144e+01
2.357185642821410099e+01
2.359186640820410474e+01
2.361187638819409784e+01
2.363188636818409094e+01
2.365189634817408049e+01
2.367190632816407359e+01
2.369191630815407734e+01
2.371192628814407044e+01
2.373193626813406354e+01
2.375194624812405664e+01
2.377195622811405684e+01
2.379196620810404994e+01
2.381197618809404304e+01
2.383198616808403969e+01
2.385199614807403634e+01
2.387200612806402944e+01
2.389201610805402609e+01
2.391202608804401919e+01
2.393203606803401584e+01
2.395204604802401249e+01
2.397205602801400559e+01
2.399206600800399869e+01
2.401207598799399889e+01
2.403208596798398489e+01
2.405209594797398509e+01
2.407210592796397819e+01
2.409211590795397484e+01
2.411212588794397149e+01
2.413213586793396459e+01
2.415214584792395769e+01
2.417215582791395789e+01
2.419216580790395099e+01
2.421217578789394409e+01
2.423218576788393719e+01
2.425219574787393739e+01
2.427220572786393049e+01
2.429221570785392359e+01
2.431222568784392024e+01
2.433223566783391689e+01
2.435224564782390999e+01
2.437225562781390664e+01
2.439226560780389974e+01
2.441227558779389284e+01
2.443228556778389304e+01
2.445229554777388614e+01
2.447230552776387924e+01
2.449231550775387589e+01
2.451232548774387610e+01
2.453233546773386564e+01
2.455234544772385874e+01
2.457235542771385539e+01
2.459236540770385204e+01
2.461237538769384514e+01
2.463238536768383824e+01
2.465239534767383844e+01
2.467240532766383154e+01
2.469241530765382464e+01
2.471242528764381774e+01
2.473243526763381439e+01
2.475244524762381104e+01
2.477245522761380059e+01
2.479246520760380079e+01
2.481247518759379389e+01
2.483248516758379054e+01
2.485249514757378009e+01
2.487250512756377674e+01
2.489251510755377694e+01
2.491252508754377004e+01
2.493253506753376314e+01
2.495254504752375979e+01
2.497255502751375289e+01
2.499256500750374954e+01
2.501257498749374619e+01
2.503258496748373929e+01
2.505259494747373239e+01
2.507260492746373259e+01
2.509261490745372569e+01
2.511262488744371879e+01
2.513263486743371189e+01
2.515264484742371209e+01
2.517265482741370519e+01
2.519266480740369829e+01
2.521267478739369494e+01
2.523268476738368804e+01
2.525269474737368469e+01
2.527270472736368490e+01
2.529271470735367089e+01
2.531272468734367109e+01
2.533273466733366419e+01
2.535274464732366084e+01
2.537275462731365394e+01
2.539276460730365059e+01
2.541277458729364724e+01
2.543278456728364034e+01
2.545279454727363344e+01
2.547280452726363364e+01
2.549281450725362674e+01
2.551282448724361984e+01
2.553283446723361294e+01
2.555284444722361314e+01
2.557285442721360624e+01
2.559286440720359934e+01
2.561287438719359244e+01
2.563288436718359264e+01
2.565289434717358574e+01
2.567290432716357884e+01
2.569291430715357194e+01
2.571292428714357570e+01
2.573293426713356524e+01
2.575294424712355834e+01
2.577295422711355499e+01
2.579296420710354809e+01
2.581297418709354474e+01
2.583298416708354139e+01
2.585299414707353449e+01
2.587300412706352759e+01
2.589301410705352779e+01
2.591302408704352089e+01
2.593303406703351399e+01
2.595304404702350709e+01
2.597305402701350019e+01
2.599306400700350039e+01
2.601307398699349349e+01
2.603308396698348659e+01
2.605309394697348679e+01
2.607310392696347989e+01
2.609311390695347654e+01
2.611312388694346609e+01
2.613313386693346629e+01
2.615314384692345939e+01
2.617315382691345249e+01
2.619316380690344914e+01
2.621317378689344579e+01
2.623318376688343889e+01
2.625319374687343554e+01
2.627320372686342864e+01
2.629321370685342529e+01
2.631322368684342194e+01
2.633323366683341504e+01
2.635324364682340814e+01
2.637325362681340835e+01
2.639326360680340144e+01
2.641327358679339454e+01
2.643328356678338764e+01
2.645329354677339140e+01
2.647330352676338450e+01
2.649331350675337404e+01
2.651332348674336714e+01
2.653333346673336024e+01
2.655334344672336044e+01
2.657335342671335354e+01
2.659336340670334664e+01
2.661337338669333619e+01
2.663338336668333639e+01
2.665339334667332949e+01
2.667340332666332259e+01
2.669341330665332279e+01
2.671342328664331944e+01
2.673343326663330899e+01
2.675344324662330209e+01
2.677345322661329874e+01
2.679346320660329539e+01
2.681347318659329204e+01
2.683348316658328869e+01
2.685349314657327824e+01
2.687350312656327844e+01
2.689351310655327509e+01
2.691352308654326819e+01
2.693353306653326129e+01
2.695354304652326149e+01
2.697355302651325459e+01
2.699356300650324414e+01
2.701357298649323724e+01
2.703358296648323034e+01
2.705359294647323409e+01
2.707360292646322719e+01
2.709361290645322384e+01
2.711362288644320984e+01
2.713363286643321004e+01
2.715364284642320314e+01
2.717365282641319624e+01
2.719366280640319289e+01
2.721367278639319309e+01
2.723368276638319330e+01
2.725369274637318284e+01
2.727370272636317594e+01
2.729371270635317615e+01
2.731372268634316924e+01
2.733373266633316234e+01
2.735374264632315544e+01
2.737375262631314854e+01
2.739376260630314519e+01
2.741377258629314184e+01
2.743378256628313494e+01
2.745379254627313514e+01
2.747380252626312824e+01
2.749381250625311779e+01
2.751382248624311089e+01
2.753383246623311109e+01
2.755384244622310419e+01
2.757385242621309729e+01
2.759386240620309394e+01
2.761387238619309770e+01
2.763388236618308724e+01
2.765389234617308389e+01
2.767390232616307699e+01
2.769391230615307364e+01
2.771392228614307029e+01
2.773393226613305629e+01
2.775394224612305294e+01
2.777395222611304959e+01
2.779396220610304979e+01
2.781397218609304289e+01
2.783398216608303599e+01
2.785399214607303620e+01
2.787400212606302574e+01
2.789401210605301884e+01
2.791402208604301194e+01
2.793403206603301214e+01
2.795404204602300524e+01
2.797405202601300189e+01
2.799406200600299854e+01
2.801407198599299520e+01
2.803408196598298829e+01
2.805409194597298139e+01
2.807410192596297804e+01
2.809411190595297114e+01
2.811412188594296424e+01
2.813413186593295734e+01
2.815414184592295754e+01
2.817415182591295064e+01
2.819416180590295085e+01
2.821417178589294394e+01
2.823418176588293704e+01
2.825419174587292659e+01
2.827420172586292324e+01
2.829421170585291989e+01
2.831422168584291299e+01
2.833423166583290609e+01
2.835424164582290985e+01
2.837425162581290294e+01
2.839426160580289604e+01
2.841427158579288914e+01
2.843428156578288934e+01
2.845429154577288244e+01
2.847430152576287554e+01
2.849431150575286509e+01
2.851432148574286529e+01
2.853433146573286194e+01
2.855434144572285859e+01
2.857435142571285169e+01
2.859436140570284834e+01
2.861437138569284500e+01
2.863438136568283099e+01
2.865439134567282764e+01
2.867440132566282429e+01
2.869441130565281739e+01
2.871442128564281759e+01
2.873443126563281069e+01
2.875444124562280379e+01
2.877445122561280400e+01
2.879446120560279709e+01
2.881447118559279019e+01
2.883448116558279040e+01
2.885449114557278349e+01
2.887450112556277304e+01
2.889451110555276969e+01
2.891452108554276990e+01
2.893453106553276299e+01
2.895454104552275609e+01
2.897455102551275274e+01
2.899456100550274940e+01
2.901457098549273894e+01
2.903458096548273204e+01
2.905459094547272514e+01
2.907460092546272890e+01
2.909461090545272555e+01
2.911462088544271865e+01
2.913463086543270819e+01
2.915464084542270484e+01
2.917465082541270505e+01
2.919466080540269814e+01
2.921467078539269124e+01
2.923468076538268434e+01
2.925469074537267744e+01
2.927470072536267764e+01
2.929471070535267074e+01
2.931472068534266384e+01
2.933473066533266405e+01
2.935474064532265714e+01
2.937475062531265024e+01
2.939476060530263979e+01
2.941477058529263999e+01
2.943478056528263309e+01
2.945479054527263330e+01
2.947480052526262639e+01
2.949481050525262305e+01
2.951482048524261259e+01
2.953483046523260924e+01
2.955484044522260589e+01
2.957485042521260254e+01
2.959486040520259920e+01
2.961487038519259229e+01
2.963488036518258895e+01
2.965489034517258560e+01
2.967490032516257870e+01
2.969491030515257179e+01
2.971492028514256489e+01
2.973493026513256510e+01
2.975494024512255820e+01
2.977495022511254774e+01
2.979496020510254084e+01
2.981497018509254460e+01
2.983498016508253770e+01
2.985499014507253079e+01
2.987500012506252745e+01
2.989501010505251699e+01
2.991502008504251364e+01
2.993503006503250674e+01
2.995504004502250694e+01
2.997505002501250004e+01
2.999506000500249669e+01
3.001506998499249690e+01
3.003507996498248644e+01
3.005508994497247954e+01
3.007509992496247975e+01
3.009510990495247285e+01
3.011511988494246594e+01
3.013512986493245549e+01
3.015513984492245214e+01
3.017514982491244879e+01
3.019515980490244544e+01
3.021516978489243854e+01
3.023517976488243875e+01
3.025518974487243185e+01
3.027519972486242139e+01
3.029520970485241449e+01
3.031521968484241469e+01
3.033522966483241134e+01
3.035523964482240444e+01
3.037524962481240465e+01
3.039525960480240130e+01
3.041526958479239084e+01
3.043527956478238750e+01
3.045528954477238059e+01
3.047529952476237725e+01
3.049530950475237390e+01
3.051531948474235989e+01
3.053532946473235654e+01
3.055533944472236030e+01
3.057534942471235340e+01
3.059535940470234650e+01
3.061536938469233959e+01
3.063537936468233980e+01
3.065538934467232934e+01
3.067539932466232244e+01
3.069540930465231554e+01
3.071541928464231219e+01
3.073542926463231240e+01
3.075543924462230905e+01
3.077544922461230570e+01
3.079545920460229524e+01
3.081546918459229190e+01
3.083547916458228499e+01
3.085548914457228165e+01
3.087549912456227474e+01
3.089550910455226784e+01
3.091551908454226094e+01
3.093552906453226115e+01
3.095553904452225424e+01
3.097554902451225445e+01
3.099555900450224755e+01
3.101556898449224065e+01
3.103557896448223019e+01
3.105558894447222684e+01
3.107559892446222349e+01
3.109560890445221659e+01
3.111561888444221680e+01
3.113562886443221700e+01
3.115563884442220655e+01
3.117564882441219964e+01
3.119565880440219274e+01
3.121566878439219295e+01
3.123567876438218605e+01
3.125568874437217914e+01
3.127569872436217224e+01
3.129570870435217245e+01
3.131571868434216555e+01
3.133572866433215864e+01
3.135573864432215174e+01
3.137574862431215195e+01
3.139575860430214505e+01
3.141576858429213814e+01
3.143577856428213124e+01
3.145578854427213145e+01
3.147579852426212454e+01
3.149580850425212475e+01
3.151581848424211785e+01
3.153582846423210739e+01
3.155583844422210760e+01
3.157584842421210070e+01
3.159585840420209379e+01
3.161586838419208689e+01
3.163587836418208710e+01
3.165588834417207309e+01
3.167589832416207329e+01
3.169590830415206639e+01
3.171591828414206660e+01
3.173592826413205970e+01
3.175593824412205279e+01
3.177594822411204589e+01
3.179595820410204610e+01
3.181596818409203919e+01
3.183597816408203229e+01
3.185598814407203250e+01
3.187599812406202560e+01
3.189600810405202225e+01
3.191601808404201535e+01
3.193602806403200844e+01
3.195603804402200865e+01
3.197604802401200175e+01
3.199605800400199485e+01
3.201606798399198794e+01
3.203607796398199525e+01
3.205608794397198125e+01
3.207609792396197435e+01
3.209610790395196744e+01
3.211611788394196765e+01
3.213612786393196075e+01
3.215613784392195384e+01
3.217614782391194694e+01
3.219615780390194004e+01
3.221616778389194025e+01
3.223617776388193334e+01
3.225618774387192644e+01
3.227619772386192665e+01
3.229620770385191975e+01
3.231621768384191284e+01
3.233622766383190594e+01
3.235623764382190615e+01
3.237624762381189925e+01
3.239625760380189234e+01
3.241626758379189255e+01
3.243627756378188565e+01
3.245628754377187875e+01
3.247629752376187184e+01
3.249630750375187205e+01
3.251631748374187225e+01
3.253632746373186535e+01
3.255633744372185134e+01
3.257634742371185155e+01
3.259635740370185175e+01
3.261636738369184485e+01
3.263637736368183795e+01
3.265638734367183105e+01
3.267639732366182415e+01
3.269640730365182435e+01
3.271641728364181745e+01
3.273642726363181055e+01
3.275643724362180365e+01
3.277644722361180385e+01
3.279645720360179695e+01
3.281646718359179005e+01
3.283647716358178315e+01
3.285648714357178335e+01
3.287649712356177645e+01
3.289650710355176955e+01
3.291651708354175554e+01
3.293652706353175574e+01
3.295653704352175595e+01
3.297654702351174905e+01
3.299655700350174214e+01
3.301656698349174235e+01
3.303657696348173545e+01
3.305658694347172855e+01
3.307659692346172164e+01
3.309660690345171474e+01
3.311661688344171495e+01
3.313662686343170805e+01
3.315663684342170114e+01
3.317664682341170135e+01
3.319665680340169445e+01
3.321666678339168755e+01
3.323667676338168064e+01
3.325668674337168085e+01
3.327669672336168105e+01
3.329670670335166704e+01
3.331671668334166014e+01
3.333672666333166745e+01
3.335673664332166055e+01
3.337674662331165365e+01
3.339675660330164675e+01
3.341676658329164695e+01
3.343677656328163295e+01
3.345678654327162604e+01
3.347679652326162625e+01
3.349680650325161935e+01
3.351681648324161955e+01
3.353682646323161265e+01
3.355683644322160575e+01
3.357684642321159885e+01
3.359685640320159905e+01
3.361686638319159215e+01
3.363687636318158525e+01
3.365688634317157835e+01
3.367689632316157144e+01
3.369690630315157165e+01
3.371691628314156475e+01
3.373692626313155785e+01
3.375693624312155805e+01
3.377694622311155115e+01
3.379695620310154425e+01
3.381696618309153024e+01
3.383697616308153044e+01
3.385698614307152354e+01
3.387699612306152375e+01
3.389700610305151685e+01
3.391701608304151705e+01
3.393702606303150304e+01
3.395703604302150325e+01
3.397704602301149635e+01
3.399705600300149655e+01
3.401706598299148965e+01
3.403707596298148275e+01
3.405708594297147584e+01
3.407709592296148315e+01
3.409710590295147625e+01
3.411711588294146935e+01
3.413712586293146245e+01
3.415713584292146265e+01
3.417714582291145575e+01
3.419715580290144175e+01
3.421716578289143484e+01
3.423717576288142794e+01
3.425718574287143525e+01
3.427719572286142835e+01
3.429720570285142145e+01
3.431721568284141455e+01
3.433722566283140765e+01
3.435723564282140785e+01
3.437724562281140095e+01
3.439725560280139405e+01
3.441726558279139425e+01
3.443727556278138735e+01
3.445728554277138045e+01
3.447729552276137355e+01
3.449730550275137375e+01
3.451731548274136685e+01
3.453732546273135995e+01
3.455733544272135305e+01
3.457734542271134615e+01
3.459735540270133924e+01
3.461736538269133945e+01
3.463737536268133255e+01
3.465738534267133275e+01
3.467739532266132585e+01
3.469740530265131184e+01
3.471741528264131205e+01
3.473742526263130515e+01
3.475743524262129824e+01
3.477744522261129845e+01
3.479745520260129155e+01
3.481746518259129175e+01
3.483747516258128485e+01
3.485748514257128505e+01
3.487749512256127815e+01
3.489750510255127836e+01
3.491751508254127145e+01
3.493752506253126455e+01
3.495753504252125055e+01
3.497754502251124364e+01
3.499755500250125095e+01
3.501756498249124405e+01
3.503757496248123715e+01
3.505758494247123735e+01
3.507759492246122335e+01
3.509760490245121645e+01
3.511761488244120955e+01
3.513762486243120975e+01
3.515763484242120285e+01
3.517764482241120305e+01
3.519765480240119615e+01
3.521766478239118925e+01
3.523767476238118235e+01
3.525768474237118255e+01
3.527769472236117565e+01
3.529770470235116875e+01
3.531771468234116895e+01
3.533772466233115495e+01
3.535773464232115515e+01
3.537774462231114825e+01
3.539775460230114845e+01
3.541776458229114155e+01
3.543777456228113465e+01
3.545778454227112064e+01
3.547779452226112085e+01
3.549780450225111395e+01
3.551781448224110704e+01
3.553782446223110725e+01
3.555783444222110745e+01
3.557784442221110055e+01
3.559785440220109365e+01
3.561786438219109385e+01
3.563787436218108695e+01
3.565788434217108005e+01
3.567789432216108025e+01
3.569790430215106625e+01
3.571791428214106645e+01
3.573792426213106666e+01
3.575793424212105975e+01
3.577794422211105285e+01
3.579795420210105306e+01
3.581796418209104615e+01
3.583797416208103215e+01
3.585798414207102525e+01
3.587799412206102545e+01
3.589800410205101855e+01
3.591801408204101875e+01
3.593802406203101185e+01
3.595803404202101206e+01
3.597804402201099805e+01
3.599805400200099115e+01
3.601806398199098425e+01
3.603807396198098445e+01
3.605808394197097755e+01
3.607809392196097065e+01
3.609810390195097085e+01
3.611811388194096395e+01
3.613812386193095705e+01
3.615813384192095725e+01
3.617814382191095035e+01
3.619815380190094345e+01
3.621816378189093655e+01
3.623817376188092965e+01
3.625818374187092274e+01
3.627819372186093005e+01
3.629820370185092315e+01
3.631821368184091625e+01
3.633822366183090224e+01
3.635823364182089534e+01
3.637824362181089555e+01
3.639825360180089575e+01
3.641826358179088885e+01
3.643827356178088195e+01
3.645828354177088926e+01
3.647829352176087525e+01
3.649830350175086835e+01
3.651831348174086855e+01
3.653832346173086165e+01
3.655833344172085475e+01
3.657834342171085495e+01
3.659835340170084095e+01
3.661836338169084115e+01
3.663837336168083425e+01
3.665838334167083445e+01
3.667839332166082755e+01
3.669840330165082776e+01
3.671841328164081375e+01
3.673842326163080685e+01
3.675843324162079995e+01
3.677844322161080015e+01
3.679845320160079325e+01
3.681846318159078635e+01
3.683847316158078655e+01
3.685848314157077965e+01
3.687849312156077275e+01
3.689850310155076585e+01
3.691851308154075895e+01
3.693852306153075915e+01
3.695853304152075225e+01
3.697854302151074535e+01
3.699855300150073845e+01
3.701856298149073865e+01
3.703857296148073175e+01
3.705858294147073195e+01
3.707859292146072505e+01
3.709860290145071104e+01
3.711861288144071125e+01
3.713862286143070435e+01
3.715863284142069745e+01
3.717864282141069765e+01
3.719865280140070496e+01
3.721866278139069806e+01
3.723867276138068405e+01
3.725868274137067715e+01
3.727869272136067735e+01
3.729870270135067045e+01
3.731871268134066355e+01
3.733872266133065665e+01
3.735873264132065685e+01
3.737874262131064995e+01
3.739875260130064305e+01
3.741876258129064325e+01
3.743877256128063635e+01
3.745878254127062945e+01
3.747879252126062255e+01
3.749880250125061565e+01
3.751881248124061585e+01
3.753882246123060895e+01
3.755883244122060205e+01
3.757884242121060225e+01
3.759885240120060246e+01
3.761886238119058845e+01
3.763887236118058155e+01
3.765888234117057465e+01
3.767889232116057485e+01
3.769890230115056795e+01
3.771891228114056105e+01
3.773892226113055415e+01
3.775893224112055435e+01
3.777894222111054745e+01
3.779895220110054055e+01
3.781896218109054075e+01
3.783897216108053385e+01
3.785898214107052695e+01
3.787899212106052005e+01
3.789900210105051315e+01
3.791901208104050625e+01
3.793902206103051356e+01
3.795903204102050665e+01
3.797904202101050686e+01
3.799905200100049285e+01
3.801906198099049305e+01
3.803907196098048615e+01
3.805908194097047925e+01
3.807909192096047235e+01
3.809910190095046545e+01
3.811911188094046565e+01
3.813912186093045875e+01
3.815913184092045185e+01
3.817914182091045205e+01
3.819915180090044515e+01
3.821916178089043825e+01
3.823917176088043135e+01
3.825918174087043155e+01
3.827919172086042465e+01
3.829920170085041775e+01
3.831921168084041796e+01
3.833922166083041105e+01
3.835923164082041126e+01
3.837924162081039725e+01
3.839925160080039035e+01
3.841926158079039055e+01
3.843927156078038365e+01
3.845928154077037675e+01
3.847929152076036985e+01
3.849930150075037005e+01
3.851931148074036315e+01
3.853932146073035625e+01
3.855933144072034935e+01
3.857934142071034955e+01
3.859935140070034265e+01
3.861936138069033575e+01
3.863937136068032885e+01
3.865938134067032195e+01
3.867939132066032215e+01
3.869940130065031525e+01
3.871941128064031545e+01
3.873942126063030855e+01
3.875943124062030876e+01
3.877944122061030185e+01
3.879945120060029495e+01
3.881946118059028805e+01
3.883947116058028826e+01
3.885948114057028846e+01
3.887949112056027445e+01
3.889950110055026755e+01
3.891951108054026776e+01
3.893952106053026085e+01
3.895953104052025395e+01
3.897954102051024705e+01
3.899955100050024015e+01
3.901956098049024035e+01
3.903957096048023345e+01
3.905958094047022655e+01
3.907959092046022676e+01
3.909960090045021985e+01
3.911961088044021295e+01
3.913962086043020605e+01
3.915963084042020625e+01
3.917964082041019935e+01
3.919965080040019245e+01
3.921966078039018555e+01
3.923967076038018575e+01
3.925968074037017885e+01
3.927969072036017195e+01
3.929970070035016505e+01
3.931971068034016525e+01
3.933972066033015835e+01
3.935973064032015145e+01
3.937974062031014455e+01
3.939975060030013765e+01
3.941976058029013785e+01
3.943977056028013095e+01
3.945978054027012405e+01
3.947979052026012425e+01
3.949980050025011735e+01
3.951981048024011045e+01
3.953982046023011065e+01
3.955983044022011086e+01
3.957984042021010396e+01
3.959985040020009706e+01
3.961986038019009726e+01
3.963987036018009036e+01
3.965988034017008346e+01
3.967989032016007656e+01
3.969990030015006965e+01
3.971991028014006986e+01
3.973992026013006296e+01
3.975993024012004895e+01
3.977994022011004205e+01
3.979995020010004225e+01
3.981996018009004246e+01
3.983997016008003555e+01
3.985998014007002865e+01
3.987999012006002175e+01
3.990000010005001485e+01
3.992001008004001505e+01
3.994002006003000815e+01
3.996003004002000125e+01
3.998004002001000146e+01
4.000004999999999455e+01
4.002005997998998765e+01
4.004006995997998075e+01
4.006007993996998096e+01
4.008008991995997405e+01
4.010009989994996715e+01
4.012010987993996025e+01
4.014011985992995335e+01
4.016012983991995355e+01
4.018013981990994665e+01
4.020014979989993975e+01
4.022015977988993995e+01
4.024016975987993305e+01
4.026017973986991905e+01
4.028018971985991925e+01
4.030019969984991945e+01
4.032020967983991255e+01
4.034021965982991276e+01
4.036022963981990586e+01
4.038023961980990606e+01
4.040024959979989916e+01
4.042025957978989226e+01
4.044026955977988536e+01
4.046027953976988556e+01
4.048028951975987866e+01
4.050029949974987176e+01
4.052030947973986486e+01
4.054031945972986506e+01
4.056032943971985816e+01
4.058033941970985126e+01
4.060034939969984435e+01
4.062035937968984456e+01
4.064036935967983055e+01
4.066037933966982365e+01
4.068038931965981675e+01
4.070039929964981695e+01
4.072040927963981716e+01
4.074041925962981026e+01
4.076042923961980335e+01
4.078043921960979645e+01
4.080044919959978955e+01
4.082045917958978976e+01
4.084046915957978285e+01
4.086047913956977595e+01
4.088048911955976905e+01
4.090049909954976926e+01
4.092050907953976235e+01
4.094051905952975545e+01
4.096052903951975566e+01
4.098053901950974875e+01
4.100054899949974185e+01
4.102055897948972785e+01
4.104056895947972805e+01
4.106057893946972115e+01
4.108058891945972135e+01
4.110059889944972156e+01
4.112060887943972176e+01
4.114061885942971486e+01
4.116062883941970085e+01
4.118063881940970106e+01
4.120064879939969416e+01
4.122065877938968725e+01
4.124066875937968746e+01
4.126067873936968056e+01
4.128068871935967366e+01
4.130069869934967386e+01
4.132070867933966696e+01
4.134071865932966006e+01
4.136072863931966026e+01
4.138073861930965336e+01
4.140074859929963935e+01
4.142075857928963245e+01
4.144076855927962555e+01
4.146077853926963286e+01
4.148078851925962596e+01
4.150079849924961906e+01
4.152080847923961926e+01
4.154081845922960525e+01
4.156082843921959835e+01
4.158083841920959145e+01
4.160084839919959165e+01
4.162085837918958475e+01
4.164086835917958496e+01
4.166087833916957806e+01
4.168088831915957115e+01
4.170089829914957136e+01
4.172090827913956446e+01
4.174091825912955755e+01
4.176092823911955065e+01
4.178093821910954375e+01
4.180094819909953685e+01
4.182095817908953705e+01
4.184096815907953015e+01
4.186097813906953036e+01
4.188098811905953056e+01
4.190099809904951655e+01
4.192100807903950965e+01
4.194101805902950986e+01
4.196102803901950296e+01
4.198103801900949605e+01
4.200104799899949626e+01
4.202105797898949646e+01
4.204106795897948246e+01
4.206107793896948266e+01
4.208108791895947576e+01
4.210109789894946886e+01
4.212110787893946906e+01
4.214111785892946216e+01
4.216112783891944815e+01
4.218113781890945546e+01
4.220114779889944856e+01
4.222115777888944166e+01
4.224116775887943476e+01
4.226117773886943496e+01
4.228118771885942095e+01
4.230119769884941405e+01
4.232120767883940715e+01
4.234121765882940736e+01
4.236122763881940045e+01
4.238123761880940776e+01
4.240124759879939376e+01
4.242125757878938686e+01
4.244126755877937995e+01
4.246127753876937305e+01
4.248128751875937326e+01
4.250129749874936635e+01
4.252130747873935945e+01
4.254131745872934545e+01
4.256132743871935276e+01
4.258133741870934585e+01
4.260134739869934606e+01
4.262135737868933205e+01
4.264136735867933226e+01
4.266137733866932535e+01
4.268138731865932556e+01
4.270139729864931155e+01
4.272140727863931176e+01
4.274141725862931196e+01
4.276142723861931216e+01
4.278143721860929816e+01
4.280144719859929836e+01
4.282145717858928435e+01
4.284146715857928456e+01
4.286147713856927766e+01
4.288148711855927075e+01
4.290149709854927096e+01
4.292150707853926406e+01
4.294151705852925716e+01
4.296152703851925736e+01
4.298153701850925046e+01
4.300154699849924356e+01
4.302155697848923666e+01
4.304156695847923686e+01
4.306157693846922285e+01
4.308158691845922306e+01
4.310159689844920905e+01
4.312160687843921636e+01
4.314161685842920946e+01
4.316162683841920966e+01
4.318163681840919566e+01
4.320164679839918875e+01
4.322165677838918185e+01
4.324166675837918206e+01
4.326167673836917515e+01
4.328168671835916115e+01
4.330169669834916846e+01
4.332170667833916156e+01
4.334171665832915465e+01
4.336172663831914775e+01
4.338173661830914796e+01
4.340174659829914106e+01
4.342175657828913415e+01
4.344176655827912725e+01
4.346177653826912746e+01
4.348178651825912766e+01
4.350179649824912786e+01
4.352180647823911386e+01
4.354181645822911406e+01
4.356182643821910005e+01
4.358183641820910026e+01
4.360184639819908625e+01
4.362185637818908646e+01
4.364186635817908666e+01
4.366187633816908686e+01
4.368188631815907286e+01
4.370189629814907306e+01
4.372190627813905905e+01
4.374191625812905926e+01
4.376192623811905236e+01
4.378193621810904546e+01
4.380194619809903855e+01
4.382195617808903876e+01
4.384196615807903186e+01
4.386197613806903206e+01
4.388198611805902516e+01
4.390199609804901826e+01
4.392200607803901136e+01
4.394201605802901156e+01
4.396202603801899755e+01
4.398203601800899776e+01
4.400204599799898375e+01
4.402205597798898395e+01
4.404206595797898416e+01
4.406207593796897015e+01
4.408208591795897036e+01
4.410209589794897056e+01
4.412210587793895655e+01
4.414211585792895676e+01
4.416212583791894986e+01
4.418213581790893585e+01
4.420214579789893605e+01
4.422215577788894336e+01
4.424216575787893646e+01
4.426217573786893666e+01
4.428218571785892976e+01
4.430219569784891576e+01
4.432220567783891596e+01
4.434221565782890195e+01
4.436222563781890216e+01
4.438223561780890236e+01
4.440224559779890257e+01
4.442225557778889566e+01
4.444226555777888876e+01
4.446227553776887476e+01
4.448228551775887496e+01
4.450229549774886095e+01
4.452230547773886116e+01
4.454231545772886136e+01
4.456232543771884735e+01
4.458233541770884756e+01
4.460234539769884776e+01
4.462235537768883376e+01
4.464236535767883396e+01
4.466237533766882706e+01
4.468238531765882016e+01
4.470239529764881325e+01
4.472240527763881346e+01
4.474241525762879945e+01
4.476242523761879966e+01
4.478243521760879986e+01
4.480244519759879296e+01
4.482245517758878606e+01
4.484246515757878626e+01
4.486247513756877225e+01
4.488248511755877246e+01
4.490249509754875845e+01
4.492250507753875866e+01
4.494251505752875175e+01
4.496252503751874485e+01
4.498253501750874506e+01
4.500254499749874526e+01
4.502255497748873836e+01
4.504256495747873856e+01
4.506257493746873166e+01
4.508258491745871765e+01
4.510259489744871786e+01
4.512260487743871806e+01
4.514261485742871116e+01
4.516262483741871137e+01
4.518263481740870446e+01
4.520264479739869046e+01
4.522265477738869066e+01
4.524266475737867665e+01
4.526267473736867686e+01
4.528268471735867706e+01
4.530269469734866306e+01
4.532270467733866326e+01
4.534271465732866346e+01
4.536272463731864946e+01
4.538273461730864966e+01
4.540274459729863565e+01
4.542275457728863586e+01
4.544276455727862896e+01
4.546277453726862916e+01
4.548278451725861515e+01
4.550279449724861536e+01
4.552280447723861556e+01
4.554281445722860866e+01
4.556282443721860176e+01
4.558283441720860196e+01
4.560284439719858796e+01
4.562285437718858816e+01
4.564286435717857415e+01
4.566287433716857436e+01
4.568288431715857456e+01
4.570289429714856055e+01
4.572290427713856076e+01
4.574291425712856096e+01
4.576292423711854696e+01
4.578293421710854716e+01
4.580294419709854026e+01
4.582295417708853336e+01
4.584296415707853356e+01
4.586297413706852666e+01
4.588298411705852686e+01
4.590299409704852707e+01
4.592300407703851306e+01
4.594301405702851326e+01
4.596302403701850636e+01
4.598303401700849236e+01
4.600304399699849256e+01
4.602305397698849276e+01
4.604306395697847876e+01
4.606307393696848607e+01
4.608308391695847916e+01
4.610309389694846516e+01
4.612310387693846536e+01
4.614311385692845136e+01
4.616312383691845156e+01
4.618313381690845176e+01
4.620314379689843776e+01
4.622315377688843085e+01
4.624316375687843816e+01
4.626317373686842416e+01
4.628318371685842436e+01
4.630319369684841746e+01
4.632320367683841056e+01
4.634321365682840366e+01
4.636322363681840386e+01
4.638323361680838985e+01
4.640324359679839006e+01
4.642325357678839026e+01
4.644326355677837626e+01
4.646327353676837646e+01
4.648328351675837666e+01
4.650329349674836266e+01
4.652330347673836286e+01
4.654331345672835596e+01
4.656332343671835616e+01
4.658333341670835637e+01
4.660334339669834236e+01
4.662335337668834256e+01
4.664336335667834277e+01
4.666337333666832876e+01
4.668338331665832897e+01
4.670339329664831496e+01
4.672340327663831516e+01
4.674341325662831537e+01
4.676342323661829425e+01
4.678343321660829446e+01
4.680344319659830177e+01
4.682345317658828776e+01
4.684346315657828796e+01
4.686347313656828106e+01
4.688348311655827416e+01
4.690349309654826726e+01
4.692350307653825325e+01
4.694351305652825346e+01
4.696352303651824656e+01
4.698353301650825387e+01
4.700354299649824696e+01
4.702355297648824006e+01
4.704356295647822606e+01
4.706357293646822626e+01
4.708358291645821936e+01
4.710359289644821246e+01
4.712360287643820556e+01
4.714361285642820576e+01
4.716362283641819886e+01
4.718363281640819196e+01
4.720364279639819216e+01
4.722365277638818526e+01
4.724366275637817836e+01
4.726367273636817856e+01
4.728368271635816456e+01
4.730369269634816476e+01
4.732370267633816496e+01
4.734371265632815806e+01
4.736372263631815827e+01
4.738373261630815847e+01
4.740374259629814446e+01
4.742375257628814467e+01
4.744376255627813066e+01
4.746377253626813086e+01
4.748378251625813107e+01
4.750379249624811706e+01
4.752380247623811016e+01
4.754381245622811747e+01
4.756382243621810346e+01
4.758383241620810367e+01
4.760384239619808966e+01
4.762385237618808986e+01
4.764386235617809007e+01
4.766387233616806895e+01
4.768388231615806916e+01
4.770389229614805515e+01
4.772390227613806246e+01
4.774391225612806267e+01
4.776392223611805576e+01
4.778393221610804176e+01
4.780394219609804196e+01
4.782395217608802795e+01
4.784396215607802816e+01
4.786397213606802126e+01
4.788398211605801436e+01
4.790399209604802166e+01
4.792400207603800766e+01
4.794401205602800076e+01
4.796402203601800096e+01
4.798403201600799406e+01
4.800404199599798716e+01
4.802405197598798026e+01
4.804406195597798046e+01
4.806407193596797356e+01
4.808408191595796666e+01
4.810409189594796686e+01
4.812410187593796707e+01
4.814411185592796016e+01
4.816412183591796037e+01
4.818413181590794636e+01
4.820414179589794657e+01
4.822415177588794677e+01
4.824416175587793276e+01
4.826417173586793297e+01
4.828418171585793317e+01
4.830419169584791916e+01
4.832420167583791937e+01
4.834421165582790536e+01
4.836422163581790556e+01
4.838423161580790577e+01
4.840424159579789176e+01
4.842425157578788486e+01
4.844426155577787085e+01
4.846427153576787816e+01
4.848428151575787837e+01
4.850429149574786436e+01
4.852430147573786456e+01
4.854431145572785766e+01
4.856432143571784366e+01
4.858433141570784386e+01
4.860434139569782985e+01
4.862435137568783006e+01
4.864436135567783737e+01
4.866437133566783046e+01
4.868438131565781646e+01
4.870439129564781666e+01
4.872440127563780266e+01
4.874441125562780286e+01
4.876442123561779596e+01
4.878443121560778906e+01
4.880444119559778926e+01
4.882445117558778236e+01
4.884446115557777546e+01
4.886447113556777566e+01
4.888448111555776876e+01
4.890449109554776896e+01
4.892450107553776206e+01
4.894451105552776227e+01
4.896452103551775537e+01
4.898453101550774846e+01
4.900454099549774867e+01
4.902455097548774177e+01
4.904456095547773486e+01
4.906457093546773507e+01
4.908458091545772106e+01
4.910459089544772127e+01
4.912460087543772147e+01
4.914461085542770746e+01
4.916462083541769346e+01
4.918463081540768655e+01
4.920464079539769386e+01
4.922465077538769407e+01
4.924466075537768006e+01
4.926467073536768027e+01
4.928468071535768047e+01
4.930469069534765936e+01
4.932470067533765956e+01
4.934471065532764555e+01
4.936472063531764576e+01
4.938473061530765307e+01
4.940474059529764617e+01
4.942475057528763926e+01
4.944476055527763236e+01
4.946477053526761836e+01
4.948478051525761856e+01
4.950479049524760455e+01
4.952480047523760476e+01
4.954481045522760496e+01
4.956482043521759095e+01
4.958483041520759116e+01
4.960484039519759136e+01
4.962485037518757736e+01
4.964486035517757756e+01
4.966487033516757066e+01
4.968488031515757086e+01
4.970489029514757107e+01
4.972490027513756417e+01
4.974491025512755726e+01
4.976492023511755747e+01
4.978493021510755057e+01
4.980494019509754366e+01
4.982495017508753676e+01
4.984496015507753697e+01
4.986497013506753007e+01
4.988498011505752316e+01
4.990499009504752337e+01
4.992500007503750936e+01
4.994501005502750957e+01
4.996502003501750977e+01
4.998503001500749576e+01
5.000503999499749597e+01
5.002504997498749617e+01
5.004505995497748216e+01
5.006506993496747526e+01
5.008507991495746126e+01
5.010508989494746146e+01
5.012509987493746877e+01
5.014510985492745476e+01
5.016511983491745497e+01
5.018512981490744806e+01
5.020513979489743406e+01
5.022514977488743426e+01
5.024515975487742026e+01
5.026516973486742046e+01
5.028517971485742066e+01
5.030518969484742087e+01
5.032519967483740686e+01
5.034520965482740706e+01
5.036521963481739306e+01
5.038522961480739326e+01
5.040523959479737925e+01
5.042524957478737946e+01
5.044525955477737966e+01
5.046526953476737276e+01
5.048527951475737297e+01
5.050528949474737317e+01
5.052529947473735916e+01
5.054530945472735937e+01
5.056531943471735246e+01
5.058532941470734556e+01
5.060533939469734577e+01
5.062534937468733887e+01
5.064535935467733196e+01
5.066536933466733217e+01
5.068537931465732527e+01
5.070538929464731837e+01
5.072539927463731146e+01
5.074540925462731167e+01
5.076541923461730477e+01
5.078542921460729787e+01
5.080543919459729807e+01
5.082544917458728406e+01
5.084545915457727716e+01
5.086546913456728447e+01
5.088547911455727046e+01
5.090548909454727067e+01
5.092549907453727087e+01
5.094550905452724976e+01
5.096551903451724996e+01
5.098552901450724306e+01
5.100553899449723616e+01
5.102554897448723636e+01
5.104555895447722946e+01
5.106556893446722967e+01
5.108557891445722277e+01
5.110558889444720876e+01
5.112559887443720896e+01
5.114560885442720917e+01
5.116561883441719516e+01
5.118562881440719536e+01
5.120563879439718136e+01
5.122564877438718156e+01
5.124565875437718176e+01
5.126566873436717486e+01
5.128567871435717507e+01
5.130568869434717527e+01
5.132569867433716126e+01
5.134570865432716147e+01
5.136571863431714746e+01
5.138572861430714767e+01
5.140573859429714787e+01
5.142574857428713386e+01
5.144575855427713407e+01
5.146576853426712717e+01
5.148577851425712026e+01
5.150578849424712047e+01
5.152579847423711357e+01
5.154580845422710667e+01
5.156581843421710687e+01
5.158582841420708576e+01
5.160583839419709307e+01
5.162584837418708616e+01
5.164585835417708637e+01
5.166586833416707947e+01
5.168587831415707257e+01
5.170588829414705856e+01
5.172589827413705876e+01
5.174590825412705186e+01
5.176591823411704496e+01
5.178592821410704516e+01
5.180593819409704537e+01
5.182594817408704557e+01
5.184595815407702446e+01
5.186596813406702466e+01
5.188597811405701776e+01
5.190598809404701086e+01
5.192599807403701107e+01
5.194600805402699706e+01
5.196601803401699726e+01
5.198602801400699747e+01
5.200603799399698346e+01
5.202604797398698366e+01
5.204605795397698387e+01
5.206606793396697697e+01
5.208607791395697717e+01
5.210608789394696316e+01
5.212609787393696337e+01
5.214610785392696357e+01
5.216611783391694956e+01
5.218612781390694977e+01
5.220613779389694997e+01
5.222614777388693597e+01
5.224615775387693617e+01
5.226616773386692216e+01
5.228617771385692237e+01
5.230618769384692257e+01
5.232619767383690146e+01
5.234620765382690877e+01
5.236621763381690897e+01
5.238622761380689496e+01
5.240623759379689517e+01
5.242624757378688827e+01
5.244625755377688137e+01
5.246626753376687446e+01
5.248627751375686046e+01
5.250628749374686066e+01
5.252629747373686797e+01
5.254630745372686107e+01
5.256631743371686127e+01
5.258632741370684727e+01
5.260633739369683326e+01
5.262634737368683346e+01
5.264635735367682656e+01
5.266636733366681966e+01
5.268637731365681276e+01
5.270638729364682007e+01
5.272639727363680606e+01
5.274640725362679916e+01
5.276641723361679936e+01
5.278642721360679246e+01
5.280643719359679267e+01
5.282644717358679287e+01
5.284645715357677886e+01
5.286646713356677907e+01
5.288647711355677927e+01
5.290648709354676527e+01
5.292649707353676547e+01
5.294650705352676567e+01
5.296651703351675167e+01
5.298652701350675187e+01
5.300653699349673786e+01
5.302654697348673807e+01
5.304655695347673827e+01
5.306656693346672427e+01
5.308657691345672447e+01
5.310658689344672467e+01
5.312659687343671067e+01
5.314660685342671087e+01
5.316661683341670397e+01
5.318662681340669707e+01
5.320663679339669727e+01
5.322664677338667616e+01
5.324665675337667636e+01
5.326666673336666236e+01
5.328667671335666256e+01
5.330668669334666276e+01
5.332669667333664876e+01
5.334670665332664896e+01
5.336671663331665627e+01
5.338672661330664937e+01
5.340673659329664957e+01
5.342674657328664267e+01
5.344675655327663577e+01
5.346676653326663597e+01
5.348677651325661486e+01
5.350678649324660796e+01
5.352679647323660816e+01
5.354680645322660126e+01
5.356681643321659436e+01
5.358682641320659457e+01
5.360683639319659477e+01
5.362684637318658787e+01
5.364685635317658097e+01
5.366686633316658117e+01
5.368687631315657427e+01
5.370688629314656026e+01
5.372689627313657468e+01
5.374690625312655357e+01
5.376691623311655377e+01
5.378692621310655397e+01
5.380693619309653997e+01
5.382694617308654017e+01
5.384695615307654037e+01
5.386696613306652637e+01
5.388697611305652657e+01
5.390698609304651256e+01
5.392699607303651277e+01
5.394700605302651297e+01
5.396701603301649897e+01
5.398702601300649206e+01
5.400703599299647806e+01
5.402704597298647826e+01
5.404705595297647847e+01
5.406706593296646446e+01
5.408707591295647177e+01
5.410708589294647197e+01
5.412709587293646507e+01
5.414710585292645817e+01
5.416711583291645837e+01
5.418712581290645147e+01
5.420713579289644457e+01
5.422714577288643767e+01
5.424715575287642366e+01
5.426716573286642387e+01
5.428717571285640986e+01
5.430718569284641006e+01
5.432719567283640316e+01
5.434720565282639626e+01
5.436721563281639646e+01
5.438722561280639667e+01
5.440723559279638977e+01
5.442724557278638997e+01
5.444725555277638307e+01
5.446726553276639038e+01
5.448727551275639058e+01
5.450728549274636947e+01
5.452729547273636257e+01
5.454730545272635567e+01
5.456731543271635587e+01
5.458732541270634897e+01
5.460733539269634207e+01
5.462734537268634227e+01
5.464735535267632827e+01
5.466736533266632847e+01
5.468737531265632867e+01
5.470738529264631467e+01
5.472739527263630777e+01
5.474740525262629376e+01
5.476741523261629396e+01
5.478742521260629417e+01
5.480743519259628016e+01
5.482744517258628747e+01
5.484745515257628767e+01
5.486746513256627367e+01
5.488747511255627387e+01
5.490748509254627407e+01
5.492749507253626007e+01
5.494750505252626027e+01
5.496751503251625337e+01
5.498752501250624647e+01
5.500753499249623957e+01
5.502754497248622556e+01
5.504755495247622576e+01
5.506756493246621176e+01
5.508757491245621196e+01
5.510758489244621217e+01
5.512759487243619816e+01
5.514760485242619836e+01
5.516761483241620567e+01
5.518762481240619167e+01
5.520763479239620608e+01
5.522764477238619918e+01
5.524765475237619228e+01
5.526766473236617827e+01
5.528767471235617137e+01
5.530768469234616447e+01
5.532769467233616467e+01
5.534770465232615777e+01
5.536771463231615087e+01
5.538772461230614397e+01
5.540773459229614417e+01
5.542774457228613727e+01
5.544775455227613037e+01
5.546776453226613057e+01
5.548777451225610946e+01
5.550778449224610966e+01
5.552779447223610276e+01
5.554780445222609586e+01
5.556781443221610317e+01
5.558782441220610337e+01
5.560783439219608937e+01
5.562784437218608957e+01
5.564785435217608978e+01
5.566786433216607577e+01
5.568787431215607597e+01
5.570788429214606197e+01
5.572789427213606217e+01
5.574790425212605527e+01
5.576791423211604126e+01
5.578792421210604147e+01
5.580793419209602746e+01
5.582794417208602766e+01
5.584795415207602787e+01
5.586796413206601386e+01
5.588797411205601406e+01
5.590798409204601427e+01
5.592799407203600737e+01
5.594800405202600757e+01
5.596801403201601488e+01
5.598802401200600798e+01
5.600803399199600108e+01
5.602804397198597997e+01
5.604805395197598017e+01
5.606806393196598037e+01
5.608807391195596637e+01
5.610808389194596657e+01
5.612809387193595967e+01
5.614810385192595277e+01
5.616811383191595297e+01
5.618812381190594607e+01
5.620813379189593917e+01
5.622814377188593937e+01
5.624815375187591826e+01
5.626816373186591846e+01
5.628817371185591156e+01
5.630818369184591887e+01
5.632819367183591908e+01
5.634820365182590507e+01
5.636821363181590527e+01
5.638822361180590548e+01
5.640823359179589147e+01
5.642824357178589167e+01
5.644825355177587767e+01
5.646826353176587787e+01
5.648827351175587808e+01
5.650828349174585696e+01
5.652829347173585717e+01
5.654830345172584316e+01
5.656831343171584336e+01
5.658832341170584357e+01
5.660833339169582956e+01
5.662834337168582977e+01
5.664835335167582997e+01
5.666836333166581596e+01
5.668837331165582327e+01
5.670838329164582348e+01
5.672839327163580947e+01
5.674840325162581678e+01
5.676841323161579567e+01
5.678842321160579587e+01
5.680843319159579607e+01
5.682844317158578207e+01
5.684845315157578227e+01
5.686846313156576826e+01
5.688847311155576847e+01
5.690848309154576867e+01
5.692849307153576177e+01
5.694850305152575487e+01
5.696851303151575507e+01
5.698852301150574817e+01
5.700853299149573417e+01
5.702854297148572016e+01
5.704855295147573457e+01
5.706856293146572767e+01
5.708857291145572077e+01
5.710858289144572097e+01
5.712859287143571407e+01
5.714860285142570717e+01
5.716861283141570738e+01
5.718862281140569337e+01
5.720863279139569357e+01
5.722864277138569378e+01
5.724865275137567977e+01
5.726866273136566576e+01
5.728867271135565886e+01
5.730868269134565907e+01
5.732869267133565216e+01
5.734870265132564526e+01
5.736871263131564547e+01
5.738872261130563857e+01
5.740873259129563166e+01
5.742874257128563897e+01
5.744875255127563918e+01
5.746876253126562517e+01
5.748877251125562537e+01
5.750878249124561847e+01
5.752879247123561157e+01
5.754880245122561178e+01
5.756881243121559777e+01
5.758882241120559797e+01
5.760883239119558397e+01
5.762884237118558417e+01
5.764885235117558437e+01
5.766886233116557037e+01
5.768887231115557057e+01
5.770888229114557078e+01
5.772889227113555677e+01
5.774890225112555697e+01
5.776891223111553586e+01
5.778892221110554317e+01
5.780893219109554337e+01
5.782894217108553647e+01
5.784895215107552957e+01
5.786896213106552977e+01
5.788897211105552287e+01
5.790898209104551597e+01
5.792899207103550907e+01
5.794900205102550927e+01
5.796901203101550237e+01
5.798902201100549547e+01
5.800903199099549568e+01
5.802904197098548167e+01
5.804905195097546766e+01
5.806906193096546787e+01
5.808907191095546096e+01
5.810908189094545406e+01
5.812909187093545427e+01
5.814910185092545447e+01
5.816911183091545468e+01
5.818912181090545488e+01
5.820913179089544087e+01
5.822914177088544108e+01
5.824915175087542707e+01
5.826916173086542727e+01
5.828917171085542037e+01
5.830918169084541347e+01
5.832919167083541367e+01
5.834920165082539967e+01
5.836921163081539987e+01
5.838922161080540008e+01
5.840923159079538607e+01
5.842924157078538627e+01
5.844925155077538648e+01
5.846926153076537247e+01
5.848927151075537267e+01
5.850928149074535867e+01
5.852929147073536598e+01
5.854930145072535908e+01
5.856931143071534507e+01
5.858932141070534527e+01
5.860933139069534548e+01
5.862934137068533147e+01
5.864935135067533167e+01
5.866936133066532477e+01
5.868937131065531787e+01
5.870938129064531807e+01
5.872939127063531117e+01
5.874940125062530427e+01
5.876941123061530448e+01
5.878942121060528336e+01
5.880943119059528357e+01
5.882944117058526956e+01
5.884945115057526976e+01
5.886946113056526997e+01
5.888947111055527017e+01
5.890948109054527038e+01
5.892949107053526347e+01
5.894950105052525657e+01
5.896951103051525678e+01
5.898952101050524277e+01
5.900953099049524297e+01
5.902954097048524318e+01
5.904955095047522207e+01
5.906956093046522227e+01
5.908957091045522247e+01
5.910958089044521557e+01
5.912959087043520867e+01
5.914960085042520177e+01
5.916961083041520197e+01
5.918962081040519507e+01
5.920963079039518817e+01
5.922964077038518838e+01
5.924965075037518147e+01
5.926966073036518168e+01
5.928967071035518188e+01
5.930968069034516077e+01
5.932969067033516097e+01
5.934970065032516118e+01
5.936971063031514717e+01
5.938972061030514737e+01
5.940973059029514758e+01
5.942974057028513357e+01
5.944975055027513378e+01
5.946976053026511977e+01
5.948977051025511997e+01
5.950978049024512018e+01
5.952979047023509906e+01
5.954980045022509927e+01
5.956981043021508526e+01
5.958982041020508547e+01
5.960983039019508567e+01
5.962984037018508587e+01
5.964985035017507897e+01
5.966986033016507918e+01
5.968987031015507227e+01
5.970988029014506537e+01
5.972989027013505847e+01
5.974990025012505868e+01
5.976991023011505177e+01
5.978992021010504487e+01
5.980993019009503087e+01
5.982994017008503107e+01
5.984995015007502417e+01
5.986996013006502437e+01
5.988997011005501747e+01
5.990998009004501057e+01
5.992999007003501077e+01
5.995000005002500387e+01
5.997001003001499697e+01
5.999002001000499718e+01
6.001002998999499738e+01
6.003003996998499758e+01
6.005004994997498358e+01
6.007005992996497667e+01
6.009006990995496977e+01
6.011007988994496287e+01
6.013008986993496308e+01
6.015009984992496328e+01
6.017010982991494927e+01
6.019011980990494948e+01
6.021012978989493547e+01
6.023013976988493567e+01
6.025014974987493588e+01
6.027015972986492187e+01
6.029016970985491497e+01
6.031017968984490096e+01
6.033018966983490117e+01
6.035019964982490137e+01
6.037020962981489447e+01
6.039021960980489467e+01
6.041022958979489488e+01
6.043023956978488087e+01
6.045024954977488107e+01
6.047025952976488128e+01
6.049026950975486727e+01
6.051027948974486748e+01
6.053028946973486057e+01
6.055029944972484657e+01
6.057030942971484677e+01
6.059031940970483276e+01
6.061032938969483297e+01
6.063033936968482607e+01
6.065034934967482627e+01
6.067035932966482648e+01
6.069036930965481247e+01
6.071037928964481267e+01
6.073038926963481288e+01
6.075039924962481308e+01
6.077040922961481328e+01
6.079041920960480638e+01
6.081042918959479948e+01
6.083043916958478547e+01
6.085044914957477857e+01
6.087045912956477878e+01
6.089046910955477188e+01
6.091047908954476497e+01
6.093048906953476518e+01
6.095049904952475117e+01
6.097050902951475138e+01
6.099051900950475158e+01
6.101052898949473757e+01
6.103053896948473778e+01
6.105054894947471666e+01
6.107055892946471687e+01
6.109056890945470997e+01
6.111057888944471017e+01
6.113058886943471038e+01
6.115059884942471058e+01
6.117060882941469657e+01
6.119061880940469678e+01
6.121062878939469698e+01
6.123063876938468297e+01
6.125064874937468318e+01
6.127065872936466917e+01
6.129066870935466937e+01
6.131067868934466247e+01
6.133068866933464847e+01
6.135069864932464867e+01
6.137070862931463466e+01
6.139071860930463487e+01
6.141072858929463507e+01
6.143073856928462817e+01
6.145074854927462837e+01
6.147075852926462858e+01
6.149076850925462878e+01
6.151077848924462188e+01
6.153078846923462208e+01
6.155079844922461518e+01
6.157080842921460118e+01
6.159081840920459427e+01
6.161082838919458737e+01
6.163083836918458758e+01
6.165084834917458068e+01
6.167085832916457377e+01
6.169086830915456687e+01
6.171087828914456708e+01
6.173088826913456018e+01
6.175089824912455327e+01
6.177090822911455348e+01
6.179091820910454658e+01
6.181092818909452546e+01
6.183093816908452567e+01
6.185094814907452587e+01
6.187095812906452608e+01
6.189096810905452628e+01
6.191097808904451227e+01
6.193098806903451248e+01
6.195099804902451268e+01
6.197100802901449867e+01
6.199101800900449888e+01
6.201102798899448487e+01
6.203103796898448508e+01
6.205104794897448528e+01
6.207105792896446417e+01
6.209106790895446437e+01
6.211107788894445036e+01
6.213108786893445057e+01
6.215109784892445077e+01
6.217110782891444387e+01
6.219111780890444408e+01
6.221112778889444428e+01
6.223113776888443738e+01
6.225114774887443758e+01
6.227115772886443779e+01
6.229116770885442378e+01
6.231117768884442398e+01
6.233118766883440287e+01
6.235119764882440307e+01
6.237120762881440328e+01
6.239121760880438927e+01
6.241122758879438948e+01
6.243123756878438257e+01
6.245124754877437567e+01
6.247125752876437588e+01
6.249126750875436898e+01
6.251127748874436918e+01
6.253128746873436228e+01
6.255129744872435538e+01
6.257130742871433426e+01
6.259131740870434157e+01
6.261132738869433467e+01
6.263133736868434198e+01
6.265134734867432087e+01
6.267135732866432818e+01
6.269136730865432128e+01
6.271137728864431438e+01
6.273138726863430747e+01
6.275139724862430057e+01
6.277140722861429367e+01
6.279141720860430098e+01
6.281142718859429408e+01
6.283143716858427297e+01
6.285144714857426607e+01
6.287145712856425916e+01
6.289146710855426647e+01
6.291147708854424536e+01
6.293148706853425267e+01
6.295149704852425998e+01
6.297150702851425308e+01
6.299151700850424618e+01
6.301152698849424638e+01
6.303153696848423948e+01
6.305154694847424679e+01
6.307155692846422568e+01
6.309156690845421878e+01
6.311157688844421187e+01
6.313158686843420497e+01
6.315159684842419807e+01
6.317160682841419117e+01
6.319161680840419848e+01
6.321162678839419158e+01
6.323163676838418468e+01
6.325164674837417778e+01
6.327165672836417087e+01
6.329166670835416397e+01
6.331167668834417128e+01
6.333168666833417859e+01
6.335169664832415748e+01
6.337170662831415058e+01
6.339171660830414368e+01
6.341172658829413677e+01
6.343173656828414408e+01
6.345174654827412297e+01
6.347175652826413028e+01
6.349176650825410917e+01
6.351177648824411648e+01
6.353178646823410958e+01
6.355179644822410268e+01
6.357180642821409577e+01
6.359181640820407466e+01
6.361182638819408197e+01
6.363183636818407507e+01
6.365184634817406817e+01
6.367185632816406127e+01
6.369186630815406858e+01
6.371187628814406168e+01
6.373188626813405477e+01
6.375189624812406208e+01
6.377190622811405518e+01
6.379191620810405539e+01
6.381192618809404848e+01
6.383193616808404158e+01
6.385194614807403468e+01
6.387195612806401357e+01
6.389196610805402088e+01
6.391197608804401398e+01
6.393198606803400708e+01
6.395199604802400017e+01
6.397200602801399327e+01
6.399201600800398637e+01
6.401202598799399368e+01
6.403203596798398678e+01
6.405204594797397988e+01
6.407205592796398719e+01
6.409206590795398029e+01
6.411207588794395917e+01
6.413208586793395227e+01
6.415209584792395958e+01
6.417210582791395268e+01
6.419211580790394578e+01
6.421212578789393888e+01
6.423213576788393198e+01
6.425214574787392507e+01
6.427215572786393238e+01
6.429216570785391127e+01
6.431217568784391858e+01
6.433218566783391168e+01
6.435219564782389057e+01
6.437220562781389788e+01
6.439221560780387676e+01
6.441222558779388407e+01
6.443223556778389138e+01
6.445224554777387027e+01
6.447225552776387758e+01
6.449226550775387068e+01
6.451227548774386378e+01
6.453228546773385688e+01
6.455229544772384997e+01
6.457230542771384307e+01
6.459231540770385038e+01
6.461232538769382927e+01
6.463233536768382237e+01
6.465234534767381547e+01
6.467235532766380857e+01
6.469236530765381588e+01
6.471237528764379476e+01
6.473238526763380207e+01
6.475239524762379517e+01
6.477240522761378827e+01
6.479241520760378137e+01
6.481242518759378868e+01
6.483243516758378178e+01
6.485244514757378909e+01
6.487245512756376797e+01
6.489246510755376107e+01
6.491247508754375417e+01
6.493248506753376148e+01
6.495249504752375458e+01
6.497250502751374768e+01
6.499251500750375499e+01
6.501252498749374809e+01
6.503253496748374118e+01
6.505254494747373428e+01
6.507255492746372738e+01
6.509256490745372048e+01
6.511257488744371358e+01
6.513258486743370668e+01
6.515259484742369978e+01
6.517260482741370708e+01
6.519261480740370018e+01
6.521262478739369328e+01
6.523263476738370059e+01
6.525264474737367948e+01
6.527265472736368679e+01
6.529266470735366568e+01
6.531267468734367299e+01
6.533268466733366608e+01
6.535269464732365918e+01
6.537270462731365228e+01
6.539271460730363117e+01
6.541272458729363848e+01
6.543273456728363158e+01
6.545274454727362468e+01
6.547275452726361777e+01
6.549276450725362508e+01
6.551277448724360397e+01
6.553278446723361128e+01
6.555279444722361859e+01
6.557280442721361169e+01
6.559281440720360479e+01
6.561282438719359789e+01
6.563283436718357677e+01
6.565284434717358408e+01
6.567285432716356297e+01
6.569286430715357028e+01
6.571287428714356338e+01
6.573288426713355648e+01
6.575289424712354958e+01
6.577290422711354267e+01
6.579291420710353577e+01
6.581292418709354308e+01
6.583293416708353618e+01
6.585294414707351507e+01
6.587295412706350817e+01
6.589296410705350127e+01
6.591297408704352279e+01
6.593298406703350167e+01
6.595299404702350898e+01
6.597300402701350208e+01
6.599301400700349518e+01
6.601302398699348828e+01
6.603303396698348138e+01
6.605304394697347448e+01
6.607305392696348179e+01
6.609306390695346067e+01
6.611307388694345377e+01
6.613308386693344687e+01
6.615309384692343997e+01
6.617310382691344728e+01
6.619311380690342617e+01
6.621312378689343348e+01
6.623313376688342657e+01
6.625314374687341967e+01
6.627315372686342698e+01
6.629316370685342008e+01
6.631317368684341318e+01
6.633318366683340628e+01
6.635319364682339938e+01
6.637320362681339248e+01
6.639321360680338557e+01
6.641322358679337867e+01
6.643323356678337177e+01
6.645324354677336487e+01
6.647325352676335797e+01
6.649326350675336528e+01
6.651327348674337259e+01
6.653328346673336569e+01
6.655329344672335878e+01
6.657330342671335188e+01
6.659331340670334498e+01
6.661332338669332387e+01
6.663333336668333118e+01
6.665334334667333849e+01
6.667335332666333159e+01
6.669336330665332468e+01
6.671337328664331778e+01
6.673338326663331088e+01
6.675339324662331819e+01
6.677340322661329708e+01
6.679341320660330439e+01
6.681342318659329749e+01
6.683343316658329059e+01
6.685344314657328368e+01
6.687345312656327678e+01
6.689346310655326988e+01
6.691347308654326298e+01
6.693348306653325608e+01
6.695349304652324918e+01
6.697350302651324228e+01
6.699351300650323537e+01
6.701352298649324268e+01
6.703353296648324999e+01
6.705354294647322888e+01
6.707355292646323619e+01
6.709356290645321508e+01
6.711357288644322239e+01
6.713358286643321549e+01
6.715359284642319437e+01
6.717360282641320168e+01
6.719361280640319478e+01
6.721362278639318788e+01
6.723363276638318098e+01
6.725364274637317408e+01
6.727365272636316718e+01
6.729366270635317449e+01
6.731367268634315337e+01
6.733368266633316068e+01
6.735369264632315378e+01
6.737370262631313267e+01
6.739371260630315419e+01
6.741372258629313308e+01
6.743373256628312618e+01
6.745374254627313348e+01
6.747375252626312658e+01
6.749376250625311968e+01
6.751377248624311278e+01
6.753378246623310588e+01
6.755379244622309898e+01
6.757380242621309208e+01
6.759381240620309939e+01
6.761382238619309248e+01
6.763383236618307137e+01
6.765384234617306447e+01
6.767385232616305757e+01
6.769386230615305067e+01
6.771387228614305798e+01
6.773388226613305108e+01
6.775389224612305838e+01
6.777390222611305148e+01
6.779391220610304458e+01
6.781392218609303768e+01
6.783393216608303078e+01
6.785394214607302388e+01
6.787395212606303119e+01
6.789396210605301007e+01
6.791397208604300317e+01
6.793398206603299627e+01
6.795399204602298937e+01
6.797400202601299668e+01
6.799401200600297557e+01
6.801402198599298288e+01
6.803403196598297598e+01
6.805404194597298329e+01
6.807405192596297638e+01
6.809406190595298369e+01
6.811407188594296258e+01
6.813408186593296989e+01
6.815409184592294878e+01
6.817410182591295609e+01
6.819411180590294919e+01
6.821412178589294228e+01
6.823413176588293538e+01
6.825414174587294269e+01
6.827415172586292158e+01
6.829416170585292889e+01
6.831417168584292199e+01
6.833418166583291509e+01
6.835419164582290819e+01
6.837420162581290128e+01
6.839421160580289438e+01
6.841422158579287327e+01
6.843423156578288058e+01
6.845424154577287368e+01
6.847425152576286678e+01
6.849426150575287409e+01
6.851427148574286718e+01
6.853428146573286028e+01
6.855429144572286759e+01
6.857430142571286069e+01
6.859431140570285379e+01
6.861432138569284689e+01
6.863433136568283999e+01
6.865434134567281887e+01
6.867435132566282618e+01
6.869436130565281928e+01
6.871437128564281238e+01
6.873438126563280548e+01
6.875439124562279858e+01
6.877440122561279168e+01
6.879441120560278478e+01
6.881442118559279209e+01
6.883443116558278518e+01
6.885444114557277828e+01
6.887445112556278559e+01
6.889446110555277869e+01
6.891447108554275758e+01
6.893448106553276489e+01
6.895449104552274378e+01
6.897450102551275108e+01
6.899451100550274418e+01
6.901452098549273728e+01
6.903453096548273038e+01
6.905454094547272348e+01
6.907455092546271658e+01
6.909456090545272389e+01
6.911457088544270277e+01
6.913458086543271008e+01
6.915459084542268897e+01
6.917460082541268207e+01
6.919461080540268938e+01
6.921462078539266827e+01
6.923463076538267558e+01
6.925464074537268289e+01
6.927465072536267598e+01
6.929466070535266908e+01
6.931467068534266218e+01
6.933468066533265528e+01
6.935469064532264838e+01
6.937470062531264148e+01
6.939471060530264879e+01
6.941472058529262767e+01
6.943473056528262077e+01
6.945474054527261387e+01
6.947475052526260697e+01
6.949476050525260007e+01
6.951477048524260738e+01
6.953478046523260048e+01
6.955479044522259358e+01
6.957480042521258667e+01
6.959481040520259398e+01
6.961482038519258708e+01
6.963483036518259439e+01
6.965484034517258749e+01
6.967485032516258059e+01
6.969486030515257369e+01
6.971487028514256679e+01
6.973488026513257410e+01
6.975489024512255298e+01
6.977490022511256029e+01
6.979491020510253918e+01
6.981492018509254649e+01
6.983493016508253959e+01
6.985494014507253269e+01
6.987495012506252579e+01
6.989496010505253309e+01
6.991497008504251198e+01
6.993498006503250508e+01
6.995499004502249818e+01
6.997500002501250549e+01
6.999501000500249859e+01
7.001501998499249169e+01
7.003502996498248478e+01
7.005503994497249209e+01
7.007504992496247098e+01
7.009505990495247829e+01
7.011506988494247139e+01
7.013507986493246449e+01
7.015508984492245759e+01
7.017509982491243647e+01
7.019510980490244378e+01
7.021511978489242267e+01
7.023512976488242998e+01
7.025513974487242308e+01
7.027514972486241618e+01
7.029515970485240928e+01
7.031516968484241659e+01
7.033517966483240969e+01
7.035518964482241699e+01
7.037519962481241009e+01
7.039520960480240319e+01
7.041521958479239629e+01
7.043522956478237518e+01
7.045523954477238249e+01
7.047524952476237559e+01
7.049525950475236868e+01
7.051526948474236178e+01
7.053527946473235488e+01
7.055528944472234798e+01
7.057529942471235529e+01
7.059530940470233418e+01
7.061531938469234149e+01
7.063532936468233459e+01
7.065533934467231347e+01
7.067534932466230657e+01
7.069535930465229967e+01
7.071536928464230698e+01
7.073537926463231429e+01
7.075538924462229318e+01
7.077539922461230049e+01
7.079540920460229358e+01
7.081541918459228668e+01
7.083542916458227978e+01
7.085543914457227288e+01
7.087544912456226598e+01
7.089545910455227329e+01
7.091546908454225218e+01
7.093547906453224527e+01
7.095548904452223837e+01
7.097549902451223147e+01
7.099550900450223878e+01
7.101551898449221767e+01
7.103552896448222498e+01
7.105553894447221808e+01
7.107554892446222539e+01
7.109555890445221848e+01
7.111556888444221158e+01
7.113557886443220468e+01
7.115558884442219778e+01
7.117559882441219088e+01
7.119560880440219819e+01
7.121561878439219129e+01
7.123562876438218439e+01
7.125563874437217748e+01
7.127564872436217058e+01
7.129565870435217789e+01
7.131566868434217099e+01
7.133567866433216409e+01
7.135568864432215719e+01
7.137569862431215029e+01
7.139570860430214339e+01
7.141571858429213648e+01
7.143572856428212958e+01
7.145573854427213689e+01
7.147574852426212999e+01
7.149575850425212309e+01
7.151576848424211619e+01
7.153577846423212350e+01
7.155578844422210238e+01
7.157579842421210969e+01
7.159580840420208858e+01
7.161581838419209589e+01
7.163582836418208899e+01
7.165583834417208209e+01
7.167584832416207519e+01
7.169585830415205407e+01
7.171586828414206138e+01
7.173587826413205448e+01
7.175588824412204758e+01
7.177589822411204068e+01
7.179590820410204799e+01
7.181591818409204109e+01
7.183592816408203419e+01
7.185593814407204150e+01
7.187594812406202038e+01
7.189595810405202769e+01
7.191596808404202079e+01
7.193597806403201389e+01
7.195598804402200699e+01
7.197599802401198588e+01
7.199600800400199319e+01
7.201601798399198628e+01
7.203602796398197938e+01
7.205603794397197248e+01
7.207604792396196558e+01
7.209605790395195868e+01
7.211606788394196599e+01
7.213607786393195909e+01
7.215608784392195219e+01
7.217609782391193107e+01
7.219610780390195259e+01
7.221611778389193148e+01
7.223612776388192458e+01
7.225613774387193189e+01
7.227614772386192499e+01
7.229615770385191809e+01
7.231616768384191118e+01
7.233617766383190428e+01
7.235618764382189738e+01
7.237619762381190469e+01
7.239620760380188358e+01
7.241621758379189089e+01
7.243622756378186978e+01
7.245623754377186287e+01
7.247624752376185597e+01
7.249625750375184907e+01
7.251626748374185638e+01
7.253627746373184948e+01
7.255628744372184258e+01
7.257629742371184989e+01
7.259630740370184299e+01
7.261631738369183608e+01
7.263632736368182918e+01
7.265633734367182228e+01
7.267634732366181538e+01
7.269635730365180848e+01
7.271636728364180158e+01
7.273637726363179468e+01
7.275638724362180199e+01
7.277639722361179508e+01
7.279640720360180239e+01
7.281641718359178128e+01
7.283642716358178859e+01
7.285643714357178169e+01
7.287644712356177479e+01
7.289645710355176789e+01
7.291646708354177520e+01
7.293647706353176829e+01
7.295648704352177560e+01
7.297649702351175449e+01
7.299650700350174759e+01
7.301651698349174069e+01
7.303652696348173379e+01
7.305653694347172689e+01
7.307654692346171998e+01
7.309655690345172729e+01
7.311656688344172039e+01
7.313657686343171349e+01
7.315658684342170659e+01
7.317659682341169969e+01
7.319660680340167858e+01
7.321661678339168589e+01
7.323662676338167898e+01
7.325663674337167208e+01
7.327664672336166518e+01
7.329665670335167249e+01
7.331666668334166559e+01
7.333667666333167290e+01
7.335668664332165179e+01
7.337669662331165910e+01
7.339670660330163798e+01
7.341671658329164529e+01
7.343672656328163839e+01
7.345673654327161728e+01
7.347674652326162459e+01
7.349675650325160348e+01
7.351676648324161079e+01
7.353677646323160388e+01
7.355678644322159698e+01
7.357679642321159008e+01
7.359680640320159739e+01
7.361681638319157628e+01
7.363682636318158359e+01
7.365683634317159090e+01
7.367684632316158400e+01
7.369685630315157709e+01
7.371686628314155598e+01
7.373687626313154908e+01
7.375688624312155639e+01
7.377689622311153528e+01
7.379690620310154259e+01
7.381691618309153569e+01
7.383692616308152878e+01
7.385693614307152188e+01
7.387694612306151498e+01
7.389695610305150808e+01
7.391696608304151539e+01
7.393697606303150849e+01
7.395698604302148738e+01
7.397699602301148047e+01
7.399700600300147357e+01
7.401701598299148088e+01
7.403702596298147398e+01
7.405703594297148129e+01
7.407704592296147439e+01
7.409705590295146749e+01
7.411706588294146059e+01
7.413707586293145368e+01
7.415708584292144678e+01
7.417709582291145409e+01
7.419710580290143298e+01
7.421711578289142608e+01
7.423712576288141918e+01
7.425713574287141228e+01
7.427714572286141959e+01
7.429715570285141268e+01
7.431716568284141999e+01
7.433717566283141309e+01
7.435718564282140619e+01
7.437719562281139929e+01
7.439720560280140660e+01
7.441721558279139970e+01
7.443722556278139280e+01
7.445723554277138589e+01
7.447724552276137899e+01
7.449725550275137209e+01
7.451726548274136519e+01
7.453727546273135829e+01
7.455728544272136560e+01
7.457729542271134449e+01
7.459730540270135180e+01
7.461731538269133068e+01
7.463732536268133799e+01
7.465733534267133109e+01
7.467734532266132419e+01
7.469735530265131729e+01
7.471736528264129618e+01
7.473737526263130349e+01
7.475738524262129658e+01
7.477739522261130389e+01
7.479740520260129699e+01
7.481741518259129009e+01
7.483742516258128319e+01
7.485743514257127629e+01
7.487744512256126939e+01
7.489745510255127670e+01
7.491746508254126979e+01
7.493747506253126289e+01
7.495748504252125599e+01
7.497749502251124909e+01
7.499750500250124219e+01
7.501751498249123529e+01
7.503752496248122839e+01
7.505753494247122148e+01
7.507754492246121458e+01
7.509755490245120768e+01
7.511756488244121499e+01
7.513757486243122230e+01
7.515758484242120119e+01
7.517759482241120850e+01
7.519760480240118738e+01
7.521761478239119469e+01
7.523762476238118779e+01
7.525763474237116668e+01
7.527764472236117399e+01
7.529765470235116709e+01
7.531766468234116019e+01
7.533767466233115329e+01
7.535768464232114638e+01
7.537769462231113948e+01
7.539770460230114679e+01
7.541771458229112568e+01
7.543772456228113299e+01
7.545773454227111188e+01
7.547774452226110498e+01
7.549775450225111229e+01
7.551776448224110538e+01
7.553777446223109848e+01
7.555778444222110579e+01
7.557779442221108468e+01
7.559780440220109199e+01
7.561781438219108509e+01
7.563782436218107819e+01
7.565783434217107128e+01
7.567784432216106438e+01
7.569785430215105748e+01
7.571786428214106479e+01
7.573787426213104368e+01
7.575788424212103678e+01
7.577789422211102988e+01
7.579790420210102297e+01
7.581791418209103028e+01
7.583792416208102338e+01
7.585793414207101648e+01
7.587794412206102379e+01
7.589795410205101689e+01
7.591796408204102420e+01
7.593797406203101730e+01
7.595798404202101040e+01
7.597799402201101771e+01
7.599800400200099659e+01
7.601801398199098969e+01
7.603802396198098279e+01
7.605803394197097589e+01
7.607804392196098320e+01
7.609805390195096209e+01
7.611806388194096940e+01
7.613807386193096249e+01
7.615808384192095559e+01
7.617809382191094869e+01
7.619810380190095600e+01
7.621811378189093489e+01
7.623812376188092799e+01
7.625813374187092109e+01
7.627814372186092839e+01
7.629815370185092149e+01
7.631816368184091459e+01
7.633817366183090769e+01
7.635818364182091500e+01
7.637819362181089389e+01
7.639820360180090120e+01
7.641821358179088008e+01
7.643822356178088739e+01
7.645823354177088049e+01
7.647824352176085938e+01
7.649825350175086669e+01
7.651826348174084558e+01
7.653827346173085289e+01
7.655828344172084599e+01
7.657829342171083908e+01
7.659830340170083218e+01
7.661831338169083949e+01
7.663832336168083259e+01
7.665833334167082569e+01
7.667834332166083300e+01
7.669835330165082610e+01
7.671836328164081920e+01
7.673837326163081229e+01
7.675838324162079118e+01
7.677839322161079849e+01
7.679840320160079159e+01
7.681841318159078469e+01
7.683842316158077779e+01
7.685843314157077089e+01
7.687844312156076398e+01
7.689845310155075708e+01
7.691846308154076439e+01
7.693847306153075749e+01
7.695848304152075059e+01
7.697849302151075790e+01
7.699850300150075100e+01
7.701851298149072989e+01
7.703852296148073719e+01
7.705853294147071608e+01
7.707854292146072339e+01
7.709855290145071649e+01
7.711856288144070959e+01
7.713857286143070269e+01
7.715858284142069579e+01
7.717859282141068888e+01
7.719860280140069619e+01
7.721861278139067508e+01
7.723862276138066818e+01
7.725863274137066128e+01
7.727864272136065438e+01
7.729865270135066169e+01
7.731866268134064057e+01
7.733867266133064788e+01
7.735868264132065519e+01
7.737869262131064829e+01
7.739870260130064139e+01
7.741871258129063449e+01
7.743872256128062759e+01
7.745873254127063490e+01
7.747874252126062800e+01
7.749875250125062109e+01
7.751876248124061419e+01
7.753877246123060729e+01
7.755878244122060039e+01
7.757879242121059349e+01
7.759880240120058659e+01
7.761881238119059390e+01
7.763882236118058700e+01
7.765883234117058009e+01
7.767884232116057319e+01
7.769885230115056629e+01
7.771886228114057360e+01
7.773887226113058091e+01
7.775888224112055980e+01
7.777889222111055290e+01
7.779890220110054599e+01
7.781891218109053909e+01
7.783892216108053219e+01
7.785893214107052529e+01
7.787894212106053260e+01
7.789895210105051149e+01
7.791896208104051880e+01
7.793897206103051190e+01
7.795898204102050499e+01
7.797899202101049809e+01
7.799900200100047698e+01
7.801901198099048429e+01
7.803902196098047739e+01
7.805903194097047049e+01
7.807904192096046359e+01
7.809905190095047089e+01
7.811906188094046399e+01
7.813907186093045709e+01
7.815908184092046440e+01
7.817909182091044329e+01
7.819910180090045060e+01
7.821911178089044370e+01
7.823912176088043680e+01
7.825913174087042989e+01
7.827914172086040878e+01
7.829915170085041609e+01
7.831916168084039498e+01
7.833917166083040229e+01
7.835918164082039539e+01
7.837919162081038849e+01
7.839920160080038158e+01
7.841921158079038889e+01
7.843922156078036778e+01
7.845923154077038930e+01
7.847924152076038240e+01
7.849925150075037550e+01
7.851926148074035439e+01
7.853927146073034748e+01
7.855928144072034058e+01
7.857929142071034789e+01
7.859930140070034099e+01
7.861931138069033409e+01
7.863932136068032719e+01
7.865933134067032029e+01
7.867934132066031339e+01
7.869935130065030648e+01
7.871936128064031379e+01
7.873937126063030689e+01
7.875938124062028578e+01
7.877939122061027888e+01
7.879940120060027198e+01
7.881941118059027929e+01
7.883942116058028660e+01
7.885943114057026548e+01
7.887944112056027279e+01
7.889945110055026589e+01
7.891946108054025899e+01
7.893947106053025209e+01
7.895948104052024519e+01
7.897949102051023829e+01
7.899950100050024560e+01
7.901951098049023869e+01
7.903952096048023179e+01
7.905953094047022489e+01
7.907954092046021799e+01
7.909955090045022530e+01
7.911956088044020419e+01
7.913957086043021150e+01
7.915958084042020459e+01
7.917959082041019769e+01
7.919960080040020500e+01
7.921961078039019810e+01
7.923962076038019120e+01
7.925963074037018430e+01
7.927964072036016319e+01
7.929965070035017050e+01
7.931966068034016359e+01
7.933967066033015669e+01
7.935968064032014979e+01
7.937969062031014289e+01
7.939970060030013599e+01
7.941971058029014330e+01
7.943972056028013640e+01
7.945973054027012950e+01
7.947974052026012259e+01
7.949975050025011569e+01
7.951976048024010879e+01
7.953977046023010189e+01
7.955978044022009499e+01
7.957979042021010230e+01
7.959980040020009540e+01
7.961981038019008849e+01
7.963982036018008159e+01
7.965983034017007469e+01
7.967984032016008200e+01
7.969985030015006089e+01
7.971986028014006820e+01
7.973987026013006130e+01
7.975988024012005440e+01
7.977989022011004749e+01
7.979990020010002638e+01
7.981991018009003369e+01
7.983992016008002679e+01
7.985993014007001989e+01
7.987994012006001299e+01
7.989995010005002030e+01
7.991996008003999918e+01
7.993997006003000649e+01
7.995998004002001380e+01
7.997999002000999269e+01
8.000000000000000000e+01
