1.000000000000000056e-01 7.473196695188086269e-02 8.747529590720169723e-02 -9.544039957842892496e-01
2.000000000000000111e-01 8.041847976456623429e-03 9.579509339008043800e-03 -8.236194115928184845e-01
2.999999999999999889e-01 9.217941654237556983e-05 1.133334207348432804e-04 -6.246149874172117755e-01
4.000000000000000222e-01 1.325540283685952603e-07 1.713790243083199630e-07 -3.824373960563439701e-01
5.000000000000000000e-01 2.492717956984476745e-11 3.483585618543372906e-11 -1.260768909432012919e-01
5.999999999999999778e-01 1.665953102836962741e-15 1.082174396079977981e-15 1.160470015626003937e-01
6.999999999999999556e-01 2.424631986508829951e-16 1.575933555075316201e-15 3.201175257182592992e-01
7.999999999999999334e-01 -3.929467263981183015e-17 1.706127968874168036e-15 4.697876477890305935e-01
8.999999999999999112e-01 3.198104599615576643e-15 -2.314087727884241243e-15 5.574826179914952329e-01
9.999999999999998890e-01 2.287569003087234760e-15 -3.063287812066000407e-16 5.841388731567773718e-01
1.099999999999999867e+00 1.608759891982663593e-15 -4.925052351814236706e-16 5.576712337602310887e-01
1.199999999999999956e+00 4.914481426003280869e-16 9.867085303215528022e-16 4.906441633288742832e-01
1.300000000000000044e+00 4.420363821714649633e-16 1.914438944198021320e-15 3.977047124075087092e-01
1.399999999999999911e+00 6.794839611445786262e-16 -1.705985581492232703e-16 2.932458663508226149e-01
1.500000000000000000e+00 1.249248042921321235e-16 6.406373370857530450e-16 1.896433441065466241e-01
1.599999999999999867e+00 6.283965285884257303e-17 -5.381827279969882893e-17 9.619609645420354460e-02
1.699999999999999956e+00 1.202855352200308368e-17 3.385821095065005109e-17 1.876917294491217691e-02
1.800000000000000044e+00 -4.818717287566297478e-18 -1.797852867633222625e-16 -3.999688753903981459e-02
1.899999999999999911e+00 3.719365914323386236e-17 -4.648231579959655790e-16 -8.009903926127241724e-02
2.000000000000000000e+00 -4.342074470535527499e-17 -2.583150236161849659e-16 -1.034127036934764099e-01
2.099999999999999645e+00 3.419628639578414206e-17 -7.446222795404505017e-16 -1.129096135127030109e-01
2.199999999999999734e+00 -2.653529078730239914e-17 -4.349702904426527238e-16 -1.119894316515424038e-01
2.299999999999999822e+00 -3.704975327866134119e-17 -8.655921329134159094e-17 -1.039680160632840550e-01
2.399999999999999911e+00 -1.785233320468348287e-17 -2.548822569787271233e-16 -9.174827503274840534e-02
2.500000000000000000e+00 -4.780864678383056634e-18 -3.511168535254140105e-16 -7.765202474944403466e-02
2.600000000000000089e+00 -6.868968172369066430e-18 -1.917697699293687966e-16 -6.338034908281726942e-02
2.699999999999999734e+00 -1.769803098379728197e-17 -5.423818877133809635e-17 -5.005825893106460867e-02
2.799999999999999822e+00 9.186086737414449468e-19 -1.163592936700072958e-16 -3.833050685802647656e-02
2.899999999999999911e+00 -1.705570253571641783e-18 -3.730637775241328593e-17 -2.847318028837594883e-02
3.000000000000000000e+00 -1.532704809961946348e-18 -5.203006050426130049e-17 -2.050600209256183207e-02
