1.000000000000000056e-01 9.884322280560711160e-01 0.000000000000000000e+00 1.156777194392860121e-02 0.000000000000000000e+00 0.000000000000000000e+00 0.000000000000000000e+00 -6.639659344568382693e-02 8.381798692832848063e-02 0.000000000000000000e+00 0.000000000000000000e+00 0.000000000000000000e+00 0.000000000000000000e+00 0.000000000000000000e+00 0.000000000000000000e+00 0.000000000000000000e+00 0.000000000000000000e+00
2.000000000000000111e-01 9.550695003423453899e-01 0.000000000000000000e+00 4.493049965765490844e-02 0.000000000000000000e+00 0.000000000000000000e+00 0.000000000000000000e+00 -1.245458647009017178e-01 1.655297350068713202e-01 0.000000000000000000e+00 0.000000000000000000e+00 0.000000000000000000e+00 0.000000000000000000e+00 0.000000000000000000e+00 0.000000000000000000e+00 0.000000000000000000e+00 0.000000000000000000e+00
2.999999999999999889e-01 9.037807415395477939e-01 0.000000000000000000e+00 9.621925846045248365e-02 0.000000000000000000e+00 0.000000000000000000e+00 0.000000000000000000e+00 -1.671288038824970124e-01 2.429590716982204801e-01 0.000000000000000000e+00 0.000000000000000000e+00 0.000000000000000000e+00 0.000000000000000000e+00 0.000000000000000000e+00 0.000000000000000000e+00 0.000000000000000000e+00 0.000000000000000000e+00
4.000000000000000222e-01 8.405217875382041681e-01 0.000000000000000000e+00 1.594782124617974139e-01 0.000000000000000000e+00 0.000000000000000000e+00 0.000000000000000000e+00 -1.885833894494046148e-01 3.138172678380090064e-01 0.000000000000000000e+00 0.000000000000000000e+00 0.000000000000000000e+00 0.000000000000000000e+00 0.000000000000000000e+00 0.000000000000000000e+00 0.000000000000000000e+00 0.000000000000000000e+00
5.000000000000000000e-01 7.726547676353151539e-01 0.000000000000000000e+00 2.273452323646837636e-01 0.000000000000000000e+00 0.000000000000000000e+00 0.000000000000000000e+00 -1.857444829044956336e-01 3.757105992062385047e-01 0.000000000000000000e+00 0.000000000000000000e+00 0.000000000000000000e+00 0.000000000000000000e+00 0.000000000000000000e+00 0.000000000000000000e+00 0.000000000000000000e+00 0.000000000000000000e+00
5.999999999999999778e-01 7.081045303353836751e-01 0.000000000000000000e+00 2.918954696646169911e-01 0.000000000000000000e+00 0.000000000000000000e+00 0.000000000000000000e+00 -1.582256849429192758e-01 4.262126904110550285e-01 0.000000000000000000e+00 0.000000000000000000e+00 0.000000000000000000e+00 0.000000000000000000e+00 0.000000000000000000e+00 0.000000000000000000e+00 0.000000000000000000e+00 0.000000000000000000e+00
6.999999999999999556e-01 6.544467638367066353e-01 0.000000000000000000e+00 3.455532361632922544e-01 0.000000000000000000e+00 0.000000000000000000e+00 0.000000000000000000e+00 -1.085011045466745122e-01 4.630052452749298664e-01 0.000000000000000000e+00 0.000000000000000000e+00 0.000000000000000000e+00 0.000000000000000000e+00 0.000000000000000000e+00 0.000000000000000000e+00 0.000000000000000000e+00 0.000000000000000000e+00
7.999999999999999334e-01 6.180304018706098690e-01 0.000000000000000000e+00 3.819695981293918519e-01 0.000000000000000000e+00 0.000000000000000000e+00 0.000000000000000000e+00 -4.167668116908240794e-02 4.840785618930386613e-01 0.000000000000000000e+00 0.000000000000000000e+00 0.000000000000000000e+00 0.000000000000000000e+00 0.000000000000000000e+00 0.000000000000000000e+00 0.000000000000000000e+00 0.000000000000000000e+00
8.999999999999999112e-01 6.032334711692405316e-01 0.000000000000000000e+00 3.967665288307602456e-01 0.000000000000000000e+00 0.000000000000000000e+00 0.000000000000000000e+00 3.502644270463889375e-02 4.879715120634735559e-01 0.000000000000000000e+00 0.000000000000000000e+00 0.000000000000000000e+00 0.000000000000000000e+00 0.000000000000000000e+00 0.000000000000000000e+00 0.000000000000000000e+00 0.000000000000000000e+00
9.999999999999998890e-01 6.119370787093161290e-01 0.000000000000000000e+00 3.880629212906846481e-01 0.000000000000000000e+00 0.000000000000000000e+00 0.000000000000000000e+00 1.130234131094564332e-01 4.740211139544050489e-01 0.000000000000000000e+00 0.000000000000000000e+00 0.000000000000000000e+00 0.000000000000000000e+00 0.000000000000000000e+00 0.000000000000000000e+00 0.000000000000000000e+00 0.000000000000000000e+00
1.099999999999999867e+00 6.432783181643804138e-01 0.000000000000000000e+00 3.567216818356172547e-01 0.000000000000000000e+00 0.000000000000000000e+00 0.000000000000000000e+00 1.832738216264467868e-01 4.425858882944154193e-01 0.000000000000000000e+00 0.000000000000000000e+00 0.000000000000000000e+00 0.000000000000000000e+00 0.000000000000000000e+00 0.000000000000000000e+00 0.000000000000000000e+00 0.000000000000000000e+00
1.199999999999999956e+00 6.937121028711313864e-01 0.000000000000000000e+00 3.062878971288692798e-01 0.000000000000000000e+00 0.000000000000000000e+00 0.000000000000000000e+00 2.372513322411361758e-01 3.952058816743049818e-01 0.000000000000000000e+00 0.000000000000000000e+00 0.000000000000000000e+00 0.000000000000000000e+00 0.000000000000000000e+00 0.000000000000000000e+00 0.000000000000000000e+00 0.000000000000000000e+00
1.300000000000000044e+00 7.573776754842603820e-01 0.000000000000000000e+00 2.426223245157414776e-01 0.000000000000000000e+00 0.000000000000000000e+00 0.000000000000000000e+00 2.678725020014336988e-01 3.346660196442225454e-01 0.000000000000000000e+00 0.000000000000000000e+00 0.000000000000000000e+00 0.000000000000000000e+00 0.000000000000000000e+00 0.000000000000000000e+00 0.000000000000000000e+00 0.000000000000000000e+00
1.399999999999999911e+00 8.267315651632713980e-01 0.000000000000000000e+00 1.732684348367283800e-01 0.000000000000000000e+00 0.000000000000000000e+00 0.000000000000000000e+00 2.702861271210243999e-01 2.649381314814657218e-01 0.000000000000000000e+00 0.000000000000000000e+00 0.000000000000000000e+00 0.000000000000000000e+00 0.000000000000000000e+00 0.000000000000000000e+00 0.000000000000000000e+00 0.000000000000000000e+00
1.500000000000000000e+00 8.933788083679572445e-01 0.000000000000000000e+00 1.066211916320431441e-01 0.000000000000000000e+00 0.000000000000000000e+00 0.000000000000000000e+00 2.424384023024393209e-01 1.909897452750086155e-01 0.000000000000000000e+00 0.000000000000000000e+00 0.000000000000000000e+00 0.000000000000000000e+00 0.000000000000000000e+00 0.000000000000000000e+00 0.000000000000000000e+00 0.000000000000000000e+00
1.599999999999999867e+00 9.490116397211111332e-01 0.000000000000000000e+00 5.098836027888836026e-02 0.000000000000000000e+00 0.000000000000000000e+00 0.000000000000000000e+00 1.853520681790055413e-01 1.184632076906523557e-01 0.000000000000000000e+00 0.000000000000000000e+00 0.000000000000000000e+00 0.000000000000000000e+00 0.000000000000000000e+00 0.000000000000000000e+00 0.000000000000000000e+00 0.000000000000000000e+00
1.699999999999999956e+00 9.863521247668503023e-01 0.000000000000000000e+00 1.364787523314830824e-02 0.000000000000000000e+00 0.000000000000000000e+00 0.000000000000000000e+00 1.030871895411999140e-01 5.324505308141483373e-02 0.000000000000000000e+00 0.000000000000000000e+00 0.000000000000000000e+00 0.000000000000000000e+00 0.000000000000000000e+00 0.000000000000000000e+00 0.000000000000000000e+00 0.000000000000000000e+00
1.800000000000000044e+00 9.999938061577882120e-01 0.000000000000000000e+00 6.193842211794851285e-06 0.000000000000000000e+00 0.000000000000000000e+00 0.000000000000000000e+00 2.384214129573672056e-03 9.608451518123999925e-04 0.000000000000000000e+00 0.000000000000000000e+00 0.000000000000000000e+00 0.000000000000000000e+00 0.000000000000000000e+00 0.000000000000000000e+00 0.000000000000000000e+00 0.000000000000000000e+00
1.899999999999999911e+00 9.870475938354158485e-01 0.000000000000000000e+00 1.295240616458560347e-02 0.000000000000000000e+00 0.000000000000000000e+00 0.000000000000000000e+00 -1.079769100496902889e-01 -3.355701317880702139e-02 0.000000000000000000e+00 0.000000000000000000e+00 0.000000000000000000e+00 0.000000000000000000e+00 0.000000000000000000e+00 0.000000000000000000e+00 0.000000000000000000e+00 0.000000000000000000e+00
2.000000000000000000e+00 9.475178086806357314e-01 0.000000000000000000e+00 5.248219131936456699e-02 0.000000000000000000e+00 0.000000000000000000e+00 0.000000000000000000e+00 -2.180379734128524150e-01 -4.677344475301346838e-02 0.000000000000000000e+00 0.000000000000000000e+00 0.000000000000000000e+00 0.000000000000000000e+00 0.000000000000000000e+00 0.000000000000000000e+00 0.000000000000000000e+00 0.000000000000000000e+00
2.099999999999999645e+00 8.843632916281113365e-01 0.000000000000000000e+00 1.156367083718900374e-01 0.000000000000000000e+00 0.000000000000000000e+00 0.000000000000000000e+00 -3.176571357078805669e-01 -3.687013386910652224e-02 0.000000000000000000e+00 0.000000000000000000e+00 0.000000000000000000e+00 0.000000000000000000e+00 0.000000000000000000e+00 0.000000000000000000e+00 0.000000000000000000e+00 0.000000000000000000e+00
2.199999999999999734e+00 8.032326971506135171e-01 0.000000000000000000e+00 1.967673028493860943e-01 0.000000000000000000e+00 0.000000000000000000e+00 0.000000000000000000e+00 -3.975354887678654303e-01 -4.028354096373434889e-03 0.000000000000000000e+00 0.000000000000000000e+00 0.000000000000000000e+00 0.000000000000000000e+00 0.000000000000000000e+00 0.000000000000000000e+00 0.000000000000000000e+00 0.000000000000000000e+00
2.299999999999999822e+00 7.118987945756307667e-01 0.000000000000000000e+00 2.881012054243692888e-01 0.000000000000000000e+00 0.000000000000000000e+00 0.000000000000000000e+00 -4.501700168229433863e-01 4.946556999600602855e-02 0.000000000000000000e+00 0.000000000000000000e+00 0.000000000000000000e+00 0.000000000000000000e+00 0.000000000000000000e+00 0.000000000000000000e+00 0.000000000000000000e+00 0.000000000000000000e+00
2.399999999999999911e+00 6.194499093576930626e-01 0.000000000000000000e+00 3.805500906423051610e-01 0.000000000000000000e+00 0.000000000000000000e+00 0.000000000000000000e+00 -4.706342364390984079e-01 1.193164331810503132e-01 0.000000000000000000e+00 0.000000000000000000e+00 0.000000000000000000e+00 0.000000000000000000e+00 0.000000000000000000e+00 0.000000000000000000e+00 0.000000000000000000e+00 0.000000000000000000e+00
2.500000000000000000e+00 5.353238917539132613e-01 0.000000000000000000e+00 4.646761082460887371e-01 0.000000000000000000e+00 0.000000000000000000e+00 0.000000000000000000e+00 -4.571048478848129260e-01 1.995219444419586985e-01 0.000000000000000000e+00 0.000000000000000000e+00 0.000000000000000000e+00 0.000000000000000000e+00 0.000000000000000000e+00 0.000000000000000000e+00 0.000000000000000000e+00 0.000000000000000000e+00
2.600000000000000089e+00 4.682881803040741531e-01 0.000000000000000000e+00 5.317118196959259580e-01 0.000000000000000000e+00 0.000000000000000000e+00 0.000000000000000000e+00 -4.110782963589646455e-01 2.828621845632860454e-01 0.000000000000000000e+00 0.000000000000000000e+00 0.000000000000000000e+00 0.000000000000000000e+00 0.000000000000000000e+00 0.000000000000000000e+00 0.000000000000000000e+00 0.000000000000000000e+00
2.699999999999999734e+00 4.254765777165625540e-01 0.000000000000000000e+00 5.745234222834380011e-01 0.000000000000000000e+00 0.000000000000000000e+00 0.000000000000000000e+00 -3.372526235598902744e-01 3.615375188327820122e-01 0.000000000000000000e+00 0.000000000000000000e+00 0.000000000000000000e+00 0.000000000000000000e+00 0.000000000000000000e+00 0.000000000000000000e+00 0.000000000000000000e+00 0.000000000000000000e+00
2.799999999999999822e+00 4.115884193258685930e-01 0.000000000000000000e+00 5.884115806741319066e-01 0.000000000000000000e+00 0.000000000000000000e+00 0.000000000000000000e+00 -2.430841672577617463e-01 4.278976358295113469e-01 0.000000000000000000e+00 0.000000000000000000e+00 0.000000000000000000e+00 0.000000000000000000e+00 0.000000000000000000e+00 0.000000000000000000e+00 0.000000000000000000e+00 0.000000000000000000e+00
2.899999999999999911e+00 4.283393283072389757e-01 0.000000000000000000e+00 5.716606716927619125e-01 0.000000000000000000e+00 0.000000000000000000e+00 0.000000000000000000e+00 -1.380620303879939725e-01 4.751915555493897436e-01 0.000000000000000000e+00 0.000000000000000000e+00 0.000000000000000000e+00 0.000000000000000000e+00 0.000000000000000000e+00 0.000000000000000000e+00 0.000000000000000000e+00 0.000000000000000000e+00
3.000000000000000000e+00 4.742264134504074469e-01 0.000000000000000000e+00 5.257735865495920535e-01 0.000000000000000000e+00 0.000000000000000000e+00 0.000000000000000000e+00 -3.277235610645327923e-02 4.982625842988232523e-01 0.000000000000000000e+00 0.000000000000000000e+00 0.000000000000000000e+00 0.000000000000000000e+00 0.000000000000000000e+00 0.000000000000000000e+00 0.000000000000000000e+00 0.000000000000000000e+00
