0.000000000000000000e+00 1.339226481472480102e-09 -8.201668455552738332e-09 -1.000000000000000000e+00
1.312820512820512819e-01 9.505003519182346483e-02 2.325485785004338113e-01 -9.679271558250792662e-01
2.625641025641025639e-01 1.881582220263557925e-01 4.391679529774416002e-01 -8.784761525978012076e-01
3.938461538461538458e-01 2.768853490842169141e-01 6.014998519816874278e-01 -7.493470283220277084e-01
5.251282051282051277e-01 3.581955228726476093e-01 7.130937422951103555e-01 -6.026430484871206916e-01
6.564102564102564097e-01 4.290573546877300970e-01 7.787967933630344231e-01 -4.575679269915513547e-01
7.876923076923076916e-01 4.874474832246454836e-01 8.101586005112499933e-01 -3.256064657228883163e-01
9.189743589743589736e-01 5.331938367895081576e-01 8.195253797135291229e-01 -2.099123432850839022e-01
1.050256410256410255e+00 5.681595360860117738e-01 8.157489718145374269e-01 -1.082987199704923825e-01
1.181538461538461426e+00 5.955438158931352088e-01 8.031203499387158384e-01 -1.747464622933552619e-02
1.312820512820512819e+00 6.186059798145535638e-01 7.830778390781387710e-01 6.399913533438880697e-02
1.444102564102564212e+00 6.394303459552383995e-01 7.568244865979663061e-01 1.353731043039766435e-01
1.575384615384615383e+00 6.583661998506551427e-01 7.268708289841900871e-01 1.954312397249655664e-01
1.706666666666666554e+00 6.744214659777847398e-01 6.966399736124000430e-01 2.446004038229108168e-01
1.837948717948717947e+00 6.863687882475627555e-01 6.687843401476216698e-01 2.856687424332803316e-01
1.969230769230769340e+00 6.938933961643588555e-01 6.437269169970756266e-01 3.226595055622116237e-01
2.100512820512820511e+00 6.981255919086994943e-01 6.196549509769437858e-01 3.586506577528953410e-01
2.231794871794871682e+00 7.012050907224738339e-01 5.940724049648758998e-01 3.941721471442113378e-01
2.363076923076922853e+00 7.051725231786950543e-01 5.658076499071467147e-01 4.272892361818890206e-01
2.494358974358974468e+00 7.108302707825541189e-01 5.360744235898966537e-01 4.553323780970413015e-01
2.625641025641025639e+00 7.173153266048264420e-01 5.077797194910724787e-01 4.770763153697465953e-01
2.756923076923076810e+00 7.226626613833112556e-01 4.835696611744132456e-01 4.938649946891519038e-01
2.888205128205128425e+00 7.250655666507190844e-01 4.639348392960758183e-01 5.089481167083630408e-01
3.019487179487179596e+00 7.240747178830256869e-01 4.467657593027994922e-01 5.254523866067166704e-01
3.150769230769230766e+00 7.209818197050281707e-01 4.286802550760989705e-01 5.444288847226800288e-01
3.282051282051281937e+00 7.181266010629540064e-01 4.072959178034206706e-01 5.642596025999395692e-01
3.413333333333333108e+00 7.175030160733701923e-01 3.828906323626787289e-01 5.818669710945930662e-01
3.544615384615384723e+00 7.195367540356388814e-01 3.582989930861074646e-01 5.948730247014988315e-01
3.675897435897435894e+00 7.227785715633169294e-01 3.370732741585039660e-01 6.032894178837179266e-01
3.807179487179487065e+00 7.247821979832171913e-01 3.210704611273940134e-01 6.095818382486883902e-01
3.938461538461538680e+00 7.236147311584775199e-01 3.091302772587051773e-01 6.170946686063941700e-01
4.069743589743589851e+00 7.191236147444296511e-01 2.977325810297204445e-01 6.278553831145022857e-01
4.201025641025641022e+00 7.131049719660990105e-01 2.832651706859498075e-01 6.412708098406751933e-01
4.332307692307692193e+00 7.082448329803758824e-01 2.644136165933376748e-01 6.545693788802984248e-01
4.463589743589743364e+00 7.064652490420718634e-01 2.430877081088318736e-01 6.646817347107331075e-01
4.594871794871794535e+00 7.076937974874942805e-01 2.232193470753653097e-01 6.703203100508907664e-01
4.726153846153845706e+00 7.098514176573149648e-01 2.081934253711867355e-01 6.728693969356062121e-01
4.857435897435897765e+00 7.101250050336146424e-01 1.985686880590948888e-01 6.754848414543080937e-01
4.988717948717948936e+00 7.067363507970801928e-01 1.916403973256795013e-01 6.810173461405448769e-01
5.120000000000000107e+00 7.001161845143420992e-01 1.831359210401804494e-01 6.901345542750825235e-01
