0.000000000000000000e+00 -1.523751502331923992e-09 1.911932336513783321e-09 -1.000000000000000000e+00
1.312820512820512819e-01 4.755553096424962323e-02 -3.698814182377397480e-02 -9.981829180854215888e-01
2.625641025641025639e-01 9.421901401105209350e-02 -7.150802060592661991e-02 -9.929788881291847780e-01
3.938461538461538458e-01 1.394537575565767962e-01 -1.015164439097581001e-01 -9.850094879052938568e-01
5.251282051282051277e-01 1.833499572030655722e-01 -1.256934984192338567e-01 -9.749766911051661600e-01
6.564102564102564097e-01 2.264839679214732393e-01 -1.436971759610143340e-01 -9.633539133239311658e-01
7.876923076923076916e-01 2.695141402552547749e-01 -1.562049600731831023e-01 -9.502398662816843311e-01
9.189743589743589736e-01 3.126888153816773652e-01 -1.647194380892791910e-01 -9.354602636711507602e-01
1.050256410256410255e+00 3.554997187571761752e-01 -1.711110197938616462e-01 -9.188757667826005227e-01
1.181538461538461426e+00 3.966617667306847062e-01 -1.770156028194184161e-01 -9.007306117201487883e-01
1.312820512820512819e+00 4.344923654176535144e-01 -1.832621956425681820e-01 -8.818282774728032347e-01
1.444102564102564212e+00 4.675351480623111122e-01 -1.895516331243458086e-01 -8.634060173466757693e-01
1.575384615384615383e+00 4.952166493209848031e-01 -1.945301989286897515e-01 -8.467033782341045756e-01
1.706666666666666554e+00 5.181943432001783201e-01 -1.963435307643506822e-01 -8.324129792326350197e-01
1.837948717948717947e+00 5.382686874153114198e-01 -1.934498038239768625e-01 -8.202627756589088159e-01
1.969230769230769340e+00 5.578046639237960180e-01 -1.854304907502968836e-01 -8.089845903292500751e-01
2.100512820512820511e+00 5.788763551607334357e-01 -1.734462083777099095e-01 -7.967463094164762838e-01
2.231794871794871682e+00 6.024597438410514982e-01 -1.600845834148169611e-01 -7.819211776059480368e-01
2.363076923076922853e+00 6.280046706378934473e-01 -1.485869208104367289e-01 -7.638828137052171563e-01
2.494358974358974468e+00 6.535783320495668347e-01 -1.416842423731714540e-01 -7.434683079512477422e-01
2.625641025641025639e+00 6.765709735560244686e-01 -1.404895862623612990e-01 -7.228401591589685982e-01
2.756923076923076810e+00 6.947097093030668580e-01 -1.439009565175849992e-01 -7.047367332524877570e-01
2.888205128205128425e+00 7.069941942826424297e-01 -1.488308490292113428e-01 -6.913690087165567100e-01
3.019487179487179596e+00 7.141829583833103623e-01 -1.512620663121925224e-01 -6.834067366300710100e-01
3.150769230769230766e+00 7.186222835322970681e-01 -1.477708929621661949e-01 -6.795056578927068935e-01
3.282051282051281937e+00 7.234375831715733618e-01 -1.369592807039668458e-01 -6.766552281838187355e-01
3.413333333333333108e+00 7.314001957469208337e-01 -1.201845193162316139e-01 -6.712610194414307951e-01
3.544615384615384723e+00 7.438770931850247070e-01 -1.012575579680545512e-01 -6.605871565271044243e-01
3.675897435897435894e+00 7.602983493673181048e-01 -8.511273288872983622e-02 -6.439591535517120713e-01
3.807179487179487065e+00 7.783325693300623405e-01 -7.594527537865453093e-02 -6.232265417749017766e-01
3.938461538461538680e+00 7.947651156542617779e-01 -7.549654049064663530e-02 -6.021866315755873833e-01
4.069743589743589851e+00 8.067173668286482524e-01 -8.222709749316114980e-02 -5.851712835325508788e-01
4.201025641025641022e+00 8.127708708592120690e-01 -9.172131251293574872e-02 -5.753000185553157619e-01
4.332307692307692193e+00 8.135495222905977375e-01 -9.829471105775006157e-02 -5.731096517925536871e-01
4.463589743589743364e+00 8.115233387629455786e-01 -9.718620667121907752e-02 -5.761632860710067527e-01
4.594871794871794535e+00 8.101008486221351612e-01 -8.648825386214614719e-02 -5.798585214225205897e-01
4.726153846153845706e+00 8.123439061966909458e-01 -6.804829025510666929e-02 -5.791772632333692661e-01
4.857435897435897765e+00 8.198038477468737595e-01 -4.690356134227907647e-02 -5.707021972938737253e-01
4.988717948717948936e+00 8.319236164551653268e-01 -2.941102793524397185e-02 -5.540911441318517872e-01
5.120000000000000107e+00 8.462445651180179329e-01 -2.076655864634135984e-02 -5.323695269314735468e-01
