0.000000000000000000e+00 2.920466416925503794e-09 2.955555859852916369e-09 -1.000000000000000000e+00
1.312820512820512819e-01 -7.568158372913794119e-02 2.401866556726549307e-01 -9.677709040772604077e-01
2.625641025641025639e-01 -1.945305434266142719e-01 4.410837042523629847e-01 -8.761270129487271907e-01
3.938461538461538458e-01 -3.794932273688894631e-01 5.571843290387039627e-01 -7.385957315539899426e-01
5.251282051282051277e-01 -6.163024657826792208e-01 5.400366231618743962e-01 -5.731691277424486586e-01
6.564102564102564097e-01 -8.457790983146729058e-01 3.556976075866373765e-01 -3.976513875097388295e-01
7.876923076923076916e-01 -9.740025626352419863e-01 1.199276322688008767e-02 -2.261946027483406618e-01
9.189743589743589736e-01 -9.055544901552445847e-01 -4.187503423434992822e-01 -6.787950982466410543e-02
1.050256410256410255e+00 -5.938360521223429167e-01 -8.012710545329659872e-01 7.288272246412086375e-02
1.181538461538461426e+00 -8.708241253188964137e-02 -9.769256016487735117e-01 1.949915141222050841e-01
1.312820512820512819e+00 4.606311118267564231e-01 -8.355804069511693077e-01 2.993550489454829266e-01
1.444102564102564212e+00 8.358088868433146690e-01 -3.886067505587582627e-01 3.878117191627422078e-01
1.575384615384615383e+00 8.629937606211151024e-01 2.032101518747170821e-01 4.625338098213401250e-01
1.706666666666666554e+00 5.095102240354484335e-01 6.812235911254519438e-01 5.256657950072490815e-01
1.837948717948717947e+00 -6.738496412436328908e-02 8.124479623839810927e-01 5.791189419042523934e-01
1.969230769230769340e+00 -5.775743963181013685e-01 5.257105575288461008e-01 6.245221855472949946e-01
2.100512820512820511e+00 -7.479940816030570261e-01 -2.494944038195151537e-02 6.632303812730704351e-01
2.231794871794871682e+00 -4.869366903605132912e-01 -5.271780167752896373e-01 6.963968213925552098e-01
2.363076923076922853e+00 4.405734636818740835e-02 -6.873580084416018865e-01 7.249765084792569869e-01
2.494358974358974468e+00 5.142778337029687563e-01 -4.164149002499806795e-01 7.497401405535490948e-01
2.625641025641025639e+00 6.282952217292404606e-01 1.017185493166184729e-01 7.712924785347978762e-01
2.756923076923076810e+00 3.232304047270252445e-01 5.207881380791568038e-01 7.901238791460344357e-01
2.888205128205128425e+00 -1.813482528510805825e-01 5.625030177405148102e-01 8.066581594467134853e-01
3.019487179487179596e+00 -5.298342059635876566e-01 2.116729273301970471e-01 8.212580346008342413e-01
3.150769230769230766e+00 -4.814087910653825908e-01 -2.689088270351576715e-01 8.342231924821763567e-01
3.282051282051281937e+00 -8.604347393982053616e-02 -5.265489236058479294e-01 8.457763567712046626e-01
3.413333333333333108e+00 3.510101521959354542e-01 -3.793323195607778420e-01 8.560922633444257857e-01
3.544615384615384723e+00 4.990278602918711837e-01 4.652762378015770639e-02 8.653332566773884738e-01
3.675897435897435894e+00 2.554788415903994636e-01 4.140721337247846856e-01 8.736533945323814443e-01
3.807179487179487065e+00 -1.751749929527720295e-01 4.390977007872897686e-01 8.811938474798858278e-01
3.938461538461538680e+00 -4.452629839258713251e-01 1.145422766374416812e-01 8.880409589952790173e-01
4.069743589743589851e+00 -3.439459465220642831e-01 -2.863394300447121288e-01 8.942632635392664398e-01
4.201025641025641022e+00 3.295599910769170249e-02 -4.347990597601027463e-01 8.999220464286140642e-01
4.332307692307692193e+00 3.653118829768953191e-01 -2.176131746229890140e-01 9.050899748281694412e-01
4.463589743589743364e+00 3.778559726081766046e-01 1.714936641969405373e-01 9.098412095665628918e-01
4.594871794871794535e+00 7.104688713257920063e-02 3.989213662528822701e-01 9.142266764778577137e-01
4.726153846153845706e+00 -2.832682759231615610e-01 2.766451669207939390e-01 9.182717325541953635e-01
4.857435897435897765e+00 -3.791273234517275603e-01 -7.866794912018809649e-02 9.219926131766985611e-01
4.988717948717948936e+00 -1.418508703392866166e-01 -3.513766839045729395e-01 9.254238904793397058e-01
5.120000000000000107e+00 2.103886132926083841e-01 -3.056381370710234968e-01 9.286111565594320494e-01
