0.000000000000000000e+00 2.320132782238798560e-09 -3.694306567530779491e-10 -1.000000000000000000e+00
1.312820512820512819e-01 2.165530499166699041e-01 -3.796979585353570386e-01 -8.994052423255889384e-01
2.625641025641025639e-01 4.550585498693341391e-01 -6.316712020201515898e-01 -6.276177378595886314e-01
3.938461538461538458e-01 6.976592394139100595e-01 -6.671799240612074078e-01 -2.610177033510632238e-01
5.251282051282051277e-01 8.760443675953979437e-01 -4.693357614615696338e-01 1.107131490288923714e-01
6.564102564102564097e-01 9.015320345248768463e-01 -1.081638016806015790e-01 4.189621619865706581e-01
7.876923076923076916e-01 7.215615731574006597e-01 2.762017602104982483e-01 6.348640428848711936e-01
9.189743589743589736e-01 3.680918072119301332e-01 5.265179498515613066e-01 7.663420477724444124e-01
1.050256410256410255e+00 -3.728200234375866895e-02 5.406852981048327900e-01 8.403949476858961765e-01
1.181538461538461426e+00 -3.341256112808224654e-01 3.270494357709798350e-01 8.839648854191027860e-01
1.312820512820512819e+00 -4.068922760242175696e-01 6.420128683306783324e-03 9.134513478501925521e-01
1.444102564102564212e+00 -2.525933768576413274e-01 -2.495077658003795884e-01 9.348470289647722309e-01
1.575384615384615383e+00 1.339738958380173872e-02 -3.137672467453629932e-01 9.494038000219053863e-01
1.706666666666666554e+00 2.235771376494080087e-01 -1.770412264741538788e-01 9.584711456475656366e-01
1.837948717948717947e+00 2.590822284797948960e-01 5.034016320482673224e-02 9.645412111952929024e-01
1.969230769230769340e+00 1.205861559692996132e-01 2.121955167992132796e-01 9.697575670148325111e-01
2.100512820512820511e+00 -7.895857186325630495e-02 2.092782748858727226e-01 9.746620221053454713e-01
2.231794871794871682e+00 -1.961819415344196738e-01 6.173263059766610772e-02 9.786213815495204971e-01
2.363076923076922853e+00 -1.573287143616396433e-01 -1.121133938717499279e-01 9.811607714520147461e-01
2.494358974358974468e+00 -5.759275191072388278e-03 -1.850969769332835024e-01 9.827025087261435088e-01
2.625641025641025639e+00 1.365450872325305043e-01 -1.133712243311217338e-01 9.841243598453793817e-01
2.756923076923076810e+00 1.635096968944239060e-01 3.633652375692093817e-02 9.858715345381533490e-01
2.888205128205128425e+00 6.367288134916190834e-02 1.431906531762341395e-01 9.876440413355713765e-01
3.019487179487179596e+00 -7.630704020929632292e-02 1.274956874388266104e-01 9.888987380948390804e-01
3.150769230769230766e+00 -1.440430412037526087e-01 1.025119271698013423e-02 9.895176509324664638e-01
3.282051282051281937e+00 -9.103481160819304474e-02 -1.085207977093169962e-01 9.899164563179760901e-01
3.413333333333333108e+00 3.189978596362615104e-02 -1.332658130468871716e-01 9.905661802168547192e-01
3.544615384615384723e+00 1.202221449165268297e-01 -4.961850814821799210e-02 9.915056422401169467e-01
3.675897435897435894e+00 1.031649575890543208e-01 6.758191185287676372e-02 9.923651227229847160e-01
3.807179487179487065e+00 3.867329507485813000e-04 1.196291662496889174e-01 9.928180125872452244e-01
3.938461538461538680e+00 -9.808393861493759636e-02 6.673648703084282541e-02 9.929374015836237577e-01
4.069743589743589851e+00 -1.098958722683136130e-01 -4.109161966394182797e-02 9.930927925774438725e-01
4.201025641025641022e+00 -2.943250484026174729e-02 -1.096231807158399713e-01 9.935368306159769736e-01
4.332307692307692193e+00 7.027540024916234529e-02 -8.198712448257090835e-02 9.941521413178540101e-01
4.463589743589743364e+00 1.027127235140129630e-01 1.411062889064918814e-02 9.946104900837250407e-01
4.594871794871794535e+00 4.267875838332760990e-02 9.308554356561636600e-02 9.947425068817022931e-01
4.726153846153845706e+00 -5.396879951828874311e-02 8.737405856652070979e-02 9.947121142276377226e-01
4.857435897435897765e+00 -1.014678890518303928e-01 5.561029960163624275e-03 9.948227982358388566e-01
4.988717948717948936e+00 -6.000264140155095460e-02 -7.747162622089881490e-02 9.951868770956936450e-01
5.120000000000000107e+00 3.070831769984731091e-02 -8.829120804212498008e-02 9.956208086869750007e-01
