0.000000000000000000e+00 -3.018228988680760740e-09 2.455673568787353677e-09 -1.000000000000000000e+00
1.312820512820512819e-01 -1.478406504958781724e-02 -1.649010952514040965e-02 -9.997546179777047071e-01
2.625641025641025639e-01 -2.778891197318023032e-02 -3.447570785665396431e-02 -9.990189194939669282e-01
3.938461538461538458e-01 -3.701795349407549507e-02 -5.510206433377558277e-02 -9.977939921848334448e-01
5.251282051282051277e-01 -4.008381153645015210e-02 -7.882326634420612488e-02 -9.960820291651386604e-01
6.564102564102564097e-01 -3.426488953922814801e-02 -1.049557845257744482e-01 -9.938859349116628827e-01
7.876923076923076916e-01 -1.681623920123419616e-02 -1.312235157191745105e-01 -9.912095992194722704e-01
9.189743589743589736e-01 1.435034557312132170e-02 -1.534121599103452083e-01 -9.880574158215310598e-01
1.050256410256410255e+00 5.957259869562123167e-02 -1.653355886426310373e-01 -9.844357482480129429e-01
1.181538461538461426e+00 1.161185906590116029e-01 -1.594558163602363687e-01 -9.803512717214838412e-01
1.312820512820512819e+00 1.769462116688684250e-01 -1.283790516403502113e-01 -9.758109165013338915e-01
1.444102564102564212e+00 2.301263628377329395e-01 -6.735662498770217388e-02 -9.708258389090393958e-01
1.575384615384615383e+00 2.597759320037657527e-01 2.250519143021200916e-02 -9.654054393906664755e-01
1.706666666666666554e+00 2.490572618392928317e-01 1.311842887401722391e-01 -9.595617110724059540e-01
1.837948717948717947e+00 1.854933254094680573e-01 2.383158705978015435e-01 -9.533074519787638756e-01
1.969230769230769340e+00 6.767153907949091662e-02 3.150549970280627221e-01 -9.466562416538978342e-01
2.100512820512820511e+00 -8.877721004401759042e-02 3.304922359691630507e-01 -9.396224605895238113e-01
2.231794871794871682e+00 -2.492042640489028071e-01 2.623900222385543990e-01 -9.322260440466942910e-01
2.363076923076922853e+00 -3.651155563318601582e-01 1.096566112294901640e-01 -9.244796055116357714e-01
2.494358974358974468e+00 -3.879184844674274379e-01 -9.859806602446011259e-02 -9.164027472500128058e-01
2.625641025641025639e+00 -2.888894631366708543e-01 -3.033969003757494010e-01 -9.080138978671016270e-01
2.756923076923076810e+00 -7.850156217594331243e-02 -4.301554679248070778e-01 -8.993328848208965720e-01
2.888205128205128425e+00 1.849639437344892112e-01 -4.159467443624637606e-01 -8.903776337136438679e-01
3.019487179487179596e+00 4.065611326731122799e-01 -2.413518332261239963e-01 -8.811656144517698852e-01
3.150769230769230766e+00 4.876633230203781255e-01 4.784936556628618942e-02 -8.717168180901173624e-01
3.282051282051281937e+00 3.716986182930550608e-01 3.445328692078354349e-01 -8.620512230170104262e-01
3.413333333333333108e+00 8.244757743020045271e-02 5.166962316657330856e-01 -8.521867494733871284e-01
3.544615384615384723e+00 -2.686628013142196014e-01 4.675587124847317977e-01 -8.421423916916108698e-01
3.675897435897435894e+00 -5.201834710974918563e-01 1.931044599812772322e-01 -8.319340775688109924e-01
3.807179487179487065e+00 -5.351837772404911542e-01 -1.964158598941470879e-01 -8.215798709358773655e-01
3.938461538461538680e+00 -2.799303134488346778e-01 -5.135696972975122288e-01 -8.110976089111332499e-01
4.069743589743589851e+00 1.384892776457492258e-01 -5.831066155374675652e-01 -8.005006600971869002e-01
4.201025641025641022e+00 5.083910096362550535e-01 -3.431297406291387020e-01 -7.898064530746951029e-01
4.332307692307692193e+00 6.188362478309581416e-01 1.007450854891153436e-01 -7.790286978375673410e-01
4.463589743589743364e+00 3.842109264953393333e-01 5.121263142328830176e-01 -7.681809442598312998e-01
4.594871794871794535e+00 -8.617998237620713708e-02 6.473792427038385089e-01 -7.572756464851158054e-01
4.726153846153845706e+00 -5.287723940461197536e-01 4.042130619765076927e-01 -7.463273781448729327e-01
4.857435897435897765e+00 -6.708191094649997854e-01 -9.622730054663419796e-02 -7.353467841234962998e-01
4.988717948717948936e+00 -4.029326381463615436e-01 -5.594311439004848729e-01 -7.243443951062736863e-01
5.120000000000000107e+00 1.313508260512570858e-01 -6.884051853085729755e-01 -7.133286842032527941e-01
