0.000000000000000000e+00 -2.284969554443125884e-09 1.239980689192072911e-09 -1.000000000000000000e+00
1.312820512820512819e-01 -3.131100945986184936e-01 3.050054551742790721e-01 -8.994050336993257844e-01
2.625641025641025639e-01 -5.553664748877598090e-01 5.455787326827254979e-01 -6.276169082586127157e-01
3.938461538461538458e-01 -6.809131528485181661e-01 6.842619006367500756e-01 -2.610191050197838702e-01
5.251282051282051277e-01 -6.827813302512210081e-01 7.221771399272625125e-01 1.107130825558224896e-01
6.564102564102564097e-01 -5.899455817147845060e-01 6.902361787352754297e-01 4.189597096286994948e-01
7.876923076923076916e-01 -4.503691364450928547e-01 6.277760327359860337e-01 6.348669594220854862e-01
9.189743589743589736e-01 -3.093631122738752515e-01 5.630349324666705790e-01 7.663414109736731428e-01
1.050256410256410255e+00 -1.940051372615564373e-01 5.060562769983960596e-01 8.403948008324677588e-01
1.181538461538461426e+00 -1.098509435139440327e-01 4.544589982215468948e-01 8.839655518354100350e-01
1.312820512820512819e+00 -4.865805593071506618e-02 4.040224616861885498e-01 9.134518372158171307e-01
1.444102564102564212e+00 2.919575874402169369e-05 3.550457133463840731e-01 9.348471251095248347e-01
1.575384615384615383e+00 4.124571546909455710e-02 3.113330928034617195e-01 9.494037797125144396e-01
1.706666666666666554e+00 7.427000595808655459e-02 2.753452620722364186e-01 9.584708103031522874e-01
1.837948717948717947e+00 9.722094474036072076e-02 2.453669478271327808e-01 9.645417100810016464e-01
1.969230769230769340e+00 1.112213477771054060e-01 2.172495691570763832e-01 9.697578034370026856e-01
2.100512820512820511e+00 1.205015124342514454e-01 1.884433356371258417e-01 9.746622266247374489e-01
2.231794871794871682e+00 1.291105366916885933e-01 1.600911613322996141e-01 9.786211843270185007e-01
2.363076923076922853e+00 1.378763592265066507e-01 1.353215576118611263e-01 9.811607603205728667e-01
2.494358974358974468e+00 1.445635119692247339e-01 1.157424710807123669e-01 9.827020918659060689e-01
2.625641025641025639e+00 1.468261133565195720e-01 9.970057626126602179e-02 9.841241207523412360e-01
2.756923076923076810e+00 1.449578029199287410e-01 8.392290968031466958e-02 9.858715288029733514e-01
2.888205128205128425e+00 1.418180308600560102e-01 6.667477281463485284e-02 9.876440197150501143e-01
3.019487179487179596e+00 1.401803245092338168e-01 4.927422634724246131e-02 9.888984726400527059e-01
3.150769230769230766e+00 1.402210868392258503e-01 3.452404387221464505e-02 9.895174775704920211e-01
3.282051282051281937e+00 1.396394784340973250e-01 2.376957340098683619e-02 9.899164351715894483e-01
3.413333333333333108e+00 1.361525903850825392e-01 1.549519297280742627e-02 9.905660712298064441e-01
3.544615384615384723e+00 1.298807414259831317e-01 6.827390539971171096e-03 9.915055273642255917e-01
3.675897435897435894e+00 1.232764758432040447e-01 -3.664744028469132595e-03 9.923650397682378665e-01
3.807179487179487065e+00 1.187284037446229845e-01 -1.467193069828855168e-02 9.928178209126602427e-01
3.938461538461538680e+00 1.162709579149676237e-01 -2.356447283500833628e-02 9.929374167999011069e-01
4.069743589743589851e+00 1.136595003280058136e-01 -2.910813951352873852e-02 9.930927338071214860e-01
4.201025641025641022e+00 1.086876330151373415e-01 -3.271708199739375988e-02 9.935368988730385320e-01
4.332307692307692193e+00 1.014289494681174519e-01 -3.704559427198360344e-02 9.941523124525525335e-01
4.463589743589743364e+00 9.416383170540287839e-02 -4.339057253747180543e-02 9.946102229643964954e-01
4.594871794871794535e+00 8.910732379028836470e-02 -5.046385144379819665e-02 9.947423589457242699e-01
4.726153846153845706e+00 8.624569733512990610e-02 -5.575095507655971477e-02 9.947123119873020336e-01
4.857435897435897765e+00 8.339067338236288984e-02 -5.807723750243639488e-02 9.948226540706148757e-01
4.988717948717948936e+00 7.840263225891541676e-02 -5.878143826263512728e-02 9.951868594618046293e-01
5.120000000000000107e+00 7.134641167063590639e-02 -6.040027126297582705e-02 9.956207364224273215e-01
