0.000000000000000000e+00 4.246265503311639784e-09 2.695096927218075487e-09 -1.000000000000000000e+00
1.312820512820512819e-01 6.924409915386403602e-02 6.221042074313458403e-02 -9.956576198761105667e-01
2.625641025641025639e-01 1.272382166032718920e-01 1.335948832453532353e-01 -9.828330567588978717e-01
3.938461538461538458e-01 1.612103757524342984e-01 2.199194259005520236e-01 -9.621037299490020622e-01
5.251282051282051277e-01 1.565846323218148539e-01 3.201248872943384671e-01 -9.343431716035377477e-01
6.564102564102564097e-01 9.914779299054199413e-02 4.231558391229193195e-01 -9.006129376466602832e-01
7.876923076923076916e-01 -1.996724718110673424e-02 5.064088296729508665e-01 -8.620586999597288358e-01
9.189743589743589736e-01 -1.969978957015138810e-01 5.376647255574449336e-01 -8.198177598478831873e-01
1.050256410256410255e+00 -4.084020738422251551e-01 4.823312895292310443e-01 -7.749554761829484661e-01
1.181538461538461426e+00 -6.077356548019037241e-01 3.163092901416491021e-01 -7.284206427589536847e-01
1.312820512820512819e+00 -7.310600453348652383e-01 4.190062020835039203e-02 -6.810180415460269643e-01
1.444102564102564212e+00 -7.135530460200326663e-01 -2.993507861179338092e-01 -6.334196307850066265e-01
1.575384615384615383e+00 -5.155012710991968561e-01 -6.250383666860965803e-01 -5.861520028484812350e-01
1.706666666666666554e+00 -1.494726073877830075e-01 -8.285201919849362051e-01 -5.396297138142593930e-01
1.837948717948717947e+00 3.044959165198016238e-01 -8.142874777443722678e-01 -4.941716204826420711e-01
1.969230769230769340e+00 7.091049103538960008e-01 -5.428235424995638825e-01 -4.499997733961742519e-01
2.100512820512820511e+00 9.109224502851094307e-01 -6.590323364354978841e-02 -4.072635648105418227e-01
2.231794871794871682e+00 8.034755433258603530e-01 4.694950647193008031e-01 -3.660432549533116364e-01
2.363076923076922853e+00 3.875786830787047998e-01 8.621091614877233189e-01 -3.263992022761185163e-01
2.494358974358974468e+00 -2.034271041142911574e-01 9.356581886892294531e-01 -2.883520478635817619e-01
2.625641025641025639e+00 -7.375178399772837068e-01 6.265812991775969731e-01 -2.518903012479141168e-01
2.756923076923076810e+00 -9.754930653713069777e-01 3.614371636844397606e-02 -2.170073033567343490e-01
2.888205128205128425e+00 -7.861310045260548884e-01 -5.901313526434589507e-01 -1.836522168064418092e-01
3.019487179487179596e+00 -2.282971393928848736e-01 -9.616822357881035233e-01 -1.517650877837026790e-01
3.150769230769230766e+00 4.518955958067731871e-01 -8.837798697655241398e-01 -1.212782947451007398e-01
3.282051282051281937e+00 9.242598709240580357e-01 -3.704591595629723733e-01 -9.213336513215365786e-02
3.413333333333333108e+00 9.387227451761870345e-01 3.386021365938122196e-01 -6.428850399201758992e-02
3.544615384615384723e+00 4.679948319275144542e-01 8.829182275708946648e-01 -3.769657031650065770e-02
3.675897435897435894e+00 -2.561221108525530421e-01 9.665584344449299481e-01 -1.228833703890251650e-02
3.807179487179487065e+00 -8.489546852038807323e-01 5.283149916230067689e-01 1.199880085590191402e-02
3.938461538461538680e+00 -9.781190254466686218e-01 -2.050022412302582309e-01 3.524198152207791424e-02
4.069743589743589851e+00 -5.581272814496385237e-01 -8.277500413756043729e-01 5.752052506958138522e-02
4.201025641025641022e+00 1.833434090725043764e-01 -9.798733530711604134e-01 7.885569127513850085e-02
4.332307692307692193e+00 8.208348476118499937e-01 -5.624582610607462563e-01 9.927607662743734296e-02
4.463589743589743364e+00 9.748833021991694103e-01 1.883370936011743713e-01 1.188132474684392842e-01
4.594871794871794535e+00 5.446603605189633823e-01 8.272930044843153086e-01 1.375368083154603072e-01
4.726153846153845706e+00 -2.168495510627501122e-01 9.637312005680391813e-01 1.555103210597483798e-01
4.857435897435897765e+00 -8.446105184477176175e-01 5.067118675757613655e-01 1.728040436525644652e-01
4.988717948717948936e+00 -9.452589052081833421e-01 -2.656802703773354368e-01 1.894325825971164001e-01
5.120000000000000107e+00 -4.496852231572283642e-01 -8.692388009787611614e-01 2.054076759043063360e-01
