0.000000000000000000e+00 -2.229176031771188332e-09 3.182170637015169983e-09 -1.000000000000000000e+00
1.312820512820512819e-01 3.723781421226161903e-02 -4.538218269479837863e-03 -9.992957668520517922e-01
2.625641025641025639e-01 7.478987748163004601e-02 -4.126591586470683415e-03 -9.971900897832746136e-01
3.938461538461538458e-01 1.118856738543282797e-01 5.945327889921553366e-03 -9.937022865017501871e-01
5.251282051282051277e-01 1.458193545992370888e-01 2.976022487973152553e-02 -9.888621610631521675e-01
6.564102564102564097e-01 1.714350817789648540e-01 6.987021011764510403e-02 -9.827129937774873314e-01
7.876923076923076916e-01 1.812863374672234185e-01 1.260049492951628991e-01 -9.753225104222836839e-01
9.189743589743589736e-01 1.667339445558954913e-01 1.936397920257413308e-01 -9.667981887564279786e-01
1.050256410256410255e+00 1.201351148392804657e-01 2.629900932556917259e-01 -9.572869966314483392e-01
1.181538461538461426e+00 3.789871006065648196e-02 3.190921817745880906e-01 -9.469624203789797079e-01
1.312820512820512819e+00 -7.621044557742304160e-02 3.436768091575799211e-01 -9.359869188033287379e-01
1.444102564102564212e+00 -2.086199976672563627e-01 3.190803923935651709e-01 -9.244771819835551074e-01
1.575384615384615383e+00 -3.356899418066230378e-01 2.338192600702228285e-01 -9.124871798016725988e-01
1.706666666666666554e+00 -4.267274483857632639e-01 8.854331168899681748e-02 -9.000306620531484114e-01
1.837948717948717947e+00 -4.506259817542367929e-01 -9.962235938538291369e-02 -8.871315644969014480e-01
1.969230769230769340e+00 -3.851716238378843360e-01 -2.965838653279685433e-01 -8.738827413332966865e-01
2.100512820512820511e+00 -2.266824398456960543e-01 -4.562880314666722947e-01 -8.604684592419072908e-01
2.231794871794871682e+00 3.375461994335415827e-03 -5.313745869694104229e-01 -8.471238177093721733e-01
2.363076923076922853e+00 2.582088490475017428e-01 -4.875110473661559696e-01 -8.340562086048192159e-01
2.494358974358974468e+00 4.739474333864674982e-01 -3.174189827900218419e-01 -8.213446879751998830e-01
2.625641025641025639e+00 5.858621055534669608e-01 -4.945593166481390690e-02 -8.088926594382016555e-01
2.756923076923076810e+00 5.488270135848682951e-01 2.538054517932089027e-01 -7.964665142232997264e-01
2.888205128205128425e+00 3.557269652179732011e-01 5.089816103034597861e-01 -7.838257417169792740e-01
3.019487179487179596e+00 4.671694707580334449e-02 6.352808959953865076e-01 -7.708579780311517471e-01
3.150769230769230766e+00 -2.960824588346644415e-01 5.815635369958068734e-01 -7.576971116877100343e-01
3.282051282051281937e+00 -5.694734850479008514e-01 3.480314228356370387e-01 -7.446875456851400621e-01
3.413333333333333108e+00 -6.809961133038406889e-01 -6.466800463483968198e-03 -7.322482838858215271e-01
3.544615384615384723e+00 -5.819955324250428719e-01 -3.767320460902651713e-01 -7.206516868899157657e-01
3.675897435897435894e+00 -2.898674247713727836e-01 -6.419053555271470035e-01 -7.098724037711954260e-01
3.807179487179487065e+00 1.104273364973681892e-01 -7.059893475919480910e-01 -6.995491134717716220e-01
3.938461538461538680e+00 4.892190164647434170e-01 -5.345279987992946902e-01 -6.891505009396863279e-01
4.069743589743589851e+00 7.141594800504751372e-01 -1.731036342473272760e-01 -6.782292528967148737e-01
4.201025641025641022e+00 6.978849062760852373e-01 2.616981854009815534e-01 -6.666737968239919709e-01
4.332307692307692193e+00 4.339583076619050739e-01 6.187792703384242810e-01 -6.548093573101713138e-01
4.463589743589743364e+00 5.872359013905315006e-03 7.656152499362054442e-01 -6.432584284126643404e-01
4.594871794871794535e+00 -4.372317842041428815e-01 6.391878346405562850e-01 -6.326528464353511350e-01
4.726153846153845706e+00 -7.321073555963414359e-01 2.747920504714219669e-01 -6.232898975344173254e-01
4.857435897435897765e+00 -7.625829734094942136e-01 -2.007208626858164591e-01 -6.149473938332353784e-01
4.988717948717948936e+00 -5.072083194569299014e-01 -6.118182817037951526e-01 -6.069595282990019047e-01
5.120000000000000107e+00 -5.329099062511866852e-02 -7.993225528917823342e-01 -5.985190576347021452e-01
