0.000000000000000000e+00 -7.949297338895537880e-10 -2.291254360435211470e-09 -1.000000000000000000e+00
1.312820512820512819e-01 -4.535356390788701786e-01 1.500617895682728187e-01 -8.785120344693632122e-01
2.625641025641025639e-01 -8.119175156061310128e-01 1.830137973906131310e-01 -5.543363459947574512e-01
3.938461538461538458e-01 -9.903527661555887596e-01 5.239242671575239374e-02 -1.282474522169165243e-01
5.251282051282051277e-01 -9.397209978470741909e-01 -1.872269971596610683e-01 2.861152020855342593e-01
6.564102564102564097e-01 -6.795259098760523253e-01 -4.096299131769931545e-01 6.086388556832372787e-01
7.876923076923076916e-01 -3.098040096509898644e-01 -4.920841560789382951e-01 8.135540732093291538e-01
9.189743589743589736e-01 2.286307919645549913e-02 -3.916558916733290929e-01 9.198261693350707757e-01
1.050256410256410255e+00 1.974286623962769605e-01 -1.724114432350485060e-01 9.650359934009915541e-01
1.181538461538461426e+00 1.847547766123873447e-01 3.777561477695655368e-02 9.820577625804246535e-01
1.312820512820512819e+00 5.883386977313832811e-02 1.329213116397792716e-01 9.893783683234649295e-01
1.444102564102564212e+00 -5.988171201703269830e-02 9.593701219451458706e-02 9.935841864850939453e-01
1.575384615384615383e+00 -8.917578196725348127e-02 -2.079022066377028688e-03 9.960134419038049192e-01
1.706666666666666554e+00 -3.386571287055050589e-02 -6.671487674723011740e-02 9.971969444000213789e-01
1.837948717948717947e+00 3.641722748108973395e-02 -5.449370587299152274e-02 9.978495821778540220e-01
1.969230769230769340e+00 5.643328866865290200e-02 3.733777751040799620e-03 9.983992015227108885e-01
2.100512820512820511e+00 1.943807145503999301e-02 4.403599856131728413e-02 9.988406614063066735e-01
2.231794871794871682e+00 -2.803909274337405139e-02 3.221330503006027829e-02 9.990874947757757418e-01
2.363076923076922853e+00 -3.842209567682102617e-02 -1.016020579689900366e-02 9.992098086424252568e-01
2.494358974358974468e+00 -8.392581468232060415e-03 -3.556057167435867222e-02 9.993321564363562004e-01
2.625641025641025639e+00 2.475485452653695267e-02 -2.094316278352594332e-02 9.994740395558178170e-01
2.756923076923076810e+00 2.623671833271919510e-02 1.271424742114314263e-02 9.995747986138917573e-01
2.888205128205128425e+00 -1.093996272949083332e-03 2.770161804281876666e-02 9.996155401830595366e-01
3.019487179487179596e+00 -2.442215379152331764e-02 1.080663826734606925e-02 9.996432295478653307e-01
3.150769230769230766e+00 -1.912381141235648327e-02 -1.563024556447584895e-02 9.996948532950045152e-01
3.282051282051281937e+00 5.774187849137687317e-03 -2.154285319948857566e-02 9.997511709974172822e-01
3.413333333333333108e+00 2.084281488331859306e-02 -2.512221156964429547e-03 9.997795329388869945e-01
3.544615384615384723e+00 1.047981998471128953e-02 1.787643290028862603e-02 9.997852052789962807e-01
3.675897435897435894e+00 -1.109283894069371459e-02 1.672104142857576761e-02 9.997985847250211444e-01
3.807179487179487065e+00 -1.831902356221954548e-02 -2.641242708801010315e-03 9.998286364323579756e-01
3.938461538461538680e+00 -4.075369526235861004e-03 -1.654683245169777384e-02 9.998547236658131832e-01
4.069743589743589851e+00 1.366111509421458550e-02 -9.512231562714846406e-03 9.998613746684328341e-01
4.201025641025641022e+00 1.426491681064039410e-02 8.673692120557250154e-03 9.998605684164739715e-01
4.332307692307692193e+00 -1.569001192943307588e-03 1.598972598122056638e-02 9.998708658184998210e-01
4.463589743589743364e+00 -1.405731800802983468e-02 4.604226080629368958e-03 9.998905353281759556e-01
4.594871794871794535e+00 -8.675195362558880616e-03 -1.090370282387674930e-02 9.999028682250211686e-01
4.726153846153845706e+00 7.119223909439394496e-03 -1.203149111548595072e-02 9.999022227543382657e-01
4.857435897435897765e+00 1.398275390452313229e-02 1.564896660858685132e-03 9.999009592357357423e-01
4.988717948717948936e+00 4.299567460822457249e-03 1.269721841415931071e-02 9.999100927641174641e-01
5.120000000000000107e+00 -9.355657862491420160e-03 8.083702009914681824e-03 9.999235128257543126e-01
