0.000000000000000000e+00 2.220950878701438996e-09 3.744153041288118362e-10 -1.000000000000000000e+00
1.312820512820512819e-01 4.190619380919438641e-02 3.148653677638361126e-01 -9.482091325050292507e-01
2.625641025641025639e-01 1.049483103745835200e-02 5.945944768040524187e-01 -8.039531741319283498e-01
3.938461538461538458e-01 -1.390994281783086706e-01 7.906066392455834979e-01 -5.963076416570014526e-01
5.251282051282051277e-01 -3.998904724309330638e-01 8.421487454997065303e-01 -3.617475015086868972e-01
6.564102564102564097e-01 -7.030686151260771011e-01 6.986392661946758675e-01 -1.326076466857804004e-01
7.876923076923076916e-01 -9.319236754693303038e-01 3.557516016178112195e-01 7.032807975049058802e-02
9.189743589743589736e-01 -9.641645868585527746e-01 -1.151608118864003161e-01 2.389814420725430155e-01
1.050256410256410255e+00 -7.323290619223326026e-01 -5.687982045236448236e-01 3.743674564383698278e-01
1.181538461538461426e+00 -2.749174314260363627e-01 -8.321438614549732105e-01 4.816078560677777842e-01
1.312820512820512819e+00 2.553449805183941601e-01 -7.836389468553403015e-01 5.663028153252110952e-01
1.444102564102564212e+00 6.452834141671620616e-01 -4.274022791993886683e-01 6.331882881799967278e-01
1.575384615384615383e+00 7.224608543553893147e-01 8.503224540860490621e-02 6.861569335863891839e-01
1.706666666666666554e+00 4.541374899003782772e-01 5.128261553087585245e-01 7.285331863244424166e-01
1.837948717948717947e+00 -1.753009460319338020e-02 6.461534914731003054e-01 7.630013655342052781e-01
1.969230769230769340e+00 -4.382789656458184746e-01 4.260713902485754878e-01 7.914340754386091081e-01
2.100512820512820511e+00 -5.793435931006498674e-01 -1.135780342390707576e-02 8.150003968432130153e-01
2.231794871794871682e+00 -3.731342974242815025e-01 -4.053838262327056352e-01 8.345231047498432586e-01
2.363076923076922853e+00 4.054003584362309009e-02 -5.239079845740888253e-01 8.508062862905586554e-01
2.494358974358974468e+00 3.968106171839475005e-01 -3.080551393955898165e-01 8.646606623085777432e-01
2.625641025641025639e+00 4.728691706265943928e-01 8.830890066412369621e-02 8.766933556050783283e-01
2.756923076923076810e+00 2.334161364388964710e-01 3.979800507135365928e-01 8.872000808507300995e-01
2.888205128205128425e+00 -1.460633991092678552e-01 4.187577126647499814e-01 8.962716701815862663e-01
3.019487179487179596e+00 -4.000007430090039562e-01 1.506816706846909604e-01 9.040409645410115713e-01
3.150769230769230766e+00 -3.578800002099882249e-01 -2.058681565531108593e-01 9.107886697309892643e-01
3.282051282051281937e+00 -6.353621606478640493e-02 -3.941576061062307401e-01 9.168417964759005834e-01
3.413333333333333108e+00 2.593625564922453774e-01 -2.862783973768474044e-01 9.223729499858586145e-01
3.544615384615384723e+00 3.732759118277123034e-01 2.562508199419047394e-02 9.273643918785733353e-01
3.675897435897435894e+00 2.027331463204731787e-01 3.012619954402322997e-01 9.317386292774182399e-01
3.807179487179487065e+00 -1.120553770625228596e-01 3.349598810033428409e-01 9.355436853532580477e-01
3.938461538461538680e+00 -3.256018409225252541e-01 1.110514276038786774e-01 9.389609216310547124e-01
4.069743589743589851e+00 -2.775681158137844884e-01 -1.877702212881663668e-01 9.421756658206952295e-01
4.201025641025641022e+00 -1.548971290441888971e-02 -3.260518233830088097e-01 9.452232870013332899e-01
4.332307692307692193e+00 2.466238983486065406e-01 -2.011403883030182804e-01 9.480063786353779554e-01
4.463589743589743364e+00 3.008859487569147118e-01 7.830350374197558860e-02 9.504384288514751145e-01
4.594871794871794535e+00 1.112991788183840813e-01 2.832378292688643162e-01 9.525680308489101744e-01
4.726153846153845706e+00 -1.607382899833796341e-01 2.509678541022063447e-01 9.545551071957132372e-01
4.857435897435897765e+00 -2.912732323490730968e-01 1.575657775713440456e-02 9.565086443274262162e-01
4.988717948717948936e+00 -1.780091589497198867e-01 -2.230937559387357605e-01 9.584044767379720220e-01
5.120000000000000107e+00 7.791141337757492846e-02 -2.684888864420763577e-01 9.601254242657456528e-01
