0.000000000000000000e+00 4.906656888760792961e-09 -2.666204533929539152e-09 -1.000000000000000000e+00
1.312820512820512819e-01 3.170160327970891756e-03 1.204628214743083854e-02 -9.999223586810177533e-01
2.625641025641025639e-01 5.193888250459568687e-03 2.436813064060209047e-02 -9.996894537375836665e-01
3.938461538461538458e-01 4.911312179583123688e-03 3.704429922479798160e-02 -9.993014017252376258e-01
5.251282051282051277e-01 1.133466264335115936e-03 4.980010087362616439e-02 -9.987583604795798875e-01
6.564102564102564097e-01 -7.259925902890713989e-03 6.182323151939699002e-02 -9.980604625816708042e-01
7.876923076923076916e-01 -2.112224931961412602e-02 7.161975419704016965e-02 -9.972080383258669078e-01
9.189743589743589736e-01 -4.070878261184225633e-02 7.697432662809956805e-02 -9.962013175281229094e-01
1.050256410256410255e+00 -6.524675045720589039e-02 7.507397603890013371e-02 -9.950406966476296189e-01
1.181538461538461426e+00 -9.245165931155610584e-02 6.292431325497147010e-02 -9.937264991741981968e-01
1.312820512820512819e+00 -1.181921962856176955e-01 3.808397736565669739e-02 -9.922596708341171468e-01
1.444102564102564212e+00 -1.364976717397235750e-01 -2.202937637793001002e-04 -9.906398315802782406e-01
1.575384615384615383e+00 -1.401838196945420500e-01 -4.985908687512285997e-02 -9.888687557210595891e-01
1.706666666666666554e+00 -1.223572094208231487e-01 -1.047156701893767611e-01 -9.869458405032540682e-01
1.837948717948717947e+00 -7.870000483214388554e-02 -1.543706152113812069e-01 -9.848729248634597866e-01
1.969230769230769340e+00 -1.027501141608139212e-02 -1.851796341947311852e-01 -9.826502263485560329e-01
2.100512820512820511e+00 7.410138681862277199e-02 -1.831951980616198239e-01 -9.802790254819887528e-01
2.231794871794871682e+00 1.571758549470012589e-01 -1.388550066251188486e-01 -9.777593708721724619e-01
2.363076923076922853e+00 2.155066924508100001e-01 -5.240133693843997131e-02 -9.750944692823575455e-01
2.494358974358974468e+00 2.254513375631849448e-01 6.192272532790382700e-02 -9.722836107261685346e-01
2.625641025641025639e+00 1.720396555807955363e-01 1.755020746995767378e-01 -9.693293769376185587e-01
2.756923076923076810e+00 5.827949457400011246e-02 2.509896234369410895e-01 -9.662327192402102582e-01
2.888205128205128425e+00 -8.947567818948912177e-02 2.542254004468540995e-01 -9.629960440525885401e-01
3.019487179487179596e+00 -2.243935772351639546e-01 1.696234498895208831e-01 -9.596213683315298892e-01
3.150769230769230766e+00 -2.927195462640069801e-01 1.297490457510688810e-02 -9.561090645081434802e-01
3.282051282051281937e+00 -2.555128174639030303e-01 -1.658988094031933758e-01 -9.524643414237869976e-01
3.413333333333333108e+00 -1.108667483701329531e-01 -2.961362058763875593e-01 -9.486882223400368019e-01
3.544615384615384723e+00 9.507961540354284424e-02 -3.135957467791298803e-01 -9.447829911903959932e-01
3.675897435897435894e+00 2.782270445126593938e-01 -1.938430051247526098e-01 -9.407506626102801750e-01
3.807179487179487065e+00 3.494452583448815486e-01 2.595065766468822310e-02 -9.365958026352110277e-01
3.938461538461538680e+00 2.593908706754478599e-01 2.519683107680883438e-01 -9.323225617864577819e-01
4.069743589743589851e+00 3.332624180312168671e-02 3.712552797178343411e-01 -9.279309147516321410e-01
4.201025641025641022e+00 -2.273140812027475977e-01 3.092054563565199143e-01 -9.234268044269936526e-01
4.332307692307692193e+00 -3.867578736431775410e-01 7.872449158062150287e-02 -9.188130919072063918e-01
4.463589743589743364e+00 -3.462599476587226444e-01 -2.110308102581725520e-01 -9.140933256595011880e-01
4.594871794871794535e+00 -1.084678254165168804e-01 -4.018223414713637531e-01 -9.092688996919841005e-01
4.726153846153845706e+00 2.073629615709677854e-01 -3.730285418185356194e-01 -9.043487580568327910e-01
4.857435897435897765e+00 4.200295631971184829e-01 -1.215330247046624568e-01 -8.993337220823752753e-01
4.988717948717948936e+00 3.905402380452127065e-01 2.187125660994930498e-01 -8.942255343591649641e-01
5.120000000000000107e+00 1.168674475996619722e-01 4.426757418405779521e-01 -8.890310649035148005e-01
