0.000000000000000000e+00 2.248324130940839303e-09 2.016553311763101241e-09 -1.000000000000000000e+00
1.312820512820512819e-01 2.913730808806697624e-03 1.212754768724317971e-02 -9.999220888814729369e-01
2.625641025641025639e-01 5.792757429279557155e-03 2.439692323892502651e-02 -9.996853345070616514e-01
3.938461538461538458e-01 8.634167608824305090e-03 3.690118033835661226e-02 -9.992812795192046460e-01
5.251282051282051277e-01 1.139948236790334565e-02 4.971415775816671878e-02 -9.986979835918526893e-01
6.564102564102564097e-01 1.402820216628074788e-02 6.287857967350829469e-02 -9.979220334422768124e-01
7.876923076923076916e-01 1.644068244433893877e-02 7.640103875202991501e-02 -9.969409483091263846e-01
9.189743589743589736e-01 1.853841947455692196e-02 9.026532322264507746e-02 -9.957444153052771307e-01
1.050256410256410255e+00 2.022982659825509760e-02 1.044502652261699860e-01 -9.943234411856152200e-01
1.181538461538461426e+00 2.143400197772099558e-02 1.189262801602923580e-01 -9.926706882691128664e-01
1.312820512820512819e+00 2.209995189222422815e-02 1.336585330738682131e-01 -9.907798529714501035e-01
1.444102564102564212e+00 2.221237328323132781e-02 1.486020590816418407e-01 -9.886463056467559296e-01
1.575384615384615383e+00 2.178072563085999003e-02 1.636840932055967923e-01 -9.862709281650173798e-01
1.706666666666666554e+00 2.082784751926723688e-02 1.788060379706749858e-01 -9.836623259662027330e-01
1.837948717948717947e+00 1.936614810045868273e-02 1.938538488569876428e-01 -9.808375751249160945e-01
1.969230769230769340e+00 1.738088049423745785e-02 2.087191163415140771e-01 -9.778193529586102217e-01
2.100512820512820511e+00 1.483548666778669589e-02 2.233236062725267590e-01 -9.746295038450425441e-01
2.231794871794871682e+00 1.168644825058642867e-02 2.376326073042437648e-01 -9.712827135317668725e-01
2.363076923076922853e+00 7.923644613296421113e-03 2.516712683811065387e-01 -9.677781108592302672e-01
2.494358974358974468e+00 3.585293891460353266e-03 2.654865329631406201e-01 -9.641055308978320193e-01
2.625641025641025639e+00 -1.226182073891309010e-03 2.791170256927190674e-01 -9.602537963147091959e-01
2.756923076923076810e+00 -6.370341822696717893e-03 2.925528708384071974e-01 -9.562254696851301139e-01
2.888205128205128425e+00 -1.170637424267964577e-02 3.057192405024660165e-01 -9.520469323608070633e-01
3.019487179487179596e+00 -1.715536179604115752e-02 3.184893216667136207e-01 -9.477682443517098099e-01
3.150769230769230766e+00 -2.272584722565718085e-02 3.307281783243540274e-01 -9.434492882707398165e-01
3.282051282051281937e+00 -2.851212707001746227e-02 3.423583568532097554e-01 -9.391334971867268955e-01
3.413333333333333108e+00 -3.464605016012753391e-02 3.533960960990285005e-01 -9.348286084044047373e-01
3.544615384615384723e+00 -4.122453194644676300e-02 3.639565442831451114e-01 -9.304996612836058389e-01
3.675897435897435894e+00 -4.823493447886956220e-02 3.742188659385642380e-01 -9.260814498902596448e-01
3.807179487179487065e+00 -5.554605071555607926e-02 3.843391200969223376e-01 -9.215156362928270672e-01
3.938461538461538680e+00 -6.292433504788683130e-02 3.943789307228363072e-01 -9.167870772992303685e-01
4.069743589743589851e+00 -7.014476745659037338e-02 4.042710394079079839e-01 -9.119414245796624297e-01
4.201025641025641022e+00 -7.707950701876147004e-02 4.138322764737931148e-01 -9.070798712525435237e-01
4.332307692307692193e+00 -8.376158408361242258e-02 4.228518134879973300e-01 -9.023150326450217751e-01
4.463589743589743364e+00 -9.038578584443698882e-02 4.311890871702406813e-01 -8.977183584604787603e-01
4.594871794871794535e+00 -9.721331227515078721e-02 4.388571372155436467e-01 -8.932780407802148881e-01
4.726153846153845706e+00 -1.044487017916537475e-01 4.460318689333883646e-01 -8.888968015957809943e-01
4.857435897435897765e+00 -1.121257328587483837e-01 4.529859291967360813e-01 -8.844336383248111444e-01
4.988717948717948936e+00 -1.200627216689498789e-01 4.599767030817982216e-01 -8.797712608473094997e-01
5.120000000000000107e+00 -1.279405881210597951e-01 4.671110115099987303e-01 -8.748882230386277881e-01
