0.000000000000000000e+00 -1.868323944512486747e-09 2.384945145029575743e-09 -1.000000000000000000e+00
1.312820512820512819e-01 -2.131446590039440259e-02 5.003269405289032523e-01 -8.655684919306908531e-01
2.625641025641025639e-01 -3.378731087867348215e-02 8.654840134350708647e-01 -4.997759268453733639e-01
3.938461538461538458e-01 -2.728418250693986913e-02 9.996074392146996335e-01 -4.043392146300821971e-03
5.251282051282051277e-01 9.361038889528328077e-03 8.737879503266477998e-01 4.861963439040709045e-01
6.564102564102564097e-01 8.606932785080867454e-02 5.338320395571294341e-01 8.411923815152754225e-01
7.876923076923076916e-01 2.074562219613614866e-01 8.591883430518029718e-02 9.744618566456453301e-01
9.189743589743589736e-01 3.685894628572125020e-01 -3.353813565647698614e-01 8.669783035011393579e-01
1.050256410256410255e+00 5.524133377551062596e-01 -6.073534423115365399e-01 5.709140151112535033e-01
1.181538461538461426e+00 7.306509751342102899e-01 -6.551651841089690675e-01 1.920524721811860402e-01
1.312820512820512819e+00 8.690852030530099581e-01 -4.733595099492732272e-01 -1.435194491638225323e-01
1.444102564102564212e+00 9.361514199875150544e-01 -1.263008254169253330e-01 -3.280948992323213798e-01
1.575384615384615383e+00 9.127039561088496900e-01 2.723093972400922880e-01 -3.046251130595445944e-01
1.706666666666666554e+00 7.998022703149126889e-01 5.945000416522955300e-01 -8.283681591169068936e-02
1.837948717948717947e+00 6.215787951322946370e-01 7.369893996143559445e-01 2.654494642058965459e-01
1.969230769230769340e+00 4.214503389608006412e-01 6.522825502696201205e-01 6.299920010864541453e-01
2.100512820512820511e+00 2.519622110527504066e-01 3.625741409001411175e-01 8.972438828529860633e-01
2.231794871794871682e+00 1.606610865545005373e-01 -4.758106065637669746e-02 9.858606083294265687e-01
2.363076923076922853e+00 1.761262827713674928e-01 -4.574137785767502518e-01 8.716321390058774377e-01
2.494358974358974468e+00 2.981463609882354926e-01 -7.469614888962662347e-01 5.942552445265736338e-01
2.625641025641025639e+00 4.959047162672332032e-01 -8.333527833491534142e-01 2.440869740875447336e-01
2.756923076923076810e+00 7.151468777779180774e-01 -6.957605776542092890e-01 -6.676847004789424056e-02
2.888205128205128425e+00 8.928129663792127024e-01 -3.812547809535479781e-01 -2.398052906124403805e-01
3.019487179487179596e+00 9.752412213244727734e-01 9.977041544302678311e-03 -2.208656866574367772e-01
3.150769230769230766e+00 9.345450311312678560e-01 3.554196111903112909e-01 -1.668199621530773794e-02
3.282051282051281937e+00 7.780842660418417767e-01 5.475626720092016120e-01 3.077944130842250603e-01
3.413333333333333108e+00 5.477564156714382904e-01 5.264232944284061855e-01 6.502497569980609793e-01
3.544615384615384723e+00 3.087984091930677244e-01 2.974013939213406288e-01 9.034311216577280979e-01
3.675897435897435894e+00 1.310503937937700092e-01 -7.086671006780505266e-02 9.888382627443339512e-01
3.807179487179487065e+00 6.821375273914062620e-02 -4.678407796574753919e-01 8.811712192681177003e-01
3.938461538461538680e+00 1.409918928405606287e-01 -7.750732723738520402e-01 6.159263045384014701e-01
4.069743589743589851e+00 3.299082301146095686e-01 -9.021746353254848083e-01 2.778823467612032139e-01
4.201025641025641022e+00 5.800038857789865387e-01 -8.141906695672836980e-01 -2.578464509033720486e-02
4.332307692307692193e+00 8.165173632356368394e-01 -5.418079033083540441e-01 -1.992988865988775671e-01
4.463589743589743364e+00 9.670124541960550824e-01 -1.715357354751582686e-01 -1.882519701732983664e-01
4.594871794871794535e+00 9.834571564815622891e-01 1.810402550671407207e-01 3.498726291173976603e-03
4.726153846153845706e+00 8.574181836414073166e-01 4.066696395093498673e-01 3.153273642292011569e-01
4.857435897435897765e+00 6.235374571002104682e-01 4.356699394656395330e-01 6.491348345598275671e-01
4.988717948717948936e+00 3.499245720571364515e-01 2.588718281855141856e-01 9.002943135665559815e-01
5.120000000000000107e+00 1.180502246510462677e-01 -7.001330945104980441e-02 9.905351538691775648e-01
