0.000000000000000000e+00 -2.128212882160392732e-09 -2.454933605176605285e-09 -1.000000000000000000e+00
1.312820512820512819e-01 -1.322580822106152187e-01 3.265137417257615166e-02 -9.906766928893636637e-01
2.625641025641025639e-01 -2.598000315026539608e-01 6.486135854419075586e-02 -9.634802327038537451e-01
3.938461538461538458e-01 -3.785679075643904601e-01 9.623554359343869380e-02 -9.205546123956258597e-01
5.251282051282051277e-01 -4.856520417065695039e-01 1.264189531372589825e-01 -8.649593010511577029e-01
6.564102564102564097e-01 -5.794391299683695484e-01 1.551411763832891422e-01 -8.001089528600943135e-01
7.876923076923076916e-01 -6.594769230836459162e-01 1.822450130996887685e-01 -7.292931216728091304e-01
9.189743589743589736e-01 -7.261821393007359404e-01 2.076809320634691036e-01 -6.553765919437202214e-01
1.050256410256410255e+00 -7.805358793268584172e-01 2.314775109776595896e-01 -5.806644789879077395e-01
1.181538461538461426e+00 -8.238149838839563532e-01 2.537016314099325154e-01 -5.069051512064375320e-01
1.312820512820512819e+00 -8.574175873689620087e-01 2.744295341229432972e-01 -4.353289427859719507e-01
1.444102564102564212e+00 -8.827239681891848599e-01 2.937571699646756018e-01 -3.667319642082559339e-01
1.575384615384615383e+00 -9.010135045457592362e-01 3.117915373052772554e-01 -3.015750013618139214e-01
1.706666666666666554e+00 -9.134198233814745382e-01 3.286507417137228826e-01 -2.400819730085635706e-01
1.837948717948717947e+00 -9.209255432955372189e-01 3.444444702337433606e-01 -1.823193511837706837e-01
1.969230769230769340e+00 -9.243747582434522769e-01 3.592586573924954063e-01 -1.282597071928217036e-01
2.100512820512820511e+00 -9.244964711749928954e-01 3.731505879627406985e-01 -7.778716175326996773e-02
2.231794871794871682e+00 -9.219098805337939684e-01 3.861672243797096282e-01 -3.070708070935079109e-02
2.363076923076922853e+00 -9.171186571074371185e-01 3.983773598793963755e-01 1.321807439702558234e-02
2.494358974358974468e+00 -9.105266461926142529e-01 4.098639734269657331e-01 5.420927588146403492e-02
2.625641025641025639e+00 -9.024626367997885534e-01 4.207094527599370970e-01 9.246997880610868803e-02
2.756923076923076810e+00 -8.932127218499579246e-01 4.309659300664393511e-01 1.281617477563752328e-01
2.888205128205128425e+00 -8.830329252654172123e-01 4.406484822846905569e-01 1.614555612539744500e-01
3.019487179487179596e+00 -8.721416963955569424e-01 4.497559963491351009e-01 1.925477650094171711e-01
3.150769230769230766e+00 -8.606986437089257924e-01 4.583142920059060099e-01 2.216578495015504302e-01
3.282051282051281937e+00 -8.488117326790212136e-01 4.663806491030288992e-01 2.489863795983710548e-01
3.413333333333333108e+00 -8.365664456424950490e-01 4.740294132341412725e-01 2.746621822865700224e-01
3.544615384615384723e+00 -8.240503056435687368e-01 4.813150132409506066e-01 2.987703334519353771e-01
3.675897435897435894e+00 -8.113723156438480411e-01 4.882384907068454960e-01 3.213799031247079885e-01
3.807179487179487065e+00 -7.986272184250132744e-01 4.947687013211675700e-01 3.426157305545743936e-01
3.938461538461538680e+00 -7.858714086093984141e-01 5.008922504877977300e-01 3.626296600720638197e-01
4.069743589743589851e+00 -7.731120227272900713e-01 5.066438529009085201e-01 3.815719234063605358e-01
4.201025641025641022e+00 -7.603416663188211633e-01 5.120975122793995915e-01 3.995299243104080689e-01
4.332307692307692193e+00 -7.475779674405377273e-01 5.173135439823483006e-01 4.165351081569253489e-01
4.463589743589743364e+00 -7.348810004348362845e-01 5.223092171360994573e-01 4.325861263045598926e-01
4.594871794871794535e+00 -7.223227589750046418e-01 5.270428854312230182e-01 4.477315345011291248e-01
4.726153846153845706e+00 -7.099362938828928105e-01 5.314710198122123419e-01 4.620790450738689326e-01
4.857435897435897765e+00 -6.976979694117160236e-01 5.355931025414013558e-01 4.757580628124176703e-01
4.988717948717948936e+00 -6.855598565315145221e-01 5.394678265188940225e-01 4.888460327333258304e-01
5.120000000000000107e+00 -6.734963615716336172e-01 5.431795795064716659e-01 5.013452053494897864e-01
