0.000000000000000000e+00 5.634859223774648431e-09 7.388030531930645193e-10 -1.000000000000000000e+00
1.312820512820512819e-01 -4.492691707123077083e-01 1.657422617730340275e-01 -8.778823065273215764e-01
2.625641025641025639e-01 -8.001302143647656129e-01 2.487062742983665031e-01 -5.458183911411359501e-01
3.938461538461538458e-01 -9.757687439264554063e-01 1.963312426652645826e-01 -9.646354079464425357e-02
5.251282051282051277e-01 -9.379450811357625817e-01 6.318803625317004347e-03 3.466941280877516296e-01
6.564102564102564097e-01 -6.954767324394636185e-01 -2.701124816001336804e-01 6.658340545256684617e-01
7.876923076923076916e-01 -3.023303588393181363e-01 -5.432683155263267061e-01 7.832259885716702508e-01
9.189743589743589736e-01 1.544167051780225008e-01 -7.137129192585378590e-01 6.831935527756450854e-01
1.050256410256410255e+00 5.742060278971126142e-01 -7.056374784310344150e-01 4.151407295500502137e-01
1.181538461538461426e+00 8.659878318936128361e-01 -4.940878350098431571e-01 7.692879936274844843e-02
1.312820512820512819e+00 9.693374008265069897e-01 -1.169119022704188104e-01 -2.160857764559454275e-01
1.444102564102564212e+00 8.686979688623782669e-01 3.329439726191726900e-01 -3.667289609497692560e-01
1.575384615384615383e+00 5.971966339737604379e-01 7.330908449977220354e-01 -3.254404132858495502e-01
1.706666666666666554e+00 2.288125216044555321e-01 9.678311792367343402e-01 -1.045154362716138180e-01
1.837948717948717947e+00 -1.395345273297184385e-01 9.638402199895803601e-01 2.269772704323664014e-01
1.969230769230769340e+00 -4.119261448507000600e-01 7.142680578058256957e-01 5.657908632056990461e-01
2.100512820512820511e+00 -5.175230471557132894e-01 2.834016709287506264e-01 8.073668775393442187e-01
2.231794871794871682e+00 -4.287614018821308548e-01 -2.100961182307058417e-01 8.786432424189534185e-01
2.363076923076922853e+00 -1.687201979292067278e-01 -6.268537036137494800e-01 7.606406891567623063e-01
2.494358974358974468e+00 1.944369211622548055e-01 -8.474994181210929733e-01 4.938814973682526532e-01
2.625641025641025639e+00 5.649931951825242216e-01 -8.083843927439655630e-01 1.651468584179350274e-01
2.756923076923076810e+00 8.448753063110732153e-01 -5.212772840282300368e-01 -1.201316474442333804e-01
2.888205128205128425e+00 9.599330982336263807e-01 -7.087725987924614612e-02 -2.710752247708107521e-01
3.019487179487179596e+00 8.802580884527246852e-01 4.094395077116937953e-01 -2.397532722178082887e-01
3.150769230769230766e+00 6.288571749531952637e-01 7.766750619847363479e-01 -3.591905680066768275e-02
3.282051282051281937e+00 2.759914225235983731e-01 9.205374024003518674e-01 2.764355009254869100e-01
3.413333333333333108e+00 -7.965392759489497987e-02 7.963859311519162487e-01 5.995054082500881343e-01
3.544615384615384723e+00 -3.380290582738177951e-01 4.388363451977516649e-01 8.325549976510379091e-01
3.675897435897435894e+00 -4.257010238781097078e-01 -4.822299399620580407e-02 9.035734475239244334e-01
3.807179487179487065e+00 -3.167580747506439920e-01 -5.223187012527193973e-01 7.917290180920802944e-01
3.938461538461538680e+00 -4.076813003051876771e-02 -8.446946340836438694e-01 5.336755386761121711e-01
4.069743589743589851e+00 3.248999931664436902e-01 -9.217139387076745960e-01 2.118013968068865605e-01
4.201025641025641022e+00 6.765849424719475591e-01 -7.328365388098957434e-01 -7.182737340649905655e-02
4.332307692307692193e+00 9.136621269644507048e-01 -3.367703177549472571e-01 -2.275605742392353692e-01
4.463589743589743364e+00 9.675169962009126934e-01 1.460848624848440358e-01 -2.062679080195119197e-01
4.594871794871794535e+00 8.217260475251789709e-01 5.696744120768882924e-01 -1.459553371415195193e-02
4.726153846153845706e+00 5.174578553864385144e-01 8.060194560155267141e-01 2.873100297045887985e-01
4.857435897435897765e+00 1.422312883423273999e-01 7.835288981969756872e-01 6.048428321160220777e-01
4.988717948717948936e+00 -1.950360275175135882e-01 5.083671955115132146e-01 8.387566849496898014e-01
5.120000000000000107e+00 -3.955716624567310324e-01 6.243623319820099105e-02 9.163062790072348252e-01
