0.000000000000000000e+00 -2.357606870151610630e-09 -2.044142620993785565e-09 -1.000000000000000000e+00
1.312820512820512819e-01 -4.025495632913657085e-01 2.973803779964724336e-01 -8.657409919328922232e-01
2.625641025641025639e-01 -7.131327734603238877e-01 4.891080449603610880e-01 -5.021873975929658229e-01
3.938461538461538458e-01 -8.599697014357829961e-01 5.101354620070128743e-01 -1.364207549637234777e-02
5.251282051282051277e-01 -8.079002838715413359e-01 3.610411563764221454e-01 4.657498276538127313e-01
6.564102564102564097e-01 -5.673133509558971888e-01 1.080295576497836280e-01 8.163771795067252812e-01
7.876923076923076916e-01 -1.931377411356421381e-01 -1.422817407051475136e-01 9.707980396827544656e-01
9.189743589743589736e-01 2.270617499306636922e-01 -2.838023255097517628e-01 9.316069235748511979e-01
1.050256410256410255e+00 5.940084537143605070e-01 -2.519059214093414267e-01 7.639907493612625444e-01
1.181538461538461426e+00 8.223002144268416469e-01 -4.926612021105607198e-02 5.668984601095764519e-01
1.312820512820512819e+00 8.641399316848108469e-01 2.540167070650884984e-01 4.344117997779095575e-01
1.444102564102564212e+00 7.238473109549766749e-01 5.458510841519217394e-01 4.219802837209948865e-01
1.575384615384615383e+00 4.579139967427392488e-01 7.139340047538329515e-01 5.297082238002145393e-01
1.706666666666666554e+00 1.591831962874265538e-01 6.881981829770069670e-01 7.078322913110102199e-01
1.837948717948717947e+00 -7.116144331052060013e-02 4.679286803122821303e-01 8.808905971882924346e-01
1.969230769230769340e+00 -1.555916148497161755e-01 1.232020333337763146e-01 9.801063767677495875e-01
2.100512820512820511e+00 -6.584293346394816393e-02 -2.301938950965853881e-01 9.709122532681651041e-01
2.231794871794871682e+00 1.671434067527402534e-01 -4.729596796645119117e-01 8.650785491631776125e-01
2.363076923076922853e+00 4.626637179342805162e-01 -5.261709232826985438e-01 7.134908546664990858e-01
2.494358974358974468e+00 7.175572514222615661e-01 -3.803545993191936869e-01 5.834561037684229401e-01
2.625641025641025639e+00 8.419787719271454307e-01 -9.880161409190263422e-02 5.303657219586872529e-01
2.756923076923076810e+00 7.914381278565586486e-01 2.061140457592940956e-01 5.754316249485837975e-01
2.888205128205128425e+00 5.834252274009685824e-01 4.147826324504576556e-01 6.982496923454494242e-01
3.019487179487179596e+00 2.920544967223971389e-01 4.447858362575967672e-01 8.466744102141262607e-01
3.150769230769230766e+00 2.197321920336794965e-02 2.812883393996188364e-01 9.593686578110717234e-01
3.282051282051281937e+00 -1.294885351305896937e-01 -1.792763146792053508e-02 9.914175224829191446e-01
3.413333333333333108e+00 -1.081266405086637183e-01 -3.447513916078631113e-01 9.324416429311155330e-01
3.544615384615384723e+00 7.655237959880778487e-02 -5.814024739483545368e-01 8.099982450473500739e-01
3.675897435897435894e+00 3.541081019288846998e-01 -6.448873648190730501e-01 6.772808636887643896e-01
3.807179487179487065e+00 6.189023998215242850e-01 -5.178691853436865333e-01 5.905510567407845635e-01
3.938461538461538680e+00 7.693672735412866448e-01 -2.546812982098279332e-01 5.858246720726172363e-01
4.069743589743589851e+00 7.463208359668224157e-01 3.972649309229075998e-02 6.643856259005496145e-01
4.201025641025641022e+00 5.557261701830076284e-01 2.498119385585813035e-01 7.929363155857779288e-01
4.332307692307692193e+00 2.670246586647618825e-01 2.932380215447740190e-01 9.179873262318316574e-01
4.463589743589743364e+00 -1.273848510836853021e-02 1.518136439347960442e-01 9.883255026101182006e-01
4.594871794871794535e+00 -1.794877465845704789e-01 -1.221111011867285073e-01 9.761499020779869085e-01
4.726153846153845706e+00 -1.717429271350170150e-01 -4.261279955211038639e-01 8.882055535207025176e-01
4.857435897435897765e+00 5.323066345127136501e-03 -6.469710325582574972e-01 7.624857963184790144e-01
4.988717948717948936e+00 2.815435629170252030e-01 -7.039167745066529092e-01 6.520853333018032938e-01
5.120000000000000107e+00 5.483381350066389714e-01 -5.793275001736459817e-01 6.030625826828845959e-01
