0.000000000000000000e+00 1.398296424240316207e-09 1.173999292431536516e-09 -1.000000000000000000e+00
1.312820512820512819e-01 9.961350399706869058e-03 1.356413958729983105e-01 -9.907069464776049328e-01
2.625641025641025639e-01 2.016902004481502253e-02 2.653501858641504896e-01 -9.639391110324325718e-01
3.938461538461538458e-01 3.067710063516665420e-02 3.843676595004993368e-01 -9.226670753871279995e-01
5.251282051282051277e-01 4.122935114798435829e-02 4.898633519694726157e-01 -8.708192615521499480e-01
6.564102564102564097e-01 5.144560209631054981e-02 5.809947914386450751e-01 -8.122737896841225602e-01
7.876923076923076916e-01 6.109946023044565688e-02 6.584014786684243559e-01 -7.501753025083224280e-01
9.189743589743589736e-01 7.028979075672153742e-02 7.234474283638566705e-01 -6.867825826402174094e-01
1.050256410256410255e+00 7.938039311851192992e-02 7.776163025493018077e-01 -6.236966383512780876e-01
1.181538461538461426e+00 8.873236342602863758e-02 8.222291006637562072e-01 -5.621837978093987553e-01
1.312820512820512819e+00 9.844081924835071384e-02 8.584763095557929047e-01 -5.033007613186047946e-01
1.444102564102564212e+00 1.082268306355170240e-01 8.875635276852998912e-01 -4.477733740818577446e-01
1.575384615384615383e+00 1.176425392487913113e-01 9.107530699043614453e-01 -3.958175073555015300e-01
1.706666666666666554e+00 1.263985294371701706e-01 9.292559115524507973e-01 -3.471149331874236466e-01
1.837948717948717947e+00 1.346116561708394777e-01 9.440389483565447826e-01 -3.010841421365840764e-01
1.969230769230769340e+00 1.427753261860761902e-01 9.557185680228138525e-01 -2.572904592085952791e-01
2.100512820512820511e+00 1.514502378073233069e-01 9.646249810646772005e-01 -2.157367642135367136e-01
2.231794871794871682e+00 1.608463759440511565e-01 9.709986139493078650e-01 -1.768355238339382185e-01
2.363076923076922853e+00 1.706446310373701536e-01 9.751760163258984537e-01 -1.410413290785189344e-01
2.494358974358974468e+00 1.801448208779334315e-01 9.776386891730978190e-01 -1.084012647313539607e-01
2.625641025641025639e+00 1.887036478095989733e-01 9.788934289144468615e-01 -7.835119168361308339e-02
2.756923076923076810e+00 1.961787659622120650e-01 9.792854588754964507e-01 -4.994148728496732720e-02
2.888205128205128425e+00 2.030659565012113976e-01 9.789003296458426151e-01 -2.232947783894680821e-02
3.019487179487179596e+00 2.102087715748050534e-01 9.776350744796243886e-01 4.708538898272052187e-03
3.150769230769230766e+00 2.182579958244396656e-01 9.753986222880693946e-01 3.067937951882079850e-02
3.282051282051281937e+00 2.272108630552471809e-01 9.722953677767711689e-01 5.474685370508848570e-02
3.413333333333333108e+00 2.363750069270563747e-01 9.686475503171685375e-01 7.634851840506563792e-02
3.544615384615384723e+00 2.447783000319707081e-01 9.648375014835144370e-01 9.566893053552287529e-02
3.675897435897435894e+00 2.517991025959709361e-01 9.610747606034147905e-01 1.136350804850022045e-01
3.807179487179487065e+00 2.575945964811084954e-01 9.572676174877342570e-01 1.313933326145714509e-01
3.938461538461538680e+00 2.630436038171795610e-01 9.531051026945884797e-01 1.495970366204241730e-01
4.069743589743589851e+00 2.692003955760811085e-01 9.483056798569101664e-01 1.680122384510940037e-01
4.201025641025641022e+00 2.766128266501611255e-01 9.428652001495723134e-01 1.856644138944325839e-01
4.332307692307692193e+00 2.849385114873476121e-01 9.371182009564910098e-01 2.014952117999611325e-01
4.463589743589743364e+00 2.931363959472573777e-01 9.315449211589237333e-01 2.151185540901002502e-01
4.594871794871794535e+00 3.001142413759850802e-01 9.264610110783891850e-01 2.271175708416075800e-01
4.726153846153845706e+00 3.054476674187674989e-01 9.217857648413286809e-01 2.387336494220927974e-01
4.857435897435897765e+00 3.096870548256498989e-01 9.170741146607046534e-01 2.510978019133292549e-01
4.988717948717948936e+00 3.140251808768658726e-01 9.118159534521995679e-01 2.645015337075825590e-01
5.120000000000000107e+00 3.195529192386950545e-01 9.057984468227134878e-01 2.782021135099267406e-01
