0.000000000000000000e+00 1.446586111867412248e-09 2.570866350325195625e-09 -1.000000000000000000e+00
1.312820512820512819e-01 5.830303503545439248e-02 1.640232806441179608e-02 -9.981639056684984412e-01
2.625641025641025639e-01 1.161616865257747572e-01 3.273667604824294364e-02 -9.926901480388102827e-01
3.938461538461538458e-01 1.731453350972438909e-01 4.890609577100996780e-02 -9.836804995445445066e-01
5.251282051282051277e-01 2.288512837752588736e-01 6.482510310325020897e-02 -9.712994909407030031e-01
6.564102564102564097e-01 2.829202910849263897e-01 8.040299663840780320e-02 -9.557660935729997975e-01
7.876923076923076916e-01 3.350434353357223394e-01 9.554587614966907061e-02 -9.373439519670901943e-01
9.189743589743589736e-01 3.849679426056678011e-01 1.101711790186883921e-01 -9.163286749010766119e-01
1.050256410256410255e+00 4.325043336234458691e-01 1.241911986912773713e-01 -8.930354065560278665e-01
1.181538461538461426e+00 4.775170304920421382e-01 1.375375472119788056e-01 -8.677880219999339895e-01
1.312820512820512819e+00 5.199289200110733811e-01 1.501419893432938135e-01 -8.409077875946867620e-01
1.444102564102564212e+00 5.597103258192079878e-01 1.619573643081687608e-01 -8.127042831804586198e-01
1.575384615384615383e+00 5.968766934558035198e-01 1.729475849902613327e-01 -7.834672493497012447e-01
1.706666666666666554e+00 6.314751087202535862e-01 1.830846943240341251e-01 -7.534668460844865523e-01
1.837948717948717947e+00 6.635807854254114346e-01 1.923634245413561594e-01 -7.229450241815801315e-01
1.969230769230769340e+00 6.932949908629582048e-01 2.007822533258740993e-01 -6.921132582292451874e-01
2.100512820512820511e+00 7.207233316375756260e-01 2.083540603447907313e-01 -6.611643386605684514e-01
2.231794871794871682e+00 7.459902832941234241e-01 2.150924851453310249e-01 -6.302580040445203702e-01
2.363076923076922853e+00 7.692201158669149663e-01 2.210256241760480966e-01 -5.995324586386734378e-01
2.494358974358974468e+00 7.905392397125461379e-01 2.261848485104093753e-01 -5.691035770738470667e-01
2.625641025641025639e+00 8.100750156238091249e-01 2.305994338832464408e-01 -5.390666146559377481e-01
2.756923076923076810e+00 8.279504366955916517e-01 2.343096657860009313e-01 -5.094970286077893373e-01
2.888205128205128425e+00 8.442809367699244394e-01 2.373512486565346746e-01 -4.804622708302020428e-01
3.019487179487179596e+00 8.591834833032500063e-01 2.397649254059143753e-01 -4.520024292363510887e-01
3.150769230769230766e+00 8.727644999616889221e-01 2.415869844732371763e-01 -4.241548241306785649e-01
3.282051282051281937e+00 8.851195023778369864e-01 2.428566499057217554e-01 -3.969551387386792141e-01
3.413333333333333108e+00 8.963468981619761022e-01 2.436156736762290498e-01 -3.704088660510810871e-01
3.544615384615384723e+00 9.065333098072572149e-01 2.438954159241828457e-01 -3.445305690839786106e-01
3.675897435897435894e+00 9.157584578263034958e-01 2.437285540433731246e-01 -3.193299608682569346e-01
3.807179487179487065e+00 9.240984767115318910e-01 2.431507719002738988e-01 -2.948022497530802810e-01
3.938461538461538680e+00 9.316227671349687212e-01 2.421937602526351152e-01 -2.709423183601620266e-01
4.069743589743589851e+00 9.383947196926141210e-01 2.408852642799057531e-01 -2.477459974328419801e-01
4.201025641025641022e+00 9.444721558970646802e-01 2.392594571153726646e-01 -2.252012560087342519e-01
4.332307692307692193e+00 9.499101797321268803e-01 2.373370987609471072e-01 -2.032978680241884217e-01
4.463589743589743364e+00 9.547597143563519850e-01 2.351423697277267300e-01 -1.820169015672888080e-01
4.594871794871794535e+00 9.590658765666101315e-01 2.326962852252215663e-01 -1.613481386089780645e-01
4.726153846153845706e+00 9.628706252505087049e-01 2.300200068783581075e-01 -1.412764716379457386e-01
4.857435897435897765e+00 9.662103816900797781e-01 2.271420810666983092e-01 -1.217867624925167702e-01
4.988717948717948936e+00 9.691223795202116298e-01 2.240764601113289789e-01 -1.028569667805996068e-01
5.120000000000000107e+00 9.716384870000958074e-01 2.208402230407655598e-01 -8.447615639170655277e-02
