0.000000000000000000e+00 -3.462932600222785542e-09 2.292922846087974670e-09 -1.000000000000000000e+00
1.312820512820512819e-01 1.871961074141910708e-01 -2.010344814031661542e-02 -9.821151209200033039e-01
2.625641025641025639e-01 3.569047508298519022e-01 -1.192434287263177684e-02 -9.340610650308996954e-01
3.938461538461538458e-01 4.898866164103299337e-01 4.405663709362994673e-02 -8.706665788720071575e-01
5.251282051282051277e-01 5.652992072496785259e-01 1.520087997424325599e-01 -8.107514813661387265e-01
6.564102564102564097e-01 5.636638236071742636e-01 2.977892714311740630e-01 -7.704486258332164939e-01
7.876923076923076916e-01 4.724325952874433021e-01 4.506687330967421579e-01 -7.574240254829867069e-01
9.189743589743589736e-01 2.925086124994563663e-01 5.696685409038655390e-01 -7.680513199644962707e-01
1.050256410256410255e+00 4.323745706127486710e-02 6.133929017504793357e-01 -7.885852645206019584e-01
1.181538461538461426e+00 -2.366975667051435250e-01 5.512690623482700003e-01 -8.000400808164357391e-01
1.312820512820512819e+00 -4.940026284863264783e-01 3.735071499889025537e-01 -7.851374030364832723e-01
1.444102564102564212e+00 -6.711168446762058037e-01 9.704425976149175237e-02 -7.349625278933862305e-01
1.575384615384615383e+00 -7.201162253733621732e-01 -2.346090429143056211e-01 -6.529734095327152099e-01
1.706666666666666554e+00 -6.166912567708333626e-01 -5.584127015099388247e-01 -5.548404612762183330e-01
1.837948717948717947e+00 -3.700138212814020888e-01 -8.048530105050634154e-01 -4.639832994974917857e-01
1.969230769230769340e+00 -2.497599809818279448e-02 -9.143559830066060323e-01 -4.041132270801823800e-01
2.100512820512820511e+00 3.449532460924481514e-01 -8.531949536128746736e-01 -3.912079005441067570e-01
2.231794871794871682e+00 6.534322587166114804e-01 -6.246567389651754842e-01 -4.275613818235612928e-01
2.363076923076922853e+00 8.221647997166957600e-01 -2.719167481192598657e-01 -5.000860414555936551e-01
2.494358974358974468e+00 8.017451281182317313e-01 1.290183988043843155e-01 -5.835584083774431052e-01
2.625641025641025639e+00 5.866998088424948410e-01 4.855588109777237982e-01 -6.480732197304927000e-01
2.756923076923076810e+00 2.200738358540035300e-01 7.105017717742607708e-01 -6.683847644162461688e-01
2.888205128205128425e+00 -2.145557950565452621e-01 7.444915409509840210e-01 -6.322030544594976487e-01
3.019487179487179596e+00 -6.123740209080289487e-01 5.729574971580109199e-01 -5.447002396333341379e-01
3.150769230769230766e+00 -8.735167064225513034e-01 2.325680923151025592e-01 -4.276203460949176138e-01
3.282051282051281937e+00 -9.294138799396035600e-01 -1.953683423022838095e-01 -3.130464092963884948e-01
3.413333333333333108e+00 -7.621558829775562094e-01 -6.037390026304970680e-01 -2.336533269577571459e-01
3.544615384615384723e+00 -4.112353169424488031e-01 -8.864219460096380843e-01 -2.124093245904449812e-01
3.675897435897435894e+00 3.480385562876189831e-02 -9.663001613715858085e-01 -2.550080623974511629e-01
3.807179487179487065e+00 4.602362661113278408e-01 -8.169392775686442620e-01 -3.475200731007199728e-01
3.938461538461538680e+00 7.521893479544573546e-01 -4.716440504778161014e-01 -4.601544127962169939e-01
4.069743589743589851e+00 8.309123176275770017e-01 -1.677613225781959816e-02 -5.561331630780226298e-01
4.201025641025641022e+00 6.720879779742926496e-01 4.296961997108298958e-01 -6.030263293185460505e-01
4.332307692307692193e+00 3.147224495908859665e-01 7.490435363055052420e-01 -5.829793606503184122e-01
4.463589743589743364e+00 -1.480016369111962771e-01 8.540580157188111254e-01 -4.986583099750953596e-01
4.594871794871794535e+00 -5.928636401313497339e-01 7.137577481923577105e-01 -3.728810747976317730e-01
4.726153846153845706e+00 -8.996551916232569113e-01 3.634182218864388525e-01 -2.419174223719167960e-01
4.857435897435897765e+00 -9.840763140175879942e-01 -1.034527403070438223e-01 -1.444541549648785395e-01
4.988717948717948936e+00 -8.215050024814249952e-01 -5.595543802116149656e-01 -1.095624271350876394e-01
5.120000000000000107e+00 -4.547516317760725846e-01 -8.783172721397241034e-01 -1.474292615632568360e-01
