0.000000000000000000e+00 3.223597073523493166e-09 -1.028443149034174392e-09 -1.000000000000000000e+00
1.312820512820512819e-01 -7.329765484967823430e-02 2.406969911564482145e-01 -9.678273505232557472e-01
2.625641025641025639e-01 -1.345849523952371285e-01 4.613085355514327524e-01 -8.769696764898374797e-01
3.938461538461538458e-01 -1.753591910254510000e-01 6.465676620726747981e-01 -7.424224342408853872e-01
5.251282051282051277e-01 -1.926250487511046439e-01 7.888810350450432551e-01 -5.835679607283764669e-01
6.564102564102564097e-01 -1.885588008503696344e-01 8.883650132304456992e-01 -4.186175853606589614e-01
7.876923076923076916e-01 -1.684409544977965578e-01 9.505768931921322329e-01 -2.608018842348849287e-01
9.189743589743589736e-01 -1.381518836047646581e-01 9.834267002514681666e-01 -1.173535203721185610e-01
1.050256410256410255e+00 -1.024425194044151222e-01 9.946889640727837323e-01 9.226398605294736446e-03
1.181538461538461426e+00 -6.446377485609650071e-02 9.907775060267238754e-01 1.191227573309363297e-01
1.312820512820512819e+00 -2.617748409773873464e-02 9.765645467886118203e-01 2.135945053144193140e-01
1.444102564102564212e+00 1.106295831365067261e-02 9.556469441149889610e-01 2.942841080345033333e-01
1.575384615384615383e+00 4.625654767257292299e-02 9.305984594768750284e-01 3.630893963996152385e-01
1.706666666666666554e+00 7.884000143024855189e-02 9.031358398560160872e-01 4.220396278931284328e-01
1.837948717948717947e+00 1.087757003129706801e-01 8.743180129624512631e-01 4.729945779941734374e-01
1.969230769230769340e+00 1.363823200900322052e-01 8.448336366683989462e-01 5.173436666436544984e-01
2.100512820512820511e+00 1.619843629685303599e-01 8.152616028881585208e-01 5.559662746574765002e-01
2.231794871794871682e+00 1.856382531162495686e-01 7.861283342664693308e-01 5.895167634074778285e-01
2.363076923076922853e+00 2.071847951400970778e-01 7.577942920842157815e-01 6.187180199892945431e-01
2.494358974358974468e+00 2.265273801459831704e-01 7.303242462170305149e-01 6.444392323342156281e-01
2.625641025641025639e+00 2.438740820999449888e-01 7.035644778038907532e-01 6.674675249303698710e-01
2.756923076923076810e+00 2.596970218153545895e-01 6.773735551051333070e-01 6.882683153816466781e-01
2.888205128205128425e+00 2.744287087585193241e-01 6.518354682708709102e-01 7.069585969015906857e-01
3.019487179487179596e+00 2.881804230878338702e-01 6.272198772191195371e-01 7.235596688319847480e-01
3.150769230769230766e+00 3.007496592257282164e-01 6.037445043535323297e-01 7.382640456057277811e-01
3.282051282051281937e+00 3.118907931811407686e-01 5.813460991505348119e-01 7.515002812167302926e-01
3.413333333333333108e+00 3.216476631285164478e-01 5.597003575436283462e-01 7.637213738521297923e-01
3.544615384615384723e+00 3.304087743662443843e-01 5.384825592291667684e-01 7.751508497629757688e-01
3.675897435897435894e+00 3.386213515474215119e-01 5.176602202269005026e-01 7.857200121316545438e-01
3.807179487179487065e+00 3.464810564870404175e-01 4.975151942719984177e-01 7.952497469070202163e-01
3.938461538461538680e+00 3.537888129600164633e-01 4.783645068819134538e-01 8.037373354873682541e-01
4.069743589743589851e+00 3.601896100262851341e-01 4.602423562916819755e-01 8.114390888489865228e-01
4.201025641025641022e+00 3.655338503322651533e-01 4.428145872231170621e-01 8.187144709288899369e-01
4.332307692307692193e+00 3.700768623980623673e-01 4.256559528056675923e-01 8.257441576739359412e-01
4.463589743589743364e+00 3.742873592928475102e-01 4.086060873972677809e-01 8.324322597658446732e-01
4.594871794871794535e+00 3.784733276403584035e-01 3.919192717932110104e-01 8.385408769026865272e-01
4.726153846153845706e+00 3.825410061673010231e-01 3.760152306346200568e-01 8.439600750194784506e-01
4.857435897435897765e+00 3.860877683782309999e-01 3.610750522027601495e-01 8.488550219389765505e-01
4.988717948717948936e+00 3.887996440935548303e-01 3.468537112001558453e-01 8.535345630993625976e-01
5.120000000000000107e+00 3.907565853812696166e-01 3.328532538779099825e-01 8.582027899755135802e-01
