0.000000000000000000e+00 2.482072879429897092e-09 1.733997106971181984e-09 -1.000000000000000000e+00
1.312820512820512819e-01 3.205168007805442310e-01 2.973717845391287140e-01 -8.993501565243628981e-01
2.625641025641025639e-01 5.845956603016034814e-01 5.147570089265829374e-01 -6.271012752981299787e-01
3.938461538461538458e-01 7.567356274084463541e-01 5.993834066543908268e-01 -2.608981114595024797e-01
5.251282051282051277e-01 8.336596417287011063e-01 5.425508801904361800e-01 1.030837999654783954e-01
6.564102564102564097e-01 8.412108212751073788e-01 3.796952760970143115e-01 3.849341797035201185e-01
7.876923076923076916e-01 8.189487590003268203e-01 1.742928948871714234e-01 5.467413069964188743e-01
9.189743589743589736e-01 8.004590995104197138e-01 -7.495371823132146449e-03 5.993256959585666621e-01
1.050256410256410255e+00 7.990823752933736701e-01 -1.210697582208334344e-01 5.888900380422689151e-01
1.181538461538461426e+00 8.056140391648521915e-01 -1.570384324066147474e-01 5.712325175119411513e-01
1.312820512820512819e+00 7.981824381003352897e-01 -1.395287468877730030e-01 5.860191760143605988e-01
1.444102564102564212e+00 7.582514005794502854e-01 -1.110612476394097214e-01 6.424200005171779582e-01
1.575384615384615383e+00 6.838115857064920311e-01 -1.112910983056737690e-01 7.211111715025739777e-01
1.706666666666666554e+00 5.925832187617424696e-01 -1.592055219117687326e-01 7.896113991925000075e-01
1.837948717948717947e+00 5.136479031699777709e-01 -2.462538479658024360e-01 8.218962410361987381e-01
1.969230769230769340e+00 4.721362874110492935e-01 -3.426992757711875837e-01 8.121777750252708872e-01
2.100512820512820511e+00 4.753821682395594772e-01 -4.134752613669958610e-01 7.765545744309753085e-01
2.231794871794871682e+00 5.082062220999612467e-01 -4.356671107083484040e-01 7.429041382132823834e-01
2.363076923076922853e+00 5.400985136128721997e-01 -4.094150911757615252e-01 7.352949125241942108e-01
2.494358974358974468e+00 5.407711349527065670e-01 -3.573084767604891021e-01 7.615009869268991594e-01
2.625641025641025639e+00 4.960020801797311307e-01 -3.129593673979906843e-01 8.099546286122021321e-01
2.756923076923076810e+00 4.153933275719056128e-01 -3.045372230359800203e-01 8.571437182098832208e-01
2.888205128205128425e+00 3.278345650327056937e-01 -3.412582696775976476e-01 8.809416403199865631e-01
3.019487179487179596e+00 2.668062640824674370e-01 -4.093336426284160945e-01 8.724969369063744207e-01
3.150769230769230766e+00 2.530718558232077364e-01 -4.791509852032461714e-01 8.404511940648641266e-01
3.282051282051281937e+00 2.837130463043908701e-01 -5.200761262675065444e-01 8.056151110178857433e-01
3.413333333333333108e+00 3.333190576932343885e-01 -5.155752098427537344e-01 7.893465846131958452e-01
3.544615384615384723e+00 3.668284997076848297e-01 -4.712683117005987410e-01 8.020791026476269403e-01
3.675897435897435894e+00 3.574913202789429256e-01 -4.120264278583620765e-01 8.381069910164768988e-01
3.807179487179487065e+00 3.007334902325900505e-01 -3.695772666726343525e-01 8.791830384002911059e-01
3.938461538461538680e+00 2.166631241400637231e-01 -3.668006620862344080e-01 9.047133888840152016e-01
4.069743589743589851e+00 1.398818239383496642e-01 -4.064431815725019215e-01 9.029002612199911182e-01
4.201025641025641022e+00 1.017296170038821390e-01 -4.698565816968862108e-01 8.768560767284491186e-01
4.332307692307692193e+00 1.141157854444646846e-01 -5.263602261555995199e-01 8.425626525487678320e-01
4.463589743589743364e+00 1.632790338588374079e-01 -5.485780342973457513e-01 8.199942581616336268e-01
4.594871794871794535e+00 2.167409836309673876e-01 -5.261323280123553214e-01 8.223117934878959590e-01
4.726153846153845706e+00 2.399287771878450271e-01 -4.708439081956472538e-01 8.489580431393718429e-01
4.857435897435897765e+00 2.139657129669430002e-01 -4.108216874783766071e-01 8.862478909963448226e-01
4.988717948717948936e+00 1.454123306397598347e-01 -3.763907234443788496e-01 9.149741689413453116e-01
5.120000000000000107e+00 6.296124867808575165e-02 -3.848655626064230728e-01 9.208187236718398117e-01
