0.000000000000000000e+00 -3.990652332786344602e-13 3.075034472545236047e-13 -1.000000000000000000e+00
1.312820512820512819e-01 4.665590018300489611e-02 -3.679049004655096655e-02 -9.982332827732031122e-01
2.625641025641025639e-01 8.530608835329911432e-02 -7.198534550851956593e-02 -9.937509654648439827e-01
3.938461538461538458e-01 1.093593690783686845e-01 -1.028933363887125779e-01 -9.886624751344521567e-01
5.251282051282051277e-01 1.149118177702743715e-01 -1.251476187689246899e-01 -9.854609823285495063e-01
6.564102564102564097e-01 1.017062211874327216e-01 -1.329592846502432035e-01 -9.858892803840333396e-01
7.876923076923076916e-01 7.358788026020604556e-02 -1.203004449813610821e-01 -9.900063770785435535e-01
9.189743589743589736e-01 3.824619536085620275e-02 -8.273396549361498875e-02 -9.958374964866011370e-01
1.050256410256410255e+00 6.148221194749267648e-03 -1.939922225480622889e-02 -9.997929133525318424e-01
1.181538461538461426e+00 -1.135622736225951404e-02 6.550447937102200913e-02 -9.977876523415697418e-01
1.312820512820512819e+00 -4.468780802901924087e-03 1.623140775047408613e-01 -9.867290255706202551e-01
1.444102564102564212e+00 3.248352377052153572e-02 2.569124436881842222e-01 -9.658886150856376140e-01
1.575384615384615383e+00 9.895872464675284363e-02 3.331771990996097998e-01 -9.376567201028199738e-01
1.706666666666666554e+00 1.872182623110240918e-01 3.763904872348758923e-01 -9.073475204221190804e-01
1.837948717948717947e+00 2.828929376359022863e-01 3.768916478186847274e-01 -8.820001539935558021e-01
1.969230769230769340e+00 3.672766496757667865e-01 3.330634596039904749e-01 -8.684334136645046609e-01
2.100512820512820511e+00 4.210574321767551753e-01 2.527464481931845919e-01 -8.711084155522744732e-01
2.231794871794871682e+00 4.287769365594005788e-01 1.525789106376932991e-01 -8.904324869822268784e-01
2.363076923076922853e+00 3.830138645406809261e-01 5.513345528811387786e-02 -9.220958093223442509e-01
2.494358974358974468e+00 2.871992363916948121e-01 -1.566226361918049426e-02 -9.577428115897125283e-01
2.625641025641025639e+00 1.561465643958711291e-01 -3.990299636336778338e-02 -9.869275558769153855e-01
2.756923076923076810e+00 1.389729537592958308e-02 -6.632286877572037866e-03 -9.998814316753154019e-01
2.888205128205128425e+00 -1.109341246193304570e-01 8.290143247792808312e-02 -9.903640592745127647e-01
3.019487179487179596e+00 -1.914052072552255013e-01 2.145936026483105108e-01 -9.577649153519675052e-01
3.150769230769230766e+00 -2.087197514048833580e-01 3.638166723015308635e-01 -9.077849390720208467e-01
3.282051282051281937e+00 -1.573143312598802857e-01 5.003954570720360318e-01 -8.513850985178378350e-01
3.413333333333333108e+00 -4.718811250324778106e-02 5.952228025971949554e-01 -8.021739827067672080e-01
3.544615384615384723e+00 9.737177191434254198e-02 6.270816493411072168e-01 -7.728436723488208981e-01
3.675897435897435894e+00 2.426181013243494944e-01 5.879923635630773804e-01 -7.716226016276490629e-01
3.807179487179487065e+00 3.528328174603728162e-01 4.857735475373349820e-01 -7.997081168732073087e-01
3.938461538461538680e+00 3.987686921134636631e-01 3.429864313470544213e-01 -8.504962364104534656e-01
4.069743589743589851e+00 3.650469837636041714e-01 1.923465330223529668e-01 -9.109025773627953404e-01
4.201025641025641022e+00 2.545775197433245429e-01 6.949077396353521563e-02 -9.645523937765327904e-01
4.332307692307692193e+00 8.875465576772118004e-02 4.699004748885224347e-03 -9.960424328741109834e-01
4.463589743589743364e+00 -9.690819514800994017e-02 1.555528492125711135e-02 -9.951717602457053058e-01
4.594871794871794535e+00 -2.607961180127192913e-01 1.022885514780086103e-01 -9.599595973429346785e-01
4.726153846153845706e+00 -3.650975441946686106e-01 2.471210762249425041e-01 -8.975717158064178136e-01
4.857435897435897765e+00 -3.852050886549830411e-01 4.178865556168411821e-01 -8.227927259778169411e-01
4.988717948717948936e+00 -3.161989664403735412e-01 5.752904990502060167e-01 -7.543600309503392110e-01
5.120000000000000107e+00 -1.747297903926084139e-01 6.821023152041616466e-01 -7.100745960926879707e-01
