0.000000000000000000e+00 1.355282284441189082e-09 4.099558541573532823e-09 -1.000000000000000000e+00
1.312820512820512819e-01 -1.607992818304132716e-03 1.235190941346656947e-02 -9.999223238532702895e-01
2.625641025641025639e-01 -4.392155794693685875e-03 2.454012420647503842e-02 -9.996890193114452705e-01
3.938461538461538458e-01 -9.452214328733124504e-03 3.621318316502426110e-02 -9.992991269513800123e-01
5.251282051282051277e-01 -1.778940817162695184e-02 4.667981687648489059e-02 -9.987511498928978160e-01
6.564102564102564097e-01 -3.014839963310890492e-02 5.477991602310892938e-02 -9.980427876278579191e-01
7.876923076923076916e-01 -4.677525700592029961e-02 5.882473585588744724e-02 -9.971713693210484397e-01
9.189743589743589736e-01 -6.711077382996567808e-02 5.667895747346675395e-02 -9.961337734267867727e-01
1.050256410256410255e+00 -8.944338052585559806e-02 4.604479328747634187e-02 -9.949263578204097236e-01
1.181538461538461426e+00 -1.106412829578551638e-01 2.498564260047463764e-02 -9.935455484111377356e-01
1.312820512820512819e+00 -1.261152419207633435e-01 -7.281651914818783322e-03 -9.919880548725960034e-01
1.444102564102564212e+00 -1.302155696514282757e-01 -4.945936493196828598e-02 -9.902504124688444875e-01
1.575384615384615383e+00 -1.171947951831576046e-01 -9.728878580860479686e-02 -9.883310721595477411e-01
1.706666666666666554e+00 -8.283202734966421676e-02 -1.431504881562953579e-01 -9.862274858864326088e-01
1.837948717948717947e+00 -2.644469201251914425e-02 -1.765287887943550460e-01 -9.839389996413770989e-01
1.969230769230769340e+00 4.715805057169407399e-02 -1.857366281048745960e-01 -9.814660160530433997e-01
2.100512820512820511e+00 1.265881787113135037e-01 -1.609474010913116704e-01 -9.788098395259818840e-01
2.231794871794871682e+00 1.945538747068893404e-01 -9.810227329641046934e-02 -9.759722754973901848e-01
2.363076923076922853e+00 2.309634501815924501e-01 -2.590755304426012318e-03 -9.729574276229641105e-01
2.494358974358974468e+00 2.184171446459322596e-01 1.088133893722491308e-01 -9.697682097245533539e-01
2.625641025641025639e+00 1.490091606411296787e-01 2.093945806814760946e-01 -9.664092142461946366e-01
2.756923076923076810e+00 3.030645649543712433e-02 2.681891126694394001e-01 -9.628876063157346676e-01
2.888205128205128425e+00 -1.122871501448352571e-01 2.594415672335455003e-01 -9.592069042283292157e-01
3.019487179487179596e+00 -2.391783329439317041e-01 1.733328292739118037e-01 -9.553771520161077335e-01
3.150769230769230766e+00 -3.069969052661972730e-01 2.411222897111113539e-02 -9.514028359867267026e-01
3.282051282051281937e+00 -2.836880732047016296e-01 -1.488416624796974896e-01 -9.472923992495856371e-01
3.413333333333333108e+00 -1.635124158739260647e-01 -2.896661978357810696e-01 -9.430549817058229145e-01
3.544615384615384723e+00 2.458539869675346878e-02 -3.438682134922915190e-01 -9.386935122206041537e-01
3.675897435897435894e+00 2.208298841132977364e-01 -2.801175585491001985e-01 -9.342180700852105169e-01
3.807179487179487065e+00 3.523878882730139273e-01 -1.076862352821074120e-01 -9.296350741267415119e-01
3.938461538461538680e+00 3.607896211133406195e-01 1.195331082329760819e-01 -9.249526639444541898e-01
4.069743589743589851e+00 2.290496411922919029e-01 3.174924492017540123e-01 -9.201789714944321741e-01
4.201025641025641022e+00 -3.972197254575537961e-03 4.026977466498355973e-01 -9.153213253571709229e-01
4.332307692307692193e+00 -2.514536101829625836e-01 3.285678381112145940e-01 -9.103891754041757434e-01
4.463589743589743364e+00 -4.096416927107726647e-01 1.116586930978929748e-01 -9.053839114067807614e-01
4.594871794871794535e+00 -4.020424550055090029e-01 -1.667136359639876109e-01 -9.003123124983173353e-01
4.726153846153845706e+00 -2.180287118512904965e-01 -3.887263436122102012e-01 -8.951809673006271284e-01
4.857435897435897765e+00 7.373016619079036937e-02 -4.499632479434066967e-01 -8.899946446258348853e-01
4.988717948717948936e+00 3.478655283474969551e-01 -3.101304548695008600e-01 -8.847609924395880565e-01
5.120000000000000107e+00 4.755021041613617383e-01 -1.971148942898459655e-02 -8.794898224734900571e-01
