0.000000000000000000e+00 5.760341461152192566e-10 -2.970327034769502550e-09 -1.000000000000000000e+00
1.312820512820512819e-01 1.724791438579515168e-01 -1.813250804272418248e-01 -9.681775551786514500e-01
2.625641025641025639e-01 3.095477766219786875e-01 -3.543030644644706850e-01 -8.824061015308710676e-01
3.938461538461538458e-01 3.867759672442733221e-01 -5.096520845926632015e-01 -7.685349424179144240e-01
5.251282051282051277e-01 3.982966560401561273e-01 -6.370508678133411928e-01 -6.599316454866137605e-01
6.564102564102564097e-01 3.583777169105164528e-01 -7.264762639760119489e-01 -5.863273481929630604e-01
7.876923076923076916e-01 2.965964792027097063e-01 -7.707573966535060661e-01 -5.638663007432939134e-01
9.189743589743589736e-01 2.481375795715918542e-01 -7.685337478620817286e-01 -5.897167149048488932e-01
1.050256410256410255e+00 2.423372345625081636e-01 -7.264302677421645704e-01 -6.430825214845237170e-01
1.181538461538461426e+00 2.931168242890500042e-01 -6.593183393218320365e-01 -6.923629857803631493e-01
1.312820512820512819e+00 3.944207978133353332e-01 -5.880595090431439687e-01 -7.061184520302955514e-01
1.444102564102564212e+00 5.221154395102292067e-01 -5.349585546530918334e-01 -6.642279213587599651e-01
1.575384615384615383e+00 6.417689343745448527e-01 -5.180301804225739826e-01 -5.654724033709711550e-01
1.706666666666666554e+00 7.198474615109911046e-01 -5.457389621602227736e-01 -4.289147777491565949e-01
1.837948717948717947e+00 7.347370541291821100e-01 -6.139526790395324340e-01 -2.884460401638632709e-01
1.969230769230769340e+00 6.840474902343478547e-01 -7.063205027984756912e-01 -1.821183273970008454e-01
2.100512820512820511e+00 5.858100900246416831e-01 -7.983094298661795873e-01 -1.396605561464119294e-01
2.231794871794871682e+00 4.731271234851184282e-01 -8.639772407205605909e-01 -1.722518502670707385e-01
2.363076923076922853e+00 3.839178491529953718e-01 -8.836137908862010670e-01 -2.679759472752232807e-01
2.494358974358974468e+00 3.489830620560891994e-01 -8.499644671646559013e-01 -3.946517593468761298e-01
2.625641025641025639e+00 3.821835439088607789e-01 -7.710387474132450736e-01 -5.093285584076473471e-01
2.756923076923076810e+00 4.758619286602920884e-01 -6.684497811857756933e-01 -5.715873634302677253e-01
2.888205128205128425e+00 6.030521455987801760e-01 -5.715407978824244006e-01 -5.564626823248219889e-01
3.019487179487179596e+00 7.257913648124183492e-01 -5.089179952051963163e-01 -4.628273600953057287e-01
3.150769230769230766e+00 8.070165476845694297e-01 -4.998417366096519765e-01 -3.144206436421482787e-01
3.282051282051281937e+00 8.222662298646352674e-01 -5.481261565604946817e-01 -1.530114636979977294e-01
3.413333333333333108e+00 7.675116907355635787e-01 -6.405022165205696005e-01 -2.566872851424850319e-02
3.544615384615384723e+00 6.605938564395630319e-01 -7.501304702785117628e-01 2.993663585182355924e-02
3.675897435897435894e+00 5.357928724882513594e-01 -8.443319391160747367e-01 -2.393334090806887183e-03
3.807179487179487065e+00 4.331554026552935088e-01 -8.943414307223414017e-01 -1.118309630336978555e-01
3.938461538461538680e+00 3.859488371765832371e-01 -8.841154446856479554e-01 -2.633641697278408245e-01
4.069743589743589851e+00 4.101607161502097698e-01 -8.154965746704668783e-01 -4.083044178429916515e-01
4.201025641025641022e+00 4.993662113581709971e-01 -7.080386177101187783e-01 -4.992946133654382335e-01
4.332307692307692193e+00 6.266339324530427746e-01 -5.934219577502706233e-01 -5.051344473216512476e-01
4.463589743589743364e+00 7.528770138123072053e-01 -5.060362213462731296e-01 -4.208119454872556453e-01
4.594871794871794535e+00 8.390852589694322017e-01 -4.725530833263542618e-01 -2.694566539098791069e-01
4.726153846153845706e+00 8.585985424303367308e-01 -5.036494570199726573e-01 -9.550954131177490092e-02
4.857435897435897765e+00 8.055442836087269853e-01 -5.904956379231907082e-01 4.888259516169971702e-02
4.988717948717948936e+00 6.967897617779600372e-01 -7.071377987881808380e-01 1.200689713098233996e-01
5.120000000000000107e+00 5.667399500282491731e-01 -8.181953798948579104e-01 9.663570278086355825e-02
