1.000000000000000056e-01 9.755601602174966969e-01 0.000000000000000000e+00 2.443982463481472397e-02 1.514768666481372406e-08 0.000000000000000000e+00 0.000000000000000000e+00 -5.450601223536725385e-04 1.544092683955593515e-01 0.000000000000000000e+00 0.000000000000000000e+00 0.000000000000000000e+00 0.000000000000000000e+00 3.406121758320586414e-08 1.924072882121526803e-05 -1.215624691192726699e-04 -2.139126185921152932e-07
3.034482758620690168e-01 7.918703873614509892e-01 0.000000000000000000e+00 2.081283775724939722e-01 1.235066056058215669e-06 0.000000000000000000e+00 0.000000000000000000e+00 -1.337182897523370856e-02 4.057485590057293146e-01 0.000000000000000000e+00 0.000000000000000000e+00 0.000000000000000000e+00 0.000000000000000000e+00 8.440497572140281358e-06 5.069329860431505365e-04 -9.888137111769943095e-04 -1.611458033969950584e-05
5.068965517241379448e-01 5.032074586158884477e-01 0.000000000000000000e+00 4.967836523704105001e-01 8.889013702213408133e-06 0.000000000000000000e+00 0.000000000000000000e+00 -4.709382271332779313e-02 4.977624041958236267e-01 0.000000000000000000e+00 0.000000000000000000e+00 0.000000000000000000e+00 0.000000000000000000e+00 1.020302623182335519e-04 2.098929850207976750e-03 -2.112737321556430303e-03 -9.674191669392634809e-05
7.103448275862068728e-01 2.260268801533029948e-01 0.000000000000000000e+00 7.739426645883485945e-01 3.045525834940651994e-05 0.000000000000000000e+00 0.000000000000000000e+00 -8.003343955383847297e-02 4.105197855131343387e-01 0.000000000000000000e+00 0.000000000000000000e+00 0.000000000000000000e+00 0.000000000000000000e+00 4.934495135596258944e-04 4.829816907320526667e-03 -2.612891048326094860e-03 -2.377127927787747329e-04
9.137931034482759118e-01 5.064923329145551434e-02 0.000000000000000000e+00 9.492795615970969214e-01 7.120511144856091744e-05 0.000000000000000000e+00 0.000000000000000000e+00 -7.211693355691477236e-02 2.070734889190180561e-01 0.000000000000000000e+00 0.000000000000000000e+00 0.000000000000000000e+00 0.000000000000000000e+00 1.496413334933513473e-03 8.084200894038044705e-03 -1.877150310959932889e-03 -2.877342565659006253e-04
1.117241379310345062e+00 1.341970179628319761e-05 0.000000000000000000e+00 9.998560414098330851e-01 1.305388883710428014e-04 0.000000000000000000e+00 0.000000000000000000e+00 1.856342878869521838e-03 -3.157801755155265587e-03 0.000000000000000000e+00 0.000000000000000000e+00 0.000000000000000000e+00 0.000000000000000000e+00 3.380718422492942979e-03 1.091287492279552178e-02 4.074233632584395559e-05 9.583778061954989388e-06
1.320689655172413879e+00 3.183122337691212528e-02 0.000000000000000000e+00 9.679678074627131590e-01 2.009691603749360754e-04 0.000000000000000000e+00 0.000000000000000000e+00 1.246347575779974265e-01 -1.236033036262211282e-01 0.000000000000000000e+00 0.000000000000000000e+00 0.000000000000000000e+00 0.000000000000000000e+00 6.189450538224013955e-03 1.249889513106706811e-02 2.392977722124014790e-03 8.189944167803661591e-04
1.524137931034482918e+00 7.739412658600426653e-02 0.000000000000000000e+00 9.223356226313966788e-01 2.702507825993965109e-04 0.000000000000000000e+00 0.000000000000000000e+00 2.388359580273350935e-01 -1.197528499390216467e-01 0.000000000000000000e+00 0.000000000000000000e+00 0.000000000000000000e+00 0.000000000000000000e+00 9.627196659343495791e-03 1.251315340796371051e-02 4.117597143811765198e-03 1.990280650824052724e-03
1.727586206896551957e+00 8.798222317662783565e-02 0.000000000000000000e+00 9.116921121149511587e-01 3.256647084234353968e-04 0.000000000000000000e+00 0.000000000000000000e+00 2.814795574763189756e-01 -3.133620476212355122e-02 0.000000000000000000e+00 0.000000000000000000e+00 0.000000000000000000e+00 0.000000000000000000e+00 1.310397789729944411e-02 1.118891008886599946e-02 4.430355191008963391e-03 3.004106857334639356e-03
1.931034482758620996e+00 5.869419199912103563e-02 0.000000000000000000e+00 9.409472806178280635e-01 3.585273830475930795e-04 0.000000000000000000e+00 0.000000000000000000e+00 2.276405493698419880e-01 5.837739964806824139e-02 0.000000000000000000e+00 0.000000000000000000e+00 0.000000000000000000e+00 0.000000000000000000e+00 1.594159831926520929e-02 9.122543997523975198e-03 3.290730384169803565e-03 3.196023883850629931e-03
2.134482758620690035e+00 1.857242550686409241e-02 0.000000000000000000e+00 9.810604471688013639e-01 3.671273243344303763e-04 0.000000000000000000e+00 0.000000000000000000e+00 1.110293389057519231e-01 7.676690911485431479e-02 0.000000000000000000e+00 0.000000000000000000e+00 0.000000000000000000e+00 0.000000000000000000e+00 1.765696017206686008e-02 6.957431599881745005e-03 1.453875853036083266e-03 2.169029733503094904e-03
2.337931034482759074e+00 5.713012259243685660e-05 0.000000000000000000e+00 9.995857810548611777e-01 3.570888225458207694e-04 0.000000000000000000e+00 0.000000000000000000e+00 4.367973866664372033e-03 6.166646053253378723e-03 0.000000000000000000e+00 0.000000000000000000e+00 0.000000000000000000e+00 0.000000000000000000e+00 1.818074328068130033e-02 5.138237367139851866e-03 4.774710426520979684e-05 1.346136528599239251e-04
2.541379310344827669e+00 1.283035809656156781e-02 0.000000000000000000e+00 9.868302966350540606e-01 3.393452683847237986e-04 0.000000000000000000e+00 0.000000000000000000e+00 -2.866637926006556855e-02 -1.088100385714293877e-01 0.000000000000000000e+00 0.000000000000000000e+00 0.000000000000000000e+00 0.000000000000000000e+00 1.789290001817913853e-02 3.836706989393635220e-03 -9.672628051382346846e-05 -2.084362061314695268e-03
2.744827586206896708e+00 3.998427132189692063e-02 0.000000000000000000e+00 9.596890419703669739e-01 3.266867077359201306e-04 0.000000000000000000e+00 0.000000000000000000e+00 2.343155883085094870e-02 -1.944824644824931226e-01 0.000000000000000000e+00 0.000000000000000000e+00 0.000000000000000000e+00 0.000000000000000000e+00 1.744699678063775516e-02 3.019926625466086943e-03 1.037974869391221225e-03 -3.461926936672136707e-03
2.948275862068965747e+00 5.549815065906991973e-02 0.000000000000000000e+00 9.441717377572219627e-01 3.301115837054140385e-04 0.000000000000000000e+00 0.000000000000000000e+00 1.128286173196130365e-01 -1.991720062690801873e-01 0.000000000000000000e+00 0.000000000000000000e+00 0.000000000000000000e+00 0.000000000000000000e+00 1.746869086327044671e-02 2.554773327419859220e-03 2.626436972185511570e-03 -3.379705759714838123e-03
3.151724137931034786e+00 4.637436982750210018e-02 0.000000000000000000e+00 9.532696167303447154e-01 3.560134421549002257e-04 0.000000000000000000e+00 0.000000000000000000e+00 1.669671372724781944e-01 -1.277859643770620224e-01 0.000000000000000000e+00 0.000000000000000000e+00 0.000000000000000000e+00 0.000000000000000000e+00 1.828289519123624945e-02 2.261092840723297106e-03 3.505386665706802709e-03 -2.054790336107969063e-03
3.355172413793103825e+00 2.157198024425342753e-02 0.000000000000000000e+00 9.780233303636755027e-01 4.046893920706633304e-04 0.000000000000000000e+00 0.000000000000000000e+00 1.405086682781556684e-01 -3.681323962545222928e-02 0.000000000000000000e+00 0.000000000000000000e+00 0.000000000000000000e+00 0.000000000000000000e+00 1.980323744288789087e-02 1.904587524483201998e-03 2.916740804803627952e-03 -4.717783957858218222e-04
3.558620689655172864e+00 2.288780584214661264e-03 0.000000000000000000e+00 9.972408292185427348e-01 4.703901972427863951e-04 0.000000000000000000e+00 0.000000000000000000e+00 4.735055546051970127e-02 6.355318089144279189e-03 0.000000000000000000e+00 0.000000000000000000e+00 0.000000000000000000e+00 0.000000000000000000e+00 2.162546744702720236e-02 1.196439563808212019e-03 1.019186241355468647e-03 1.946258031827598851e-04
3.762068965517241903e+00 3.399049723602267856e-03 0.000000000000000000e+00 9.960582446587477046e-01 5.427056176505023468e-04 0.000000000000000000e+00 0.000000000000000000e+00 -5.041810975860568783e-02 -2.904592594364906535e-02 0.000000000000000000e+00 0.000000000000000000e+00 0.000000000000000000e+00 0.000000000000000000e+00 2.324966914925282249e-02 -1.388843507007738755e-04 -1.180893192744133288e-03 -6.709506175945493048e-04
3.965517241379310942e+00 2.178098467779362307e-02 0.000000000000000000e+00 9.776100266892521207e-01 6.089886329568697286e-04 0.000000000000000000e+00 0.000000000000000000e+00 -8.829058075536742878e-02 -1.161812479448739166e-01 0.000000000000000000e+00 0.000000000000000000e+00 0.000000000000000000e+00 0.000000000000000000e+00 2.429787958924595898e-02 -2.228551245504925907e-03 -2.459252375465510124e-03 -2.686345106760320775e-03
4.168965517241379537e+00 4.030198421574136824e-02 0.000000000000000000e+00 9.590406106925569718e-01 6.574050917045046790e-04 0.000000000000000000e+00 0.000000000000000000e+00 -4.643577930988796593e-02 -1.910365345578279861e-01 0.000000000000000000e+00 0.000000000000000000e+00 0.000000000000000000e+00 0.000000000000000000e+00 2.462029395446806504e-02 -4.931460824502130989e-03 -2.174414407612952019e-03 -4.665474419768078120e-03
4.372413793103448576e+00 4.293256127628453100e-02 0.000000000000000000e+00 9.563876065132714821e-01 6.798322104441392255e-04 0.000000000000000000e+00 0.000000000000000000e+00 3.655149716969521845e-02 -1.993091987795662101e-01 0.000000000000000000e+00 0.000000000000000000e+00 0.000000000000000000e+00 0.000000000000000000e+00 2.426612740874784305e-02 -7.831868274316927322e-03 -7.047352908399769468e-04 -5.356331374801605316e-03
4.575862068965517615e+00 2.787575878465613569e-02 0.000000000000000000e+00 9.714502841780846554e-01 6.739570372533103390e-04 0.000000000000000000e+00 0.000000000000000000e+00 9.293156235632391016e-02 -1.358073583133527495e-01 0.000000000000000000e+00 0.000000000000000000e+00 0.000000000000000000e+00 0.000000000000000000e+00 2.338580421014264249e-02 -1.038363695778429623e-02 7.855317384944087572e-04 -4.262628765962559949e-03
4.779310344827586654e+00 8.158199448589111696e-03 0.000000000000000000e+00 9.911978155944843882e-01 6.439849569278032794e-04 0.000000000000000000e+00 0.000000000000000000e+00 7.623764754873414706e-02 -4.768868779166842570e-02 0.000000000000000000e+00 0.000000000000000000e+00 0.000000000000000000e+00 0.000000000000000000e+00 2.215453848397606548e-02 -1.214466577583495771e-02 1.119702544537028296e-03 -2.000006039483040888e-03
4.982758620689654805e+00 2.226062199444577640e-05 0.000000000000000000e+00 9.993780344599928478e-01 5.997049180127785907e-04 0.000000000000000000e+00 0.000000000000000000e+00 -4.662312327776500440e-03 7.136498085346570973e-04 0.000000000000000000e+00 0.000000000000000000e+00 0.000000000000000000e+00 0.000000000000000000e+00 2.076292842364687447e-02 -1.297045583963473032e-02 -8.760138268287524679e-05 7.533662000058311209e-05
5.186206896551723844e+00 9.335472270477042714e-03 0.000000000000000000e+00 9.901103594682926223e-01 5.541682612307699367e-04 0.000000000000000000e+00 0.000000000000000000e+00 -9.297429803129164672e-02 -2.447299947293021111e-02 0.000000000000000000e+00 0.000000000000000000e+00 0.000000000000000000e+00 0.000000000000000000e+00 1.944628551447888029e-02 -1.305870268816807477e-02 -2.148841626976383864e-03 7.455883567791493464e-04
5.389655172413792883e+00 2.725758162019426695e-02 0.000000000000000000e+00 9.722218140980326551e-01 5.206042817729936416e-04 0.000000000000000000e+00 0.000000000000000000e+00 -1.269868786701133234e-01 -1.018565089094024961e-01 0.000000000000000000e+00 0.000000000000000000e+00 0.000000000000000000e+00 0.000000000000000000e+00 1.848221662931750706e-02 -1.282772417585113095e-02 -3.757975924247368947e-03 -2.608267111282213313e-04
5.593103448275861922e+00 3.822208453130664096e-02 0.000000000000000000e+00 9.612685621451586560e-01 5.093533235372600665e-04 0.000000000000000000e+00 0.000000000000000000e+00 -8.624664521443553555e-02 -1.711817870235060046e-01 0.000000000000000000e+00 0.000000000000000000e+00 0.000000000000000000e+00 0.000000000000000000e+00 1.811183281164061368e-02 -1.271168159474149462e-02 -3.888708445376910534e-03 -2.084824250326386668e-03
5.796551724137930961e+00 3.308452633772295676e-02 0.000000000000000000e+00 9.663899173052263869e-01 5.255563570513811312e-04 0.000000000000000000e+00 0.000000000000000000e+00 -6.349552082309450549e-03 -1.786959288309651062e-01 0.000000000000000000e+00 0.000000000000000000e+00 0.000000000000000000e+00 0.000000000000000000e+00 1.841170688652566875e-02 -1.299620766328382117e-02 -2.524111049327175914e-03 -3.319133283859793462e-03
6.000000000000000000e+00 1.641570517523808712e-02 0.000000000000000000e+00 9.830162565321683976e-01 5.680382925902018347e-04 0.000000000000000000e+00 0.000000000000000000e+00 4.843910245201978743e-02 -1.174331993161962101e-01 0.000000000000000000e+00 0.000000000000000000e+00 0.000000000000000000e+00 0.000000000000000000e+00 1.920135072505213883e-02 -1.377312623778789713e-02 -6.992011112236278447e-04 -2.972518402550649013e-03
