1.000000000000000056e-01 9.755375556074974419e-01 0.000000000000000000e+00 2.446242923805009781e-02 1.515445227746258557e-08 0.000000000000000000e+00 0.000000000000000000e+00 -2.545159571277820585e-04 1.544796221543744130e-01 0.000000000000000000e+00 0.000000000000000000e+00 0.000000000000000000e+00 0.000000000000000000e+00 1.596958859418386939e-08 1.925394664126789672e-05 -1.215883524015998603e-04 -9.947745859303355297e-08
3.034482758620690168e-01 7.901637289186611568e-01 0.000000000000000000e+00 2.098350307008908511e-01 1.240380449763203084e-06 0.000000000000000000e+00 0.000000000000000000e+00 -6.290806560619625724e-03 4.071418132769374920e-01 0.000000000000000000e+00 0.000000000000000000e+00 0.000000000000000000e+00 0.000000000000000000e+00 3.994677275613218709e-06 5.101561646175851875e-04 -9.899730992756427227e-04 -7.543514462183922208e-06
5.068965517241379448e-01 4.931475595437571635e-01 0.000000000000000000e+00 5.068434457014467931e-01 8.994754796577986245e-06 0.000000000000000000e+00 0.000000000000000000e+00 -2.228285970637675431e-02 4.994517819311685702e-01 0.000000000000000000e+00 0.000000000000000000e+00 0.000000000000000000e+00 0.000000000000000000e+00 4.946011689490262947e-05 2.134592750359812306e-03 -2.105636907248346467e-03 -4.510640809648083473e-05
7.103448275862068728e-01 2.023783563404371322e-01 0.000000000000000000e+00 7.975904902171764288e-01 3.115344238501226046e-05 0.000000000000000000e+00 0.000000000000000000e+00 -3.703572914668348121e-02 4.000542552591989653e-01 0.000000000000000000e+00 0.000000000000000000e+00 0.000000000000000000e+00 0.000000000000000000e+00 2.479502164004372114e-04 4.978575103536816114e-03 -2.508659764220522691e-03 -1.068112273554151385e-04
9.137931034482759118e-01 2.612565210395584661e-02 0.000000000000000000e+00 9.738005156575109122e-01 7.383223853133156198e-05 0.000000000000000000e+00 0.000000000000000000e+00 -2.614858116569636001e-02 1.573449239596208526e-01 0.000000000000000000e+00 0.000000000000000000e+00 0.000000000000000000e+00 0.000000000000000000e+00 7.888500338560771328e-04 8.442487046706624934e-03 -1.385304040093484051e-03 -9.923747869699732331e-05
1.117241379310345062e+00 1.652613159836700124e-02 0.000000000000000000e+00 9.833364177719148280e-01 1.374506297195833972e-04 0.000000000000000000e+00 0.000000000000000000e+00 3.431197762125467315e-02 -1.227739187704418311e-01 0.000000000000000000e+00 0.000000000000000000e+00 0.000000000000000000e+00 0.000000000000000000e+00 1.891962265592337039e-03 1.147086258969373142e-02 1.498205188523486168e-03 1.640378163016819181e-04
1.320689655172413879e+00 1.497100462079618832e-01 0.000000000000000000e+00 8.500749738432102909e-01 2.149799488266624650e-04 0.000000000000000000e+00 0.000000000000000000e+00 1.502973213823385890e-01 -3.235359006334706522e-01 0.000000000000000000e+00 0.000000000000000000e+00 0.000000000000000000e+00 0.000000000000000000e+00 3.719351692157295969e-03 1.299674948942415413e-02 5.604121749518086587e-03 8.823137464734648761e-04
1.524137931034482918e+00 3.409757380476730604e-01 0.000000000000000000e+00 6.587310426949802844e-01 2.932192573471940639e-04 0.000000000000000000e+00 0.000000000000000000e+00 2.990004847439043378e-01 -3.677091424695213551e-01 0.000000000000000000e+00 0.000000000000000000e+00 0.000000000000000000e+00 0.000000000000000000e+00 6.276279248891744079e-03 1.240003813563251775e-02 9.770630979662164525e-03 2.124952464770301069e-03
1.727586206896551957e+00 4.869709923057388146e-01 0.000000000000000000e+00 5.126723708098038790e-01 3.566368844586434417e-04 0.000000000000000000e+00 0.000000000000000000e+00 4.328110194190073479e-01 -2.496621613098222447e-01 0.000000000000000000e+00 0.000000000000000000e+00 0.000000000000000000e+00 0.000000000000000000e+00 9.342600377036807541e-03 9.775157040454660051e-03 1.264758468848271866e-02 3.702758317115587700e-03
1.931034482758620996e+00 5.145015952333145126e-01 0.000000000000000000e+00 4.851061548799557865e-01 3.922498867278167750e-04 0.000000000000000000e+00 0.000000000000000000e+00 4.983310301956745958e-01 -3.541292691697040668e-02 0.000000000000000000e+00 0.000000000000000000e+00 0.000000000000000000e+00 0.000000000000000000e+00 1.247205157537040546e-02 5.893281248530795116e-03 1.324227403415194522e-02 5.143478482911795560e-03
2.134482758620690035e+00 4.129806086401389686e-01 0.000000000000000000e+00 5.866257808383343875e-01 3.936105215285842286e-04 0.000000000000000000e+00 0.000000000000000000e+00 4.623569905844744921e-01 1.687930269479221701e-01 0.000000000000000000e+00 0.000000000000000000e+00 0.000000000000000000e+00 0.000000000000000000e+00 1.507821637795730280e-02 1.884003902944246479e-03 1.134200410238256872e-02 5.823440196259829608e-03
2.337931034482759074e+00 2.359469660226339582e-01 0.000000000000000000e+00 7.636905898330298426e-01 3.624441443370054160e-04 0.000000000000000000e+00 0.000000000000000000e+00 3.317414441059922114e-01 2.648359725911412776e-01 0.000000000000000000e+00 0.000000000000000000e+00 0.000000000000000000e+00 0.000000000000000000e+00 1.659287548324547834e-02 -1.213122274171614737e-03 7.628512074865177912e-03 5.227178954254461767e-03
2.541379310344827669e+00 7.204501419184108912e-02 0.000000000000000000e+00 9.276474914314996045e-01 3.074943766586037282e-04 0.000000000000000000e+00 0.000000000000000000e+00 1.558381294846440113e-01 2.062688865747150102e-01 0.000000000000000000e+00 0.000000000000000000e+00 0.000000000000000000e+00 0.000000000000000000e+00 1.665139545007199295e-02 -2.824432126842800136e-03 3.425347253196181063e-03 3.228069501735112302e-03
2.744827586206896708e+00 3.830798920065687976e-04 0.000000000000000000e+00 9.993755978668329432e-01 2.413222411610392495e-04 0.000000000000000000e+00 0.000000000000000000e+00 8.140258038896053955e-03 1.779260590940700063e-02 0.000000000000000000e+00 0.000000000000000000e+00 0.000000000000000000e+00 0.000000000000000000e+00 1.524006559773893009e-02 -2.985290559487803561e-03 1.772848469773751628e-04 2.470136795112894959e-04
2.948275862068965747e+00 5.216871199272768433e-02 0.000000000000000000e+00 9.476547766915897064e-01 1.765113156828530859e-04 0.000000000000000000e+00 0.000000000000000000e+00 -4.587544355785024702e-02 -2.175623395922856307e-01 0.000000000000000000e+00 0.000000000000000000e+00 0.000000000000000000e+00 0.000000000000000000e+00 1.274386289684923020e-02 -2.205844496406532407e-03 -1.123340568440655673e-03 -2.818949046530193174e-03
3.151724137931034786e+00 1.969282233578360797e-01 0.000000000000000000e+00 8.029489746223547053e-01 1.228020198085330496e-04 0.000000000000000000e+00 0.000000000000000000e+00 2.005601206567270492e-02 -3.971411218085904582e-01 0.000000000000000000e+00 0.000000000000000000e+00 0.000000000000000000e+00 0.000000000000000000e+00 9.863708947639875102e-03 -1.144989831967839792e-03 -3.199404793994515086e-04 -4.907221372042290010e-03
3.355172413793103825e+00 3.592061085767990769e-01 0.000000000000000000e+00 6.407078659475955451e-01 8.602547560408159379e-05 0.000000000000000000e+00 0.000000000000000000e+00 1.781799232035665981e-01 -4.454190070961058789e-01 0.000000000000000000e+00 0.000000000000000000e+00 0.000000000000000000e+00 0.000000000000000000e+00 7.419366852743840106e-03 -2.649424204486685555e-04 1.879127568158915065e-03 -5.231611209058652928e-03
3.558620689655172864e+00 4.568338243135482979e-01 0.000000000000000000e+00 5.430974165647706187e-01 6.875912168160936539e-05 0.000000000000000000e+00 0.000000000000000000e+00 3.567573608872243729e-01 -3.476053101491343167e-01 0.000000000000000000e+00 0.000000000000000000e+00 0.000000000000000000e+00 0.000000000000000000e+00 6.100076052477836595e-03 3.632817301693346294e-04 4.239618172515729685e-03 -3.665669099928180186e-03
3.762068965517241903e+00 4.415319609140412882e-01 0.000000000000000000e+00 5.583962006510360121e-01 7.183843492342146793e-05 0.000000000000000000e+00 0.000000000000000000e+00 4.716799550342619107e-01 -1.551379648198253358e-01 0.000000000000000000e+00 0.000000000000000000e+00 0.000000000000000000e+00 0.000000000000000000e+00 6.251699272786663368e-03 1.015167602638336565e-03 5.562882157445372608e-03 -8.793786871645303512e-04
3.965517241379310942e+00 3.219808303446844433e-01 0.000000000000000000e+00 6.779236080979545997e-01 9.556155736301280080e-05 0.000000000000000000e+00 0.000000000000000000e+00 4.655794623254122522e-01 3.891233465721183338e-02 0.000000000000000000e+00 0.000000000000000000e+00 0.000000000000000000e+00 0.000000000000000000e+00 7.779549209861723671e-03 2.064473195590383128e-03 5.224283131586308394e-03 1.864364468516267965e-03
4.168965517241379537e+00 1.583871524971008360e-01 0.000000000000000000e+00 8.414730574753671588e-01 1.397900275331989618e-04 0.000000000000000000e+00 0.000000000000000000e+00 3.359495621317580838e-01 1.428859833898309117e-01 0.000000000000000000e+00 0.000000000000000000e+00 0.000000000000000000e+00 0.000000000000000000e+00 1.020536392988150194e-02 3.671523349587826456e-03 3.450946260493695933e-03 3.198735571876810090e-03
4.372413793103448576e+00 3.184821658449672743e-02 0.000000000000000000e+00 9.679489031868242499e-01 2.028802286805584125e-04 0.000000000000000000e+00 0.000000000000000000e+00 1.382418080540051553e-01 1.082434599902866168e-01 0.000000000000000000e+00 0.000000000000000000e+00 0.000000000000000000e+00 0.000000000000000000e+00 1.285512351504684327e-02 5.578843371531677815e-03 1.212091081773126241e-03 2.234324953578526677e-03
4.575862068965517615e+00 3.918134754778398836e-03 0.000000000000000000e+00 9.958016632897271903e-01 2.802019554969543405e-04 0.000000000000000000e+00 0.000000000000000000e+00 -3.859865879119443038e-02 -4.911033644968276768e-02 0.000000000000000000e+00 0.000000000000000000e+00 0.000000000000000000e+00 0.000000000000000000e+00 1.510448102305978271e-02 7.133037597097440993e-03 -2.336878742617902417e-04 -1.021400082827539097e-03
4.779310344827586654e+00 8.650922864955359892e-02 0.000000000000000000e+00 9.131275354751289264e-01 3.632358753190675547e-04 0.000000000000000000e+00 0.000000000000000000e+00 -1.133490099929749251e-01 -2.571885689556185350e-01 0.000000000000000000e+00 0.000000000000000000e+00 0.000000000000000000e+00 0.000000000000000000e+00 1.658008350214091806e-02 7.535350570527304774e-03 6.425179887693032517e-05 -5.605276759795969378e-03
4.982758620689654805e+00 2.366909342295677732e-01 0.000000000000000000e+00 7.628688885045522561e-01 4.401772658777941571e-04 0.000000000000000000e+00 0.000000000000000000e+00 -5.127491044536417603e-02 -4.218234564973418199e-01 0.000000000000000000e+00 0.000000000000000000e+00 0.000000000000000000e+00 0.000000000000000000e+00 1.724041694530045396e-02 6.210117822040097692e-03 2.275060172056678123e-03 -9.950380323241242789e-03
5.186206896551723844e+00 3.786338386766001651e-01 0.000000000000000000e+00 6.208679827268209772e-01 4.981785965757618267e-04 0.000000000000000000e+00 0.000000000000000000e+00 1.182606384962674867e-01 -4.702085098732096680e-01 0.000000000000000000e+00 0.000000000000000000e+00 0.000000000000000000e+00 0.000000000000000000e+00 1.730908668625502286e-02 3.114266551303285658e-03 5.655531447479558715e-03 -1.251567965312688248e-02
5.389655172413792883e+00 4.415060117930250105e-01 0.000000000000000000e+00 5.579674047759963784e-01 5.265834309793356168e-04 0.000000000000000000e+00 0.000000000000000000e+00 3.144392250845827741e-01 -3.840233519522423533e-01 0.000000000000000000e+00 0.000000000000000000e+00 0.000000000000000000e+00 0.000000000000000000e+00 1.710130002579628161e-02 -1.167016086904237165e-03 8.834132918145118710e-03 -1.242770476703738101e-02
5.593103448275861922e+00 3.944127241454194466e-01 0.000000000000000000e+00 6.050673289236655483e-01 5.199469309159100846e-04 0.000000000000000000e+00 0.000000000000000000e+00 4.424480373730558802e-01 -2.070893057402846960e-01 0.000000000000000000e+00 0.000000000000000000e+00 0.000000000000000000e+00 0.000000000000000000e+00 1.683176721316454599e-02 -5.594149846913994313e-03 1.039337865959086803e-02 -9.851465029629481382e-03
5.796551724137930961e+00 2.612477435822230243e-01 0.000000000000000000e+00 7.382725971712706947e-01 4.796592465047560703e-04 0.000000000000000000e+00 0.000000000000000000e+00 4.384983532030249376e-01 -2.431533317049563644e-02 0.000000000000000000e+00 0.000000000000000000e+00 0.000000000000000000e+00 0.000000000000000000e+00 1.649873015904348289e-02 -9.050479616320973586e-03 9.501369453594348674e-03 -5.918941759220513327e-03
6.000000000000000000e+00 1.083241103489269441e-01 0.000000000000000000e+00 8.912623523087843669e-01 4.135373422903302026e-04 0.000000000000000000e+00 0.000000000000000000e+00 3.007732181202976696e-01 7.797862476228845097e-02 0.000000000000000000e+00 0.000000000000000000e+00 0.000000000000000000e+00 0.000000000000000000e+00 1.590228104541321560e-02 -1.075582276356949404e-02 6.307575536982415292e-03 -2.238426534113227995e-03
