1.000000000000000056e-01 9.755449501474676710e-01 0.000000000000000000e+00 2.445503469995692625e-02 1.515257713251229687e-08 0.000000000000000000e+00 0.000000000000000000e+00 -3.636515476981596034e-04 1.544566390840174941e-01 0.000000000000000000e+00 0.000000000000000000e+00 0.000000000000000000e+00 0.000000000000000000e+00 2.269896385120222383e-08 1.924983852817944299e-05 -1.215812469050873588e-04 -1.428837063179002958e-07
3.034482758620690168e-01 7.907508863562451307e-01 0.000000000000000000e+00 2.092478750857200975e-01 1.238558036656654157e-06 0.000000000000000000e+00 0.000000000000000000e+00 -8.953924588888507660e-03 4.066728044923887397e-01 0.000000000000000000e+00 0.000000000000000000e+00 0.000000000000000000e+00 0.000000000000000000e+00 5.674382615754459422e-06 5.090515089231885870e-04 -9.895833478456524980e-04 -1.075466946176531777e-05
5.068965517241379448e-01 4.966223796927122236e-01 0.000000000000000000e+00 5.033686617369282912e-01 8.958570359602010695e-06 0.000000000000000000e+00 0.000000000000000000e+00 -3.165428127518506163e-02 4.989811109959013669e-01 0.000000000000000000e+00 0.000000000000000000e+00 0.000000000000000000e+00 0.000000000000000000e+00 6.970193383872829861e-05 2.122405524922485638e-03 -2.108289037168703181e-03 -6.437284597000789881e-05
7.103448275862068728e-01 2.105189541513762808e-01 0.000000000000000000e+00 7.894501311214382477e-01 3.091472718633230454e-05 0.000000000000000000e+00 0.000000000000000000e+00 -5.305706810869220691e-02 4.042018845173186992e-01 0.000000000000000000e+00 0.000000000000000000e+00 0.000000000000000000e+00 0.000000000000000000e+00 3.452632020892790177e-04 4.928126291373065987e-03 -2.546426312665699392e-03 -1.544314078549500482e-04
9.137931034482759118e-01 3.393426101847389631e-02 0.000000000000000000e+00 9.659928036449988431e-01 7.293533652694352443e-05 0.000000000000000000e+00 0.000000000000000000e+00 -4.141285338859598819e-02 1.762533049250229467e-01 0.000000000000000000e+00 0.000000000000000000e+00 0.000000000000000000e+00 0.000000000000000000e+00 1.080792718142413716e-03 8.323875137056803084e-03 -1.565093658673857250e-03 -1.596514296400464877e-04
1.117241379310345062e+00 6.921017800274064692e-03 0.000000000000000000e+00 9.929438835500501437e-01 1.350986496757308557e-04 0.000000000000000000e+00 0.000000000000000000e+00 3.042309331608514245e-02 -7.711431606816751549e-02 0.000000000000000000e+00 0.000000000000000000e+00 0.000000000000000000e+00 0.000000000000000000e+00 2.539621840580288687e-03 1.130025215159676834e-02 9.554158974604595039e-04 1.489987782926231242e-04
1.320689655172413879e+00 9.563659711940016017e-02 0.000000000000000000e+00 9.041531697283011759e-01 2.102331522972789458e-04 0.000000000000000000e+00 0.000000000000000000e+00 1.616494204277485192e-01 -2.456411968495795517e-01 0.000000000000000000e+00 0.000000000000000000e+00 0.000000000000000000e+00 0.000000000000000000e+00 4.870174730350049219e-03 1.289823123596585928e-02 4.374920104253146938e-03 9.828821971913019422e-04
1.524137931034482918e+00 2.175339260465193048e-01 0.000000000000000000e+00 7.821805938185609763e-01 2.854801349169297986e-04 0.000000000000000000e+00 0.000000000000000000e+00 3.141225815973442970e-01 -2.673533606109546601e-01 0.000000000000000000e+00 0.000000000000000000e+00 0.000000000000000000e+00 0.000000000000000000e+00 7.981634833690435735e-03 1.263291442015266816e-02 7.523408162988316945e-03 2.345195994755436449e-03
1.727586206896551957e+00 2.888395559512538791e-01 0.000000000000000000e+00 7.108142022883966460e-01 3.462417603500137528e-04 0.000000000000000000e+00 0.000000000000000000e+00 4.258766752523943100e-01 -1.547265845577015242e-01 0.000000000000000000e+00 0.000000000000000000e+00 0.000000000000000000e+00 0.000000000000000000e+00 1.148970672063894839e-02 1.068176952067877161e-02 9.209089791994692215e-03 3.898843610345713133e-03
1.931034482758620996e+00 2.680467853710721271e-01 0.000000000000000000e+00 7.315723576673428541e-01 3.808569615853566966e-04 0.000000000000000000e+00 0.000000000000000000e+00 4.425526206084914871e-01 1.558193944652339763e-02 0.000000000000000000e+00 0.000000000000000000e+00 0.000000000000000000e+00 0.000000000000000000e+00 1.477684356131354730e-02 7.763331738107613275e-03 8.773654453759521799e-03 5.011034997785940824e-03
2.134482758620690035e+00 1.727578567409091825e-01 0.000000000000000000e+00 8.268580057039373044e-01 3.841375551592067982e-04 0.000000000000000000e+00 0.000000000000000000e+00 3.496550577193672793e-01 1.434836483645433036e-01 0.000000000000000000e+00 0.000000000000000000e+00 0.000000000000000000e+00 0.000000000000000000e+00 1.716626045824753977e-02 4.790272907875978321e-03 6.427879902101078791e-03 5.004512024713436182e-03
2.337931034482759074e+00 6.300097273999537284e-02 0.000000000000000000e+00 9.366404778121515395e-01 3.585494478531743036e-04 0.000000000000000000e+00 0.000000000000000000e+00 1.861276923694334118e-01 1.560953016976155960e-01 0.000000000000000000e+00 0.000000000000000000e+00 0.000000000000000000e+00 0.000000000000000000e+00 1.815651983392211483e-02 2.484494660997621507e-03 3.193982387431126401e-03 3.519579573860808809e-03
2.541379310344827669e+00 2.700136458814474810e-03 0.000000000000000000e+00 9.969869453247344193e-01 3.129182164548971663e-04 0.000000000000000000e+00 0.000000000000000000e+00 2.895358247826474926e-02 4.305451186938276387e-02 0.000000000000000000e+00 0.000000000000000000e+00 0.000000000000000000e+00 0.000000000000000000e+00 1.762574046432930155e-02 1.143962306538234353e-03 4.624690325393301374e-04 7.943829803395710759e-04
2.744827586206896708e+00 2.228880555683125306e-02 0.000000000000000000e+00 9.774516617940380847e-01 2.595326491277867684e-04 0.000000000000000000e+00 0.000000000000000000e+00 -4.511135259008713233e-02 -1.405389481258331463e-01 0.000000000000000000e+00 0.000000000000000000e+00 0.000000000000000000e+00 0.000000000000000000e+00 1.591402353502290382e-02 6.515167870218507807e-04 -6.407883556036423353e-04 -2.318202554751368650e-03
2.948275862068965747e+00 1.033037738812291051e-01 0.000000000000000000e+00 8.964852816886275111e-01 2.109444301428263513e-04 0.000000000000000000e+00 0.000000000000000000e+00 -6.626956389996692962e-04 -3.043187027205139783e-01 0.000000000000000000e+00 0.000000000000000000e+00 0.000000000000000000e+00 0.000000000000000000e+00 1.373484596493892464e-02 6.801344812494519547e-04 2.207237752182468894e-04 -4.662900008847360549e-03
3.151724137931034786e+00 1.922291968814116847e-01 0.000000000000000000e+00 8.075932479978731315e-01 1.775551207135705990e-04 0.000000000000000000e+00 0.000000000000000000e+00 1.354732788194662751e-01 -3.699864750442584116e-01 0.000000000000000000e+00 0.000000000000000000e+00 0.000000000000000000e+00 0.000000000000000000e+00 1.193718385939003188e-02 9.465506449330013134e-04 2.436103039086755326e-03 -5.310054627538044782e-03
3.355172413793103825e+00 2.338614440642980408e-01 0.000000000000000000e+00 7.659721486835833204e-01 1.664072521174969719e-04 0.000000000000000000e+00 0.000000000000000000e+00 2.866058878056522707e-01 -3.114296334450220027e-01 0.000000000000000000e+00 0.000000000000000000e+00 0.000000000000000000e+00 0.000000000000000000e+00 1.120792473552846731e-02 1.358581476085861470e-03 4.746073014036874052e-03 -4.048583829676479125e-03
3.558620689655172864e+00 2.038667513183599622e-01 0.000000000000000000e+00 7.959523293216377304e-01 1.809193600001611447e-04 0.000000000000000000e+00 0.000000000000000000e+00 3.665081074795967786e-01 -1.671526947953850539e-01 0.000000000000000000e+00 0.000000000000000000e+00 0.000000000000000000e+00 0.000000000000000000e+00 1.183585360071850133e-02 1.978826770467807979e-03 5.865555447763094558e-03 -1.574389231398173883e-03
3.762068965517241903e+00 1.217061887540979853e-01 0.000000000000000000e+00 8.780728162901915157e-01 2.209949557064528789e-04 0.000000000000000000e+00 0.000000000000000000e+00 3.263509043237416973e-01 -1.902587606882195567e-02 0.000000000000000000e+00 0.000000000000000000e+00 0.000000000000000000e+00 0.000000000000000000e+00 1.363573113212001621e-02 2.848947089120747352e-03 5.129684938226151958e-03 7.634044811786318491e-04
3.965517241379310942e+00 3.724570784012037894e-02 0.000000000000000000e+00 9.624712107875842415e-01 2.830813722972751168e-04 0.000000000000000000e+00 0.000000000000000000e+00 1.822635888827489337e-01 5.126309682714451366e-02 0.000000000000000000e+00 0.000000000000000000e+00 0.000000000000000000e+00 0.000000000000000000e+00 1.606115393842182798e-02 3.807493273281758236e-03 2.838713121701734714e-03 1.576475047757550660e-03
4.168965517241379537e+00 8.324921172884189920e-05 0.000000000000000000e+00 9.995565877395383714e-01 3.601630487318296481e-04 0.000000000000000000e+00 0.000000000000000000e+00 7.607020795702360699e-03 5.034584576868361173e-03 0.000000000000000000e+00 0.000000000000000000e+00 0.000000000000000000e+00 0.000000000000000000e+00 1.844767230062927671e-02 4.436973567616958949e-03 1.180458565629091016e-04 1.266846918933712727e-04
4.372413793103448576e+00 3.014950156983576407e-02 0.000000000000000000e+00 9.694084089277636984e-01 4.420895024009569387e-04 0.000000000000000000e+00 0.000000000000000000e+00 -1.066514817294396122e-01 -1.336137777198912191e-01 0.000000000000000000e+00 0.000000000000000000e+00 0.000000000000000000e+00 0.000000000000000000e+00 2.027128243768921631e-02 4.200046306396303976e-03 -1.651293943429004698e-03 -3.256072249899346488e-03
4.575862068965517615e+00 1.068325826197042000e-01 0.000000000000000000e+00 8.926506981153580211e-01 5.167192649368991444e-04 0.000000000000000000e+00 0.000000000000000000e+00 -1.020305267032814572e-01 -2.914686119889280391e-01 0.000000000000000000e+00 0.000000000000000000e+00 0.000000000000000000e+00 0.000000000000000000e+00 2.130576482983634681e-02 2.704477216790627386e-03 -1.552195247747012712e-03 -7.265889065883560094e-03
4.779310344827586654e+00 1.823968104184499617e-01 0.000000000000000000e+00 8.170312400052641699e-01 5.719495762893893461e-04 0.000000000000000000e+00 0.000000000000000000e+00 1.473789034142927723e-02 -3.857546947325410369e-01 0.000000000000000000e+00 0.000000000000000000e+00 0.000000000000000000e+00 0.000000000000000000e+00 2.161708739924973061e-02 -4.693822236743850571e-05 3.677749837073902503e-04 -1.020717979218523433e-02
4.982758620689654805e+00 2.110548127096749660e-01 0.000000000000000000e+00 7.883468658871540802e-01 5.983214031722018612e-04 0.000000000000000000e+00 0.000000000000000000e+00 1.748761928778271024e-01 -3.685142015251115510e-01 0.000000000000000000e+00 0.000000000000000000e+00 0.000000000000000000e+00 0.000000000000000000e+00 2.142277511133209439e-02 -3.570645433946958991e-03 3.083033556261161913e-03 -1.080617953904368204e-02
5.186206896551723844e+00 1.760786991018999381e-01 0.000000000000000000e+00 8.233299580863312483e-01 5.913428117671998101e-04 0.000000000000000000e+00 0.000000000000000000e+00 2.853874375476326830e-01 -2.520414157743037231e-01 0.000000000000000000e+00 0.000000000000000000e+00 0.000000000000000000e+00 0.000000000000000000e+00 2.091017371406116501e-02 -7.045203071996298562e-03 5.091297787045809438e-03 -8.843164528900023316e-03
5.389655172413792883e+00 9.904214061655639001e-02 0.000000000000000000e+00 9.004051302640287968e-01 5.527291194157537202e-04 0.000000000000000000e+00 0.000000000000000000e+00 2.807223981728921292e-01 -1.018478588347540847e-01 0.000000000000000000e+00 0.000000000000000000e+00 0.000000000000000000e+00 0.000000000000000000e+00 2.012472856346871411e-02 -9.626808110691126991e-03 5.185435022589011782e-03 -5.277758897250770659e-03
5.593103448275861922e+00 2.613253266232463262e-02 0.000000000000000000e+00 9.733773804350345227e-01 4.900869026397614752e-04 0.000000000000000000e+00 0.000000000000000000e+00 1.594864562039110534e-01 -9.409804847668743269e-04 0.000000000000000000e+00 0.000000000000000000e+00 0.000000000000000000e+00 0.000000000000000000e+00 1.899232212624212338e-02 -1.078569444856613754e-02 3.101437451290267166e-03 -1.785580416482109153e-03
5.796551724137930961e+00 2.333078089746031881e-04 0.000000000000000000e+00 9.993515626216393777e-01 4.151295693848129826e-04 0.000000000000000000e+00 0.000000000000000000e+00 -1.450404703470390896e-02 -4.773816271721420708e-03 0.000000000000000000e+00 0.000000000000000000e+00 0.000000000000000000e+00 0.000000000000000000e+00 1.745432545182261722e-02 -1.049794775260863566e-02 -3.034704135342827921e-04 6.898371595823772357e-05
6.000000000000000000e+00 3.549169901009675138e-02 0.000000000000000000e+00 9.641671689309806448e-01 3.411320589234345039e-04 0.000000000000000000e+00 0.000000000000000000e+00 -1.477904910546088690e-01 -1.112559775416648022e-01 0.000000000000000000e+00 0.000000000000000000e+00 0.000000000000000000e+00 0.000000000000000000e+00 1.562691632568507030e-02 -9.203684977905413067e-03 -3.457361618136804704e-03 -3.924326615258550495e-04
