1.000000000000000056e-01 5.554249692381526410e-02 2.038620259284060487e-01 -9.774227874471090871e-01
2.000000000000000111e-01 1.168074166924417678e-01 3.929999697814734461e-01 -9.120893877103202207e-01
2.999999999999999889e-01 1.885135299260356501e-01 5.539250318023962727e-01 -8.109437144642316353e-01
4.000000000000000222e-01 2.734961890549647001e-01 6.755144149755187843e-01 -6.847482088714519355e-01
5.000000000000000000e-01 3.720617185978163932e-01 7.499388460803175782e-01 -5.469568579466445035e-01
5.999999999999999778e-01 4.816592647000136340e-01 7.733136221723000414e-01 -4.122989135681107697e-01
6.999999999999999556e-01 5.969164483443939462e-01 7.460093904258134900e-01 -2.952299828175060092e-01
7.999999999999999334e-01 7.100519505570365153e-01 6.726046033583120698e-01 -2.083969165522642220e-01
8.999999999999999112e-01 8.116207143094518184e-01 5.614799973958936041e-01 -1.612824491762109291e-01
9.999999999999998890e-01 8.915209026111127200e-01 4.240887935484373705e-01 -1.591828357473426547e-01
1.099999999999999867e+00 9.401569681740321593e-01 2.739716226379599329e-01 -2.025942369746868699e-01
1.199999999999999956e+00 9.496274876755804728e-01 1.255897760844128519e-01 -2.871146856018932936e-01
1.300000000000000044e+00 9.148054045013406244e-01 -6.904316361897408494e-03 -4.038358600770108886e-01
1.399999999999999911e+00 8.341842187282336729e-01 -1.108837184514863822e-01 -5.402235554146884722e-01
1.500000000000000000e+00 7.103790150378347379e-01 -1.763122815976601587e-01 -6.813777469334387771e-01
1.599999999999999867e+00 5.502276102942235125e-01 -1.965958702916195122e-01 -8.115415210468325258e-01
1.699999999999999956e+00 3.644241560802416457e-01 -1.691311144677614398e-01 -9.157454343659946483e-01
1.800000000000000044e+00 1.667518000837794612e-01 -9.551152447182718885e-02 -9.813620055924062724e-01
1.899999999999999911e+00 -2.706782037636202426e-02 1.863061590183799285e-02 -9.994599707670210886e-01
2.000000000000000000e+00 -2.007731116091417967e-01 1.641261478969161525e-01 -9.657912637448107240e-01
2.099999999999999645e+00 -3.391060760994741297e-01 3.290708090581112022e-01 -8.813168962531369166e-01
2.199999999999999734e+00 -4.293177544201821627e-01 4.998725604850768334e-01 -7.522058822362692743e-01
2.299999999999999822e+00 -4.625052386004409044e-01 6.624259215779702004e-01 -5.893053560423944237e-01
2.399999999999999911e+00 -4.346196056030350308e-01 8.033342965657401802e-01 -4.071361030737033482e-01
2.500000000000000000e+00 -3.470482453911755139e-01 9.110751378575715487e-01 -2.224850748288386693e-01
2.600000000000000089e+00 -2.066901378996266747e-01 9.769823186374720914e-01 -5.277059649342907832e-02
2.699999999999999734e+00 -2.549663483715200463e-02 9.959947202036658620e-01 8.569969798019355656e-02
2.799999999999999822e+00 1.804926180076060760e-01 9.670821308811069494e-01 1.793727041208910133e-01
2.899999999999999911e+00 3.925368305093161481e-01 8.933208594365102950e-01 2.188439602310586485e-01
3.000000000000000000e+00 5.908746912401795504e-01 7.816166611458997826e-01 1.998561839566133091e-01
