1.000000000000000056e-01 -1.928443665807941798e-01 -2.386151761808908145e-01 -9.513041939211639431e-01
2.000000000000000111e-01 -3.600371009431383440e-01 -4.540952622160159824e-01 -8.106949507912437625e-01
2.999999999999999889e-01 -4.794315837692111892e-01 -6.388743118209729843e-01 -5.903010887925275174e-01
4.000000000000000222e-01 -5.512493113744590945e-01 -7.627797925892390030e-01 -3.118390596722728225e-01
5.000000000000000000e-01 -5.685784471570383136e-01 -8.116209196510452140e-01 -3.336164239497241453e-03
5.999999999999999778e-01 -5.276063599933189519e-01 -7.826166264388465521e-01 3.050812653405797770e-01
6.999999999999999556e-01 -4.312868145983303481e-01 -6.795933912088016893e-01 5.832860131949404447e-01
7.999999999999999334e-01 -2.884507227607084889e-01 -5.131591461795504960e-01 8.040624066965822436e-01
8.999999999999999112e-01 -1.127384032758002586e-01 -2.999067510782101875e-01 9.458086259651449224e-01
9.999999999999998890e-01 7.879222339362147720e-02 -6.085383274122631997e-02 9.946552253359381979e-01
1.099999999999999867e+00 2.673712373037279155e-01 1.805866368668379573e-01 9.458263343608452889e-01
1.199999999999999956e+00 4.343794227636327832e-01 4.008677186970799888e-01 8.041094084206408255e-01
1.300000000000000044e+00 5.632095593125743260e-01 5.785981818728698212e-01 5.833844681420403688e-01
1.399999999999999911e+00 6.409182007587878038e-01 6.966038546933929210e-01 3.052690904777143333e-01
1.500000000000000000e+00 6.595276655614550343e-01 7.435898789948919285e-01 -3.005020399798480953e-03
1.599999999999999867e+00 6.168361576882257502e-01 7.152192624661829479e-01 -3.112415732311015204e-01
1.699999999999999956e+00 5.166618974913066431e-01 6.145203200360862539e-01 -5.892579703921426715e-01
1.800000000000000044e+00 3.684941297624781398e-01 4.515744544811902128e-01 -8.098201365823234354e-01
1.899999999999999911e+00 1.865708397471662616e-01 2.425057863115442913e-01 -9.513291290177794401e-01
2.000000000000000000e+00 -1.148633219638745505e-02 7.913915183007512455e-03 -9.999129519070735217e-01
2.099999999999999645e+00 -2.064098864198271599e-01 -2.291642844660850831e-01 -9.508032955399132735e-01
2.199999999999999734e+00 -3.791664134628346949e-01 -4.454980856991412885e-01 -8.087928075754901025e-01
2.299999999999999822e+00 -5.128224909576482027e-01 -6.199275480425080476e-01 -5.877770391481287326e-01
2.399999999999999911e+00 -5.942296374537159309e-01 -7.354431142522589449e-01 -3.093740678983724068e-01
2.500000000000000000e+00 -6.153077941559527142e-01 -7.808185247219388003e-01 -8.348928426119566100e-04
2.600000000000000089e+00 -5.738654977284444181e-01 -7.517116423897558519e-01 3.076439917863862394e-01
2.699999999999999734e+00 -4.738233031133150530e-01 -6.510704427466090793e-01 5.858732262624537501e-01
2.799999999999999822e+00 -3.248533477677186254e-01 -4.888397264285476163e-01 8.066114227039999918e-01
2.899999999999999911e+00 -1.414337842538504197e-01 -2.809681772784995424e-01 9.482563568452672120e-01
3.000000000000000000e+00 5.854569537564537074e-02 -4.785318702523640860e-02 9.969384331954700418e-01
