1.000000000000000056e-01 -1.897251514423375085e-01 -3.053004562420905815e-02 -9.813624627092669694e-01
2.000000000000000111e-01 -3.704008205636212248e-01 -5.098030858944919280e-02 -9.274719619446066821e-01
2.999999999999999889e-01 -5.334787448399811449e-01 -5.254453299741658479e-02 -8.441797799155085213e-01
4.000000000000000222e-01 -6.713907408430377366e-01 -2.882660191172223274e-02 -7.405427064276639548e-01
5.000000000000000000e-01 -7.779804464019905996e-01 2.328663519497344014e-02 -6.278567968742192473e-01
5.999999999999999778e-01 -8.488680310384698613e-01 1.031179472434193417e-01 -5.184493751783287863e-01
6.999999999999999556e-01 -8.817277302307157116e-01 2.061101925615996810e-01 -4.243522097149500238e-01
7.999999999999999334e-01 -8.764555401195801565e-01 3.241762776961742976e-01 -3.559991950139593797e-01
8.999999999999999112e-01 -8.352170443663887722e-01 4.464481531172850848e-01 -3.210864915152473187e-01
9.999999999999998890e-01 -7.623614373975382552e-01 5.603743134109077095e-01 -3.237061430659425865e-01
1.099999999999999867e+00 -6.642028204009422510e-01 6.530250811868451022e-01 -3.638582915966785958e-01
1.199999999999999956e+00 -5.486644756503784581e-01 7.125011065527875331e-01 -4.373893758684583855e-01
1.300000000000000044e+00 -4.248089615661774232e-01 7.292741327383105432e-01 -5.363735501758376545e-01
1.399999999999999911e+00 -3.022703470010240645e-01 6.973395949507616987e-01 -6.498847023887505125e-01
1.500000000000000000e+00 -1.906217022779648773e-01 6.150354669275488462e-01 -7.651109336726119592e-01
1.599999999999999867e+00 -9.871520889901320983e-02 4.854506589720995469e-01 -8.686731060444725649e-01
1.699999999999999956e+00 -3.404042158652757777e-02 3.163578793396655819e-01 -9.480289773052908986e-01
1.800000000000000044e+00 -2.154096394776199019e-03 1.196705019463799868e-01 -9.928113269704762489e-01
1.899999999999999911e+00 -6.219328116183791416e-03 -8.953224733202616581e-02 -9.959645056420223241e-01
2.000000000000000000e+00 -4.670243880693220051e-02 -2.943421083361478785e-01 -9.545583298726667554e-01
2.099999999999999645e+00 -1.212573436621641743e-01 -4.775615574789618956e-01 -8.701905626536352578e-01
2.199999999999999734e+00 -2.248205150079041204e-01 -6.233501193125475792e-01 -7.489261410989672685e-01
2.299999999999999822e+00 -3.499217265503016261e-01 -7.187550773209532284e-01 -6.007877526957871028e-01
2.399999999999999911e+00 -4.871953357552061825e-01 -7.550336207922492271e-01 -4.388222153356367006e-01
2.500000000000000000e+00 -6.260642649064847021e-01 -7.285918348240869591e-01 -2.778443350506637488e-01
2.600000000000000089e+00 -7.555470184258598065e-01 -6.414551971340017866e-01 -1.329809518974300053e-01
2.699999999999999734e+00 -8.651311506544697716e-01 -5.012168534869834158e-01 -1.815924290516250650e-02
2.799999999999999822e+00 -9.456511643284546409e-01 -3.204429373497738043e-01 5.531906708347098661e-02
2.899999999999999911e+00 -9.900707553468380828e-01 -1.156120637288088615e-01 7.996092738772753172e-02
3.000000000000000000e+00 -9.941327559354368182e-01 9.434936516676489804e-02 5.289859298382352387e-02
