1.000000000000000056e-01 -1.028948416728089205e-01 -1.309983015790897737e-02 -9.581381282791150422e-01
2.000000000000000111e-01 -9.205880757104933920e-03 -1.693801924034796583e-03 -8.396046273260333592e-01
2.999999999999999889e-01 -7.724436556065023994e-05 -2.161334162132793084e-05 -6.665699321722239334e-01
4.000000000000000222e-01 -7.133543238851638594e-08 -2.987408051000819807e-08 -4.748683642071269695e-01
5.000000000000000000e-01 6.139608743615329796e-11 3.119992046355780413e-11 -3.032696562773061211e-01
5.999999999999999778e-01 4.814150617189108925e-11 2.555879206369211950e-11 -1.768559710014591113e-01
6.999999999999999556e-01 3.119484041792285859e-11 1.638705755790390508e-11 -9.844969848593736195e-02
7.999999999999999334e-01 1.999873738886923491e-11 1.038236533600980146e-11 -5.538850906865244728e-02
8.999999999999999112e-01 1.319223647323079428e-11 6.756448204520972727e-12 -3.258830015134508290e-02
9.999999999999998890e-01 8.931941601506111436e-12 4.503040911249148107e-12 -1.993664243755859794e-02
1.099999999999999867e+00 6.093181476886683197e-12 3.017378272280053670e-12 -1.241947533257731044e-02
1.199999999999999956e+00 4.147056250861894893e-12 2.013122401339156521e-12 -7.788454431270917626e-03
1.300000000000000044e+00 2.820715401886648618e-12 1.339145434256941065e-12 -4.918983280246313171e-03
1.399999999999999911e+00 1.930588470224777286e-12 8.939827781212448522e-13 -3.146826769869537181e-03
1.500000000000000000e+00 1.339033035906912075e-12 6.030676165683841516e-13 -2.052103220461007956e-03
1.599999999999999867e+00 9.464339631405054792e-13 4.133356373170405527e-13 -1.371012992797371235e-03
1.699999999999999956e+00 6.843690856939265797e-13 2.887775116386032061e-13 -9.415928958434854326e-04
1.800000000000000044e+00 5.073798480560056225e-13 2.060528226076388049e-13 -6.659773431189348458e-04
1.899999999999999911e+00 3.860289218021787283e-13 1.502397499668820350e-13 -4.853927359842914865e-04
2.000000000000000000e+00 3.013887410294743268e-13 1.118350873798739250e-13 -3.644349992133910253e-04
2.099999999999999645e+00 2.412571302639761063e-13 8.484920726089309800e-14 -2.815613679432899278e-04
2.199999999999999734e+00 1.977302762210559987e-13 6.547496578479788654e-14 -2.235064682376317166e-04
2.299999999999999822e+00 1.656399525304991618e-13 5.122960345547210743e-14 -1.819529878075892880e-04
2.399999999999999911e+00 1.415556639537567241e-13 4.050211342235655384e-14 -1.516002318895701530e-04
2.500000000000000000e+00 1.231684497801313977e-13 3.221858796761218821e-14 -1.290060154804776628e-04
2.600000000000000089e+00 1.088984893301649800e-13 2.565920542818976688e-14 -1.118891130688779491e-04
2.699999999999999734e+00 9.764745733544398058e-14 2.033254488823524357e-14 -9.871291187645010832e-05
2.799999999999999822e+00 8.863965794445640456e-14 1.589625139875265949e-14 -8.841972550888766217e-05
2.899999999999999911e+00 8.132133737333578814e-14 1.211120267678367482e-14 -8.027304103000798617e-05
3.000000000000000000e+00 7.528828616087526288e-14 8.805051979156812024e-15 -7.374663786485974922e-05
