1.000000000000000056e-01 -5.931820759018481548e-02 8.524203035960967179e-02 -9.705780941124031447e-01
2.000000000000000111e-01 -9.424204608437267844e-03 1.297729667812965761e-02 -8.857386651879478601e-01
2.999999999999999889e-01 -2.044050241114363502e-04 2.647717566046390377e-04 -7.567921963384596218e-01
4.000000000000000222e-01 -7.045565033678975085e-07 8.543442452289836103e-07 -6.036177097503613309e-01
5.000000000000000000e-01 -2.512945858068717996e-10 4.270969165180332394e-10 -4.506877549468699673e-01
5.999999999999999778e-01 1.270435543633338412e-10 -2.669262984437710554e-11 -3.185160720372428589e-01
6.999999999999999556e-01 1.009359303171301178e-10 -2.169514292847019398e-11 -2.167347368954523346e-01
7.999999999999999334e-01 7.680787176924840739e-11 -1.692140480103094949e-11 -1.442755409032434322e-01
8.999999999999999112e-01 5.678328873795206607e-11 -1.285823411984144380e-11 -9.479219318802253880e-02
9.999999999999998890e-01 4.101041174825625413e-11 -9.567405376021281774e-12 -6.161488239747129475e-02
1.099999999999999867e+00 2.902043148278878254e-11 -6.990004622450232066e-12 -3.964476016642568684e-02
1.199999999999999956e+00 2.020115925848433732e-11 -5.033398675605113296e-12 -2.531005166636826620e-02
1.300000000000000044e+00 1.391214451310656766e-11 -3.592856107756310915e-12 -1.610372901978669377e-02
1.399999999999999911e+00 9.541411155912509799e-12 -2.557304249771898128e-12 -1.026908922007629781e-02
1.500000000000000000e+00 6.557888554478348980e-12 -1.826562354667155356e-12 -6.599452974001089427e-03
1.599999999999999867e+00 4.543954086863675740e-12 -1.316653113464868449e-12 -4.297469062762166066e-03
1.699999999999999956e+00 3.187874861497334117e-12 -9.618447185640951628e-13 -2.846507750375956106e-03
1.800000000000000044e+00 2.273669361360016252e-12 -7.148975812874999285e-13 -1.924936354530330795e-03
1.899999999999999911e+00 1.653174607985812208e-12 -5.419602978171173331e-13 -1.332347167570664161e-03
2.000000000000000000e+00 1.227687035298327633e-12 -4.198264246375833107e-13 -9.454151650371172329e-04
2.099999999999999645e+00 9.321101705393803353e-13 -3.325943359532841130e-13 -6.883228004463048336e-04
2.199999999999999734e+00 7.237312921864230856e-13 -2.694985146689227105e-13 -5.142584999103320649e-04
2.299999999999999822e+00 5.744780822826071562e-13 -2.232567224841559937e-13 -3.940936584084275330e-04
2.399999999999999911e+00 4.658110256088801539e-13 -1.889147115362982043e-13 -3.094969188922025959e-04
2.500000000000000000e+00 3.853666261277683469e-13 -1.630789627846426026e-13 -2.487830353309099436e-04
2.600000000000000089e+00 3.248392498809536732e-13 -1.434041857457130636e-13 -2.043903707561286109e-04
2.699999999999999734e+00 2.785630940543895863e-13 -1.282490824689731229e-13 -1.713515952535066755e-04
2.799999999999999822e+00 2.426327186261940758e-13 -1.164553686969482260e-13 -1.463490733633036498e-04
2.899999999999999911e+00 2.143125949135109728e-13 -1.071889429161986526e-13 -1.271307659646991222e-04
3.000000000000000000e+00 1.916675305405722825e-13 -9.984759258733289733e-14 -1.121442159819392178e-04
