7.500000000000000000e-01 8.116975383365654384e-01 -7.502694425490177843e-02 4.373299361569832899e-01
8.016666666666666385e-01 7.426199998684380743e-01 -1.662476669918530880e-01 5.264861396109168368e-01
8.533333333333332771e-01 6.585693836072058494e-01 -2.446418247816783964e-01 6.059533651813351351e-01
9.050000000000000266e-01 5.636031919871085094e-01 -3.067026136795772406e-01 6.758333807007229632e-01
9.566666666666666652e-01 4.623596010790773647e-01 -3.501526363923707086e-01 7.364589681041752156e-01
1.008333333333333304e+00 3.597487358305687111e-01 -3.740910660971987767e-01 7.883209224348890487e-01
1.060000000000000053e+00 2.605127188816652728e-01 -3.789836794699692479e-01 8.320772143757981798e-01
1.111666666666666581e+00 1.689250687753195979e-01 -3.665426016740328530e-01 8.684730118799847132e-01
1.163333333333333330e+00 8.846707304467923971e-02 -3.395403196920278033e-01 8.983019418071082063e-01
1.214999999999999858e+00 2.157247801097480350e-02 -3.014593758054918138e-01 9.223934523082408798e-01
1.266666666666666607e+00 -3.044959864826545307e-02 -2.561700448780413475e-01 9.415598957316831941e-01
1.318333333333333357e+00 -6.744771696612884837e-02 -2.075527867390132841e-01 9.565793692683371985e-01
1.369999999999999885e+00 -9.030390613535799194e-02 -1.591607045265682197e-01 9.681728935053591778e-01
1.421666666666666412e+00 -1.007258930075953657e-01 -1.139732092285437037e-01 9.769865695252034632e-01
1.473333333333333162e+00 -1.010031514299093158e-01 -7.422001309688677773e-02 9.835843775173358505e-01
1.524999999999999911e+00 -9.370646793731318702e-02 -4.129215784071721407e-02 9.884492147960861619e-01
1.576666666666666661e+00 -8.143449998968795012e-02 -1.575047207957648576e-02 9.919823840053206832e-01
1.628333333333333188e+00 -6.655005337144251354e-02 2.520906264152453224e-03 9.945106982257552186e-01
1.679999999999999716e+00 -5.107405495179734300e-02 1.422366866465406970e-02 9.962920267891612891e-01
1.731666666666666465e+00 -3.651078850544225984e-02 2.042485040440972927e-02 9.975290871022061134e-01
1.783333333333333215e+00 -2.387909916453253428e-02 2.237457292768183642e-02 9.983753368061804023e-01
1.834999999999999742e+00 -1.370308131347926055e-02 2.134578741560132220e-02 9.989459899582436853e-01
1.886666666666666492e+00 -6.116109318987695415e-03 1.850103379637991347e-02 9.993251713106879874e-01
1.938333333333333242e+00 -9.517015779992657465e-04 1.480080407495532741e-02 9.995735784603697605e-01
1.989999999999999769e+00 2.168376365571786021e-03 1.097074604534211718e-02 9.997340340998025487e-01
2.041666666666666519e+00 3.692365300007954647e-03 7.491492212180671240e-03 9.998362366282583791e-01
2.093333333333332824e+00 4.088042912440110511e-03 4.623372970951479533e-03 9.999004809644282954e-01
2.144999999999999574e+00 3.788652322546246214e-03 2.467970983035084210e-03 9.999402498128895367e-01
2.196666666666666323e+00 3.122248588623465285e-03 9.790076763631513045e-04 9.999645992532731897e-01
2.248333333333333073e+00 2.347705571050973713e-03 6.532829917653242002e-05 9.999792709913728483e-01
2.299999999999999822e+00 1.608260992190635019e-03 -4.146749932623820323e-04 9.999880236938706313e-01
