1.000000000000000056e-01 9.874332429110885823e-01 0.000000000000000000e+00 1.256675708891732794e-02 0.000000000000000000e+00 0.000000000000000000e+00 0.000000000000000000e+00 3.580326250745154149e-02 1.054844050531218158e-01 0.000000000000000000e+00 0.000000000000000000e+00 0.000000000000000000e+00 0.000000000000000000e+00 0.000000000000000000e+00 0.000000000000000000e+00 0.000000000000000000e+00 0.000000000000000000e+00
2.000000000000000111e-01 9.506952713972511848e-01 0.000000000000000000e+00 4.930472860274755925e-02 0.000000000000000000e+00 0.000000000000000000e+00 0.000000000000000000e+00 6.694764517861812037e-02 2.058926535149970261e-01 0.000000000000000000e+00 0.000000000000000000e+00 0.000000000000000000e+00 0.000000000000000000e+00 0.000000000000000000e+00 0.000000000000000000e+00 0.000000000000000000e+00 0.000000000000000000e+00
2.999999999999999889e-01 8.925488593549398830e-01 0.000000000000000000e+00 1.074511406450582018e-01 0.000000000000000000e+00 0.000000000000000000e+00 0.000000000000000000e+00 8.945295863120750202e-02 2.964853470673906033e-01 0.000000000000000000e+00 0.000000000000000000e+00 0.000000000000000000e+00 0.000000000000000000e+00 0.000000000000000000e+00 0.000000000000000000e+00 0.000000000000000000e+00 0.000000000000000000e+00
4.000000000000000222e-01 8.171963935862939232e-01 0.000000000000000000e+00 1.828036064137081584e-01 0.000000000000000000e+00 0.000000000000000000e+00 0.000000000000000000e+00 1.005660901967434517e-01 3.731928576280564847e-01 0.000000000000000000e+00 0.000000000000000000e+00 0.000000000000000000e+00 0.000000000000000000e+00 0.000000000000000000e+00 0.000000000000000000e+00 0.000000000000000000e+00 0.000000000000000000e+00
5.000000000000000000e-01 7.297898766989466823e-01 0.000000000000000000e+00 2.702101233010644199e-01 0.000000000000000000e+00 0.000000000000000000e+00 0.000000000000000000e+00 9.911308400101585814e-02 4.328662713642832949e-01 0.000000000000000000e+00 0.000000000000000000e+00 0.000000000000000000e+00 0.000000000000000000e+00 0.000000000000000000e+00 0.000000000000000000e+00 0.000000000000000000e+00 0.000000000000000000e+00
5.999999999999999778e-01 6.358206558451394708e-01 0.000000000000000000e+00 3.641793441548583643e-01 0.000000000000000000e+00 0.000000000000000000e+00 0.000000000000000000e+00 8.556924416842415226e-02 4.735299923673985667e-01 0.000000000000000000e+00 0.000000000000000000e+00 0.000000000000000000e+00 0.000000000000000000e+00 0.000000000000000000e+00 0.000000000000000000e+00 0.000000000000000000e+00 0.000000000000000000e+00
6.999999999999999556e-01 5.405650572169563572e-01 0.000000000000000000e+00 4.594349427830348720e-01 0.000000000000000000e+00 0.000000000000000000e+00 0.000000000000000000e+00 6.188369397656403453e-02 4.944945747845900796e-01 0.000000000000000000e+00 0.000000000000000000e+00 0.000000000000000000e+00 0.000000000000000000e+00 0.000000000000000000e+00 0.000000000000000000e+00 0.000000000000000000e+00 0.000000000000000000e+00
7.999999999999999334e-01 4.486147085212290886e-01 0.000000000000000000e+00 5.513852914787699122e-01 0.000000000000000000e+00 0.000000000000000000e+00 0.000000000000000000e+00 3.107041570559315041e-02 4.963810844946030532e-01 0.000000000000000000e+00 0.000000000000000000e+00 0.000000000000000000e+00 0.000000000000000000e+00 0.000000000000000000e+00 0.000000000000000000e+00 0.000000000000000000e+00 0.000000000000000000e+00
8.999999999999999112e-01 3.635500159217978644e-01 0.000000000000000000e+00 6.364499840782006368e-01 0.000000000000000000e+00 0.000000000000000000e+00 0.000000000000000000e+00 -3.283145221450230883e-03 4.810100025952445124e-01 0.000000000000000000e+00 0.000000000000000000e+00 0.000000000000000000e+00 0.000000000000000000e+00 0.000000000000000000e+00 0.000000000000000000e+00 0.000000000000000000e+00 0.000000000000000000e+00
9.999999999999998890e-01 2.878049625727834848e-01 0.000000000000000000e+00 7.121950374272072448e-01 0.000000000000000000e+00 0.000000000000000000e+00 0.000000000000000000e+00 -3.758033543209369359e-02 4.511773318983901548e-01 0.000000000000000000e+00 0.000000000000000000e+00 0.000000000000000000e+00 0.000000000000000000e+00 0.000000000000000000e+00 0.000000000000000000e+00 0.000000000000000000e+00 0.000000000000000000e+00
1.099999999999999867e+00 2.226931251423020230e-01 0.000000000000000000e+00 7.773068748576967835e-01 0.000000000000000000e+00 0.000000000000000000e+00 0.000000000000000000e+00 -6.867945994040178248e-02 4.103462305209353289e-01 0.000000000000000000e+00 0.000000000000000000e+00 0.000000000000000000e+00 0.000000000000000000e+00 0.000000000000000000e+00 0.000000000000000000e+00 0.000000000000000000e+00 0.000000000000000000e+00
1.199999999999999956e+00 1.685010573988584837e-01 0.000000000000000000e+00 8.314989426011462070e-01 0.000000000000000000e+00 0.000000000000000000e+00 0.000000000000000000e+00 -9.419949290253014362e-02 3.622635862187390532e-01 0.000000000000000000e+00 0.000000000000000000e+00 0.000000000000000000e+00 0.000000000000000000e+00 0.000000000000000000e+00 0.000000000000000000e+00 0.000000000000000000e+00 0.000000000000000000e+00
1.300000000000000044e+00 1.247452414683008493e-01 0.000000000000000000e+00 8.752547585317028700e-01 0.000000000000000000e+00 0.000000000000000000e+00 0.000000000000000000e+00 -1.127410600299091487e-01 3.106015443651448105e-01 0.000000000000000000e+00 0.000000000000000000e+00 0.000000000000000000e+00 0.000000000000000000e+00 0.000000000000000000e+00 0.000000000000000000e+00 0.000000000000000000e+00 0.000000000000000000e+00
1.399999999999999911e+00 9.041402562424791234e-02 0.000000000000000000e+00 9.095859743757491733e-01 0.000000000000000000e+00 0.000000000000000000e+00 0.000000000000000000e+00 -1.238206243585699140e-01 2.586653865813346442e-01 0.000000000000000000e+00 0.000000000000000000e+00 0.000000000000000000e+00 0.000000000000000000e+00 0.000000000000000000e+00 0.000000000000000000e+00 0.000000000000000000e+00 0.000000000000000000e+00
1.500000000000000000e+00 6.419181048907082743e-02 0.000000000000000000e+00 9.358081895109330306e-01 0.000000000000000000e+00 0.000000000000000000e+00 0.000000000000000000e+00 -1.277813227262171447e-01 2.091486443758945046e-01 0.000000000000000000e+00 0.000000000000000000e+00 0.000000000000000000e+00 0.000000000000000000e+00 0.000000000000000000e+00 0.000000000000000000e+00 0.000000000000000000e+00 0.000000000000000000e+00
1.599999999999999867e+00 4.466539856641257161e-02 0.000000000000000000e+00 9.553346014335806213e-01 0.000000000000000000e+00 0.000000000000000000e+00 0.000000000000000000e+00 -1.255585471507389139e-01 1.640288141167025315e-01 0.000000000000000000e+00 0.000000000000000000e+00 0.000000000000000000e+00 0.000000000000000000e+00 0.000000000000000000e+00 0.000000000000000000e+00 0.000000000000000000e+00 0.000000000000000000e+00
1.699999999999999956e+00 3.047090147004493169e-02 0.000000000000000000e+00 9.695290985299458431e-01 0.000000000000000000e+00 0.000000000000000000e+00 0.000000000000000000e+00 -1.184324317572741786e-01 1.245639771995479261e-01 0.000000000000000000e+00 0.000000000000000000e+00 0.000000000000000000e+00 0.000000000000000000e+00 0.000000000000000000e+00 0.000000000000000000e+00 0.000000000000000000e+00 0.000000000000000000e+00
1.800000000000000044e+00 2.039423805323477626e-02 0.000000000000000000e+00 9.796057619467607447e-01 0.000000000000000000e+00 0.000000000000000000e+00 0.000000000000000000e+00 -1.078515323623839145e-01 9.135841336027225590e-02 0.000000000000000000e+00 0.000000000000000000e+00 0.000000000000000000e+00 0.000000000000000000e+00 0.000000000000000000e+00 0.000000000000000000e+00 0.000000000000000000e+00 0.000000000000000000e+00
1.899999999999999911e+00 1.340231490117151265e-02 0.000000000000000000e+00 9.865976850988228408e-01 0.000000000000000000e+00 0.000000000000000000e+00 0.000000000000000000e+00 -9.522420754232312212e-02 6.445962434538522745e-02 0.000000000000000000e+00 0.000000000000000000e+00 0.000000000000000000e+00 0.000000000000000000e+00 0.000000000000000000e+00 0.000000000000000000e+00 0.000000000000000000e+00 0.000000000000000000e+00
2.000000000000000000e+00 8.657212680455645890e-03 0.000000000000000000e+00 9.913427873195485018e-01 0.000000000000000000e+00 0.000000000000000000e+00 0.000000000000000000e+00 -8.179749640198731575e-02 4.349062882077117664e-02 0.000000000000000000e+00 0.000000000000000000e+00 0.000000000000000000e+00 0.000000000000000000e+00 0.000000000000000000e+00 0.000000000000000000e+00 0.000000000000000000e+00 0.000000000000000000e+00
2.099999999999999645e+00 5.507835134807920890e-03 0.000000000000000000e+00 9.944921648651936508e-01 0.000000000000000000e+00 0.000000000000000000e+00 0.000000000000000000e+00 -6.860974084159061903e-02 2.775251650235651193e-02 0.000000000000000000e+00 0.000000000000000000e+00 0.000000000000000000e+00 0.000000000000000000e+00 0.000000000000000000e+00 0.000000000000000000e+00 0.000000000000000000e+00 0.000000000000000000e+00
2.199999999999999734e+00 3.460127253871141031e-03 0.000000000000000000e+00 9.965398727461269868e-01 0.000000000000000000e+00 0.000000000000000000e+00 0.000000000000000000e+00 -5.639774097521416119e-02 1.635388250792033094e-02 0.000000000000000000e+00 0.000000000000000000e+00 0.000000000000000000e+00 0.000000000000000000e+00 0.000000000000000000e+00 0.000000000000000000e+00 0.000000000000000000e+00 0.000000000000000000e+00
2.299999999999999822e+00 2.148502778584374540e-03 0.000000000000000000e+00 9.978514972214165279e-01 0.000000000000000000e+00 0.000000000000000000e+00 0.000000000000000000e+00 -4.553812501369085275e-02 8.376502769774342438e-03 0.000000000000000000e+00 0.000000000000000000e+00 0.000000000000000000e+00 0.000000000000000000e+00 0.000000000000000000e+00 0.000000000000000000e+00 0.000000000000000000e+00 0.000000000000000000e+00
2.399999999999999911e+00 1.318223953738388490e-03 0.000000000000000000e+00 9.986817760462566307e-01 0.000000000000000000e+00 0.000000000000000000e+00 0.000000000000000000e+00 -3.616084447372571592e-02 2.979845137580015586e-03 0.000000000000000000e+00 0.000000000000000000e+00 0.000000000000000000e+00 0.000000000000000000e+00 0.000000000000000000e+00 0.000000000000000000e+00 0.000000000000000000e+00 0.000000000000000000e+00
2.500000000000000000e+00 7.961001196822984662e-04 0.000000000000000000e+00 9.992038998803107752e-01 0.000000000000000000e+00 0.000000000000000000e+00 0.000000000000000000e+00 -2.819972657838242316e-02 -4.916047305687193218e-04 0.000000000000000000e+00 0.000000000000000000e+00 0.000000000000000000e+00 0.000000000000000000e+00 0.000000000000000000e+00 0.000000000000000000e+00 0.000000000000000000e+00 0.000000000000000000e+00
2.600000000000000089e+00 4.704467661942745454e-04 0.000000000000000000e+00 9.995295532338046574e-01 0.000000000000000000e+00 0.000000000000000000e+00 0.000000000000000000e+00 -2.154153743140987259e-02 -2.487477696441454510e-03 0.000000000000000000e+00 0.000000000000000000e+00 0.000000000000000000e+00 0.000000000000000000e+00 0.000000000000000000e+00 0.000000000000000000e+00 0.000000000000000000e+00 0.000000000000000000e+00
2.699999999999999734e+00 2.716958734911440192e-04 0.000000000000000000e+00 9.997283041264983794e-01 0.000000000000000000e+00 0.000000000000000000e+00 0.000000000000000000e+00 -1.613530286214837420e-02 -3.357667891787445048e-03 0.000000000000000000e+00 0.000000000000000000e+00 0.000000000000000000e+00 0.000000000000000000e+00 0.000000000000000000e+00 0.000000000000000000e+00 0.000000000000000000e+00 0.000000000000000000e+00
2.799999999999999822e+00 1.548141984405429679e-04 0.000000000000000000e+00 9.998451858015681148e-01 0.000000000000000000e+00 0.000000000000000000e+00 0.000000000000000000e+00 -1.195470430417919575e-02 -3.446042719494170261e-03 0.000000000000000000e+00 0.000000000000000000e+00 0.000000000000000000e+00 0.000000000000000000e+00 0.000000000000000000e+00 0.000000000000000000e+00 0.000000000000000000e+00 0.000000000000000000e+00
2.899999999999999911e+00 8.954079286767898207e-05 0.000000000000000000e+00 9.999104592071322850e-01 0.000000000000000000e+00 0.000000000000000000e+00 0.000000000000000000e+00 -8.909902845196602736e-03 -3.185329760365232347e-03 0.000000000000000000e+00 0.000000000000000000e+00 0.000000000000000000e+00 0.000000000000000000e+00 0.000000000000000000e+00 0.000000000000000000e+00 0.000000000000000000e+00 0.000000000000000000e+00
3.000000000000000000e+00 5.335271817571995040e-05 0.000000000000000000e+00 9.999466472818205887e-01 0.000000000000000000e+00 0.000000000000000000e+00 0.000000000000000000e+00 -6.703558189484040523e-03 -2.900356777175809152e-03 0.000000000000000000e+00 0.000000000000000000e+00 0.000000000000000000e+00 0.000000000000000000e+00 0.000000000000000000e+00 0.000000000000000000e+00 0.000000000000000000e+00 0.000000000000000000e+00
