1.000000000000000056e-01 2.219307767233007211e-01 -1.848877595916505467e-01 -9.547895111382290745e-01
2.000000000000000111e-01 4.028075454312799453e-01 -3.627742908093494201e-01 -8.272219171420239769e-01
2.999999999999999889e-01 5.114534504417129757e-01 -5.243222313671244139e-01 -6.390818983495543115e-01
4.000000000000000222e-01 5.333613801146512845e-01 -6.573236569597972201e-01 -4.196885556042949106e-01
5.000000000000000000e-01 4.725990549668992458e-01 -7.486457565486048793e-01 -1.983726880966159845e-01
5.999999999999999778e-01 3.487569629269969829e-01 -7.878054037554066413e-01 1.653820044937718550e-03
6.999999999999999556e-01 1.906474143108294050e-01 -7.704919582633716901e-01 1.665177526375828942e-01
7.999999999999999334e-01 2.888576780224103024e-02 -7.005356928001705841e-01 2.918671307104717116e-01
8.999999999999999112e-01 -1.105414740196667134e-01 -5.895480391542055054e-01 3.808463555736363859e-01
9.999999999999998890e-01 -2.104674678818361233e-01 -4.545317392219755392e-01 4.411343347663054804e-01
1.099999999999999867e+00 -2.640808361622669631e-01 -3.142892247252303539e-01 4.821272081144928889e-01
1.199999999999999956e+00 -2.740473619536166194e-01 -1.857449965946687820e-01 5.127711870397211325e-01
1.300000000000000044e+00 -2.499435475367406956e-01 -8.108538398416850757e-02 5.402344388896795913e-01
1.399999999999999911e+00 -2.047709945511058116e-01 -6.297040375289887984e-03 5.693605310714683343e-01
1.500000000000000000e+00 -1.515874282912247906e-01 3.869481615355076926e-02 6.026533231151400827e-01
1.599999999999999867e+00 -1.008790315487367306e-01 5.857144404913584845e-02 6.406339581799264105e-01
1.699999999999999956e+00 -5.923690544798393409e-02 6.054557400834613412e-02 6.823753885271908182e-01
1.800000000000000044e+00 -2.922180906614053192e-02 5.213577918215500651e-02 7.261029575656710033e-01
1.899999999999999911e+00 -1.031601917865533277e-02 3.960515789866835695e-02 7.697245808053055915e-01
2.000000000000000000e+00 -1.918526954511265425e-04 2.717642061210764903e-02 8.112684661363847027e-01
2.099999999999999645e+00 4.007206617577117186e-03 1.702865003678247224e-02 8.491655559633116690e-01
2.199999999999999734e+00 4.834841155701592556e-03 9.793318287367014374e-03 8.823889177255614946e-01
2.299999999999999822e+00 4.126212438683877180e-03 5.169724442368650065e-03 9.104665294516526286e-01
2.399999999999999911e+00 2.987556606410210827e-03 2.495278132002116782e-03 9.334027850975636920e-01
2.500000000000000000e+00 1.939671557840123503e-03 1.089821467963236670e-03 9.515588058555169981e-01
2.600000000000000089e+00 1.169084968525617267e-03 4.199304821425610098e-04 9.655159910624526720e-01
2.699999999999999734e+00 6.596256411935906821e-04 1.374701737404893315e-04 9.759553504684754799e-01
2.799999999999999822e+00 3.565640953202548055e-04 3.017591521524195923e-05 9.835657535673832941e-01
2.899999999999999911e+00 1.851263699407861506e-04 -5.457033264432765204e-06 9.889811246787078014e-01
3.000000000000000000e+00 9.755185044636074227e-05 -6.380601231097707228e-06 9.927475176773300491e-01
