1.000000000000000056e-01 1.710236112492050375e-01 7.645334867615705132e-02 -9.805578464047877141e-01
2.000000000000000111e-01 3.253846634214922484e-01 1.665981671573592282e-01 -9.235607544028346938e-01
2.999999999999999889e-01 4.456954200558864154e-01 2.801764726977805653e-01 -8.328295603539689340e-01
4.000000000000000222e-01 5.140891025445041285e-01 4.193998437310721972e-01 -7.141858083484050601e-01
5.000000000000000000e-01 5.140312777010309642e-01 5.762823071398411878e-01 -5.747616436131608442e-01
5.999999999999999778e-01 4.339596865383890112e-01 7.316537642877457559e-01 -4.222228671268212219e-01
6.999999999999999556e-01 2.721561475365353311e-01 8.567864100734235988e-01 -2.639942637865602681e-01
7.999999999999999334e-01 4.155159090611365569e-02 9.182111080469541609e-01 -1.066995463414946860e-01
8.999999999999999112e-01 -2.275904436089298821e-01 8.858075142046841766e-01 4.426113798201523203e-02
9.999999999999998890e-01 -4.891667300099299953e-01 7.428487470901994350e-01 1.848826012173420130e-01
1.099999999999999867e+00 -6.884996927372668551e-01 4.954665097503765381e-01 3.125760585309009798e-01
1.199999999999999956e+00 -7.752481637896215805e-01 1.778748901373325697e-01 4.259876339901774167e-01
1.300000000000000044e+00 -7.193869304353817107e-01 -1.502586977361631548e-01 5.248085129211942368e-01
1.399999999999999911e+00 -5.252859321315095364e-01 -4.163472944383279639e-01 6.095045592146393076e-01
1.500000000000000000e+00 -2.374417650428783111e-01 -5.557232316002767014e-01 6.810822560206288845e-01
1.599999999999999867e+00 6.726675663233955271e-02 -5.350691828555534935e-01 7.408430912669122792e-01
1.699999999999999956e+00 3.018456105873329465e-01 -3.690591953626859989e-01 7.902485142371570292e-01
1.800000000000000044e+00 4.000829101404139720e-01 -1.209479992027345796e-01 8.307498747083792434e-01
1.899999999999999911e+00 3.440856021774409967e-01 1.174119030294776267e-01 8.637390558092984394e-01
2.000000000000000000e+00 1.744933520493044954e-01 2.610142131830134327e-01 8.904778954071879138e-01
2.099999999999999645e+00 -2.504376245690234648e-02 2.681444734746647462e-01 9.120730131662058149e-01
2.199999999999999734e+00 -1.654306895636034613e-01 1.591306700512387651e-01 9.294732564539921471e-01
2.299999999999999822e+00 -1.944222558123580857e-01 4.967585400465511503e-03 9.434724977194959283e-01
2.399999999999999911e+00 -1.206515164144370267e-01 -1.108658893129573497e-01 9.547306760882541266e-01
2.500000000000000000e+00 -4.294926138181314607e-03 -1.372396729814271965e-01 9.637841675225129467e-01
2.600000000000000089e+00 8.149964615955389291e-02 -8.038679863890471622e-02 9.710659937969321476e-01
2.699999999999999734e+00 9.474784343029882261e-02 6.804453518677082424e-03 9.769215112736496787e-01
2.799999999999999822e+00 4.577820369607610296e-02 6.373660659656027461e-02 9.816304232478082481e-01
2.899999999999999911e+00 -1.778047556273950822e-02 6.205826112852833032e-02 9.854148394359636409e-01
3.000000000000000000e+00 -4.941899696484768068e-02 1.887863104889581436e-02 9.884525051061795464e-01
