1.000000000000000056e-01 3.232872363018109152e-02 -6.633309566517555517e-03 -9.994019615747808949e-01
2.000000000000000111e-01 6.459518324722761384e-02 -1.326555333114108268e-02 -9.976095967718358049e-01
2.999999999999999889e-01 9.674486933795241328e-02 -1.989243632603857753e-02 -9.946274118093892946e-01
4.000000000000000222e-01 1.287085131525770865e-01 -2.651801316272540260e-02 -9.904643594324062938e-01
5.000000000000000000e-01 1.604335126978497506e-01 -3.313023420642671746e-02 -9.851314764307881333e-01
5.999999999999999778e-01 1.918541473250137963e-01 -3.973493130241179117e-02 -9.786444232650204356e-01
6.999999999999999556e-01 2.229179258316599521e-01 -4.632558495497890449e-02 -9.710206485215839844e-01
7.999999999999999334e-01 2.535696782148635364e-01 -5.290615820296031002e-02 -9.622805132879653778e-01
8.999999999999999112e-01 2.837527550617676697e-01 -5.946383206498559448e-02 -9.524488165320287303e-01
9.999999999999998890e-01 3.134171485085973097e-01 -6.600613327859042312e-02 -9.415510409232632494e-01
1.099999999999999867e+00 3.425091998468209331e-01 -7.252690771706815642e-02 -9.296176599459681222e-01
1.199999999999999956e+00 3.709819594080093208e-01 -7.902539245143117008e-02 -9.166800413222772059e-01
1.300000000000000044e+00 3.987919051919117663e-01 -8.549550864183280696e-02 -9.027713180934113790e-01
1.399999999999999911e+00 4.258916326388296203e-01 -9.194193504058356670e-02 -8.879292823115735311e-01
1.500000000000000000e+00 4.522471608894143569e-01 -9.834787764804547860e-02 -8.721894468655446708e-01
1.599999999999999867e+00 4.778099540043231896e-01 -1.047188861774327184e-01 -8.555968297696914249e-01
1.699999999999999956e+00 5.025505269320328372e-01 -1.110556980210766487e-01 -8.381901285265651591e-01
1.800000000000000044e+00 5.264410530172851654e-01 -1.173479514088814346e-01 -8.200098116690421879e-01
1.899999999999999911e+00 5.494440005862940568e-01 -1.235933831068075639e-01 -8.011053028407260079e-01
2.000000000000000000e+00 5.715331855343043221e-01 -1.297888010535624415e-01 -7.815225944392548696e-01
2.099999999999999645e+00 5.926943736454853839e-01 -1.359362882431479624e-01 -7.613002215826963903e-01
2.199999999999999734e+00 6.129004317176739436e-01 -1.420279069602525257e-01 -7.404909117561097043e-01
2.299999999999999822e+00 6.321384275296204613e-01 -1.480515821531488418e-01 -7.191388246288131780e-01
2.399999999999999911e+00 6.503875679280025635e-01 -1.540201561063941904e-01 -6.972960158114103191e-01
2.500000000000000000e+00 6.676418552364608017e-01 -1.599157014880345229e-01 -6.750069480579977688e-01
2.600000000000000089e+00 6.838964806570111410e-01 -1.657422679983961422e-01 -6.523143912683373458e-01
2.699999999999999734e+00 6.991380164019451726e-01 -1.714867824283625719e-01 -6.292755206480503682e-01
2.799999999999999822e+00 7.133661834084821241e-01 -1.771557231765057416e-01 -6.059336877741792193e-01
2.899999999999999911e+00 7.265917183201052731e-01 -1.827389126821669652e-01 -5.823225689437047103e-01
3.000000000000000000e+00 7.388079548340090730e-01 -1.882389365446952567e-01 -5.584976417944089722e-01
