0.000000000000000000e+00 -7.025637341933275723e-12 1.000178290078973401e-11 -1.000000000000000000e+00
1.025641025641025605e-01 -1.875777735523180001e-01 2.450714126183459463e-01 -9.453206157598478265e-01
2.051282051282051211e-01 -3.726727353809473620e-01 4.393663010262379154e-01 -7.912805782461249660e-01
3.076923076923077094e-01 -5.465827247997943061e-01 5.449318628872641401e-01 -5.646155519005465750e-01
4.102564102564102422e-01 -6.924724763765933711e-01 5.456621816849515083e-01 -3.005934311685671823e-01
5.128205128205127750e-01 -7.892556934560578386e-01 4.500048120516375594e-01 -3.354611308259524555e-02
6.153846153846154188e-01 -8.192198321850232556e-01 2.869120335467663097e-01 2.102908874392751537e-01
7.179487179487179516e-01 -7.754082439358847001e-01 9.675569410619397348e-02 4.157749525818908998e-01
8.205128205128204844e-01 -6.653283929053680490e-01 -7.964525318909701501e-02 5.781102885091536914e-01
9.230769230769230171e-01 -5.096578988750640749e-01 -2.106555960356325252e-01 6.999090639063350050e-01
1.025641025641025550e+00 -3.368417938653744947e-01 -2.798052644079670470e-01 7.877597775906218791e-01
1.128205128205128194e+00 -1.757103391766690059e-01 -2.871151073269342380e-01 8.494609566011644963e-01
1.230769230769230838e+00 -4.855786865628965165e-02 -2.462487262851304759e-01 8.922395808142647988e-01
1.333333333333333259e+00 3.335212265635682793e-02 -1.785812609828868192e-01 9.219463636344733537e-01
1.435897435897435903e+00 7.075160372669324349e-02 -1.062096774912015679e-01 9.428832464802813229e-01
1.538461538461538325e+00 7.377058303078569412e-02 -4.601369181436287814e-02 9.579821108704967836e-01
1.641025641025640969e+00 5.701540229978406538e-02 -6.348837962869162410e-03 9.691354232909940025e-01
1.743589743589743613e+00 3.430389699384974594e-02 1.275587636903120423e-02 9.775172225228464518e-01
1.846153846153846034e+00 1.501927676578316412e-02 1.681228288290798414e-02 9.838549721688493177e-01
1.948717948717948678e+00 2.995459088350175061e-03 1.304287339771298404e-02 9.886218899530176962e-01
2.051282051282051100e+00 -2.206269751858187106e-03 7.309275568863693624e-03 9.921544698913535854e-01
2.153846153846153744e+00 -3.083713737304234672e-03 2.827323906166872083e-03 9.947165663227869326e-01
2.256410256410256387e+00 -2.155843519130349988e-03 4.230293866495482124e-04 9.965280871014874364e-01
2.358974358974359031e+00 -1.027822474899134841e-03 -3.989926047703694486e-04 9.977742027436857786e-01
2.461538461538461675e+00 -3.104643143668674860e-04 -4.264062048253599571e-04 9.986076296855194157e-01
2.564102564102563875e+00 -1.042214743215784780e-05 -2.396030718362441908e-04 9.991496925066918333e-01
2.666666666666666519e+00 5.385448069674114984e-05 -9.145274825413176884e-05 9.994927756459069945e-01
2.769230769230769162e+00 4.065914101488456834e-05 -1.693669891484192710e-05 9.997042667693575302e-01
2.871794871794871806e+00 1.666800195910518066e-05 2.403267539056893104e-06 9.998313667315913422e-01
2.974358974358974450e+00 6.081461293051752245e-06 7.904095826218729480e-06 9.999059015226584579e-01
3.076923076923076650e+00 1.210045075414286979e-06 2.479080614520792164e-06 9.999485899037036107e-01
3.179487179487179294e+00 -1.227014360547887658e-06 -2.043452836523861941e-07 9.999724862349852472e-01
3.282051282051281937e+00 -2.949456084586842033e-07 1.391076856431197385e-06 9.999855696575249420e-01
3.384615384615384581e+00 -6.455276237693320117e-08 -4.223612853236932512e-06 9.999925800707960555e-01
3.487179487179487225e+00 -3.874043501048373867e-06 -2.737263380709332674e-06 9.999962582397853295e-01
3.589743589743589425e+00 -3.071916624134561696e-06 1.447399740348085450e-06 9.999981488099629612e-01
3.692307692307692069e+00 -1.625451703944433872e-06 2.701778519821971590e-07 9.999991011902443772e-01
3.794871794871794712e+00 -1.505073815290239001e-06 -2.223263160337201003e-06 9.999995715889663517e-01
3.897435897435897356e+00 -1.962314370186582588e-08 -5.159348687499947004e-07 9.999997994829583625e-01
4.000000000000000000e+00 -2.888827583015098767e-06 -2.176161708894691284e-06 9.999999078047886458e-01
