0.000000000000000000e+00 -7.904473218157165737e-12 9.669377699105830710e-12 -1.000000000000000000e+00
1.025641025641025605e-01 -2.095729833825863697e-01 2.369957130180846694e-01 -9.486547356256713748e-01
2.051282051282051211e-01 -4.167135810027969289e-01 4.261964426250876570e-01 -8.026154607955031661e-01
3.076923076923077094e-01 -6.137785362835825875e-01 5.303285509810428122e-01 -5.832120255434277700e-01
4.102564102564102422e-01 -7.834675541402642551e-01 5.297877532934889278e-01 -3.197890284795213978e-01
5.128205128205127750e-01 -9.006161026692089955e-01 4.273355754856775213e-01 -4.400638447742156317e-02
6.153846153846154188e-01 -9.413453393267369185e-01 2.485791745290017174e-01 2.164348828929702206e-01
7.179487179487179516e-01 -8.931638078940902226e-01 3.575319998428447277e-02 4.424273374193633535e-01
8.205128205128204844e-01 -7.612689898299043190e-01 -1.631889080643819934e-01 6.243451087198205185e-01
9.230769230769230171e-01 -5.697986975853520653e-01 -3.071557513807699480e-01 7.606814805747365016e-01
1.025641025641025550e+00 -3.565290960951272847e-01 -3.731399815224567540e-01 8.559246132919543504e-01
1.128205128205128194e+00 -1.615211013025082409e-01 -3.615118000010041910e-01 9.180722825961703526e-01
1.230769230769230838e+00 -1.493856734904695782e-02 -2.927402572614942744e-01 9.560229467578191809e-01
1.333333333333333259e+00 7.054066865577179879e-02 -1.975445236903232149e-01 9.777412472249182862e-01
1.435897435897435903e+00 1.000323566718720886e-01 -1.053077393058050454e-01 9.893936339512873213e-01
1.538461538461538325e+00 9.064071214800632770e-02 -3.551363556602258470e-02 9.952499325744685876e-01
1.641025641025640969e+00 6.291304287995601319e-02 5.262564113427431467e-03 9.980050971411894567e-01
1.743589743589743613e+00 3.359526237747879202e-02 2.096577858631696809e-02 9.992155843810608395e-01
1.846153846153846034e+00 1.195983845955671254e-02 2.079666317660058827e-02 9.997121883190797087e-01
1.948717948717948678e+00 2.178894690586727356e-04 1.402607147061477218e-02 9.999016058181597888e-01
2.051282051282051100e+00 -3.823263867511934172e-03 6.915765447596145844e-03 9.999687768711388314e-01
2.153846153846153744e+00 -3.691349931662378774e-03 2.167383225559960623e-03 9.999908381262548884e-01
2.256410256410256387e+00 -2.222678219402383915e-03 -3.466280302924767270e-05 9.999975292587434117e-01
2.358974358974359031e+00 -9.286934105705322911e-04 -6.021765210086136959e-04 9.999993874588211096e-01
2.461538461538461675e+00 -2.170213068986784214e-04 -4.820911490169668733e-04 9.999998602506826595e-01
2.564102564102563875e+00 4.035426875967834453e-05 -2.378025556987352481e-04 9.999999709163149841e-01
2.666666666666666519e+00 6.845113546688633762e-05 -7.888863509440394086e-05 9.999999945511428567e-01
2.769230769230769162e+00 4.234755310263075959e-05 -9.466029132658705219e-06 9.999999990645545012e-01
2.871794871794871806e+00 1.609795221138446089e-05 7.157161745017947242e-06 9.999999998516360122e-01
2.974358974358974450e+00 1.662672349293366205e-06 4.325047532186659103e-06 9.999999999959287011e-01
3.076923076923076650e+00 3.357588773262923348e-06 3.543228951723823857e-06 9.999999999942110751e-01
3.179487179487179294e+00 1.614525146430756395e-07 2.354353591969575916e-06 1.000000000004092282e+00
3.282051282051281937e+00 -1.129283533812900923e-06 1.697940800706278583e-06 1.000000000004511946e+00
3.384615384615384581e+00 -3.262170668427042019e-07 -1.595531704053798061e-06 1.000000000006173284e+00
3.487179487179487225e+00 3.105298588527866386e-06 2.239089906881920432e-06 9.999999999999035216e-01
3.589743589743589425e+00 -2.894594842880015480e-06 -2.128471165309953011e-06 1.000000000002564393e+00
3.692307692307692069e+00 5.033091046337493139e-07 1.858310338008117835e-06 1.000000000006409318e+00
3.794871794871794712e+00 -1.178587301490519980e-06 -3.798537149591818856e-07 1.000000000008365753e+00
3.897435897435897356e+00 -3.233039850868273287e-06 -2.235661359423439978e-06 1.000000000003915090e+00
4.000000000000000000e+00 -6.263959654691805740e-08 -2.421881483103286256e-06 1.000000000009320100e+00
