1.500000000000000000e+00 -9.909310945039770391e-02 -5.104796267654873598e-02 9.619894543287855759e-01
1.551724137931034475e+00 -8.786955224879584858e-02 -2.248785568666511123e-02 9.667914187357889988e-01
1.603448275862068950e+00 -7.315993586687882799e-02 -1.514668825817772069e-03 9.708342398783424976e-01
1.655172413793103425e+00 -5.720579192237393307e-02 1.241422509338416247e-02 9.742964509213595248e-01
1.706896551724137900e+00 -4.175293211734950466e-02 2.029318571438811641e-02 9.773087881094424390e-01
1.758620689655172376e+00 -2.802905381808463992e-02 2.338232108514092314e-02 9.799636817010360934e-01
1.810344827586206851e+00 -1.672191000501989377e-02 2.300545523612153309e-02 9.823268566975829064e-01
1.862068965517241326e+00 -8.100138623747711250e-03 2.041063378217145008e-02 9.844434768543007808e-01
1.913793103448275801e+00 -2.068302764423830820e-03 1.667522029743967460e-02 9.863454436340119980e-01
1.965517241379310276e+00 1.713366022526462487e-03 1.261727573368595992e-02 9.880560245461268432e-01
2.017241379310344751e+00 3.692687054289014309e-03 8.811073438795231916e-03 9.895925567081624852e-01
2.068965517241379448e+00 4.371999460035445179e-03 5.599360437906108351e-03 9.909689800129724002e-01
2.120689655172413701e+00 4.191822282824790927e-03 3.115481190178568446e-03 9.921975268222058553e-01
2.172413793103448398e+00 3.552812127597140997e-03 1.367989141322163617e-03 9.932891418322017385e-01
2.224137931034482651e+00 2.729600503774325636e-03 2.516477250513343179e-04 9.942544147633216589e-01
2.275862068965517349e+00 1.917120923562484758e-03 -3.601468242894810632e-04 9.951035409862667436e-01
2.327586206896551602e+00 1.227982801845933477e-03 -6.184162674924108130e-04 9.958465103115987649e-01
2.379310344827586299e+00 7.014456129673685711e-04 -6.537788643233167357e-04 9.964930959865098137e-01
2.431034482758620552e+00 3.332104844749700324e-04 -5.683795481993888111e-04 9.970527539358744473e-01
2.482758620689655249e+00 1.059621494795709462e-04 -4.350654427988232117e-04 9.975345486378689452e-01
2.534482758620689502e+00 -1.480692382117309073e-05 -3.021139158233073939e-04 9.979470890461152877e-01
2.586206896551724199e+00 -7.010906629103765735e-05 -1.879242119688747563e-04 9.982984486947484859e-01
2.637931034482758896e+00 -8.261674797129036978e-05 -1.043466781022414793e-04 9.985961228561130998e-01
2.689655172413793149e+00 -6.854483429533534474e-05 -4.852997425213080194e-05 9.988469990485088212e-01
2.741379310344827402e+00 -4.960239638369343682e-05 -1.533829553709094886e-05 9.990573395116252309e-01
2.793103448275862100e+00 -3.356483628018444435e-05 5.163328263715280260e-07 9.992327930409085068e-01
2.844827586206896797e+00 -2.276983231041106062e-05 5.737107572393083883e-06 9.993784035199747562e-01
2.896551724137931050e+00 -1.117733200632974989e-05 5.257247683290607371e-06 9.994986383203696700e-01
2.948275862068965303e+00 -4.998234748624160058e-06 8.090109486970456396e-06 9.995974264899539774e-01
3.000000000000000000e+00 -1.860259996782347948e-06 4.075043956109255971e-06 9.996781906382731231e-01
