1.500000000000000000e+00 -1.035412137041772374e-01 -3.216492800912645889e-02 8.820182457622588457e-01
1.551724137931034475e+00 -8.842253558751747566e-02 -6.756626126872510713e-03 8.939763624559438071e-01
1.603448275862068950e+00 -7.105690225815888827e-02 1.095681868629602707e-02 9.049471743678776381e-01
1.655172413793103425e+00 -5.351379589038801621e-02 2.177208566580448798e-02 9.150248376637153402e-01
1.706896551724137900e+00 -3.733988091923758079e-02 2.687845573279937575e-02 9.242802987294298500e-01
1.758620689655172376e+00 -2.353268679882143666e-02 2.764456122596472068e-02 9.327681987827081134e-01
1.810344827586206851e+00 -1.259809102931353474e-02 2.543230675976311528e-02 9.405325345281168037e-01
1.862068965517241326e+00 -4.596107863011589592e-03 2.149661669348730542e-02 9.476113519474105296e-01
1.913793103448275801e+00 7.105549986967992643e-04 1.684741156036372034e-02 9.540398228388944357e-01
1.965517241379310276e+00 3.769172036352797829e-03 1.224147938926517867e-02 9.598520917507409322e-01
2.017241379310344751e+00 5.112368402059386599e-03 8.167772790341245800e-03 9.650822721696722395e-01
2.068965517241379448e+00 5.262561086753172156e-03 4.875780016813764488e-03 9.697654024268544948e-01
2.120689655172413701e+00 4.686075430086185031e-03 2.443009100885667334e-03 9.739373027872364474e-01
2.172413793103448398e+00 3.769107127542263916e-03 7.990903657203673148e-04 9.776344542118439174e-01
2.224137931034482651e+00 2.774594805320667809e-03 -1.795189073305401666e-04 9.808936716941509815e-01
2.275862068965517349e+00 1.866498240219751715e-03 -6.627471476529046487e-04 9.837517270297126970e-01
2.327586206896551602e+00 1.139343099724123183e-03 -8.158043781870230908e-04 9.862447207340157007e-01
2.379310344827586299e+00 6.021808798155991842e-04 -7.678471709570041910e-04 9.884078673825533734e-01
2.431034482758620552e+00 2.472346719748034767e-04 -6.234843395365881856e-04 9.902749950235035792e-01
2.482758620689655249e+00 3.665746858280341655e-05 -4.515706083106125904e-04 9.918781804148280035e-01
2.534482758620689502e+00 -6.142037003906931024e-05 -3.024585235233463883e-04 9.932476281002314833e-01
2.586206896551724199e+00 -1.002058357657335504e-04 -1.802958308392908337e-04 9.944114019717108510e-01
2.637931034482758896e+00 -9.491024747606859318e-05 -9.447748146391909073e-05 9.953953398071996306e-01
2.689655172413793149e+00 -7.804981679041653642e-05 -3.869333812819683902e-05 9.962230231653198542e-01
2.741379310344827402e+00 -5.033821429543390124e-05 -1.066519089985306816e-05 9.969157570916985511e-01
2.793103448275862100e+00 -3.146171322067150308e-05 1.846299683413280316e-06 9.974926522181362110e-01
2.844827586206896797e+00 -1.970060762230249052e-05 1.264148515155394688e-05 9.979706931389918934e-01
2.896551724137931050e+00 -9.790495087951161434e-06 5.978464862061225482e-06 9.983648707819204882e-01
2.948275862068965303e+00 -4.117670032428536105e-06 4.853807452653195750e-06 9.986883064959587442e-01
3.000000000000000000e+00 5.559346420607052961e-07 5.598166522139803143e-06 9.989524036476963298e-01
