0.000000000000000000e+00 -1.113058676771410665e-09 1.504383464895331624e-09 -1.000000000000000000e+00
7.179487179487178961e-02 1.429674493451801032e-01 -2.892388270163886305e-02 -9.893039679803551367e-01
1.435897435897435792e-01 2.826891256727667723e-01 -5.645347546008654127e-02 -9.575474075662481210e-01
2.153846153846153688e-01 4.160253012273427697e-01 -8.130810706971325352e-02 -9.057083239646170902e-01
2.871794871794871584e-01 5.400783158654909322e-01 -1.023669613247850663e-01 -8.353624641137248341e-01
3.589743589743589203e-01 6.522874220274631485e-01 -1.187368016087176625e-01 -7.486087905023707245e-01
4.307692307692307376e-01 7.505170914110328440e-01 -1.298240154873184227e-01 -6.479666144588709376e-01
5.025641025641025550e-01 8.331235211574470334e-01 -1.353420596368379303e-01 -5.362623120083691575e-01
5.743589743589743168e-01 8.989986480339449137e-01 -1.353391624971833629e-01 -4.165010912408023125e-01
6.461538461538460787e-01 9.475935704218414468e-01 -1.301611286338959506e-01 -2.917398048789359710e-01
7.179487179487178405e-01 9.789151982505136518e-01 -1.204295141678479730e-01 -1.649509995709648458e-01
7.897435897435897134e-01 9.934907352078924392e-01 -1.069902553495202246e-01 -3.893697306563619759e-02
8.615384615384614753e-01 9.923271306108261136e-01 -9.083005273892252873e-02 8.380720796473771494e-02
9.333333333333332371e-01 9.768346450964898731e-01 -7.302345110563146502e-02 2.011189848061919472e-01
1.005128205128205110e+00 9.487452011213579617e-01 -5.464868265590927532e-02 3.112616133788218553e-01
1.076923076923076872e+00 9.100259397940928530e-01 -3.671500977225206075e-02 4.129082737089160848e-01
1.148717948717948634e+00 8.627797442031911457e-01 -2.012336779646545226e-02 5.051687026291941107e-01
1.220512820512820396e+00 8.091386603433369240e-01 -5.590842707150878166e-03 5.875827681611827114e-01
1.292307692307692157e+00 7.511946244013509855e-01 6.354693863236560158e-03 6.600434087038559161e-01
1.364102564102563919e+00 6.909061190745515724e-01 1.539464452790453852e-02 7.227750316799823604e-01
1.435897435897435681e+00 6.300348365123958905e-01 2.142774755408452525e-02 7.762666280635328597e-01
1.507692307692307665e+00 5.701122873225635823e-01 2.452097348406671873e-02 8.211969724536877235e-01
1.579487179487179427e+00 5.123800463000762750e-01 2.492673028508490818e-02 8.583937521175377672e-01
1.651282051282051189e+00 4.578041669104206401e-01 2.300417855854336446e-02 8.887526947295063540e-01
1.723076923076922951e+00 4.070623811728384944e-01 1.919520136269622923e-02 9.131963682489760981e-01
1.794871794871794712e+00 3.605788914360432695e-01 1.398693032818332238e-02 9.326219045988255463e-01
1.866666666666666474e+00 3.185232027251401754e-01 7.861246199535473766e-03 9.478808080445590978e-01
1.938461538461538236e+00 2.808811871196247867e-01 1.269989480911667273e-03 9.597402824586521719e-01
2.010256410256410220e+00 2.474770531325613532e-01 -5.383522142854979542e-03 9.688775711562688242e-01
2.082051282051281760e+00 2.180264205585729920e-01 -1.178884514222459934e-02 9.758705964852633086e-01
2.153846153846153744e+00 1.921634396970629266e-01 -1.769426764454147538e-02 9.812024734672663007e-01
2.225641025641025283e+00 1.694960234972103796e-01 -2.293905499150870192e-02 9.852630534887901748e-01
2.297435897435897267e+00 1.496233056802222794e-01 -2.744109813079113544e-02 9.883614838725622853e-01
2.369230769230769251e+00 1.321658550416732469e-01 -3.116881348946094754e-02 9.907368032196322005e-01
2.441025641025640791e+00 1.167757245173773051e-01 -3.415532590151705572e-02 9.925702501022386492e-01
2.512820512820512775e+00 1.031527638949108205e-01 -3.644860011205398181e-02 9.939969693069377055e-01
2.584615384615384315e+00 9.104540736228661224e-02 -3.812988144693031656e-02 9.951160285301086095e-01
2.656410256410256299e+00 8.024654423019587923e-02 -3.927791079551794240e-02 9.960004465787799521e-01
2.728205128205127838e+00 7.057681938666747479e-02 -3.998353316321981432e-02 9.967042981530856993e-01
2.799999999999999822e+00 6.191169697557772494e-02 -4.031106151677319588e-02 9.972668922143020920e-01
