0.000000000000000000e+00 3.719629330930734133e-10 2.321764187858676210e-09 -1.000000000000000000e+00
7.179487179487178961e-02 6.631365229436843312e-02 -1.420042806537789581e-01 -9.876390826887704311e-01
1.435897435897435792e-01 1.312852130405131046e-01 -2.802864529107493841e-01 -9.508894212041354432e-01
2.153846153846153688e-01 1.934667156712248370e-01 -4.112600735058158929e-01 -8.907387566422151348e-01
2.871794871794871584e-01 2.515114611003269607e-01 -5.315594009157723621e-01 -8.088008668647500565e-01
3.589743589743589203e-01 3.041399534510503821e-01 -6.381567457976597968e-01 -7.072621529640812366e-01
4.307692307692307376e-01 3.501520266005321846e-01 -7.284575300941902309e-01 -5.888134754932238257e-01
5.025641025641025550e-01 3.884538623548302039e-01 -8.003750350158861382e-01 -4.565695479800135348e-01
5.743589743589743168e-01 4.180711077779332152e-01 -8.524019938242869410e-01 -3.139670498531353382e-01
6.461538461538460787e-01 4.381732391529338799e-01 -8.836488580963077766e-01 -1.646632976619487043e-01
7.179487179487178405e-01 4.480899308001749515e-01 -8.938708812035535134e-01 -1.242163932320098502e-02
7.897435897435897134e-01 4.473286604558726065e-01 -8.834701611786215381e-01 1.390047667990187141e-01
8.615384615384614753e-01 4.355872746170428300e-01 -8.534766113705782864e-01 2.859871359505585797e-01
9.333333333333332371e-01 4.127716198611260379e-01 -8.055097051648376638e-01 4.251175342952595027e-01
1.005128205128205110e+00 3.789973250320184395e-01 -7.417187526337106762e-01 5.533269558765591123e-01
1.076923076923076872e+00 3.346046074362892808e-01 -6.647121288752413371e-01 6.679520969572334543e-01
1.148717948717948634e+00 2.801517826196763261e-01 -5.774613348227658483e-01 7.668261773348405974e-01
1.220512820512820396e+00 2.164184716412498599e-01 -4.832031707902080253e-01 8.483238649059939851e-01
1.292307692307692157e+00 1.443951827299791157e-01 -3.853281549656183969e-01 9.114023492674956373e-01
1.364102564102563919e+00 6.527394664965346927e-02 -2.872685992936291899e-01 9.556169491266700566e-01
1.435897435897435681e+00 -1.956924102542735924e-02 -1.923760918509495044e-01 9.811221321021103003e-01
1.507692307692307665e+00 -1.085843964516486487e-01 -1.038266415329570369e-01 9.886472554905104682e-01
1.579487179487179427e+00 -2.001332841953742392e-01 -2.454905760605317899e-02 9.794568974108608383e-01
1.651282051282051189e+00 -2.924945156943756785e-01 4.296919328363152379e-02 9.552948472714987149e-01
1.723076923076922951e+00 -3.838455499693934070e-01 9.669346694711963841e-02 9.183113631732974236e-01
1.794871794871794712e+00 -4.723557640528381341e-01 1.351070615236344974e-01 8.709786876366426567e-01
1.866666666666666474e+00 -5.562226799303459090e-01 1.572590130467522163e-01 8.160017015591249923e-01
1.938461538461538236e+00 -6.337251945074469095e-01 1.627964081505062222e-01 7.562128907070239103e-01
2.010256410256410220e+00 -7.032546541458803979e-01 1.519681313641293441e-01 6.944801396842881225e-01
2.082051282051281760e+00 -7.633701946622717394e-01 1.256075067019715719e-01 6.336001867239262619e-01
2.153846153846153744e+00 -8.128348698096250491e-01 8.510044048637493974e-02 5.762073344577247624e-01
2.225641025641025283e+00 -8.506548678917504880e-01 3.232643656604053395e-02 5.246869609779042376e-01
2.297435897435897267e+00 -8.761118693831253523e-01 -3.040314563040152906e-02 4.810997072825031196e-01
2.369230769230769251e+00 -8.887914589580727664e-01 -1.004441124338458780e-01 4.471160006521598951e-01
2.441025641025640791e+00 -8.886001915574236465e-01 -1.748999843274741672e-01 4.239703662313810684e-01
2.512820512820512775e+00 -8.757742565748838359e-01 -2.507354163702615879e-01 4.124342252540094123e-01
2.584615384615384315e+00 -8.508834202561571525e-01 -3.248815246537363199e-01 4.127955962928838707e-01
2.656410256410256299e+00 -8.148206336212180378e-01 -3.943419790058088625e-01 4.248681409314516433e-01
2.728205128205127838e+00 -7.687843434711000290e-01 -4.563012277382353377e-01 4.480087484069765202e-01
2.799999999999999822e+00 -7.142490459887445020e-01 -5.082208116660157371e-01 4.811581678424051156e-01
