0.000000000000000000e+00 -1.014699548375000877e-09 -1.683970738104613766e-09 -1.000000000000000000e+00
7.179487179487178961e-02 -2.735582882392423310e-02 -1.473267830087366947e-01 -9.887072452075323925e-01
1.435897435897435792e-01 -5.219798965440058947e-02 -2.914482312465804803e-01 -9.551566159337057105e-01
2.153846153846153688e-01 -7.222836731853324310e-02 -4.291809081071548682e-01 -9.003180671743407082e-01
2.871794871794871584e-01 -8.535752258541035031e-02 -5.574983338486737550e-01 -8.257664826944774994e-01
3.589743589743589203e-01 -8.986768808248468687e-02 -6.735761094165013674e-01 -7.336173311311161571e-01
4.307692307692307376e-01 -8.449455806136900449e-02 -7.748496152052233299e-01 -6.264497424527020186e-01
5.025641025641025550e-01 -6.851626364775126321e-02 -8.590761964439670439e-01 -5.072079626930152685e-01
5.743589743589743168e-01 -4.178097900610711068e-02 -9.243983719720308967e-01 -3.790842404842006963e-01
6.461538461538460787e-01 -4.741916929356548849e-03 -9.693886690659454519e-01 -2.454048336251733187e-01
7.179487179487178405e-01 4.156269268256782001e-02 -9.930955619849513027e-01 -1.095115433112530956e-01
7.897435897435897134e-01 9.554428256928587659e-02 -9.950809746212579965e-01 2.537422561304254753e-02
8.615384615384614753e-01 1.551322428262220110e-01 -9.754433907198908349e-01 1.562162638798249015e-01
9.333333333333332371e-01 2.178647938106340609e-01 -9.348295279149796411e-01 2.803384413124837549e-01
1.005128205128205110e+00 2.809946753378658180e-01 -8.744401948887174925e-01 3.954233049740196182e-01
1.076923076923076872e+00 3.416299826084034374e-01 -7.960017749110566143e-01 4.996360649546962573e-01
1.148717948717948634e+00 3.968534408877585906e-01 -7.017451562574602564e-01 5.916335550286034861e-01
1.220512820512820396e+00 4.438709796140197228e-01 -5.943497028646229641e-01 6.705963096389520040e-01
1.292307692307692157e+00 4.801475025532911944e-01 -4.768825975684722329e-01 7.362179614274011463e-01
1.364102564102563919e+00 5.035321505444005918e-01 -3.527049827834417561e-01 7.886906371148008077e-01
1.435897435897435681e+00 5.123691164877315352e-01 -2.253925262123541995e-01 8.286476138149929671e-01
1.507692307692307665e+00 5.055872577204292284e-01 -9.862086720846224841e-02 8.571102922489365339e-01
1.579487179487179427e+00 4.827676350282674722e-01 2.395210921755849820e-02 8.754116848660666861e-01
1.651282051282051189e+00 4.441712341031658351e-01 1.388015941216592941e-01 8.851161781216201341e-01
1.723076923076922951e+00 3.907482407299006644e-01 2.426536021017985378e-01 8.879301141975328715e-01
1.794871794871794712e+00 3.241169350368343083e-01 3.326091321437357196e-01 8.856094152616806880e-01
1.866666666666666474e+00 2.464913827118645484e-01 4.062376954652289762e-01 8.798847480050170367e-01
1.938461538461538236e+00 1.606101574506049734e-01 4.616781895033297278e-01 8.723768252978434390e-01
2.010256410256410220e+00 6.961668632317660754e-02 4.977100641927532654e-01 8.645353341096840838e-01
2.082051282051281760e+00 -2.307774438554624497e-02 5.138091269217150980e-01 8.575839601216967978e-01
2.153846153846153744e+00 -1.139333570065381995e-01 5.101647508920638119e-01 8.524866101109795924e-01
2.225641025641025283e+00 -1.994368495500670746e-01 4.876884786205866740e-01 8.499217701723813523e-01
2.297435897435897267e+00 -2.762523194123791548e-01 4.479771452219378780e-01 8.502842321403049075e-01
2.369230769230769251e+00 -3.413878585489725781e-01 3.932558000848395130e-01 8.536899892383564836e-01
2.441025641025640791e+00 -3.923129056265407533e-01 3.262985230366138301e-01 8.600015561268409270e-01
2.512820512820512775e+00 -4.270753520620524935e-01 2.503176302199064951e-01 8.688677555884704029e-01
2.584615384615384315e+00 -4.444076367219116364e-01 1.688313200178366280e-01 8.797625088243997693e-01
2.656410256410256299e+00 -4.437661732870752385e-01 8.552714302789618528e-02 8.920436366143534856e-01
2.728205128205127838e+00 -4.253800503401098387e-01 4.102230397079908997e-03 9.049978876156532515e-01
2.799999999999999822e+00 -3.902271587549075993e-01 -7.188203873599519067e-02 9.179014077832109431e-01
