0.000000000000000000e+00 -1.867031842459643721e-09 4.775468865799830777e-09 -1.000000000000000000e+00
7.179487179487178961e-02 -1.335122655129458713e-01 8.293863610279009202e-02 -9.875688675348832657e-01
1.435897435897435792e-01 -2.641729918198175708e-01 1.626076052746465161e-01 -9.506652581216912257e-01
2.153846153846153688e-01 -3.891440635009723592e-01 2.359464548711799892e-01 -8.904410765006590678e-01
2.871794871794871584e-01 -5.057487164069841556e-01 3.001833857010399731e-01 -8.087603713720445953e-01
3.589743589743589203e-01 -6.115086696652544118e-01 3.530008790082007630e-01 -7.081163666735993401e-01
4.307692307692307376e-01 -7.042101666883593403e-01 3.926412104631804012e-01 -5.915222722256640031e-01
5.025641025641025550e-01 -7.819550859147329502e-01 4.179928774037030559e-01 -4.623881941041265708e-01
5.743589743589743168e-01 -8.432264009456177378e-01 4.286363832248676342e-01 -3.243645369562748182e-01
6.461538461538460787e-01 -8.869240323887107591e-01 4.248477611156816769e-01 -1.812206379886395213e-01
7.179487179487178405e-01 -9.124151617266442749e-01 4.075849460678113156e-01 -3.664943875552641867e-02
7.897435897435897134e-01 -9.195500634762776571e-01 3.784133206173161401e-01 1.058363419727898075e-01
8.615384615384614753e-01 -9.086807523240452156e-01 3.394194625376378838e-01 2.430329949774888421e-01
9.333333333333332371e-01 -8.806609157335442140e-01 2.930822918882989847e-01 3.721721117017425806e-01
1.005128205128205110e+00 -8.368228876768672997e-01 2.421476111209209248e-01 4.909859777844332585e-01
1.076923076923076872e+00 -7.789496284633844470e-01 1.894616064424735624e-01 5.977621897615831292e-01
1.148717948717948634e+00 -7.092115108272654123e-01 1.378269822885695994e-01 6.913779073120048801e-01
1.220512820512820396e+00 -6.301021640312344241e-01 8.985582546277394445e-02 7.712851517324798012e-01
1.292307692307692157e+00 -5.443479395885216787e-01 4.782594228424319471e-02 8.374869905025373873e-01
1.364102564102563919e+00 -4.548255357550003986e-01 1.358213038008809770e-02 8.904709084353207293e-01
1.435897435897435681e+00 -3.644319462178365887e-01 -1.156622279662229691e-02 9.311537153728018934e-01
1.507692307692307665e+00 -2.759932576649145597e-01 -2.688105204212684618e-02 9.607804020801012923e-01
1.579487179487179427e+00 -1.921421575259963932e-01 -3.223581996776250097e-02 9.808353718287916578e-01
1.651282051282051189e+00 -1.152252392227752081e-01 -2.807466878882699732e-02 9.929412870206978381e-01
1.723076923076922951e+00 -4.720440357853013941e-02 -1.538605696153508978e-02 9.987661870297275257e-01
1.794871794871794712e+00 1.041448033735630808e-02 4.315317067726767708e-03 9.999363098248333914e-01
1.866666666666666474e+00 5.664327651928648816e-02 2.936393707509103723e-02 9.979618660883640135e-01
1.938461538461538236e+00 9.102504056686579192e-02 5.765069872694268682e-02 9.941773018806406848e-01
2.010256410256410220e+00 1.136532526448654767e-01 8.703809070782253521e-02 9.896990588241039166e-01
2.082051282051281760e+00 1.251466619776348821e-01 1.154086620930398072e-01 9.854011770650201729e-01
2.153846153846153744e+00 1.265946147233969199e-01 1.408038433173797455e-01 9.819083378259996220e-01
2.225641025641025283e+00 1.194877785825581712e-01 1.615348432007612800e-01 9.796044117974826992e-01
2.297435897435897267e+00 1.056274065450425043e-01 1.762805037980451628e-01 9.786539591764321644e-01
2.369230769230769251e+00 8.700633884278230479e-02 1.841479907171262309e-01 9.790377903056164399e-01
2.441025641025640791e+00 6.571200507153342196e-02 1.847248151043573150e-01 9.805888151990628243e-01
2.512820512820512775e+00 4.379155926751837624e-02 1.780733999778939536e-01 9.830402834481453134e-01
2.584615384615384315e+00 2.314517110904944219e-02 1.647230065044682779e-01 9.860664494943950364e-01
2.656410256410256299e+00 5.427944925974176327e-03 1.456080998342806909e-01 9.893258712252512854e-01
2.728205128205127838e+00 -8.044005838038020828e-03 1.220026007455942973e-01 9.924958565580235259e-01
2.799999999999999822e+00 -1.634353594965513856e-02 9.542429758244398708e-02 9.953014586804365127e-01
