0.000000000000000000e+00 2.357080412641715391e-12 -3.753628123258613517e-13 -1.000000000000000000e+00
7.179487179487178961e-02 1.441156939890738398e-01 -2.276724249071212375e-02 -9.892989029771217524e-01
1.435897435897435792e-01 2.851773388476041560e-01 -4.395940055608760916e-02 -9.574661647089476313e-01
2.153846153846153688e-01 4.202039730207860480e-01 -6.204970167762384470e-02 -9.053057249072713475e-01
2.871794871794871584e-01 5.463520755927523398e-01 -7.560767668905907235e-02 -8.341360132810171635e-01
3.589743589743589203e-01 6.609862649203467333e-01 -8.334297625376832497e-02 -7.457553928112518049e-01
4.307692307692307376e-01 7.617389979050116500e-01 -8.414883321618124579e-02 -6.423960405535270590e-01
5.025641025641025550e-01 8.465620522747192567e-01 -7.713368009919423229e-02 -5.266717071782635040e-01
5.743589743589743168e-01 9.137782634881862487e-01 -6.165487631074396957e-02 -4.015071124389066881e-01
6.461538461538460787e-01 9.621164512402845537e-01 -3.733967457191705863e-02 -2.700697742357833220e-01
7.179487179487178405e-01 9.907444367560364062e-01 -4.099082367828993378e-03 -1.356785115960209287e-01
7.897435897435897134e-01 9.992814212949342467e-01 3.786318517976461351e-02 -1.737930864428765057e-03
8.615384615384614753e-01 9.878104431007320718e-01 8.805070376556796419e-02 1.283651134912839886e-01
9.333333333333332371e-01 9.568727495914790548e-01 1.456871283743483847e-01 2.513360331318469920e-01
1.005128205128205110e+00 9.074541424583558724e-01 2.097309859922060205e-01 3.640602876074122696e-01
1.076923076923076872e+00 8.409619671644683603e-01 2.788989813152278896e-01 4.636791212921362315e-01
1.148717948717948634e+00 7.591878563151737147e-01 3.517046096594196869e-01 5.476656518696169096e-01
1.220512820512820396e+00 6.642663488521812765e-01 4.264897222023445456e-01 6.138865812414444623e-01
1.292307692307692157e+00 5.586212017147841324e-01 5.014725217160932447e-01 6.606569935479097433e-01
1.364102564102563919e+00 4.449152546345083170e-01 5.747877211553689136e-01 6.867819826475251022e-01
1.435897435897435681e+00 3.259691003718558355e-01 6.445537545459008033e-01 6.915884637078417718e-01
1.507692307692307665e+00 2.047158761752207456e-01 7.089023589242655632e-01 6.749435945318116303e-01
1.579487179487179427e+00 8.411520721783619092e-02 7.660478121832072773e-01 6.372561351812026098e-01
1.651282051282051189e+00 -3.290900999726013854e-02 8.143289618246107864e-01 5.794698778408446938e-01
1.723076923076922951e+00 -1.435421127344273518e-01 8.522629181535943399e-01 5.030343724502076563e-01
1.794871794871794712e+00 -2.451377137173729182e-01 8.785813696874291701e-01 4.098808099403132288e-01
1.866666666666666474e+00 -3.352906154619593737e-01 8.922775745625519672e-01 3.023589474262912691e-01
1.938461538461538236e+00 -4.118805617610760694e-01 8.926337879552359578e-01 1.831920425671819119e-01
2.010256410256410220e+00 -4.731325247679287749e-01 8.792480617107000240e-01 5.539368647173192189e-02
2.082051282051281760e+00 -5.176466727417723401e-01 8.520514030736758837e-01 -7.778385830341850993e-02
2.153846153846153744e+00 -5.444395716378519490e-01 8.113160942007504595e-01 -2.129594997332991124e-01
2.225641025641025283e+00 -5.529578244490851446e-01 7.576578106991145312e-01 -3.466875910057505839e-01
2.297435897435897267e+00 -5.430943280377511506e-01 6.920201191919618244e-01 -4.755593604576610067e-01
2.369230769230769251e+00 -5.151850891847455927e-01 6.156669996898171959e-01 -5.962704658137395475e-01
2.441025641025640791e+00 -4.700020200187727260e-01 5.301483748116013750e-01 -7.057200591533313583e-01
2.512820512820512775e+00 -4.087284131883197058e-01 4.372664918174318238e-01 -8.010861999101243081e-01
2.584615384615384315e+00 -3.329314460241179496e-01 3.390386916006236095e-01 -8.798917084598940619e-01
2.656410256410256299e+00 -2.445220273117686971e-01 2.376481149966628015e-01 -9.400703972936848007e-01
2.728205128205127838e+00 -1.457067961956711732e-01 1.353923543157411202e-01 -9.800196126575251299e-01
2.799999999999999822e+00 -3.893339337481465517e-02 3.462450309611581067e-02 -9.986417461109610150e-01
