0.000000000000000000e+00 -1.610396572504517776e-09 -1.102062738203960336e-09 -1.000000000000000000e+00
7.179487179487178961e-02 -1.553752980654008464e-01 2.044569984493822823e-02 -9.876415562755057609e-01
1.435897435897435792e-01 -3.068365457826513487e-01 3.963390312135706139e-02 -9.509316173788852078e-01
2.153846153846153688e-01 -4.505590198108257449e-01 5.647084075699898564e-02 -8.909504770950469332e-01
2.871794871794871584e-01 -5.829840636490112304e-01 6.997227657466387196e-02 -8.094523498226231517e-01
3.589743589743589203e-01 -7.009145668462756218e-01 7.937099207779330090e-02 -7.087970630651319048e-01
4.307692307692307376e-01 -8.016169725192041629e-01 8.417209502375913588e-02 -5.918569129692504704e-01
5.025641025641025550e-01 -8.829028079192762224e-01 8.418223480546749293e-02 -4.619102831793228114e-01
5.743589743589743168e-01 -9.431975660678644235e-01 7.953769366600355051e-02 -3.225120042934633280e-01
6.461538461538460787e-01 -9.815817382376735845e-01 7.069146968285144883e-02 -1.773690871706694316e-01
7.179487179487178405e-01 -9.978158232578989706e-01 5.840510293745460046e-02 -3.018800853130313919e-02
7.897435897435897134e-01 -9.923333036462324008e-01 4.370241453081169514e-02 1.154294061490102608e-01
8.615384615384614753e-01 -9.662194446625645972e-01 2.781376026295678816e-02 2.561389062580559650e-01
9.333333333333332371e-01 -9.211605431255784904e-01 1.211507309152365375e-02 3.889469877758311434e-01
1.005128205128205110e+00 -8.593752104999845542e-01 -1.962556089739664333e-03 5.113090646974695064e-01
1.076923076923076872e+00 -7.835290009447340998e-01 -1.300243882015959807e-02 6.211953703053494369e-01
1.148717948717948634e+00 -6.966326873755235294e-01 -1.969648912108945549e-02 7.171398590485916769e-01
1.220512820512820396e+00 -6.019236551507725075e-01 -2.092238974045829147e-02 7.982663456661086565e-01
1.292307692307692157e+00 -5.027607770005352306e-01 -1.580973312362614347e-02 8.642712803868228821e-01
1.364102564102563919e+00 -4.024826347681898508e-01 -3.807392390323433018e-03 9.154126655299402726e-01
1.435897435897435681e+00 -3.043078574405913006e-01 1.528054479475446370e-02 9.524462411431766640e-01
1.507692307692307665e+00 -2.112020938296847727e-01 4.127328138847780742e-02 9.765673280526635525e-01
1.579487179487179427e+00 -1.257919198492773449e-01 7.359722328481160813e-02 9.893207392072702611e-01
1.651282051282051189e+00 -5.028806205317074701e-02 1.113176969356684254e-01 9.925098795000174556e-01
1.723076923076922951e+00 1.360091323366424687e-02 1.531969029868524845e-01 9.880997747321511593e-01
1.794871794871794712e+00 6.473037948003920738e-02 1.977223008612511157e-01 9.781153596237991410e-01
1.866666666666666474e+00 1.025220099243485533e-01 2.431696809029025297e-01 9.645463827956474168e-01
1.938461538461538236e+00 1.269676753946463177e-01 2.876959083138083129e-01 9.492631615243024568e-01
2.010256410256410220e+00 1.386022286665375691e-01 3.294506713555144239e-01 9.339381382992223424e-01
2.082051282051281760e+00 1.384775624411277439e-01 3.666528193507524458e-01 9.199875922670256445e-01
2.153846153846153744e+00 1.280863845400054823e-01 3.976797263208832756e-01 9.085324676510642128e-01
2.225641025641025283e+00 1.092822965921700917e-01 4.211679606298527889e-01 9.003670387785190909e-01
2.297435897435897267e+00 8.419067618290917987e-02 4.360763538519683014e-01 8.959547290635103689e-01
2.369230769230769251e+00 5.509853675145659491e-02 4.417311957197611605e-01 8.954458037757843103e-01
2.441025641025640791e+00 2.435873855794870591e-02 4.378894850193395527e-01 8.986908169100487065e-01
2.512820512820512775e+00 -5.741288133977423547e-03 4.247285874497393476e-01 9.052949434454597988e-01
2.584615384615384315e+00 -3.306147890272349149e-02 4.028641704257097111e-01 9.146553743453776919e-01
2.656410256410256299e+00 -5.571154229064612107e-02 3.733067511041922026e-01 9.260271743609338468e-01
2.728205128205127838e+00 -7.213677868109646951e-02 3.374145090788028267e-01 9.385824088890285521e-01
2.799999999999999822e+00 -8.116958173562838219e-02 2.968362040323250794e-01 9.514674353442149624e-01
