0.000000000000000000e+00 6.482576608549626227e-10 1.710946597795333218e-09 -1.000000000000000000e+00
7.179487179487178961e-02 -1.595374638186683458e-02 1.521648590276051816e-01 -9.882256126814802366e-01
1.435897435897435792e-01 -3.409856601746866223e-02 3.001146137683118331e-01 -9.532919092973222153e-01
2.153846153846153688e-01 -5.638812649943736321e-02 4.397452177931048256e-01 -8.963480346642822560e-01
2.871794871794871584e-01 -8.442484240704253851e-02 5.671925639581213430e-01 -8.192426854426049232e-01
3.589743589743589203e-01 -1.192529493853697886e-01 6.789465780597017108e-01 -7.244323060165397399e-01
4.307692307692307376e-01 -1.612737329619975957e-01 7.719694844263373934e-01 -6.148529693063218282e-01
5.025641025641025550e-01 -2.101713170037972089e-01 8.437928959839380294e-01 -4.937919565203548466e-01
5.743589743589743168e-01 -2.648903456019540137e-01 8.926424441593177050e-01 -3.647059022752310864e-01
6.461538461538460787e-01 -3.237054572318463497e-01 9.174910991057452225e-01 -2.311100446867185298e-01
7.179487179487178405e-01 -3.843087655830674798e-01 9.181537352003099617e-01 -9.636957324967120042e-02
7.897435897435897134e-01 -4.439585758272805993e-01 8.953012517954394012e-01 3.637345606388103086e-02
8.615384615384614753e-01 -4.996789849527301652e-01 8.504657154377027739e-01 1.643648331470457802e-01
9.333333333333332371e-01 -5.484562085199751191e-01 7.860027643231274341e-01 2.852767086539027552e-01
1.005128205128205110e+00 -5.874711153927703045e-01 7.050070593670194619e-01 3.972792144471915532e-01
1.076923076923076872e+00 -6.143016232176466973e-01 6.111857349674296724e-01 4.990735285460285997e-01
1.148717948717948634e+00 -6.271110297723075933e-01 5.086939793759159834e-01 5.898746783383295167e-01
1.220512820512820396e+00 -6.248089665953640015e-01 4.019439504908661753e-01 6.693622795002590609e-01
1.292307692307692157e+00 -6.071308505262806854e-01 2.953830497615634876e-01 7.376537331707162526e-01
1.364102564102563919e+00 -5.746832478836091385e-01 1.932584768512156381e-01 7.952253940831505163e-01
1.435897435897435681e+00 -5.289117820598762121e-01 9.942465654812056297e-02 8.428292435180061437e-01
1.507692307692307665e+00 -4.720164416955021092e-01 1.710882591901454614e-02 8.814208396723982597e-01
1.579487179487179427e+00 -4.067979290280600013e-01 -5.122855446380816802e-02 9.120783020733326252e-01
1.651282051282051189e+00 -3.364723478772482790e-01 -1.040258496281570855e-01 9.359280911871794562e-01
1.723076923076922951e+00 -2.644563591365359789e-01 -1.406568619428008315e-01 9.540835841794540473e-01
1.794871794871794712e+00 -1.941162612394471687e-01 -1.614471479297548417e-01 9.676007499442547122e-01
1.866666666666666474e+00 -1.285494507814891052e-01 -1.675843389024179175e-01 9.774397555816206618e-01
1.938461538461538236e+00 -7.039793529393886806e-02 -1.610115268614687178e-01 9.844377784149891397e-01
2.010256410256410220e+00 -2.166603285935697967e-02 -1.442370247655338222e-01 9.893052468105886232e-01
2.082051282051281760e+00 1.639221516330716111e-02 -1.201345657033005415e-01 9.926216884887413272e-01
2.153846153846153744e+00 4.329053832240711830e-02 -9.170097354373189791e-02 9.948446517132599753e-01
2.225641025641025283e+00 5.932182385788506429e-02 -6.185867727728680543e-02 9.963200279072470522e-01
2.297435897435897267e+00 6.547480892495652349e-02 -3.322255843294927985e-02 9.973006534604245132e-01
2.369230769230769251e+00 6.328204148546145991e-02 -7.960584374268060703e-03 9.979636188304915612e-01
2.441025641025640791e+00 5.469414854417240651e-02 1.236083382584106036e-02 9.984263638793295925e-01
2.512820512820512775e+00 4.185178874464847570e-02 2.681054935903096070e-02 9.987637986442412519e-01
2.584615384615384315e+00 2.690713936132608022e-02 3.511610747313002878e-02 9.990207300904850873e-01
2.656410256410256299e+00 1.185121394572538622e-02 3.760241861706625083e-02 9.992223000799523858e-01
2.728205128205127838e+00 -1.643476491641739090e-03 3.509630352256251640e-02 9.993824032962475012e-01
2.799999999999999822e+00 -1.234983093551019970e-02 2.877590561544141404e-02 9.995094314794338297e-01
