0.000000000000000000e+00 3.071939086724116539e-09 1.745085097924411222e-09 -1.000000000000000000e+00
7.179487179487178961e-02 2.048799860946286244e-02 1.558260157715941618e-01 -9.875709536683513479e-01
1.435897435897435792e-01 3.876275558104498586e-02 3.076795704510093543e-01 -9.506978471189259094e-01
2.153846153846153688e-01 5.281376417993002836e-02 4.516975010402047297e-01 -8.906027794174977696e-01
2.871794871794871584e-01 6.091314036281803013e-02 5.842835532786424535e-01 -8.092546306797894218e-01
3.589743589743589203e-01 6.177148668895438011e-02 7.022124383082215537e-01 -7.092745243395516264e-01
4.307692307692307376e-01 5.462391557160301003e-02 8.027454819638164540e-01 -5.938030399141578375e-01
5.025641025641025550e-01 3.929256059590091610e-02 8.837153860623436774e-01 -4.663555258173660567e-01
5.743589743589743168e-01 1.619755650662690893e-02 9.436024263842598403e-01 -3.306582236262853858e-01
6.461538461538460787e-01 -1.367552469459976106e-02 9.815855567541124094e-01 -1.904851167950854518e-01
7.179487179487178405e-01 -4.882664620877075201e-02 9.975708636676543506e-01 -4.949443954014096786e-02
7.897435897435897134e-01 -8.736992354683964512e-02 9.921900965470814571e-01 8.891985771939533989e-02
8.615384615384614753e-01 -1.271475502146520165e-01 9.667689618287567122e-01 2.217504562229293819e-01
9.333333333333332371e-01 -1.658911037709710490e-01 9.232672978169409461e-01 3.464687460868498547e-01
1.005128205128205110e+00 -2.013699544490658577e-01 8.641968130895292255e-01 4.610836898391002525e-01
1.076923076923076872e+00 -2.315470556589468987e-01 7.925038006668145840e-01 5.641890405309211154e-01
1.148717948717948634e+00 -2.547165242471516877e-01 7.114382414030636648e-01 6.549521869216285985e-01
1.220512820512820396e+00 -2.696149557568782718e-01 6.244154382673153814e-01 7.330770765552208079e-01
1.292307692307692157e+00 -2.754948292288893485e-01 5.348447412329545569e-01 7.987704121644305655e-01
1.364102564102563919e+00 -2.721680242317651155e-01 4.460029656031874179e-01 8.526417462335544872e-01
1.435897435897435681e+00 -2.600040937741882607e-01 3.608669265007361515e-01 8.956374099979330650e-01
1.507692307692307665e+00 -2.398945365709748423e-01 2.820051865376079769e-01 9.289340036055577787e-01
1.579487179487179427e+00 -2.131652908109085698e-01 2.114643961783653214e-01 9.538549074962645591e-01
1.651282051282051189e+00 -1.814912767030364971e-01 1.507145179094894205e-01 9.717730402621076458e-01
1.723076923076922951e+00 -1.467432458905214288e-01 1.006036978774677570e-01 9.840441733491597232e-01
1.794871794871794712e+00 -1.108813864613762690e-01 6.136475149430117848e-02 9.919364850566259051e-01
1.866666666666666474e+00 -7.579764608926539693e-02 3.264815641680821751e-02 9.965880270678242336e-01
1.938461538461538236e+00 -4.319473051946705333e-02 1.360043268785578879e-02 9.989737764520949526e-01
2.010256410256410220e+00 -1.449341915433793350e-02 2.958604217248099813e-03 9.998904723675957618e-01
2.082051282051281760e+00 9.241089635503617686e-03 -8.763490986819838166e-04 9.999568400864994322e-01
2.153846153846153744e+00 2.743048153397537742e-02 4.484814604041164471e-04 9.996234114087308997e-01
2.225641025641025283e+00 3.984563556994598355e-02 5.144313312706379204e-03 9.991923195407528269e-01
2.297435897435897267e+00 4.670633030563248189e-02 1.153646785251901882e-02 9.988417063943687557e-01
2.369230769230769251e+00 4.857459461704867476e-02 1.816050607847252696e-02 9.986540856441343816e-01
2.441025641025640791e+00 4.630325707082519338e-02 2.381021111677705110e-02 9.986432583684681230e-01
2.512820512820512775e+00 4.093697517334053682e-02 2.762562296964703179e-02 9.987794047069942227e-01
2.584615384615384315e+00 3.359259421257623779e-02 2.909419384530748109e-02 9.990117317554925158e-01
2.656410256410256299e+00 2.539708521658827489e-02 2.805699766107876136e-02 9.992833698915702945e-01
2.728205128205127838e+00 1.735419161813514174e-02 2.467105464751013361e-02 9.995447621257030901e-01
2.799999999999999822e+00 1.029986407623860456e-02 1.934336533242450584e-02 9.997596802950505790e-01
