0.000000000000000000e+00 -9.395008506423147034e-13 -3.235820179004233862e-12 -1.000000000000000000e+00
7.179487179487178961e-02 -4.375064911346727980e-02 -1.505322146587163568e-01 -9.876365389408970907e-01
1.435897435897435792e-01 -8.666250662047993158e-02 -2.972638545407316757e-01 -9.508542531569667000e-01
2.153846153846153688e-01 -1.279165660775871405e-01 -4.364923548123686436e-01 -8.905682322679511209e-01
2.871794871794871584e-01 -1.667291628825891270e-01 -5.646995759464495945e-01 -8.082795155092423744e-01
3.589743589743589203e-01 -2.023707423828453311e-01 -6.786442071040864610e-01 -7.060369131611433646e-01
4.307692307692307376e-01 -2.341828191508741330e-01 -7.754436850844599327e-01 -5.863834056466199485e-01
5.025641025641025550e-01 -2.615895735329307192e-01 -8.526402153693461994e-01 -4.523002965873312298e-01
5.743589743589743168e-01 -2.841130377041101718e-01 -9.082707392811948388e-01 -3.071222003321577576e-01
6.461538461538460787e-01 -3.013818395853420928e-01 -9.409089461887015782e-01 -1.544646940829200177e-01
7.179487179487178405e-01 -3.131398126557486949e-01 -9.497051907028618567e-01 1.873149157991875176e-03
7.897435897435897134e-01 -3.192503826970045644e-01 -9.344066578117519173e-01 1.579980722903958079e-01
8.615384615384614753e-01 -3.197001020277168704e-01 -8.953634944081547697e-01 3.100258980541538145e-01
9.333333333333332371e-01 -3.145967292131196524e-01 -8.335226704706286682e-01 4.541683120050928335e-01
1.005128205128205110e+00 -3.041681609401755138e-01 -7.503977842102755869e-01 5.868431607001671768e-01
1.076923076923076872e+00 -2.887542355879362810e-01 -6.480415560416797893e-01 7.047433100072402201e-01
1.148717948717948634e+00 -2.688003067095791621e-01 -5.289879400610302262e-01 8.049336335134524845e-01
1.220512820512820396e+00 -2.448453181158521397e-01 -3.961865723825360175e-01 8.849220137221842641e-01
1.292307692307692157e+00 -2.175105728983225406e-01 -2.529419549474949958e-01 9.427139115207899822e-01
1.364102564102563919e+00 -1.874818854075488150e-01 -1.028114298802260684e-01 9.768727413867241971e-01
1.435897435897435681e+00 -1.554974901907156537e-01 5.046420322182339907e-02 9.865464485383202975e-01
1.507692307692307665e+00 -1.223284864184071979e-01 2.030631733573334541e-01 9.714942557421211156e-01
1.579487179487179427e+00 -8.876013602885703124e-02 3.511873123840284494e-01 9.320885740092454963e-01
1.651282051282051189e+00 -5.557852215539017121e-02 4.911274767251770368e-01 8.693128490940715825e-01
1.723076923076922951e+00 -2.354605099447944216e-02 6.193946801760660259e-01 7.847265855845964033e-01
1.794871794871794712e+00 6.610435304295763509e-03 7.327763168434329177e-01 6.804374856271154792e-01
1.866666666666666474e+00 3.421858466122373182e-02 8.284334057637449122e-01 5.590413045666180469e-01
1.938461538461538236e+00 5.867559048119248832e-02 9.039683009210313092e-01 4.235545845781688579e-01
2.010256410256410220e+00 7.945924415657920625e-02 9.574760677139582121e-01 2.773550211032681512e-01
2.082051282051281760e+00 9.614154829448619266e-02 9.876034545642440321e-01 1.240815036818355144e-01
2.153846153846153744e+00 1.083964855931841276e-01 9.935780121672679321e-01 -3.244896935532583931e-02
2.225641025641025283e+00 1.160069809793285445e-01 9.752283305961653159e-01 -1.883403407528860263e-01
2.297435897435897267e+00 1.188686569440908641e-01 9.329881103753333571e-01 -3.397108011710305853e-01
2.369230769230769251e+00 1.169912544889462891e-01 8.678875989739996966e-01 -4.827879057811509944e-01
2.441025641025640791e+00 1.104964899637039671e-01 7.815230337574017305e-01 -6.140132506940388923e-01
2.512820512820512775e+00 9.961550011845980712e-02 6.760263108843260760e-01 -7.301131279316711575e-01
2.584615384615384315e+00 8.468080396210390937e-02 5.540011923222827317e-01 -8.281979480251761006e-01
2.656410256410256299e+00 6.611777437727991980e-02 4.184658946834097226e-01 -9.058226840550976933e-01
2.728205128205127838e+00 4.443516302880572144e-02 2.727845269921077564e-01 -9.610484465795307019e-01
2.799999999999999822e+00 2.020833461327010624e-02 1.205592936220346162e-01 -9.925004177844981568e-01
