0.000000000000000000e+00 3.510517907633274127e-09 7.331943739689236855e-10 -1.000000000000000000e+00
7.179487179487178961e-02 1.307839763327597882e-01 6.458982961959792990e-02 -9.893036798246090946e-01
1.435897435897435792e-01 2.582682255580535657e-01 1.280908391913446187e-01 -9.575417987506025241e-01
2.153846153846153688e-01 3.793006960908814618e-01 1.893887760340807191e-01 -9.056802599995893432e-01
2.871794871794871584e-01 4.909996104587732169e-01 2.474334312242420508e-01 -8.352769846402205989e-01
3.589743589743589203e-01 5.908733464349021913e-01 3.012233968203786860e-01 -7.484133287912818622e-01
4.307692307692307376e-01 6.769244138820098566e-01 3.498473656293881184e-01 -6.475857838479545103e-01
5.025641025641025550e-01 7.476979350695874826e-01 3.924871008984577303e-01 -5.356183549998466686e-01
5.743589743589743168e-01 8.023505279490356079e-01 4.284528432186845426e-01 -4.155064097284505986e-01
6.461538461538460787e-01 8.406330171677673935e-01 4.572025691347412768e-01 -2.903180026649110901e-01
7.179487179487178405e-01 8.628828052334638343e-01 4.783604544768127464e-01 -1.630533079118540452e-01
7.897435897435897134e-01 8.699686186747987993e-01 4.917321164673066902e-01 -3.654664001322352473e-02
8.615384615384614753e-01 8.632177221730017447e-01 4.973209538162000065e-01 8.665235300535992224e-02
9.333333333333332371e-01 8.443204720103330008e-01 4.953298203041527348e-01 2.043362762096542495e-01
1.005128205128205110e+00 8.152261778803306935e-01 4.861537484313968038e-01 3.147118775617267494e-01
1.076923076923076872e+00 7.780348571163857585e-01 4.703792711397657422e-01 4.163998718364712581e-01
1.148717948717948634e+00 7.348764655275782376e-01 4.487494916476151285e-01 5.084933453264848247e-01
1.220512820512820396e+00 6.878267024624508119e-01 4.221523749920584878e-01 5.904812017510112643e-01
1.292307692307692157e+00 6.388068723088442535e-01 3.915671211051945377e-01 6.622601296246320990e-01
1.364102564102563919e+00 5.895035218431172730e-01 3.580331015488535940e-01 7.240764367640464272e-01
1.435897435897435681e+00 5.413421426428196570e-01 3.226107960075888514e-01 7.764412414231640636e-01
1.507692307692307665e+00 4.954360203812467334e-01 2.863275536162384061e-01 8.200919616823071356e-01
1.579487179487179427e+00 4.525825043515694923e-01 2.501385396205150768e-01 8.559158775119889428e-01
1.651282051282051189e+00 4.132787844686914291e-01 2.149034670637056943e-01 8.848786820543267373e-01
1.723076923076922951e+00 3.777450739474078056e-01 1.813397506351987765e-01 9.079749390212676907e-01
1.794871794871794712e+00 3.459714428078843329e-01 1.500146371268435419e-01 9.261716851658660099e-01
1.866666666666666474e+00 3.177507837381419176e-01 1.213259204788346424e-01 9.403774218209338676e-01
1.938461538461538236e+00 2.927562022459328506e-01 9.551492804180140850e-02 9.514023479137403427e-01
2.010256410256410220e+00 2.705705212791106318e-01 7.266847311373206275e-02 9.599515877755406823e-01
2.082051282051281760e+00 2.507539822215868464e-01 5.272997860216056820e-02 9.666118702091857084e-01
2.153846153846153744e+00 2.328664611932283468e-01 3.554477031823891076e-02 9.718572988356563025e-01
2.225641025641025283e+00 2.165196093593268201e-01 2.085764774550941114e-02 9.760539447124436663e-01
2.297435897435897267e+00 2.013866150262291210e-01 8.379356747984609277e-03 9.794746137902851091e-01
2.369230769230769251e+00 1.872081907260058076e-01 -2.210391187752354381e-03 9.823165073177887452e-01
2.441025641025640791e+00 1.738153880327611978e-01 -1.123356366870349385e-02 9.847130045843305313e-01
2.512820512820512775e+00 1.610981119849146659e-01 -1.897950039081520990e-02 9.867547961129586875e-01
2.584615384615384315e+00 1.490170722389728697e-01 -2.569591806807326739e-02 9.884996843910450748e-01
2.656410256410256299e+00 1.375608837894961578e-01 -3.158694144060056330e-02 9.899885847282187123e-01
2.728205128205127838e+00 1.267530117157547875e-01 -3.679583407213586621e-02 9.912507215425477858e-01
2.799999999999999822e+00 1.166250341501612192e-01 -4.141941191957876356e-02 9.923111358846354868e-01
