0.000000000000000000e+00 1.732917427355665970e-12 -2.732678067626599790e-12 -1.000000000000000000e+00
7.179487179487178961e-02 8.327318218333773503e-02 -1.311591445827713087e-01 -9.878577103646397628e-01
1.435897435897435792e-01 1.649326941472132602e-01 -2.588440055234610404e-01 -9.517336745187502389e-01
2.153846153846153688e-01 2.434006850145844225e-01 -3.796678100019494351e-01 -8.925292491448300058e-01
2.871794871794871584e-01 3.171710093105925554e-01 -4.904203312039552842e-01 -8.117206721514131917e-01
3.589743589743589203e-01 3.848422049048557669e-01 -5.881474657778253956e-01 -7.113220338771779616e-01
4.307692307692307376e-01 4.451458582212490245e-01 -6.702245397754994505e-01 -5.938385564563306573e-01
5.025641025641025550e-01 4.969787285831916979e-01 -7.344275736712170266e-01 -4.621993967101448164e-01
5.743589743589743168e-01 5.394238784386700125e-01 -7.789872737576871708e-01 -3.196884526641029511e-01
6.461538461538460787e-01 5.717725591349854808e-01 -8.026359354574854610e-01 -1.698578699698657934e-01
7.179487179487178405e-01 5.935363695983386645e-01 -8.046391045596149594e-01 -1.644656518794443065e-02
7.897435897435897134e-01 6.044603607822551794e-01 -7.848157104761452896e-01 1.367185899389864179e-01
8.615384615384614753e-01 6.045263475102093942e-01 -7.435428382055381258e-01 2.858180246764706611e-01
9.333333333333332371e-01 5.939507058824715635e-01 -6.817487138476143738e-01 4.271314202117579284e-01
1.005128205128205110e+00 5.731811046630750361e-01 -6.008845768963050338e-01 5.571365599903262966e-01
1.076923076923076872e+00 5.428824843306861991e-01 -5.028973987816585112e-01 6.725866597738966446e-01
1.148717948717948634e+00 5.039219150212296272e-01 -3.901773249841906654e-01 7.705999994193993841e-01
1.220512820512820396e+00 4.573469583174573083e-01 -2.654903869631731195e-01 8.487335354277790733e-01
1.292307692307692157e+00 4.043623071950383507e-01 -1.319255167107627746e-01 9.050341335990343961e-01
1.364102564102563919e+00 3.462993577956395286e-01 7.197194617076851930e-03 9.380964532276990786e-01
1.435897435897435681e+00 2.845855876360953163e-01 1.484063500257627732e-01 9.470937644985660819e-01
1.507692307692307665e+00 2.207133167535025309e-01 2.881581336009660377e-01 9.317996144696776284e-01
1.579487179487179427e+00 1.562010083725308696e-01 4.229411583245444306e-01 8.925928641591146517e-01
1.651282051282051189e+00 9.256238461874451151e-02 5.493498144200111843e-01 8.304498698351726604e-01
1.723076923076922951e+00 3.126981832043866649e-02 6.641786756060573671e-01 7.469195974893287904e-01
1.794871794871794712e+00 -2.627942542829321201e-02 7.645045517196461526e-01 6.440824339999768888e-01
1.866666666666666474e+00 -7.879254305585592366e-02 8.477537730228924540e-01 5.245047909849245293e-01
1.938461538461538236e+00 -1.251139824586019467e-01 9.117759400184766161e-01 3.911663666410784557e-01
2.010256410256410220e+00 -1.642465735082938305e-01 9.548920411083025028e-01 2.473949321735315343e-01
2.082051282051281760e+00 -1.953756762946971537e-01 9.759417061954284156e-01 9.677877822835262434e-02
2.153846153846153744e+00 -2.178858363457500391e-01 9.743129565864384611e-01 -5.692121667570251148e-02
2.225641025641025283e+00 -2.313737730209548260e-01 9.499579717166358739e-01 -2.098714585613282446e-01
2.297435897435897267e+00 -2.356542783418633102e-01 9.033974399045127113e-01 -3.582459021727890103e-01
2.369230769230769251e+00 -2.307641991294952510e-01 8.357056543266462301e-01 -4.983411926372185996e-01
2.441025641025640791e+00 -2.169572085373650538e-01 7.484852006240713118e-01 -6.266573816457241541e-01
2.512820512820512775e+00 -1.946987002299465641e-01 6.438345533141981436e-01 -7.399793809794761312e-01
2.584615384615384315e+00 -1.646506338599641184e-01 5.242902566883342885e-01 -8.354698651828582623e-01
2.656410256410256299e+00 -1.276528070349962352e-01 3.927594421212813880e-01 -9.107385915739720783e-01
2.728205128205127838e+00 -8.470322938595610529e-02 2.524594555019762931e-01 -9.638929328037477706e-01
2.799999999999999822e+00 -3.693569983171461624e-02 1.068397209421734911e-01 -9.935899699903887328e-01
