0.000000000000000000e+00 7.985448194291016545e-12 9.476132391542707613e-12 -1.000000000000000000e+00
1.025641025641025605e-01 2.112203423289463478e-01 2.313432259578813988e-01 -9.489565328815122713e-01
2.051282051282051211e-01 4.179167876494006562e-01 4.121066947754615239e-01 -8.048201698977037744e-01
3.076923076923077094e-01 6.116891987247099483e-01 5.071502191872155896e-01 -5.898899193821015574e-01
4.102564102564102422e-01 7.762645578772120469e-01 5.006223135293829118e-01 -3.325396837806516293e-01
5.128205128205127750e-01 8.880814135435060042e-01 3.964381366260316120e-01 -6.280245157008779167e-02
6.153846153846154188e-01 9.240066721116909632e-01 2.195163297730364782e-01 1.923948926706283979e-01
7.179487179487179516e-01 8.718969772185313216e-01 1.152535336137938682e-02 4.140006123622155809e-01
8.205128205128204844e-01 7.379173921876135411e-01 -1.801878797740603666e-01 5.925225731450998179e-01
9.230769230769230171e-01 5.471868745080368246e-01 -3.160454812441080286e-01 7.269224934777696046e-01
1.025641025641025550e+00 3.373606259882567238e-01 -3.749328001297561608e-01 8.219498459262298828e-01
1.128205128205128194e+00 1.474106578954782476e-01 -3.584558879953798072e-01 8.852925088421463862e-01
1.230769230769230838e+00 6.168236485035394345e-03 -2.873484860862150492e-01 9.251758713019865299e-01
1.333333333333333259e+00 -7.472291280358105137e-02 -1.919479735797765263e-01 9.487883357326631906e-01
1.435897435897435903e+00 -1.009839711790979228e-01 -1.008850827385566334e-01 9.616064299531308368e-01
1.538461538461538325e+00 -8.985283223447644574e-02 -3.282057436541933187e-02 9.673407985241005980e-01
1.641025641025640969e+00 -6.164174240374805519e-02 6.367846887459206739e-03 9.682815420053522137e-01
1.743589743589743613e+00 -3.256773714091171223e-02 2.102107429894709695e-02 9.657482441345326407e-01
1.846153846153846034e+00 -1.145387039995390301e-02 2.040521052179143299e-02 9.604951779552044488e-01
1.948717948717948678e+00 -1.366994592901585315e-04 1.361101574992258992e-02 9.530146781773817244e-01
2.051282051282051100e+00 3.689637022622543547e-03 6.664997318633095365e-03 9.437158815806170331e-01
2.153846153846153744e+00 3.518084637248600557e-03 2.094239859917839536e-03 9.330156760748729017e-01
2.256410256410256387e+00 2.115091764825410836e-03 -1.306402596619590448e-05 9.213674859570711861e-01
2.358974358974359031e+00 8.823953606414492237e-04 -5.535393236802476713e-04 9.092561253091632212e-01
2.461538461538461675e+00 2.088966952228280645e-04 -4.445966595687655541e-04 8.971760982441561172e-01
2.564102564102563875e+00 -3.036542606464775356e-05 -2.183918157652995663e-04 8.856058908091913873e-01
2.666666666666666519e+00 -6.214110690269383710e-05 -7.260692145670994161e-05 8.749832338879220961e-01
2.769230769230769162e+00 -3.803038185954329422e-05 -9.019547172903753888e-06 8.656852819202747185e-01
2.871794871794871806e+00 -1.501955086091588422e-05 7.210746211817923256e-06 8.580144480918007188e-01
2.974358974358974450e+00 -3.716701156907123886e-06 8.162737448426953842e-06 8.521901814197793135e-01
3.076923076923076650e+00 1.715720283059801513e-06 1.010101916664114529e-06 8.483465376074409425e-01
3.179487179487179294e+00 -1.207933496769380004e-06 -2.645384722453679282e-06 8.465340744068531320e-01
3.282051282051281937e+00 -2.001543208814889164e-06 -1.669834019022078269e-06 8.467257747917623645e-01
3.384615384615384581e+00 -2.903172254814993866e-07 9.178949419661500251e-07 8.488258140814169961e-01
3.487179487179487225e+00 -1.944125904794384447e-06 5.307418895412625995e-07 8.526803859620815107e-01
3.589743589743589425e+00 1.991721556449468481e-06 -1.257294236417685569e-06 8.580897540944212309e-01
3.692307692307692069e+00 -9.002546656759575567e-07 1.440657972327247619e-06 8.648208691642988999e-01
3.794871794871794712e+00 3.261399284932723636e-06 -1.890573734000540791e-06 8.726201430003113213e-01
3.897435897435897356e+00 2.998322077998039957e-07 7.705528514707866760e-07 8.812254339458976959e-01
4.000000000000000000e+00 -6.755154101758652447e-07 -1.210769946926268801e-06 8.903770834084936414e-01
