0.000000000000000000e+00 2.079951257191188151e-09 -2.790496941974944839e-09 -1.000000000000000000e+00
1.538461538461538547e-01 -6.054654032719600787e-01 -1.267716523256303685e-01 -7.857039226581519209e-01
3.076923076923077094e-01 -8.859490202581251639e-01 -3.791859367524411661e-01 -2.670102503842303188e-01
4.615384615384615641e-01 -6.960369356356870263e-01 -6.565358625600289377e-01 2.906466277150634991e-01
6.153846153846154188e-01 -1.954464436375494274e-01 -7.007485057968086961e-01 6.861049268135653856e-01
7.692307692307692735e-01 2.306495981036424392e-01 -4.070126570093635099e-01 8.838180849150178986e-01
9.230769230769231282e-01 2.921197674753419071e-01 8.770241164859499117e-04 9.563792029675759476e-01
1.076923076923077094e+00 6.631534102649011553e-02 1.880715653125140108e-01 9.799125738854638223e-01
1.230769230769230838e+00 -1.179845410056253319e-01 8.207492532790888751e-02 9.896168013126624974e-01
1.384615384615384581e+00 -7.674190000960363911e-02 -7.614440175846293180e-02 9.941384441132183891e-01
1.538461538461538547e+00 5.208633083025435845e-02 -7.041410971141459640e-02 9.961564498075737850e-01
1.692307692307692513e+00 6.328986509191297793e-02 3.418513206938400550e-02 9.974090344488492077e-01
1.846153846153846256e+00 -2.363378982459934247e-02 5.475185058994373744e-02 9.982198403229133321e-01
2.000000000000000000e+00 -4.937890231889573156e-02 -1.750469884799867037e-02 9.986263435583021542e-01
2.153846153846154188e+00 1.157730931399813569e-02 -4.473998668605027457e-02 9.989312514343092753e-01
2.307692307692307931e+00 3.926676484738995943e-02 8.147857268102565859e-03 9.991952564444782636e-01
2.461538461538461675e+00 -6.826904137990297966e-03 3.587197649841900038e-02 9.993328121978279910e-01
2.615384615384615419e+00 -3.348615088960318203e-02 -4.691030272447587607e-03 9.994279267878172224e-01
2.769230769230769162e+00 3.197920002885273547e-03 -3.005683006464510490e-02 9.995428536105605000e-01
2.923076923076923350e+00 2.757332923231542096e-02 3.394533852217308800e-03 9.996138138512170590e-01
3.076923076923077094e+00 -2.989519095581795460e-03 2.641042716818811295e-02 9.996465162892488321e-01
3.230769230769230838e+00 -2.442170797546467167e-02 -2.126098081933648111e-03 9.996993010380967881e-01
3.384615384615385025e+00 2.593260011728158385e-03 -2.230387240643842348e-02 9.997477051683981708e-01
3.538461538461538769e+00 2.152578487590349476e-02 3.192146378507202883e-03 9.997630327498334690e-01
3.692307692307692513e+00 -2.799703397044035411e-03 2.060900967275212936e-02 9.997835337517292364e-01
3.846153846153846256e+00 -1.884826439502461023e-02 -2.986492891559940771e-03 9.998177489896767911e-01
4.000000000000000000e+00 4.011936170633039617e-03 -1.786912682095127824e-02 9.998321443547085741e-01
4.153846153846154188e+00 1.754348086429636383e-02 4.255180656961487715e-03 9.998369073836071985e-01
4.307692307692308376e+00 -4.141725102781743800e-03 1.636930565447124175e-02 9.998573046001549836e-01
4.461538461538461675e+00 -1.504907557605445791e-02 -4.982527183688934339e-03 9.998742180474256003e-01
4.615384615384615863e+00 5.832000034342583843e-03 -1.468385243227400896e-02 9.998750547355005347e-01
4.769230769230769162e+00 1.415594207440785089e-02 5.796302373191411506e-03 9.998828792251678310e-01
4.923076923076923350e+00 -6.099219984879098756e-03 1.281705429644644512e-02 9.998991440593805180e-01
5.076923076923077538e+00 -1.195243153688789299e-02 -7.123253823095386517e-03 9.999030843943048641e-01
5.230769230769230838e+00 7.554577858467637075e-03 -1.171177867005230092e-02 9.999027662524940796e-01
5.384615384615385025e+00 1.079752189176255879e-02 7.463154772149920013e-03 9.999137490718886800e-01
5.538461538461538325e+00 -8.068845113851185261e-03 9.495305625771260222e-03 9.999222635049226371e-01
5.692307692307692513e+00 -8.942530322320386277e-03 -8.903030184121684190e-03 9.999202793691920332e-01
5.846153846153846700e+00 8.924988734954585057e-03 -8.508168465661920463e-03 9.999238759152737632e-01
6.000000000000000000e+00 7.283044339855096125e-03 8.895040065194564916e-03 9.999338226501294224e-01
