0.000000000000000000e+00 7.570139159239909588e-10 -1.796295228855007642e-09 -1.000000000000000000e+00
1.538461538461538547e-01 -6.066537133165463835e-01 2.445266107406769418e-01 -7.564090719015319486e-01
3.076923076923077094e-01 -9.241978742864664920e-01 3.444229039628909361e-01 -1.648963662327381507e-01
4.615384615384615641e-01 -8.381846966449584269e-01 2.910052724884553133e-01 4.612238650507068383e-01
6.153846153846154188e-01 -4.675929915638888934e-01 2.106876408011301438e-01 8.584581013061636234e-01
7.692307692307692735e-01 -6.935379431344732004e-02 2.306202594895622182e-01 9.705653469249314602e-01
9.230769230769231282e-01 1.422972602923189001e-01 3.492524494961052328e-01 9.261545661521128903e-01
1.076923076923077094e+00 1.308543096299264186e-01 4.430060643990468838e-01 8.869090260526653058e-01
1.230769230769230838e+00 2.923974581960689378e-02 3.991766668971433729e-01 9.164006932445454279e-01
1.384615384615384581e+00 3.571109576910730388e-03 2.358930312465732648e-01 9.717688146291283413e-01
1.538461538461538547e+00 1.077418060750942597e-01 8.541699852555074968e-02 9.905006681982664318e-01
1.692307692307692513e+00 2.527041044575210615e-01 6.031650531090711198e-02 9.656576409023209795e-01
1.846153846153846256e+00 3.089285164163638742e-01 1.420732743963543099e-01 9.404082894326107889e-01
2.000000000000000000e+00 2.385362292589454647e-01 2.066481820658513380e-01 9.488873711806018463e-01
2.153846153846154188e+00 1.289124012481840387e-01 1.568992632942152743e-01 9.791619663532342699e-01
2.307692307692307931e+00 9.898091700724011288e-02 2.204776693011007566e-02 9.948435337557985925e-01
2.461538461538461675e+00 1.770153076000232917e-01 -7.800230917735459513e-02 9.811093010707403472e-01
2.615384615384615419e+00 2.753247164348570641e-01 -6.228647828567837608e-02 9.593268848770518664e-01
2.769230769230769162e+00 2.859440432819351230e-01 2.688374380803770780e-02 9.578645423749654331e-01
2.923076923076923350e+00 1.952937719246089221e-01 7.245034257298085811e-02 9.780618965684320099e-01
3.076923076923077094e+00 9.669331213533305380e-02 9.350302042574185069e-03 9.952688474333131197e-01
3.230769230769230838e+00 8.898464150017403040e-02 -1.074136415519734711e-01 9.902221535735032942e-01
3.384615384615385025e+00 1.707778150648643911e-01 -1.650172750899479568e-01 9.713892584430393606e-01
3.538461538461538769e+00 2.436511259323314305e-01 -1.156623553685457578e-01 9.629372468250868566e-01
3.692307692307692513e+00 2.201329148502162991e-01 -2.699854518988999141e-02 9.750927807507896450e-01
3.846153846153846256e+00 1.185118551433368556e-01 -6.670258246232931704e-03 9.929284616584915790e-01
4.000000000000000000e+00 4.172338174473386174e-02 -8.476424303694980733e-02 9.955256702398694868e-01
4.153846153846154188e+00 6.418046570317878508e-02 -1.825856498844441456e-01 9.810899989234769247e-01
4.307692307692308376e+00 1.506159875731864772e-01 -2.002334085034205013e-01 9.680980541405557194e-01
4.461538461538461675e+00 1.960023840695871433e-01 -1.262821329974624651e-01 9.724345119547141980e-01
4.615384615384615863e+00 1.416867284586716125e-01 -4.915369150485854322e-02 9.886881934959642626e-01
4.769230769230769162e+00 3.960101868689889365e-02 -5.875130944892478779e-02 9.974857880783484232e-01
4.923076923076923350e+00 -5.912638136415723777e-03 -1.476621436657516717e-01 9.890179749601756276e-01
5.076923076923077538e+00 4.601287725987118077e-02 -2.204792065593171591e-01 9.743023010402231954e-01
5.230769230769230838e+00 1.281013200262460239e-01 -2.000623905004816350e-01 9.713691076355945864e-01
5.384615384615385025e+00 1.403823926545747780e-01 -1.127693736630999144e-01 9.836516176935894418e-01
5.538461538461538325e+00 6.148875283219540355e-02 -5.829508099841386459e-02 9.964026662551376257e-01
5.692307692307692513e+00 -2.809007455901582628e-02 -9.846129010604569298e-02 9.947428194904394116e-01
5.846153846153846700e+00 -3.641190839545120628e-02 -1.890061192417763491e-01 9.812976777926848415e-01
6.000000000000000000e+00 3.733025088599652153e-02 -2.295121789429977188e-01 9.725860443180380788e-01
