0.000000000000000000e+00 -5.786327094365362837e-09 -1.049426857264202525e-09 -1.000000000000000000e+00
1.538461538461538547e-01 -1.585352180271442646e-01 -6.388505209392421058e-01 -7.528151824059468034e-01
3.076923076923077094e-01 -9.224361191248973968e-02 -9.807178303708435907e-01 -1.722601735550282898e-01
4.615384615384615641e-01 1.443576432978121993e-01 -8.985492481737618053e-01 4.144406364494422346e-01
6.153846153846154188e-01 3.030033081874124457e-01 -5.316713007442365191e-01 7.908914223799157206e-01
7.692307692307692735e-01 2.562831429573679265e-01 -1.728048402025745833e-01 9.510284207156345371e-01
9.230769230769231282e-01 1.109039688706681820e-01 -5.272152571066023030e-03 9.938167334304710554e-01
1.076923076923077094e+00 1.736861545916626101e-02 1.098380918373312309e-02 9.997887369400041413e-01
1.230769230769230838e+00 -1.296760107255612044e-03 -3.569660094093043794e-03 9.999927694242920495e-01
1.384615384615384581e+00 9.466116365813249597e-04 -2.607675387049723705e-03 9.999961379915923709e-01
1.538461538461538547e+00 -7.105334130932618088e-04 3.895217374010825646e-04 9.999996670671675858e-01
1.692307692307692513e+00 -9.864541952638119539e-04 -2.563847655390320314e-04 9.999994748799654332e-01
1.846153846153846256e+00 8.323708693098712404e-05 1.312363257607926511e-04 9.999999868753679522e-01
2.000000000000000000e+00 -1.303325352123426914e-04 5.107764394612478859e-04 9.999998579112530095e-01
2.153846153846154188e+00 -3.919270594502829161e-05 2.914169188205511135e-05 9.999999984314190682e-01
2.307692307692307931e+00 2.722303764806066595e-04 8.892567675695313705e-05 9.999999571648219288e-01
2.461538461538461675e+00 6.009837395833438425e-05 1.206116047423854825e-04 9.999999899931190095e-01
2.615384615384615419e+00 5.706272569849712094e-05 -1.197166985835613362e-04 9.999999902937933838e-01
2.769230769230769162e+00 1.419413237196824368e-04 -4.121228065977787308e-05 9.999999880711806233e-01
2.923076923076923350e+00 -2.187545465507382948e-05 -8.664875046316968351e-06 9.999999995221161564e-01
3.076923076923077094e+00 -9.039598484174510631e-06 -1.209445691054343135e-04 9.999999918061851512e-01
3.230769230769230838e+00 1.962671824502616280e-05 -2.317300813855268092e-05 9.999999992849720742e-01
3.384615384615385025e+00 -7.094417879675240471e-05 -8.029189539749456012e-06 9.999999969290100932e-01
3.538461538461538769e+00 -3.315239086186754744e-05 -5.623001766599137281e-05 9.999999973833962885e-01
3.692307692307692513e+00 -2.074588467386470847e-06 1.479938709983310098e-05 9.999999997503626892e-01
3.846153846153846256e+00 -6.581209436987950465e-05 1.657000312922571181e-05 9.999999971979766089e-01
4.000000000000000000e+00 -1.520816887642635117e-05 -6.072134060835595622e-06 9.999999997169701782e-01
4.153846153846154188e+00 -2.094669553568032598e-06 4.090040200404209992e-05 9.999999988401239159e-01
4.307692307692308376e+00 -3.365053403991299084e-05 2.228889060501234960e-05 9.999999988662646722e-01
4.461538461538461675e+00 3.960407585880850850e-06 -4.729634860273683367e-07 9.999999999363033965e-01
4.615384615384615863e+00 8.643649430742644265e-06 4.170307196911724715e-05 9.999999987631151832e-01
4.769230769230769162e+00 -4.790721273458932740e-06 9.800946410902588196e-06 9.999999998304517357e-01
4.923076923076923350e+00 2.473427812998962104e-05 -4.169435436088035158e-07 9.999999994878376874e-01
5.076923076923077538e+00 1.651220174731281916e-05 2.726866899943424351e-05 9.999999992347315958e-01
5.230769230769230838e+00 -1.049686608939108518e-09 -5.785805620559764111e-09 1.000000000003777867e+00
5.384615384615385025e+00 2.827646273474815789e-05 -4.446831270551660346e-06 9.999999993540806820e-01
5.538461538461538325e+00 7.821939739136791447e-06 7.320240414856097981e-06 9.999999998355828534e-01
5.692307692307692513e+00 2.205914656189766866e-06 -1.267190090134622594e-05 9.999999998005105750e-01
5.846153846153846700e+00 2.056717608896843719e-05 -6.000195083504726405e-06 9.999999995888456672e-01
6.000000000000000000e+00 -1.059432230123381162e-09 -5.783991366597817827e-09 1.000000000004649614e+00
