0.000000000000000000e+00 -1.432851025632105973e-09 -1.154751488817044237e-09 -1.000000000000000000e+00
1.538461538461538547e-01 6.424864138206161090e-01 1.109974857072059673e-01 -7.582105783783187336e-01
3.076923076923077094e-01 9.472876546256715491e-01 2.608315556470265917e-01 -1.860107506068559846e-01
4.615384615384615641e-01 8.336849310549703240e-01 3.803844025319567113e-01 4.003316392016721958e-01
6.153846153846154188e-01 5.006092104191353087e-01 3.689405849867049003e-01 7.831131595772383713e-01
7.692307692307692735e-01 2.110139393151597431e-01 2.366938216828180785e-01 9.483912696529828157e-01
9.230769230769231282e-01 7.487475464012773030e-02 9.427076345761176146e-02 9.927263778029669083e-01
1.076923076923077094e+00 3.935529378212507257e-02 1.917146087063798313e-02 9.990411300841579578e-01
1.230769230769230838e+00 2.595977747071341254e-02 -1.167316313255688590e-03 9.996621707735500184e-01
1.384615384615384581e+00 1.241626959231373339e-02 -6.328710357778974394e-03 9.999028099626267041e-01
1.538461538461538547e+00 4.852636749964238730e-03 -8.831794798712346711e-03 9.999491666952637914e-01
1.692307692307692513e+00 1.484945923942701529e-03 -7.180441529958025461e-03 9.999730743162671409e-01
1.846153846153846256e+00 -1.602603628799414200e-03 -4.712518502877516280e-03 9.999875811080632948e-01
2.000000000000000000e+00 -2.957034063269089498e-03 -3.509804020360881432e-03 9.999894399507859299e-01
2.153846153846154188e+00 -2.717852930838493726e-03 -1.862607067683581460e-03 9.999945506739095213e-01
2.307692307692307931e+00 -2.799582746602640500e-03 -2.242733045170494741e-04 9.999960375464667095e-01
2.461538461538461675e+00 -2.627305269547566911e-03 3.220828658059026774e-04 9.999964792427556981e-01
2.615384615384615419e+00 -1.737345744858017228e-03 8.138025592419476442e-04 9.999981465598832830e-01
2.769230769230769162e+00 -1.238283880303702724e-03 1.461365755431616193e-03 9.999981524236125630e-01
2.923076923076923350e+00 -9.604458187935255862e-04 1.442095836777119826e-03 9.999984869627588369e-01
3.076923076923077094e+00 -2.890914957635188883e-04 1.286005560519995006e-03 9.999991219069551684e-01
3.230769230769230838e+00 1.425014011708176584e-04 1.420631556801679740e-03 9.999989706624110575e-01
3.384615384615385025e+00 2.185969425195418434e-04 1.216536084943253219e-03 9.999992272505918711e-01
3.538461538461538769e+00 5.513243453851392802e-04 8.394542724905812089e-04 9.999994883117354627e-01
3.692307692307692513e+00 8.099835693153456398e-04 7.845236117686884116e-04 9.999993560516790003e-01
3.846153846153846256e+00 7.173161507874969240e-04 6.039071728713025491e-04 9.999995534416620258e-01
4.000000000000000000e+00 7.825299455182708986e-04 2.278604696215008434e-04 9.999996617599689053e-01
4.153846153846154188e+00 9.147888707401328123e-04 1.320019267375218720e-04 9.999995660297213984e-01
4.307692307692308376e+00 7.419418133828560536e-04 4.998270593653823986e-05 9.999997178835576817e-01
4.461538461538461675e+00 6.503176732613729499e-04 -2.339696517031151341e-04 9.999997559050918250e-01
4.615384615384615863e+00 7.094061378347749428e-04 -3.194939401604580151e-04 9.999996914745363785e-01
4.769230769230769162e+00 5.374544657893586160e-04 -2.983496819668187902e-04 9.999998063157522488e-01
4.923076923076923350e+00 3.677279746569605927e-04 -4.779302013419509240e-04 9.999998135134661181e-01
5.076923076923077538e+00 3.903567933527561174e-04 -5.415210207317854236e-04 9.999997720822032532e-01
5.230769230769230838e+00 2.614706039032205914e-04 -4.529221512820906124e-04 9.999998591355976352e-01
5.384615384615385025e+00 7.384933122240791700e-05 -5.291796871277141667e-04 9.999998530647739026e-01
5.538461538461538325e+00 8.226352892657968086e-05 -5.810397189024628329e-04 9.999998232524305308e-01
5.692307692307692513e+00 1.061939822248131804e-05 -4.518632377851524015e-04 9.999998942430498028e-01
5.846153846153846700e+00 -1.642222102223933134e-04 -4.537834890277669866e-04 9.999998797220457369e-01
6.000000000000000000e+00 -1.602224784988450510e-04 -4.969400895894057410e-04 9.999998595813626157e-01
