0.000000000000000000e+00 -1.610396572504517776e-09 -1.102062738203960336e-09 -1.000000000000000000e+00
1.538461538461538547e-01 -6.547171640851882080e-01 7.606971344501450849e-02 -7.520207922947472756e-01
3.076923076923077094e-01 -9.862207276410746015e-01 6.866577598230683144e-02 -1.503767944031625670e-01
4.615384615384615641e-01 -8.745699657069038180e-01 9.836583543292309884e-04 4.848630554126662773e-01
6.153846153846154188e-01 -4.658808184861256696e-01 -1.222027570390735174e-02 8.847544223647602069e-01
7.692307692307692735e-01 -5.314971445553341722e-02 1.096865872223392324e-01 9.925423641456146973e-01
9.230769230769231282e-01 1.349063020231451859e-01 3.111640847429518186e-01 9.407266419814548364e-01
1.076923076923077094e+00 8.022506479001631496e-02 4.374603968158031764e-01 8.956438100227893662e-01
1.230769230769230838e+00 -5.025192452679019817e-02 3.818267346960041997e-01 9.228601420339197503e-01
1.384615384615384581e+00 -7.040413512824500453e-02 1.948084365557582742e-01 9.783081037771781396e-01
1.538461538461538547e+00 6.379654267326176353e-02 4.007212565144261524e-02 9.971569359019625267e-01
1.692307692307692513e+00 2.346361725091575534e-01 3.745843089840682205e-02 9.713575933385318883e-01
1.846153846153846256e+00 2.916952313434867938e-01 1.499071681251183674e-01 9.446859486609597845e-01
2.000000000000000000e+00 2.015237368540844509e-01 2.288257370358604825e-01 9.523747056437974479e-01
2.153846153846154188e+00 7.455900486647593084e-02 1.692552146844151228e-01 9.827451997268814576e-01
2.307692307692307931e+00 4.816317320953623915e-02 1.507773987930234247e-02 9.987248911012186481e-01
2.461538461538461675e+00 1.473931947447238433e-01 -9.195599073164335835e-02 9.847914412781307858e-01
2.615384615384615419e+00 2.643878733009573656e-01 -6.300879755954313932e-02 9.623516319676197472e-01
2.769230769230769162e+00 2.747519926097100051e-01 4.698446345953802283e-02 9.603620635353556922e-01
2.923076923076923350e+00 1.681120620351775341e-01 1.013380485456595731e-01 9.805422386872715279e-01
3.076923076923077094e+00 5.634574403977059970e-02 2.812518951280311430e-02 9.980141330339988848e-01
3.230769230769230838e+00 5.290943436260790028e-02 -1.054243188167672679e-01 9.930170214231687220e-01
3.384615384615385025e+00 1.526563448060129502e-01 -1.682479423080774916e-01 9.738489851477383219e-01
3.538461538461538769e+00 2.395281071629146719e-01 -1.068811302681291348e-01 9.649843244415414745e-01
3.692307692307692513e+00 2.131130260663593179e-01 -1.286679827624356842e-03 9.770234394752393969e-01
3.846153846153846256e+00 9.654015822759681731e-02 2.381940362516682397e-02 9.950425458940622692e-01
4.000000000000000000e+00 9.779415487075178437e-03 -6.568569170867079310e-02 9.977914270572133537e-01
4.153846153846154188e+00 3.857063865917101375e-02 -1.782906740589115246e-01 9.832188552955006822e-01
4.307692307692308376e+00 1.415407494584116910e-01 -1.980775527610907638e-01 9.699093486039123135e-01
4.461538461538461675e+00 1.969865375766503002e-01 -1.113298680755045456e-01 9.740611726075416588e-01
4.615384615384615863e+00 1.367367028183971711e-01 -2.002007698938330915e-02 9.904030368878051771e-01
4.769230769230769162e+00 2.024731633136899259e-02 -2.884622453632595604e-02 9.993782150045550372e-01
4.923076923076923350e+00 -3.179894199103784624e-02 -1.307065328900123002e-01 9.909089977743249511e-01
5.076923076923077538e+00 2.907925910037077039e-02 -2.159186178611396389e-01 9.759749065171992033e-01
5.230769230769230838e+00 1.265516999967362666e-01 -1.938703341043974682e-01 9.728268081568713921e-01
5.384615384615385025e+00 1.448052832232880616e-01 -9.272326700385220832e-02 9.851034060541806747e-01
5.538461538461538325e+00 5.692832364630491526e-02 -2.712501226837025353e-02 9.980087508924756490e-01
5.692307692307692513e+00 -4.599714822069483899e-02 -7.072112325674739797e-02 9.964337664314580900e-01
5.846153846153846700e+00 -5.686859669439605497e-02 -1.752805319669662742e-01 9.828719223765789437e-01
6.000000000000000000e+00 2.842479528937058575e-02 -2.249430491980174696e-01 9.739537251930976414e-01
