0.000000000000000000e+00 -3.419577250743129390e-09 4.658696850476115110e-09 -1.000000000000000000e+00
1.538461538461538547e-01 5.047241097987107405e-01 -3.995140882885815925e-01 -7.652687809319933532e-01
3.076923076923077094e-01 8.723120117644707072e-01 -4.423166618854822985e-01 -2.083691151488173410e-01
4.615384615384615641e-01 9.228717452738635085e-01 -1.152792882889557835e-01 3.674356689658632713e-01
6.153846153846154188e-01 6.105611564921484824e-01 2.454702112904607048e-01 7.529631748008736025e-01
7.692307692307692735e-01 1.735598635166778203e-01 3.226055645282114304e-01 9.304836032024795811e-01
9.230769230769231282e-01 -7.079924212554632168e-02 1.493332638942352353e-01 9.862483531141944537e-01
1.076923076923077094e+00 -6.431421366542901252e-02 -9.742216058998276473e-03 9.978818969930771665e-01
1.230769230769230838e+00 6.000951434199749968e-03 -2.711819545877732635e-02 9.996141097465962577e-01
1.384615384615384581e+00 1.255308029443159140e-02 6.019121898264173653e-03 9.999030305529860163e-01
1.538461538461538547e+00 -5.614682013299737359e-03 5.537478873396606965e-03 9.999688693075273749e-01
1.692307692307692513e+00 -1.957869914217485238e-03 -4.568107392624598702e-03 9.999876257038241567e-01
1.846153846153846256e+00 3.310331274855073287e-03 8.376653804346512536e-05 9.999945007856789747e-01
2.000000000000000000e+00 -1.065655067660325247e-03 2.139241426014248243e-03 9.999971316473288407e-01
2.153846153846154188e+00 -1.054391632051607892e-03 -1.394612298755436557e-03 9.999984623190347754e-01
2.307692307692307931e+00 1.350743901481942649e-03 -2.252962477903948033e-04 9.999990548563468806e-01
2.461538461538461675e+00 -3.254164164309403251e-04 1.015325532841915854e-03 9.999994256089816957e-01
2.615384615384615419e+00 -5.910714149050777218e-04 -6.385024792912798348e-04 9.999996164676819843e-01
2.769230769230769162e+00 6.990069339870788210e-04 -1.849137909297926714e-04 9.999997343562334606e-01
2.923076923076923350e+00 -1.617752673414590446e-04 5.792038646141942906e-04 9.999998155935513333e-01
3.076923076923077094e+00 -3.672205132958724651e-04 -3.710682552498787475e-04 9.999998605698813270e-01
3.230769230769230838e+00 4.282829257584607656e-04 -1.127785027521668935e-04 9.999998992059483394e-01
3.384615384615385025e+00 -1.132259314029458730e-04 3.753763173688430847e-04 9.999999206924909956e-01
3.538461538461538769e+00 -2.382713320837349371e-04 -2.521449751806980645e-04 9.999999376321372369e-01
3.692307692307692513e+00 3.006198824415366342e-04 -5.899750205245468128e-05 9.999999511138993880e-01
3.846153846153846256e+00 -9.666126681414844075e-05 2.620547877536041643e-04 9.999999591876677085e-01
4.000000000000000000e+00 -1.513127236604005013e-04 -1.959366658065229408e-04 9.999999677434328049e-01
4.153846153846154188e+00 2.253018720955313864e-04 -1.994193778958469349e-05 9.999999729291302319e-01
4.307692307692308376e+00 -9.164928353851608742e-05 1.857834170649791438e-04 9.999999771661257641e-01
4.461538461538461675e+00 -9.311312338684420002e-05 -1.632808794685850569e-04 9.999999810731675653e-01
4.615384615384615863e+00 1.744257824189168174e-04 8.615129696669214521e-06 9.999999835765329692e-01
4.769230769230769162e+00 -9.304869700924600921e-05 1.300546582592722572e-04 9.999999861261448242e-01
4.923076923076923350e+00 -5.204544810869753525e-05 -1.396690297877416437e-04 9.999999878739891379e-01
5.076923076923077538e+00 1.373814522450204087e-04 2.967978489574450718e-05 9.999999891579023359e-01
5.230769230769230838e+00 -9.312695685221352706e-05 8.799148440306000011e-05 9.999999909024345213e-01
5.384615384615385025e+00 -1.988255530275999595e-05 -1.211007878932635469e-04 9.999999916172520598e-01
5.538461538461538325e+00 1.046443892246541580e-04 4.726865083439375217e-05 9.999999925991072125e-01
5.692307692307692513e+00 -9.365348648501597376e-05 5.252473336402066159e-05 9.999999934794092660e-01
5.846153846153846700e+00 4.953959767418445056e-06 -1.027968775601701307e-04 9.999999939777355351e-01
6.000000000000000000e+00 7.238460979285958911e-05 5.719091941029614623e-05 9.999999950883263766e-01
