0.000000000000000000e+00 1.077977327384100591e-09 1.998279828141305847e-09 -1.000000000000000000e+00
1.538461538461538547e-01 -3.624598588602697125e-01 -5.033333037815528321e-01 -7.843779926518582579e-01
3.076923076923077094e-01 -6.063278894913347594e-01 -7.540264090621848769e-01 -2.525021431250426551e-01
4.615384615384615641e-01 -6.930270504035129786e-01 -6.445666410425835435e-01 3.227934740837812844e-01
6.153846153846154188e-01 -6.832648431184626947e-01 -2.685014290209130627e-01 6.789840669809145135e-01
7.692307692307692735e-01 -6.819718218197472481e-01 1.458173564965054847e-01 7.166710163421402546e-01
9.230769230769231282e-01 -7.521390071754908702e-01 3.790884226426024517e-01 5.390127425564835706e-01
1.076923076923077094e+00 -8.648980234647998255e-01 3.505265997004931577e-01 3.592099353797730266e-01
1.230769230769230838e+00 -9.254465128419687714e-01 1.531203800906075774e-01 3.464849273926867701e-01
1.384615384615384581e+00 -8.549071620065005206e-01 -2.243703441101851936e-02 5.182521346530536421e-01
1.538461538461538547e+00 -6.637500740287564094e-01 -2.058986154986219841e-02 7.476493848109517781e-01
1.692307692307692513e+00 -4.570216044093355912e-01 1.782920837717390239e-01 8.713902931925824324e-01
1.846153846153846256e+00 -3.631731443940258708e-01 4.533277080983461604e-01 8.139852547903355662e-01
2.000000000000000000e+00 -4.379091028308802480e-01 6.329528150821888133e-01 6.384099061756567384e-01
2.153846153846154188e+00 -6.166764185901607576e-01 6.148231569897689708e-01 4.915857003627432387e-01
2.307692307692307931e+00 -7.554740477632025941e-01 4.339802223248385715e-01 4.907890748204492004e-01
2.461538461538461675e+00 -7.336967402506751057e-01 2.347622440357893248e-01 6.376022215403462923e-01
2.615384615384615419e+00 -5.444627352569466616e-01 1.685600522050846872e-01 8.216576076607445822e-01
2.769230769230769162e+00 -3.041133911186650329e-01 2.893478889811011978e-01 9.076202171075975489e-01
2.923076923076923350e+00 -1.707162926473819176e-01 5.188613384334049838e-01 8.376237876748571232e-01
3.076923076923077094e+00 -2.289294379966543280e-01 7.038434919069058715e-01 6.724273046634546835e-01
3.230769230769230838e+00 -4.258232914692808846e-01 7.240564552428528922e-01 5.425613254671723951e-01
3.384615384615385025e+00 -6.064154235118061065e-01 5.755723142505611012e-01 5.485737294338222103e-01
3.538461538461538769e+00 -6.251692194830005267e-01 3.717497661952080534e-01 6.862428222786358667e-01
3.692307692307692513e+00 -4.528802812244639986e-01 2.623751760544887901e-01 8.520767305135722447e-01
3.846153846153846256e+00 -2.000686757498036095e-01 3.283444667672374973e-01 9.231174540262441219e-01
4.000000000000000000e+00 -3.814338644853032534e-02 5.258155199925166334e-01 8.497287494891595516e-01
4.153846153846154188e+00 -7.455188043072316639e-02 7.183854676171659293e-01 6.916128488691742904e-01
4.307692307692308376e+00 -2.732429713150618111e-01 7.739983471241324020e-01 5.711586404706341380e-01
4.461538461538461675e+00 -4.794038631675297535e-01 6.581384546924718970e-01 5.805028260916802463e-01
4.615384615384615863e+00 -5.316391163571549949e-01 4.574960346416125923e-01 7.127570170605529443e-01
4.769230769230769162e+00 -3.801713024403961527e-01 3.178489418000873257e-01 8.685732036598116101e-01
4.923076923076923350e+00 -1.242807413781322756e-01 3.404408981015527025e-01 9.320079281354063383e-01
5.076923076923077538e+00 5.928762513223198583e-02 5.104298387870706000e-01 8.578594998625359569e-01
5.230769230769230838e+00 4.540373855247385737e-02 7.079306056950059878e-01 7.047961493960157586e-01
5.384615384615385025e+00 -1.474223799041558536e-01 7.937219435742663975e-01 5.901105523121702445e-01
5.538461538461538325e+00 -3.697238949430263766e-01 7.085678003725138785e-01 6.009948011741973461e-01
5.692307692307692513e+00 -4.499870484486837574e-01 5.152941304700553449e-01 7.293490411967985532e-01
5.846153846153846700e+00 -3.203118076922872315e-01 3.536687873822891293e-01 8.788044664848274623e-01
6.000000000000000000e+00 -6.667235761361867130e-02 3.403102552005027870e-01 9.379386708616148649e-01
