0.000000000000000000e+00 9.488473663482705189e-10 1.619517433305037500e-09 -1.000000000000000000e+00
1.538461538461538547e-01 2.171602625888011118e-01 6.063584773510408699e-01 -7.649588992734162041e-01
3.076923076923077094e-01 1.611064696219005610e-01 9.654298412753052894e-01 -2.048772931889021043e-01
4.615384615384615641e-01 -1.376308360011217480e-01 9.158936169627704960e-01 3.770710074183845628e-01
6.153846153846154188e-01 -3.795813271873748063e-01 5.201054255642983959e-01 7.651141535986256681e-01
7.692307692307692735e-01 -3.375140759344905095e-01 7.823621303172531571e-02 9.380614135484155458e-01
9.230769230769231282e-01 -1.038334224841385156e-01 -1.188683666755657592e-01 9.874650171937254806e-01
1.076923076923077094e+00 5.730814644201953634e-02 -6.161546146290457215e-02 9.964528868273602180e-01
1.230769230769230838e+00 4.262231797887770790e-02 3.339155710429993901e-02 9.985327795274284712e-01
1.384615384615384581e+00 -2.206361427167536499e-02 2.664091862016913781e-02 9.994013420656238100e-01
1.538461538461538547e+00 -1.879781103973253084e-02 -1.899792689346778418e-02 9.996426319578441966e-01
1.692307692307692513e+00 1.472154593881022829e-02 -1.430507847382868000e-02 9.997891684885182872e-01
1.846153846153846256e+00 9.079813593683188494e-03 1.258011006624881745e-02 9.998795407803617863e-01
2.000000000000000000e+00 -1.213012541176121742e-02 6.620130354853245858e-03 9.999044213777822376e-01
2.153846153846154188e+00 -4.942739892986266342e-03 -1.020560668591685531e-02 9.999356292688468262e-01
2.307692307692307931e+00 9.017738246385888223e-03 -2.308491897150886756e-03 9.999566107714547014e-01
2.461538461538461675e+00 9.676833349086082225e-04 8.823621173919720881e-03 9.999605416075761921e-01
2.615384615384615419e+00 -7.561773952565448327e-03 2.881018944803754277e-04 9.999713148542700436e-01
2.769230769230769162e+00 1.241565501745183625e-03 -6.339575453488414426e-03 9.999790878108997250e-01
2.923076923076923350e+00 6.010493336268409384e-03 2.232833243080258653e-03 9.999793982786050472e-01
3.076923076923077094e+00 -2.393201083567718466e-03 5.099876287699528846e-03 9.999840909663886279e-01
3.230769230769230838e+00 -3.770247804761687853e-03 -3.099184258051879831e-03 9.999880541674363021e-01
3.384615384615385025e+00 3.829156162713759793e-03 -3.178626403741217910e-03 9.999875803571730559e-01
3.538461538461538769e+00 2.557150692437070577e-03 3.709474740740310601e-03 9.999898168816292454e-01
3.692307692307692513e+00 -3.666067256015509424e-03 1.331127458655469165e-03 9.999923645762505142e-01
3.846153846153846256e+00 -4.990808794231383141e-04 -4.012995981071233037e-03 9.999917929841357633e-01
4.000000000000000000e+00 3.775701933109298393e-03 -1.185126722806910567e-04 9.999928364310358697e-01
4.153846153846154188e+00 -6.985845634733104693e-04 3.172291215725537520e-03 9.999946992897605913e-01
4.307692307692308376e+00 -2.999936055457872591e-03 -1.561213139397826712e-03 9.999942555850520609e-01
4.461538461538461675e+00 1.796885010606029311e-03 -2.742984471904544481e-03 9.999945983957247986e-01
4.615384615384615863e+00 1.930784261714720267e-03 2.028826975144719380e-03 9.999960560736967929e-01
4.769230769230769162e+00 -2.587339260308720457e-03 1.276461837632201233e-03 9.999958156733926851e-01
4.923076923076923350e+00 -9.821032057426755130e-04 -2.742554754642156402e-03 9.999957342483060119e-01
5.076923076923077538e+00 2.468289839547248808e-03 -3.501074124530505552e-04 9.999968727363311993e-01
5.230769230769230838e+00 -4.812313479565406837e-04 2.450970061127766275e-03 9.999968608003564352e-01
5.384615384615385025e+00 -2.473241637328105810e-03 -8.591622705663654394e-04 9.999965518470878001e-01
5.538461538461538325e+00 1.100016927936489685e-03 -1.991812618749837314e-03 9.999973931319514620e-01
5.692307692307692513e+00 1.433663501973977093e-03 1.658741374522709321e-03 9.999975789816165639e-01
5.846153846153846700e+00 -2.044803174069045187e-03 1.199901118259649648e-03 9.999971706341955757e-01
6.000000000000000000e+00 -8.037256008938643229e-04 -1.959420383673884242e-03 9.999977402585993325e-01
