0.000000000000000000e+00 -1.144962980602040644e-09 1.431738041424067955e-09 -1.000000000000000000e+00
1.538461538461538547e-01 6.083789301808038008e-01 2.477275418620318581e-01 -7.539884417301457864e-01
3.076923076923077094e-01 8.630327244291515765e-01 4.743668565979975993e-01 -1.736017266564123529e-01
4.615384615384615641e-01 6.974250625872132625e-01 5.829427031309271090e-01 4.168505585070910735e-01
6.153846153846154188e-01 3.457967534850602820e-01 4.954907674208424151e-01 7.968103256061009887e-01
7.692307692307692735e-01 8.725075958237749063e-02 2.800466858230090672e-01 9.560116539282033088e-01
9.230769230769231282e-01 7.306735668115862947e-03 9.350936567857455473e-02 9.955911370808534500e-01
1.076923076923077094e+00 1.459162608619018510e-02 1.453528735400461472e-02 9.997877724284266465e-01
1.230769230769230838e+00 1.729678634997002667e-02 2.361033427972062532e-03 9.998475169346360270e-01
1.384615384615384581e+00 6.866732629535902965e-03 -1.043946069792789626e-03 9.999758373358039742e-01
1.538461538461538547e+00 2.303512739090892835e-03 -5.598486617789242246e-03 9.999816385655203588e-01
1.692307692307692513e+00 1.657125495922970402e-03 -4.318712605109926300e-03 9.999892724311132408e-01
1.846153846153846256e+00 -1.048349778811594277e-03 -2.008385504729537797e-03 9.999974184120720144e-01
2.000000000000000000e+00 -2.270610359703747420e-03 -2.092972061288384325e-03 9.999952117438470900e-01
2.153846153846154188e+00 -1.348963148733528430e-03 -1.150524274475757652e-03 9.999984160264965283e-01
2.307692307692307931e+00 -1.494808832307221438e-03 4.296706430144967351e-04 9.999987795405247404e-01
2.461538461538461675e+00 -1.753959889832591539e-03 4.192413238755742476e-04 9.999983614865389780e-01
2.615384615384615419e+00 -7.774852157071666069e-04 4.263281272707292895e-04 9.999996002707154386e-01
2.769230769230769162e+00 -3.561463744404791670e-04 1.149209738709952577e-03 9.999992675468912795e-01
2.923076923076923350e+00 -5.330744629827492784e-04 1.020608245476424449e-03 9.999993287369077777e-01
3.076923076923077094e+00 3.892559296464004684e-05 5.758972901276037098e-04 9.999998289091124315e-01
3.230769230769230838e+00 4.675825834681237203e-04 8.388140133131494203e-04 9.999995317816884333e-01
3.384615384615385025e+00 2.265877384765208101e-04 7.548232224370438883e-04 9.999996835050917188e-01
3.538461538461538769e+00 4.018944299939812559e-04 2.296598698781493887e-04 9.999998891697888803e-01
3.692307692307692513e+00 7.359264485602275098e-04 2.757587210130835729e-04 9.999996852575502304e-01
3.846153846153846256e+00 4.801963087488999356e-04 3.076582492835538561e-04 9.999998329203489966e-01
4.000000000000000000e+00 3.933776881203995129e-04 -1.195226318329434940e-04 9.999999121551386150e-01
4.153846153846154188e+00 6.357369964875203474e-04 -1.779527979572163550e-04 9.999997770149596787e-01
4.307692307692308376e+00 4.282184148249210077e-04 -3.812605133345477399e-05 9.999999041206087957e-01
4.461538461538461675e+00 2.024323214306894406e-04 -3.097810168547958463e-04 9.999999285013032591e-01
4.615384615384615863e+00 3.751288057314036521e-04 -4.183884065211707364e-04 9.999998377182802711e-01
4.769230769230769162e+00 2.583628390007273903e-04 -2.177626346552200671e-04 9.999999401264219046e-01
4.923076923076923350e+00 -8.258393864832812292e-06 -3.440108441967636090e-04 9.999999379617738882e-01
5.076923076923077538e+00 9.760888677173151654e-05 -4.753691094983560289e-04 9.999998783899778365e-01
5.230769230769230838e+00 7.812550103044319633e-05 -2.598080249873031236e-04 9.999999609049033955e-01
5.384615384615385025e+00 -1.714002474745047479e-04 -2.678384942719589257e-04 9.999999468017520821e-01
5.538461538461538325e+00 -1.207181802446867622e-04 -4.086910319970850835e-04 9.999999057567166005e-01
5.692307692307692513e+00 -5.728341963711033901e-05 -2.235365825134154967e-04 9.999999713972991255e-01
5.846153846153846700e+00 -2.619965451738432609e-04 -1.437250387645392779e-04 9.999999528584031516e-01
6.000000000000000000e+00 -2.585461501546420984e-04 -2.784780620133602393e-04 9.999999247069472075e-01
