0.000000000000000000e+00 4.139806889922804195e-09 2.936944791222842637e-09 -1.000000000000000000e+00
1.538461538461538547e-01 -2.409785791678711320e-01 -5.701700609552045051e-01 -7.853785706873753769e-01
3.076923076923077094e-01 -2.146416553970523777e-01 -9.404364926309561890e-01 -2.635897059455102331e-01
4.615384615384615641e-01 9.827662788110486103e-02 -9.494896723987298337e-01 2.979644174058758699e-01
6.153846153846154188e-01 4.402446507528438580e-01 -5.784576360809646767e-01 6.866962965589112899e-01
7.692307692307692735e-01 5.048893987597357080e-01 -3.482029005313561076e-02 8.624743125009396438e-01
9.230769230769231282e-01 2.262134074992904753e-01 3.387468517858159833e-01 9.132735132658236221e-01
1.076923076923077094e+00 -1.479592031681027930e-01 3.260169216103570577e-01 9.337091669553035933e-01
1.230769230769230838e+00 -2.900215735497309044e-01 3.418865176007815365e-02 9.564058072471254279e-01
1.384615384615384581e+00 -1.143774324529263781e-01 -2.050883805344056454e-01 9.720346633679384230e-01
1.538461538461538547e+00 1.479673751894128586e-01 -1.642322259930620310e-01 9.752582138216744356e-01
1.692307692307692513e+00 2.091607452864960859e-01 6.179329979434623754e-02 9.759244809489054928e-01
1.846153846153846256e+00 3.564664433443176517e-02 1.894556943452302133e-01 9.812398595616927954e-01
2.000000000000000000e+00 -1.393179047683452410e-01 8.066151232727325482e-02 9.869552965671839484e-01
2.153846153846154188e+00 -1.082854882494419246e-01 -1.114050495097281407e-01 9.878561653066325610e-01
2.307692307692307931e+00 6.742947928390399803e-02 -1.487134143453803237e-01 9.865769354689899462e-01
2.461538461538461675e+00 1.541220607260236908e-01 -3.960391650707703604e-03 9.880421871455680183e-01
2.615384615384615419e+00 4.835421736060685483e-02 1.213472540325151866e-01 9.914302198845886815e-01
2.769230769230769162e+00 -1.013851542745616702e-01 6.672169695186705440e-02 9.926059816662363700e-01
2.923076923076923350e+00 -1.006714324658281312e-01 -8.462098610411210309e-02 9.913131216323151085e-01
3.076923076923077094e+00 3.605751624834348246e-02 -1.282416394528411996e-01 9.910857947469797757e-01
3.230769230769230838e+00 1.161069530602659161e-01 -1.362468496685990960e-02 9.931419857764911541e-01
3.384615384615385025e+00 3.339483905381902124e-02 9.674180420780377487e-02 9.947479991758807483e-01
3.538461538461538769e+00 -9.372661381855548757e-02 5.509783118052845319e-02 9.940710179451428541e-01
3.692307692307692513e+00 -9.241443212825349585e-02 -7.288904433506754321e-02 9.930479399526673800e-01
3.846153846153846256e+00 2.721475461670613827e-02 -1.066364450734268998e-01 9.939243621481068658e-01
4.000000000000000000e+00 9.335808964255536135e-02 -2.743819539790436079e-03 9.956277910597634007e-01
4.153846153846154188e+00 1.554925346741990733e-02 9.040702389912767811e-02 9.957824997686041124e-01
4.307692307692308376e+00 -9.289251525271913223e-02 4.528493050710043211e-02 9.946446655807644754e-01
4.461538461538461675e+00 -7.985347387638595806e-02 -6.774561476352029821e-02 9.945007186296574986e-01
4.615384615384615863e+00 3.114264807579339434e-02 -8.553246985310654360e-02 9.958475493084952834e-01
4.769230769230769162e+00 7.953479211460906528e-02 1.527385532899439534e-02 9.967141747063480439e-01
4.923076923076923350e+00 -1.231236936171463403e-03 8.937067749229143931e-02 9.959966949172246453e-01
5.076923076923077538e+00 -9.193282169039605767e-02 3.383017022673467933e-02 9.951893002600978866e-01
5.230769230769230838e+00 -6.253131430749930830e-02 -6.639049755079434734e-02 9.958313827697982124e-01
5.384615384615385025e+00 4.156641966068828214e-02 -6.488764941191511870e-02 9.970256406820597883e-01
5.538461538461538325e+00 6.906753804197089674e-02 3.459776123750150922e-02 9.970110190891590118e-01
5.692307692307692513e+00 -1.694371530186805294e-02 8.719277126094351904e-02 9.960463779648264238e-01
5.846153846153846700e+00 -8.835840098549836708e-02 1.928193580539798099e-02 9.959011105811451658e-01
6.000000000000000000e+00 -4.123587148635869670e-02 -6.648395171635716749e-02 9.969341837892405911e-01
