0.000000000000000000e+00 3.510517907633274127e-09 7.331943739689236855e-10 -1.000000000000000000e+00
1.538461538461538547e-01 5.516778407392530781e-01 2.798421742539269896e-01 -7.857036165933108940e-01
3.076923076923077094e-01 8.459015977856338964e-01 4.616676924194715870e-01 -2.670128711770828334e-01
4.615384615384615641e-01 8.225394304528250711e-01 4.888101139104266135e-01 2.906478511222306826e-01
6.153846153846154188e-01 6.206443461699746589e-01 3.795336204325784335e-01 6.861070256591846883e-01
7.692307692307692735e-01 4.148092205215462847e-01 2.163146079510567810e-01 8.838180634440021555e-01
9.230769230769231282e-01 2.802137048941663044e-01 8.255891535234248513e-02 9.563787366108293941e-01
1.076923076923077094e+00 1.993065236293312947e-01 6.758451040451654568e-03 9.799125329708141541e-01
1.230769230769230838e+00 1.405386553496862923e-01 -3.009613906227941171e-02 9.896166952292043684e-01
1.384615384615384581e+00 9.577155176935969738e-02 -5.014912624208956587e-02 9.941385397462110252e-01
1.538461538461538547e+00 6.456532957113234050e-02 -5.918440612137933210e-02 9.961562881959558080e-01
1.692307692307692513e+00 4.101213601083939647e-02 -5.909521879593523236e-02 9.974090373824177069e-01
1.846153846153846256e+00 2.127076027415040343e-02 -5.571255515975986200e-02 9.982198405488500459e-01
2.000000000000000000e+00 6.859381692013291620e-03 -5.193794300968838235e-02 9.986263946283431281e-01
2.153846153846154188e+00 -2.560110308221896780e-03 -4.614517238366126761e-02 9.989311421033499894e-01
2.307692307692307931e+00 -1.023783422001903892e-02 -3.877344416085146822e-02 9.991952974827010836e-01
2.461538461538461675e+00 -1.661227540511579087e-02 -3.252281068174413259e-02 9.993326680749617941e-01
2.615384615384615419e+00 -2.006764674700776269e-02 -2.721170778072365404e-02 9.994280016589999205e-01
2.769230769230769162e+00 -2.163309718533063669e-02 -2.111280252693852055e-02 9.995428071193848130e-01
2.923076923076923350e+00 -2.328872328767528019e-02 -1.514990304152665293e-02 9.996137815354102507e-01
3.076923076923077094e+00 -2.426326206311353942e-02 -1.084957878813977601e-02 9.996465342784203179e-01
3.230769230769230838e+00 -2.346319349509363994e-02 -7.090966818693138218e-03 9.996993731902811264e-01
3.384615384615385025e+00 -2.228593826671808331e-02 -2.769656526192425250e-03 9.997476347741965919e-01
3.538461538461538769e+00 -2.174424819511199675e-02 8.186708780963600218e-04 9.997630689686953787e-01
3.692307692307692513e+00 -2.057687395335053640e-02 3.006504171849224208e-03 9.997835980282339108e-01
3.846153846153846256e+00 -1.835284841234471886e-02 5.223606065680252465e-03 9.998177832057419945e-01
4.000000000000000000e+00 -1.655410259016114327e-02 7.830074931852452208e-03 9.998321733578181547e-01
4.153846153846154188e+00 -1.537543454607128574e-02 9.455254626101076976e-03 9.998369471768294714e-01
4.307692307692308376e+00 -1.348282949086893057e-02 1.016094064291147431e-02 9.998573454675737660e-01
4.461538461538461675e+00 -1.110022692147707296e-02 1.131723523057583461e-02 9.998742230092282357e-01
4.615384615384615863e+00 -9.528684984202978603e-03 1.260623308593612074e-02 9.998750144894269498e-01
4.769230769230769162e+00 -8.297426812318311681e-03 1.285196048875533216e-02 9.998828652707636433e-01
4.923076923076923350e+00 -6.311262392637325205e-03 1.271559138870882212e-02 9.998991256331170030e-01
5.076923076923077538e+00 -4.328998076931607486e-03 1.322514064314593736e-02 9.999030647073856581e-01
5.230769230769230838e+00 -3.248788928882561863e-03 1.355310244405078142e-02 9.999027663189434811e-01
5.384615384615385025e+00 -2.134453542436306507e-03 1.295126419947184582e-02 9.999137479809444562e-01
5.538461538461538325e+00 -3.555575891748437301e-04 1.245693338969345795e-02 9.999222481383224226e-01
5.692307692307692513e+00 1.010686107239065941e-03 1.257816604227716961e-02 9.999202817870621596e-01
5.846153846153846700e+00 1.617640112911812762e-03 1.222137674262663808e-02 9.999239105938827477e-01
6.000000000000000000e+00 2.601011314463119901e-03 1.119525702937196332e-02 9.999338570862510434e-01
