0.000000000000000000e+00 -2.840272375080333803e-09 -2.796084955826601972e-09 -1.000000000000000000e+00
1.538461538461538547e-01 -1.504448409244882323e-01 -6.144488168929349570e-01 -7.744758046134276874e-01
3.076923076923077094e-01 -1.629172582166935057e-01 -9.582625099012765935e-01 -2.349039192468618531e-01
4.615384615384615641e-01 -5.282776611732659111e-02 -9.414588018531988567e-01 3.329473261458261724e-01
6.153846153846154188e-01 5.423725733461512433e-02 -6.870028229696572009e-01 7.246229630878286976e-01
7.692307692307692735e-01 7.847245493021315355e-02 -3.980962413578466030e-01 9.139791379699363505e-01
9.230769230769231282e-01 4.372691179251415872e-02 -1.996509807994348851e-01 9.788900561617062124e-01
1.076923076923077094e+00 6.284762816291679377e-03 -9.834012826846413868e-02 9.951326110484790544e-01
1.230769230769230838e+00 -1.162496105155701523e-02 -5.060684411626505119e-02 9.986507719401318539e-01
1.384615384615384581e+00 -1.630950128524783632e-02 -2.540744315168457293e-02 9.995439929989177186e-01
1.538461538461538547e+00 -1.561207685519540485e-02 -1.131520479952838158e-02 9.998140081645545685e-01
1.692307692307692513e+00 -1.272465470314678576e-02 -3.436199500888005576e-03 9.999130707971035648e-01
1.846153846153846256e+00 -9.436970376940113925e-03 9.688175370607156334e-04 9.999549544009221913e-01
2.000000000000000000e+00 -6.479465501584671591e-03 3.113899265227754523e-03 9.999741229806483611e-01
2.153846153846154188e+00 -3.946175804138637305e-03 3.931286923994200579e-03 9.999844569781715098e-01
2.307692307692307931e+00 -1.995419926593118651e-03 4.027067157940929058e-03 9.999898763108748811e-01
2.461538461538461675e+00 -5.808938688720687721e-04 3.635521603074983246e-03 9.999932025336526475e-01
2.615384615384615419e+00 4.498437928899536812e-04 3.040856054978925693e-03 9.999952581827800113e-01
2.769230769230769162e+00 1.090193124909304406e-03 2.400349408385225349e-03 9.999965099050520667e-01
2.923076923076923350e+00 1.448617225300768627e-03 1.725043327281863608e-03 9.999974498325665540e-01
3.076923076923077094e+00 1.633803686658809751e-03 1.117418250483153764e-03 9.999980294297741157e-01
3.230769230769230838e+00 1.637589312100746781e-03 6.091185690010542456e-04 9.999984632514820060e-01
3.384615384615385025e+00 1.536071155408298390e-03 1.578340394138499306e-04 9.999987984883161873e-01
3.538461538461538769e+00 1.391200512327058153e-03 -1.858586172116560332e-04 9.999990064661958833e-01
3.692307692307692513e+00 1.181249728784360652e-03 -4.359084414020625124e-04 9.999991995549017965e-01
3.846153846153846256e+00 9.541820818322282018e-04 -6.345650217964408663e-04 9.999993363028107929e-01
4.000000000000000000e+00 7.415606868458816513e-04 -7.517312174948785012e-04 9.999994358743111711e-01
4.153846153846154188e+00 5.189891273644260542e-04 -8.071890114150631623e-04 9.999995334780223954e-01
4.307692307692308376e+00 3.166855600247237327e-04 -8.392945916857411787e-04 9.999995919366565511e-01
4.461538461538461675e+00 1.491687927635788012e-04 -8.184314469868505257e-04 9.999996486225549708e-01
4.615384615384615863e+00 -1.253907447390362998e-05 -7.680898624203169210e-04 9.999996999733393732e-01
4.769230769230769162e+00 -1.481051481789920181e-04 -7.155282729011478576e-04 9.999997282872525872e-01
4.923076923076923350e+00 -2.490002937817179548e-04 -6.315490016365224273e-04 9.999997651283336619e-01
5.076923076923077538e+00 -3.406361044426420444e-04 -5.392735290149661088e-04 9.999997923652352849e-01
5.230769230769230838e+00 -4.033893166840823693e-04 -4.557283144668499374e-04 9.999998107607748210e-01
5.384615384615385025e+00 -4.403636294926631671e-04 -3.590884276916632553e-04 9.999998347758979333e-01
5.538461538461538325e+00 -4.734767377546945390e-04 -2.620230224929891421e-04 9.999998499460387436e-01
5.692307692307692513e+00 -4.850005018992862085e-04 -1.828430772015148453e-04 9.999998621754297989e-01
5.846153846153846700e+00 -4.781106439862223821e-04 -9.727128352372821493e-05 9.999998776616795260e-01
6.000000000000000000e+00 -4.720987831459766762e-04 -1.734342995705212553e-05 9.999998851930462784e-01
