0.000000000000000000e+00 2.357080412641715391e-12 -3.753628123258613517e-13 -1.000000000000000000e+00
1.538461538461538547e-01 6.157462208259467662e-01 -8.096408347635947189e-02 -7.837738249854210304e-01
3.076923076923077094e-01 9.688698122518599742e-01 -3.190146944750112123e-02 -2.455067887584479469e-01
4.615384615384615641e-01 9.200910264755740586e-01 1.948583124414167977e-01 3.397980886265689060e-01
6.153846153846154188e-01 5.176424397579787451e-01 5.286975900732659994e-01 6.726999054714681847e-01
7.692307692307692735e-01 -2.823874288158322726e-02 8.125508290958031177e-01 5.822059117589695187e-01
9.230769230769231282e-01 -4.476273656822875036e-01 8.869702429719635850e-01 1.136377136938999666e-01
1.076923076923077094e+00 -5.401984319596101480e-01 6.817357108759481976e-01 -4.933782264262583372e-01
1.230769230769230838e+00 -2.690875546829191722e-01 2.647284196122670630e-01 -9.260187637362733426e-01
1.384615384615384581e+00 2.254060233629585075e-01 -1.810355390424982780e-01 -9.572973725678547430e-01
1.538461538461538547e+00 6.976927331425776257e-01 -4.437812504764075960e-01 -5.623904808447767190e-01
1.692307692307692513e+00 9.182990339902529220e-01 -3.901747693802159467e-01 6.701145299249026965e-02
1.846153846153846256e+00 7.851570300098692501e-01 -3.789651912875535017e-02 6.181361428105975886e-01
2.000000000000000000e+00 3.709090669018424435e-01 4.459014872227495263e-01 8.146154478999917403e-01
2.153846153846154188e+00 -1.158172653029057031e-01 8.226909079067327157e-01 5.565662877075588932e-01
2.307692307692307931e+00 -4.348889660216530562e-01 9.000581273605844368e-01 -2.769394576582082448e-02
2.461538461538461675e+00 -4.328254300574805868e-01 6.298899664619247440e-01 -6.449036943563791757e-01
2.615384615384615419e+00 -1.166028563763472636e-01 1.366199329675284735e-01 -9.837371434411679161e-01
2.769230769230769162e+00 3.524268954048230262e-01 -3.408580343291721659e-01 -8.715567020701748824e-01
2.923076923076923350e+00 7.403553453437736742e-01 -5.664276471548007619e-01 -3.619857148479190823e-01
3.076923076923077094e+00 8.569768927462414476e-01 -4.252455533007842292e-01 2.911302170814478174e-01
3.230769230769230838e+00 6.488588451680540325e-01 1.632506591061550633e-02 7.607336491762251018e-01
3.384615384615385025e+00 2.236763842996641327e-01 5.407760495487525798e-01 8.108823199708308227e-01
3.538461538461538769e+00 -2.052212259165015484e-01 8.860105970183123070e-01 4.157756790389398605e-01
3.692307692307692513e+00 -4.256551749672622953e-01 8.760565160546481822e-01 -2.265891750863856524e-01
3.846153846153846256e+00 -3.315002939638369561e-01 5.104833921993763290e-01 -7.934193456308543668e-01
4.000000000000000000e+00 2.623880968544212502e-02 -3.309809154240075241e-02 -9.991076278406276767e-01
4.153846153846154188e+00 4.666820044372150256e-01 -4.858979383598581725e-01 -7.389932988799127189e-01
4.307692307692308376e+00 7.702427698806998402e-01 -6.216465583032080300e-01 -1.424135259102415618e-01
4.461538461538461675e+00 7.879131122994639247e-01 -3.705301150596408410e-01 4.918336698291357889e-01
4.615384615384615863e+00 5.142753746688466521e-01 1.442144751485698595e-01 8.454129397032494886e-01
4.769230769230769162e+00 8.852058392259942732e-02 6.662174228125656850e-01 7.404852643820634128e-01
4.923076923076923350e+00 -2.762337331086879844e-01 9.333094618926798258e-01 2.294087259035092752e-01
5.076923076923077538e+00 -3.995491600464136095e-01 8.089702135455874021e-01 -4.311932981409157262e-01
5.230769230769230838e+00 -2.228940041209126754e-01 3.518285903206744281e-01 -9.091396491038216121e-01
5.384615384615385025e+00 1.625811797862663499e-01 -2.122037190162589515e-01 -9.636062088068527709e-01
5.538461538461538325e+00 5.628852965979602718e-01 -6.020013737589702263e-01 -5.663518592990368639e-01
5.692307692307692513e+00 7.786396865676595835e-01 -6.218538897369610963e-01 8.377224126875547350e-02
5.846153846153846700e+00 7.042587847769979925e-01 -2.602564243946641764e-01 6.605196020515166078e-01
6.000000000000000000e+00 3.795374042062299447e-01 3.031022244055676107e-01 8.741169152672738640e-01
