0.000000000000000000e+00 2.273030121650543450e-09 -5.611274053081853536e-09 -1.000000000000000000e+00
1.538461538461538547e-01 -4.861658898689489305e-01 -3.820431372486258192e-01 -7.859264880297054390e-01
3.076923076923077094e-01 -7.180424372167223401e-01 -6.417532885775180107e-01 -2.693662557618673459e-01
4.615384615384615641e-01 -6.484788449780625186e-01 -7.057797883641598879e-01 2.852025718410838295e-01
6.153846153846154188e-01 -4.281433195658131963e-01 -5.923725012416416469e-01 6.824818564784981278e-01
7.692307692307692735e-01 -2.290922113727396070e-01 -3.984447356428268416e-01 8.881187530192694579e-01
9.230769230769231282e-01 -1.171523025611450192e-01 -2.241455860915116949e-01 9.674875751069639263e-01
1.076923076923077094e+00 -6.919808055255322055e-02 -1.115875967522245438e-01 9.913419623680798098e-01
1.230769230769230838e+00 -4.749208292471956278e-02 -5.131282285863845993e-02 9.975524955709222930e-01
1.384615384615384581e+00 -3.391803257455982407e-02 -2.097331674543806770e-02 9.992043751210554214e-01
1.538461538461538547e+00 -2.379773048203118191e-02 -5.866291132466727731e-03 9.996994848462148475e-01
1.692307692307692513e+00 -1.602717198759672640e-02 1.401712197073920821e-03 9.998705076409344361e-01
1.846153846153846256e+00 -1.017863789004896588e-02 4.555176164225066895e-03 9.999377730645832019e-01
2.000000000000000000e+00 -5.919952370131058642e-03 5.520513837550371401e-03 9.999672027186803369e-01
2.153846153846154188e+00 -2.901614708652848484e-03 5.354572019707405997e-03 9.999814266783910721e-01
2.307692307692307931e+00 -8.584914447288287051e-04 4.651887541420101843e-03 9.999887892791228250e-01
2.461538461538461675e+00 4.591775310879950452e-04 3.733985531180914787e-03 9.999929051752942666e-01
2.615384615384615419e+00 1.242973323443023748e-03 2.802346646455968447e-03 9.999952858974180403e-01
2.769230769230769162e+00 1.638547346669896746e-03 1.939923170238169780e-03 9.999967632443714782e-01
2.923076923076923350e+00 1.774214622536408794e-03 1.192649409952457017e-03 9.999977040150206387e-01
3.076923076923077094e+00 1.731249489127846108e-03 5.861855636229351338e-04 9.999983201437051550e-01
3.230769230769230838e+00 1.567967726904914488e-03 1.076038229802815313e-04 9.999987566987402765e-01
3.384615384615385025e+00 1.349850161373784222e-03 -2.489124036912180454e-04 9.999990506617658648e-01
3.538461538461538769e+00 1.107137312026731067e-03 -4.950776218728361209e-04 9.999992580240566475e-01
3.692307692307692513e+00 8.524797054376552930e-04 -6.564673290890396442e-04 9.999994152852875740e-01
3.846153846153846256e+00 6.110831486648029111e-04 -7.480368929125168122e-04 9.999995281629334709e-01
4.000000000000000000e+00 3.931578499253568634e-04 -7.749916006174057933e-04 9.999996175545289301e-01
4.153846153846154188e+00 1.964148052493874135e-04 -7.636398156812121201e-04 9.999996846879484202e-01
4.307692307692308376e+00 3.494528701336398788e-05 -7.152350984136993280e-04 9.999997395381653442e-01
4.461538461538461675e+00 -1.035287907897088777e-04 -6.502638223653691525e-04 9.999997794447177402e-01
4.615384615384615863e+00 -2.107481257038157601e-04 -5.703988430424312842e-04 9.999998115987650538e-01
4.769230769230769162e+00 -2.923500946198952298e-04 -4.767740617153861239e-04 9.999998403505772071e-01
4.923076923076923350e+00 -3.504046030518008937e-04 -3.846216968203751939e-04 9.999998615933142210e-01
5.076923076923077538e+00 -3.836489577089722907e-04 -2.951567534767393121e-04 9.999998799898912605e-01
5.230769230769230838e+00 -4.015311783062980051e-04 -2.064415893544916661e-04 9.999998953910987920e-01
5.384615384615385025e+00 -4.025387070520704031e-04 -1.235343452018957820e-04 9.999999088334865505e-01
5.538461538461538325e+00 -3.923638034212645863e-04 -5.455813903496600998e-05 9.999999191538058163e-01
5.692307692307692513e+00 -3.720582802011816823e-04 1.539220512043829861e-05 9.999999284097205177e-01
5.846153846153846700e+00 -3.480633956536030517e-04 6.971989853755906951e-05 9.999999348277717193e-01
6.000000000000000000e+00 -3.126337977818892020e-04 1.176962414630066051e-04 9.999999421606456940e-01
