0.000000000000000000e+00 1.160811634756248475e-09 1.409321052928803950e-09 -1.000000000000000000e+00
1.538461538461538547e-01 3.748717345725821604e-01 5.394110743399603836e-01 -7.539889488317640387e-01
3.076923076923077094e-01 4.323706425305160472e-01 8.848192068314546521e-01 -1.736015401423861571e-01
4.615384615384615641e-01 1.726354354427296900e-01 8.924241785899751367e-01 4.168504635971592709e-01
6.153846153846154188e-01 -1.175417251996800638e-01 5.926796900696831294e-01 7.968110741007319309e-01
7.692307692307692735e-01 -1.955851737260568268e-01 2.185988271198193167e-01 9.560115444791414951e-01
9.230769230769231282e-01 -9.362231736679120508e-02 5.695559907957351009e-03 9.955910418690752106e-01
1.076923076923077094e+00 4.180002459477782581e-03 -2.016673901746656589e-02 9.997877819752261086e-01
1.230769230769230838e+00 1.534758715790069880e-02 8.319664324180959039e-03 9.998475104933505220e-01
1.384615384615384581e+00 -3.283849759793525114e-03 6.122450027007324963e-03 9.999758239349466615e-01
1.538461538461538547e+00 -1.695556661895609041e-03 -5.811368785106303669e-03 9.999816394804572628e-01
1.692307692307692513e+00 4.165237134342466424e-03 -2.014224479471557298e-03 9.999892677774030458e-01
1.846153846153846256e+00 -5.411226412636619635e-04 2.199225662098106340e-03 9.999974199530596852e-01
2.000000000000000000e+00 -2.749910395645071334e-03 -1.411117877673798583e-03 9.999952030901775313e-01
2.153846153846154188e+00 7.233323201040358676e-04 -1.616920525136885138e-03 9.999984188684252207e-01
2.307692307692307931e+00 3.432770264288624758e-04 1.518857493347856250e-03 9.999987766292621760e-01
2.461538461538461675e+00 -1.723154660350957037e-03 5.302891264650554191e-04 9.999983622465296040e-01
2.615384615384615419e+00 -5.017235741153872638e-05 -8.797204390772606205e-04 9.999996051721474766e-01
2.769230769230769162e+00 8.970085003050501295e-04 8.016283797764310907e-04 9.999992676457500895e-01
2.923076923076923350e+00 -6.288537912034194771e-04 9.663092117283331563e-04 9.999993269770074411e-01
3.076923076923077094e+00 -2.365262282743192928e-04 -5.293057739245321958e-04 9.999998274034541668e-01
3.230769230769230838e+00 9.571429453889831540e-04 9.404495187962286272e-05 9.999995303669890756e-01
3.384615384615385025e+00 3.876961238566455168e-05 7.876752134443158748e-04 9.999996830485040622e-01
3.538461538461538769e+00 -3.303410901143122801e-04 -3.254732451597599032e-04 9.999998887392202995e-01
3.692307692307692513e+00 6.870926775016517182e-04 -3.845126827047902636e-04 9.999996840546527821e-01
3.846153846153846256e+00 3.310919547446176123e-04 4.645871649123560444e-04 9.999998327850119217e-01
4.000000000000000000e+00 -3.796621092038617853e-04 -1.448222746828304263e-04 9.999999141253486101e-01
4.153846153846154188e+00 3.100650332466163908e-04 -5.799117715909608405e-04 9.999997787001848604e-01
4.307692307692308376e+00 3.896804808614027756e-04 1.812280612527192259e-04 9.999999041745845085e-01
4.461538461538461675e+00 -3.694673593002708559e-04 3.109259524340925672e-05 9.999999282168884340e-01
4.615384615384615863e+00 -2.888022069628102834e-05 -5.603458584641583373e-04 9.999998381766359579e-01
4.769230769230769162e+00 3.359988363433837120e-04 -1.415005089552370831e-05 9.999999406617281483e-01
4.923076923076923350e+00 -2.973005454030209398e-04 1.756777510547911187e-04 9.999999375146693126e-01
5.076923076923077538e+00 -2.552319726388175463e-04 -4.117956805777970371e-04 9.999998787671422473e-01
5.230769230769230838e+00 2.410906333395494358e-04 -1.255629217614284579e-04 9.999999607486395048e-01
5.384615384615385025e+00 -1.746553964207460429e-04 2.652658015930474617e-04 9.999999469106778394e-01
5.538461538461538325e+00 -3.689500017263818376e-04 -2.182233300837958280e-04 9.999999046512222378e-01
5.692307692307692513e+00 1.406699424276466686e-04 -1.768058975589853726e-04 9.999999725204816725e-01
5.846153846153846700e+00 -4.509599104080992400e-05 2.925676909618280972e-04 9.999999537001590388e-01
6.000000000000000000e+00 -3.801806153628778774e-04 -3.166222299404730938e-05 9.999999241042455411e-01
