0.000000000000000000e+00 9.395008506885940046e-13 -3.235820179076779378e-12 -1.000000000000000000e+00
1.538461538461538547e-01 1.882500096965488701e-01 -6.340526265285650886e-01 -7.500261333372341133e-01
3.076923076923077094e-01 3.039603010135512595e-01 -9.443276956824686597e-01 -1.259100417076024769e-01
4.615384615384615641e-01 3.069570384602299806e-01 -7.708132402801467498e-01 5.582332173769835038e-01
6.153846153846154188e-01 2.067541851469507086e-01 -1.983946649589724831e-01 9.580669411161407689e-01
7.692307692307692735e-01 5.691558621889849373e-02 4.856205058438316513e-01 8.723149318199179270e-01
9.230769230769231282e-01 -7.061198434923385281e-02 9.362771553762530008e-01 3.440916096831149185e-01
1.076923076923077094e+00 -1.188890101253384790e-01 9.250570840147526175e-01 -3.607420057333357577e-01
1.230769230769230838e+00 -7.136894166470249268e-02 4.555565638403134554e-01 -8.873413635092091134e-01
1.384615384615384581e+00 4.240332736646456463e-02 -2.377062484175373192e-01 -9.704110972790958023e-01
1.538461538461538547e+00 1.628988991858318081e-01 -8.069172853658702627e-01 -5.677573796047266086e-01
1.692307692307692513e+00 2.302623714017960621e-01 -9.658973542514562860e-01 1.184125958548853941e-01
1.846153846153846256e+00 2.130224266862648652e-01 -6.343104148370222184e-01 7.431498778946179495e-01
2.000000000000000000e+00 1.221767028300038832e-01 2.156030265390568648e-02 9.922741614594943194e-01
2.153846153846154188e+00 4.335876973520523536e-03 6.721139926022567934e-01 7.404349900873872237e-01
2.307692307692307931e+00 -8.214636369956432316e-02 9.900516538317986059e-01 1.142352523501487804e-01
2.461538461538461675e+00 -9.603324608805111073e-02 8.150420282883681367e-01 -5.713878800119328583e-01
2.615384615384615419e+00 -3.289403108571620216e-02 2.345456852493364164e-01 -9.715484043780618917e-01
2.769230769230769162e+00 7.371711874847895751e-02 -4.599454414379305356e-01 -8.848819010512567473e-01
2.923076923076923350e+00 1.697187942399883132e-01 -9.193869889779585636e-01 -3.548564089870939742e-01
3.076923076923077094e+00 2.075979137505743755e-01 -9.126709731826874172e-01 3.520437518937835630e-01
3.230769230769230838e+00 1.696591891461823876e-01 -4.429849434125849861e-01 8.803295396459214217e-01
3.384615384615385025e+00 7.608417442883620707e-02 2.536464496983331651e-01 9.643000750995369685e-01
3.538461538461538769e+00 -2.583551730081649206e-02 8.269403103188786019e-01 5.616958665860920519e-01
3.692307692307692513e+00 -8.561667255976009028e-02 9.884534549120300717e-01 -1.250182204695088894e-01
3.846153846153846256e+00 -7.460961261802553923e-02 6.567060539349529602e-01 -7.504469098892929679e-01
4.000000000000000000e+00 2.318397362293576035e-04 -1.737999264758857037e-03 -9.999984613375531017e-01
4.153846153846154188e+00 1.004378543412256936e-01 -6.559383828314568898e-01 -7.481022441370605014e-01
4.307692307692308376e+00 1.756293108354711752e-01 -9.769429957554003341e-01 -1.213948535907348469e-01
4.461538461538461675e+00 1.886950201998240650e-01 -8.032518726688877564e-01 5.649607180758821068e-01
4.615384615384615863e+00 1.339795480764227609e-01 -2.220920574631005118e-01 9.657766799264843049e-01
4.769230769230769162e+00 3.959413529877493093e-02 4.743466965956597559e-01 8.794472425234770574e-01
4.923076923076923350e+00 -4.705608273683280218e-02 9.358000228782138441e-01 3.493763600140282199e-01
5.076923076923077538e+00 -8.310377490393310029e-02 9.300807460311395491e-01 -3.578318156061329747e-01
5.230769230769230838e+00 -5.145257260117316184e-02 4.598899130715715100e-01 -8.864839794731776967e-01
5.384615384615385025e+00 3.108648337232336120e-02 -2.384655652558409777e-01 -9.706532590458860632e-01
5.538461538461538325e+00 1.226156614258283317e-01 -8.138634298943135947e-01 -5.679715857252819466e-01
5.692307692307692513e+00 1.773205695863536435e-01 -9.769242721486811609e-01 1.190628897412083359e-01
5.846153846153846700e+00 1.683117927438527173e-01 -6.455716951950566385e-01 7.449211959240230607e-01
6.000000000000000000e+00 1.007690262811853088e-01 1.361257070247558730e-02 9.948167222218401440e-01
