0.000000000000000000e+00 -4.044311483167130680e-10 -3.129993416886949396e-09 -1.000000000000000000e+00
1.538461538461538547e-01 5.058273470394463178e-01 -3.802423549841967843e-01 -7.743035778989618700e-01
3.076923076923077094e-01 8.082115723725125100e-01 -5.408189529347580127e-01 -2.330108143832696765e-01
4.615384615384615641e-01 8.221114666579254493e-01 -4.581394644776302649e-01 3.379744297745409520e-01
6.153846153846154188e-01 6.218741198667322445e-01 -2.825738872652612255e-01 7.303528681954335466e-01
7.692307692307692735e-01 3.680973225572135576e-01 -1.575954206023313653e-01 9.163314088290417381e-01
9.230769230769231282e-01 1.814181696930098897e-01 -1.087321624400728742e-01 9.773752601465466316e-01
1.076923076923077094e+00 8.210466450130382565e-02 -9.019153629902701419e-02 9.925336072061266002e-01
1.230769230769230838e+00 3.321234558169625095e-02 -7.146689420081245303e-02 9.968894308574687280e-01
1.384615384615384581e+00 5.459155551468371226e-03 -5.326884691353032247e-02 9.985649779379007773e-01
1.538461538461538547e+00 -9.251836453116021527e-03 -3.924663349110703303e-02 9.991864856914918214e-01
1.692307692307692513e+00 -1.536285748060016269e-02 -2.703150774688885261e-02 9.995163371291597709e-01
1.846153846153846256e+00 -1.811924136702686844e-02 -1.652055351587446153e-02 9.996991869095255279e-01
2.000000000000000000e+00 -1.869117673935877244e-02 -9.150739260134734682e-03 9.997832991031391225e-01
2.153846153846154188e+00 -1.696207563772399868e-02 -3.658853220551625679e-03 9.998493290523543520e-01
2.307692307692307931e+00 -1.469175259909365552e-02 1.016111062800706573e-03 9.998914593362540071e-01
2.461538461538461675e+00 -1.265496539243497753e-02 4.056748569264903223e-03 9.999116069707301158e-01
2.615384615384615419e+00 -1.006123918972505644e-02 5.705868586958279948e-03 9.999330286992137440e-01
2.769230769230769162e+00 -7.337034694801355429e-03 7.093339747378850368e-03 9.999478566504887977e-01
2.923076923076923350e+00 -5.324772245996022349e-03 7.932325699107678485e-03 9.999542970939355735e-01
3.076923076923077094e+00 -3.466722469083324473e-03 7.819777922980568688e-03 9.999633574869360997e-01
3.230769230769230838e+00 -1.448423663171375785e-03 7.563787331701292069e-03 9.999702921229673969e-01
3.384615384615385025e+00 1.784512492769866829e-05 7.389845941583123891e-03 9.999726433864759567e-01
3.538461538461538769e+00 1.006964925467140805e-03 6.691617037658885089e-03 9.999770565957193380e-01
3.692307692307692513e+00 2.134510940132556059e-03 5.765240644774061000e-03 9.999810593320553886e-01
3.846153846153846256e+00 3.061098461928315854e-03 5.157580217899515422e-03 9.999819719325767631e-01
4.000000000000000000e+00 3.433193292050622149e-03 4.433330387966157547e-03 9.999842392869336960e-01
4.153846153846154188e+00 3.814055000566237818e-03 3.401752247411718357e-03 9.999869036037420944e-01
4.307692307692308376e+00 4.284097033572084080e-03 2.639818821379784873e-03 9.999873025255664460e-01
4.461538461538461675e+00 4.336593046621252563e-03 2.073463171791584212e-03 9.999884124552298470e-01
4.615384615384615863e+00 4.205122320451458277e-03 1.240792439343202554e-03 9.999903565027902230e-01
4.769230769230769162e+00 4.295798669765219825e-03 4.819862546375343684e-04 9.999906251005943325e-01
4.923076923076923350e+00 4.216531726860825793e-03 7.028410324523906572e-05 9.999910768565177799e-01
5.076923076923077538e+00 3.828670510348802444e-03 -4.467144038801313440e-04 9.999925422202161629e-01
5.230769230769230838e+00 3.618762775516880508e-03 -1.086755117137718375e-03 9.999928335940841961e-01
5.384615384615385025e+00 3.488910532828348732e-03 -1.407324267108034637e-03 9.999928954245719259e-01
5.538461538461538325e+00 3.057814750156243391e-03 -1.628432769307893834e-03 9.999939729355068474e-01
5.692307692307692513e+00 2.647024762224557334e-03 -2.059528094934730356e-03 9.999943504896422475e-01
5.846153846153846700e+00 2.468492479802534591e-03 -2.330667512217561143e-03 9.999942116813085313e-01
6.000000000000000000e+00 2.119724056443280519e-03 -2.356022506431427761e-03 9.999949539020305256e-01
