0.000000000000000000e+00 -1.422640509093331630e-09 1.326079173920081569e-09 -1.000000000000000000e+00
1.538461538461538547e-01 -2.810530574368899082e-01 5.520206519456481997e-01 -7.850227215079533805e-01
3.076923076923077094e-01 -4.199146762445608583e-01 8.695768958083173183e-01 -2.597472201313832385e-01
4.615384615384615641e-01 -3.527894003344234641e-01 8.841519252035362486e-01 3.062298557018482414e-01
6.153846153846154188e-01 -1.282280547887281186e-01 7.174869657682614310e-01 6.846482774419467843e-01
7.692307692307692735e-01 1.264230723927159683e-01 5.540256638189853255e-01 8.228324737365230179e-01
9.230769230769231282e-01 2.885606200729260440e-01 4.865752013054694958e-01 8.245956585731682997e-01
1.076923076923077094e+00 3.185745367887687918e-01 4.720038612569100733e-01 8.220116287094797469e-01
1.230769230769230838e+00 2.745307771227575300e-01 4.177480024481161069e-01 8.660847715832998839e-01
1.384615384615384581e+00 2.510818618159855187e-01 2.956921073921280341e-01 9.216896306324720012e-01
1.538461538461538547e+00 2.943974442728251595e-01 1.677970747462078360e-01 9.408314169609984789e-01
1.692307692307692513e+00 3.682697643555565281e-01 1.100279777893081734e-01 9.231787760797575126e-01
1.846153846153846256e+00 4.001996273179396768e-01 1.264310278039575131e-01 9.076574122945127998e-01
2.000000000000000000e+00 3.597767146542983352e-01 1.467587778787986519e-01 9.214175204278173270e-01
2.153846153846154188e+00 2.900365931789382623e-01 1.052194390632984478e-01 9.512087853305022378e-01
2.307692307692307931e+00 2.609019300304111777e-01 1.112910255085433273e-02 9.652970652842526311e-01
2.461538461538461675e+00 2.949291423527840017e-01 -6.469632223883753364e-02 9.533215191370560948e-01
2.615384615384615419e+00 3.445236852603101307e-01 -6.989505351707359093e-02 9.361661823964391171e-01
2.769230769230769162e+00 3.447886985878916288e-01 -2.767960946888907425e-02 9.382663817672316497e-01
2.923076923076923350e+00 2.845907705189674730e-01 -9.776925109363968081e-03 9.585947134870735908e-01
3.076923076923077094e+00 2.184965752493644442e-01 -5.691517700764468085e-02 9.741730595056092845e-01
3.230769230769230838e+00 2.066720924319358221e-01 -1.351378500449375575e-01 9.690288811187697249e-01
3.384615384615385025e+00 2.487717386387407470e-01 -1.749477133542318152e-01 9.526261486194644856e-01
3.538461538461538769e+00 2.847216145820846700e-01 -1.486992908660483559e-01 9.470016884788107214e-01
3.692307692307692513e+00 2.615707338525665171e-01 -1.005275984919766913e-01 9.599304251809203103e-01
3.846153846153846256e+00 1.922945738012142303e-01 -9.659970604805956373e-02 9.765679035441346967e-01
4.000000000000000000e+00 1.412092661156949536e-01 -1.517714436498242558e-01 9.782735822026886741e-01
4.153846153846154188e+00 1.522314996092710981e-01 -2.139659347663555033e-01 9.649021744688298652e-01
4.307692307692308376e+00 1.999328340387798164e-01 -2.228719010181689220e-01 9.541204330754216034e-01
4.461538461538461675e+00 2.181864808138322398e-01 -1.771196123809890277e-01 9.596951295618859623e-01
4.615384615384615863e+00 1.743038191153283845e-01 -1.352701229119487036e-01 9.753530537632413289e-01
4.769230769230769162e+00 1.056121154043797028e-01 -1.500923313411302862e-01 9.830121732694303560e-01
4.923076923076923350e+00 7.741860328572996996e-02 -2.098558674428228910e-01 9.746590109323506335e-01
5.076923076923077538e+00 1.095640048444193465e-01 -2.520260378130396717e-01 9.614937616259007225e-01
5.230769230769230838e+00 1.542386123578938228e-01 -2.335816657468024471e-01 9.600216324226122921e-01
5.384615384615385025e+00 1.499591879293304120e-01 -1.791062242334697518e-01 9.723302885721888389e-01
5.538461538461538325e+00 9.089414136318973991e-02 -1.528516676595363666e-01 9.840575987798519941e-01
5.692307692307692513e+00 3.330543618710588016e-02 -1.864854065834687380e-01 9.818901747109256561e-01
5.846153846153846700e+00 3.188274070297505980e-02 -2.437486921318289257e-01 9.693104075866639802e-01
6.000000000000000000e+00 7.797161223748476366e-02 -2.615674037394871698e-01 9.620263149399838065e-01
