0.000000000000000000e+00 -2.019957234083239252e-10 1.838096240832909761e-09 -1.000000000000000000e+00
1.538461538461538547e-01 -5.578030554203667890e-01 2.670064746102046027e-01 -7.858473852507621427e-01
3.076923076923077094e-01 -9.373332765509280184e-01 2.220187590949714296e-01 -2.685164736874125491e-01
4.615384615384615641e-01 -9.485715999426697076e-01 -1.330195679205110615e-01 2.872368293360660352e-01
6.153846153846154188e-01 -5.609374420790046445e-01 -4.660595008942939876e-01 6.841995112039540583e-01
7.692307692307692735e-01 -4.924880818872033605e-02 -4.578992546294406996e-01 8.876361162757332446e-01
9.230769230769231282e-01 2.076406847240278020e-01 -1.597453337082704594e-01 9.650721092979963611e-01
1.076923076923077094e+00 1.226642651813354412e-01 8.570035541827462910e-02 9.887403530863085876e-01
1.230769230769230838e+00 -4.152302412413334115e-02 8.177338249067840625e-02 9.957851478010631974e-01
1.384615384615384581e+00 -5.455644802244127151e-02 -2.545612816602838696e-02 9.981858460967550917e-01
1.538461538461538547e+00 1.931335562775871040e-02 -3.764538426634174428e-02 9.991042935307203887e-01
1.692307692307692513e+00 2.651008954230305373e-02 1.641046111306023944e-02 9.995136746896363666e-01
1.846153846153846256e+00 -1.497417632089695014e-02 1.865933428862654939e-02 9.997136328891270685e-01
2.000000000000000000e+00 -1.300424678041288071e-02 -1.393896592118554559e-02 9.998181767529311648e-01
2.153846153846154188e+00 1.291119480454001704e-02 -8.537469763171177950e-03 9.998801124988984101e-01
2.307692307692307931e+00 4.964131049454752025e-03 1.193692727015038466e-02 9.999163565779614071e-01
2.461538461538461675e+00 -1.077937828798150241e-02 2.153151984515296827e-03 9.999395191083196854e-01
2.615384615384615419e+00 1.875892563250793760e-04 -9.431289756616093381e-03 9.999554513591508709e-01
2.769230769230769162e+00 8.024199352113906697e-03 2.047292332957272032e-03 9.999656604544945315e-01
2.923076923076923350e+00 -3.390003931997570205e-03 6.473848937853091991e-03 9.999732539954204746e-01
3.076923076923077094e+00 -4.821777350830117742e-03 -4.355187302473227835e-03 9.999788514208773904e-01
3.230769230769230838e+00 4.922487748585661037e-03 -3.220337867739008885e-03 9.999826627561172465e-01
3.384615384615385025e+00 1.673434633765608906e-03 5.045733350603746718e-03 9.999858367669500758e-01
3.538461538461538769e+00 -4.838014400627340186e-03 2.012610678169424877e-04 9.999882459802006407e-01
3.692307692307692513e+00 1.046915947072425516e-03 -4.352205563923570650e-03 9.999899526052790089e-01
3.846153846153846256e+00 3.572246253732379133e-03 2.031433209505354928e-03 9.999915297318391350e-01
4.000000000000000000e+00 -2.776873484621435011e-03 2.608050399517849137e-03 9.999927188792138155e-01
4.153846153846154188e+00 -1.589276403696207466e-03 -3.200308239677794771e-03 9.999935927606691255e-01
4.307692307692308376e+00 3.278356682952556986e-03 -5.342714660102349661e-04 9.999944616306354339e-01
4.461538461538461675e+00 -4.820907215094952843e-04 3.083878620372963904e-03 9.999951079779316743e-01
4.615384615384615863e+00 -2.647851869425883395e-03 -1.320254308616794752e-03 9.999956031845688154e-01
4.769230769230769162e+00 1.941086429597642252e-03 -1.975571955617959081e-03 9.999961460741406682e-01
4.923076923076923350e+00 1.179153001495738271e-03 2.352774851651314326e-03 9.999965192402953118e-01
5.076923076923077538e+00 -2.486141653876846637e-03 3.653567847978539309e-04 9.999968257755519341e-01
5.230769230769230838e+00 4.286577110758118788e-04 -2.328530758875090034e-03 9.999971809666459155e-01
5.384615384615385025e+00 1.966786542343249185e-03 1.134561032256787595e-03 9.999974067082491036e-01
5.538461538461538325e+00 -1.639224322353722814e-03 1.437956445398445556e-03 9.999976076370279410e-01
5.692307692307692513e+00 -7.647439808040756718e-04 -1.919366684705147656e-03 9.999978513050931106e-01
5.846153846153846700e+00 1.994386729480619909e-03 -5.355940282227510899e-05 9.999979959200543389e-01
6.000000000000000000e+00 -5.842589173502387833e-04 1.833388701131702207e-03 9.999981352569173865e-01
