1.000000000000000056e-01 9.999995144563349481e-01 0.000000000000000000e+00 4.855436647773677121e-07 0.000000000000000000e+00 0.000000000000000000e+00 0.000000000000000000e+00 -2.442252556718971061e-04 -6.526081929803445375e-04 0.000000000000000000e+00 0.000000000000000000e+00 0.000000000000000000e+00 0.000000000000000000e+00 0.000000000000000000e+00 0.000000000000000000e+00 0.000000000000000000e+00 0.000000000000000000e+00
2.000000000000000111e-01 9.999983218542261021e-01 0.000000000000000000e+00 1.678145777286032236e-06 0.000000000000000000e+00 0.000000000000000000e+00 0.000000000000000000e+00 -4.459012458866056850e-04 -1.216270956708712667e-03 0.000000000000000000e+00 0.000000000000000000e+00 0.000000000000000000e+00 0.000000000000000000e+00 0.000000000000000000e+00 0.000000000000000000e+00 0.000000000000000000e+00 0.000000000000000000e+00
2.999999999999999889e-01 9.999971036518987555e-01 0.000000000000000000e+00 2.896348103147538123e-06 0.000000000000000000e+00 0.000000000000000000e+00 0.000000000000000000e+00 -5.679752494132059857e-04 -1.604289197928512401e-03 0.000000000000000000e+00 0.000000000000000000e+00 0.000000000000000000e+00 0.000000000000000000e+00 0.000000000000000000e+00 0.000000000000000000e+00 0.000000000000000000e+00 0.000000000000000000e+00
4.000000000000000222e-01 9.999966498797892012e-01 0.000000000000000000e+00 3.350120209180734227e-06 0.000000000000000000e+00 0.000000000000000000e+00 0.000000000000000000e+00 -5.839909128041120790e-04 -1.734665270308223973e-03 0.000000000000000000e+00 0.000000000000000000e+00 0.000000000000000000e+00 0.000000000000000000e+00 0.000000000000000000e+00 0.000000000000000000e+00 0.000000000000000000e+00 0.000000000000000000e+00
5.000000000000000000e-01 9.999974173883752204e-01 0.000000000000000000e+00 2.582611628245331968e-06 0.000000000000000000e+00 0.000000000000000000e+00 0.000000000000000000e+00 -4.824064865040183342e-04 -1.532934747694977666e-03 0.000000000000000000e+00 0.000000000000000000e+00 0.000000000000000000e+00 0.000000000000000000e+00 0.000000000000000000e+00 0.000000000000000000e+00 0.000000000000000000e+00 0.000000000000000000e+00
5.999999999999999778e-01 9.999990521273176558e-01 0.000000000000000000e+00 9.478726848091993459e-07 0.000000000000000000e+00 0.000000000000000000e+00 0.000000000000000000e+00 -2.697719640021182326e-04 -9.354650578132214572e-04 0.000000000000000000e+00 0.000000000000000000e+00 0.000000000000000000e+00 0.000000000000000000e+00 0.000000000000000000e+00 0.000000000000000000e+00 0.000000000000000000e+00 0.000000000000000000e+00
6.999999999999999556e-01 9.999999878357406224e-01 0.000000000000000000e+00 1.216425975840519712e-08 0.000000000000000000e+00 0.000000000000000000e+00 0.000000000000000000e+00 2.755248082716350876e-05 1.067947614560944613e-04 0.000000000000000000e+00 0.000000000000000000e+00 0.000000000000000000e+00 0.000000000000000000e+00 0.000000000000000000e+00 0.000000000000000000e+00 0.000000000000000000e+00 0.000000000000000000e+00
7.999999999999999334e-01 9.999972297455996806e-01 0.000000000000000000e+00 2.770254402146630245e-06 0.000000000000000000e+00 0.000000000000000000e+00 0.000000000000000000e+00 3.633922965922621227e-04 1.624251448265356642e-03 0.000000000000000000e+00 0.000000000000000000e+00 0.000000000000000000e+00 0.000000000000000000e+00 0.000000000000000000e+00 0.000000000000000000e+00 0.000000000000000000e+00 0.000000000000000000e+00
8.999999999999999112e-01 9.999864086239544925e-01 0.000000000000000000e+00 1.359137604619267177e-05 0.000000000000000000e+00 0.000000000000000000e+00 0.000000000000000000e+00 6.736389790235351510e-04 3.624555399895411714e-03 0.000000000000000000e+00 0.000000000000000000e+00 0.000000000000000000e+00 0.000000000000000000e+00 0.000000000000000000e+00 0.000000000000000000e+00 0.000000000000000000e+00 0.000000000000000000e+00
9.999999999999998890e-01 9.999621503692687208e-01 0.000000000000000000e+00 3.784963073224643682e-05 0.000000000000000000e+00 0.000000000000000000e+00 0.000000000000000000e+00 8.800757409962818231e-04 6.088814730905381910e-03 0.000000000000000000e+00 0.000000000000000000e+00 0.000000000000000000e+00 0.000000000000000000e+00 0.000000000000000000e+00 0.000000000000000000e+00 0.000000000000000000e+00 0.000000000000000000e+00
1.099999999999999867e+00 9.999187547402486054e-01 0.000000000000000000e+00 8.124525974971087488e-05 0.000000000000000000e+00 0.000000000000000000e+00 0.000000000000000000e+00 8.960759913644818003e-04 8.968595585360214506e-03 0.000000000000000000e+00 0.000000000000000000e+00 0.000000000000000000e+00 0.000000000000000000e+00 0.000000000000000000e+00 0.000000000000000000e+00 0.000000000000000000e+00 0.000000000000000000e+00
1.199999999999999956e+00 9.998511209275360301e-01 0.000000000000000000e+00 1.488790724654290656e-04 0.000000000000000000e+00 0.000000000000000000e+00 0.000000000000000000e+00 6.339504562728252813e-04 1.218421168164069215e-02 0.000000000000000000e+00 0.000000000000000000e+00 0.000000000000000000e+00 0.000000000000000000e+00 0.000000000000000000e+00 0.000000000000000000e+00 0.000000000000000000e+00 0.000000000000000000e+00
1.300000000000000044e+00 9.997558059103672790e-01 0.000000000000000000e+00 2.441940896336866357e-04 0.000000000000000000e+00 0.000000000000000000e+00 0.000000000000000000e+00 1.355688764959509332e-05 1.562479680141674529e-02 0.000000000000000000e+00 0.000000000000000000e+00 0.000000000000000000e+00 0.000000000000000000e+00 0.000000000000000000e+00 0.000000000000000000e+00 0.000000000000000000e+00 0.000000000000000000e+00
1.399999999999999911e+00 9.996320621220021740e-01 0.000000000000000000e+00 3.679378779994119282e-04 0.000000000000000000e+00 0.000000000000000000e+00 0.000000000000000000e+00 -1.028373609690888231e-03 1.915058608574513044e-02 0.000000000000000000e+00 0.000000000000000000e+00 0.000000000000000000e+00 0.000000000000000000e+00 0.000000000000000000e+00 0.000000000000000000e+00 0.000000000000000000e+00 0.000000000000000000e+00
1.500000000000000000e+00 9.994826808885765024e-01 0.000000000000000000e+00 5.173191114224294680e-04 0.000000000000000000e+00 0.000000000000000000e+00 0.000000000000000000e+00 -2.528882386103434039e-03 2.259770444589629876e-02 0.000000000000000000e+00 0.000000000000000000e+00 0.000000000000000000e+00 0.000000000000000000e+00 0.000000000000000000e+00 0.000000000000000000e+00 0.000000000000000000e+00 0.000000000000000000e+00
1.599999999999999867e+00 9.993144721463828040e-01 0.000000000000000000e+00 6.855278536187146788e-04 0.000000000000000000e+00 0.000000000000000000e+00 0.000000000000000000e+00 -4.490198769289292791e-03 2.578557775531733001e-02 0.000000000000000000e+00 0.000000000000000000e+00 0.000000000000000000e+00 0.000000000000000000e+00 0.000000000000000000e+00 0.000000000000000000e+00 0.000000000000000000e+00 0.000000000000000000e+00
1.699999999999999956e+00 9.991382407636846263e-01 0.000000000000000000e+00 8.617592363185567648e-04 0.000000000000000000e+00 0.000000000000000000e+00 0.000000000000000000e+00 -6.872780818718571445e-03 2.852685561242271697e-02 0.000000000000000000e+00 0.000000000000000000e+00 0.000000000000000000e+00 0.000000000000000000e+00 0.000000000000000000e+00 0.000000000000000000e+00 0.000000000000000000e+00 0.000000000000000000e+00
1.800000000000000044e+00 9.989681736129083500e-01 0.000000000000000000e+00 1.031826387091507946e-03 0.000000000000000000e+00 0.000000000000000000e+00 0.000000000000000000e+00 -9.590828949675000992e-03 3.063947978389090082e-02 0.000000000000000000e+00 0.000000000000000000e+00 0.000000000000000000e+00 0.000000000000000000e+00 0.000000000000000000e+00 0.000000000000000000e+00 0.000000000000000000e+00 0.000000000000000000e+00
1.899999999999999911e+00 9.988206241247362671e-01 0.000000000000000000e+00 1.179375875263697759e-03 0.000000000000000000e+00 0.000000000000000000e+00 0.000000000000000000e+00 -1.251103544482338667e-02 3.196027127343000623e-02 0.000000000000000000e+00 0.000000000000000000e+00 0.000000000000000000e+00 0.000000000000000000e+00 0.000000000000000000e+00 0.000000000000000000e+00 0.000000000000000000e+00 0.000000000000000000e+00
2.000000000000000000e+00 9.987123642052267991e-01 0.000000000000000000e+00 1.287635794773674689e-03 0.000000000000000000e+00 0.000000000000000000e+00 0.000000000000000000e+00 -1.545516650271664023e-02 3.235916589105493346e-02 0.000000000000000000e+00 0.000000000000000000e+00 0.000000000000000000e+00 0.000000000000000000e+00 0.000000000000000000e+00 0.000000000000000000e+00 0.000000000000000000e+00 0.000000000000000000e+00
2.099999999999999645e+00 9.986584568105572046e-01 0.000000000000000000e+00 1.341543189443604412e-03 0.000000000000000000e+00 0.000000000000000000e+00 0.000000000000000000e+00 -1.820682788485295314e-02 3.175302929859328410e-02 0.000000000000000000e+00 0.000000000000000000e+00 0.000000000000000000e+00 0.000000000000000000e+00 0.000000000000000000e+00 0.000000000000000000e+00 0.000000000000000000e+00 0.000000000000000000e+00
2.199999999999999734e+00 9.986699749710423735e-01 0.000000000000000000e+00 1.330025028958286160e-03 0.000000000000000000e+00 0.000000000000000000e+00 0.000000000000000000e+00 -2.052245122543523009e-02 3.011785281235252604e-02 0.000000000000000000e+00 0.000000000000000000e+00 0.000000000000000000e+00 0.000000000000000000e+00 0.000000000000000000e+00 0.000000000000000000e+00 0.000000000000000000e+00 0.000000000000000000e+00
2.299999999999999822e+00 9.987518439448691554e-01 0.000000000000000000e+00 1.248156055132963998e-03 0.000000000000000000e+00 0.000000000000000000e+00 0.000000000000000000e+00 -2.214617504525747890e-02 2.749809252299419832e-02 0.000000000000000000e+00 0.000000000000000000e+00 0.000000000000000000e+00 0.000000000000000000e+00 0.000000000000000000e+00 0.000000000000000000e+00 0.000000000000000000e+00 0.000000000000000000e+00
2.399999999999999911e+00 9.989011036846797698e-01 0.000000000000000000e+00 1.098896315319719584e-03 0.000000000000000000e+00 0.000000000000000000e+00 0.000000000000000000e+00 -2.282790940603012311e-02 2.401198230675790496e-02 0.000000000000000000e+00 0.000000000000000000e+00 0.000000000000000000e+00 0.000000000000000000e+00 0.000000000000000000e+00 0.000000000000000000e+00 0.000000000000000000e+00 0.000000000000000000e+00
2.500000000000000000e+00 9.991058732820440325e-01 0.000000000000000000e+00 8.941267179599449383e-04 0.000000000000000000e+00 0.000000000000000000e+00 0.000000000000000000e+00 -2.234349896379930062e-02 1.985183390449304919e-02 0.000000000000000000e+00 0.000000000000000000e+00 0.000000000000000000e+00 0.000000000000000000e+00 0.000000000000000000e+00 0.000000000000000000e+00 0.000000000000000000e+00 0.000000000000000000e+00
2.600000000000000089e+00 9.993452459859309966e-01 0.000000000000000000e+00 6.547540140699358762e-04 0.000000000000000000e+00 0.000000000000000000e+00 0.000000000000000000e+00 -2.051557224467979654e-02 1.527863235618897274e-02 0.000000000000000000e+00 0.000000000000000000e+00 0.000000000000000000e+00 0.000000000000000000e+00 0.000000000000000000e+00 0.000000000000000000e+00 0.000000000000000000e+00 0.000000000000000000e+00
2.699999999999999734e+00 9.995902558123990200e-01 0.000000000000000000e+00 4.097441876014263360e-04 0.000000000000000000e+00 0.000000000000000000e+00 0.000000000000000000e+00 -1.723342180525391093e-02 1.061063005426471362e-02 0.000000000000000000e+00 0.000000000000000000e+00 0.000000000000000000e+00 0.000000000000000000e+00 0.000000000000000000e+00 0.000000000000000000e+00 0.000000000000000000e+00 0.000000000000000000e+00
2.799999999999999822e+00 9.998059422571052846e-01 0.000000000000000000e+00 1.940577428966542433e-04 0.000000000000000000e+00 0.000000000000000000e+00 0.000000000000000000e+00 -1.247013367953124334e-02 6.206113959988129869e-03 0.000000000000000000e+00 0.000000000000000000e+00 0.000000000000000000e+00 0.000000000000000000e+00 0.000000000000000000e+00 0.000000000000000000e+00 0.000000000000000000e+00 0.000000000000000000e+00
2.899999999999999911e+00 9.999544097132814224e-01 0.000000000000000000e+00 4.559028671990181074e-05 0.000000000000000000e+00 0.000000000000000000e+00 0.000000000000000000e+00 -6.295201130802963348e-03 2.441034816159930350e-03 0.000000000000000000e+00 0.000000000000000000e+00 0.000000000000000000e+00 0.000000000000000000e+00 0.000000000000000000e+00 0.000000000000000000e+00 0.000000000000000000e+00 0.000000000000000000e+00
3.000000000000000000e+00 9.999986472334387866e-01 0.000000000000000000e+00 1.352766563687040635e-06 0.000000000000000000e+00 0.000000000000000000e+00 0.000000000000000000e+00 1.118967188555475929e-03 -3.172967051467009102e-04 0.000000000000000000e+00 0.000000000000000000e+00 0.000000000000000000e+00 0.000000000000000000e+00 0.000000000000000000e+00 0.000000000000000000e+00 0.000000000000000000e+00 0.000000000000000000e+00
