1.000000000000000056e-01 9.999999999999985567e-01 0.000000000000000000e+00 1.811838049370433510e-16 0.000000000000000000e+00 0.000000000000000000e+00 0.000000000000000000e+00 5.015819844556746776e-09 -1.262780612667044374e-08 0.000000000000000000e+00 0.000000000000000000e+00 0.000000000000000000e+00 0.000000000000000000e+00 0.000000000000000000e+00 0.000000000000000000e+00 0.000000000000000000e+00 0.000000000000000000e+00
2.000000000000000111e-01 9.999999999999906741e-01 0.000000000000000000e+00 1.105466739734914800e-14 0.000000000000000000e+00 0.000000000000000000e+00 0.000000000000000000e+00 3.571695367273894763e-08 -9.894950583917625378e-08 0.000000000000000000e+00 0.000000000000000000e+00 0.000000000000000000e+00 0.000000000000000000e+00 0.000000000000000000e+00 0.000000000000000000e+00 0.000000000000000000e+00 0.000000000000000000e+00
2.999999999999999889e-01 9.999999999998833156e-01 0.000000000000000000e+00 1.164304929038671841e-13 0.000000000000000000e+00 0.000000000000000000e+00 0.000000000000000000e+00 1.124360407716821151e-07 -3.222045258839932992e-07 0.000000000000000000e+00 0.000000000000000000e+00 0.000000000000000000e+00 0.000000000000000000e+00 0.000000000000000000e+00 0.000000000000000000e+00 0.000000000000000000e+00 0.000000000000000000e+00
4.000000000000000222e-01 9.999999999994161337e-01 0.000000000000000000e+00 5.866111092531239394e-13 0.000000000000000000e+00 0.000000000000000000e+00 0.000000000000000000e+00 2.456138751656544070e-07 -7.254898303311410047e-07 0.000000000000000000e+00 0.000000000000000000e+00 0.000000000000000000e+00 0.000000000000000000e+00 0.000000000000000000e+00 0.000000000000000000e+00 0.000000000000000000e+00 0.000000000000000000e+00
5.000000000000000000e-01 9.999999999980662135e-01 0.000000000000000000e+00 1.936704488305105011e-12 0.000000000000000000e+00 0.000000000000000000e+00 0.000000000000000000e+00 4.325181741365452627e-07 -1.322766515500867989e-06 0.000000000000000000e+00 0.000000000000000000e+00 0.000000000000000000e+00 0.000000000000000000e+00 0.000000000000000000e+00 0.000000000000000000e+00 0.000000000000000000e+00 0.000000000000000000e+00
5.999999999999999778e-01 9.999999999952017271e-01 0.000000000000000000e+00 4.803990124511268819e-12 0.000000000000000000e+00 0.000000000000000000e+00 0.000000000000000000e+00 6.558921550171645545e-07 -2.091387340941144053e-06 0.000000000000000000e+00 0.000000000000000000e+00 0.000000000000000000e+00 0.000000000000000000e+00 0.000000000000000000e+00 0.000000000000000000e+00 0.000000000000000000e+00 0.000000000000000000e+00
6.999999999999999556e-01 9.999999999904186643e-01 0.000000000000000000e+00 9.583304201842044154e-12 0.000000000000000000e+00 0.000000000000000000e+00 0.000000000000000000e+00 8.848667045926793459e-07 -2.966556477197100002e-06 0.000000000000000000e+00 0.000000000000000000e+00 0.000000000000000000e+00 0.000000000000000000e+00 0.000000000000000000e+00 0.000000000000000000e+00 0.000000000000000000e+00 0.000000000000000000e+00
7.999999999999999334e-01 9.999999999841097109e-01 0.000000000000000000e+00 1.589451950561750080e-11 0.000000000000000000e+00 0.000000000000000000e+00 0.000000000000000000e+00 1.078328280221776522e-06 -3.838217379907259944e-06 0.000000000000000000e+00 0.000000000000000000e+00 0.000000000000000000e+00 0.000000000000000000e+00 0.000000000000000000e+00 0.000000000000000000e+00 0.000000000000000000e+00 0.000000000000000000e+00
8.999999999999999112e-01 9.999999999778729221e-01 0.000000000000000000e+00 2.212746019471595694e-11 0.000000000000000000e+00 0.000000000000000000e+00 0.000000000000000000e+00 1.190672875541436649e-06 -4.550826436880340277e-06 0.000000000000000000e+00 0.000000000000000000e+00 0.000000000000000000e+00 0.000000000000000000e+00 0.000000000000000000e+00 0.000000000000000000e+00 0.000000000000000000e+00 0.000000000000000000e+00
9.999999999999998890e-01 9.999999999745357027e-01 0.000000000000000000e+00 2.546424942038364550e-11 0.000000000000000000e+00 0.000000000000000000e+00 0.000000000000000000e+00 1.179649659077937975e-06 -4.906423203266534735e-06 0.000000000000000000e+00 0.000000000000000000e+00 0.000000000000000000e+00 0.000000000000000000e+00 0.000000000000000000e+00 0.000000000000000000e+00 0.000000000000000000e+00 0.000000000000000000e+00
1.099999999999999867e+00 9.999999999771457260e-01 0.000000000000000000e+00 2.285242709766192809e-11 0.000000000000000000e+00 0.000000000000000000e+00 0.000000000000000000e+00 1.015729068109854308e-06 -4.671308949628726111e-06 0.000000000000000000e+00 0.000000000000000000e+00 0.000000000000000000e+00 0.000000000000000000e+00 0.000000000000000000e+00 0.000000000000000000e+00 0.000000000000000000e+00 0.000000000000000000e+00
1.199999999999999956e+00 9.999999999866584499e-01 0.000000000000000000e+00 1.334165296817916672e-11 0.000000000000000000e+00 0.000000000000000000e+00 0.000000000000000000e+00 6.922014113029284701e-07 -3.586498262176672580e-06 0.000000000000000000e+00 0.000000000000000000e+00 0.000000000000000000e+00 0.000000000000000000e+00 0.000000000000000000e+00 0.000000000000000000e+00 0.000000000000000000e+00 0.000000000000000000e+00
1.300000000000000044e+00 9.999999999980331289e-01 0.000000000000000000e+00 1.964360266318055755e-12 0.000000000000000000e+00 0.000000000000000000e+00 0.000000000000000000e+00 2.350027787840545045e-07 -1.381920766530865619e-06 0.000000000000000000e+00 0.000000000000000000e+00 0.000000000000000000e+00 0.000000000000000000e+00 0.000000000000000000e+00 0.000000000000000000e+00 0.000000000000000000e+00 0.000000000000000000e+00
1.399999999999999911e+00 9.999999999950529572e-01 0.000000000000000000e+00 4.948729933015762237e-12 0.000000000000000000e+00 0.000000000000000000e+00 0.000000000000000000e+00 -2.888727507269883560e-07 2.205885972714132063e-06 0.000000000000000000e+00 0.000000000000000000e+00 0.000000000000000000e+00 0.000000000000000000e+00 0.000000000000000000e+00 0.000000000000000000e+00 0.000000000000000000e+00 0.000000000000000000e+00
1.500000000000000000e+00 9.999999999444628695e-01 0.000000000000000000e+00 5.554017623279258782e-11 0.000000000000000000e+00 0.000000000000000000e+00 0.000000000000000000e+00 -7.656059026279401945e-07 7.413145868955641376e-06 0.000000000000000000e+00 0.000000000000000000e+00 0.000000000000000000e+00 0.000000000000000000e+00 0.000000000000000000e+00 0.000000000000000000e+00 0.000000000000000000e+00 0.000000000000000000e+00
1.599999999999999867e+00 9.999999997908234350e-01 0.000000000000000000e+00 2.091785137678122407e-10 0.000000000000000000e+00 0.000000000000000000e+00 0.000000000000000000e+00 -1.032629134007316761e-06 1.442612471403046810e-05 0.000000000000000000e+00 0.000000000000000000e+00 0.000000000000000000e+00 0.000000000000000000e+00 0.000000000000000000e+00 0.000000000000000000e+00 0.000000000000000000e+00 0.000000000000000000e+00
1.699999999999999956e+00 9.999999994536508119e-01 0.000000000000000000e+00 5.463490199829692385e-10 0.000000000000000000e+00 0.000000000000000000e+00 0.000000000000000000e+00 -8.816392381884235253e-07 2.335749700406638803e-05 0.000000000000000000e+00 0.000000000000000000e+00 0.000000000000000000e+00 0.000000000000000000e+00 0.000000000000000000e+00 0.000000000000000000e+00 0.000000000000000000e+00 0.000000000000000000e+00
1.800000000000000044e+00 9.999999988287640029e-01 0.000000000000000000e+00 1.171235930561410424e-09 0.000000000000000000e+00 0.000000000000000000e+00 0.000000000000000000e+00 -6.739718969623795000e-08 3.422327360920834308e-05 0.000000000000000000e+00 0.000000000000000000e+00 0.000000000000000000e+00 0.000000000000000000e+00 0.000000000000000000e+00 0.000000000000000000e+00 0.000000000000000000e+00 0.000000000000000000e+00
1.899999999999999911e+00 9.999999977955116304e-01 0.000000000000000000e+00 2.204489033218932124e-09 0.000000000000000000e+00 0.000000000000000000e+00 0.000000000000000000e+00 1.677176506864732884e-06 4.692203483490387796e-05 0.000000000000000000e+00 0.000000000000000000e+00 0.000000000000000000e+00 0.000000000000000000e+00 0.000000000000000000e+00 0.000000000000000000e+00 0.000000000000000000e+00 0.000000000000000000e+00
2.000000000000000000e+00 9.999999962309716883e-01 0.000000000000000000e+00 3.769028559912928857e-09 0.000000000000000000e+00 0.000000000000000000e+00 0.000000000000000000e+00 4.619551519889782483e-06 6.121837622304647302e-05 0.000000000000000000e+00 0.000000000000000000e+00 0.000000000000000000e+00 0.000000000000000000e+00 0.000000000000000000e+00 0.000000000000000000e+00 0.000000000000000000e+00 0.000000000000000000e+00
2.099999999999999645e+00 9.999999940311123936e-01 0.000000000000000000e+00 5.968891180827205362e-09 0.000000000000000000e+00 0.000000000000000000e+00 0.000000000000000000e+00 9.000268649259819020e-06 7.673257312212477393e-05 0.000000000000000000e+00 0.000000000000000000e+00 0.000000000000000000e+00 0.000000000000000000e+00 0.000000000000000000e+00 0.000000000000000000e+00 0.000000000000000000e+00 0.000000000000000000e+00
2.199999999999999734e+00 9.999999911374323203e-01 0.000000000000000000e+00 8.862566656879774995e-09 0.000000000000000000e+00 0.000000000000000000e+00 0.000000000000000000e+00 1.500082837782773535e-05 9.293838496751910885e-05 0.000000000000000000e+00 0.000000000000000000e+00 0.000000000000000000e+00 0.000000000000000000e+00 0.000000000000000000e+00 0.000000000000000000e+00 0.000000000000000000e+00 0.000000000000000000e+00
2.299999999999999822e+00 9.999999875660804394e-01 0.000000000000000000e+00 1.243392018160739431e-08 0.000000000000000000e+00 0.000000000000000000e+00 0.000000000000000000e+00 2.270849740270055049e-05 1.091707190228995833e-04 0.000000000000000000e+00 0.000000000000000000e+00 0.000000000000000000e+00 0.000000000000000000e+00 0.000000000000000000e+00 0.000000000000000000e+00 0.000000000000000000e+00 0.000000000000000000e+00
2.399999999999999911e+00 9.999999834346163796e-01 0.000000000000000000e+00 1.656538465490647222e-08 0.000000000000000000e+00 0.000000000000000000e+00 0.000000000000000000e+00 3.208033665978632972e-05 1.246444477591439521e-04 0.000000000000000000e+00 0.000000000000000000e+00 0.000000000000000000e+00 0.000000000000000000e+00 0.000000000000000000e+00 0.000000000000000000e+00 0.000000000000000000e+00 0.000000000000000000e+00
2.500000000000000000e+00 9.999999789806703898e-01 0.000000000000000000e+00 2.101933063556540201e-08 0.000000000000000000e+00 0.000000000000000000e+00 0.000000000000000000e+00 4.290927612823962302e-05 1.384851125009013760e-04 0.000000000000000000e+00 0.000000000000000000e+00 0.000000000000000000e+00 0.000000000000000000e+00 0.000000000000000000e+00 0.000000000000000000e+00 0.000000000000000000e+00 0.000000000000000000e+00
2.600000000000000089e+00 9.999999745659627903e-01 0.000000000000000000e+00 2.543403796672050251e-08 0.000000000000000000e+00 0.000000000000000000e+00 0.000000000000000000e+00 5.479546348165666560e-05 1.497714815715336131e-04 0.000000000000000000e+00 0.000000000000000000e+00 0.000000000000000000e+00 0.000000000000000000e+00 0.000000000000000000e+00 0.000000000000000000e+00 0.000000000000000000e+00 0.000000000000000000e+00
2.699999999999999734e+00 9.999999706597524352e-01 0.000000000000000000e+00 2.934024704652343286e-08 0.000000000000000000e+00 0.000000000000000000e+00 0.000000000000000000e+00 6.712630386053552274e-05 1.575890473785934514e-04 0.000000000000000000e+00 0.000000000000000000e+00 0.000000000000000000e+00 0.000000000000000000e+00 0.000000000000000000e+00 0.000000000000000000e+00 0.000000000000000000e+00 0.000000000000000000e+00
2.799999999999999822e+00 9.999999677973515633e-01 0.000000000000000000e+00 3.220264937676846506e-08 0.000000000000000000e+00 0.000000000000000000e+00 0.000000000000000000e+00 7.906858308295897336e-05 1.610925510750604167e-04 0.000000000000000000e+00 0.000000000000000000e+00 0.000000000000000000e+00 0.000000000000000000e+00 0.000000000000000000e+00 0.000000000000000000e+00 0.000000000000000000e+00 0.000000000000000000e+00
2.899999999999999911e+00 9.999999665121349635e-01 0.000000000000000000e+00 3.348786718750110161e-08 0.000000000000000000e+00 0.000000000000000000e+00 0.000000000000000000e+00 8.957575162499913329e-05 1.595746008035001042e-04 0.000000000000000000e+00 0.000000000000000000e+00 0.000000000000000000e+00 0.000000000000000000e+00 0.000000000000000000e+00 0.000000000000000000e+00 0.000000000000000000e+00 0.000000000000000000e+00
3.000000000000000000e+00 9.999999672433697029e-01 0.000000000000000000e+00 3.275663031999314041e-08 0.000000000000000000e+00 0.000000000000000000e+00 0.000000000000000000e+00 9.741282249918473590e-05 1.525364667675427127e-04 0.000000000000000000e+00 0.000000000000000000e+00 0.000000000000000000e+00 0.000000000000000000e+00 0.000000000000000000e+00 0.000000000000000000e+00 0.000000000000000000e+00 0.000000000000000000e+00
