1.000000000000000056e-01 1.000000000000000000e+00 0.000000000000000000e+00 -1.951036561802282019e-19 0.000000000000000000e+00 0.000000000000000000e+00 0.000000000000000000e+00 -1.456466706224175443e-10 1.226597658908674254e-10 0.000000000000000000e+00 0.000000000000000000e+00 0.000000000000000000e+00 0.000000000000000000e+00 0.000000000000000000e+00 0.000000000000000000e+00 0.000000000000000000e+00 0.000000000000000000e+00
2.000000000000000111e-01 1.000000000000000000e+00 0.000000000000000000e+00 -1.288707605120945026e-18 0.000000000000000000e+00 0.000000000000000000e+00 0.000000000000000000e+00 -2.935973436390353551e-10 2.395877336988931196e-10 0.000000000000000000e+00 0.000000000000000000e+00 0.000000000000000000e+00 0.000000000000000000e+00 0.000000000000000000e+00 0.000000000000000000e+00 0.000000000000000000e+00 0.000000000000000000e+00
2.999999999999999889e-01 9.999999999999988898e-01 0.000000000000000000e+00 -2.232646337640243037e-18 0.000000000000000000e+00 0.000000000000000000e+00 0.000000000000000000e+00 -4.514740778703131061e-10 3.278037358363164985e-10 0.000000000000000000e+00 0.000000000000000000e+00 0.000000000000000000e+00 0.000000000000000000e+00 0.000000000000000000e+00 0.000000000000000000e+00 0.000000000000000000e+00 0.000000000000000000e+00
4.000000000000000222e-01 1.000000000000000000e+00 0.000000000000000000e+00 -3.672998529599616915e-18 0.000000000000000000e+00 0.000000000000000000e+00 0.000000000000000000e+00 -6.098195544095501575e-10 4.160308390569806304e-10 0.000000000000000000e+00 0.000000000000000000e+00 0.000000000000000000e+00 0.000000000000000000e+00 0.000000000000000000e+00 0.000000000000000000e+00 0.000000000000000000e+00 0.000000000000000000e+00
5.000000000000000000e-01 1.000000000000000000e+00 0.000000000000000000e+00 -1.018089681323638663e-17 0.000000000000000000e+00 0.000000000000000000e+00 0.000000000000000000e+00 -7.677308858750611432e-10 5.079424319853552464e-10 0.000000000000000000e+00 0.000000000000000000e+00 0.000000000000000000e+00 0.000000000000000000e+00 0.000000000000000000e+00 0.000000000000000000e+00 0.000000000000000000e+00 0.000000000000000000e+00
5.999999999999999778e-01 1.000000000000000000e+00 0.000000000000000000e+00 -1.062561154813533687e-17 0.000000000000000000e+00 0.000000000000000000e+00 0.000000000000000000e+00 -9.263812045380219560e-10 6.028734233657120324e-10 0.000000000000000000e+00 0.000000000000000000e+00 0.000000000000000000e+00 0.000000000000000000e+00 0.000000000000000000e+00 0.000000000000000000e+00 0.000000000000000000e+00 0.000000000000000000e+00
6.999999999999999556e-01 9.999999999999983347e-01 0.000000000000000000e+00 -1.211042797993075621e-17 0.000000000000000000e+00 0.000000000000000000e+00 0.000000000000000000e+00 -1.086107672938265526e-09 6.986138266038372494e-10 0.000000000000000000e+00 0.000000000000000000e+00 0.000000000000000000e+00 0.000000000000000000e+00 0.000000000000000000e+00 0.000000000000000000e+00 0.000000000000000000e+00 0.000000000000000000e+00
7.999999999999999334e-01 9.999999999999990008e-01 0.000000000000000000e+00 -1.651702429027104580e-17 0.000000000000000000e+00 0.000000000000000000e+00 0.000000000000000000e+00 -1.248011764807304574e-09 7.942639707378382918e-10 0.000000000000000000e+00 0.000000000000000000e+00 0.000000000000000000e+00 0.000000000000000000e+00 0.000000000000000000e+00 0.000000000000000000e+00 0.000000000000000000e+00 0.000000000000000000e+00
8.999999999999999112e-01 1.000000000000000000e+00 0.000000000000000000e+00 -2.171688174509928139e-17 0.000000000000000000e+00 0.000000000000000000e+00 0.000000000000000000e+00 -1.412307056629193292e-09 8.875121730902942611e-10 0.000000000000000000e+00 0.000000000000000000e+00 0.000000000000000000e+00 0.000000000000000000e+00 0.000000000000000000e+00 0.000000000000000000e+00 0.000000000000000000e+00 0.000000000000000000e+00
9.999999999999998890e-01 9.999999999999991118e-01 0.000000000000000000e+00 -3.309587521180763189e-17 0.000000000000000000e+00 0.000000000000000000e+00 0.000000000000000000e+00 -1.579917398184482131e-09 9.777026669059091513e-10 0.000000000000000000e+00 0.000000000000000000e+00 0.000000000000000000e+00 0.000000000000000000e+00 0.000000000000000000e+00 0.000000000000000000e+00 0.000000000000000000e+00 0.000000000000000000e+00
1.099999999999999867e+00 1.000000000000000000e+00 0.000000000000000000e+00 -4.042284825601549609e-17 0.000000000000000000e+00 0.000000000000000000e+00 0.000000000000000000e+00 -1.751137139754542520e-09 1.064148655426915769e-09 0.000000000000000000e+00 0.000000000000000000e+00 0.000000000000000000e+00 0.000000000000000000e+00 0.000000000000000000e+00 0.000000000000000000e+00 0.000000000000000000e+00 0.000000000000000000e+00
1.199999999999999956e+00 9.999999999999992228e-01 0.000000000000000000e+00 -3.625783305697562894e-17 0.000000000000000000e+00 0.000000000000000000e+00 0.000000000000000000e+00 -1.926582685862990551e-09 1.144999171141290146e-09 0.000000000000000000e+00 0.000000000000000000e+00 0.000000000000000000e+00 0.000000000000000000e+00 0.000000000000000000e+00 0.000000000000000000e+00 0.000000000000000000e+00 0.000000000000000000e+00
1.300000000000000044e+00 1.000000000000000000e+00 0.000000000000000000e+00 -4.411473566607891596e-17 0.000000000000000000e+00 0.000000000000000000e+00 0.000000000000000000e+00 -2.106447699628436250e-09 1.220173884583582570e-09 0.000000000000000000e+00 0.000000000000000000e+00 0.000000000000000000e+00 0.000000000000000000e+00 0.000000000000000000e+00 0.000000000000000000e+00 0.000000000000000000e+00 0.000000000000000000e+00
1.399999999999999911e+00 1.000000000000000000e+00 0.000000000000000000e+00 -4.429579579146529772e-17 0.000000000000000000e+00 0.000000000000000000e+00 0.000000000000000000e+00 -2.290946085675133304e-09 1.288037342461641082e-09 0.000000000000000000e+00 0.000000000000000000e+00 0.000000000000000000e+00 0.000000000000000000e+00 0.000000000000000000e+00 0.000000000000000000e+00 0.000000000000000000e+00 0.000000000000000000e+00
1.500000000000000000e+00 9.999999999999998890e-01 0.000000000000000000e+00 -6.583713131856415348e-17 0.000000000000000000e+00 0.000000000000000000e+00 0.000000000000000000e+00 -2.480147299920544680e-09 1.347791985223314785e-09 0.000000000000000000e+00 0.000000000000000000e+00 0.000000000000000000e+00 0.000000000000000000e+00 0.000000000000000000e+00 0.000000000000000000e+00 0.000000000000000000e+00 0.000000000000000000e+00
1.599999999999999867e+00 1.000000000000000444e+00 0.000000000000000000e+00 -5.809596664468510324e-17 0.000000000000000000e+00 0.000000000000000000e+00 0.000000000000000000e+00 -2.674303559756031656e-09 1.398759428625969851e-09 0.000000000000000000e+00 0.000000000000000000e+00 0.000000000000000000e+00 0.000000000000000000e+00 0.000000000000000000e+00 0.000000000000000000e+00 0.000000000000000000e+00 0.000000000000000000e+00
1.699999999999999956e+00 9.999999999999967804e-01 0.000000000000000000e+00 -8.675735605162547989e-17 0.000000000000000000e+00 0.000000000000000000e+00 0.000000000000000000e+00 -2.873662749695918303e-09 1.440323051238836542e-09 0.000000000000000000e+00 0.000000000000000000e+00 0.000000000000000000e+00 0.000000000000000000e+00 0.000000000000000000e+00 0.000000000000000000e+00 0.000000000000000000e+00 0.000000000000000000e+00
1.800000000000000044e+00 1.000000000000000000e+00 0.000000000000000000e+00 -8.941296320372346571e-17 0.000000000000000000e+00 0.000000000000000000e+00 0.000000000000000000e+00 -3.077621298266197557e-09 1.471242087063503431e-09 0.000000000000000000e+00 0.000000000000000000e+00 0.000000000000000000e+00 0.000000000000000000e+00 0.000000000000000000e+00 0.000000000000000000e+00 0.000000000000000000e+00 0.000000000000000000e+00
1.899999999999999911e+00 9.999999999999990008e-01 0.000000000000000000e+00 -1.000315111167492342e-16 0.000000000000000000e+00 0.000000000000000000e+00 0.000000000000000000e+00 -3.286316082300619438e-09 1.491522294759938974e-09 0.000000000000000000e+00 0.000000000000000000e+00 0.000000000000000000e+00 0.000000000000000000e+00 0.000000000000000000e+00 0.000000000000000000e+00 0.000000000000000000e+00 0.000000000000000000e+00
2.000000000000000000e+00 1.000000000000001332e+00 0.000000000000000000e+00 -1.133126528709500590e-16 0.000000000000000000e+00 0.000000000000000000e+00 0.000000000000000000e+00 -3.498964284143835851e-09 1.500370971199638369e-09 0.000000000000000000e+00 0.000000000000000000e+00 0.000000000000000000e+00 0.000000000000000000e+00 0.000000000000000000e+00 0.000000000000000000e+00 0.000000000000000000e+00 0.000000000000000000e+00
2.099999999999999645e+00 1.000000000000001998e+00 0.000000000000000000e+00 -9.671757966802203940e-17 0.000000000000000000e+00 0.000000000000000000e+00 0.000000000000000000e+00 -3.716078891381442982e-09 1.498293367825618574e-09 0.000000000000000000e+00 0.000000000000000000e+00 0.000000000000000000e+00 0.000000000000000000e+00 0.000000000000000000e+00 0.000000000000000000e+00 0.000000000000000000e+00 0.000000000000000000e+00
2.199999999999999734e+00 9.999999999999997780e-01 0.000000000000000000e+00 -1.521500515530946657e-16 0.000000000000000000e+00 0.000000000000000000e+00 0.000000000000000000e+00 -3.937030574283593944e-09 1.485457730809514699e-09 0.000000000000000000e+00 0.000000000000000000e+00 0.000000000000000000e+00 0.000000000000000000e+00 0.000000000000000000e+00 0.000000000000000000e+00 0.000000000000000000e+00 0.000000000000000000e+00
2.299999999999999822e+00 1.000000000000000000e+00 0.000000000000000000e+00 -1.685334285413911059e-16 0.000000000000000000e+00 0.000000000000000000e+00 0.000000000000000000e+00 -4.161102772971535681e-09 1.462409572064135402e-09 0.000000000000000000e+00 0.000000000000000000e+00 0.000000000000000000e+00 0.000000000000000000e+00 0.000000000000000000e+00 0.000000000000000000e+00 0.000000000000000000e+00 0.000000000000000000e+00
2.399999999999999911e+00 9.999999999999985567e-01 0.000000000000000000e+00 -1.749882386201819494e-16 0.000000000000000000e+00 0.000000000000000000e+00 0.000000000000000000e+00 -4.388571748465199061e-09 1.430612227898662107e-09 0.000000000000000000e+00 0.000000000000000000e+00 0.000000000000000000e+00 0.000000000000000000e+00 0.000000000000000000e+00 0.000000000000000000e+00 0.000000000000000000e+00 0.000000000000000000e+00
2.500000000000000000e+00 9.999999999999993339e-01 0.000000000000000000e+00 -1.763478961596367279e-16 0.000000000000000000e+00 0.000000000000000000e+00 0.000000000000000000e+00 -4.618669362913783597e-09 1.391405505381609839e-09 0.000000000000000000e+00 0.000000000000000000e+00 0.000000000000000000e+00 0.000000000000000000e+00 0.000000000000000000e+00 0.000000000000000000e+00 0.000000000000000000e+00 0.000000000000000000e+00
2.600000000000000089e+00 1.000000000000000000e+00 0.000000000000000000e+00 -1.597313483851519427e-16 0.000000000000000000e+00 0.000000000000000000e+00 0.000000000000000000e+00 -4.851694449692615957e-09 1.346912748910972782e-09 0.000000000000000000e+00 0.000000000000000000e+00 0.000000000000000000e+00 0.000000000000000000e+00 0.000000000000000000e+00 0.000000000000000000e+00 0.000000000000000000e+00 0.000000000000000000e+00
2.699999999999999734e+00 1.000000000000002220e+00 0.000000000000000000e+00 -2.140925031713622053e-16 0.000000000000000000e+00 0.000000000000000000e+00 0.000000000000000000e+00 -5.088233839562503408e-09 1.299209769400410392e-09 0.000000000000000000e+00 0.000000000000000000e+00 0.000000000000000000e+00 0.000000000000000000e+00 0.000000000000000000e+00 0.000000000000000000e+00 0.000000000000000000e+00 0.000000000000000000e+00
2.799999999999999822e+00 1.000000000000000000e+00 0.000000000000000000e+00 -2.298121083908034241e-16 0.000000000000000000e+00 0.000000000000000000e+00 0.000000000000000000e+00 -5.328141946910582536e-09 1.250840297885850521e-09 0.000000000000000000e+00 0.000000000000000000e+00 0.000000000000000000e+00 0.000000000000000000e+00 0.000000000000000000e+00 0.000000000000000000e+00 0.000000000000000000e+00 0.000000000000000000e+00
2.899999999999999911e+00 1.000000000000001332e+00 0.000000000000000000e+00 -2.447713136971517345e-16 0.000000000000000000e+00 0.000000000000000000e+00 0.000000000000000000e+00 -5.572882993819923971e-09 1.204029227621357477e-09 0.000000000000000000e+00 0.000000000000000000e+00 0.000000000000000000e+00 0.000000000000000000e+00 0.000000000000000000e+00 0.000000000000000000e+00 0.000000000000000000e+00 0.000000000000000000e+00
3.000000000000000000e+00 1.000000000000000888e+00 0.000000000000000000e+00 -3.042272277727974407e-16 0.000000000000000000e+00 0.000000000000000000e+00 0.000000000000000000e+00 -5.823801761285145925e-09 1.160983116466239857e-09 0.000000000000000000e+00 0.000000000000000000e+00 0.000000000000000000e+00 0.000000000000000000e+00 0.000000000000000000e+00 0.000000000000000000e+00 0.000000000000000000e+00 0.000000000000000000e+00
