0.000000000000000000e+00 9.419563900930253589e-12 9.904462933244206705e-12 -1.000000000000000000e+00
2.040816326530612290e-01 4.702540431312316471e-01 3.977147782210972426e-01 -7.474505555280990254e-01
4.081632653061224580e-01 7.606309540805972214e-01 3.479156551719355117e-01 -2.503351860130359485e-01
6.122448979591836871e-01 6.723584906350417167e-01 -4.240426693697900429e-02 5.387455945252260514e-02
8.163265306122449161e-01 2.771215754166665435e-01 -3.054310487295693877e-01 2.804513060511195852e-02
1.020408163265306145e+00 -7.219036702157516361e-02 -2.344180864593966296e-01 -1.783815384564285123e-01
1.224489795918367374e+00 -1.564033914078542531e-01 -3.142473139874409072e-02 -3.952119243768905665e-01
1.428571428571428603e+00 -6.942539043108257590e-02 7.091091038910975197e-02 -5.517195938747774253e-01
1.632653061224489832e+00 1.040942282328399110e-02 5.336557537195062151e-02 -6.451647613108495438e-01
1.836734693877551061e+00 2.408532811243762825e-02 9.760046635880493746e-03 -6.904227398676681116e-01
2.040816326530612290e+00 8.564448849932997793e-03 -6.683142138228197540e-03 -6.983946097556849031e-01
2.244897959183673741e+00 -8.227372032190371186e-04 -3.876915142189804077e-03 -6.726470651142901769e-01
2.448979591836734748e+00 -1.231655679614854964e-03 -2.127337773907328391e-04 -6.113408160703065475e-01
2.653061224489795755e+00 -1.549888690586692403e-04 2.954681885924997009e-04 -5.103661517373790923e-01
2.857142857142857206e+00 5.508200229758035800e-05 4.969531095170866806e-05 -3.674104931352890069e-01
3.061224489795918657e+00 9.748418081982745801e-06 -1.008763247760190813e-05 -1.863132689131992148e-01
3.265306122448979664e+00 -2.839469815880392458e-06 -3.945522026352340956e-07 2.051074000582251214e-02
3.469387755102040671e+00 1.783930014373177740e-06 1.077332819532240757e-06 2.338217570314574667e-01
3.673469387755102122e+00 -2.373447583131690259e-06 1.116680610771104497e-06 4.331456625861033749e-01
3.877551020408163573e+00 1.228392138693601852e-06 -1.345687019038317773e-06 6.029478185579312255e-01
4.081632653061224580e+00 8.996446327794219786e-07 -7.068561379754512756e-07 7.359508105015234447e-01
4.285714285714285587e+00 -3.441400203416821724e-06 -1.715295859341093207e-06 8.326513816191922768e-01
4.489795918367347483e+00 -1.381398258564063647e-07 -2.369738266729892578e-06 8.985199348047457901e-01
4.693877551020408490e+00 -1.129599218562173304e-06 -1.292749810312240886e-06 9.409037500577780433e-01
4.897959183673469497e+00 -2.057157432956662021e-08 -6.479464474128922494e-07 9.668448609939523930e-01
5.102040816326530503e+00 4.280204682626784849e-06 -3.894323479723335082e-06 9.820307389893891958e-01
5.306122448979591510e+00 -7.674896746770218750e-06 6.157644773403207823e-07 9.905700109085755489e-01
5.510204081632653406e+00 1.260028102675076244e-06 3.146801060633475528e-07 9.951981533280497283e-01
5.714285714285714413e+00 7.362455807537657249e-07 -5.876909329390456641e-06 9.976225407834291570e-01
5.918367346938775420e+00 2.746948797822647498e-06 2.593498858472178215e-07 9.988530134448495579e-01
6.122448979591837315e+00 -2.731225813239720632e-06 6.517338691144730940e-08 9.994595171395261879e-01
6.326530612244898322e+00 -7.728293706971534948e-07 8.201950988336143620e-07 9.997505520648799493e-01
6.530612244897959329e+00 -3.423767783703635209e-06 2.829189674541299343e-06 9.998868753009919619e-01
6.734693877551020336e+00 -1.278312149790718627e-06 1.858861868310345735e-06 9.999493989838407204e-01
6.938775510204081343e+00 2.567742755833294262e-06 -1.000884616584011551e-06 9.999775771414799452e-01
7.142857142857143238e+00 3.079748487685901178e-06 -6.748406624632857217e-07 9.999901078430748491e-01
7.346938775510204245e+00 1.501563400841605113e-06 1.357009367533661759e-06 9.999956321230440981e-01
7.551020408163265252e+00 1.741891997184924319e-06 1.926317911410784244e-06 9.999980592057774453e-01
7.755102040816327147e+00 -1.188275388525384463e-06 -1.084855346598193084e-06 9.999991277711686166e-01
7.959183673469388154e+00 2.430131497847857581e-06 6.607202083043344439e-06 9.999996017873770127e-01
8.163265306122449161e+00 5.688170802818675538e-07 1.250630809879359529e-06 9.999998147599492571e-01
8.367346938775510168e+00 -5.701560197925453907e-06 6.849040696470021350e-07 9.999999120198704849e-01
8.571428571428571175e+00 5.665335292251366670e-07 -8.339961108594190581e-07 9.999999573403405284e-01
8.775510204081632182e+00 2.584290471610952401e-07 1.861650140537308232e-06 9.999999788860757244e-01
8.979591836734694965e+00 4.126334212412515849e-07 1.929472632600812484e-06 9.999999893478871416e-01
9.183673469387755972e+00 1.523601889522429257e-06 1.938535298241363398e-06 9.999999945410580349e-01
9.387755102040816979e+00 -8.138067732308614236e-07 -4.443120643608862841e-06 9.999999971499516915e-01
9.591836734693877986e+00 1.925083859529032638e-06 -7.635184824046808924e-07 9.999999985138600112e-01
9.795918367346938993e+00 2.096244637306739821e-06 -1.292120727339196034e-06 9.999999992216940248e-01
1.000000000000000000e+01 8.091687693390043108e-07 -6.638575282988391493e-08 9.999999995980711764e-01
