0.000000000000000000e+00 9.282911355629495239e-12 9.609537917853628311e-12 -1.000000000000000000e+00
2.040816326530612290e-01 4.678958289287757921e-01 3.897436577313877493e-01 -7.629647531566323693e-01
4.081632653061224580e-01 7.817195879218117316e-01 3.515394646940209755e-01 -2.731355991989082854e-01
6.122448979591836871e-01 7.382332394829486111e-01 -4.290636250553217512e-02 8.190259641236398436e-02
8.163265306122449161e-01 3.553774484161796310e-01 -3.511367446191412944e-01 1.481798361446891310e-01
1.020408163265306145e+00 -4.548096856032535218e-02 -3.145593256337422816e-01 2.639886795099556649e-02
1.224489795918367374e+00 -1.902575606965417054e-01 -8.427188535954499571e-02 -1.333566872031826112e-01
1.428571428571428603e+00 -1.103713665426749035e-01 7.177419960891778805e-02 -2.488789082220816684e-01
1.632653061224489832e+00 -3.607008427279970175e-04 7.537570505760399220e-02 -2.988548394810262021e-01
1.836734693877551061e+00 3.228311683741003080e-02 2.025260457842224110e-02 -2.854830498420312668e-01
2.040816326530612290e+00 1.478304888622226226e-02 -8.009664714024627291e-03 -2.144638449347225639e-01
2.244897959183673741e+00 -1.810367564346907973e-04 -6.374595951913709577e-03 -9.212543957771493486e-02
2.448979591836734748e+00 -1.877309500627028513e-03 -7.864510428988744171e-04 7.091591369833083469e-02
2.653061224489795755e+00 -3.721259177336692296e-04 3.786905746745052970e-04 2.571619907498393087e-01
2.857142857142857206e+00 5.176737486936556446e-05 9.961760730239262456e-05 4.444061510462231079e-01
3.061224489795918657e+00 1.718033562920379278e-05 -3.125663064490151122e-06 6.119492665652335184e-01
3.265306122448979664e+00 -2.744123272828508596e-06 -4.876938837940878279e-07 7.466217172971156835e-01
3.469387755102040671e+00 6.655676938352495999e-07 -2.575122297430885251e-07 8.448535270402918185e-01
3.673469387755102122e+00 -7.547445016514221389e-07 1.619793004319625096e-06 9.105588123949571733e-01
3.877551020408163573e+00 3.142543293631297264e-07 -3.077572035690022122e-06 9.512588666437923335e-01
4.081632653061224580e+00 5.148993491622298545e-06 4.450555993730872682e-07 9.748030055117027359e-01
4.285714285714285587e+00 -3.389874222552273339e-06 1.702895107421019388e-06 9.876077693934750545e-01
4.489795918367347483e+00 -7.973440314664205215e-07 -3.763328583493702112e-06 9.941883245748793785e-01
4.693877551020408490e+00 -2.794563898365284239e-06 7.331253979656378153e-07 9.973960876569791800e-01
4.897959183673469497e+00 -2.269974420090511647e-06 -2.468102610130809068e-07 9.988835231748487420e-01
5.102040816326530503e+00 3.071792569745308110e-06 1.258863365832930605e-06 9.995411523840740387e-01
5.306122448979591510e+00 -9.471206661066331967e-07 -1.584109565441450780e-06 9.998189416482399228e-01
5.510204081632653406e+00 2.524976706479027159e-06 1.529644546357668719e-06 9.999312723379729650e-01
5.714285714285714413e+00 1.061414892178166535e-06 -5.903620053431861767e-06 9.999748470134383060e-01
5.918367346938775420e+00 1.551053832393464896e-06 1.803685706114049824e-06 9.999910999319208127e-01
6.122448979591837315e+00 4.504925335324286516e-06 4.490501780447078952e-06 9.999969448988655918e-01
6.326530612244898322e+00 -4.819612330320696022e-07 -2.382298243114071750e-06 9.999989782988457643e-01
6.530612244897959329e+00 -4.845523439572786154e-06 1.860345473075413350e-06 9.999996653596118223e-01
6.734693877551020336e+00 -4.114692750260540483e-06 -3.041979453986896464e-06 9.999998919758068538e-01
6.938775510204081343e+00 1.241395209842119703e-06 -5.012704081025165952e-07 9.999999653869239280e-01
7.142857142857143238e+00 1.127429244192910895e-06 -6.528099337307774127e-07 9.999999889060485758e-01
7.346938775510204245e+00 3.493020233158893506e-06 3.499731341093729919e-06 9.999999964085393156e-01
7.551020408163265252e+00 1.698917517755600679e-06 -1.243914760709044327e-06 9.999999988405191553e-01
7.755102040816327147e+00 -3.310062332684330224e-06 -2.560604161972646079e-06 9.999999996272327385e-01
7.959183673469388154e+00 -3.087629087442872068e-06 4.073986540018829717e-06 9.999999998967182835e-01
8.163265306122449161e+00 -1.070246124061549821e-06 -2.569182882940291122e-06 1.000000000001378675e+00
8.367346938775510168e+00 4.850692058566191320e-06 1.580412993491367366e-06 1.000000000028802516e+00
8.571428571428571175e+00 1.075047570617343507e-06 3.337403890551846560e-06 1.000000000044685367e+00
8.775510204081632182e+00 -2.692761770775699956e-06 1.989752874088426781e-06 1.000000000057349014e+00
8.979591836734694965e+00 4.089611735900824295e-08 4.815130090112690488e-06 1.000000000046852966e+00
9.183673469387755972e+00 2.235570693526662772e-06 1.229904577691564551e-06 1.000000000059347416e+00
9.387755102040816979e+00 -2.673507654421823178e-07 -1.593766591183321149e-06 1.000000000053772320e+00
9.591836734693877986e+00 -2.413813051659897630e-06 1.856017019102327197e-07 1.000000000051696425e+00
9.795918367346938993e+00 2.519525504866899211e-06 2.715669463026826356e-06 1.000000000051637805e+00
1.000000000000000000e+01 -1.793812828117898551e-06 9.710696582055782344e-07 1.000000000058342442e+00
