1.500000000000000000e+00 9.738416312559425303e-02 -5.837319187764276190e-02 9.935240304837152925e-01
1.551282051282051322e+00 8.776776395612111148e-02 -2.883379645243779738e-02 9.957182003391388259e-01
1.602564102564102644e+00 7.425211902888508020e-02 -6.705197861155871852e-03 9.972139736224580053e-01
1.653846153846153744e+00 5.907216336036030108e-02 8.432137307700246498e-03 9.982164703099265513e-01
1.705128205128205066e+00 4.401280672884432671e-02 1.747480395345016313e-02 9.988772453919080307e-01
1.756410256410256387e+00 3.036352528115568786e-02 2.160211347644666602e-02 9.993049976389557498e-01
1.807692307692307709e+00 1.890188647398091670e-02 2.208797149665134296e-02 9.995770893173004934e-01
1.858974358974359031e+00 9.968996846999372483e-03 2.014725411687635220e-02 9.997471982671780610e-01
1.910256410256410131e+00 3.548756890097697070e-03 1.685918912962671573e-02 9.998515137600034741e-01
1.961538461538461453e+00 -6.370542738985147252e-04 1.307041286759407298e-02 9.999143446894144249e-01
2.012820512820512775e+00 -2.985164391725535910e-03 9.378231331882499675e-03 9.999515525511456504e-01
2.064102564102563875e+00 -3.965983629052966149e-03 6.172918018743201764e-03 9.999730754422074819e-01
2.115384615384615419e+00 -4.018807542239382843e-03 3.623909755524784906e-03 9.999853547366358564e-01
2.166666666666666519e+00 -3.534099868292845358e-03 1.763795471365723223e-03 9.999921979949657480e-01
2.217948717948718063e+00 -2.805297522699677377e-03 5.432059005824909064e-04 9.999959168998641124e-01
2.269230769230769162e+00 -2.034860160970384038e-03 -1.749969094324210425e-04 9.999979140422855517e-01
2.320512820512820262e+00 -1.349079382425454792e-03 -5.146755550532082849e-04 9.999989574065394349e-01
2.371794871794871806e+00 -8.067112299079508535e-04 -6.101982283085988614e-04 9.999994883807115098e-01
2.423076923076922906e+00 -4.150794168106176516e-04 -5.619556487553938572e-04 9.999997559375050082e-01
2.474358974358974450e+00 -1.662659430216053788e-04 -4.487266879203890418e-04 9.999998854927441005e-01
2.525641025641025550e+00 -2.048981698866768992e-05 -3.248147747955835237e-04 9.999999470401188528e-01
2.576923076923076650e+00 5.027101395130019164e-05 -2.111119979543754058e-04 9.999999764562835791e-01
2.628205128205128194e+00 7.135394056864563929e-05 -1.242872134151734706e-04 9.999999897359809209e-01
2.679487179487179738e+00 6.541802059933658395e-05 -6.274792844029135059e-05 9.999999958983565307e-01
2.730769230769230838e+00 5.397525766929100517e-05 -2.622653663951276409e-05 9.999999982057468095e-01
2.782051282051281937e+00 3.782491751953769130e-05 -7.116825776903106210e-06 9.999999992642202296e-01
2.833333333333333037e+00 2.320504570803759721e-05 3.969924958662755002e-06 9.999999997287420950e-01
2.884615384615384581e+00 1.451395350744600550e-05 4.724532009616276400e-06 9.999999998900751530e-01
2.935897435897436125e+00 6.857699713639474004e-06 7.291901847491717916e-06 9.999999999560682529e-01
2.987179487179487225e+00 1.362427264085733796e-06 5.988473842621821401e-06 9.999999999872235534e-01
3.038461538461538325e+00 -1.961005470448994471e-06 1.495193003474487341e-06 1.000000000002212897e+00
3.089743589743589425e+00 1.378044250679346240e-06 -1.718626166270829673e-06 1.000000000005321299e+00
3.141025641025640969e+00 -1.455044557824671276e-06 1.973340561672069700e-06 1.000000000004078515e+00
3.192307692307692513e+00 3.483653569352326126e-07 7.301415764054552412e-07 1.000000000005104361e+00
3.243589743589743613e+00 -4.504410438252765623e-07 8.315128141474459925e-07 1.000000000005962564e+00
3.294871794871794712e+00 -1.437640391816956597e-06 -2.935245608174525135e-07 1.000000000004701795e+00
3.346153846153845812e+00 -3.223535773745703869e-07 9.888028862924466485e-07 1.000000000006560752e+00
3.397435897435897356e+00 -3.800542205550315580e-06 -1.547522464730636400e-07 9.999999999996448397e-01
3.448717948717948900e+00 1.876771267209658475e-06 2.151483600508788844e-07 1.000000000006578516e+00
3.500000000000000000e+00 -7.141644363537379343e-07 1.340178310945108336e-06 1.000000000006472600e+00
