1.000000000000000056e-01 -1.814691079101623528e-01 2.265075869050927893e-01 -9.569551859102249924e-01
2.000000000000000111e-01 -3.589829737936154896e-01 4.204653228448461677e-01 -8.332706827253101300e-01
2.999999999999999889e-01 -5.262210863552487794e-01 5.550965228304495236e-01 -6.441731525432303762e-01
4.000000000000000222e-01 -6.734245143146797563e-01 6.140780053533997362e-01 -4.115912835952151294e-01
5.000000000000000000e-01 -7.882286412738601644e-01 5.942138743776138599e-01 -1.600162483580174211e-01
5.999999999999999778e-01 -8.583683608230525675e-01 5.054888384453947170e-01 8.766133432752032384e-02
6.999999999999999556e-01 -8.752282331399352522e-01 3.684584061627517726e-01 3.133906149931624530e-01
7.999999999999999334e-01 -8.369106786490660976e-01 2.095386662520569432e-01 5.056420097664822144e-01
8.999999999999999112e-01 -7.496257220942131871e-01 5.531921866254486952e-02 6.595459739184988956e-01
9.999999999999998890e-01 -6.267981567074895066e-01 -7.263766385760496436e-02 7.757884278543368817e-01
1.099999999999999867e+00 -4.861927844543745825e-01 -1.612919737203329096e-01 8.588372188375835714e-01
1.199999999999999956e+00 -3.460501347414916551e-01 -2.071553208498126408e-01 9.150605973854932795e-01
1.300000000000000044e+00 -2.214577401901852982e-01 -2.150354965647295336e-01 9.511656819143734509e-01
1.399999999999999911e+00 -1.219494362384226094e-01 -1.950478902454012009e-01 9.731827276642860403e-01
1.500000000000000000e+00 -5.091224081744546992e-02 -1.591689163999240875e-01 9.859377143293036605e-01
1.599999999999999867e+00 -6.471042035342017273e-03 -1.182620587238841503e-01 9.929613271003673303e-01
1.699999999999999956e+00 1.657954237299726769e-02 -8.024224479836603030e-02 9.966374937684643331e-01
1.800000000000000044e+00 2.475492502109292309e-02 -4.949620461662494059e-02 9.984674835439363294e-01
1.899999999999999911e+00 2.415856548558844089e-02 -2.735702385011301585e-02 9.993337560339482506e-01
2.000000000000000000e+00 1.952833629936327059e-02 -1.308081008188222323e-02 9.997237299107737396e-01
2.099999999999999645e+00 1.395325463879419983e-02 -4.890349067048840870e-03 9.998906894570227522e-01
2.199999999999999734e+00 9.043699484008913339e-03 -8.193078429598764020e-04 9.999587691907818598e-01
2.299999999999999822e+00 5.392278779377200279e-03 8.077769137360911976e-04 9.999851352622161071e-01
2.399999999999999911e+00 2.971722895599699429e-03 1.177715337658397955e-03 9.999948909099637406e-01
2.500000000000000000e+00 1.516827219151753057e-03 1.025076612926432680e-03 9.999983242271162087e-01
2.600000000000000089e+00 7.145431585634817815e-04 7.341451103696891491e-04 9.999994752341767601e-01
2.699999999999999734e+00 3.122602417500743542e-04 4.668584600046257077e-04 9.999998422740263848e-01
2.799999999999999822e+00 1.247529303039292162e-04 2.760389312016217145e-04 9.999999541234002587e-01
2.899999999999999911e+00 3.778199031213380719e-05 1.566917470940644365e-04 9.999999870143286840e-01
3.000000000000000000e+00 1.000194736291183390e-05 8.054226311029089470e-05 9.999999967097975562e-01
