1.000000000000000056e-01 9.735592978255243057e-01 0.000000000000000000e+00 2.644070217447461527e-02 0.000000000000000000e+00 0.000000000000000000e+00 0.000000000000000000e+00 9.457327914447299921e-02 1.296051182196698015e-01 0.000000000000000000e+00 0.000000000000000000e+00 0.000000000000000000e+00 0.000000000000000000e+00 0.000000000000000000e+00 0.000000000000000000e+00 0.000000000000000000e+00 0.000000000000000000e+00
2.000000000000000111e-01 8.970445053139813885e-01 0.000000000000000000e+00 1.029554946860170989e-01 0.000000000000000000e+00 0.000000000000000000e+00 0.000000000000000000e+00 1.798293993899091059e-01 2.449837738210708105e-01 0.000000000000000000e+00 0.000000000000000000e+00 0.000000000000000000e+00 0.000000000000000000e+00 0.000000000000000000e+00 0.000000000000000000e+00 0.000000000000000000e+00 0.000000000000000000e+00
2.999999999999999889e-01 7.785795210398483990e-01 0.000000000000000000e+00 2.214204789601512124e-01 0.000000000000000000e+00 0.000000000000000000e+00 0.000000000000000000e+00 2.474115454647792534e-01 3.334381223472037692e-01 0.000000000000000000e+00 0.000000000000000000e+00 0.000000000000000000e+00 0.000000000000000000e+00 0.000000000000000000e+00 0.000000000000000000e+00 0.000000000000000000e+00 0.000000000000000000e+00
4.000000000000000222e-01 6.307423375960536926e-01 0.000000000000000000e+00 3.692576624039466404e-01 0.000000000000000000e+00 0.000000000000000000e+00 0.000000000000000000e+00 2.907834789249557628e-01 3.851641432448661417e-01 0.000000000000000000e+00 0.000000000000000000e+00 0.000000000000000000e+00 0.000000000000000000e+00 0.000000000000000000e+00 0.000000000000000000e+00 0.000000000000000000e+00 0.000000000000000000e+00
5.000000000000000000e-01 4.692296648808998438e-01 0.000000000000000000e+00 5.307703351191014329e-01 0.000000000000000000e+00 0.000000000000000000e+00 0.000000000000000000e+00 3.059000399163530615e-01 3.943074509689707963e-01 0.000000000000000000e+00 0.000000000000000000e+00 0.000000000000000000e+00 0.000000000000000000e+00 0.000000000000000000e+00 0.000000000000000000e+00 0.000000000000000000e+00 0.000000000000000000e+00
5.999999999999999778e-01 3.111904296787161295e-01 0.000000000000000000e+00 6.888095703212848697e-01 0.000000000000000000e+00 0.000000000000000000e+00 0.000000000000000000e+00 2.916181731361340290e-01 3.595967328124191065e-01 0.000000000000000000e+00 0.000000000000000000e+00 0.000000000000000000e+00 0.000000000000000000e+00 0.000000000000000000e+00 0.000000000000000000e+00 0.000000000000000000e+00 0.000000000000000000e+00
6.999999999999999556e-01 1.734050670540159822e-01 0.000000000000000000e+00 8.265949329459845174e-01 0.000000000000000000e+00 0.000000000000000000e+00 0.000000000000000000e+00 2.498059089410573919e-01 2.844868955628640506e-01 0.000000000000000000e+00 0.000000000000000000e+00 0.000000000000000000e+00 0.000000000000000000e+00 0.000000000000000000e+00 0.000000000000000000e+00 0.000000000000000000e+00 0.000000000000000000e+00
7.999999999999999334e-01 7.050389181969894670e-02 0.000000000000000000e+00 9.294961081803004843e-01 0.000000000000000000e+00 0.000000000000000000e+00 0.000000000000000000e+00 1.851383497833988534e-01 1.767963200287618331e-01 0.000000000000000000e+00 0.000000000000000000e+00 0.000000000000000000e+00 0.000000000000000000e+00 0.000000000000000000e+00 0.000000000000000000e+00 0.000000000000000000e+00 0.000000000000000000e+00
8.999999999999999112e-01 1.341369268788509400e-02 0.000000000000000000e+00 9.865863073121150517e-01 0.000000000000000000e+00 0.000000000000000000e+00 0.000000000000000000e+00 1.046024545619049506e-01 4.787662072072979003e-02 0.000000000000000000e+00 0.000000000000000000e+00 0.000000000000000000e+00 0.000000000000000000e+00 0.000000000000000000e+00 0.000000000000000000e+00 0.000000000000000000e+00 0.000000000000000000e+00
9.999999999999998890e-01 8.197467450224676933e-03 0.000000000000000000e+00 9.918025325497741296e-01 0.000000000000000000e+00 0.000000000000000000e+00 0.000000000000000000e+00 1.676284195624244688e-02 -8.859676755348225297e-02 0.000000000000000000e+00 0.000000000000000000e+00 0.000000000000000000e+00 0.000000000000000000e+00 0.000000000000000000e+00 0.000000000000000000e+00 0.000000000000000000e+00 0.000000000000000000e+00
1.099999999999999867e+00 5.541048592288930208e-02 0.000000000000000000e+00 9.445895140771104481e-01 0.000000000000000000e+00 0.000000000000000000e+00 0.000000000000000000e+00 -6.913424356615720245e-02 -2.180843262642014335e-01 0.000000000000000000e+00 0.000000000000000000e+00 0.000000000000000000e+00 0.000000000000000000e+00 0.000000000000000000e+00 0.000000000000000000e+00 0.000000000000000000e+00 0.000000000000000000e+00
1.199999999999999956e+00 1.500410580736500632e-01 0.000000000000000000e+00 8.499589419263515744e-01 0.000000000000000000e+00 0.000000000000000000e+00 0.000000000000000000e+00 -1.441248537533093843e-01 -3.267368542647622331e-01 0.000000000000000000e+00 0.000000000000000000e+00 0.000000000000000000e+00 0.000000000000000000e+00 0.000000000000000000e+00 0.000000000000000000e+00 0.000000000000000000e+00 0.000000000000000000e+00
1.300000000000000044e+00 2.820423156642754559e-01 0.000000000000000000e+00 7.179576843357254878e-01 0.000000000000000000e+00 0.000000000000000000e+00 0.000000000000000000e+00 -2.004582646025003523e-01 -4.028786485476406054e-01 0.000000000000000000e+00 0.000000000000000000e+00 0.000000000000000000e+00 0.000000000000000000e+00 0.000000000000000000e+00 0.000000000000000000e+00 0.000000000000000000e+00 0.000000000000000000e+00
1.399999999999999911e+00 4.373985755476222925e-01 0.000000000000000000e+00 5.626014244523772634e-01 0.000000000000000000e+00 0.000000000000000000e+00 0.000000000000000000e+00 -2.323976854624705546e-01 -4.382610338355027446e-01 0.000000000000000000e+00 0.000000000000000000e+00 0.000000000000000000e+00 0.000000000000000000e+00 0.000000000000000000e+00 0.000000000000000000e+00 0.000000000000000000e+00 0.000000000000000000e+00
1.500000000000000000e+00 5.996131014316664620e-01 0.000000000000000000e+00 4.003868985683339266e-01 0.000000000000000000e+00 0.000000000000000000e+00 0.000000000000000000e+00 -2.368073737024871117e-01 -4.289521595121970066e-01 0.000000000000000000e+00 0.000000000000000000e+00 0.000000000000000000e+00 0.000000000000000000e+00 0.000000000000000000e+00 0.000000000000000000e+00 0.000000000000000000e+00 0.000000000000000000e+00
1.599999999999999867e+00 7.514593428822037291e-01 0.000000000000000000e+00 2.485406571177958823e-01 0.000000000000000000e+00 0.000000000000000000e+00 0.000000000000000000e+00 -2.134653530185122439e-01 -3.757676422150191820e-01 0.000000000000000000e+00 0.000000000000000000e+00 0.000000000000000000e+00 0.000000000000000000e+00 0.000000000000000000e+00 0.000000000000000000e+00 0.000000000000000000e+00 0.000000000000000000e+00
1.699999999999999956e+00 8.768097548815491082e-01 0.000000000000000000e+00 1.231902451184517105e-01 0.000000000000000000e+00 0.000000000000000000e+00 0.000000000000000000e+00 -1.650698470522447281e-01 -2.841954925498970108e-01 0.000000000000000000e+00 0.000000000000000000e+00 0.000000000000000000e+00 0.000000000000000000e+00 0.000000000000000000e+00 0.000000000000000000e+00 0.000000000000000000e+00 0.000000000000000000e+00
1.800000000000000044e+00 9.623480584448075303e-01 0.000000000000000000e+00 3.765194155519240027e-02 0.000000000000000000e+00 0.000000000000000000e+00 0.000000000000000000e+00 -9.693974574783034703e-02 -1.638226263845961039e-01 0.000000000000000000e+00 0.000000000000000000e+00 0.000000000000000000e+00 0.000000000000000000e+00 0.000000000000000000e+00 0.000000000000000000e+00 0.000000000000000000e+00 0.000000000000000000e+00
1.899999999999999911e+00 9.989831681622128867e-01 0.000000000000000000e+00 1.016831837787751658e-03 0.000000000000000000e+00 0.000000000000000000e+00 0.000000000000000000e+00 -1.644152948077108600e-02 -2.732339112377768151e-02 0.000000000000000000e+00 0.000000000000000000e+00 0.000000000000000000e+00 0.000000000000000000e+00 0.000000000000000000e+00 0.000000000000000000e+00 0.000000000000000000e+00 0.000000000000000000e+00
2.000000000000000000e+00 9.828146740663660230e-01 0.000000000000000000e+00 1.718532593363351207e-02 0.000000000000000000e+00 0.000000000000000000e+00 0.000000000000000000e+00 6.779628989380619142e-02 1.108827239020029470e-01 0.000000000000000000e+00 0.000000000000000000e+00 0.000000000000000000e+00 0.000000000000000000e+00 0.000000000000000000e+00 0.000000000000000000e+00 0.000000000000000000e+00 0.000000000000000000e+00
2.099999999999999645e+00 9.155473626277708110e-01 0.000000000000000000e+00 8.445263737222932776e-02 0.000000000000000000e+00 0.000000000000000000e+00 0.000000000000000000e+00 1.467979964013902683e-01 2.361616583231117839e-01 0.000000000000000000e+00 0.000000000000000000e+00 0.000000000000000000e+00 0.000000000000000000e+00 0.000000000000000000e+00 0.000000000000000000e+00 0.000000000000000000e+00 0.000000000000000000e+00
2.199999999999999734e+00 8.043107429984490686e-01 0.000000000000000000e+00 1.956892570015527077e-01 0.000000000000000000e+00 0.000000000000000000e+00 0.000000000000000000e+00 2.121881929266309919e-01 3.352208803106994095e-01 0.000000000000000000e+00 0.000000000000000000e+00 0.000000000000000000e+00 0.000000000000000000e+00 0.000000000000000000e+00 0.000000000000000000e+00 0.000000000000000000e+00 0.000000000000000000e+00
2.299999999999999822e+00 6.609027024454108279e-01 0.000000000000000000e+00 3.390972975545881729e-01 0.000000000000000000e+00 0.000000000000000000e+00 0.000000000000000000e+00 2.570722755543239368e-01 3.975253560122919971e-01 0.000000000000000000e+00 0.000000000000000000e+00 0.000000000000000000e+00 0.000000000000000000e+00 0.000000000000000000e+00 0.000000000000000000e+00 0.000000000000000000e+00 0.000000000000000000e+00
2.399999999999999911e+00 5.005375452614848619e-01 0.000000000000000000e+00 4.994624547385155822e-01 0.000000000000000000e+00 0.000000000000000000e+00 0.000000000000000000e+00 2.767574446824948575e-01 4.164224583595324547e-01 0.000000000000000000e+00 0.000000000000000000e+00 0.000000000000000000e+00 0.000000000000000000e+00 0.000000000000000000e+00 0.000000000000000000e+00 0.000000000000000000e+00 0.000000000000000000e+00
2.500000000000000000e+00 3.402312833348110632e-01 0.000000000000000000e+00 6.597687166651902135e-01 0.000000000000000000e+00 0.000000000000000000e+00 0.000000000000000000e+00 2.692388772703152577e-01 3.898556940309120811e-01 0.000000000000000000e+00 0.000000000000000000e+00 0.000000000000000000e+00 0.000000000000000000e+00 0.000000000000000000e+00 0.000000000000000000e+00 0.000000000000000000e+00 0.000000000000000000e+00
2.600000000000000089e+00 1.969955588283688885e-01 0.000000000000000000e+00 8.030044411716316111e-01 0.000000000000000000e+00 0.000000000000000000e+00 0.000000000000000000e+00 2.354006195128740819e-01 3.205907513968063727e-01 0.000000000000000000e+00 0.000000000000000000e+00 0.000000000000000000e+00 0.000000000000000000e+00 0.000000000000000000e+00 0.000000000000000000e+00 0.000000000000000000e+00 0.000000000000000000e+00
2.699999999999999734e+00 8.603190157992680887e-02 0.000000000000000000e+00 9.139680984200723168e-01 0.000000000000000000e+00 0.000000000000000000e+00 0.000000000000000000e+00 1.789109480264375329e-01 2.159291791274937644e-01 0.000000000000000000e+00 0.000000000000000000e+00 0.000000000000000000e+00 0.000000000000000000e+00 0.000000000000000000e+00 0.000000000000000000e+00 0.000000000000000000e+00 0.000000000000000000e+00
2.799999999999999822e+00 1.911799803645414242e-02 0.000000000000000000e+00 9.808820019635461351e-01 0.000000000000000000e+00 0.000000000000000000e+00 0.000000000000000000e+00 1.058241990249730174e-01 8.693948894928207882e-02 0.000000000000000000e+00 0.000000000000000000e+00 0.000000000000000000e+00 0.000000000000000000e+00 0.000000000000000000e+00 0.000000000000000000e+00 0.000000000000000000e+00 0.000000000000000000e+00
2.899999999999999911e+00 3.357276777914918863e-03 0.000000000000000000e+00 9.966427232220834709e-01 0.000000000000000000e+00 0.000000000000000000e+00 0.000000000000000000e+00 2.393197583694552794e-02 -5.271315774277681582e-02 0.000000000000000000e+00 0.000000000000000000e+00 0.000000000000000000e+00 0.000000000000000000e+00 0.000000000000000000e+00 0.000000000000000000e+00 0.000000000000000000e+00 0.000000000000000000e+00
3.000000000000000000e+00 4.042455955569685538e-02 0.000000000000000000e+00 9.595754404443023189e-01 0.000000000000000000e+00 0.000000000000000000e+00 0.000000000000000000e+00 -5.806704037810998115e-02 -1.882147380370580436e-01 0.000000000000000000e+00 0.000000000000000000e+00 0.000000000000000000e+00 0.000000000000000000e+00 0.000000000000000000e+00 0.000000000000000000e+00 0.000000000000000000e+00 0.000000000000000000e+00
