1.000000000000000056e-01 9.759032350845255888e-01 0.000000000000000000e+00 2.409676491547558044e-02 0.000000000000000000e+00 0.000000000000000000e+00 0.000000000000000000e+00 1.532574070615275175e-01 5.317763781779342308e-03 0.000000000000000000e+00 0.000000000000000000e+00 0.000000000000000000e+00 0.000000000000000000e+00 0.000000000000000000e+00 0.000000000000000000e+00 0.000000000000000000e+00 0.000000000000000000e+00
2.000000000000000111e-01 9.061958396854180586e-01 0.000000000000000000e+00 9.380416031458145565e-02 0.000000000000000000e+00 0.000000000000000000e+00 0.000000000000000000e+00 2.912130767223002348e-01 1.413812262401979193e-02 0.000000000000000000e+00 0.000000000000000000e+00 0.000000000000000000e+00 0.000000000000000000e+00 0.000000000000000000e+00 0.000000000000000000e+00 0.000000000000000000e+00 0.000000000000000000e+00
2.999999999999999889e-01 7.983501577728848719e-01 0.000000000000000000e+00 2.016498422271157942e-01 0.000000000000000000e+00 0.000000000000000000e+00 0.000000000000000000e+00 4.001513821880807176e-01 2.942893204255878428e-02 0.000000000000000000e+00 0.000000000000000000e+00 0.000000000000000000e+00 0.000000000000000000e+00 0.000000000000000000e+00 0.000000000000000000e+00 0.000000000000000000e+00 0.000000000000000000e+00
4.000000000000000222e-01 6.639284222660392087e-01 0.000000000000000000e+00 3.360715777339604582e-01 0.000000000000000000e+00 0.000000000000000000e+00 0.000000000000000000e+00 4.693633636687506994e-01 5.315562646350150550e-02 0.000000000000000000e+00 0.000000000000000000e+00 0.000000000000000000e+00 0.000000000000000000e+00 0.000000000000000000e+00 0.000000000000000000e+00 0.000000000000000000e+00 0.000000000000000000e+00
5.000000000000000000e-01 5.173453713510560714e-01 0.000000000000000000e+00 4.826546286489442616e-01 0.000000000000000000e+00 0.000000000000000000e+00 0.000000000000000000e+00 4.922535128987144404e-01 8.593977314899219067e-02 0.000000000000000000e+00 0.000000000000000000e+00 0.000000000000000000e+00 0.000000000000000000e+00 0.000000000000000000e+00 0.000000000000000000e+00 0.000000000000000000e+00 0.000000000000000000e+00
5.999999999999999778e-01 3.743251744709788498e-01 0.000000000000000000e+00 6.256748255290208727e-01 0.000000000000000000e+00 0.000000000000000000e+00 0.000000000000000000e+00 4.670174220710446855e-01 1.268881758527814763e-01 0.000000000000000000e+00 0.000000000000000000e+00 0.000000000000000000e+00 0.000000000000000000e+00 0.000000000000000000e+00 0.000000000000000000e+00 0.000000000000000000e+00 0.000000000000000000e+00
6.999999999999999556e-01 2.502174795174806898e-01 0.000000000000000000e+00 7.497825204825204759e-01 0.000000000000000000e+00 0.000000000000000000e+00 0.000000000000000000e+00 3.968198577675819405e-01 1.736166917717126834e-01 0.000000000000000000e+00 0.000000000000000000e+00 0.000000000000000000e+00 0.000000000000000000e+00 0.000000000000000000e+00 0.000000000000000000e+00 0.000000000000000000e+00 0.000000000000000000e+00
7.999999999999999334e-01 1.583524901287550468e-01 0.000000000000000000e+00 8.416475098712463687e-01 0.000000000000000000e+00 0.000000000000000000e+00 0.000000000000000000e+00 2.894551022252683237e-01 2.224697898549628794e-01 0.000000000000000000e+00 0.000000000000000000e+00 0.000000000000000000e+00 0.000000000000000000e+00 0.000000000000000000e+00 0.000000000000000000e+00 0.000000000000000000e+00 0.000000000000000000e+00
8.999999999999999112e-01 1.086108891883999922e-01 0.000000000000000000e+00 8.913891108115994388e-01 0.000000000000000000e+00 0.000000000000000000e+00 0.000000000000000000e+00 1.565255600078944431e-01 2.689134101197480087e-01 0.000000000000000000e+00 0.000000000000000000e+00 0.000000000000000000e+00 0.000000000000000000e+00 0.000000000000000000e+00 0.000000000000000000e+00 0.000000000000000000e+00 0.000000000000000000e+00
9.999999999999998890e-01 1.063615726867249561e-01 0.000000000000000000e+00 8.936384273132750300e-01 0.000000000000000000e+00 0.000000000000000000e+00 0.000000000000000000e+00 1.222497971192397850e-02 3.080575854830013283e-01 0.000000000000000000e+00 0.000000000000000000e+00 0.000000000000000000e+00 0.000000000000000000e+00 0.000000000000000000e+00 0.000000000000000000e+00 0.000000000000000000e+00 0.000000000000000000e+00
1.099999999999999867e+00 1.518809773284336140e-01 0.000000000000000000e+00 8.481190226715673575e-01 0.000000000000000000e+00 0.000000000000000000e+00 0.000000000000000000e+00 -1.281460887286114958e-01 3.352490095643056445e-01 0.000000000000000000e+00 0.000000000000000000e+00 0.000000000000000000e+00 0.000000000000000000e+00 0.000000000000000000e+00 0.000000000000000000e+00 0.000000000000000000e+00 0.000000000000000000e+00
1.199999999999999956e+00 2.403164467486221256e-01 0.000000000000000000e+00 7.596835532513777078e-01 0.000000000000000000e+00 0.000000000000000000e+00 0.000000000000000000e+00 -2.497771111612029360e-01 3.466641949899275099e-01 0.000000000000000000e+00 0.000000000000000000e+00 0.000000000000000000e+00 0.000000000000000000e+00 0.000000000000000000e+00 0.000000000000000000e+00 0.000000000000000000e+00 0.000000000000000000e+00
1.300000000000000044e+00 3.621980529936825177e-01 0.000000000000000000e+00 6.378019470063184260e-01 0.000000000000000000e+00 0.000000000000000000e+00 0.000000000000000000e+00 -3.398896149221465879e-01 3.398322358563186096e-01 0.000000000000000000e+00 0.000000000000000000e+00 0.000000000000000000e+00 0.000000000000000000e+00 0.000000000000000000e+00 0.000000000000000000e+00 0.000000000000000000e+00 0.000000000000000000e+00
1.399999999999999911e+00 5.044447550670869695e-01 0.000000000000000000e+00 4.955552449329126974e-01 0.000000000000000000e+00 0.000000000000000000e+00 0.000000000000000000e+00 -3.890633731810818619e-01 3.140227475771037446e-01 0.000000000000000000e+00 0.000000000000000000e+00 0.000000000000000000e+00 0.000000000000000000e+00 0.000000000000000000e+00 0.000000000000000000e+00 0.000000000000000000e+00 0.000000000000000000e+00
1.500000000000000000e+00 6.517579744065358227e-01 0.000000000000000000e+00 3.482420255934630671e-01 0.000000000000000000e+00 0.000000000000000000e+00 0.000000000000000000e+00 -3.922084650630277003e-01 2.704486648046374730e-01 0.000000000000000000e+00 0.000000000000000000e+00 0.000000000000000000e+00 0.000000000000000000e+00 0.000000000000000000e+00 0.000000000000000000e+00 0.000000000000000000e+00 0.000000000000000000e+00
1.599999999999999867e+00 7.882542298468958597e-01 0.000000000000000000e+00 2.117457701531035852e-01 0.000000000000000000e+00 0.000000000000000000e+00 0.000000000000000000e+00 -3.490822363401711037e-01 2.122537309388076165e-01 0.000000000000000000e+00 0.000000000000000000e+00 0.000000000000000000e+00 0.000000000000000000e+00 0.000000000000000000e+00 0.000000000000000000e+00 0.000000000000000000e+00 0.000000000000000000e+00
1.699999999999999956e+00 8.991628255313458551e-01 0.000000000000000000e+00 1.008371744686536453e-01 0.000000000000000000e+00 0.000000000000000000e+00 0.000000000000000000e+00 -2.642980073042466294e-01 1.442785093569939059e-01 0.000000000000000000e+00 0.000000000000000000e+00 0.000000000000000000e+00 0.000000000000000000e+00 0.000000000000000000e+00 0.000000000000000000e+00 0.000000000000000000e+00 0.000000000000000000e+00
1.800000000000000044e+00 9.724074684009578196e-01 0.000000000000000000e+00 2.759253159904214228e-02 0.000000000000000000e+00 0.000000000000000000e+00 0.000000000000000000e+00 -1.468257019744788616e-01 7.262392662269584465e-02 0.000000000000000000e+00 0.000000000000000000e+00 0.000000000000000000e+00 0.000000000000000000e+00 0.000000000000000000e+00 0.000000000000000000e+00 0.000000000000000000e+00 0.000000000000000000e+00
1.899999999999999911e+00 9.999028786150271353e-01 0.000000000000000000e+00 9.712138497151113830e-05 0.000000000000000000e+00 0.000000000000000000e+00 0.000000000000000000e+00 -9.037804638076820524e-03 4.054895553734678970e-03 0.000000000000000000e+00 0.000000000000000000e+00 0.000000000000000000e+00 0.000000000000000000e+00 0.000000000000000000e+00 0.000000000000000000e+00 0.000000000000000000e+00 0.000000000000000000e+00
2.000000000000000000e+00 9.784276621101135607e-01 0.000000000000000000e+00 2.157233788988681400e-02 0.000000000000000000e+00 0.000000000000000000e+00 0.000000000000000000e+00 1.345983995722536408e-01 -5.469421668243808210e-02 0.000000000000000000e+00 0.000000000000000000e+00 0.000000000000000000e+00 0.000000000000000000e+00 0.000000000000000000e+00 0.000000000000000000e+00 0.000000000000000000e+00 0.000000000000000000e+00
2.099999999999999645e+00 9.099797349295123405e-01 0.000000000000000000e+00 9.002026507048806192e-02 0.000000000000000000e+00 0.000000000000000000e+00 0.000000000000000000e+00 2.690444564292563956e-01 -9.763784287084267821e-02 0.000000000000000000e+00 0.000000000000000000e+00 0.000000000000000000e+00 0.000000000000000000e+00 0.000000000000000000e+00 0.000000000000000000e+00 0.000000000000000000e+00 0.000000000000000000e+00
2.199999999999999734e+00 8.015756394991917499e-01 0.000000000000000000e+00 1.984243605008078615e-01 0.000000000000000000e+00 0.000000000000000000e+00 0.000000000000000000e+00 3.802700368632697114e-01 -1.202021706514999622e-01 0.000000000000000000e+00 0.000000000000000000e+00 0.000000000000000000e+00 0.000000000000000000e+00 0.000000000000000000e+00 0.000000000000000000e+00 0.000000000000000000e+00 0.000000000000000000e+00
2.299999999999999822e+00 6.645143177518502142e-01 0.000000000000000000e+00 3.354856822481503964e-01 0.000000000000000000e+00 0.000000000000000000e+00 0.000000000000000000e+00 4.567221656009967101e-01 -1.197579145406950513e-01 0.000000000000000000e+00 0.000000000000000000e+00 0.000000000000000000e+00 0.000000000000000000e+00 0.000000000000000000e+00 0.000000000000000000e+00 0.000000000000000000e+00 0.000000000000000000e+00
2.399999999999999911e+00 5.131830003444151078e-01 0.000000000000000000e+00 4.868169996555860024e-01 0.000000000000000000e+00 0.000000000000000000e+00 0.000000000000000000e+00 4.905305401387624054e-01 -9.596057577958883034e-02 0.000000000000000000e+00 0.000000000000000000e+00 0.000000000000000000e+00 0.000000000000000000e+00 0.000000000000000000e+00 0.000000000000000000e+00 0.000000000000000000e+00 0.000000000000000000e+00
2.500000000000000000e+00 3.635317528152230415e-01 0.000000000000000000e+00 6.364682471847762368e-01 0.000000000000000000e+00 0.000000000000000000e+00 0.000000000000000000e+00 4.783231079610569259e-01 -5.085558138459549127e-02 0.000000000000000000e+00 0.000000000000000000e+00 0.000000000000000000e+00 0.000000000000000000e+00 0.000000000000000000e+00 0.000000000000000000e+00 0.000000000000000000e+00 0.000000000000000000e+00
2.600000000000000089e+00 2.313786758303837676e-01 0.000000000000000000e+00 7.686213241696161491e-01 0.000000000000000000e+00 0.000000000000000000e+00 0.000000000000000000e+00 4.215672424682024300e-01 1.126947928658466117e-02 0.000000000000000000e+00 0.000000000000000000e+00 0.000000000000000000e+00 0.000000000000000000e+00 0.000000000000000000e+00 0.000000000000000000e+00 0.000000000000000000e+00 0.000000000000000000e+00
2.699999999999999734e+00 1.307260002925362263e-01 0.000000000000000000e+00 8.692739997074634406e-01 0.000000000000000000e+00 0.000000000000000000e+00 0.000000000000000000e+00 3.264018450982216213e-01 8.427602233580176738e-02 0.000000000000000000e+00 0.000000000000000000e+00 0.000000000000000000e+00 0.000000000000000000e+00 0.000000000000000000e+00 0.000000000000000000e+00 0.000000000000000000e+00 0.000000000000000000e+00
2.799999999999999822e+00 7.226639090407292743e-02 0.000000000000000000e+00 9.277336090959269477e-01 0.000000000000000000e+00 0.000000000000000000e+00 0.000000000000000000e+00 2.029792363282201528e-01 1.607727723053496982e-01 0.000000000000000000e+00 0.000000000000000000e+00 0.000000000000000000e+00 0.000000000000000000e+00 0.000000000000000000e+00 0.000000000000000000e+00 0.000000000000000000e+00 0.000000000000000000e+00
2.899999999999999911e+00 6.223875450367370721e-02 0.000000000000000000e+00 9.377612454963271116e-01 0.000000000000000000e+00 0.000000000000000000e+00 0.000000000000000000e+00 6.438715009474084427e-02 2.328616166983308866e-01 0.000000000000000000e+00 0.000000000000000000e+00 0.000000000000000000e+00 0.000000000000000000e+00 0.000000000000000000e+00 0.000000000000000000e+00 0.000000000000000000e+00 0.000000000000000000e+00
3.000000000000000000e+00 1.017558545779389950e-01 0.000000000000000000e+00 8.982441454220609911e-01 0.000000000000000000e+00 0.000000000000000000e+00 0.000000000000000000e+00 -7.473488940653184864e-02 2.929541810440886018e-01 0.000000000000000000e+00 0.000000000000000000e+00 0.000000000000000000e+00 0.000000000000000000e+00 0.000000000000000000e+00 0.000000000000000000e+00 0.000000000000000000e+00 0.000000000000000000e+00
