0.000000000000000000e+00 -6.394039300899590103e-12 9.233343242028912167e-12 -1.000000000000000000e+00
1.025641025641025605e-01 -1.709138209121369156e-01 2.264426167956468394e-01 -9.388647282632396340e-01
2.051282051282051211e-01 -3.376492019878691853e-01 4.035343556596419079e-01 -7.678786295196528000e-01
3.076923076923077094e-01 -4.900623286484547814e-01 4.954601608007273006e-01 -5.200324865219074777e-01
4.102564102564102422e-01 -6.108460076772826985e-01 4.893980600031642703e-01 -2.381138526568631619e-01
5.128205128205127750e-01 -6.805768263736755586e-01 3.978229936321155402e-01 3.763233066201085442e-02
6.153846153846154188e-01 -6.862188225287487731e-01 2.528463149757750328e-01 2.786153686966077458e-01
7.179487179487179516e-01 -6.279468767020695008e-01 9.472947010453290628e-02 4.710900901321068424e-01
8.205128205128204844e-01 -5.203630475493494778e-01 -4.087293089694983561e-02 6.141746340069415000e-01
9.230769230769230171e-01 -3.875718645995531730e-01 -1.320791961928258762e-01 7.150689744964503491e-01
1.025641025641025550e+00 -2.551072317180158033e-01 -1.735833520589582790e-01 7.840494906875093983e-01
1.128205128205128194e+00 -1.425926484130915495e-01 -1.734084125095476103e-01 8.309987151836351060e-01
1.230769230769230838e+00 -6.012910524122032363e-02 -1.464901106019583232e-01 8.636722304421764473e-01
1.333333333333333259e+00 -8.600430958941539944e-03 -1.082763524482592693e-01 8.874081838698824054e-01
1.435897435897435903e+00 1.734238583471294642e-02 -7.052983105778863615e-02 9.055406512797563590e-01
1.538461538461538325e+00 2.562703480623192837e-02 -3.991947383716270420e-02 9.200162322891074496e-01
1.641025641025640969e+00 2.391730833823534075e-02 -1.861223657303971019e-02 9.319385241867423897e-01
1.743589743589743613e+00 1.803215632338964203e-02 -5.834677027861631324e-03 9.419440980001765329e-01
1.846153846153846034e+00 1.158979463235789917e-02 5.309657372290412652e-04 9.504265390678169334e-01
1.948717948717948678e+00 6.364778231332722698e-03 2.811066496439343712e-03 9.576561481302404699e-01
2.051282051282051100e+00 2.844451380694000206e-03 2.922707296943779110e-03 9.638378105571194787e-01
2.153846153846153744e+00 8.558005485538452365e-04 2.173678994923735480e-03 9.691366744091396423e-01
2.256410256410256387e+00 -4.976482545174351797e-05 1.300730561126603891e-03 9.736898557632179818e-01
2.358974358974359031e+00 -3.197835315056856797e-04 6.284027260894591927e-04 9.776119696772951340e-01
2.461538461538461675e+00 -2.903264076235216183e-04 2.250727261822164536e-04 9.809984911371534277e-01
2.564102564102563875e+00 -1.825570596445424455e-04 3.482950974260679575e-05 9.839283739764407288e-01
2.666666666666666519e+00 -8.426114298543043325e-05 -2.624960334027128352e-05 9.864664492035148946e-01
2.769230769230769162e+00 -2.888404060330879765e-05 -2.705849060976892330e-05 9.886656469079874165e-01
2.871794871794871806e+00 -5.864304644560151597e-06 -1.691015439459245365e-05 9.905690762503513991e-01
2.974358974358974450e+00 -3.838300660537942595e-07 -5.034376160029046824e-06 9.922120412596012740e-01
3.076923076923076650e+00 4.777300617110442930e-06 -2.673801430408836148e-06 9.936237882694076706e-01
3.179487179487179294e+00 7.779427729191091381e-07 8.705448652757417070e-07 9.948291293674064173e-01
3.282051282051281937e+00 -2.434125616401858560e-06 6.517283493806323269e-07 9.958498015286235683e-01
3.384615384615384581e+00 -1.550767040161922966e-07 1.982922276326198762e-06 9.967055271317231124e-01
3.487179487179487225e+00 -5.813611707638312516e-07 -6.758197118015012038e-08 9.974147882060325765e-01
3.589743589743589425e+00 2.074333884858955069e-07 -1.252905434124699364e-07 9.979952452871906354e-01
3.692307692307692069e+00 2.102394177200998304e-08 3.483902758934217685e-07 9.984638755482441175e-01
3.794871794871794712e+00 -2.872045498213138338e-06 -2.868954328415218834e-06 9.988369084983931279e-01
3.897435897435897356e+00 -2.261544225239215326e-06 -1.263824405386972496e-06 9.991295973654492624e-01
4.000000000000000000e+00 -1.109805691171856575e-06 3.353198546707054773e-07 9.993559757157036705e-01
