0.000000000000000000e+00 -6.420408723006001742e-12 9.351553056812646818e-12 -1.000000000000000000e+00
1.025641025641025605e-01 -1.717780365050176616e-01 2.293743463939802441e-01 -9.400161185656873419e-01
2.051282051282051211e-01 -3.399420216411051521e-01 4.092641489273198263e-01 -7.720557090483480822e-01
3.076923076923077094e-01 -4.947594731724423989e-01 5.035571608746488570e-01 -5.280148454881811171e-01
4.102564102564102422e-01 -6.190123980236567069e-01 4.988926098437885814e-01 -2.494162857787300125e-01
5.128205128205127750e-01 -6.929136070420587323e-01 4.071039420803760356e-01 2.445504758929456859e-02
6.153846153846154188e-01 -7.025798368974864871e-01 2.598339616843614586e-01 2.653077235992342131e-01
7.179487179487179516e-01 -6.470519321988683625e-01 9.739567231078521958e-02 4.591266849812243311e-01
8.205128205128204844e-01 -5.398996316072250945e-01 -4.380358761215830121e-02 6.044054892905152965e-01
9.230769230769230171e-01 -4.047881976237728274e-01 -1.405779472348032688e-01 7.076609104989434185e-01
1.025641025641025550e+00 -2.676274266100181487e-01 -1.861963267037806125e-01 7.786985139593298744e-01
1.128205128205128194e+00 -1.491781726279604869e-01 -1.877014262136723344e-01 8.271802923836583110e-01
1.230769230769230838e+00 -6.097659999291633881e-02 -1.598386580507194510e-01 8.608648821985450672e-01
1.333333333333333259e+00 -5.142473818549458953e-03 -1.186650532383401180e-01 8.852106902626912799e-01
1.435897435897435903e+00 2.305289051406794049e-02 -7.702840325230446428e-02 9.037062141647245195e-01
1.538461538461538325e+00 3.162576859347598218e-02 -4.270402176347578432e-02 9.184283565876748545e-01
1.641025641025640969e+00 2.880739389513621573e-02 -1.864609726675773432e-02 9.305671127349933736e-01
1.743589743589743613e+00 2.121043517585996518e-02 -4.357773675349957063e-03 9.408039986283397438e-01
1.846153846153846034e+00 1.312755809081864178e-02 2.423751855855200976e-03 9.495476190092336788e-01
1.948717948717948678e+00 6.702426168966389534e-03 4.414061468176017425e-03 9.570658754168570592e-01
2.051282051282051100e+00 2.555416935333148197e-03 3.950040706765290538e-03 9.635522049970750569e-01
2.153846153846153744e+00 3.855966642832006977e-04 2.650953604695200326e-03 9.691580820694257747e-01
2.256410256410256387e+00 -4.401579475992078083e-04 1.415037141955977854e-03 9.740070670110969608e-01
2.358974358974359031e+00 -5.480664753292124533e-04 5.685367430149088422e-04 9.782018468612974083e-01
2.461538461538461675e+00 -3.848774857441352847e-04 1.321836692063720032e-04 9.818279136202340274e-01
2.564102564102563875e+00 -2.011568681874215548e-04 -3.339763939692858398e-05 9.849564475310201850e-01
2.666666666666666519e+00 -7.464810440383977494e-05 -6.116500456245028603e-05 9.876467090139041671e-01
2.769230769230769162e+00 -1.531518368705589669e-05 -3.860276272333397528e-05 9.899485011564767012e-01
2.871794871794871806e+00 4.286325620171594603e-06 -1.821507402643050101e-05 9.919044364143835280e-01
2.974358974358974450e+00 4.926442681818324557e-06 -1.712502045110787908e-06 9.935519789849247552e-01
3.076923076923076650e+00 2.280927927595993374e-06 -1.206200236008819728e-06 9.949251510969675527e-01
3.179487179487179294e+00 6.385035373606059859e-07 7.039571788885249014e-07 9.960557405363681394e-01
3.282051282051281937e+00 1.198139806675512579e-06 6.090595249384604622e-07 9.969740294278937043e-01
3.384615384615384581e+00 4.809737211928258611e-06 -1.865442083311374651e-06 9.977090354923975335e-01
3.487179487179487225e+00 -2.582303476684674669e-06 8.265780006228056228e-07 9.982883716311341527e-01
3.589743589743589425e+00 -4.386835376854247631e-06 3.419057084069362445e-07 9.987378787851518558e-01
3.692307692307692069e+00 -3.096707492052811235e-06 -1.386799901758492767e-06 9.990811911288890457e-01
3.794871794871794712e+00 -3.738409617218587985e-06 -2.221794720475979961e-07 9.993393493547378936e-01
3.897435897435897356e+00 -5.262637215175496990e-06 -7.270333866817028825e-08 9.995305621904961857e-01
4.000000000000000000e+00 2.519603352367657899e-06 -2.901925717538709269e-06 9.996701558329357251e-01
