0.000000000000000000e+00 -7.169353713317972638e-12 1.003701838688812854e-11 -1.000000000000000000e+00
1.025641025641025605e-01 -1.911570115594637687e-01 2.458880472963363706e-01 -9.458871075589628807e-01
2.051282051282051211e-01 -3.796612241630771822e-01 4.409656692955430946e-01 -7.933184097867732598e-01
3.076923076923077094e-01 -5.567664381050725364e-01 5.471576292941656705e-01 -5.684232151623279661e-01
4.102564102564102422e-01 -7.056864660261190636e-01 5.480527616479106134e-01 -3.057103546469383537e-01
5.128205128205127750e-01 -8.052867370667161628e-01 4.516035607119884832e-01 -3.885504031495118360e-02
6.153846153846154188e-01 -8.374406652569886811e-01 2.862738883800461931e-01 2.061812935150839354e-01
7.179487179487179516e-01 -7.943896156979953771e-01 9.234698876064406647e-02 4.141121229681233307e-01
8.205128205128204844e-01 -6.827844311108330899e-01 -8.870587836938137460e-02 5.796332112831773520e-01
9.230769230769230171e-01 -5.229637402875392249e-01 -2.238914356777283454e-01 7.047275030297135423e-01
1.025641025641025550e+00 -3.439988604854480880e-01 -2.952002138414210886e-01 7.954304957239737295e-01
1.128205128205128194e+00 -1.762639819897250937e-01 -3.017224426747376342e-01 8.591843343728640114e-01
1.230769230769230838e+00 -4.388318430507382600e-02 -2.573146825137355154e-01 9.030986782381569267e-01
1.333333333333333259e+00 4.059631468993009362e-02 -1.846562360263754032e-01 9.330776639699952524e-01
1.435897435897435903e+00 7.776212931144066420e-02 -1.075829974508063780e-01 9.535864816288137646e-01
1.538461538461538325e+00 7.866010285381488942e-02 -4.429199418520160525e-02 9.677593025796092929e-01
1.641025641025640969e+00 5.927972896722719098e-02 -3.529131248905609253e-03 9.776827100235290224e-01
1.743589743589743613e+00 3.456067391438675390e-02 1.516606170042877899e-02 9.846983174620573820e-01
1.846153846153846034e+00 1.429089342355881545e-02 1.819979129765421366e-02 9.896678176477131661e-01
1.948717948717948678e+00 2.140983753601216968e-03 1.349636676450009440e-02 9.931612860679056576e-01
2.051282051282051100e+00 -2.781754295537336788e-03 7.248365686906730818e-03 9.955775752734591366e-01
2.153846153846153744e+00 -3.330988155232191689e-03 2.610891880837139505e-03 9.972115153745996219e-01
2.256410256410256387e+00 -2.196343969416231223e-03 2.468733690982672421e-04 9.982873504585274560e-01
2.358974358974359031e+00 -9.940033093771088145e-04 -4.820996359272744286e-04 9.989756768117307173e-01
2.461538461538461675e+00 -2.704439829155901595e-04 -4.481584837788944817e-04 9.994033206146479831e-01
2.564102564102563875e+00 1.102258961473205580e-05 -2.376958263658200449e-04 9.996613437895071064e-01
2.666666666666666519e+00 6.201586936258560460e-05 -8.120544552936079241e-05 9.998126253863468538e-01
2.769230769230769162e+00 4.169016007820071086e-05 -1.396593095967409566e-05 9.998988812013591687e-01
2.871794871794871806e+00 1.551726702111046091e-05 2.415049955750273633e-06 9.999467472592661332e-01
2.974358974358974450e+00 3.623891515730930958e-06 1.032685019514225329e-05 9.999726189309232627e-01
3.076923076923076650e+00 4.083194247895639216e-06 3.843847767417780047e-06 9.999862488435036223e-01
3.179487179487179294e+00 1.312092647439493433e-06 -5.790661359833495249e-07 9.999932519230607664e-01
3.282051282051281937e+00 5.155752828908134597e-08 1.372527211730513312e-07 9.999967631386630362e-01
3.384615384615384581e+00 2.313924148289963011e-06 -2.286805651422059710e-06 9.999984818366254302e-01
3.487179487179487225e+00 -2.078918249688182226e-06 2.972938844244812248e-06 9.999993035381393724e-01
3.589743589743589425e+00 -8.957524078400561555e-07 -3.971977904734136097e-07 9.999996874017272885e-01
3.692307692307692069e+00 -1.608679741098677263e-06 2.825133481193539479e-06 9.999998626807320434e-01
3.794871794871794712e+00 -2.023266022340388191e-06 1.257221432557973885e-06 9.999999409501177938e-01
3.897435897435897356e+00 -2.104870505364244079e-06 1.507181959778888762e-06 9.999999751364253564e-01
4.000000000000000000e+00 -2.708651576514015271e-06 -2.233908032567489448e-06 9.999999897436897545e-01
