1.000000000000000056e-01 -2.930924297929120015e-01 8.007847848562241189e-02 -9.487517082552727743e-01
2.000000000000000111e-01 -5.572614552299062218e-01 1.305548203364968463e-01 -8.030809106729492886e-01
2.999999999999999889e-01 -7.662083808148791864e-01 1.307944899465524058e-01 -5.851870317901193275e-01
4.000000000000000222e-01 -8.993709623899103223e-01 7.522465957217247534e-02 -3.260110099081544033e-01
5.000000000000000000e-01 -9.453712901086251952e-01 -2.535886131717260406e-02 -5.825628092147662473e-02
5.999999999999999778e-01 -9.048267502874229873e-01 -1.475965586858959677e-01 1.900708310727059203e-01
6.999999999999999556e-01 -7.911495561052732661e-01 -2.630344571327046799e-01 3.998996141540942517e-01
7.999999999999999334e-01 -6.283608910238337453e-01 -3.466812088137899428e-01 5.624505236965667843e-01
8.999999999999999112e-01 -4.460488747000949661e-01 -3.837052484592653467e-01 6.779797218465947184e-01
9.999999999999998890e-01 -2.728304298372617454e-01 -3.723186717276882884e-01 7.529370549437737203e-01
1.099999999999999867e+00 -1.303562530738366365e-01 -3.222615788691940431e-01 7.967704162553251868e-01
1.199999999999999956e+00 -2.977324840428818148e-02 -2.501077674998220535e-01 8.192119805897227769e-01
1.300000000000000044e+00 2.849824811668076260e-02 -1.734198179701489095e-01 8.285755609836855662e-01
1.399999999999999911e+00 5.211204682746602146e-02 -1.059509511100909657e-01 8.310411784506612776e-01
1.500000000000000000e+00 5.264317131650061293e-02 -5.520631537337471889e-02 8.306733568621794683e-01
1.599999999999999867e+00 4.155540359008960682e-02 -2.253392477424594892e-02 8.298359352835307234e-01
1.699999999999999956e+00 2.753977283284913743e-02 -4.993527230624688826e-03 8.297123110529698309e-01
1.800000000000000044e+00 1.559105375366006720e-02 2.208352710503166082e-03 8.307661516023082671e-01
1.899999999999999911e+00 7.479776845719797625e-03 3.713215393079585119e-03 8.330739004138457693e-01
2.000000000000000000e+00 2.945489217216892396e-03 2.892536003393547835e-03 8.365312518025581623e-01
2.099999999999999645e+00 8.794652286413649116e-04 1.653711374247018775e-03 8.409663924329040530e-01
2.199999999999999734e+00 1.587612081143429180e-04 7.493522511102613864e-04 8.461945443415502810e-01
2.299999999999999822e+00 -3.490009191700497550e-06 2.872141894863243007e-04 8.520410831478210101e-01
2.399999999999999911e+00 -2.070519699943824913e-05 1.181655953312018209e-04 8.583496983078535703e-01
2.500000000000000000e+00 -4.055074561215950757e-05 7.379204346498753728e-05 8.649841821728794233e-01
2.600000000000000089e+00 -7.545997213450704574e-05 5.006835249164982382e-05 8.718278317567546010e-01
2.699999999999999734e+00 -9.793611412597096760e-05 1.589300320279835618e-05 8.787818605190854671e-01
2.799999999999999822e+00 -8.659553912981293006e-05 -2.072506826418574931e-05 8.857635609163450052e-01
2.899999999999999911e+00 -5.072538028857709731e-05 -2.778714322412227978e-05 8.927043626198397641e-01
3.000000000000000000e+00 -2.275331963207871263e-05 9.819109629746876199e-07 8.995479468393233757e-01
