1.000000000000000056e-01 9.762431775889749419e-01 0.000000000000000000e+00 2.375682241102511361e-02 0.000000000000000000e+00 0.000000000000000000e+00 0.000000000000000000e+00 -4.292454087956138614e-02 1.461161168025925106e-01 0.000000000000000000e+00 0.000000000000000000e+00 0.000000000000000000e+00 0.000000000000000000e+00 0.000000000000000000e+00 0.000000000000000000e+00 0.000000000000000000e+00 0.000000000000000000e+00
3.034482758620690168e-01 7.960682628789989002e-01 0.000000000000000000e+00 2.039317371210010166e-01 0.000000000000000000e+00 0.000000000000000000e+00 0.000000000000000000e+00 -1.244832002047311648e-01 3.832068848333965994e-01 0.000000000000000000e+00 0.000000000000000000e+00 0.000000000000000000e+00 0.000000000000000000e+00 0.000000000000000000e+00 0.000000000000000000e+00 0.000000000000000000e+00 0.000000000000000000e+00
5.068965517241379448e-01 5.072943822064144292e-01 0.000000000000000000e+00 4.927056177935857373e-01 0.000000000000000000e+00 0.000000000000000000e+00 0.000000000000000000e+00 -1.893259552078078167e-01 4.627120860372414546e-01 0.000000000000000000e+00 0.000000000000000000e+00 0.000000000000000000e+00 0.000000000000000000e+00 0.000000000000000000e+00 0.000000000000000000e+00 0.000000000000000000e+00 0.000000000000000000e+00
7.103448275862068728e-01 2.273416205735011852e-01 0.000000000000000000e+00 7.726583794264990646e-01 0.000000000000000000e+00 0.000000000000000000e+00 0.000000000000000000e+00 -2.287608693073546751e-01 3.511778362366440032e-01 0.000000000000000000e+00 0.000000000000000000e+00 0.000000000000000000e+00 0.000000000000000000e+00 0.000000000000000000e+00 0.000000000000000000e+00 0.000000000000000000e+00 0.000000000000000000e+00
9.137931034482759118e-01 7.016612023890229921e-02 0.000000000000000000e+00 9.298338797610978812e-01 0.000000000000000000e+00 0.000000000000000000e+00 0.000000000000000000e+00 -2.378817875403001769e-01 9.303274136047133547e-02 0.000000000000000000e+00 0.000000000000000000e+00 0.000000000000000000e+00 0.000000000000000000e+00 0.000000000000000000e+00 0.000000000000000000e+00 0.000000000000000000e+00 0.000000000000000000e+00
1.117241379310345062e+00 9.994115748120996345e-02 0.000000000000000000e+00 9.000588425187898700e-01 0.000000000000000000e+00 0.000000000000000000e+00 0.000000000000000000e+00 -2.168141316188439416e-01 -2.072306803010040555e-01 0.000000000000000000e+00 0.000000000000000000e+00 0.000000000000000000e+00 0.000000000000000000e+00 0.000000000000000000e+00 0.000000000000000000e+00 0.000000000000000000e+00 0.000000000000000000e+00
1.320689655172413879e+00 3.048449752808437552e-01 0.000000000000000000e+00 6.951550247191564669e-01 0.000000000000000000e+00 0.000000000000000000e+00 0.000000000000000000e+00 -1.712562020893698966e-01 -4.273006313907543041e-01 0.000000000000000000e+00 0.000000000000000000e+00 0.000000000000000000e+00 0.000000000000000000e+00 0.000000000000000000e+00 0.000000000000000000e+00 0.000000000000000000e+00 0.000000000000000000e+00
1.524137931034482918e+00 6.016064836491008538e-01 0.000000000000000000e+00 3.983935163508992572e-01 0.000000000000000000e+00 0.000000000000000000e+00 0.000000000000000000e+00 -1.118554669598637169e-01 -4.766177471721187442e-01 0.000000000000000000e+00 0.000000000000000000e+00 0.000000000000000000e+00 0.000000000000000000e+00 0.000000000000000000e+00 0.000000000000000000e+00 0.000000000000000000e+00 0.000000000000000000e+00
1.727586206896551957e+00 8.690544759016206600e-01 0.000000000000000000e+00 1.309455240983791457e-01 0.000000000000000000e+00 0.000000000000000000e+00 0.000000000000000000e+00 -5.221279609521867204e-02 -3.332755878961995433e-01 0.000000000000000000e+00 0.000000000000000000e+00 0.000000000000000000e+00 0.000000000000000000e+00 0.000000000000000000e+00 0.000000000000000000e+00 0.000000000000000000e+00 0.000000000000000000e+00
1.931034482758620996e+00 9.971239511609467643e-01 0.000000000000000000e+00 2.876048839053494191e-03 0.000000000000000000e+00 0.000000000000000000e+00 0.000000000000000000e+00 -5.759836903941465032e-03 -5.324096840101132100e-02 0.000000000000000000e+00 0.000000000000000000e+00 0.000000000000000000e+00 0.000000000000000000e+00 0.000000000000000000e+00 0.000000000000000000e+00 0.000000000000000000e+00 0.000000000000000000e+00
2.134482758620690035e+00 9.315603144564729154e-01 0.000000000000000000e+00 6.843968554352673761e-02 0.000000000000000000e+00 0.000000000000000000e+00 0.000000000000000000e+00 1.774198541397858930e-02 2.518748034269824854e-01 0.000000000000000000e+00 0.000000000000000000e+00 0.000000000000000000e+00 0.000000000000000000e+00 0.000000000000000000e+00 0.000000000000000000e+00 0.000000000000000000e+00 0.000000000000000000e+00
2.337931034482759074e+00 6.961795098261295278e-01 0.000000000000000000e+00 3.038204901738707497e-01 0.000000000000000000e+00 0.000000000000000000e+00 0.000000000000000000e+00 1.501179063643354183e-02 4.596610086693096453e-01 0.000000000000000000e+00 0.000000000000000000e+00 0.000000000000000000e+00 0.000000000000000000e+00 0.000000000000000000e+00 0.000000000000000000e+00 0.000000000000000000e+00 0.000000000000000000e+00
2.541379310344827669e+00 3.836970200572038525e-01 0.000000000000000000e+00 6.163029799427957034e-01 0.000000000000000000e+00 0.000000000000000000e+00 0.000000000000000000e+00 -9.662413142171498437e-03 4.861895221972698522e-01 0.000000000000000000e+00 0.000000000000000000e+00 0.000000000000000000e+00 0.000000000000000000e+00 0.000000000000000000e+00 0.000000000000000000e+00 0.000000000000000000e+00 0.000000000000000000e+00
2.744827586206896708e+00 1.185892936862385644e-01 0.000000000000000000e+00 8.814107063137612830e-01 0.000000000000000000e+00 0.000000000000000000e+00 0.000000000000000000e+00 -4.561800076009138449e-02 3.200700968024397519e-01 0.000000000000000000e+00 0.000000000000000000e+00 0.000000000000000000e+00 0.000000000000000000e+00 0.000000000000000000e+00 0.000000000000000000e+00 0.000000000000000000e+00 0.000000000000000000e+00
2.948275862068965747e+00 7.053437652390782964e-03 0.000000000000000000e+00 9.929465623476094738e-01 0.000000000000000000e+00 0.000000000000000000e+00 0.000000000000000000e+00 -7.911610566272757328e-02 2.728228427282379867e-02 0.000000000000000000e+00 0.000000000000000000e+00 0.000000000000000000e+00 0.000000000000000000e+00 0.000000000000000000e+00 0.000000000000000000e+00 0.000000000000000000e+00 0.000000000000000000e+00
3.151724137931034786e+00 9.410066039498823920e-02 0.000000000000000000e+00 9.058993396050124547e-01 0.000000000000000000e+00 0.000000000000000000e+00 0.000000000000000000e+00 -9.777698401238227310e-02 -2.751097642372372087e-01 0.000000000000000000e+00 0.000000000000000000e+00 0.000000000000000000e+00 0.000000000000000000e+00 0.000000000000000000e+00 0.000000000000000000e+00 0.000000000000000000e+00 0.000000000000000000e+00
3.355172413793103825e+00 3.451841116313875135e-01 0.000000000000000000e+00 6.548158883686127085e-01 0.000000000000000000e+00 0.000000000000000000e+00 0.000000000000000000e+00 -9.469031776711063497e-02 -4.659031862263813828e-01 0.000000000000000000e+00 0.000000000000000000e+00 0.000000000000000000e+00 0.000000000000000000e+00 0.000000000000000000e+00 0.000000000000000000e+00 0.000000000000000000e+00 0.000000000000000000e+00
3.558620689655172864e+00 6.598017205203291491e-01 0.000000000000000000e+00 3.401982794796709619e-01 0.000000000000000000e+00 0.000000000000000000e+00 0.000000000000000000e+00 -7.074134184195179920e-02 -4.684645848568985693e-01 0.000000000000000000e+00 0.000000000000000000e+00 0.000000000000000000e+00 0.000000000000000000e+00 0.000000000000000000e+00 0.000000000000000000e+00 0.000000000000000000e+00 0.000000000000000000e+00
3.762068965517241903e+00 9.117131049459565872e-01 0.000000000000000000e+00 8.828689505404332949e-02 0.000000000000000000e+00 0.000000000000000000e+00 0.000000000000000000e+00 -3.426047288375329986e-02 -2.816354626806852335e-01 0.000000000000000000e+00 0.000000000000000000e+00 0.000000000000000000e+00 0.000000000000000000e+00 0.000000000000000000e+00 0.000000000000000000e+00 0.000000000000000000e+00 0.000000000000000000e+00
3.965517241379310942e+00 9.996090858550039648e-01 0.000000000000000000e+00 3.909141449958661351e-04 0.000000000000000000e+00 0.000000000000000000e+00 0.000000000000000000e+00 1.970175069260592278e-03 1.966911812730703230e-02 0.000000000000000000e+00 0.000000000000000000e+00 0.000000000000000000e+00 0.000000000000000000e+00 0.000000000000000000e+00 0.000000000000000000e+00 0.000000000000000000e+00 0.000000000000000000e+00
4.168965517241379537e+00 8.878961306583627033e-01 0.000000000000000000e+00 1.121038693416378934e-01 0.000000000000000000e+00 0.000000000000000000e+00 0.000000000000000000e+00 2.534293609747031301e-02 3.144746754205023920e-01 0.000000000000000000e+00 0.000000000000000000e+00 0.000000000000000000e+00 0.000000000000000000e+00 0.000000000000000000e+00 0.000000000000000000e+00 0.000000000000000000e+00 0.000000000000000000e+00
4.372413793103448576e+00 6.211100880372599775e-01 0.000000000000000000e+00 3.788899119627400225e-01 0.000000000000000000e+00 0.000000000000000000e+00 0.000000000000000000e+00 2.802373476897923599e-02 4.843005370408254295e-01 0.000000000000000000e+00 0.000000000000000000e+00 0.000000000000000000e+00 0.000000000000000000e+00 0.000000000000000000e+00 0.000000000000000000e+00 0.000000000000000000e+00 0.000000000000000000e+00
4.575862068965517615e+00 3.061550978074058516e-01 0.000000000000000000e+00 6.938449021925940929e-01 0.000000000000000000e+00 0.000000000000000000e+00 0.000000000000000000e+00 9.833047094239218133e-03 4.607900354441183954e-01 0.000000000000000000e+00 0.000000000000000000e+00 0.000000000000000000e+00 0.000000000000000000e+00 0.000000000000000000e+00 0.000000000000000000e+00 0.000000000000000000e+00 0.000000000000000000e+00
4.779310344827586654e+00 6.941725188719995165e-02 0.000000000000000000e+00 9.305827481127999512e-01 0.000000000000000000e+00 0.000000000000000000e+00 0.000000000000000000e+00 -2.169248786452692215e-02 2.532349195944203490e-01 0.000000000000000000e+00 0.000000000000000000e+00 0.000000000000000000e+00 0.000000000000000000e+00 0.000000000000000000e+00 0.000000000000000000e+00 0.000000000000000000e+00 0.000000000000000000e+00
4.982758620689654805e+00 5.999967823763631240e-03 0.000000000000000000e+00 9.940000321762363367e-01 0.000000000000000000e+00 0.000000000000000000e+00 0.000000000000000000e+00 -5.411837383675963814e-02 -5.509228699329681705e-02 0.000000000000000000e+00 0.000000000000000000e+00 0.000000000000000000e+00 0.000000000000000000e+00 0.000000000000000000e+00 0.000000000000000000e+00 0.000000000000000000e+00 0.000000000000000000e+00
5.186206896551723844e+00 1.414531250775926952e-01 0.000000000000000000e+00 8.585468749224086649e-01 0.000000000000000000e+00 0.000000000000000000e+00 0.000000000000000000e+00 -7.478654453362366950e-02 -3.403690651688351942e-01 0.000000000000000000e+00 0.000000000000000000e+00 0.000000000000000000e+00 0.000000000000000000e+00 0.000000000000000000e+00 0.000000000000000000e+00 0.000000000000000000e+00 0.000000000000000000e+00
5.389655172413792883e+00 4.214408693209810708e-01 0.000000000000000000e+00 5.785591306790193178e-01 0.000000000000000000e+00 0.000000000000000000e+00 0.000000000000000000e+00 -7.559332987628014644e-02 -4.879693633452494295e-01 0.000000000000000000e+00 0.000000000000000000e+00 0.000000000000000000e+00 0.000000000000000000e+00 0.000000000000000000e+00 0.000000000000000000e+00 0.000000000000000000e+00 0.000000000000000000e+00
5.593103448275861922e+00 7.335071326350767196e-01 0.000000000000000000e+00 2.664928673649221147e-01 0.000000000000000000e+00 0.000000000000000000e+00 0.000000000000000000e+00 -5.605806170855699710e-02 -4.385566110530761952e-01 0.000000000000000000e+00 0.000000000000000000e+00 0.000000000000000000e+00 0.000000000000000000e+00 0.000000000000000000e+00 0.000000000000000000e+00 0.000000000000000000e+00 0.000000000000000000e+00
5.796551724137930961e+00 9.522348406915682739e-01 0.000000000000000000e+00 4.776515930843207997e-02 0.000000000000000000e+00 0.000000000000000000e+00 0.000000000000000000e+00 -2.349618524872381167e-02 -2.119706738074502439e-01 0.000000000000000000e+00 0.000000000000000000e+00 0.000000000000000000e+00 0.000000000000000000e+00 0.000000000000000000e+00 0.000000000000000000e+00 0.000000000000000000e+00 0.000000000000000000e+00
6.000000000000000000e+00 9.896541905686773166e-01 0.000000000000000000e+00 1.034580943132324023e-02 0.000000000000000000e+00 0.000000000000000000e+00 0.000000000000000000e+00 9.791029868455345536e-03 1.007119524378613240e-01 0.000000000000000000e+00 0.000000000000000000e+00 0.000000000000000000e+00 0.000000000000000000e+00 0.000000000000000000e+00 0.000000000000000000e+00 0.000000000000000000e+00 0.000000000000000000e+00
