1.000000000000000056e-01 -1.041121842864058261e-01 -2.929753637366684371e-01 -9.508333920972824593e-01
2.000000000000000111e-01 -1.766908668516563585e-01 -5.609008325795821204e-01 -8.104066409081426281e-01
2.999999999999999889e-01 -1.942296318882458794e-01 -7.815548255823689949e-01 -5.976602052861735848e-01
4.000000000000000222e-01 -1.462328573391966646e-01 -9.351105861086363991e-01 -3.393387765625126562e-01
5.000000000000000000e-01 -3.869707749805439967e-02 -1.004994633701292939e+00 -6.604730052737167734e-02
5.999999999999999778e-01 1.050042771296916810e-01 -9.837713224284490021e-01 1.937915198395346317e-01
6.999999999999999556e-01 2.506723591100012971e-01 -8.789799352250007303e-01 4.203426647438436303e-01
7.999999999999999334e-01 3.655552700617374362e-01 -7.125765729747787214e-01 6.043033243015720757e-01
8.999999999999999112e-01 4.281936952743530811e-01 -5.150367666128981003e-01 7.443472060880045316e-01
9.999999999999998890e-01 4.321735573895073568e-01 -3.183378459709359509e-01 8.442192031153087362e-01
1.099999999999999867e+00 3.851842619763898301e-01 -1.495995555901467322e-01 9.107392649664358686e-01
1.199999999999999956e+00 3.049294876526300047e-01 -2.600648087317089518e-02 9.520381818066862012e-01
1.300000000000000044e+00 2.129328130775197392e-01 4.754882902269640110e-02 9.759116430860017566e-01
1.399999999999999911e+00 1.282055023164772600e-01 7.722231899586282089e-02 9.887368030896958038e-01
1.500000000000000000e+00 6.281421873161081859e-02 7.606535573472048006e-02 9.951222940323845023e-01
1.599999999999999867e+00 2.063842294023390811e-02 5.880294030905794389e-02 9.980562141186023473e-01
1.699999999999999956e+00 -1.057979589207020538e-03 3.757599793678793182e-02 9.992931928631528793e-01
1.800000000000000044e+00 -8.498507288748131938e-03 1.979338489550927851e-02 9.997679604752791604e-01
1.899999999999999911e+00 -8.302292248172251157e-03 8.165646449314573757e-03 9.999321885021045242e-01
2.000000000000000000e+00 -5.461556042729201477e-03 2.174102254776964522e-03 9.999827188584432536e-01
2.099999999999999645e+00 -2.732822120707030077e-03 -7.595657626241741206e-05 9.999962613301481840e-01
2.199999999999999734e+00 -1.034011609215508380e-03 -4.914363816373865579e-04 9.999993439876666557e-01
2.299999999999999822e+00 -2.655709708530808373e-04 -3.153701955000117255e-04 9.999999148103579927e-01
2.399999999999999911e+00 -3.482375965445567469e-05 -1.135557798573806648e-04 9.999999929059624204e-01
2.500000000000000000e+00 1.651007234221134611e-06 -1.771303981069027834e-05 9.999999998448680927e-01
