1.500000000000000000e+00 9.360385199214618646e-02 -6.052910061643300421e-02 9.858207491353786489e-01
1.551724137931034475e+00 8.525252468211598489e-02 -3.101532799093745588e-02 9.893006728764921487e-01
1.603448275862068950e+00 7.268632360749460730e-02 -8.683563033822193356e-03 9.918949668632426331e-01
1.655172413793103425e+00 5.817358557384059298e-02 6.759039786670473227e-03 9.938295235878993328e-01
1.706896551724137900e+00 4.355827089706858918e-02 1.613128391008550322e-02 9.952760180764635978e-01
1.758620689655172376e+00 3.017593235180275613e-02 2.055752548032633090e-02 9.963629307776963318e-01
1.810344827586206851e+00 1.887207434750141216e-02 2.128699996632899688e-02 9.971846411172479163e-01
1.862068965517241326e+00 1.001919245902043246e-02 1.954616643489225786e-02 9.978105585632494057e-01
1.913793103448275801e+00 3.641299117665591431e-03 1.640140870368638273e-02 9.982911317441083288e-01
1.965517241379310276e+00 -5.202464922913641737e-04 1.271833213840185828e-02 9.986628770682722811e-01
2.017241379310344751e+00 -2.854833805034105547e-03 9.117442945644068167e-03 9.989523184570407999e-01
2.068965517241379448e+00 -3.830464843575701051e-03 5.978756600824973108e-03 9.991789257234158228e-01
2.120689655172413701e+00 -3.883418233972616915e-03 3.490273838778722160e-03 9.993570348874780684e-01
2.172413793103448398e+00 -3.411874374225886894e-03 1.682103051846043414e-03 9.994973067842733983e-01
2.224137931034482651e+00 -2.692434005377540053e-03 4.970317694176029730e-04 9.996079091629734847e-01
2.275862068965517349e+00 -1.941997494355216913e-03 -1.874603654575062416e-04 9.996950516574126810e-01
2.327586206896551602e+00 -1.276413526258915899e-03 -5.116101471170382943e-04 9.997636124692285131e-01
2.379310344827586299e+00 -7.532900384600858031e-04 -5.899655286661709738e-04 9.998174251612693686e-01
2.431034482758620552e+00 -3.832927064597772089e-04 -5.413119699438128166e-04 9.998595278017016197e-01
2.482758620689655249e+00 -1.438611414437127641e-04 -4.287524986907952193e-04 9.998923582255596632e-01
2.534482758620689502e+00 -1.249562985849617829e-05 -2.997217183324646633e-04 9.999178573235760759e-01
2.586206896551724199e+00 5.522348166047174386e-05 -1.891628322410219090e-04 9.999375776529930704e-01
2.637931034482758896e+00 6.980495310200874508e-05 -1.130186808456832388e-04 9.999527634328921888e-01
2.689655172413793149e+00 6.361642854734986436e-05 -5.262154431671797002e-05 9.999644075595596204e-01
2.741379310344827402e+00 4.879234824852715950e-05 -1.909428504895016964e-05 9.999732951154256533e-01
2.793103448275862100e+00 3.351145799426691953e-05 -2.635945654704917177e-06 9.999800485261086669e-01
2.844827586206896797e+00 2.294821471380635699e-05 -3.542633298198131228e-07 9.999851572395054289e-01
2.896551724137931050e+00 1.327493909864912021e-05 5.778022099001464736e-06 9.999890045351901291e-01
2.948275862068965303e+00 6.328720885235689798e-06 3.561011931339210072e-06 9.999918888729120159e-01
3.000000000000000000e+00 2.609638948036567904e-06 1.064065331171319007e-06 9.999940416524579767e-01
