0.000000000000000000e+00 2.848352445811934874e-09 3.584536890213524383e-09 -1.000000000000000000e+00
1.230769230769230699e-01 1.711127433199944314e-01 2.912854559740450933e-01 -9.412068907686121921e-01
2.461538461538461398e-01 3.228372728080204923e-01 5.409521298349745377e-01 -7.766215015160674584e-01
3.692307692307691958e-01 4.412923921428800189e-01 7.184192241600568796e-01 -5.377045354666546428e-01
4.923076923076922795e-01 5.211606206698463639e-01 8.110959482437604118e-01 -2.655269031209271935e-01
6.153846153846153078e-01 5.653327688327512979e-01 8.248555480433350517e-01 1.098167917746228775e-03
7.384615384615383915e-01 5.817818422798272104e-01 7.787489352122451969e-01 2.346687683781036315e-01
8.615384615384614753e-01 5.796283434131060952e-01 6.967977408297618691e-01 4.224858701084825974e-01
9.846153846153845590e-01 5.662918222189988748e-01 6.004775254498291304e-01 5.645634247902024949e-01
1.107692307692307532e+00 5.465571491691562089e-01 5.044547023003560504e-01 6.684260491083896527e-01
1.230769230769230616e+00 5.231672934129205643e-01 4.161426728774880179e-01 7.437169164346679739e-01
1.353846153846153699e+00 4.978500220534265441e-01 3.377990108625614774e-01 7.987687960464529002e-01
1.476923076923076783e+00 4.719631563797997975e-01 2.692724967944846171e-01 8.394868512327435806e-01
1.599999999999999867e+00 4.464954007315153905e-01 2.098447257099139707e-01 8.698291044113031223e-01
1.723076923076922951e+00 4.219054172832643057e-01 1.588272402301028341e-01 8.926173910942120093e-01
1.846153846153846034e+00 3.981416949189966470e-01 1.153895230909268849e-01 9.100356540187456433e-01
1.969230769230769118e+00 3.749756342093598649e-01 7.838767853289607679e-02 9.237128384243195045e-01
2.092307692307691980e+00 3.523909809661069370e-01 4.653578742982833472e-02 9.346935576153635461e-01
2.215384615384615064e+00 3.306445509730823740e-01 1.880479660041223244e-02 9.435665421527696939e-01
2.338461538461538147e+00 3.100534996444989089e-01 -5.348063181350087847e-03 9.507027298542514160e-01
2.461538461538461231e+00 2.906952477574095695e-01 -2.612270030739838322e-02 9.564577852487350373e-01
2.584615384615384315e+00 2.723166429355106111e-01 -4.372193594866620459e-02 9.612126746499420893e-01
2.707692307692307399e+00 2.545773115807390408e-01 -5.860901947270021062e-02 9.652736750072943295e-01
2.830769230769230482e+00 2.373286505372596000e-01 -7.141907484734578981e-02 9.687994815913173463e-01
2.953846153846153566e+00 2.207335068057038052e-01 -8.268699878748521359e-02 9.718218437859619252e-01
3.076923076923076650e+00 2.050822884032905413e-01 -9.260431940406604889e-02 9.743530677412126639e-01
3.199999999999999734e+00 1.904862509111455438e-01 -1.010716753305745952e-01 9.764721141364983703e-01
3.323076923076922817e+00 1.767507067373436103e-01 -1.079916900843236743e-01 9.783124959697985235e-01
3.446153846153845901e+00 1.635361454145431437e-01 -1.135105344809324984e-01 9.799845471264604368e-01
3.569230769230768985e+00 1.506279947853686463e-01 -1.180180666820096758e-01 9.815199608446557589e-01
3.692307692307692069e+00 1.381244952398086312e-01 -1.219105056917683394e-01 9.828824945550379555e-01
3.815384615384615152e+00 1.262972329939034966e-01 -1.253361970526896130e-01 9.840418930393000085e-01
3.938461538461538236e+00 1.153404252759296506e-01 -1.281507987719489872e-01 9.850241633779622807e-01
4.061538461538461320e+00 1.051512454671136160e-01 -1.301328481118345648e-01 9.859043276542847067e-01
4.184615384615383959e+00 9.541765437078088274e-02 -1.312496700089939294e-01 9.867460262412062200e-01
4.307692307692307487e+00 8.587166451476731244e-02 -1.317520252582926321e-01 9.875556820200523944e-01
4.430769230769230127e+00 7.651296974078326818e-02 -1.319948272281302182e-01 9.882924331445570587e-01
4.553846153846153655e+00 6.759348946995430429e-02 -1.321689332362096514e-01 9.889192727914136727e-01
4.676923076923076295e+00 5.936475032379634476e-02 -1.321744892767475477e-01 9.894466099604819487e-01
4.799999999999999822e+00 5.183594638910994645e-02 -1.317402047145370125e-01 9.899274936248738666e-01
