0.000000000000000000e+00 -4.390786626630256823e-09 -5.161825427988409930e-10 -1.000000000000000000e+00
1.230769230769230699e-01 -7.970987238146584608e-03 5.263409099638243632e-02 -9.985816997051931709e-01
2.461538461538461398e-01 -2.145920408828504850e-02 1.039144454220500696e-01 -9.943540279050997466e-01
3.692307692307691958e-01 -4.552078742322872296e-02 1.515683554836954883e-01 -9.873970141265173694e-01
4.923076923076922795e-01 -8.420429267120574379e-02 1.916717929961593292e-01 -9.778388717492375592e-01
6.153846153846153078e-01 -1.396257158160349177e-01 2.182535663830111883e-01 -9.658502299954252468e-01
7.384615384615383915e-01 -2.107936697361817990e-01 2.235107841782271731e-01 -9.516327385877199063e-01
8.615384615384614753e-01 -2.923402966125230873e-01 1.988231775677639923e-01 -9.354152477518892228e-01
9.846153846153845590e-01 -3.736243407584063370e-01 1.367494406573959431e-01 -9.174415362359613635e-01
1.107692307692307532e+00 -4.387692780073196297e-01 3.385275948927882195e-02 -8.979584418049367800e-01
1.230769230769230616e+00 -4.682250021571586762e-01 -1.060974438448274437e-01 -8.772125508567217844e-01
1.353846153846153699e+00 -4.423018070729018980e-01 -2.694333459484325455e-01 -8.554339716398162707e-01
1.476923076923076783e+00 -3.464747216540541297e-01 -4.316548046447613030e-01 -8.328392659856616032e-01
1.599999999999999867e+00 -1.776401698783430239e-01 -5.594060588380054266e-01 -8.096295835371442040e-01
1.723076923076922951e+00 5.041546004328936736e-02 -6.161798495335545356e-01 -7.859842758380358729e-01
1.846153846153846034e+00 3.045509448057995283e-01 -5.713961526674329328e-01 -7.620664141076244347e-01
1.969230769230769118e+00 5.350066232393437815e-01 -4.111975524073613886e-01 -7.380203445376521953e-01
2.092307692307691980e+00 6.843683547893519847e-01 -1.479078729248056168e-01 -7.139693257658039638e-01
2.215384615384615064e+00 7.021437824634098046e-01 1.756753072286914019e-01 -6.900150839740353259e-01
2.338461538461538147e+00 5.617392972652399674e-01 4.904771710603803569e-01 -6.662350483242519550e-01
2.461538461538461231e+00 2.747146856517875824e-01 7.151705442129818735e-01 -6.426901082504005158e-01
2.584615384615384315e+00 -1.035893560088493870e-01 7.781755441690220154e-01 -6.194347428770461406e-01
2.707692307692307399e+00 -4.815143301890378313e-01 6.421006982870860469e-01 -5.965211586108325470e-01
2.830769230769230482e+00 -7.526115370808440508e-01 3.226317769407647806e-01 -5.739957173846256255e-01
2.953846153846153566e+00 -8.270791166308212317e-01 -1.064414779955183965e-01 -5.519026238553071950e-01
3.076923076923076650e+00 -6.640315334203445996e-01 -5.271228859663423805e-01 -5.302729800564720541e-01
3.199999999999999734e+00 -2.930683892248746591e-01 -8.092640363714014295e-01 -5.091052535436977333e-01
3.323076923076922817e+00 1.851613895951298994e-01 -8.527410659866974108e-01 -4.883986399392636901e-01
3.446153846153845901e+00 6.236147117103922888e-01 -6.260486804742619871e-01 -4.681375464634670025e-01
3.569230769230768985e+00 8.742627662930916310e-01 -1.861742310976288728e-01 -4.483174435742359187e-01
3.692307692307692069e+00 8.404941224991377968e-01 3.310007583279906962e-01 -4.289436077371673872e-01
3.815384615384615152e+00 5.176970287732384213e-01 7.508924482597858496e-01 -4.100422140593100728e-01
3.938461538461538236e+00 4.503239423816307596e-03 9.200996035999069456e-01 -3.916384235024225613e-01
4.061538461538461320e+00 -5.238528058168477886e-01 7.654372593762239774e-01 -3.737218374675450039e-01
4.184615384615383959e+00 -8.746312820427379897e-01 3.287414541112093080e-01 -3.562765691590205619e-01
4.307692307692307487e+00 -9.097122386667235716e-01 -2.393834616153436845e-01 -3.392681740781964828e-01
4.430769230769230127e+00 -6.033638623487046493e-01 -7.292697516594534024e-01 -3.226473947542292664e-01
4.553846153846153655e+00 -6.062953038316079568e-02 -9.499619329418949043e-01 -3.063980766908213638e-01
4.676923076923076295e+00 5.152571362496010110e-01 -8.062815143160417808e-01 -2.905227817548445834e-01
4.799999999999999822e+00 8.980513555865137221e-01 -3.432655675604883161e-01 -2.750557442848221013e-01
