0.000000000000000000e+00 -1.523029297705520970e-09 2.044274825942960981e-09 -1.000000000000000000e+00
1.230769230769230699e-01 -3.525371218547983521e-01 2.362792888981458950e-01 -9.054752767702513028e-01
2.461538461538461398e-01 -6.382272592549732559e-01 4.188756372183850551e-01 -6.459105329625915992e-01
3.692307692307691958e-01 -8.085493720424919983e-01 5.151064827751182795e-01 -2.844315579941090188e-01
4.923076923076922795e-01 -8.458290804817782949e-01 5.241019593498926765e-01 9.938688246843777052e-02
6.153846153846153078e-01 -7.658399105803872509e-01 4.727850672683442945e-01 4.358354961901823033e-01
7.384615384615383915e-01 -6.098233060481949019e-01 4.001329503444430724e-01 6.841059264668749584e-01
8.615384615384614753e-01 -4.289962013099548055e-01 3.385355160845024969e-01 8.374665701623883463e-01
9.846153846153845590e-01 -2.674088638972109133e-01 3.017865768407703153e-01 9.151029472589572444e-01
1.107692307692307532e+00 -1.497068544620699382e-01 2.846012595737081874e-01 9.468827449538064212e-01
1.230769230769230616e+00 -7.805882254632871831e-02 2.718395339876467642e-01 9.591701823079842315e-01
1.353846153846153699e+00 -3.841851492979651839e-02 2.506259960508143148e-01 9.673201523234855603e-01
1.476923076923076783e+00 -1.199237321082746721e-02 2.180384441268286844e-01 9.758654720580798303e-01
1.599999999999999867e+00 1.424993644218028321e-02 1.808063417415813334e-01 9.834146414902552591e-01
1.723076923076922951e+00 4.291635998893533754e-02 1.488176847980840767e-01 9.879322257398226448e-01
1.846153846153846034e+00 6.864448745570336796e-02 1.277140280530372762e-01 9.894320341050804046e-01
1.969230769230769118e+00 8.473562520195804249e-02 1.156106731949320676e-01 9.896730527626668161e-01
2.092307692307691980e+00 8.912915410989519227e-02 1.055044510309551681e-01 9.904158492605670272e-01
2.215384615384615064e+00 8.597985548726186367e-02 9.096980066835708145e-02 9.921344814019318337e-01
2.338461538461538147e+00 8.250866620451791089e-02 7.071832291848750840e-02 9.940775904100713767e-01
2.461538461538461231e+00 8.384625771863035704e-02 4.896537698712831455e-02 9.952744929224005555e-01
2.584615384615384315e+00 8.982645509054386357e-02 3.174132001192515179e-02 9.954510692758025137e-01
2.707692307692307399e+00 9.581096527243167238e-02 2.222778085162530753e-02 9.951508887477560350e-01
2.830769230769230482e+00 9.666066310738771761e-02 1.850882067201352343e-02 9.951448368040612946e-01
2.953846153846153566e+00 9.074550231690814428e-02 1.528926121674115818e-02 9.957563234330267798e-01
3.076923076923076650e+00 8.108818909363643690e-02 7.986694696427105999e-03 9.966745578170393971e-01
3.199999999999999734e+00 7.296609147522731265e-02 -3.951741590630067358e-03 9.973262564658296192e-01
3.323076923076922817e+00 6.992840976713797507e-02 -1.688288176214837108e-02 9.974088051258362952e-01
3.446153846153845901e+00 7.129022248729693922e-02 -2.598323987840847615e-02 9.971167832914739071e-01
3.569230769230768985e+00 7.289808350423825078e-02 -2.896546543893331258e-02 9.969183282659365153e-01
3.692307692307692069e+00 7.044328310825508088e-02 -2.776382014160932998e-02 9.971289886092845611e-01
3.815384615384615152e+00 6.278060274147030662e-02 -2.693328750756072282e-02 9.976635525245318714e-01
3.938461538461538236e+00 5.270796766622260626e-02 -3.015913892919979897e-02 9.981541628738868077e-01
4.061538461538461320e+00 4.476194148218614471e-02 -3.752615724655537083e-02 9.982923485539073605e-01
4.184615384615383959e+00 4.173086004079869932e-02 -4.558733215546952738e-02 9.980880509025904512e-01
4.307692307692307487e+00 4.259258853605499273e-02 -5.013683398298303395e-02 9.978334336641169200e-01
4.430769230769230127e+00 4.342716106687352640e-02 -4.945587911859589125e-02 9.978314439408668690e-01
4.553846153846153655e+00 4.049203848341330347e-02 -4.559209982233777131e-02 9.981388631064597172e-01
4.676923076923076295e+00 3.308735108998539509e-02 -4.272619183344508048e-02 9.985385293624677860e-01
4.799999999999999822e+00 2.403405163573651276e-02 -4.393190792730138072e-02 9.987451532573904389e-01
