0.000000000000000000e+00 -5.089735147472511121e-09 2.528234707841864024e-09 -1.000000000000000000e+00
1.230769230769230699e-01 -3.982650843034682420e-01 1.486063767298190785e-01 -9.051480205392616885e-01
2.461538461538461398e-01 -7.288592995349184589e-01 2.397743830843216961e-01 -6.412919542842476783e-01
3.692307692307691958e-01 -9.356106059804911723e-01 2.323584312629082271e-01 -2.657427606969408607e-01
4.923076923076922795e-01 -9.834982529570154286e-01 1.134721867278906948e-01 1.408234450021187412e-01
6.153846153846153078e-01 -8.646505701577640313e-01 -9.680334398207424140e-02 4.929385379633658415e-01
7.384615384615383915e-01 -5.997325638183776952e-01 -3.494221244886444588e-01 7.198681321653116472e-01
8.615384615384614753e-01 -2.344046066308362042e-01 -5.781770280273169638e-01 7.815067537222243343e-01
9.846153846153845590e-01 1.686156698338681370e-01 -7.164445815583683208e-01 6.769489131380351798e-01
1.107692307692307532e+00 5.405332613668131225e-01 -7.147490249008485730e-01 4.437755048280264125e-01
1.230769230769230616e+00 8.187002167285086784e-01 -5.547072327207128728e-01 1.483437584260801634e-01
1.353846153846153699e+00 9.578900368962532941e-01 -2.556962855664614009e-01 -1.305451364893591704e-01
1.476923076923076783e+00 9.385513110058916197e-01 1.276338350726844983e-01 -3.206375835632734872e-01
1.599999999999999867e+00 7.704631473260661334e-01 5.166959740660848066e-01 -3.733495318640339677e-01
1.723076923076922951e+00 4.909987917589986317e-01 8.266228883818024231e-01 -2.749395118062090693e-01
1.846153846153846034e+00 1.581869839009763523e-01 9.861716583686644944e-01 -4.917350756507444381e-02
1.969230769230769118e+00 -1.602780693065332107e-01 9.551136794067837110e-01 2.490893699373726011e-01
2.092307692307691980e+00 -4.000547219033430690e-01 7.348248976149089895e-01 5.476947355784297367e-01
2.215384615384615064e+00 -5.127342697262118332e-01 3.693782678258279439e-01 7.750161648605592424e-01
2.338461538461538147e+00 -4.754975822154389187e-01 -6.339727946463385999e-02 8.774243248195455758e-01
2.461538461538461231e+00 -2.958108258816169456e-01 -4.689822270536290749e-01 8.321901311246092670e-01
2.584615384615384315e+00 -1.014563328368051076e-02 -7.574833481703421301e-01 6.527628466588044631e-01
2.707692307692307399e+00 3.231821464041482184e-01 -8.643839688416558031e-01 3.851906971452896955e-01
2.830769230769230482e+00 6.358343304623227388e-01 -7.657352446228071763e-01 9.664398128681252198e-02
2.953846153846153566e+00 8.635011755135786338e-01 -4.841765625267305251e-01 -1.411196812912532961e-01
3.076923076923076650e+00 9.593575937728779923e-01 -8.425945145589519569e-02 -2.692772760255787157e-01
3.199999999999999734e+00 9.040849292929593606e-01 3.420010577593852186e-01 -2.562079248760504302e-01
3.323076923076922817e+00 7.102419822803424099e-01 6.960596359417966505e-01 -1.050388389955798085e-01
3.446153846153845901e+00 4.199455773330970088e-01 8.954974934456256808e-01 1.473294770448302926e-01
3.569230769230768985e+00 9.617234364033178107e-02 8.931109750846386586e-01 4.394117303129415064e-01
3.692307692307692069e+00 -1.905525986386695791e-01 6.879739169157679246e-01 7.002614790324190874e-01
3.815384615384615152e+00 -3.773548656476470864e-01 3.258469646682393139e-01 8.668432491492427117e-01
3.938461538461538236e+00 -4.227619025607096681e-01 -1.112568277730567878e-01 8.993808369177912487e-01
4.061538461538461320e+00 -3.159675375038564216e-01 -5.239550724741007803e-01 7.909632810408084858e-01
4.184615384615383959e+00 -7.958051717755865173e-02 -8.183957764105403987e-01 5.691016196662250781e-01
4.307692307692307487e+00 2.349749688210780174e-01 -9.280674614128776589e-01 2.888851535785477154e-01
4.430769230769230127e+00 5.585563309934432619e-01 -8.292242607759692241e-01 1.943235276472679574e-02
4.553846153846153655e+00 8.194439254736979317e-01 -5.464017173888660039e-01 -1.730114913573143343e-01
4.676923076923076295e+00 9.592980205848141706e-01 -1.467365583033707899e-01 -2.412308766429359930e-01
4.799999999999999822e+00 9.463595319174187281e-01 2.756599407876980101e-01 -1.684974136380304188e-01
