0.000000000000000000e+00 5.207835240943560553e-10 2.974931533108286843e-09 -1.000000000000000000e+00
1.230769230769230699e-01 2.563402239566143180e-03 1.065251040085896106e-02 -9.999398638004869388e-01
2.461538461538461398e-01 5.097115868982244821e-03 2.140764223396846022e-02 -9.997576296478857261e-01
3.692307692307691958e-01 7.607846945637667703e-03 3.232652407759556423e-02 -9.994481053042588714e-01
4.923076923076922795e-01 1.007302843460542406e-02 4.346678270614812156e-02 -9.990036961230138735e-01
6.153846153846153078e-01 1.245753888510776203e-02 5.486575822170251804e-02 -9.984155353845978187e-01
7.384615384615383915e-01 1.471352734004924799e-02 6.654110614780907318e-02 -9.976746084330354591e-01
8.615384615384614753e-01 1.678226790319470307e-02 7.849127487434406913e-02 -9.967728478563827599e-01
9.846153846153845590e-01 1.859867197648347459e-02 9.070386481081953167e-02 -9.957034364284162997e-01
1.107692307692307532e+00 2.009732316971978017e-02 1.031633353158717403e-01 -9.944604841479125490e-01
1.230769230769230616e+00 2.122369586253529394e-02 1.158500342296878149e-01 -9.930389452509711390e-01
1.353846153846153699e+00 2.194045083265738078e-02 1.287427241624297669e-01 -9.914341819191505589e-01
1.476923076923076783e+00 2.222947633575925175e-02 1.418086977711131569e-01 -9.896432367511454053e-01
1.599999999999999867e+00 2.209403245628262236e-02 1.550125029006429178e-01 -9.876640875432300959e-01
1.723076923076922951e+00 2.154559508411646451e-02 1.682911302746549209e-01 -9.855003964085258250e-01
1.846153846153846034e+00 2.059824889006307835e-02 1.815768652935680350e-01 -9.831594360004629607e-01
1.969230769230769118e+00 1.925827906023208635e-02 1.947894218594491411e-01 -9.806543196983740218e-01
2.092307692307691980e+00 1.751222171075156320e-02 2.078563148584499087e-01 -9.780007881562254868e-01
2.215384615384615064e+00 1.533638179952161174e-02 2.207198046673211900e-01 -9.752147476001965520e-01
2.338461538461538147e+00 1.269869454734490199e-02 2.333587168246994970e-01 -9.723057480816231779e-01
2.461538461538461231e+00 9.585471988290100720e-03 2.457787945198158519e-01 -9.692763764401739479e-01
2.584615384615384315e+00 6.007209451234901340e-03 2.580105186178299759e-01 -9.661211373095927035e-01
2.707692307692307399e+00 2.014531035283088911e-03 2.700843370039542890e-01 -9.628321423774224286e-01
2.830769230769230482e+00 -2.309278052646357438e-03 2.820202790855954045e-01 -9.594031192412613152e-01
2.953846153846153566e+00 -6.864118068004479434e-03 2.938015751679444731e-01 -9.558391111398070183e-01
3.076923076923076650e+00 -1.155894777612341551e-02 3.053642331726509895e-01 -9.521626633960427188e-01
3.199999999999999734e+00 -1.634080803047560648e-02 3.166228652738336535e-01 -9.484078112037509500e-01
3.323076923076922817e+00 -2.120746796525230238e-02 3.274869617228651775e-01 -9.446146044926378993e-01
3.446153846153845901e+00 -2.621585759645694846e-02 3.378900108054406770e-01 -9.408172370205489798e-01
3.569230769230768985e+00 -3.145618266208122238e-02 3.478162488275502451e-01 -9.370315691829690374e-01
3.692307692307692069e+00 -3.700783072600508095e-02 3.573201105908974662e-01 -9.332450653938779705e-01
3.815384615384615152e+00 -4.291296346187423172e-02 3.665026646025991708e-01 -9.294232974838588790e-01
3.938461538461538236e+00 -4.913696713719581388e-02 3.754891854917719596e-01 -9.255196496518816041e-01
4.061538461538461320e+00 -5.557424762559484005e-02 3.843780932959025565e-01 -9.214976801469871859e-01
4.184615384615383959e+00 -6.206525333287030155e-02 3.932081372330287206e-01 -9.173483798448968107e-01
4.307692307692307487e+00 -6.844732467075503868e-02 4.019356745601783132e-01 -9.131019970356322180e-01
4.430769230769230127e+00 -7.462150556728261441e-02 4.104480157521091521e-01 -9.088214538372993978e-01
4.553846153846153655e+00 -8.057354780071854239e-02 4.185968428172720524e-01 -9.045865178682405139e-01
4.676923076923076295e+00 -8.639435473432732771e-02 4.262581540172742378e-01 -9.004621010670255110e-01
4.799999999999999822e+00 -9.224665258877445817e-02 4.333785259315720007e-01 -8.964738828530778303e-01
