0.000000000000000000e+00 1.616110222167008336e-09 1.902684737293573718e-09 -1.000000000000000000e+00
1.230769230769230699e-01 4.728092971105829143e-03 1.888263781668282973e-02 -9.998104512585209713e-01
2.461538461538461398e-01 7.916838523685595583e-03 3.810901594899610001e-02 -9.992420820185026198e-01
3.692307692307691958e-01 8.011635678520034887e-03 5.780308002672726597e-02 -9.982956459347481770e-01
4.923076923076922795e-01 3.425191672430688561e-03 7.767036926238805872e-02 -9.969729343565261193e-01
6.153846153846153078e-01 -7.363301033772425008e-03 9.680782019711682562e-02 -9.952755134308745033e-01
7.384615384615383915e-01 -2.562191171908420606e-02 1.135085214851447588e-01 -9.932061803270401112e-01
8.615384615384614753e-01 -5.202002472390483689e-02 1.251873795809688439e-01 -9.907679281679060423e-01
9.846153846153845590e-01 -8.619056646307982072e-02 1.284351840510877529e-01 -9.879648307038445543e-01
1.107692307692307532e+00 -1.261814162622635349e-01 1.193482318069958720e-01 -9.848010105164410888e-01
1.230769230769230616e+00 -1.679817368968697378e-01 9.416826733570407559e-02 -9.812813643068613034e-01
1.353846153846153699e+00 -2.052743830002800585e-01 5.029830922601653126e-02 -9.774103572916745808e-01
1.476923076923076783e+00 -2.296436930331616499e-01 -1.236807648467540266e-02 -9.731953356449762893e-01
1.599999999999999867e+00 -2.315722492398240573e-01 -9.002668400346160171e-02 -9.686422069086620956e-01
1.723076923076922951e+00 -2.022982177590761932e-01 -1.739132017446765877e-01 -9.637570753474018481e-01
1.846153846153846034e+00 -1.365212015756174235e-01 -2.500878216851883939e-01 -9.585488867878733110e-01
1.969230769230769118e+00 -3.552071808076812109e-02 -3.008002476922804203e-01 -9.530242843751161042e-01
2.092307692307691980e+00 9.019277232748731943e-02 -3.077124635406010000e-01 -9.471937258410201288e-01
2.215384615384615064e+00 2.198637984417150804e-01 -2.570081218537547119e-01 -9.410654836628831177e-01
2.338461538461538147e+00 3.244767275477243862e-01 -1.454164976253563835e-01 -9.346476640408424297e-01
2.461538461538461231e+00 3.724117991526709193e-01 1.458637783174193681e-02 -9.279514698732480582e-01
2.584615384615384315e+00 3.385488404663927198e-01 1.927935872617148605e-01 -9.209844707572739653e-01
2.707692307692307399e+00 2.148139034262173397e-01 3.448095247022075482e-01 -9.137605334833128756e-01
2.830769230769230482e+00 1.872658848898593048e-02 4.222408953338224746e-01 -9.062884392013487167e-01
2.953846153846153566e+00 -2.045020538245962971e-01 3.882400892326433040e-01 -8.985795315995621646e-01
3.076923076923076650e+00 -3.897286329394072379e-01 2.342221573917158961e-01 -8.906447564178439080e-01
3.199999999999999734e+00 -4.702303675667341420e-01 -8.872370823976849508e-03 -8.824970511675391815e-01
3.323076923076922817e+00 -4.026079024493558478e-01 -2.716150207338428602e-01 -8.741443595123038479e-01
3.446153846153845901e+00 -1.896961423613264253e-01 -4.634105141803504524e-01 -8.655992559663002739e-01
3.569230769230768985e+00 1.093887381724598096e-01 -5.037810881193334200e-01 -8.568749228630779813e-01
3.692307692307692069e+00 3.908767916223577776e-01 -3.579709590072500114e-01 -8.479786920684244667e-01
3.815384615384615152e+00 5.407476358496389190e-01 -6.155869404192734762e-02 -8.389267713218123701e-01
3.938461538461538236e+00 4.824433524717838262e-01 2.807178417131526160e-01 -8.297236330944920413e-01
4.061538461538461320e+00 2.183097942389679302e-01 5.284861454783356116e-01 -8.203892750856699445e-01
4.184615384615383959e+00 -1.570292828921720785e-01 5.636807336007894076e-01 -8.109260409626041222e-01
4.307692307692307487e+00 -4.851971018515177647e-01 3.498842952143263463e-01 -8.013487367713972853e-01
4.430769230769230127e+00 -6.098477998796200117e-01 -3.671216006838198820e-02 -7.916645594274275277e-01
4.553846153846153655e+00 -4.539385301132383699e-01 -4.273118167292637715e-01 -7.818818255066074530e-01
4.676923076923076295e+00 -7.024013552525826265e-02 -6.317053811936070851e-01 -7.720163261662564835e-01
4.799999999999999822e+00 3.675107678517068877e-01 -5.330773565411432990e-01 -7.620753730858953467e-01
