0.000000000000000000e+00 2.677505110857089937e-09 1.417605075135276404e-09 -1.000000000000000000e+00
1.230769230769230699e-01 -1.901732541380932173e-02 4.444692405058129347e-01 -8.955874659244104086e-01
2.461538461538461398e-01 -3.209781743990158809e-02 7.955763408363992761e-01 -6.049878296111157461e-01
3.692307692307691958e-01 -3.253905161392001144e-02 9.810550789501882862e-01 -1.909150711260834687e-01
4.923076923076922795e-01 -1.284968896263789621e-02 9.659876634961078734e-01 2.582240362987702764e-01
6.153846153846153078e-01 3.441566954110567012e-02 7.604141990120812933e-01 6.485129835171197232e-01
7.384615384615383915e-01 1.148282407971813052e-01 4.166010811973254735e-01 9.018036236842152942e-01
8.615384615384614753e-01 2.297115776458316938e-01 1.663929775718520077e-02 9.731144108012057536e-01
9.846153846153845590e-01 3.741124278608451981e-01 -3.466845328758276223e-01 8.601393319913660518e-01
1.107692307692307532e+00 5.356416265930465936e-01 -5.914278419734627645e-01 6.027299202216599427e-01
1.230769230769230616e+00 6.951918685381291985e-01 -6.651208279102054366e-01 2.725795421891303305e-01
1.353846153846153699e+00 8.296441196793862272e-01 -5.565086490820488896e-01 -4.432366997221846849e-02
1.476923076923076783e+00 9.162254436693106907e-01 -2.975509411030860529e-01 -2.682748623780307207e-01
1.599999999999999867e+00 9.376939669480568451e-01 4.466831154932748849e-02 -3.445469469550894726e-01
1.723076923076922951e+00 8.871126449508828227e-01 3.841446372269783360e-01 -2.558143091320950746e-01
1.846153846153846034e+00 7.709079854106152263e-01 6.364191638814283847e-01 -2.544266067485349836e-02
1.969230769230769118e+00 6.091864288060044874e-01 7.384777018847095142e-01 2.889979155283157741e-01
2.092307692307691980e+00 4.328482852284874505e-01 6.634448474938474671e-01 6.102996603364383432e-01
2.215384615384615064e+00 2.778540795159311072e-01 4.266277083332924436e-01 8.606833769143328317e-01
2.338461538461538147e+00 1.777110363993602282e-01 8.158979444320821339e-02 9.806928515555896064e-01
2.461538461538461231e+00 1.558727042068309698e-01 -2.927217457972275949e-01 9.434042675249484367e-01
2.584615384615384315e+00 2.198572106944825799e-01 -6.108929198311201514e-01 7.605649556432370062e-01
2.707692307692307399e+00 3.584587849380794222e-01 -8.011073593651780733e-01 4.792849541961821114e-01
2.830769230769230482e+00 5.433342220877017681e-01 -8.220732022940959727e-01 1.701759543143942510e-01
2.953846153846153566e+00 7.345260240296922483e-01 -6.725560682631150922e-01 -9.008765677776049696e-02
3.076923076923076650e+00 8.890220001445136022e-01 -3.914151912738002559e-01 -2.375095551071806366e-01
3.199999999999999734e+00 9.704831314823002542e-01 -4.817902325083189830e-02 -2.362583834356991042e-01
3.323076923076922817e+00 9.578858158279026647e-01 2.735559180788820766e-01 -8.716565079368730762e-02
3.446153846153845901e+00 8.509868172543961773e-01 4.959298379180008820e-01 1.727753740857285447e-01
3.569230769230768985e+00 6.711589801973276703e-01 5.651604375956220672e-01 4.797072854481558846e-01
3.692307692307692069e+00 4.572006345630902358e-01 4.640727414327884270e-01 7.586767524057553835e-01
3.815384615384615152e+00 2.568896628821530914e-01 2.159115805482893224e-01 9.420104783802955017e-01
3.938461538461538236e+00 1.161153478062365851e-01 -1.214188482893492627e-01 9.857848447323315222e-01
4.061538461538461320e+00 6.823334686594363652e-02 -4.692874854656707839e-01 8.804000562515554851e-01
4.184615384615383959e+00 1.257194369239107434e-01 -7.470719935788822097e-01 6.527338221500251780e-01
4.307692307692307487e+00 2.768069097622963270e-01 -8.911739589655168770e-01 3.593952065109363159e-01
4.430769230769230127e+00 4.876004221559957497e-01 -8.700178074687552332e-01 7.273736512689833733e-02
4.553846153846153655e+00 7.094876427531193741e-01 -6.912824343997940879e-01 -1.368648518557474270e-01
4.676923076923076295e+00 8.902274321859964257e-01 -3.998379827714771406e-01 -2.181772505368910764e-01
4.799999999999999822e+00 9.861733272222622526e-01 -6.689565450374125588e-02 -1.515365899989480625e-01
