0.000000000000000000e+00 -1.848002039963573672e-10 -2.331333783624642928e-09 -1.000000000000000000e+00
1.230769230769230699e-01 -7.092109298717431953e-02 -4.090091514955025709e-02 -9.966426041056496432e-01
2.461538461538461398e-01 -1.408528397060383741e-01 -8.122628629601698347e-02 -9.866920129155640762e-01
3.692307692307691958e-01 -2.088820215066737596e-01 -1.204076434362016806e-01 -9.704987502987774128e-01
4.923076923076922795e-01 -2.742235485168028064e-01 -1.579527113997223897e-01 -9.486037357293761740e-01
6.153846153846153078e-01 -3.362534882693746785e-01 -1.934554598481258436e-01 -9.216856107074046234e-01
7.384615384615383915e-01 -3.945322309743503619e-01 -2.266007519334329312e-01 -8.905006086550527611e-01
8.615384615384614753e-01 -4.487851725404959913e-01 -2.571666077156503638e-01 -8.558336678510491957e-01
9.846153846153845590e-01 -4.988922848431512347e-01 -2.850228219620885017e-01 -8.184508022032654928e-01
1.107692307692307532e+00 -5.448563771429769664e-01 -3.101223736364605021e-01 -7.790687332831265355e-01
1.230769230769230616e+00 -5.867769301715837216e-01 -3.324866600724700749e-01 -7.383340480690228080e-01
1.353846153846153699e+00 -6.248249167579724705e-01 -3.521910727919760897e-01 -6.968115207968942348e-01
1.476923076923076783e+00 -6.592276526814360160e-01 -3.693465592557250710e-01 -6.549751166809297809e-01
1.599999999999999867e+00 -6.902272393649532267e-01 -3.840970150247589032e-01 -6.132256033723173516e-01
1.723076923076922951e+00 -7.180873321839595924e-01 -3.966020108338361161e-01 -5.718799734767474607e-01
1.846153846153846034e+00 -7.430692052794483082e-01 -4.070228232553516623e-01 -5.311961768668842510e-01
1.969230769230769118e+00 -7.654264391366070175e-01 -4.155336381398431200e-01 -4.913680227231884134e-01
2.092307692307691980e+00 -7.853975063578859661e-01 -4.223036775567640677e-01 -4.525465195342266989e-01
2.215384615384615064e+00 -8.032102178693920624e-01 -4.275015001235654699e-01 -4.148294523876290829e-01
2.338461538461538147e+00 -8.190790183613394504e-01 -4.312793323398714795e-01 -3.782790833380444973e-01
2.461538461538461231e+00 -8.331976999869740164e-01 -4.337806880521110076e-01 -3.429329535766911796e-01
2.584615384615384315e+00 -8.457464820274928075e-01 -4.351269682449822040e-01 -3.088110898381630776e-01
2.707692307692307399e+00 -8.568819042585159584e-01 -4.354379097575634683e-01 -2.759237611091538422e-01
2.830769230769230482e+00 -8.667449735998522531e-01 -4.348279102297275545e-01 -2.442628945419514364e-01
2.953846153846153566e+00 -8.754608103215878456e-01 -4.334031932930458852e-01 -2.138139986590341102e-01
3.076923076923076650e+00 -8.831424634382937233e-01 -4.312632306903609880e-01 -1.845472287936474054e-01
3.199999999999999734e+00 -8.898954053692317290e-01 -4.284961166674233213e-01 -1.564078540760669989e-01
3.323076923076922817e+00 -8.958143964716640539e-01 -4.251684886737542302e-01 -1.293615966284865360e-01
3.446153846153845901e+00 -9.009864003916093766e-01 -4.213379217629297790e-01 -1.033629632554747962e-01
3.569230769230768985e+00 -9.054871488151471359e-01 -4.170562501112660692e-01 -7.837795099824705625e-02
3.692307692307692069e+00 -9.093815190953152827e-01 -4.123764393009266560e-01 -5.437728711214060567e-02
3.815384615384615152e+00 -9.127217922708837916e-01 -4.073610996264573902e-01 -3.133381965077088049e-02
3.938461538461538236e+00 -9.155574949061053847e-01 -4.020644544872221671e-01 -9.196801979962572135e-03
4.061538461538461320e+00 -9.179343689137009488e-01 -3.965304282370322175e-01 1.208501026627897650e-02
4.184615384615383959e+00 -9.198958740087656016e-01 -3.907898297276231614e-01 3.257043728759551754e-02
4.307692307692307487e+00 -9.214867319276442981e-01 -3.848545318420579786e-01 5.229869311804283966e-02
4.430769230769230127e+00 -9.227450879073058054e-01 -3.787409283756073552e-01 7.129370215194708038e-02
4.553846153846153655e+00 -9.237034994118015208e-01 -3.724703832776763424e-01 8.957493826154290517e-02
4.676923076923076295e+00 -9.243844383115721319e-01 -3.660823051466567390e-01 1.071597102628376319e-01
4.799999999999999822e+00 -9.248077560701074562e-01 -3.596111921969082914e-01 1.240825858463987241e-01
