0.000000000000000000e+00 8.961239616241507942e-10 4.921495754934327468e-09 -1.000000000000000000e+00
1.230769230769230699e-01 -1.800108782922671055e-02 -7.408719716698727517e-03 -9.998104364446865899e-01
2.461538461538461398e-01 -3.598817213687581507e-02 -1.482875989228504138e-02 -9.992420390096758975e-01
3.692307692307691958e-01 -5.395058507194109426e-02 -2.224959481746125595e-02 -9.982954688483498540e-01
4.923076923076922795e-01 -7.187410046319646362e-02 -2.967145234691202088e-02 -9.969719814168167549e-01
6.153846153846153078e-01 -8.974678900738053411e-02 -3.709433542523946775e-02 -9.952732277378839587e-01
7.384615384615383915e-01 -1.075550229601069663e-01 -4.451603019590028021e-02 -9.932015771276030414e-01
8.615384615384614753e-01 -1.252837889289391549e-01 -5.193951258125180381e-02 -9.907599351225414575e-01
9.846153846153845590e-01 -1.429221408431675666e-01 -5.936415865919691254e-02 -9.879514176815717974e-01
1.107692307692307532e+00 -1.604545853267240751e-01 -6.678821229031565998e-02 -9.847803618111746760e-01
1.230769230769230616e+00 -1.778685289960927618e-01 -7.421643542876882327e-02 -9.812508653934965963e-01
1.353846153846153699e+00 -1.951482036718586721e-01 -8.164120974750509185e-02 -9.773690690297569539e-01
1.476923076923076783e+00 -2.122817026978063570e-01 -8.906569895976536311e-02 -9.731402956656100001e-01
1.599999999999999867e+00 -2.292531517053423284e-01 -9.649061963076166482e-02 -9.685714514029989397e-01
1.723076923076922951e+00 -2.460496217249189543e-01 -1.039125867267935016e-01 -9.636699168639943913e-01
1.846153846153846034e+00 -2.626554985946475962e-01 -1.113265917856578469e-01 -9.584447170822687490e-01
1.969230769230769118e+00 -2.790617970965171279e-01 -1.187345061207635277e-01 -9.529030754705974937e-01
2.092307692307691980e+00 -2.952503768630355130e-01 -1.261230760904840653e-01 -9.470573739697940585e-01
2.215384615384615064e+00 -3.112118866520104388e-01 -1.335041814554354667e-01 -9.409150461301126755e-01
2.338461538461538147e+00 -3.269348544222530073e-01 -1.408625622240951281e-01 -9.344883686599733119e-01
2.461538461538461231e+00 -3.424082520642018346e-01 -1.481938642462439504e-01 -9.277888670716771813e-01
2.584615384615384315e+00 -3.576199779349752417e-01 -1.554958535105175621e-01 -9.208288923949915494e-01
2.707692307692307399e+00 -3.725636024692096648e-01 -1.627624736317748455e-01 -9.136199649733113270e-01
2.830769230769230482e+00 -3.872361877310215861e-01 -1.699907997339823451e-01 -9.061720626531375444e-01
2.953846153846153566e+00 -4.016198294742522323e-01 -1.771661110291762320e-01 -8.985043525185040236e-01
3.076923076923076650e+00 -4.157162439581634783e-01 -1.842935403719378473e-01 -8.906245726197792312e-01
3.199999999999999734e+00 -4.295213754840733755e-01 -1.913589390102737875e-01 -8.825470090995051198e-01
3.323076923076922817e+00 -4.430297270081313687e-01 -1.983613678054338969e-01 -8.742844803850196023e-01
3.446153846153845901e+00 -4.562381271064166466e-01 -2.052940631739844368e-01 -8.658503863504073417e-01
3.569230769230768985e+00 -4.691449865598607549e-01 -2.121507276048177348e-01 -8.572576455006154506e-01
3.692307692307692069e+00 -4.817509825849182192e-01 -2.189273992589589601e-01 -8.485176815473464140e-01
3.815384615384615152e+00 -4.940550776507318109e-01 -2.256162964077794708e-01 -8.396440857499526400e-01
3.938461538461538236e+00 -5.060588128407234043e-01 -2.322163811222930641e-01 -8.306474622369736105e-01
4.061538461538461320e+00 -5.177624131824171139e-01 -2.387202289741838235e-01 -8.215410932045473791e-01
4.184615384615383959e+00 -5.291729692909106220e-01 -2.451261280445808377e-01 -8.123324679937485859e-01
4.307692307692307487e+00 -5.402874648319152540e-01 -2.514323060956051292e-01 -8.030354880958171515e-01
4.430769230769230127e+00 -5.511120059701066776e-01 -2.576261758382006883e-01 -7.936617147087776658e-01
4.553846153846153655e+00 -5.616489016334172968e-01 -2.637173150585976344e-01 -7.842181825423922836e-01
4.676923076923076295e+00 -5.719054259166890253e-01 -2.696953464946278967e-01 -7.747147464256581850e-01
4.799999999999999822e+00 -5.818799612628660078e-01 -2.755603453065361697e-01 -7.651643026454689744e-01
