0.000000000000000000e+00 -7.247441259534670969e-10 2.562853513592633396e-09 -1.000000000000000000e+00
1.230769230769230699e-01 -1.005708180514138517e-01 -6.498556584101934652e-02 -9.928044086823375469e-01
2.461538461538461398e-01 -1.885719493555971793e-01 -1.409527031883243964e-01 -9.718895869988894987e-01
3.692307692307691958e-01 -2.503983728629582961e-01 -2.353491116689625517e-01 -9.390985061908644349e-01
4.923076923076922795e-01 -2.713616404607370747e-01 -3.489281334648529076e-01 -8.969976282373166576e-01
6.153846153846153078e-01 -2.373857219565543575e-01 -4.732667356991333563e-01 -8.483263288939266733e-01
7.384615384615383915e-01 -1.386125197553559896e-01 -5.898292575123842418e-01 -7.955358568416240894e-01
8.615384615384614753e-01 2.571570809627765630e-02 -6.714920049772147292e-01 -7.405571930524647017e-01
9.846153846153845590e-01 2.424576279370534437e-01 -6.872043780246287481e-01 -6.847998897913841754e-01
1.107692307692307532e+00 4.818798260457681226e-01 -6.097025951860857163e-01 -6.293169256507473719e-01
1.230769230769230616e+00 6.990602497925360037e-01 -4.250949167367407133e-01 -5.749723991201223239e-01
1.353846153846153699e+00 8.407405477300932128e-01 -1.418635006330365711e-01 -5.225067939770440262e-01
1.476923076923076783e+00 8.573990936332733792e-01 2.039601699200314922e-01 -4.724928952925564474e-01
1.599999999999999867e+00 7.183472662099705808e-01 5.505845378821845326e-01 -4.252243310352590289e-01
1.723076923076922951e+00 4.256985305222734661e-01 8.208897090083193682e-01 -3.806601610780251388e-01
1.846153846153846034e+00 2.214786742259164387e-02 9.407014010058748488e-01 -3.384836960809951556e-01
1.969230769230769118e+00 -4.118980950187756118e-01 8.610151224191460173e-01 -2.982840275896808668e-01
2.092307692307691980e+00 -7.737565631051562809e-01 5.777424712448744337e-01 -2.597971764568152153e-01
2.215384615384615064e+00 -9.644480529815966374e-01 1.417068230522853245e-01 -2.230224037863983988e-01
2.338461538461538147e+00 -9.188626826859779273e-01 -3.467597070560354267e-01 -1.882253116263952475e-01
2.461538461538461231e+00 -6.308620555104371697e-01 -7.600894084896628877e-01 -1.557455780941224832e-01
2.584615384615384315e+00 -1.637817676554323421e-01 -9.784384429158118346e-01 -1.257503295602967752e-01
2.707692307692307399e+00 3.599633056669257480e-01 -9.277870198817436131e-01 -9.806636660603332278e-02
2.830769230769230482e+00 7.901492587056553329e-01 -6.086363820120589407e-01 -7.214673949033975631e-02
2.953846153846153566e+00 9.934419468199393588e-01 -1.039834032757842031e-01 -4.732603092150110963e-02
3.076923076923076650e+00 8.980560709813342202e-01 4.392514039094260747e-01 -2.308002320463028653e-02
3.199999999999999734e+00 5.227523795530621964e-01 8.524720344037628461e-01 7.454045472270003341e-04
3.323076923076922817e+00 -2.193556524581091738e-02 9.994649194817688542e-01 2.383037357954117044e-02
3.446153846153845901e+00 -5.639209263036253361e-01 8.245551950646217154e-01 4.561933208046203836e-02
3.569230769230768985e+00 -9.238470235705922295e-01 3.770688489328805071e-01 6.561249571401769898e-02
3.692307692307692069e+00 -9.764020659153264114e-01 -1.990412894993949244e-01 8.367123767604491003e-02
3.815384615384615152e+00 -6.971106835647561395e-01 -7.099170261775734625e-01 1.001689192203938095e-01
3.938461538461538236e+00 -1.763170882374641701e-01 -9.774819383675467099e-01 1.158478143780619363e-01
4.061538461538461320e+00 4.074139091152263470e-01 -9.037208264576794825e-01 1.314610074091183411e-01
4.184615384615383959e+00 8.476736717324060422e-01 -5.095984178597645631e-01 1.474391155567293388e-01
4.307692307692307487e+00 9.841898662311128199e-01 6.759637254200184797e-02 1.636477695986904013e-01
4.430769230769230127e+00 7.635554494494279920e-01 6.202826224183392023e-01 1.794774983108786137e-01
4.553846153846153655e+00 2.628443159812827723e-01 9.450894974879944233e-01 1.941608040535010571e-01
4.676923076923076295e+00 -3.349279925615922249e-01 9.191737631599600222e-01 2.071777721951939821e-01
4.799999999999999822e+00 -8.066687586422595091e-01 5.490870394833649026e-01 2.185606848290314597e-01
