0.000000000000000000e+00 1.446586111867412248e-09 2.570866350325195625e-09 -1.000000000000000000e+00
1.230769230769230699e-01 5.125799014449442664e-02 1.441700786868935213e-02 -9.985811393924620694e-01
2.461538461538461398e-01 1.022133294720137392e-01 2.879318594070424953e-02 -9.943452459073675032e-01
3.692307692307691958e-01 1.525719087004497876e-01 4.305631803401690355e-02 -9.873533283560267382e-01
4.923076923076922795e-01 2.020519961842983936e-01 5.715114252677856721e-02 -9.777049162329579657e-01
6.153846153846153078e-01 2.503973012638556761e-01 7.101678098221647639e-02 -9.655337896242732754e-01
7.384615384615383915e-01 2.973774060818322185e-01 8.458929763695702264e-02 -9.510039625012682851e-01
8.615384615384614753e-01 3.427962924526862243e-01 9.781050494202524204e-02 -9.343021594846203648e-01
9.846153846153845590e-01 3.864913815362432392e-01 1.106186318606184049e-01 -9.156332002857510144e-01
1.107692307692307532e+00 4.283359237285148113e-01 1.229580417433661088e-01 -8.952124863561644608e-01
1.230769230769230616e+00 4.682380269252994776e-01 1.347818520412229493e-01 -8.732595604098041253e-01
1.353846153846153699e+00 5.061381377643211499e-01 1.460418011780340308e-01 -8.499945649663124270e-01
1.476923076923076783e+00 5.420103898631405404e-01 1.567033016094460107e-01 -8.256289334492454834e-01
1.599999999999999867e+00 5.758528192691459990e-01 1.667376814081366898e-01 -8.003661337437818490e-01
1.723076923076922951e+00 6.076875964230664673e-01 1.761256000461538518e-01 -7.743958905300381002e-01
1.846153846153846034e+00 6.375528842292768061e-01 1.848516524775600522e-01 -7.478965227683960215e-01
1.969230769230769118e+00 6.655064399721959401e-01 1.929153695386472966e-01 -7.210252847116001007e-01
2.092307692307691980e+00 6.916162030660368831e-01 2.003133613758359688e-01 -6.939263878226926696e-01
2.215384615384615064e+00 7.159565422965041837e-01 2.070548697760057066e-01 -6.667281251348521343e-01
2.338461538461538147e+00 7.386104002298526927e-01 2.131518282518717333e-01 -6.395408658895661569e-01
2.461538461538461231e+00 7.596598116040720328e-01 2.186179931521138320e-01 -6.124658121166767222e-01
2.584615384615384315e+00 7.791922534430865133e-01 2.234772804922734446e-01 -5.855836964609637540e-01
2.707692307692307399e+00 7.972944304723447173e-01 2.277478004502952458e-01 -5.589661655689397435e-01
2.830769230769230482e+00 8.140522101872070815e-01 2.314536359655988140e-01 -5.326711952451488319e-01
2.953846153846153566e+00 8.295446578546208372e-01 2.346231410691918540e-01 -5.067521956993786825e-01
3.076923076923076650e+00 8.438546525760430850e-01 2.372776388828676253e-01 -4.812468880080322253e-01
3.199999999999999734e+00 8.570584965014673706e-01 2.394441082167257928e-01 -4.561874197881951587e-01
3.323076923076922817e+00 8.692292651241273482e-01 2.411516522942481755e-01 -4.315969010336829781e-01
3.446153846153845901e+00 8.804338478013558067e-01 2.424238096726730740e-01 -4.075000375757678039e-01
3.569230769230768985e+00 8.907362952771274989e-01 2.432900768217929333e-01 -3.839114079679314950e-01
3.692307692307692069e+00 9.002031773599227238e-01 2.437719186890504042e-01 -3.608303230779392745e-01
3.815384615384615152e+00 9.088892464259002990e-01 2.438930661940401645e-01 -3.382682453020879887e-01
3.938461538461538236e+00 9.168475656739425439e-01 2.436791832609916941e-01 -3.162274009230627292e-01
4.061538461538461320e+00 9.241294022627639659e-01 2.431480893915742292e-01 -2.947075044002937516e-01
4.184615384615383959e+00 9.307811994334597161e-01 2.423249407597063421e-01 -2.737033648645934014e-01
4.307692307692307487e+00 9.368454201016368499e-01 2.412299456635703665e-01 -2.532138045887703526e-01
4.430769230769230127e+00 9.423640609518046940e-01 2.398795645678928334e-01 -2.332298271622788299e-01
4.553846153846153655e+00 9.473741877875730966e-01 2.382947823240164631e-01 -2.137429505125617857e-01
4.676923076923076295e+00 9.519109114329631360e-01 2.364926900733025361e-01 -1.947435804377049273e-01
4.799999999999999822e+00 9.560073000344218030e-01 2.344866257282630650e-01 -1.762221413787805613e-01
