0.000000000000000000e+00 2.018249856844495730e-09 3.733359161716337319e-09 -1.000000000000000000e+00
1.230769230769230699e-01 2.214366754671575066e-01 3.536451646957691763e-03 -9.751663045440417399e-01
2.461538461538461398e-01 4.230133454102129043e-01 3.876083260302636002e-02 -9.052895077429329307e-01
3.692307692307691958e-01 5.821705243735071367e-01 1.285339259099118059e-01 -8.028350382627680304e-01
4.923076923076922795e-01 6.733361565460974640e-01 2.796659795440547547e-01 -6.843897057779997350e-01
6.153846153846153078e-01 6.713123357251249423e-01 4.785472650523371896e-01 -5.659623335434753599e-01
7.384615384615383915e-01 5.582691255700862332e-01 6.911715695085931532e-01 -4.589079916437781570e-01
8.615384615384614753e-01 3.323996425708919400e-01 8.684304587972946354e-01 -3.678542380137650447e-01
9.846153846153845590e-01 1.516284739250653435e-02 9.565532948395738533e-01 -2.911232418496214613e-01
1.107692307692307532e+00 -3.463427216358188621e-01 9.111468852027772014e-01 -2.232360013802558163e-01
1.230769230769230616e+00 -6.843698049672735095e-01 7.117091967651429929e-01 -1.583787409677598068e-01
1.353846153846153699e+00 -9.233098700680072435e-01 3.725186943296960873e-01 -9.329648573076276818e-02
1.476923076923076783e+00 -9.981072189060679056e-01 -5.418093826826758663e-02 -2.866725838013577804e-02
1.599999999999999867e+00 -8.737453069792963101e-01 -4.853284699350514653e-01 3.163564456357368521e-02
1.723076923076922951e+00 -5.598541698664666333e-01 -8.244379501344125671e-01 8.270955390186368605e-02
1.846153846153846034e+00 -1.149761513109379407e-01 -9.859253935538717650e-01 1.212733829895913662e-01
1.969230769230769118e+00 3.626929294350071942e-01 -9.201433719180243109e-01 1.475322807995844976e-01
2.092307692307691980e+00 7.574197449816739702e-01 -6.316055778553480993e-01 1.654254309987791549e-01
2.215384615384615064e+00 9.661065765488218160e-01 -1.838001949254001455e-01 1.811947151533459810e-01
2.338461538461538147e+00 9.283558114491659019e-01 3.127122014503801450e-01 2.008547849856015532e-01
2.461538461538461231e+00 6.472425118505612529e-01 7.274519919412734126e-01 2.277432706457763467e-01
2.584615384615384315e+00 1.933400400109293038e-01 9.457264861225520569e-01 2.611466583270576347e-01
2.707692307692307399e+00 -3.110158204141461047e-01 9.028996127880275502e-01 2.966789072582116105e-01
2.830769230769230482e+00 -7.242799206163929027e-01 6.063699459628248967e-01 3.281940248961041640e-01
2.953846153846153566e+00 -9.264226709545132499e-01 1.373506707046115716e-01 3.505043990846175017e-01
3.076923076923076650e+00 -8.558529100509485454e-01 -3.697449095051543733e-01 3.616381411603488694e-01
3.199999999999999734e+00 -5.305802609990517560e-01 -7.655755642644141989e-01 3.638080918897307336e-01
3.323076923076922817e+00 -4.590317779159139300e-02 -9.308193196930412139e-01 3.625547413569819577e-01
3.446153846153845901e+00 4.521886196126814195e-01 -8.140307533680414265e-01 3.644956956069389520e-01
3.569230769230768985e+00 8.107599409203295471e-01 -4.498208394142011457e-01 3.745762630747441202e-01
3.692307692307692069e+00 9.177569119154295185e-01 4.951095003378032378e-02 3.940165141561393636e-01
3.815384615384615152e+00 7.385744505324154385e-01 5.274929784848944037e-01 4.198063730597517140e-01
3.938461538461538236e+00 3.290077851369571649e-01 8.323801198972535786e-01 4.459552714691686903e-01
4.061538461538461320e+00 -1.807132601670128902e-01 8.661110777210223599e-01 4.660187949846241739e-01
4.184615384615383959e+00 -6.266531285237559867e-01 6.171571131024393697e-01 4.758175449385865785e-01
4.307692307692307487e+00 -8.640855339433475280e-01 1.658732304626704679e-01 4.752068870988340743e-01
4.430769230769230127e+00 -8.154166463585323932e-01 -3.403909552382475834e-01 4.681975401130079040e-01
4.553846153846153655e+00 -4.969127165732997731e-01 -7.350284440507379724e-01 4.612917344551720755e-01
4.676923076923076295e+00 -1.460261859673472884e-02 -8.873680199839735216e-01 4.608078366181580510e-01
4.799999999999999822e+00 4.700871197208260077e-01 -7.469000147377059529e-01 4.702528315401263703e-01
