0.000000000000000000e+00 -7.109119629921058596e-10 2.854344281841224147e-09 -1.000000000000000000e+00
1.230769230769230699e-01 2.866678831742963673e-01 1.781542142748302471e-01 -9.413158649982095172e-01
2.461538461538461398e-01 5.431332537837357810e-01 3.147070944685572691e-01 -7.784284783039580047e-01
3.692307692307691958e-01 7.462144374364936272e-01 3.790812799562592317e-01 -5.472109369356441544e-01
4.923076923076922795e-01 8.846897210061266392e-01 3.597415434754893671e-01 -2.964528396001910315e-01
6.153846153846153078e-01 9.608648675140394335e-01 2.666904880956368906e-01 -7.474933718951290440e-02
7.384615384615383915e-01 9.883624714993887173e-01 1.279571492577172842e-01 8.209258425834271844e-02
8.615384615384614753e-01 9.869944385909704687e-01 -1.886242349832140119e-02 1.595592325849297111e-01
9.846153846153845590e-01 9.763945538891674047e-01 -1.374819736924324798e-01 1.665094245341102175e-01
1.107692307692307532e+00 9.704300812638915197e-01 -2.030191426449369785e-01 1.304664161488160445e-01
1.230769230769230616e+00 9.740796555748862939e-01 -2.084145752879785762e-01 8.777705654051225215e-02
1.353846153846153699e+00 9.835953907795104145e-01 -1.654046750189961390e-01 7.179118264779332792e-02
1.476923076923076783e+00 9.896685747856378557e-01 -9.992283978687266366e-02 1.026850239311570684e-01
1.599999999999999867e+00 9.823302961817816925e-01 -4.346367571996467838e-02 1.819648497226730166e-01
1.723076923076922951e+00 9.557864378769288516e-01 -2.309533875875591225e-02 2.931092377565647777e-01
1.846153846153846034e+00 9.114526668107285623e-01 -5.317270253397468616e-02 4.079245332974135163e-01
1.969230769230769118e+00 8.581322153560282384e-01 -1.311947768329360664e-01 4.963611290413832977e-01
2.092307692307691980e+00 8.092685261827068377e-01 -2.389837086492617724e-01 5.366091954770808581e-01
2.215384615384615064e+00 7.782667240585456891e-01 -3.486796828338086796e-01 5.222080587980547639e-01
2.338461538461538147e+00 7.735411830157482571e-01 -4.316368245183452301e-01 4.640047344638805749e-01
2.461538461538461231e+00 7.950828693621185828e-01 -4.674144215537462954e-01 3.864484093927419428e-01
2.584615384615384315e+00 8.338357431978300482e-01 -4.500953672578467679e-01 3.195411795114750930e-01
2.707692307692307399e+00 8.742269394208095346e-01 -3.900309710630575077e-01 2.890972022762233751e-01
2.830769230769230482e+00 8.991054121550333678e-01 -3.105121590797497166e-01 3.084898278687071560e-01
2.953846153846153566e+00 8.954849431112859026e-01 -2.404664188066523434e-01 3.745101066369730947e-01
3.076923076923076650e+00 8.591612823518495201e-01 -2.054731932434279429e-01 4.686143962807876040e-01
3.199999999999999734e+00 7.965823228618376106e-01 -2.198839763017234328e-01 5.631042795288725422e-01
3.323076923076922817e+00 7.232399784926520914e-01 -2.824785730429087427e-01 6.301668590985736174e-01
3.446153846153845901e+00 6.589662834408173131e-01 -3.769592695220110867e-01 6.508810966596459968e-01
3.569230769230768985e+00 6.216047934423922783e-01 -4.771040942601486590e-01 6.212563173258819349e-01
3.692307692307692069e+00 6.210768327987468140e-01 -5.549485664544140384e-01 5.534204738167812776e-01
3.815384615384615152e+00 6.558361410735613628e-01 -5.894415190212232147e-01 4.716084147571555363e-01
3.938461538461538236e+00 7.129471111937579764e-01 -5.729211904514684983e-01 4.042813170849114957e-01
4.061538461538461320e+00 7.718774794890668201e-01 -5.134116906579495598e-01 3.749517390856549337e-01
4.184615384615383959e+00 8.108939850264591520e-01 -4.320608128181434582e-01 3.946516304465579883e-01
4.307692307692307487e+00 8.140341818530602014e-01 -3.565413388343074974e-01 4.584792536807619223e-01
4.430769230769230127e+00 7.764241089504199111e-01 -3.124782159932406045e-01 5.472672050462067395e-01
4.553846153846153655e+00 7.061581462803727671e-01 -3.155472962526050806e-01 6.338384298556274388e-01
4.676923076923076295e+00 6.220463331870204060e-01 -3.666959497485134944e-01 6.917909334473942851e-01
4.799999999999999822e+00 5.478514319369812702e-01 -4.519317355290624061e-01 7.039880357510626130e-01
