0.000000000000000000e+00 -2.846596561211136400e-09 -5.572143558793075130e-10 -1.000000000000000000e+00
1.230769230769230699e-01 5.052897789175419402e-02 -6.443727082557310082e-02 -9.966413304258704420e-01
2.461538461538461398e-01 1.003654143957083689e-01 -1.280782222982300711e-01 -9.866718484366452380e-01
3.692307692307691958e-01 1.488277335902496723e-01 -1.901855397591589725e-01 -9.704007550090499867e-01
4.923076923076922795e-01 1.953229108324055774e-01 -2.501001155110795793e-01 -9.483121856457779053e-01
6.153846153846153078e-01 2.393461104287114560e-01 -3.072864661056143309e-01 -9.210237842999131619e-01
7.384615384615383915e-01 2.805070876640480271e-01 -3.613374011072969516e-01 -8.892393600237432638e-01
8.615384615384614753e-01 3.185233070703499259e-01 -4.119794320364461582e-01 -8.537040916293453519e-01
9.846153846153845590e-01 3.532265778635619302e-01 -4.590550318504966754e-01 -8.151647427904223919e-01
1.107692307692307532e+00 3.845414851819914936e-01 -5.025198582740653119e-01 -7.743352222236226101e-01
1.230769230769230616e+00 4.124834965720077795e-01 -5.424147405848078751e-01 -7.318718159397896716e-01
1.353846153846153699e+00 4.371258628203507635e-01 -5.788468578693761746e-01 -6.883672169708376920e-01
1.476923076923076783e+00 4.586050684150875800e-01 -6.119733943462315473e-01 -6.443302821264128566e-01
1.599999999999999867e+00 4.770881009684233010e-01 -6.419840595806409755e-01 -6.001953404657852653e-01
1.723076923076922951e+00 4.927637511943694926e-01 -6.690850836005352020e-01 -5.563268834345544978e-01
1.846153846153846034e+00 5.058372131494737189e-01 -6.934929915623530006e-01 -5.130168868887020617e-01
1.969230769230769118e+00 5.165221850336633169e-01 -7.154222441558961698e-01 -4.704950751603261816e-01
2.092307692307691980e+00 5.250243014716267087e-01 -7.350865258725121087e-01 -4.289367344021984274e-01
2.215384615384615064e+00 5.315485962842201317e-01 -7.526843725946599228e-01 -3.884732566453350522e-01
2.338461538461538147e+00 5.362801872055021901e-01 -7.684064358918776261e-01 -3.492048175255551001e-01
2.461538461538461231e+00 5.394058084756662153e-01 -7.824287195127046513e-01 -3.111837926845753000e-01
2.584615384615384315e+00 5.410908464232877524e-01 -7.949113888679208983e-01 -2.744541362667954343e-01
2.707692307692307399e+00 5.414895116458871005e-01 -8.060049980073457077e-01 -2.390259131532946335e-01
2.830769230769230482e+00 5.407495973277224310e-01 -8.158391949043528601e-01 -2.049011868532800151e-01
2.953846153846153566e+00 5.389933260681207816e-01 -8.245401444518659639e-01 -1.720693304004525248e-01
3.076923076923076650e+00 5.363420011791059094e-01 -8.322168569213547196e-01 -1.405004890842388721e-01
3.199999999999999734e+00 5.328986783081638423e-01 -8.389704220149089009e-01 -1.101616414835462493e-01
3.323076923076922817e+00 5.287584199601826906e-01 -8.448889242154143941e-01 -8.102560816685019929e-02
3.446153846153845901e+00 5.240075057183980478e-01 -8.500530216238373349e-01 -5.304593278013181035e-02
3.569230769230768985e+00 5.187217429728391282e-01 -8.545346986803625811e-01 -2.619278681206071296e-02
3.692307692307692069e+00 5.129728224737635234e-01 -8.583976748856252392e-01 -4.116854025368246869e-04
3.815384615384615152e+00 5.068242657456830669e-01 -8.616987566804190646e-01 2.433667840030884905e-02
3.938461538461538236e+00 5.003245277633190380e-01 -8.644936604851209960e-01 4.810355057389465588e-02
4.061538461538461320e+00 4.935252170527923976e-01 -8.668276141412074587e-01 7.092702484556050180e-02
4.184615384615383959e+00 4.864668671621359408e-01 -8.687449476520721081e-01 9.284463720507084294e-02
4.307692307692307487e+00 4.791905796770613568e-01 -8.702821579781730987e-01 1.139004670859275481e-01
4.430769230769230127e+00 4.717338962872902330e-01 -8.714717262112949836e-01 1.341348772071024598e-01
4.553846153846153655e+00 4.641282934548387473e-01 -8.723449106342179293e-01 1.535816988934772809e-01
4.676923076923076295e+00 4.563990892826691459e-01 -8.729288518312300349e-01 1.722881189333762553e-01
4.799999999999999822e+00 4.485726398264862080e-01 -8.732473573820389579e-01 1.902887274501533776e-01
