0.000000000000000000e+00 -3.232992095374266911e-09 -1.789879175125624097e-09 -1.000000000000000000e+00
1.230769230769230699e-01 1.608363184289832767e-03 -1.074814024274593945e-02 -9.999408249307361052e-01
2.461538461538461398e-01 4.754725948923498383e-03 -2.080664885062924463e-02 -9.997719949392886996e-01
3.692307692307691958e-01 1.071501718222121410e-02 -2.933072467632693442e-02 -9.995120230678694595e-01
4.923076923076922795e-01 2.037371919149204985e-02 -3.524698928331344155e-02 -9.991705463357801742e-01
6.153846153846153078e-01 3.399591140312938076e-02 -3.724858672457703745e-02 -9.987271247975025856e-01
7.384615384615383915e-01 5.105686324536946180e-02 -3.389627774131476201e-02 -9.981197820692683242e-01
8.615384615384614753e-01 7.013868552124338795e-02 -2.384667427980829285e-02 -9.972514918471101497e-01
9.846153846153845590e-01 8.893223394772405144e-02 -6.180440762020317225e-03 -9.960176872498723855e-01
1.107692307692307532e+00 1.043967897220516167e-01 1.922988497847716305e-02 -9.943488307677391669e-01
1.230769230769230616e+00 1.130997724901256912e-01 5.136381089273506229e-02 -9.922539770740151921e-01
1.353846153846153699e+00 1.117158787980459117e-01 8.782534679699469105e-02 -9.898503439785123481e-01
1.476923076923076783e+00 9.766671293697806733e-02 1.248018124850798216e-01 -9.873615626763962982e-01
1.599999999999999867e+00 6.978515907662544149e-02 1.573089992191057940e-01 -9.850790797937908350e-01
1.723076923076922951e+00 2.890162222856697272e-02 1.797272961594366669e-01 -9.832901367317394836e-01
1.846153846153846034e+00 -2.180283341213766143e-02 1.866268635391825637e-01 -9.821871694029874478e-01
1.969230769230769118e+00 -7.680229895598655876e-02 1.737482852698440938e-01 -9.817889224039644258e-01
2.092307692307691980e+00 -1.286679242369061227e-01 1.390342825323553633e-01 -9.818913345419875149e-01
2.215384615384615064e+00 -1.689679838736944106e-01 8.346119164092202780e-02 -9.820797465265814763e-01
2.338461538461538147e+00 -1.895531195322086304e-01 1.150219588414831684e-02 -9.818013373513133635e-01
2.461538461538461231e+00 -1.840337311713181323e-01 -6.897386324621471165e-02 -9.804950886359726780e-01
2.584615384615384315e+00 -1.492344990001181482e-01 -1.474459454443318163e-01 -9.777448173339871040e-01
2.707692307692307399e+00 -8.629578041444047054e-02 -2.121290982880581766e-01 -9.734218425888236936e-01
2.830769230769230482e+00 -1.180776653878523076e-03 -2.518135812583310318e-01 -9.677726375610264942e-01
2.953846153846153566e+00 9.563326404774724621e-02 -2.579305221081364952e-01 -9.614161461293510014e-01
3.076923076923076650e+00 1.903441591850102421e-01 -2.264270729386051728e-01 -9.552456939391585911e-01
3.199999999999999734e+00 2.678192133618398363e-01 -1.590902546397718331e-01 -9.502406469291885260e-01
3.323076923076922817e+00 3.140920681320326091e-01 -6.397371320853315058e-02 -9.472314778989375794e-01
3.446153846153845901e+00 3.190004134666116209e-01 4.528542711141994581e-02 -9.466688277533499285e-01
3.569230769230768985e+00 2.784244349721410883e-01 1.512834418036974327e-01 -9.484656895796866882e-01
3.692307692307692069e+00 1.956953099467899082e-01 2.355559879609370189e-01 -9.519511300213304716e-01
3.815384615384615152e+00 8.174006087680532606e-02 2.818303284770847794e-01 -9.559731868307079772e-01
3.938461538461538236e+00 -4.614257438579681680e-02 2.791817455276233706e-01 -9.591262351424686416e-01
4.061538461538461320e+00 -1.668684782909160280e-01 2.245210331131800852e-01 -9.600729162539817230e-01
4.184615384615383959e+00 -2.590938294790234853e-01 1.238316226955304411e-01 -9.578782550070019663e-01
4.307692307692307487e+00 -3.051253783453519164e-01 -8.171437766073541553e-03 -9.522741166850103856e-01
4.430769230769230127e+00 -2.944938663626260333e-01 -1.501064199709958580e-01 -9.437876630834539649e-01
4.553846153846153655e+00 -2.264321223768908098e-01 -2.774107334438725703e-01 -9.336835091163070421e-01
4.676923076923076295e+00 -1.107260157784691335e-01 -3.667078883876782047e-01 -9.237194663585694965e-01
4.799999999999999822e+00 3.344164253184415958e-02 -4.003185332778218530e-01 -9.157613638384641819e-01
