0.000000000000000000e+00 9.833342140249246787e-10 2.277104261725321202e-09 -1.000000000000000000e+00
1.230769230769230699e-01 6.906727021889038851e-03 -2.797964018918514539e-01 -9.600318608304887480e-01
2.461538461538461398e-01 4.558425401140300814e-02 -5.258512888399355933e-01 -8.493479029671305858e-01
3.692307692307691958e-01 1.378914892495859967e-01 -7.073076223665004658e-01 -6.933152839574192594e-01
4.923076923076922795e-01 2.884372321573559494e-01 -7.993177891712462957e-01 -5.271388716336022906e-01
6.153846153846153078e-01 4.814725880637993338e-01 -7.863215533956084968e-01 -3.871183419345416432e-01
7.384615384615383915e-01 6.830202432120363598e-01 -6.651797567079119622e-01 -3.016558673119135170e-01
8.615384615384614753e-01 8.479036861206409315e-01 -4.474669194277242079e-01 -2.842701827147122162e-01
9.846153846153845590e-01 9.301624128648908751e-01 -1.600841131477953316e-01 -3.303759810228376059e-01
1.107692307692307532e+00 8.945404663201721451e-01 1.565888827123112503e-01 -4.186356061174429377e-01
1.230769230769230616e+00 7.263609163969020344e-01 4.533847491027513943e-01 -5.165483906931800373e-01
1.353846153846153699e+00 4.373724893002505776e-01 6.796215059255048541e-01 -5.888985877749037812e-01
1.476923076923076783e+00 6.597320538248618860e-02 7.920066765220685756e-01 -6.069225564724404220e-01
1.599999999999999867e+00 -3.285818916019623837e-01 7.635451793539963505e-01 -5.558899289031448143e-01
1.723076923076922951e+00 -6.770433024999561455e-01 5.905193366296267454e-01 -4.391788811825581562e-01
1.846153846153846034e+00 -9.139881641486702346e-01 2.957131753744353109e-01 -2.777699179062406154e-01
1.969230769230769118e+00 -9.917207586496590288e-01 -7.340279593938628389e-02 -1.052501306313109869e-01
2.092307692307691980e+00 -8.912036085365555582e-01 -4.517679394091940193e-01 4.046387000898712949e-02
2.215384615384615064e+00 -6.275228071341093505e-01 -7.682131017373374782e-01 1.266470596384994263e-01
2.338461538461538147e+00 -2.484382374139902372e-01 -9.593017462072286339e-01 1.341430296262695887e-01
2.461538461538461231e+00 1.739915351281529909e-01 -9.827490252376461788e-01 6.250438125587307048e-02
2.584615384615384315e+00 5.571962436078108372e-01 -8.274548316479501953e-01 -6.947209973484354262e-02
2.707692307692307399e+00 8.246281533133161812e-01 -5.176784492017638684e-01 -2.279775730192852012e-01
2.830769230769230482e+00 9.215858839701758232e-01 -1.100001941969131480e-01 -3.722328024008073610e-01
2.953846153846153566e+00 8.270084741464669431e-01 3.168194925119387495e-01 -4.643938107028192652e-01
3.076923076923076650e+00 5.585692704724133373e-01 6.772428683926716708e-01 -4.788757057774856163e-01
3.199999999999999734e+00 1.698281105860526830e-01 8.966651377306134041e-01 -4.088134079865001769e-01
3.323076923076922817e+00 -2.601915602742530531e-01 9.276058335268780874e-01 -2.680008362528107368e-01
3.446153846153845901e+00 -6.430217024032853779e-01 7.607841130145281960e-01 -8.778495669164899928e-02
3.569230769230768985e+00 -8.990558748170132120e-01 4.283776039446456352e-01 9.037003842586882607e-02
3.692307692307692069e+00 -9.743658574675735373e-01 -1.582164209413206013e-03 2.249110410104788460e-01
3.815384615384615152e+00 -8.523814376810360249e-01 -4.388363458438389042e-01 2.843332221359833878e-01
3.938461538461538236e+00 -5.578449858500551528e-01 -7.897884114368208808e-01 2.549898114990404863e-01
4.061538461538461320e+00 -1.520668624399307556e-01 -9.777222967275575050e-01 1.446048847374977742e-01
4.184615384615383959e+00 2.796970397494985550e-01 -9.598798124757098593e-01 -1.938435889457692379e-02
4.307692307692307487e+00 6.461492174567339264e-01 -7.375096541158177033e-01 -1.963333889481238548e-01
4.430769230769230127e+00 8.693976007966234265e-01 -3.564657918580953488e-01 -3.421365532564656364e-01
4.553846153846153655e+00 9.017695406225951782e-01 1.020644995510992803e-01 -4.199678991369309444e-01
4.676923076923076295e+00 7.363125830971231078e-01 5.388202285812080383e-01 -4.092614037129969629e-01
4.799999999999999822e+00 4.086237103939518445e-01 8.581200589325952421e-01 -3.108596681998244682e-01
