0.000000000000000000e+00 1.525979909488701207e-09 -1.786299966670396197e-09 -1.000000000000000000e+00
1.230769230769230699e-01 1.893487388635685387e-01 -3.381910010825819324e-01 -9.218297211961408166e-01
2.461538461538461398e-01 3.953395445535212716e-01 -5.881303670621164104e-01 -7.055502745843665879e-01
3.692307692307691958e-01 6.124446998313849422e-01 -6.822115538311859240e-01 -3.993587749366446227e-01
4.923076923076922795e-01 8.033832632207857927e-01 -5.919106783509995307e-01 -6.483982787767303413e-02
6.153846153846153078e-01 9.087309076349845416e-01 -3.397203885132880630e-01 2.424578091752060960e-01
7.384615384615383915e-01 8.731760891237495548e-01 1.528063043390620601e-03 4.873914639884811550e-01
8.615384615384614753e-01 6.767990721939604049e-01 3.265117660417143353e-01 6.597911232639683821e-01
9.846153846153845590e-01 3.553955523089120661e-01 5.308102320435011956e-01 7.693681748637928308e-01
1.107692307692307532e+00 -2.972498551676694412e-03 5.497384806146158320e-01 8.353280160842423419e-01
1.230769230769230616e+00 -2.876608255587284613e-01 3.864212292660820780e-01 8.763132355319670497e-01
1.353846153846153699e+00 -4.104702429621427950e-01 1.141862384693929644e-01 9.046940717204302596e-01
1.476923076923076783e+00 -3.455402269319295949e-01 -1.518271008666429445e-01 9.260381913896493788e-01
1.599999999999999867e+00 -1.433581175957155673e-01 -3.039595904286247485e-01 9.418353040031979262e-01
1.723076923076922951e+00 9.065852505986965459e-02 -2.902433199897701543e-01 9.526473207143378863e-01
1.846153846153846034e+00 2.449755299778832995e-01 -1.374789631913107546e-01 9.597311272490117728e-01
1.969230769230769118e+00 2.548040386778149813e-01 6.389140625699336884e-02 9.648783790390528248e-01
2.092307692307691980e+00 1.318347903360649886e-01 2.068036580454924445e-01 9.694583634568281205e-01
2.215384615384615064e+00 -4.542244455828005345e-02 2.227016016975671420e-01 9.738268171811473861e-01
2.338461538461538147e+00 -1.761519741374243386e-01 1.154004236988487031e-01 9.775741691940191824e-01
2.461538461538461231e+00 -1.925916543755897270e-01 -4.478410359967975596e-02 9.802555776907249108e-01
2.584615384615384315e+00 -9.555993099914161792e-02 -1.633046363645646593e-01 9.819359137479775068e-01
2.707692307692307399e+00 4.966327240846538094e-02 -1.758913539708606699e-01 9.831551732394470111e-01
2.830769230769230482e+00 1.542097229531524949e-01 -8.385529737395942818e-02 9.844724611573618667e-01
2.953846153846153566e+00 1.587852678478994251e-01 4.999675629658233145e-02 9.860456470688705455e-01
3.076923076923076650e+00 6.747798682104694246e-02 1.417420849606365885e-01 9.876003481160861019e-01
3.199999999999999734e+00 -5.772142536647785482e-02 1.379377757052164533e-01 9.887568075985319060e-01
3.323076923076922817e+00 -1.374635930784943172e-01 4.688518218772350088e-02 9.893958749995772628e-01
3.446153846153845901e+00 -1.248865378983389368e-01 -6.925358265086348220e-02 9.897504585982761505e-01
3.569230769230768985e+00 -3.353677763681377905e-02 -1.356593260008009394e-01 9.901871241296316128e-01
3.692307692307692069e+00 7.370123355943886123e-02 -1.126953929333264492e-01 9.908918369547685678e-01
3.815384615384615152e+00 1.267085967307687022e-01 -1.979558506629960218e-02 9.917418415793159969e-01
3.938461538461538236e+00 9.358326669846223078e-02 7.931133707815776757e-02 9.924468500164104201e-01
4.061538461538461320e+00 -7.587155313918195199e-05 1.196222429115124941e-01 9.928189192907843630e-01
4.184615384615383959e+00 -8.996557478399214158e-02 7.743710490515552658e-02 9.929292982138069323e-01
4.307692307692307487e+00 -1.168108033503267029e-01 -1.545453968387402663e-02 9.930333849858569151e-01
4.430769230769230127e+00 -6.552375422110880143e-02 -9.473125117129047035e-02 9.933436286081362976e-01
4.553846153846153655e+00 2.614198083765282427e-02 -1.075484153014869410e-01 9.938555785615548199e-01
4.676923076923076295e+00 9.461362946501251925e-02 -4.769566098021220391e-02 9.943703555061313981e-01
4.799999999999999822e+00 9.423781542494134855e-02 4.162522359816749756e-02 9.946786513075333014e-01
