0.000000000000000000e+00 2.839818780837122254e-09 -3.915841255411311321e-09 -1.000000000000000000e+00
1.230769230769230699e-01 1.231522010480050333e-02 -8.096644636086633429e-02 -9.966404273279622084e-01
2.461538461538461398e-01 2.440104173947202360e-02 -1.609645012157469857e-01 -9.866578833799740655e-01
3.692307692307691958e-01 3.601060351525846304e-02 -2.390704934701269047e-01 -9.703332725148380300e-01
4.923076923076922795e-01 4.693399435706729905e-02 -3.144582630191609662e-01 -9.481089941399849508e-01
6.153846153846153078e-01 5.698981021947396863e-02 -3.864270503441020743e-01 -9.205558572289671559e-01
7.384615384615383915e-01 6.602613649829455755e-02 -4.544164166857196374e-01 -8.883368629110516279e-01
8.615384615384614753e-01 7.393017619440189758e-02 -5.180254400592347874e-01 -8.521616140805066131e-01
9.846153846153845590e-01 8.062842042027548728e-02 -5.769971297419412837e-01 -8.127534451530871173e-01
1.107692307692307532e+00 8.607824389547696908e-02 -6.312090165594047564e-01 -7.708176699700508561e-01
1.230769230769230616e+00 9.027470800494280523e-02 -6.806551674592401513e-01 -7.270162308742140755e-01
1.353846153846153699e+00 9.323348778565337946e-02 -7.254219511021234856e-01 -6.819556705031537547e-01
1.476923076923076783e+00 9.499673009638087695e-02 -7.656766033775981306e-01 -6.361662345233805027e-01
1.599999999999999867e+00 9.562711830648190636e-02 -8.016294907711875029e-01 -5.901166554580130619e-01
1.723076923076922951e+00 9.519042301333890954e-02 -8.335373249982427346e-01 -5.441929267907616996e-01
1.846153846153846034e+00 9.377082615375986752e-02 -8.616692831635019978e-01 -4.987227021086111933e-01
1.969230769230769118e+00 9.144431522800666734e-02 -8.863056547494877480e-01 -4.539726273042182791e-01
2.092307692307691980e+00 8.830653172712543686e-02 -9.077319770936980170e-01 -4.101405115243217936e-01
2.215384615384615064e+00 8.443419710391542043e-02 -9.262234508076063744e-01 -3.673844875699820989e-01
2.338461538461538147e+00 7.990888796560646767e-02 -9.420410304228364895e-01 -3.258272842830149951e-01
2.461538461538461231e+00 7.480846681311664748e-02 -9.554345317127891368e-01 -2.855494962304402362e-01
2.584615384615384315e+00 6.920709680561204502e-02 -9.666382497079895053e-01 -2.465982338919745775e-01
2.707692307692307399e+00 6.316977592711664480e-02 -9.758661601635190141e-01 -2.090083868935277145e-01
2.830769230769230482e+00 5.676289206057083536e-02 -9.833176976808534198e-01 -1.727827034003159290e-01
2.953846153846153566e+00 5.004223652906392150e-02 -9.891728344902600556e-01 -1.379216449906006670e-01
3.076923076923076650e+00 4.305410456103098138e-02 -9.935967113401431572e-01 -1.044095832072378244e-01
3.199999999999999734e+00 3.585311610913899383e-02 -9.967394162946825453e-01 -7.221142581807880878e-02
3.323076923076922817e+00 2.847710224793786882e-02 -9.987355577837817577e-01 -4.130029200494026581e-02
3.446153846153845901e+00 2.096316085035798693e-02 -9.997071939919554007e-01 -1.163766425663413477e-02
3.569230769230768985e+00 1.334684652042961162e-02 -9.997640932942019054e-01 1.682208604094587515e-02
3.692307692307692069e+00 5.656819500801102407e-03 -9.990049546133406011e-01 4.411889123854036837e-02
3.815384615384615152e+00 -2.081493811502577174e-03 -9.975184740103962833e-01 7.029905871432909348e-02
3.938461538461538236e+00 -9.843603385880084211e-03 -9.953842773593150062e-01 9.540792490646900215e-02
4.061538461538461320e+00 -1.760875676532169809e-02 -9.926736999797196592e-01 1.194919461162001761e-01
4.184615384615383959e+00 -2.535796623943431527e-02 -9.894504289945330600e-01 1.425985144169372720e-01
4.307692307692307487e+00 -3.308226922366741540e-02 -9.857724409169881241e-01 1.647659613152157310e-01
4.430769230769230127e+00 -4.075931616188321893e-02 -9.816911878453568052e-01 1.860395378138638700e-01
4.553846153846153655e+00 -4.838429939348254383e-02 -9.772524939138804712e-01 2.064611402086798386e-01
4.676923076923076295e+00 -5.594221404144616994e-02 -9.724964998547405148e-01 2.260769044031937514e-01
4.799999999999999822e+00 -6.342693062807158721e-02 -9.674634737687469732e-01 2.449107244161859154e-01
