0.000000000000000000e+00 -4.349935171631361225e-09 2.534030785711338381e-09 -1.000000000000000000e+00
1.230769230769230699e-01 -8.049580667994765681e-02 8.877351011570103201e-02 -9.927931618089737009e-01
2.461538461538461398e-01 -1.582760664883444135e-01 1.752487516447382987e-01 -9.717168839085347232e-01
3.692307692307691958e-01 -2.309808595685647059e-01 2.574152474917480449e-01 -9.382861368970502047e-01
4.923076923076922795e-01 -2.969185889947141277e-01 3.337236379013095444e-01 -8.946854283612698522e-01
6.153846153846153078e-01 -3.551394513749920323e-01 4.032084585694795664e-01 -8.433810307314763000e-01
7.384615384615383915e-01 -4.053500863058513981e-01 4.654721417383872462e-01 -7.867771336159911089e-01
8.615384615384614753e-01 -4.477331977015938658e-01 5.205921037657164074e-01 -7.269861304106852717e-01
9.846153846153845590e-01 -4.827515154192467683e-01 5.689622286263441575e-01 -6.657490473064340275e-01
1.107692307692307532e+00 -5.110146437928606566e-01 6.111480776054916131e-01 -6.044417967976144501e-01
1.230769230769230616e+00 -5.332151898769150744e-01 6.477703942145851546e-01 -5.441158243092825142e-01
1.353846153846153699e+00 -5.500872673527645862e-01 6.794397994628559312e-01 -4.855427512900308828e-01
1.476923076923076783e+00 -5.623826238337856775e-01 7.067339358809401340e-01 -4.292301334253302847e-01
1.599999999999999867e+00 -5.708160090335158143e-01 7.301992305246871595e-01 -3.754507009090439218e-01
1.723076923076922951e+00 -5.760089592332759967e-01 7.503568841739663986e-01 -3.242882348663077563e-01
1.846153846153846034e+00 -5.784520314228396298e-01 7.676922684380965700e-01 -2.757283413858703236e-01
1.969230769230769118e+00 -5.785225335836898797e-01 7.826351867074929913e-01 -2.297343234262389788e-01
2.092307692307691980e+00 -5.765355033355136216e-01 7.955431179885876780e-01 -1.862840901190688514e-01
2.215384615384615064e+00 -5.728049679627916779e-01 8.066886746819498244e-01 -1.453667582158115756e-01
2.338461538461538147e+00 -5.676690796762178248e-01 8.162717805532516691e-01 -1.069379779691917443e-01
2.461538461538461231e+00 -5.614603318239848040e-01 8.244539289576389152e-01 -7.086235369425578079e-02
2.584615384615384315e+00 -5.544520725247493731e-01 8.313863111580908072e-01 -3.692043729506627042e-02
2.707692307692307399e+00 -5.468074939083177322e-01 8.372343795735325278e-01 -4.853891517444489968e-03
2.830769230769230482e+00 -5.385801869255826269e-01 8.421770776349816190e-01 2.554528073100596069e-02
2.953846153846153566e+00 -5.297689683804228666e-01 8.463874237612548646e-01 5.437465538540948995e-02
3.076923076923076650e+00 -5.204036390837758486e-01 8.499987204337708935e-01 8.164376231848112508e-02
3.199999999999999734e+00 -5.106036719371752630e-01 8.530832568734503241e-01 1.073144056934060425e-01
3.323076923076922817e+00 -5.005568180026737091e-01 8.556630161784526400e-01 1.314050053274393448e-01
3.446153846153845901e+00 -4.904627396746772394e-01 8.577268759562060030e-01 1.540603172196652881e-01
3.569230769230768985e+00 -4.804408529167839559e-01 8.592777488102577577e-01 1.755052425732792354e-01
3.692307692307692069e+00 -4.704744014171604038e-01 8.603633769111147522e-01 1.959911784173593852e-01
3.815384615384615152e+00 -4.604495517128032178e-01 8.610784618991045303e-01 2.156711149905243263e-01
3.938461538461538236e+00 -4.502463872274186651e-01 8.615391533657711376e-01 2.345474743695559749e-01
4.061538461538461320e+00 -4.398291372712127001e-01 8.618391790624001514e-01 2.525226720392294566e-01
4.184615384615383959e+00 -4.293035740691013014e-01 8.620118017867806071e-01 2.694778998184489405e-01
4.307692307692307487e+00 -4.188670736074167067e-01 8.620235414324265433e-01 2.853947125671930651e-01
4.430769230769230127e+00 -4.086996328279914326e-01 8.618034800800165041e-01 3.004061030571007485e-01
4.553846153846153655e+00 -3.988591889850041650e-01 8.612947927949182736e-01 3.147493876341665442e-01
4.676923076923076295e+00 -3.892427989883375239e-01 8.604982316841953693e-01 3.286601649479584109e-01
4.799999999999999822e+00 -3.796581892570922712e-01 8.594886229420694024e-01 3.422334560836460260e-01
