0.000000000000000000e+00 -7.949297338895537880e-10 -2.291254360435211470e-09 -1.000000000000000000e+00
1.230769230769230699e-01 -4.018205177544704187e-01 1.362213166355313032e-01 -9.055280232412877828e-01
2.461538461538461398e-01 -7.387578916971998533e-01 1.899361920365180978e-01 -6.466488448332949890e-01
3.692307692307691958e-01 -9.506024274771303073e-01 1.174293551809952874e-01 -2.873269167722395379e-01
4.923076923076922795e-01 -9.935536975538050708e-01 -6.458296946444952447e-02 9.311835036252692765e-02
6.153846153846153078e-01 -8.582119566907936425e-01 -2.848542833580619549e-01 4.269922297824914614e-01
7.384615384615383915e-01 -5.834686299561361311e-01 -4.498243629107148700e-01 6.761777837545274172e-01
8.615384615384614753e-01 -2.530376576965348567e-01 -4.881781053156185601e-01 8.352544037575546643e-01
9.846153846153845590e-01 3.114744286256945771e-02 -3.860203652415824527e-01 9.219627965016922166e-01
1.107692307692307532e+00 1.897736617967857864e-01 -1.937506127541421819e-01 9.625200442787575916e-01
1.230769230769230616e+00 2.005870633941770342e-01 5.120508156684772105e-04 9.796750752606065982e-01
1.353846153846153699e+00 1.057755712732797448e-01 1.173006055789099500e-01 9.874467419859345174e-01
1.476923076923076783e+00 -1.401567234816846613e-02 1.260183437576681831e-01 9.919284826586212134e-01
1.599999999999999867e+00 -8.509492700741030924e-02 5.576639351841904124e-02 9.948106861532959311e-01
1.723076923076922951e+00 -7.880288040149982520e-02 -2.880530637329888066e-02 9.964736888098932877e-01
1.846153846153846034e+00 -1.965633352082754581e-02 -7.022657884334596035e-02 9.973371419833424456e-01
1.969230769230769118e+00 3.956325562293748488e-02 -5.156829590279422837e-02 9.978852780181237669e-01
2.092307692307691980e+00 5.709167811465629822e-02 2.242850508377414176e-04 9.983687243942821476e-01
2.215384615384615064e+00 2.857579232347734477e-02 4.039380991484795708e-02 9.987749648412806991e-01
2.338461538461538147e+00 -1.609853724764375923e-02 4.092302135975678379e-02 9.990324543308033434e-01
2.461538461538461231e+00 -4.001413816902923970e-02 8.350651168394340740e-03 9.991640790692449814e-01
2.584615384615384315e+00 -2.800907007125384013e-02 -2.630276076906155544e-02 9.992614242149148174e-01
2.707692307692307399e+00 4.658527669240988128e-03 -3.488733645866941985e-02 9.993802720879808588e-01
2.830769230769230482e+00 2.832163935992661544e-02 -1.397647520546439412e-02 9.995010369669190542e-01
2.953846153846153566e+00 2.451138579635526657e-02 1.539845733965842026e-02 9.995808505672324484e-01
3.076923076923076650e+00 -2.307374747852995733e-04 2.774570456333608215e-02 9.996148894385722405e-01
3.199999999999999734e+00 -2.250708670632840802e-02 1.474059618256257261e-02 9.996379124554438667e-01
3.323076923076922817e+00 -2.347755903951551787e-02 -9.534427950453446682e-03 9.996788078938573241e-01
3.446153846153845901e+00 -4.463385810482499091e-03 -2.274567923673457767e-02 9.997312372278953641e-01
3.569230769230768985e+00 1.601090263063201236e-02 -1.431184070633873852e-02 9.997693070298639961e-01
3.692307692307692069e+00 1.983181745726164680e-02 6.408881994629564427e-03 9.997827136734001030e-01
3.815384615384615152e+00 5.168050708415970404e-03 1.998704316863290226e-02 9.997868073509741382e-01
3.938461538461538236e+00 -1.319770439324891367e-02 1.490784982859064134e-02 9.998016964789672167e-01
4.061538461538461320e+00 -1.829709831603820724e-02 -2.720801938047196465e-03 9.998288246321640482e-01
4.184615384615383959e+00 -6.414940473016978936e-03 -1.592052875836501985e-02 9.998526187312860580e-01
4.307692307692307487e+00 1.045596791803145818e-02 -1.295860594985279689e-02 9.998613026748078836e-01
4.430769230769230127e+00 1.655279501544840853e-02 2.298991000273328464e-03 9.998602886090043329e-01
4.553846153846153655e+00 7.045447463904826700e-03 1.490396616027590479e-02 9.998640466852174447e-01
4.676923076923076295e+00 -8.161337039216448944e-03 1.327895319024710412e-02 9.998784658041524054e-01
4.799999999999999822e+00 -1.446267527138275430e-02 -2.340088720914883930e-04 9.998953286222841408e-01
