0.000000000000000000e+00 -4.397292040278568178e-09 -7.282050637645620692e-10 -1.000000000000000000e+00
1.230769230769230699e-01 2.199032094446162211e-01 -2.413096226227875313e-02 -9.752208652947996770e-01
2.461538461538461398e-01 4.226138370807477340e-01 -1.682855377486927595e-02 -9.061484355275046809e-01
3.692307692307691958e-01 5.887309893280335826e-01 4.531868283737211511e-02 -8.070489476606809154e-01
4.923076923076922795e-01 6.962182779549505041e-01 1.712727677888141731e-01 -6.970851855295662203e-01
6.153846153846153078e-01 7.227136699320391156e-01 3.517816049795169375e-01 -5.949064897822768927e-01
7.384615384615383915e-01 6.506111717364506664e-01 5.593538391441519320e-01 -5.136200412313618457e-01
8.615384615384614753e-01 4.737117594690066213e-01 7.524117119428073153e-01 -4.576568760373713185e-01
9.846153846153845590e-01 2.033020213391737996e-01 8.832685561878530489e-01 -4.224693327757836903e-01
1.107692307692307532e+00 -1.287151462630330978e-01 9.087185706585454437e-01 -3.970364819007653479e-01
1.230769230769230616e+00 -4.715721286122609435e-01 8.012172387283218455e-01 -3.683004010544693174e-01
1.353846153846153699e+00 -7.630220866137438218e-01 5.580878212759774470e-01 -3.260509420605916531e-01
1.476923076923076783e+00 -9.414725293323538136e-01 2.062193297550738436e-01 -2.666013629079934666e-01
1.599999999999999867e+00 -9.604270389031532851e-01 -1.996639890314007015e-01 -1.941307977664747109e-01
1.723076923076922951e+00 -8.016797811555392839e-01 -5.857197732719492400e-01 -1.192223835640367907e-01
1.846153846153846034e+00 -4.835127953832054071e-01 -8.735797788296926214e-01 -5.518727474823229007e-02
1.969230769230769118e+00 -6.095676998545207503e-02 -9.980369609461942071e-01 -1.335393690986300466e-02
2.092307692307691980e+00 3.830214175576029945e-01 -9.237236523406096023e-01 1.020428839750872445e-03
2.215384615384615064e+00 7.542689099793025154e-01 -6.564800190881470154e-01 -9.177506028785503700e-03
2.338461538461538147e+00 9.687135735105423251e-01 -2.458541156416189644e-01 -3.349059376759232209e-02
2.461538461538461231e+00 9.731549316620698997e-01 2.228904919226839532e-01 -5.710692512803139387e-02
2.584615384615384315e+00 7.602142742545898724e-01 6.463342098084229326e-01 -6.556116117855517733e-02
2.707692307692307399e+00 3.730760927017309214e-01 9.264672552511610260e-01 -4.944216034640058766e-02
2.830769230769230482e+00 -1.020126802071132377e-01 9.947402289648454854e-01 -7.557516114582299611e-03
2.953846153846153566e+00 -5.545358649132492435e-01 8.304809504062080627e-01 5.256665988961946312e-02
3.076923076923076650e+00 -8.756963532753692103e-01 4.684511067228713799e-01 1.169682219587364763e-01
3.199999999999999734e+00 -9.854534997535950858e-01 -7.168617293450196826e-03 1.697126799532650276e-01
3.323076923076922817e+00 -8.536356129567312934e-01 -4.817175726595678276e-01 1.980580915618527504e-01
3.446153846153845901e+00 -5.093399496244834790e-01 -8.377838403187727323e-01 1.966306997500643639e-01
3.569230769230768985e+00 -3.555353469481881135e-02 -9.849036862417130944e-01 1.693312201401551143e-01
3.692307692307692069e+00 4.503227022286938608e-01 -8.835965835815110525e-01 1.282134678455505994e-01
3.815384615384615152e+00 8.255892838439065073e-01 -5.570641635657387347e-01 8.974309458579739218e-02
3.938461538461538236e+00 9.937683306744111711e-01 -8.692107639917501238e-02 6.957832694427174003e-02
4.061538461538461320e+00 9.102916066980694110e-01 4.066076026127736220e-01 7.753318682352830504e-02
4.184615384615383959e+00 5.952956280006276302e-01 7.953079179310906799e-01 1.143700641257266865e-01
4.307692307692307487e+00 1.297168727667968868e-01 9.765972397162447916e-01 1.714752475762609807e-01
4.430769230769230127e+00 -3.648999094626482753e-01 9.012678477109030695e-01 2.335320624144411883e-01
4.553846153846153655e+00 -7.579155136958217742e-01 5.875778462015328607e-01 2.833544657866243210e-01
4.676923076923076295e+00 -9.442761340703929029e-01 1.175276983090379201e-01 3.074142181624216486e-01
4.799999999999999822e+00 -8.730908230717856489e-01 -3.841483807422196861e-01 3.001933605380361914e-01
