0.000000000000000000e+00 2.230087242185236445e-09 -2.019043398698453575e-09 -1.000000000000000000e+00
8.205128205128205121e-02 -1.946655776422863415e-01 -1.360940340357157802e-02 -9.807736010354812795e-01
1.641025641025641024e-01 -3.811095521119283736e-01 -2.776111359254981870e-02 -9.241093409384187884e-01
2.461538461538461675e-01 -5.516502704178080085e-01 -4.279765443199282093e-02 -8.329704773361752412e-01
3.282051282051282048e-01 -6.996650957295786899e-01 -5.880286792921979311e-02 -7.120370311568322563e-01
4.102564102564102422e-01 -8.200006581975023412e-01 -7.550394192629111823e-02 -5.673451469398964608e-01
4.923076923076923350e-01 -9.092727857488556165e-01 -9.224079614194027887e-02 -4.058255312876062892e-01
5.743589743589743168e-01 -9.660093605401774974e-01 -1.080169040674474057e-01 -2.348109068053461645e-01
6.564102564102564097e-01 -9.906608577486282208e-01 -1.215874592980535907e-01 -6.151963798502468189e-02
7.384615384615385025e-01 -9.854503902507097957e-01 -1.316173471934157235e-01 1.074321518581944773e-01
8.205128205128204844e-01 -9.540927176941826904e-01 -1.368602828067325694e-01 2.663728991886055164e-01
9.025641025641025772e-01 -9.014196742965560061e-01 -1.363139929626675517e-01 4.109025229105062182e-01
9.846153846153846700e-01 -8.329409356919856844e-01 -1.293895267892300471e-01 5.380051681412590936e-01
1.066666666666666652e+00 -7.543780956627712531e-01 -1.160065914662073983e-01 6.460961607466869649e-01
1.148717948717948634e+00 -6.712274816497751928e-01 -9.663291508424620702e-02 7.349163815976854641e-01
1.230769230769230838e+00 -5.883784939125161761e-01 -7.227355081741348997e-02 8.053420333399567976e-01
1.312820512820512819e+00 -5.098191284325293005e-01 -4.435566503838156427e-02 8.591318010891239032e-01
1.394871794871794801e+00 -4.384584700379771660e-01 -1.460081171317267890e-02 8.986284213309366775e-01
1.476923076923077005e+00 -3.760541093853361216e-01 1.515728169696205219e-02 9.264701377061861365e-01
1.558974358974358987e+00 -3.232649390543004264e-01 4.317190151589728186e-02 9.453202235416989785e-01
1.641025641025640969e+00 -2.797949631114693414e-01 6.795275991478896827e-02 9.576493524643303612e-01
1.723076923076923173e+00 -2.446178324514028390e-01 8.840995840796725402e-02 9.655782689995644485e-01
1.805128205128205154e+00 -2.162168741808736250e-01 1.039390180801161023e-01 9.707949904907315908e-01
1.887179487179487136e+00 -1.928717876104901474e-01 1.144472265328120991e-01 9.745247854034126966e-01
1.969230769230769340e+00 -1.729035891036996841e-01 1.203115220004532526e-01 9.775612395953283684e-01
2.051282051282051100e+00 -1.548604864567910133e-01 1.222758347640636178e-01 9.803385037303393723e-01
2.133333333333333304e+00 -1.376701913322810611e-01 1.213417711598584053e-01 9.830157957611388442e-01
2.215384615384615508e+00 -1.206908652534696563e-01 1.185944860395207745e-01 9.855791520876856504e-01
2.297435897435897267e+00 -1.037145974754314082e-01 1.150628298534924210e-01 9.879277657386779099e-01
2.379487179487179471e+00 -8.687992036361999459e-02 1.115841458533453068e-01 9.899487489281557639e-01
2.461538461538461675e+00 -7.058856027993794247e-02 1.087432903426277520e-01 9.915593851921479240e-01
2.543589743589743435e+00 -5.535084676855871882e-02 1.068054708189353219e-01 9.927370696379318460e-01
2.625641025641025639e+00 -4.166943270578647718e-02 1.057380769088990813e-01 9.935196231218209606e-01
2.707692307692307843e+00 -2.992221966064503857e-02 1.052703607610936121e-01 9.939924557581405473e-01
2.789743589743589602e+00 -2.028974014261433756e-02 1.049780821800115616e-01 9.942666450056358851e-01
2.871794871794871806e+00 -1.271948433893760333e-02 1.043764679958994468e-01 9.944556424335485589e-01
2.953846153846154010e+00 -6.945699527357483694e-03 1.030252289155134948e-01 9.946536322259486029e-01
3.035897435897435770e+00 -2.544616702241653261e-03 1.006244754985772122e-01 9.949203842090190708e-01
3.117948717948717974e+00 1.017006643168845426e-03 9.704604996916166293e-02 9.952785634514977886e-01
3.200000000000000178e+00 4.263567991716843419e-03 9.236274679296474499e-02 9.957155263679116075e-01
