0.000000000000000000e+00 -1.594823764115717663e-09 -9.910210083018828929e-10 -1.000000000000000000e+00
8.205128205128205121e-02 -6.075119893475918603e-03 1.950364205705077125e-01 -9.807760580811516471e-01
1.641025641025641024e-01 -1.770519905324725862e-02 3.816249341027122544e-01 -9.241451682556943714e-01
2.461538461538461675e-01 -3.966533575785005650e-02 5.516207286565432133e-01 -8.331470503396525285e-01
3.282051282051282048e-01 -7.534175370328707877e-02 6.975441400850451723e-01 -7.125630539892267024e-01
4.102564102564102422e-01 -1.262222048238885175e-01 8.129221876074697040e-01 -5.685186279876336402e-01
4.923076923076923350e-01 -1.915923555997515737e-01 8.926373439584160963e-01 -4.080160259785995946e-01
5.743589743589743168e-01 -2.685295828290162334e-01 9.333017688194784611e-01 -2.383789230193161246e-01
6.564102564102564097e-01 -3.521278608790926468e-01 9.335610589950549265e-01 -6.673856252518164944e-02
7.384615384615385025e-01 -4.359870344658771102e-01 8.943228193585169850e-01 1.004310973224436659e-01
8.205128205128204844e-01 -5.128861432741393944e-01 8.188522767464009311e-01 2.577087283462560219e-01
9.025641025641025772e-01 -5.755972111700899951e-01 7.126939618210582639e-01 4.009255177805945980e-01
9.846153846153846700e-01 -6.177243894072513841e-01 5.833871586531713671e-01 5.273171494650030766e-01
1.066666666666666652e+00 -6.344562826240995879e-01 4.399799788543560242e-01 6.355090798305869093e-01
1.148717948717948634e+00 -6.232121306434782460e-01 2.923838758474175403e-01 7.253335570479072514e-01
1.230769230769230838e+00 -5.839885593668123764e-01 1.505472931058154940e-01 7.976746655215510851e-01
1.312820512820512819e+00 -5.194514700878440916e-01 2.363136578839064583e-02 8.541692206789400776e-01
1.394871794871794801e+00 -4.346877969373538764e-01 -8.081740273829035592e-02 8.969445815777351561e-01
1.476923076923077005e+00 -3.366962715143679841e-01 -1.575292664548327282e-01 9.283402778705445169e-01
1.558974358974358987e+00 -2.336094059674856116e-01 -2.039742917646416298e-01 9.506931595894280163e-01
1.641025641025640969e+00 -1.337967140405484923e-01 -2.205280449003117482e-01 9.661588117769283057e-01
1.723076923076923173e+00 -4.494834995949441303e-02 -2.103192852993770734e-01 9.765976614243203624e-01
1.805128205128205154e+00 2.678675202836831859e-02 -1.787679880909510965e-01 9.835255145311379010e-01
1.887179487179487136e+00 7.743049731561900406e-02 -1.328868993573315838e-01 9.881011382052699021e-01
1.969230769230769340e+00 1.055283113003462614e-01 -8.038533059788263713e-02 9.911611776710461674e-01
2.051282051282051100e+00 1.121795252724392122e-01 -2.874503862186371037e-02 9.932714505065758370e-01
2.133333333333333304e+00 1.007488673589902739e-01 1.563086603163857391e-02 9.947885159324703075e-01
2.215384615384615508e+00 7.627378271968701662e-02 4.813248477886141602e-02 9.959239676869160451e-01
2.297435897435897267e+00 4.470374489953212599e-02 6.632632014276375332e-02 9.967956076915719388e-01
2.379487179487179471e+00 1.203759473654740161e-02 7.007201010450826717e-02 9.974688937661405630e-01
2.461538461538461675e+00 -1.646683914983107511e-02 6.129356741049915569e-02 9.979835717742631118e-01
2.543589743589743435e+00 -3.694615987581940930e-02 4.347049483131808917e-02 9.983709912285689825e-01
2.625641025641025639e+00 -4.732820876249967113e-02 2.098869534949696428e-02 9.986585563078268502e-01
2.707692307692307843e+00 -4.743509209679430683e-02 -1.650173154956729310e-03 9.988726798854676847e-01
2.789743589743589602e+00 -3.879103366203043302e-02 -2.051714647113326087e-02 9.990364272164080628e-01
2.871794871794871806e+00 -2.419135890661005053e-02 -3.282884588626795719e-02 9.991679333898331183e-01
2.953846153846154010e+00 -7.089456866918496247e-03 -3.727821844026293907e-02 9.992795505231797382e-01
3.035897435897435770e+00 9.038471504136873919e-03 -3.408957516347253802e-02 9.993776972462714570e-01
3.117948717948717974e+00 2.131216593751168037e-02 -2.482490564139074041e-02 9.994644164111063933e-01
3.200000000000000178e+00 2.787430965647774705e-02 -1.196016778865412883e-02 9.995396975542281126e-01
