0.000000000000000000e+00 -2.381705056021124723e-09 6.429576416344702746e-10 -1.000000000000000000e+00
8.205128205128205121e-02 1.992261474826628187e-01 5.226490217844784181e-03 -9.799354620568306862e-01
1.641025641025641024e-01 3.901199833897697755e-01 1.311022506157019651e-02 -9.206614750655951473e-01
2.461538461538461675e-01 5.646790600600762877e-01 2.592872248119115763e-02 -8.248871291023827101e-01
3.282051282051282048e-01 7.156302802902706484e-01 4.553305411109576095e-02 -6.969678531161564994e-01
4.102564102564102422e-01 8.367341242607678753e-01 7.308557745622745738e-02 -5.426696037691707275e-01
4.923076923076923350e-01 9.230524509806046218e-01 1.089143396221549653e-01 -3.688646317988358847e-01
5.743589743589743168e-01 9.711660074168924073e-01 1.524222156949319729e-01 -1.831645618667269715e-01
6.564102564102564097e-01 9.793192545504003643e-01 2.020785338415330146e-01 6.476709008549803859e-03
7.384615384615385025e-01 9.474952148226288839e-01 2.554686755287256528e-01 1.921819562370037648e-01
8.205128205128204844e-01 8.774101568110416194e-01 3.094265627662824425e-01 3.665458291548928660e-01
9.025641025641025772e-01 7.724347562527111855e-01 3.602236054362238926e-01 5.230090115553311936e-01
9.846153846153846700e-01 6.374390770491722424e-01 4.038059617495581843e-01 6.561812583092768714e-01
1.066666666666666652e+00 4.785595300478669989e-01 4.360795518598644116e-01 7.620918434754754278e-01
1.148717948717948634e+00 3.029370402119968553e-01 4.531952550612495800e-01 8.383423521481403462e-01
1.230769230769230838e+00 1.183751109616561492e-01 4.518480141478821155e-01 8.841943960287270698e-01
1.312820512820512819e+00 -6.702019756639587822e-02 4.295456844081896319e-01 9.005440237675399473e-01
1.394871794871794801e+00 -2.451975760419180528e-01 3.848235062566672249e-01 8.898138108257335199e-01
1.476923076923077005e+00 -4.085202783811469618e-01 3.174353448561308411e-01 8.557582894549461416e-01
1.558974358974358987e+00 -5.501349112712601297e-01 2.284518517462751086e-01 8.032017468727874476e-01
1.641025641025640969e+00 -6.642783617404195429e-01 1.202785792166749523e-01 7.377222894283230747e-01
1.723076923076923173e+00 -7.465472181273203889e-01 -3.408099119457719262e-03 6.652953071485097070e-01
1.805128205128205154e+00 -7.940859782670661726e-01 -1.378071559079223629e-01 5.919415585306311289e-01
1.887179487179487136e+00 -8.057248467736758402e-01 -2.772258586326276641e-01 5.233624082280620149e-01
1.969230769230769340e+00 -7.820232153258974694e-01 -4.153629921944563819e-01 4.646136081385516259e-01
2.051282051282051100e+00 -7.252288784259991461e-01 -5.456460258867521507e-01 4.198385089512491342e-01
2.133333333333333304e+00 -6.391703516432999388e-01 -6.615938510120005223e-01 3.920520822734503974e-01
2.215384615384615508e+00 -5.290528065458266482e-01 -7.572122896291200167e-01 3.829913796429548212e-01
2.297435897435897267e+00 -4.012115690927955947e-01 -8.273319965424514866e-01 3.930662540469008759e-01
2.379487179487179471e+00 -2.627810937255450896e-01 -8.679450351770926497e-01 4.213887345222251946e-01
2.461538461538461675e+00 -1.213491120466733686e-01 -8.764640146926017117e-01 4.658731346194559531e-01
2.543589743589743435e+00 1.542221763697193548e-02 -8.519164115941483262e-01 5.234076089755395067e-01
2.625641025641025639e+00 1.401868015986097449e-01 -7.950449548514588738e-01 5.900925894281210393e-01
2.707692307692307843e+00 2.462809686632552175e-01 -7.083109213287834827e-01 6.615159153019284366e-01
2.789743589743589602e+00 3.280556730502174334e-01 -5.957951051357294192e-01 7.330581107065023971e-01
2.871794871794871806e+00 3.811639562857979668e-01 -4.630154618102261255e-01 8.001888592959124358e-01
2.953846153846154010e+00 4.027799820393632713e-01 -3.166404043931241308e-01 8.587687103336186789e-01
3.035897435897435770e+00 3.917445113646272348e-01 -1.641432018570793405e-01 9.053035541084243354e-01
3.117948717948717974e+00 3.486158531497411395e-01 -1.339530474707252561e-02 9.371620098433780521e-01
3.200000000000000178e+00 2.756421852337676004e-01 1.277648918768999886e-01 9.527249056079070133e-01
