0.000000000000000000e+00 -1.517159355737119547e-09 1.057021030123473016e-09 -1.000000000000000000e+00
8.205128205128205121e-02 1.991818246807933457e-01 -4.150542474244608981e-03 -9.799527916167743991e-01
1.641025641025641024e-01 3.896669084668812344e-01 -5.534775518358459045e-03 -9.209370669875938109e-01
2.461538461538461675e-01 5.633138830593097390e-01 -1.814006592102998527e-03 -8.262372315284574054e-01
3.282051282051282048e-01 7.130979055246240428e-01 8.628766330805059948e-03 -7.010053702082565952e-01
4.102564102564102422e-01 8.335326467210470991e-01 2.642917764211355491e-02 -5.518283179444744002e-01
4.923076923076923350e-01 9.209954658928040105e-01 5.116179781145890892e-02 -3.861839152344632708e-01
5.743589743589743168e-01 9.739004188055560007e-01 8.136948483928074793e-02 -2.118588506497053048e-01
6.564102564102564097e-01 9.927190593646955108e-01 1.147778932530433282e-01 -3.635488652054299358e-02
7.384615384615385025e-01 9.798290047260082014e-01 1.485783135158591506e-01 1.335908926192489188e-01
8.205128205128204844e-01 9.392348134105515944e-01 1.797996714127041429e-01 2.923996986613990878e-01
9.025641025641025772e-01 8.761635415636542801e-01 2.056848940286614691e-01 4.359125238215671438e-01
9.846153846153846700e-01 7.965935804658701436e-01 2.240202841433439063e-01 5.614653828670367330e-01
1.066666666666666652e+00 7.067507629040028494e-01 2.333783183086836632e-01 6.678540838791638956e-01
1.148717948717948634e+00 6.126199183175916607e-01 2.332613117435610728e-01 7.551678191587701816e-01
1.230769230769230838e+00 5.195255891667905912e-01 2.240894158517229284e-01 8.245428248240525004e-01
1.312820512820512819e+00 4.318127429080720336e-01 2.070885764129208884e-01 8.778650171845974182e-01
1.394871794871794801e+00 3.526528363457634985e-01 1.841077292767183127e-01 9.174618453799051609e-01
1.476923076923077005e+00 2.839841960085723316e-01 1.573157346260861678e-01 9.458337605011506444e-01
1.558974358974358987e+00 2.265662705047564451e-01 1.289450485445570449e-01 9.654213373974407375e-01
1.641025641025640969e+00 1.801559082566336345e-01 1.010401144069032753e-01 9.784338345126362135e-01
1.723076923076923173e+00 1.437515479624630887e-01 7.525472671787371282e-02 9.867475273194912244e-01
1.805128205128205154e+00 1.158530748980939745e-01 5.273153210356730514e-02 9.918650331405265419e-01
1.887179487179487136e+00 9.474736894738153281e-02 3.407422040446074496e-02 9.949175461091603889e-01
1.969230769230769340e+00 7.874257440259198326e-02 1.939266965246757429e-02 9.967059545512229057e-01
2.051282051282051100e+00 6.634336729599732418e-02 8.402627240520488261e-03 9.977611474034352446e-01
2.133333333333333304e+00 5.635417293326818594e-02 5.467814461350556376e-04 9.984104149260466521e-01
2.215384615384615508e+00 4.793397228408231153e-02 -4.849153335768716794e-03 9.988384970187351719e-01
2.297435897435897267e+00 4.055185635044283865e-02 -8.446892069115082696e-03 9.991415227826256906e-01
2.379487179487179471e+00 3.394542264053287961e-02 -1.083682560773308740e-02 9.993647533152568707e-01
2.461538461538461675e+00 2.802357085812784421e-02 -1.244123045156213594e-02 9.995296801462028036e-01
2.543589743589743435e+00 2.278936710349654601e-02 -1.354714471093625139e-02 9.996483603967702969e-01
2.625641025641025639e+00 1.826011278933106080e-02 -1.429551373503338933e-02 9.997309451499702959e-01
2.707692307692307843e+00 1.443405197832057889e-02 -1.473886770961434570e-02 9.997870796065416732e-01
2.789743589743589602e+00 1.125700357666777583e-02 -1.487846469583198848e-02 9.998258403061501820e-01
2.871794871794871806e+00 8.638862126611039985e-03 -1.470785073377289462e-02 9.998544216209749314e-01
2.953846153846154010e+00 6.466521532029315816e-03 -1.424051338953392920e-02 9.998776030757632327e-01
3.035897435897435770e+00 4.614488963218235131e-03 -1.352583222402075486e-02 9.998977952676088021e-01
3.117948717948717974e+00 2.988880746140329392e-03 -1.263561844565374431e-02 9.999156280475647307e-01
3.200000000000000178e+00 1.526748986185340936e-03 -1.165444958453258628e-02 9.999308528517929506e-01
