0.000000000000000000e+00 1.371426072275789508e-09 -1.399458535031027785e-09 -1.000000000000000000e+00
8.205128205128205121e-02 -1.494074143290191614e-01 -1.363235952123459660e-01 -9.793300005239076178e-01
1.641025641025641024e-01 -2.901567351006668072e-01 -2.691106213208240283e-01 -9.183549765331368020e-01
2.461538461538461675e-01 -4.142058516783078126e-01 -3.947581881838793105e-01 -8.201095816458021659e-01
3.282051282051282048e-01 -5.146043343588089236e-01 -5.097480991689509189e-01 -6.894291495009947646e-01
4.102564102564102422e-01 -5.859696654451514997e-01 -6.106666581026480856e-01 -5.326283206655415547e-01
4.923076923076923350e-01 -6.248381873031982892e-01 -6.942784253634370906e-01 -3.570955342862909276e-01
5.743589743589743168e-01 -6.298877098249644479e-01 -7.576455254893799118e-01 -1.708049260393015023e-01
6.564102564102564097e-01 -6.019988692858304624e-01 -7.982647017428063929e-01 1.815464936393098444e-02
7.384615384615385025e-01 -5.441768272279446927e-01 -8.142375832204953312e-01 2.021105484131469898e-01
8.205128205128204844e-01 -4.613180781534470531e-01 -8.044357475452673656e-01 3.742079483576361554e-01
9.025641025641025772e-01 -3.598583347536745691e-01 -7.686568818052395002e-01 5.288058551108572036e-01
9.846153846153846700e-01 -2.472995917176024627e-01 -7.077592781911947739e-01 6.617339297065752968e-01
1.066666666666666652e+00 -1.316757010530987260e-01 -6.237379680180176189e-01 7.704477941159687537e-01
1.148717948717948634e+00 -2.099259149061039054e-02 -5.197367455677133208e-01 8.540582311896026679e-01
1.230769230769230838e+00 7.734378347474353543e-02 -3.999881371082791293e-01 9.132438439482115644e-01
1.312820512820512819e+00 1.570401619204848664e-01 -2.696635426834909088e-01 9.500580511434940645e-01
1.394871794871794801e+00 2.133452630853142074e-01 -1.346449812305451910e-01 9.676501842933026287e-01
1.476923076923077005e+00 2.433550569684235221e-01 -1.206870958681660611e-03 9.699327271531981154e-01
1.558974358974358987e+00 2.461820907877244613e-01 1.243150698446720409e-01 9.612136649220086593e-01
1.641025641025640969e+00 2.229949382664784541e-01 2.359164719378164521e-01 9.458364394860265811e-01
1.723076923076923173e+00 1.769044207086251652e-01 3.283227919706541709e-01 9.278454272542377979e-01
1.805128205128205154e+00 1.126721602751943191e-01 3.973577210854964403e-01 9.107131896636152524e-01
1.887179487179487136e+00 3.633739161098786807e-02 4.402510850652757712e-01 8.971310704816135573e-01
1.969230769230769340e+00 -4.527959952058960291e-02 4.558490174440108511e-01 8.888961527591099365e-01
2.051282051282051100e+00 -1.251086215085682185e-01 4.447238828827724810e-01 8.868783942519136154e-01
2.133333333333333304e+00 -1.963689244487866470e-01 4.091686351058721471e-01 8.910697983477409156e-01
2.215384615384615508e+00 -2.531073881987105922e-01 3.530430354456068898e-01 9.007125708093192129e-01
2.297435897435897267e+00 -2.906359519285298676e-01 2.815273499895338816e-01 9.144725756554581420e-01
2.379487179487179471e+00 -3.058888474023985782e-01 2.007358886726710867e-01 9.306586631284615718e-01
2.461538461538461675e+00 -2.976436541224979915e-01 1.172828161593846702e-01 9.474402667592370930e-01
2.543589743589743435e+00 -2.665802792800226473e-01 3.778918673343847900e-02 9.630673461355220288e-01
2.625641025641025639e+00 -2.152070599521361816e-01 -3.161775056614422874e-02 9.760531272141677039e-01
2.707692307692307843e+00 -1.476390319182239452e-01 -8.576848032178541192e-02 9.853128450845967112e-01
2.789743589743589602e+00 -6.923117460065356110e-02 -1.208432781871089934e-01 9.902523981520656715e-01
2.871794871794871806e+00 1.387106622780037712e-02 -1.346565755395883746e-01 9.907932078091371553e-01
2.953846153846154010e+00 9.523616720794829404e-02 -1.267978395175294593e-01 9.873437421501125577e-01
3.035897435897435770e+00 1.686656711568212674e-01 -9.865933464557287425e-02 9.807203420296380925e-01
3.117948717948717974e+00 2.287105704500281278e-01 -5.331567690894307987e-02 9.720297456747963860e-01
3.200000000000000178e+00 2.711136381318942079e-01 4.759394974262504130e-03 9.625312805707574304e-01
