0.000000000000000000e+00 2.345263945898385066e-09 -7.513147580283580082e-10 -1.000000000000000000e+00
8.205128205128205121e-02 7.008052798201372391e-02 1.896599442694306692e-01 -9.793449229600738049e-01
1.641025641025641024e-01 1.313335846958776643e-01 3.727512026625592889e-01 -9.185887075655104761e-01
2.461538461538461675e-01 1.759044172271230777e-01 5.427704349403782436e-01 -8.212511513787392747e-01
3.282051282051282048e-01 1.977564388676144869e-01 6.934437294914649330e-01 -6.928363767066590961e-01
4.102564102564102422e-01 1.933216247472424598e-01 8.189337369941096512e-01 -5.403396646539627701e-01
4.923076923076923350e-01 1.619042936145428935e-01 9.141388068680157408e-01 -3.716571316562257143e-01
5.743589743589743168e-01 1.057611293485271053e-01 9.750985959536353498e-01 -1.949058812619345882e-01
6.564102564102564097e-01 2.983634459819228812e-02 9.993906023253023019e-01 -1.785909553738616873e-02
7.384615384615385025e-01 -5.879324507135880173e-02 9.865232412381963467e-01 1.526635145941357130e-01
8.205128205128204844e-01 -1.517261697393276765e-01 9.381907415366117498e-01 3.110765449874558497e-01
9.025641025641025772e-01 -2.401853506784341619e-01 8.583423025248432259e-01 4.533781686066800654e-01
9.846153846153846700e-01 -3.160470204658898385e-01 7.530318463351524105e-01 5.771051696851374757e-01
1.066666666666666652e+00 -3.727081412013180106e-01 6.299913944125792309e-01 6.813173619940122716e-01
1.148717948717948634e+00 -4.058114601023635748e-01 4.979950497267308651e-01 7.663634000044682315e-01
1.230769230769230838e+00 -4.136771700960137910e-01 3.660690012354793632e-01 8.335828768502026032e-01
1.312820512820512819e+00 -3.973360714151474293e-01 2.426358236032684357e-01 8.850132450503341852e-01
1.394871794871794801e+00 -3.602730972115171237e-01 1.347008325149268715e-01 9.230689344683696840e-01
1.476923076923077005e+00 -3.078535031364791896e-01 4.724107989439409183e-02 9.502590929214016491e-01
1.558974358974358987e+00 -2.464979428004731576e-01 -1.717623151604079357e-02 9.689902346322063487e-01
1.641025641025640969e+00 -1.828376004687888023e-01 -5.845778283476943393e-02 9.814029837266186052e-01
1.723076923076923173e+00 -1.228576243642792581e-01 -7.872459552454602605e-02 9.892964577792304759e-01
1.805128205128205154e+00 -7.123667394141856846e-02 -8.180852078247326242e-02 9.940985839998898177e-01
1.887179487179487136e+00 -3.092268869606876192e-02 -7.256889576833558397e-02 9.968836514081512723e-01
1.969230769230769340e+00 -2.998564063252620593e-03 -5.612658012222061787e-02 9.984189666906195804e-01
2.051282051282051100e+00 1.316925547344194314e-02 -3.718887427602107082e-02 9.992213393349900219e-01
2.133333333333333304e+00 1.951163397789603890e-02 -1.949334222794372323e-02 9.996194816611279066e-01
2.215384615384615508e+00 1.875498117355881705e-02 -5.510910289458062494e-03 9.998088496091315225e-01
2.297435897435897267e+00 1.385585827932812875e-02 3.622158266140488442e-03 9.998973877755589212e-01
2.379487179487179471e+00 7.474334467580689458e-03 7.960626670989168902e-03 9.999403368599327768e-01
2.461538461538461675e+00 1.643585390208475265e-03 8.414629728902930927e-03 9.999632111491986164e-01
2.543589743589743435e+00 -2.424122339776547952e-03 6.358046217248866476e-03 9.999768211427826348e-01
2.625641025641025639e+00 -4.319211780422234533e-03 3.243215039501676916e-03 9.999853901346639207e-01
2.707692307692307843e+00 -4.280963705015682595e-03 2.703480719531421283e-04 9.999907816209137046e-01
2.789743589743589602e+00 -2.967851994893597710e-03 -1.783048602652383911e-03 9.999939910294345369e-01
2.871794871794871806e+00 -1.145023732610243091e-03 -2.627482917560913962e-03 9.999958797113800424e-01
2.953846153846154010e+00 5.006932260759138203e-04 -2.391490957113298361e-03 9.999970038323255928e-01
3.035897435897435770e+00 1.531727114234065221e-03 -1.458159451926222677e-03 9.999977539573247087e-01
3.117948717948717974e+00 1.800809808866230726e-03 -3.108727820082426811e-04 9.999983216008049292e-01
3.200000000000000178e+00 1.429255047668191595e-03 6.397653780808355579e-04 9.999987664760936479e-01
