0.000000000000000000e+00 1.563177460004976143e-10 2.461296477740503842e-09 -1.000000000000000000e+00
8.205128205128205121e-02 -2.031415057800776969e-02 1.981795024768637226e-01 -9.799545333903362243e-01
1.641025641025641024e-01 -4.608794583400507849e-02 3.869055433569991154e-01 -9.209653609464563129e-01
2.461538461538461675e-01 -8.189103772397657299e-02 5.571358479014308918e-01 -8.263710831683310776e-01
3.282051282051282048e-01 -1.306958578725929965e-01 7.006779488806655909e-01 -7.014008995583850270e-01
4.102564102564102422e-01 -1.933244629780036528e-01 8.106370180262293390e-01 -5.527078718395883605e-01
4.923076923076923350e-01 -2.681876390026483037e-01 8.818461976281994907e-01 -3.878330089101411082e-01
5.743589743589743168e-01 -3.513627312469728148e-01 9.113198884321586091e-01 -2.145490292057561921e-01
6.564102564102564097e-01 -4.369779739100176918e-01 8.985625318815397833e-01 -4.032791809057242188e-02
7.384615384615385025e-01 -5.179077419759214873e-01 8.457689586177772334e-01 1.282079135895934363e-01
8.205128205128204844e-01 -5.866390182088332406e-01 7.578099773841131537e-01 2.856044201080099043e-01
9.025641025641025772e-01 -6.362378041057947797e-01 6.419716519040153946e-01 4.278618981557012479e-01
9.846153846153846700e-01 -6.612833455495474855e-01 5.074276783922341272e-01 5.524619061473846626e-01
1.066666666666666652e+00 -6.586002381763507163e-01 3.644966594707071406e-01 6.583172345589666241e-01
1.148717948717948634e+00 -6.277395265948246816e-01 2.237128171853298431e-01 7.455804715782388126e-01
1.230769230769230838e+00 -5.710925435250450155e-01 9.482921126964746761e-02 8.153871646072664570e-01
1.312820512820512819e+00 -4.936132050789989734e-01 -1.408712851975271740e-02 8.695653898163935303e-01
1.394871794871794801e+00 -4.022170492125478058e-01 -9.744272032656281501e-02 9.103424564336851654e-01
1.476923076923077005e+00 -3.048993594274198027e-01 -1.525377754300656641e-01 9.400884120174298753e-01
1.558974358974358987e+00 -2.097559049991799263e-01 -1.796742586957943977e-01 9.611023500119532104e-01
1.641025641025640969e+00 -1.239859878807905991e-01 -1.819094888183805658e-01 9.754665345405818533e-01
1.723076923076923173e+00 -5.307751106068336888e-02 -1.644206897949369584e-01 9.849606430010544589e-01
1.805128205128205154e+00 -2.838552436031926973e-04 -1.336803780318847612e-01 9.910240091780850857e-01
1.887179487179487136e+00 3.357870258682545128e-02 -9.649711753162856787e-02 9.947663526429322278e-01
1.969230769230769340e+00 4.993910106699464557e-02 -5.911332559213217791e-02 9.970010950569860864e-01
2.051282051282051100e+00 5.199873531897640511e-02 -2.647954463140738193e-02 9.982958327669755327e-01
2.133333333333333304e+00 4.404037845090744141e-02 -1.778474583688892732e-03 9.990280157522269944e-01
2.215384615384615508e+00 3.064102456921312737e-02 1.369989755820321189e-02 9.994364426751535246e-01
2.297435897435897267e+00 1.596240422518219182e-02 2.039234959350370857e-02 9.996645268690264041e-01
2.379487179487179471e+00 3.202858464188414536e-03 2.002795985693477804e-02 9.997942150686770502e-01
2.461538461538461675e+00 -5.686322006651526283e-03 1.507596722790229167e-02 9.998701209358206166e-01
2.543589743589743435e+00 -1.006872737794530827e-02 8.136682286907706910e-03 9.999161540454284403e-01
2.625641025641025639e+00 -1.040152340794962653e-02 1.446874756083033758e-03 9.999448143931063404e-01
2.707692307692307843e+00 -7.874632437453513850e-03 -3.462061083984228210e-03 9.999629667761981144e-01
2.789743589743589602e+00 -3.988866249998822625e-03 -5.905849420889064394e-03 9.999745753049172903e-01
2.871794871794871806e+00 -1.408601647128618697e-04 -5.977040838181893988e-03 9.999821023478114856e-01
2.953846153846154010e+00 2.658323601546598754e-03 -4.322454362046005902e-03 9.999871031752288753e-01
3.035897435897435770e+00 3.926140988773022499e-03 -1.857659159793197340e-03 9.999905484459109539e-01
3.117948717948717974e+00 3.705372986441645127e-03 5.100635441166916431e-04 9.999929886038602111e-01
3.200000000000000178e+00 2.437797566392093610e-03 2.130795356553762641e-03 9.999947439961985873e-01
