0.000000000000000000e+00 1.379397350715373500e-09 -2.675683914935200506e-09 -1.000000000000000000e+00
8.205128205128205121e-02 1.749814986995275878e-01 -7.400690940617289659e-02 -9.817847294757809928e-01
1.641025641025641024e-01 3.450508191135159830e-01 -1.400387645244672574e-01 -9.280745720234974128e-01
2.461538461538461675e-01 5.052412059371467201e-01 -1.908475260478694757e-01 -8.416045326726089293e-01
3.282051282051282048e-01 6.506065155042788373e-01 -2.204784783127088921e-01 -7.266954844171498173e-01
4.102564102564102422e-01 7.762716275664293120e-01 -2.248166752638583177e-01 -5.889333602678294977e-01
4.923076923076923350e-01 8.776056765136067694e-01 -2.019724662222062705e-01 -4.347358666618980627e-01
5.743589743589743168e-01 9.504404208920679276e-01 -1.524727470612391445e-01 -2.709115255478297679e-01
6.564102564102564097e-01 9.913837357881600809e-01 -7.926250276278401508e-02 -1.041758529545113859e-01
7.384615384615385025e-01 9.981533723792082036e-01 1.249950920941306221e-02 5.924853796437554859e-02
8.205128205128204844e-01 9.699178532836515432e-01 1.158638205322380932e-01 2.140383907884030601e-01
9.025641025641025772e-01 9.075723822060518531e-01 2.226503437331484592e-01 3.559747654632558489e-01
9.846153846153846700e-01 8.139183892585667435e-01 3.241547486843834869e-01 4.821215338876013723e-01
1.066666666666666652e+00 6.936959547158831896e-01 4.119234842879523351e-01 5.908363633896596134e-01
1.148717948717948634e+00 5.534393801776474886e-01 4.785084955793308392e-01 6.817031775284800865e-01
1.230769230769230838e+00 4.011568876540954065e-01 5.181688294483273172e-01 7.553549304285096522e-01
1.312820512820512819e+00 2.458091879862234486e-01 5.274361217000512747e-01 8.132512620334453324e-01
1.394871794871794801e+00 9.669236064941059972e-02 5.054497875950288988e-01 8.574155022889805577e-01
1.476923076923077005e+00 -3.731035697762333236e-02 4.540886680437147271e-01 8.901702045016133269e-01
1.558974358974358987e+00 -1.484639678254983108e-01 3.778092204323207914e-01 9.138989544161962852e-01
1.641025641025640969e+00 -2.308624771831257472e-01 2.832628908230625520e-01 9.308373259617137574e-01
1.723076923076923173e+00 -2.809647780394226579e-01 1.786339796202939256e-01 9.429437150708649407e-01
1.805128205128205154e+00 -2.979296855599988803e-01 7.290458714732037104e-02 9.517969792237507276e-01
1.887179487179487136e+00 -2.837000659458415730e-01 -2.507181001565123024e-02 9.585826763624677449e-01
1.969230769230769340e+00 -2.427995188658813863e-01 -1.074175240509264162e-01 9.641085563029759831e-01
2.051282051282051100e+00 -1.818851904233620420e-01 -1.680039276256557745e-01 9.688592448495088050e-01
2.133333333333333304e+00 -1.090626585460154896e-01 -2.030442249016586875e-01 9.730747499286037661e-01
2.215384615384615508e+00 -3.306044475139717498e-02 -2.114376530675269039e-01 9.768303438356642499e-01
2.297435897435897267e+00 3.767176477869826901e-02 -1.948147467967086266e-01 9.801146462473645515e-01
2.379487179487179471e+00 9.581841488973792675e-02 -1.572776329405581597e-01 9.828934241979964126e-01
2.461538461538461675e+00 1.359345877895098420e-01 -1.048963799919323259e-01 9.851475320297499172e-01
2.543589743589743435e+00 1.549397059488241968e-01 -4.496957579460494209e-02 9.868985422093459192e-01
2.625641025641025639e+00 1.523827212901113226e-01 1.483609277636792345e-02 9.882089045613938749e-01
2.707692307692307843e+00 1.303440190890020611e-01 6.736984581354420187e-02 9.891760729752504533e-01
2.789743589743589602e+00 9.310163179221678242e-02 1.067982340188185914e-01 9.899110334922506249e-01
2.871794871794871806e+00 4.650380078516878901e-02 1.292357138482425061e-01 9.905216971344213972e-01
2.953846153846154010e+00 -2.795612555764666329e-03 1.331198398701521901e-01 9.910948852718627355e-01
3.035897435897435770e+00 -4.820477187166958416e-02 1.193000402532568421e-01 9.916862658656772078e-01
3.117948717948717974e+00 -8.400609856975549405e-02 9.082511617298572038e-02 9.923163343267041858e-01
3.200000000000000178e+00 -1.060412435734597869e-01 5.244354564343779029e-02 9.929768115855406307e-01
