0.000000000000000000e+00 2.264451914440721220e-12 -1.998420223232205988e-12 -1.000000000000000000e+00
8.205128205128205121e-02 1.496424547953864592e-01 -1.317026775097960845e-01 -9.799293548395012765e-01
1.641025641025641024e-01 2.942501762795201037e-01 -2.568320079278081369e-01 -9.205727311993664452e-01
2.461538461538461675e-01 4.289826735269528513e-01 -3.691079884995606686e-01 -8.244593129294824907e-01
3.282051282051282048e-01 5.493746456203736361e-01 -4.628274847518381585e-01 -6.956854304782158493e-01
4.102564102564102422e-01 6.515098535951143743e-01 -5.331206586247607682e-01 -5.397381532184944986e-01
4.923076923076923350e-01 7.321675738966691993e-01 -5.761687498498919702e-01 -3.632632866053395748e-01
5.743589743589743168e-01 7.889434216233353059e-01 -5.893795143436082462e-01 -1.737816607260874169e-01
6.564102564102564097e-01 8.203379436678908121e-01 -5.715069873327146555e-01 2.062575861281779402e-02
7.384615384615385025e-01 8.258102619560976354e-01 -5.227151285068464270e-01 2.116750000559684264e-01
8.205128205128204844e-01 8.057940240145979871e-01 -4.445716058725618369e-01 3.912187086899953092e-01
9.025641025641025772e-01 7.616714531738402183e-01 -3.399931896106714313e-01 5.515987926421229703e-01
9.846153846153846700e-01 6.957168625715275390e-01 -2.131153824681752684e-01 6.859736735769418337e-01
1.066666666666666652e+00 6.109990407815162339e-01 -6.912508903805164584e-02 7.886075666837286668e-01
1.148717948717948634e+00 5.112577808918674638e-01 8.597075974258626407e-02 8.551166643648192567e-01
1.230769230769230838e+00 4.007519833718800606e-01 2.455958863110668522e-01 8.826553735902999964e-01
1.312820512820512819e+00 2.840896820196522898e-01 4.028940544668379031e-01 8.700399032674334121e-01
1.394871794871794801e+00 1.660415788560092865e-01 5.510337607778592606e-01 8.177970336980896482e-01
1.476923076923077005e+00 5.135788611498888490e-02 6.834960715372295770e-01 7.281452382730714268e-01
1.558974358974358987e+00 -5.542334095392005555e-02 7.943709823607107978e-01 6.048991610072069758e-01
1.641025641025640969e+00 -1.501499899516095249e-01 8.786173833792121357e-01 4.533061591215289954e-01
1.723076923076923173e+00 -2.292150376053300187e-01 9.322849054854036588e-01 2.798308806254708458e-01
1.805128205128205154e+00 -2.896963751833891432e-01 9.526990480427550700e-01 9.187237426557234854e-02
1.887179487179487136e+00 -3.294621422340260897e-01 9.385839233906857482e-01 -1.025422645342941447e-01
1.969230769230769340e+00 -3.472498070433760464e-01 8.901279442513991835e-01 -2.951098344893839931e-01
2.051282051282051100e+00 -3.427053041971473424e-01 8.089872722215415424e-01 -4.775904815258513181e-01
2.133333333333333304e+00 -3.163856423860702538e-01 6.982228036645780067e-01 -6.421721280006725818e-01
2.215384615384615508e+00 -2.697283368574406870e-01 5.621823157611458566e-01 -7.817913203587756321e-01
2.297435897435897267e+00 -2.049827918771662538e-01 4.063202562996579559e-01 -8.904414101122055669e-01
2.379487179487179471e+00 -1.251083614181374426e-01 2.369723692299728346e-01 -9.634272126068009756e-01
2.461538461538461675e+00 -3.364695010743301573e-02 6.108915853201396517e-02 -9.975650342210446997e-01
2.543589743589743435e+00 6.542132558002802800e-02 -1.140497777767320170e-01 -9.913186666874996833e-01
2.625641025641025639e+00 1.678565570347771152e-01 -2.811540903646108092e-01 -9.448685375748925308e-01
2.707692307692307843e+00 2.693272812278775796e-01 -4.332287344173892940e-01 -8.601021329765952128e-01
2.789743589743589602e+00 3.655876355989964854e-01 -5.638674446652296446e-01 -7.405397935283229982e-01
2.871794871794871806e+00 4.526574676682376674e-01 -6.675387979935298866e-01 -5.911794735755406816e-01
2.953846153846154010e+00 5.269743211683426409e-01 -7.398170142456221843e-01 -4.182927791465405054e-01
3.035897435897435770e+00 5.855426573504308729e-01 -7.775769935070255823e-01 -2.291589304411650319e-01
3.117948717948717974e+00 6.260503351202186817e-01 -7.791360781390287427e-01 -3.174822854480601614e-02
3.200000000000000178e+00 6.469552449844860886e-01 -7.443286390881269643e-01 1.656012959817508567e-01
