0.000000000000000000e+00 -1.113058676771410665e-09 1.504383464895331624e-09 -1.000000000000000000e+00
8.205128205128205121e-02 1.862328718252787563e-01 -3.755932326676608007e-02 -9.817865398934221277e-01
1.641025641025641024e-01 3.652723009887930417e-01 -7.206370423490263133e-02 -9.281051698694676722e-01
2.461538461538461675e-01 5.303648452032087013e-01 -1.008126796024208793e-01 -8.417505910613797271e-01
3.282051282051282048e-01 6.756215252699047102e-01 -1.217009126844069145e-01 -7.271289654190969953e-01
4.102564102564102422e-01 7.963779335454547192e-01 -1.334503730713064162e-01 -5.898841670160003270e-01
4.923076923076923350e-01 8.894158033071526415e-01 -1.357050348011314411e-01 -4.364771559610367557e-01
5.743589743589743168e-01 9.531196249627827966e-01 -1.290306860111040121e-01 -2.736815105384627911e-01
6.564102564102564097e-01 9.874809220791916919e-01 -1.147979683568812748e-01 -1.081193025057331641e-01
7.384615384615385025e-01 9.939970411093148606e-01 -9.498225306782148714e-02 5.417667728945509131e-02
8.205128205128204844e-01 9.754578158033800905e-01 -7.190399748638487409e-02 2.080842198856599490e-01
9.025641025641025772e-01 9.356483006467862795e-01 -4.795938175875713583e-02 3.496428583362499731e-01
9.846153846153846700e-01 8.790130598490213387e-01 -2.534515398672493314e-02 4.761120055753695346e-01
1.066666666666666652e+00 8.102830707960723133e-01 -5.863027145827426345e-03 5.860009658431994950e-01
1.148717948717948634e+00 7.341268381910343033e-01 9.244277624465502274e-03 6.789430430050300558e-01
1.230769230769230838e+00 6.548471736410859112e-01 1.932796509608314395e-02 7.555091950471728435e-01
1.312820512820512819e+00 5.761460431876191945e-01 2.433554178282260061e-02 8.169804944650798095e-01
1.394871794871794801e+00 5.009578979946445187e-01 2.471198390515333410e-02 8.651156878502824776e-01
1.476923076923077005e+00 4.314051471149015771e-01 2.126484196955322203e-02 9.019051692474322479e-01
1.558974358974358987e+00 3.687866461601279067e-01 1.502372237843496716e-02 9.293906489913547064e-01
1.641025641025640969e+00 3.136784786842695683e-01 7.068798958475883132e-03 9.495013204523468087e-01
1.723076923076923173e+00 2.660607518909178237e-01 -1.593289715943226048e-03 9.639536088336655428e-01
1.805128205128205154e+00 2.254725069549141092e-01 -1.012895337603751666e-02 9.741957690630660416e-01
1.887179487179487136e+00 1.911793702864666711e-01 -1.792151822475970824e-02 9.813905649546587062e-01
1.969230769230769340e+00 1.623053911456072140e-01 -2.459043411522746775e-02 9.864333310567361401e-01
2.051282051282051100e+00 1.379697327589165801e-01 -2.996291515269923489e-02 9.899824478057271948e-01
2.133333333333333304e+00 1.173663308241554987e-01 -3.405026918525302926e-02 9.925041915801855463e-01
2.215384615384615508e+00 9.980635748504097793e-02 -3.695048904876386403e-02 9.943200431658588689e-01
2.297435897435897267e+00 8.472650489860034106e-02 -3.884784469643084992e-02 9.956462130542377276e-01
2.379487179487179471e+00 7.170323881453874448e-02 -3.991654256624110192e-02 9.966265770159610238e-01
2.461538461538461675e+00 6.041989070454571731e-02 -4.033686806004779801e-02 9.973573477857725633e-01
2.543589743589743435e+00 5.062095582580436459e-02 -4.023703211491076737e-02 9.979067462927787568e-01
2.625641025641025639e+00 4.211581852235277146e-02 -3.972596432212924245e-02 9.983223645154200021e-01
2.707692307692307843e+00 3.473738953137861518e-02 -3.888009473947411088e-02 9.986396451802441732e-01
2.789743589743589602e+00 2.833615806246798235e-02 -3.774760586460502998e-02 9.988852372260318413e-01
2.871794871794871806e+00 2.277393917859361905e-02 -3.638835467829008852e-02 9.990779802359990303e-01
2.953846153846154010e+00 1.793542215447380475e-02 -3.484411102269373284e-02 9.992316135785732634e-01
3.035897435897435770e+00 1.370819048386547404e-02 -3.316770747373576356e-02 9.993556063990565175e-01
3.117948717948717974e+00 1.001015371417557018e-02 -3.140311938377714218e-02 9.994565053631419005e-01
3.200000000000000178e+00 6.771566697736090823e-03 -2.959626676080846092e-02 9.995388418605644087e-01
