0.000000000000000000e+00 -5.786327094365362837e-09 -1.049426857264202525e-09 -1.000000000000000000e+00
8.205128205128205121e-02 -5.823797673654428769e-02 -1.961458533813021932e-01 -9.788430014067838192e-01
1.641025641025641024e-01 -1.091798602715901845e-01 -3.845391762901179677e-01 -9.166276286828154429e-01
2.461538461538461675e-01 -1.463895718538197332e-01 -5.577408301088669917e-01 -8.170007980179763152e-01
3.282051282051282048e-01 -1.650005752422667449e-01 -7.089587819091099918e-01 -6.856716099791149155e-01
4.102564102564102422e-01 -1.622721315179729284e-01 -8.323880850274422150e-01 -5.298958491668802617e-01
4.923076923076923350e-01 -1.378746998645767330e-01 -9.235422902516418064e-01 -3.578419298106317870e-01
5.743589743589743168e-01 -9.389273289975275105e-02 -9.795496005007029439e-01 -1.779232408348440930e-01
6.564102564102564097e-01 -3.453257592588421243e-02 -9.993967107460022259e-01 1.850653782293426065e-03
7.384615384615385025e-01 3.441123533088630282e-02 -9.840639092464374960e-01 1.744248563439315391e-01
8.205128205128204844e-01 1.062713837296349051e-01 -9.365202633985628689e-01 3.341058759300112313e-01
9.025641025641025772e-01 1.742927320313271133e-01 -8.615479908511312068e-01 4.768108766738159421e-01
9.846153846153846700e-01 2.324237215418500369e-01 -7.654154380444074812e-01 6.000924009828596528e-01
1.066666666666666652e+00 2.759578068481087221e-01 -6.553544479074931983e-01 7.031011865074382472e-01
1.148717948717948634e+00 3.019859603774539547e-01 -5.389811665730543933e-01 7.863194920051184145e-01
1.230769230769230838e+00 3.096153639956198411e-01 -4.236515713103651826e-01 8.512656580276046769e-01
1.312820512820512819e+00 2.998992669676167067e-01 -3.158458215138503222e-01 9.001657058076146800e-01
1.394871794871794801e+00 2.755508052418051967e-01 -2.206645031389874445e-01 9.356154134319977222e-01
1.476923076923077005e+00 2.404385183340727594e-01 -1.414991791158031753e-01 9.602943143363047440e-01
1.558974358974358987e+00 1.990307950863087760e-01 -7.990417686401819763e-02 9.767294718759428340e-01
1.641025641025640969e+00 1.557656116070748054e-01 -3.570112574823645912e-02 9.871480851283956914e-01
1.723076923076923173e+00 1.145482803652998482e-01 -7.226064889542326009e-03 9.933909793782832454e-01
1.805128205128205154e+00 7.834133492983420821e-02 8.231197173293125502e-03 9.968923199245054434e-01
1.887179487179487136e+00 4.897612864126389687e-02 1.393337063482799273e-02 9.987025641264247744e-01
1.969230769230769340e+00 2.711740411508285417e-02 1.323662240296350975e-02 9.995444958848999084e-01
2.051282051282051100e+00 1.242596995981246934e-02 9.156254260182447591e-03 9.998808070629182643e-01
2.133333333333333304e+00 3.814296241076819971e-03 4.076678697946879357e-03 9.999843896720307379e-01
2.215384615384615508e+00 -2.306844019622700985e-04 -3.510496883574928386e-04 9.999999092084619345e-01
2.297435897435897267e+00 -1.298342021386760057e-03 -3.321596681863672306e-03 9.999936231254735741e-01
2.379487179487179471e+00 -8.296268533059753328e-04 -4.611329637032573342e-03 9.999890013190674276e-01
2.461538461538461675e+00 8.902611646880408125e-05 -4.491802448958706617e-03 9.999898863594814946e-01
2.543589743589743435e+00 7.747379581851301499e-04 -3.470390518471395871e-03 9.999936606144326223e-01
2.625641025641025639e+00 9.469768242350910760e-04 -2.112648167503172747e-03 9.999973080950895765e-01
2.707692307692307843e+00 6.255666907315232282e-04 -8.696350316074206782e-04 9.999994202286935918e-01
2.789743589743589602e+00 9.958704493164129718e-06 -1.608828065573930264e-05 9.999999996535762214e-01
2.871794871794871806e+00 -6.206987863384092483e-04 3.678433393701196477e-04 9.999997355384411257e-01
2.953846153846154010e+00 -1.096089425690873354e-03 3.612610828975809261e-04 9.999993276521172980e-01
3.035897435897435770e+00 -1.280636316284756776e-03 1.336533154228125055e-04 9.999991640209120458e-01
3.117948717948717974e+00 -1.179225756062281900e-03 -1.315765442811883722e-04 9.999992895159344197e-01
3.200000000000000178e+00 -8.723127595847360175e-04 -2.955003932051447407e-04 9.999995706661403139e-01
