0.000000000000000000e+00 8.740699500922794512e-12 8.958682020489721685e-12 -1.000000000000000000e+00
2.105263157894736725e-01 4.556760150111631158e-01 3.728747636747114513e-01 -7.849580655649835981e-01
4.210526315789473450e-01 7.708757304127644705e-01 3.340249495647229505e-01 -3.274776263143867050e-01
6.315789473684210176e-01 7.715661687398378543e-01 -4.126041547868089521e-02 7.422104827380242298e-02
8.421052631578946901e-01 4.496864300664065173e-01 -3.661953044751253827e-01 3.131967357404099039e-01
1.052631578947368363e+00 5.042556657966446032e-02 -3.831156363179999969e-01 4.377571464248116717e-01
1.263157894736842035e+00 -1.505829077669626481e-01 -1.749830328678568248e-01 5.205460491939473133e-01
1.473684210526315708e+00 -1.212082934703964110e-01 5.572776577496388155e-03 6.001968349135025083e-01
1.684210526315789380e+00 -2.921108520748656040e-02 4.677579918014070776e-02 6.833355543275481114e-01
1.894736842105263053e+00 9.687265341296951229e-03 1.912227526598016258e-02 7.635193656231133996e-01
2.105263157894736725e+00 7.063263606505911646e-03 1.024950053626688326e-04 8.336212524164758886e-01
2.315789473684210620e+00 8.276027840643067346e-04 -1.766738778287322946e-03 8.896798879809278970e-01
2.526315789473684070e+00 -3.047218035890722769e-04 -3.189687349756863089e-04 9.310104021568617050e-01
2.736842105263157521e+00 -7.392960330401003772e-05 3.604335354790222444e-05 9.592627625772399691e-01
2.947368421052631415e+00 1.640431570519575473e-06 1.247452540847530196e-05 9.772543151528116923e-01
3.157894736842105310e+00 4.261922973469501913e-06 1.827784096461606706e-06 9.879736305786853690e-01
3.368421052631578760e+00 -1.192532216881719148e-06 -6.194356073476887533e-07 9.939707027191647670e-01
3.578947368421052211e+00 6.147450121487233490e-07 3.665731600335872462e-06 9.971306392110854677e-01
3.789473684210526105e+00 9.328044908296606954e-07 -9.336235428452182874e-07 9.987024862621947108e-01
4.000000000000000000e+00 -1.499989359348431110e-06 -1.469241678851592782e-06 9.994420140720220447e-01
