1.000000000000000056e-01 -1.602453641407146124e-08 -2.498825528970870931e-07 -9.998816298080487330e-01
2.000000000000000111e-01 -5.669506714258580201e-07 -5.243628805490414563e-06 -9.995275769295965951e-01
2.999999999999999889e-01 -2.278045843377128293e-06 -1.933540826484288577e-05 -9.989409976443918149e-01
4.000000000000000222e-01 -5.934156660766499372e-06 -4.611721067981213671e-05 -9.981270968712726566e-01
5.000000000000000000e-01 -1.250882192032880240e-05 -8.808232186438171962e-05 -9.970930465434058032e-01
5.999999999999999778e-01 -2.313815887793213311e-05 -1.463419865266053885e-04 -9.958478746086982802e-01
6.999999999999999556e-01 -3.903013055572184323e-05 -2.204130214878772653e-04 -9.944023276726702276e-01
7.999999999999999334e-01 -6.130676463375693119e-05 -3.080931595722336339e-04 -9.927687108321201492e-01
8.999999999999999112e-01 -9.078475605129285081e-05 -4.054392398769220422e-04 -9.909607085912579549e-01
9.999999999999998890e-01 -1.277080059667694821e-04 -5.068604141939633432e-04 -9.889931909189261239e-01
1.099999999999999867e+00 -1.714534236628128259e-04 -6.053341894770383497e-04 -9.868820085267437925e-01
1.199999999999999956e+00 -2.202380564059176846e-04 -6.927472312463767157e-04 -9.846437813644184356e-01
1.300000000000000044e+00 -2.708606452757952995e-04 -7.603553427327830114e-04 -9.822956841840572162e-01
1.399999999999999911e+00 -3.185133411778535246e-04 -7.993484527543462392e-04 -9.798552328584267945e-01
1.500000000000000000e+00 -3.566990682851678114e-04 -8.014968694475930891e-04 -9.773400749744551863e-01
1.599999999999999867e+00 -3.772865188893880059e-04 -7.598455174788074041e-04 -9.747677880706623332e-01
1.699999999999999956e+00 -3.707277785642719209e-04 -6.694138638807069826e-04 -9.721556887354468879e-01
1.800000000000000044e+00 -3.264533528371619262e-04 -5.278519491564751757e-04 -9.695206556049196234e-01
1.899999999999999911e+00 -2.334461012414516378e-04 -3.359980703072155657e-04 -9.668789690575614326e-01
2.000000000000000000e+00 -8.098023129088954461e-05 -9.828233811825827775e-05 -9.642461700581023143e-01
2.099999999999999645e+00 1.405051823651759632e-04 1.770769091392342424e-04 -9.616369401231058545e-01
2.199999999999999734e+00 4.384452805356822843e-04 4.781294069127251293e-04 -9.590650037488070989e-01
2.299999999999999822e+00 8.171634708445863924e-04 7.895353271877007155e-04 -9.565430538653032499e-01
2.399999999999999911e+00 1.276935068904333720e-03 1.093210254192545977e-03 -9.540826999932144892e-01
2.500000000000000000e+00 1.813183105476886452e-03 1.369268699068094952e-03 -9.516944378397097504e-01
2.600000000000000089e+00 2.415891228886359824e-03 1.597238658786722613e-03 -9.493876381612118553e-01
2.699999999999999734e+00 3.069314300838023400e-03 1.757495097568291748e-03 -9.471705519338403656e-01
2.799999999999999822e+00 3.752055957137544803e-03 1.832836129198441022e-03 -9.450503283037809954e-01
2.899999999999999911e+00 4.437563780274580462e-03 1.810104241448969205e-03 -9.430330415198887595e-01
3.000000000000000000e+00 5.095067593645541577e-03 1.681738062145657440e-03 -9.411237231350244592e-01
