1.000000000000000056e-01 7.328661994828393478e-02 -6.102128429101665724e-02 -9.948026588587894903e-01
2.000000000000000111e-01 1.200702811342300724e-01 -9.946925721949410881e-02 -9.792534443834218782e-01
2.999999999999999889e-01 1.291248188983906420e-01 -1.060721518501721028e-01 -9.534918876949017852e-01
4.000000000000000222e-01 1.079682984309617844e-01 -8.765544027144224482e-02 -9.177919933277177700e-01
5.000000000000000000e-01 7.397844704670653027e-02 -5.916365112822190298e-02 -8.726108328530316482e-01
5.999999999999999778e-01 4.249538722026318521e-02 -3.336938654311508157e-02 -8.186530578059468821e-01
6.999999999999999556e-01 2.070427228379029955e-02 -1.591165362112517689e-02 -7.569159022395111069e-01
7.999999999999999334e-01 8.610357905704038584e-03 -6.455375608811073779e-03 -6.887342904084405859e-01
8.999999999999999112e-01 3.067582559976131558e-03 -2.236249051387301148e-03 -6.157838343293458028e-01
9.999999999999998890e-01 9.380672545036219554e-04 -6.627207661188980279e-04 -5.400516672118587103e-01
1.099999999999999867e+00 2.464684905927087767e-04 -1.681581521848390156e-04 -4.637289744197067853e-01
1.199999999999999956e+00 5.565472722108023569e-05 -3.653709939384058977e-05 -3.890967304499375334e-01
1.300000000000000044e+00 1.079996120958178896e-05 -6.795968330630072998e-06 -3.183495211119976021e-01
1.399999999999999911e+00 1.800516763391760456e-06 -1.081088250442393085e-06 -2.534206555695382446e-01
1.500000000000000000e+00 2.578302536545581479e-07 -1.470197007312723947e-07 -1.958193177868752521e-01
1.599999999999999867e+00 3.178874607492732954e-08 -1.708666911407999523e-08 -1.465123561739777591e-01
1.699999999999999956e+00 3.457093333856418015e-09 -1.718695370977990654e-09 -1.058636857150959953e-01
1.800000000000000044e+00 3.952710369890790638e-10 -1.664176284556988979e-10 -7.366223910203659186e-02
1.899999999999999911e+00 9.049191179502114911e-11 -2.742580746975793027e-11 -4.920412247862721022e-02
2.000000000000000000e+00 4.684935103899557394e-11 -1.234650731248765947e-11 -3.144273920247223075e-02
2.099999999999999645e+00 2.907600840928556212e-11 -7.584988774611084227e-12 -1.914676789364164536e-02
2.199999999999999734e+00 1.755026679645861268e-11 -4.609192304332283927e-12 -1.106081837697978423e-02
2.299999999999999822e+00 1.000191668193646677e-11 -2.648214657195064496e-12 -6.030361687449126845e-03
2.399999999999999911e+00 5.340805988755201187e-12 -1.426172741878186138e-12 -3.085719396865033680e-03
2.500000000000000000e+00 2.658083840685264646e-12 -7.160467184654617716e-13 -1.474239557347042668e-03
2.600000000000000089e+00 1.231468238695227714e-12 -3.347176150659429838e-13 -6.567236262259763552e-04
2.699999999999999734e+00 5.384955599541669232e-13 -1.477369906681466920e-13 -2.765298533084728397e-04
2.799999999999999822e+00 2.343903655319275731e-13 -6.492497622019799110e-14 -1.160657236717182881e-04
2.899999999999999911e+00 1.168746175531946863e-13 -3.269668375546013029e-14 -5.587793619451835933e-05
3.000000000000000000e+00 7.377951595164166627e-14 -2.084975241941539213e-14 -3.409948450993827347e-05
