1.000000000000000056e-01 -1.271982603082070507e-01 1.834363703619064645e-01 -9.705356510815299487e-01
2.000000000000000111e-01 -2.001505038129266223e-01 2.786890109583320396e-01 -8.848273862429915093e-01
2.999999999999999889e-01 -2.009119869313794049e-01 2.639266878297806818e-01 -7.507167917721493389e-01
4.000000000000000222e-01 -1.520624831707815539e-01 1.841565083774784894e-01 -5.805524906544685670e-01
5.000000000000000000e-01 -9.120025788833885372e-02 9.944302600418097882e-02 -3.900384439302576611e-01
5.999999999999999778e-01 -4.420084285924852363e-02 4.229951327389303017e-02 -1.965881730861545884e-01
6.999999999999999556e-01 -1.745183478036039723e-02 1.422542533431837668e-02 -1.729769006238687443e-02
7.999999999999999334e-01 -5.628145688528891216e-03 3.757365819201529452e-03 1.332401245908058363e-01
8.999999999999999112e-01 -1.481865457522247697e-03 7.639472672226746072e-04 2.448575434976709986e-01
9.999999999999998890e-01 -3.177136653454066574e-04 1.138032754136482350e-04 3.130695947001677082e-01
1.099999999999999867e+00 -5.522544483942754196e-05 1.063252364406050871e-05 3.393069188951886583e-01
1.199999999999999956e+00 -7.730345332255493122e-06 9.521457536557475089e-08 3.300739728602409828e-01
1.300000000000000044e+00 -8.630885909818523775e-07 -1.680173416839693453e-07 2.951920073141457435e-01
1.399999999999999911e+00 -7.579311734919765398e-08 -3.420053277167471495e-08 2.456239743753577398e-01
1.500000000000000000e+00 -5.219351301855812558e-09 -4.111657376849701826e-09 1.914228555297268208e-01
1.599999999999999867e+00 -3.923576669594528537e-10 -3.280206186597132995e-10 1.402853186437844346e-01
1.699999999999999956e+00 -1.175018651421447767e-10 -1.239218456022936258e-12 9.692981309681644730e-02
1.800000000000000044e+00 -7.554772863714697609e-11 1.449081351333036871e-11 6.326098807372411426e-02
1.899999999999999911e+00 -4.931559234230470083e-11 1.027746272888086695e-11 3.905629294924585493e-02
2.000000000000000000e+00 -3.037622021979662775e-11 6.387569377245459378e-12 2.283915844989717683e-02
2.099999999999999645e+00 -1.768972259496872619e-11 3.744661090155520520e-12 1.266515728982799474e-02
2.199999999999999734e+00 -9.757197291442090884e-12 2.079194237697238725e-12 6.667492626402700233e-03
2.299999999999999822e+00 -5.103404682021597468e-12 1.094994190785587198e-12 3.335397095268108434e-03
2.399999999999999911e+00 -2.532787221981750593e-12 5.472585640826826836e-13 1.586142648566831121e-03
2.500000000000000000e+00 -1.193262854996805963e-12 2.597387646935409688e-13 7.173153579726321673e-04
2.600000000000000089e+00 -5.336663904191374683e-13 1.170732286586946901e-13 3.084448769377971756e-04
2.699999999999999734e+00 -2.264497667550400412e-13 5.007073482417395626e-14 1.260255571053183257e-04
2.799999999999999822e+00 -9.108525137470213606e-14 2.030466559220010808e-14 4.887795234307535785e-05
2.899999999999999911e+00 -3.468424069988915597e-14 7.795513925061443999e-15 1.796950064314805243e-05
3.000000000000000000e+00 -1.248591719608114144e-14 2.830465939742145393e-15 6.252958687178716175e-06
