1.000000000000000056e-01 -1.015216277267648841e-08 2.462325349991145654e-08 -9.999479555770853789e-01
2.000000000000000111e-01 -7.913530877693228130e-08 1.937720430553512937e-07 -9.997922178786089464e-01
2.999999999999999889e-01 -2.538625978714426058e-07 6.314838307437821826e-07 -9.995339685721608136e-01
4.000000000000000222e-01 -5.591583637803356968e-07 1.422339877415278489e-06 -9.991751603929408532e-01
5.000000000000000000e-01 -9.902838023446434904e-07 2.593838990387287425e-06 -9.987184924244675299e-01
5.999999999999999778e-01 -1.509571727365908653e-06 4.101766611859482171e-06 -9.981673761747480444e-01
6.999999999999999556e-01 -2.047915353364557489e-06 5.819358601446126105e-06 -9.975258931070934976e-01
7.999999999999999334e-01 -2.511464553339841969e-06 7.531248650219328246e-06 -9.967987444396535501e-01
8.999999999999999112e-01 -2.793402291401067730e-06 8.933096849031850104e-06 -9.959911941601847785e-01
9.999999999999998890e-01 -2.790150177895714882e-06 9.637714778319909198e-06 -9.951090063088158244e-01
1.099999999999999867e+00 -2.420807148007759524e-06 9.188290677973476051e-06 -9.941583776601412570e-01
1.199999999999999956e+00 -1.648148498941508993e-06 7.078991715318231995e-06 -9.931458669856838561e-01
1.300000000000000044e+00 -4.991269162792026327e-07 2.782908150804183869e-06 -9.920783220986478801e-01
1.399999999999999911e+00 9.174894223472041650e-07 -4.213286544107885171e-06 -9.909628058758337410e-01
1.500000000000000000e+00 2.398803632597753539e-06 -1.436904372176783502e-05 -9.898065224179710686e-01
1.599999999999999867e+00 3.643208109468541138e-06 -2.804579746892783796e-05 -9.886167444524454062e-01
1.699999999999999956e+00 4.255641072264482100e-06 -4.546129693443835872e-05 -9.874007430032653021e-01
1.800000000000000044e+00 3.764295701558150323e-06 -6.664536583754691163e-05 -9.861657202563006708e-01
1.899999999999999911e+00 1.649664419865869113e-06 -9.140044844179538827e-05 -9.849187464361822686e-01
2.000000000000000000e+00 -2.614117704344683482e-06 -1.192706517920499404e-04 -9.836667013886106758e-01
2.099999999999999645e+00 -9.506715951230360688e-06 -1.495230443858694760e-04 -9.824162214323529652e-01
2.199999999999999734e+00 -1.940010303574856714e-05 -1.811447875182609698e-04 -9.811736519122018496e-01
2.299999999999999822e+00 -3.249152131919520091e-05 -2.128591532162156779e-04 -9.799450057520363577e-01
2.399999999999999911e+00 -4.873543625929137389e-05 -2.431626781640322554e-04 -9.787359281789015375e-01
2.500000000000000000e+00 -6.777990392875627118e-05 -2.703845147252324126e-04 -9.775516676686338835e-01
2.600000000000000089e+00 -8.891338654721964185e-05 -2.927676091418615558e-04 -9.763970530531097536e-01
2.699999999999999734e+00 -1.110283670410130969e-04 -3.085696592492748734e-04 -9.752764766317609801e-01
2.799999999999999822e+00 -1.326078374599335937e-04 -3.161800057667915565e-04 -9.741938830465075583e-01
2.899999999999999911e+00 -1.517401151384161157e-04 -3.142467567785821965e-04 -9.731527636108427970e-01
3.000000000000000000e+00 -1.661661175592994341e-04 -3.018067850853302456e-04 -9.721561557304849721e-01
3.099999999999999645e+00 -1.733614920355527054e-04 -2.784097768091604776e-04 -9.712066470137445950e-01
3.199999999999999734e+00 -1.706537531266654633e-04 -2.442265114818629426e-04 -9.703063836433849509e-01
3.299999999999999822e+00 -1.553719271247751320e-04 -2.001311486850278708e-04 -9.694570825661267266e-01
3.399999999999999911e+00 -1.250234116926227405e-04 -1.477475337990920800e-04 -9.686600470487763959e-01
3.500000000000000000e+00 -7.748979895477529337e-05 -8.945061992648141122e-05 -9.679161851489558321e-01
3.599999999999999645e+00 -1.123074966426778740e-05 -2.831594622058181653e-05 -9.672260306514717243e-01
3.699999999999999734e+00 7.451735431691701125e-05 3.198717097706299658e-05 -9.665897660267707137e-01
3.799999999999999822e+00 1.795629211166083618e-04 8.735968848839312955e-05 -9.660072469745439872e-01
3.899999999999999911e+00 3.026165939199568526e-04 1.334910826366837234e-04 -9.654780281235698647e-01
3.999999999999999556e+00 4.412001732245525313e-04 1.661244011869507636e-04 -9.650013894682002435e-01
