1.000000000000000056e-01 1.475698571153470952e-07 -3.075948649628155009e-07 -9.994007184288358214e-01
2.000000000000000111e-01 2.811683654764582239e-06 -3.996032397882971750e-06 -9.976057638214861356e-01
2.999999999999999889e-01 1.040758321029053227e-05 -1.406217349646089795e-05 -9.946237779101826382e-01
4.000000000000000222e-01 2.513814177495863383e-05 -3.276239237733471408e-05 -9.904690689224532330e-01
5.000000000000000000e-01 4.886563531255222774e-05 -6.131034155948748810e-05 -9.851614717503947016e-01
5.999999999999999778e-01 8.296191919615242857e-05 -9.965286364377334578e-05 -9.787261563720108803e-01
6.999999999999999556e-01 1.281378121460974805e-04 -1.463446520511154606e-04 -9.711933884151070506e-01
7.999999999999999334e-01 1.842581058399736635e-04 -1.985373243889795858e-04 -9.625982464877872458e-01
8.999999999999999112e-01 2.501546546933600622e-04 -2.520925098555120694e-04 -9.529803014127659067e-01
9.999999999999998890e-01 3.234554762161063698e-04 -3.018212222679404581e-04 -9.423832628073524065e-01
1.099999999999999867e+00 4.004522729982069201e-04 -3.418436044283747416e-04 -9.308545985774919762e-01
1.199999999999999956e+00 4.760313813214757752e-04 -3.660541646624915300e-04 -9.184451328854177365e-01
1.300000000000000044e+00 5.436934426189893527e-04 -3.686684570722321692e-04 -9.052086280583279132e-01
1.399999999999999911e+00 5.956846938814530255e-04 -3.448184101483097830e-04 -8.912013557730092961e-01
1.500000000000000000e+00 6.232573585979640394e-04 -2.911556747483529757e-04 -8.764816627141396310e-01
1.599999999999999867e+00 6.170684280726991631e-04 -2.064164483078694619e-04 -8.611095357764574354e-01
1.699999999999999956e+00 5.677153307810226847e-04 -9.189775058380331293e-05 -8.451461717608106383e-01
1.800000000000000044e+00 4.663943384090636505e-04 4.820505547716831356e-05 -8.286535563791790349e-01
1.899999999999999911e+00 3.056537833157405275e-04 2.066461377528109212e-04 -8.116940571956573480e-01
2.000000000000000000e+00 8.020054669922949077e-05 3.732014530330008501e-04 -7.943300348511833642e-01
2.099999999999999645e+00 -2.122941567942750434e-04 5.349925579767860623e-04 -7.766234765068869006e-01
2.199999999999999734e+00 -5.704534471684973886e-04 6.770735494606596296e-04 -7.586356548706421066e-01
2.299999999999999822e+00 -9.885876300214316986e-04 7.832739119419562151e-04 -7.404268154352722231e-01
2.399999999999999911e+00 -1.456291977026136610e-03 8.372691874905471452e-04 -7.220558936778873615e-01
2.500000000000000000e+00 -1.958315479232439291e-03 8.238297702943763422e-04 -7.035802629890117732e-01
2.600000000000000089e+00 -2.474755743559471730e-03 7.301773187452107123e-04 -6.850555130910955803e-01
2.699999999999999734e+00 -2.981618163462511004e-03 5.473602548305224512e-04 -6.665352577535476053e-01
2.799999999999999822e+00 -3.451754895474216499e-03 2.715460620306248368e-04 -6.480709698059571311e-01
2.899999999999999911e+00 -3.856172045069423179e-03 -9.487936625026148008e-05 -6.297118408821921198e-01
3.000000000000000000e+00 -4.165663457509058420e-03 -5.425151840743014072e-04 -6.115046630599437760e-01
3.099999999999999645e+00 -4.352698597291443199e-03 -1.054553228674820573e-03 -5.934937296316070698e-01
3.199999999999999734e+00 -4.393462609559773205e-03 -1.606873880564547042e-03 -5.757207526524914520e-01
3.299999999999999822e+00 -4.269921233539633251e-03 -2.168688217590695674e-03 -5.582247956166431768e-01
3.399999999999999911e+00 -3.971764356795915753e-03 -2.703750822921260639e-03 -5.410422205264130424e-01
3.500000000000000000e+00 -3.498071888419095402e-03 -3.172127942616331624e-03 -5.242066496311591495e-01
3.599999999999999645e+00 -2.858546191592107634e-03 -3.532462250839904505e-03 -5.077489430708393980e-01
3.699999999999999734e+00 -2.074167759788996500e-03 -3.744631340007177362e-03 -4.916971944297993113e-01
3.799999999999999822e+00 -1.177155617469667886e-03 -3.772655361117512821e-03 -4.760767466431358730e-01
3.899999999999999911e+00 -2.101506107444374308e-04 -3.587673534528622744e-03 -4.609102307001155530e-01
3.999999999999999556e+00 7.754130846710961681e-04 -3.170782918167293525e-03 -4.462176290918906107e-01
