1.000000000000000056e-01 4.615780043585879580e-04 1.776939535296928043e-03 -8.636707464104530496e-01
2.000000000000000111e-01 8.310070198122470383e-04 3.411011220742263261e-03 -7.551556804646657461e-01
2.999999999999999889e-01 1.026907847114862712e-03 4.772189265669914485e-03 -5.862576256076678094e-01
4.000000000000000222e-01 9.883171076241583416e-04 5.754925035960272231e-03 -3.736736494906485184e-01
5.000000000000000000e-01 6.820850786847312830e-04 6.287546298996796700e-03 -1.384194405649883941e-01
5.999999999999999778e-01 1.073301320040657091e-04 6.338525621377976219e-03 9.624649978191622546e-02
6.999999999999999556e-01 -7.036377551128086653e-04 5.919071734997860025e-03 3.071276592776009395e-01
7.999999999999999334e-01 -1.688001627590935121e-03 5.081796175926740593e-03 4.733810265483255342e-01
8.999999999999999112e-01 -2.758536484720762027e-03 3.915580241132786583e-03 5.785868518349568390e-01
9.999999999999998890e-01 -3.812405875626309355e-03 2.537210612248546378e-03 6.123734925615947899e-01
1.099999999999999867e+00 -4.741955104482442618e-03 1.080419444908658089e-03 5.714547292595781869e-01
1.199999999999999956e+00 -5.446164226160500783e-03 -3.164703674576390346e-04 4.599603746562267448e-01
1.300000000000000044e+00 -5.841702024382269473e-03 -1.523220822489101609e-03 2.890464460882108400e-01
1.399999999999999911e+00 -5.872462380814772245e-03 -2.429601791199814849e-03 7.579068355937643164e-02
1.500000000000000000e+00 -5.516369965149711153e-03 -2.955242048359702813e-03 -1.584788554829075768e-01
1.599999999999999867e+00 -4.788900009171179889e-03 -3.056665132863860615e-03 -3.902853202623444151e-01
1.699999999999999956e+00 -3.742784272792050535e-03 -2.730847409058154325e-03 -5.963227776957779058e-01
1.800000000000000044e+00 -2.463861941112749712e-03 -2.014980824329096285e-03 -7.557608592144676729e-01
1.899999999999999911e+00 -1.063490964765882469e-03 -9.824622551837813595e-04 -8.523087587620687966e-01
2.000000000000000000e+00 3.318847083019354507e-04 2.644302769866134018e-04 -8.758384371013279157e-01
2.099999999999999645e+00 1.592820051525353862e-03 1.604505350632329155e-03 -8.233989518202261548e-01
2.199999999999999734e+00 2.599645402819310280e-03 2.909267384107354533e-03 -6.995297359211168908e-01
2.299999999999999822e+00 3.254419484566150808e-03 4.055146810581760491e-03 -5.158348601431222979e-01
2.399999999999999911e+00 3.491050976982723771e-03 4.935080993091860158e-03 -2.898617653409968353e-01
2.500000000000000000e+00 3.282419458047565984e-03 5.468466778121188095e-03 -4.338861424563120878e-02
2.600000000000000089e+00 2.643734235110652749e-03 5.608508341955515883e-03 1.997024294408674683e-01
2.699999999999999734e+00 1.631824730504324817e-03 5.346278683675828071e-03 4.157723589026726674e-01
2.799999999999999822e+00 3.402991129110864211e-04 4.711191506695528407e-03 5.837411797573275329e-01
2.899999999999999911e+00 -1.109030421539611375e-03 3.767803422340660832e-03 6.871741505724746624e-01
3.000000000000000000e+00 -2.577543371515522187e-03 2.609348651214289574e-03 7.159008806104086853e-01
