1.000000000000000056e-01 8.768502659766517094e-04 -8.329938111914872174e-04 -8.847676711191992949e-01
2.000000000000000111e-01 1.742624876884748750e-03 -1.581840893161612534e-03 -8.375988014844332197e-01
2.999999999999999889e-01 2.584282344845051631e-03 -2.170736979249116190e-03 -7.646434513139611644e-01
4.000000000000000222e-01 3.385242050689039883e-03 -2.539790911365959365e-03 -6.737586283032437340e-01
5.000000000000000000e-01 4.124520176439774692e-03 -2.651041914867256852e-03 -5.747472344557921220e-01
5.999999999999999778e-01 4.776807991473401745e-03 -2.492380080800158867e-03 -4.783120059770351040e-01
6.999999999999999556e-01 5.313574016374927184e-03 -2.079023335262146326e-03 -3.949105317528775472e-01
7.999999999999999334e-01 5.705238059118033882e-03 -1.452286414282610502e-03 -3.336262386534714075e-01
8.999999999999999112e-01 5.924110891760765718e-03 -6.759000617587605439e-04 -3.011793206372975207e-01
9.999999999999998890e-01 5.947875890342018031e-03 1.699075080824595258e-04 -3.011774993945794399e-01
1.099999999999999867e+00 5.763156864979622832e-03 9.959634581346444703e-04 -3.336890529417522733e-01
1.199999999999999956e+00 5.368699309841304737e-03 1.712629860514031360e-03 -3.951921611157297454e-01
1.300000000000000044e+00 4.777762145898922785e-03 2.238430648076621034e-03 -4.788902533330009481e-01
1.399999999999999911e+00 4.019240298549706970e-03 2.507977076376868147e-03 -5.753913906103219622e-01
1.500000000000000000e+00 3.137344332525148719e-03 2.478510786214188112e-03 -6.736523144583351774e-01
1.599999999999999867e+00 2.189561268527290706e-03 2.134323281870637978e-03 -7.621290033101896233e-01
1.699999999999999956e+00 1.243093420336104917e-03 1.488738545885268279e-03 -8.299815825859518936e-01
1.800000000000000044e+00 3.698959744127856158e-04 5.833855863644870883e-04 -8.682336035114031070e-01
1.899999999999999911e+00 -3.593064594590393828e-04 -5.152234364508340072e-04 -8.707566904313218670e-01
2.000000000000000000e+00 -8.813261052640071307e-04 -1.721414320089213485e-03 -8.349724327555672065e-01
2.099999999999999645e+00 -1.146703870194771928e-03 -2.937945555308931617e-03 -7.622055164149499351e-01
2.199999999999999734e+00 -1.125138293197527808e-03 -4.064777521528884635e-03 -6.576353145082758367e-01
2.299999999999999822e+00 -8.093525721622981707e-04 -5.008103450615438920e-03 -5.298620851186132130e-01
2.399999999999999911e+00 -2.171709448815055399e-04 -5.689059487188797767e-03 -3.900966333161861033e-01
2.500000000000000000e+00 6.087162903697362079e-04 -6.050954668933712123e-03 -2.510929287597309933e-01
2.600000000000000089e+00 1.603265931913150366e-03 -6.064684558529600047e-03 -1.258818557965276086e-01
2.699999999999999734e+00 2.683909848360322044e-03 -5.731582320863672260e-03 -2.647321975881608558e-02
2.799999999999999822e+00 3.757196555302699196e-03 -5.083571948717792097e-03 3.737556588154267168e-02
2.899999999999999911e+00 4.726892713769566788e-03 -4.180450369106188807e-03 5.918217466891811940e-02
3.000000000000000000e+00 5.502477881980132567e-03 -3.104810250582995708e-03 3.644244787848132522e-02
