1.000000000000000056e-01 -1.755190759432392889e-01 2.521916951265231188e-01 -9.513775477759374155e-01
2.000000000000000111e-01 -3.074037983350748626e-01 4.916937108506863052e-01 -8.129449946060628429e-01
2.999999999999999889e-01 -3.631391220088144856e-01 7.028508692940889091e-01 -6.046784453816642646e-01
4.000000000000000222e-01 -3.288280834600587621e-01 8.662180535569716788e-01 -3.535571373404760576e-01
5.000000000000000000e-01 -2.117028354675983270e-01 9.610872259596954237e-01 -8.764940808483071000e-02
5.999999999999999778e-01 -3.802249057270465360e-02 9.711284722552758764e-01 1.683430868074403397e-01
6.999999999999999556e-01 1.530288425994429657e-01 8.913116230345166091e-01 3.958257030484107486e-01
7.999999999999999334e-01 3.189692494692737412e-01 7.330566922885953796e-01 5.836430518916798649e-01
8.999999999999999112e-01 4.253637482040514839e-01 5.243593105895727469e-01 7.281639302295952465e-01
9.999999999999998890e-01 4.552443391133171313e-01 3.036628026867028707e-01 8.319873072118382229e-01
1.099999999999999867e+00 4.128994843253304681e-01 1.092359348078683345e-01 9.017509020240009887e-01
1.199999999999999956e+00 3.203651019349194606e-01 -3.148846270678451464e-02 9.456637643700283036e-01
1.300000000000000044e+00 2.082723122066729715e-01 -1.083458529843353280e-01 9.715941650090559323e-01
1.399999999999999911e+00 1.051058394402842044e-01 -1.283372793878716778e-01 9.859731069923503011e-01
1.500000000000000000e+00 2.921827637315883852e-02 -1.097930528885712187e-01 9.934660396640550006e-01
1.599999999999999867e+00 -1.392562441889998864e-02 -7.414049725327304108e-02 9.971322653225149768e-01
1.699999999999999956e+00 -2.935264655137162504e-02 -3.864346215259790301e-02 9.988166896361835301e-01
1.800000000000000044e+00 -2.733980921757161314e-02 -1.288456122959627179e-02 9.995418313375661334e-01
1.899999999999999911e+00 -1.817421153111280913e-02 1.022929278632138742e-03 9.998340028955231551e-01
2.000000000000000000e+00 -8.925702857032695448e-03 5.698643737996518695e-03 9.999438614791027469e-01
2.099999999999999645e+00 -2.730596184946399840e-03 5.279449815582711904e-03 9.999823227920004998e-01
2.199999999999999734e+00 2.040788703057431694e-04 3.205739412850086567e-03 9.999948385575373466e-01
2.299999999999999822e+00 9.641627368269279925e-04 1.360980763395304135e-03 9.999986087040584337e-01
2.399999999999999911e+00 7.653818946732760930e-04 3.159599633047507341e-04 9.999996571329264894e-01
2.500000000000000000e+00 3.889750049252409421e-04 -7.605232769692217912e-05 9.999999214563581873e-01
2.600000000000000089e+00 1.273002410855256792e-04 -1.260309994077878483e-04 9.999999839597198958e-01
2.699999999999999734e+00 1.659405770486664596e-05 -7.637664937586583955e-05 9.999999969498668539e-01
2.799999999999999822e+00 -1.264009425532836283e-05 -2.722488764759617544e-05 9.999999995554221810e-01
2.899999999999999911e+00 -1.113483169813385248e-05 -7.127072372429139993e-06 9.999999999174189469e-01
3.000000000000000000e+00 -3.545142674020913831e-06 2.398947498936879586e-06 9.999999999980725418e-01
