1.000000000000000056e-01 1.878556007630246779e-04 -2.286935222969150010e-05 -8.961970042356747213e-01
2.000000000000000111e-01 3.716671359752829040e-04 -5.948810845596074837e-05 -8.816661351716329476e-01
2.999999999999999889e-01 5.457365149104240936e-04 -1.227373587294373642e-04 -8.577888066301584402e-01
4.000000000000000222e-01 7.015284367564493485e-04 -2.236948545710152735e-04 -8.250659323074146512e-01
5.000000000000000000e-01 8.261824240822130978e-04 -3.701918911425950125e-04 -7.841703155372246048e-01
5.999999999999999778e-01 9.027796995497645079e-04 -5.642829790844324954e-04 -7.359266861630023859e-01
6.999999999999999556e-01 9.113173943056984737e-04 -8.006107468263035922e-04 -6.812841675183523016e-01
7.999999999999999334e-01 8.305106104990253721e-04 -1.063216497916779496e-03 -6.212796473974766531e-01
8.999999999999999112e-01 6.423542860253940532e-04 -1.324611722016328730e-03 -5.570110196405588798e-01
9.999999999999998890e-01 3.380037699236833164e-04 -1.544526157178773311e-03 -4.896034044263825602e-01
1.099999999999999867e+00 -7.556900879209177760e-05 -1.673869452315046233e-03 -4.201761385727376674e-01
1.199999999999999956e+00 -5.688086039491225578e-04 -1.660855309526325721e-03 -3.498013838482496030e-01
1.300000000000000044e+00 -1.085791466289211466e-03 -1.461639592649872574e-03 -2.795031783853035856e-01
1.399999999999999911e+00 -1.545983189727015254e-03 -1.055016428378382880e-03 -2.102191432466955778e-01
1.500000000000000000e+00 -1.853024302336266473e-03 -4.574040145351300577e-04 -1.427731228508558325e-01
1.599999999999999867e+00 -1.913666475122513012e-03 2.667919020959811944e-04 -7.789936268439755229e-02
1.699999999999999956e+00 -1.664145927223817378e-03 1.003316443330552797e-03 -1.619509527696597409e-02
1.800000000000000044e+00 -1.098243599387859707e-03 1.602208000626696542e-03 4.185585123001529101e-02
1.899999999999999911e+00 -2.893910864134906832e-04 1.909144708181758016e-03 9.589931597169613908e-02
2.000000000000000000e+00 6.059844996416535214e-04 1.811074890958785672e-03 1.456786309671496971e-01
2.099999999999999645e+00 1.372914455830445907e-03 1.283974655186850096e-03 1.910621091156425866e-01
2.199999999999999734e+00 1.792135830853123753e-03 4.262824086530307352e-04 2.319982106294925239e-01
2.299999999999999822e+00 1.713856042220268661e-03 -5.435546527103487895e-04 2.685230238473619857e-01
2.399999999999999911e+00 1.127821830585794792e-03 -1.335817535410838055e-03 3.007494989300206201e-01
2.500000000000000000e+00 1.975994697620286639e-04 -1.682159915795087028e-03 3.288401325391815400e-01
2.600000000000000089e+00 -7.679815456396491772e-04 -1.444180345690737523e-03 3.530123934087642801e-01
2.699999999999999734e+00 -1.414471128102906582e-03 -6.924650064106587519e-04 3.735069075593695498e-01
2.799999999999999822e+00 -1.484051790229336514e-03 2.892270846155380742e-04 3.905936243271966313e-01
2.899999999999999911e+00 -9.438039531591601097e-04 1.097870670169092669e-03 4.045557537815294702e-01
3.000000000000000000e+00 -2.956892953271902415e-05 1.382531069322560924e-03 4.156791585264409949e-01
