1.000000000000000056e-01 7.177975336612361923e-02 2.778707990310954612e-01 -9.578394239040920466e-01
2.000000000000000111e-01 1.279279573442977103e-01 5.336978271578047828e-01 -8.356965474053976717e-01
2.999999999999999889e-01 1.568677440075589291e-01 7.469081077991839290e-01 -6.457595167772303135e-01
4.000000000000000222e-01 1.494907060082819039e-01 9.008602712329613071e-01 -4.068859406073825902e-01
5.000000000000000000e-01 1.005701542416433808e-01 9.843615143903873266e-01 -1.428377451493510197e-01
5.999999999999999778e-01 9.960863257236364510e-03 9.924932492457883004e-01 1.201028228762124617e-01
6.999999999999999556e-01 -1.172833267698641518e-01 9.270161230296698474e-01 3.557497465684117954e-01
7.999999999999999334e-01 -2.713554673504279813e-01 7.961664698469999024e-01 5.406076662517217413e-01
8.999999999999999112e-01 -4.386405401982557128e-01 6.138584176769593670e-01 6.562131695950452759e-01
9.999999999999998890e-01 -6.031054433057125852e-01 3.983671027568025935e-01 6.909761088074463098e-01
1.099999999999999867e+00 -7.479685746464648233e-01 1.706239642784552202e-01 6.413426428914702493e-01
1.199999999999999956e+00 -8.574951624751986357e-01 -4.772510010719260842e-02 5.121648941829266555e-01
1.300000000000000044e+00 -9.187214522046428522e-01 -2.363035709705511578e-01 3.162379823189502837e-01
1.399999999999999911e+00 -9.229331285078808955e-01 -3.778616302108993574e-01 7.305008149400166184e-02
1.500000000000000000e+00 -8.667332151678847074e-01 -4.598269472041800476e-01 -1.931333563684228816e-01
1.599999999999999867e+00 -7.525841618684572243e-01 -4.754019499104937818e-01 -4.556670619460018723e-01
1.699999999999999956e+00 -5.887597459066663541e-01 -4.241225901921663044e-01 -6.881478233043242243e-01
1.800000000000000044e+00 -3.886940895428670495e-01 -3.118140118434894470e-01 -8.670445001989509626e-01
1.899999999999999911e+00 -1.697964616134615967e-01 -1.499724637282673911e-01 -9.740244768542812848e-01
2.000000000000000000e+00 4.818053126020409999e-02 4.539169070405779660e-02 -9.977937886412401314e-01
2.099999999999999645e+00 2.450251103182997658e-01 2.553040131553299119e-01 -9.352320591620407741e-01
2.199999999999999734e+00 4.020607191649925860e-01 4.596509644853267185e-01 -7.917357442247180410e-01
2.299999999999999822e+00 5.040230731099495376e-01 6.390931579677011642e-01 -5.807089800967333293e-01
2.399999999999999911e+00 5.406194682424718678e-01 7.768763411150372278e-01 -3.222779871365515358e-01
2.500000000000000000e+00 5.076494045117171394e-01 8.603881131921704561e-01 -4.132956575889626394e-02
2.600000000000000089e+00 4.075263103567061118e-01 8.823092618058026027e-01 2.349235583184084986e-01
2.699999999999999734e+00 2.491578253176826019e-01 8.412500058885429288e-01 4.796110801451126116e-01
2.799999999999999822e+00 4.719393519911508489e-02 7.418221102370996523e-01 6.688414354020593144e-01
2.899999999999999911e+00 -1.793196069561185380e-01 5.941368101453262662e-01 7.840724312952236374e-01
3.000000000000000000e+00 -4.087198776785934684e-01 4.127957869889320452e-01 8.139357177197051874e-01
