1.000000000000000056e-01 2.354972727695383017e-01 -6.100580348198041819e-02 -8.600020047110789045e-01
2.000000000000000111e-01 4.329485901283618432e-01 -1.443615585830716475e-01 -7.443240590148421099e-01
2.999999999999999889e-01 5.587362970243010540e-01 -2.604747500477963551e-01 -5.743435308988718013e-01
4.000000000000000222e-01 5.892152716730099105e-01 -4.007206216814920285e-01 -3.771512591063155839e-01
5.000000000000000000e-01 5.168980086789871642e-01 -5.381022357073339535e-01 -1.795307202716545647e-01
5.999999999999999778e-01 3.550723346256342561e-01 -6.357005982431077618e-01 -2.262530646600044350e-03
6.999999999999999556e-01 1.378597409987244726e-01 -6.599421161494809507e-01 1.427378462536540715e-01
7.999999999999999334e-01 -8.607985545849154707e-02 -5.938459880739661578e-01 2.522485966454004469e-01
8.999999999999999112e-01 -2.656440823550825225e-01 -4.453226837683350037e-01 3.297352206001671338e-01
9.999999999999998890e-01 -3.620111827587141895e-01 -2.469899683287890557e-01 3.824986175006819256e-01
1.099999999999999867e+00 -3.608275602202280496e-01 -4.675449786989675088e-02 4.191189942233511934e-01
1.199999999999999956e+00 -2.768961915478073688e-01 1.080079174393820673e-01 4.475357830230701772e-01
1.300000000000000044e+00 -1.484579679422993737e-01 1.869281843313950475e-01 4.739390930994885620e-01
1.399999999999999911e+00 -2.239659680453101251e-02 1.867364979471632658e-01 5.023594069367921522e-01
1.500000000000000000e+00 6.372259005343290650e-02 1.301864244260929615e-01 5.347209126847657368e-01
1.599999999999999867e+00 9.463776622368713642e-02 5.400527533558135973e-02 5.711976127844751172e-01
1.699999999999999956e+00 7.931664419814538070e-02 -8.061105720848924655e-03 6.107246125907275225e-01
1.800000000000000044e+00 4.166468007342406799e-02 -3.841253464461844014e-02 6.515490118021506349e-01
1.899999999999999911e+00 6.136971387523688232e-03 -3.861267087571028378e-02 6.917126395342488854e-01
2.000000000000000000e+00 -1.337867255669824770e-02 -2.249029048801513830e-02 7.294393055785820534e-01
2.099999999999999645e+00 -1.616470664229549548e-02 -5.231219231242823994e-03 7.633776472013776848e-01
2.199999999999999734e+00 -9.701500169843174301e-03 4.522217838367268219e-03 7.927053613036781909e-01
2.299999999999999822e+00 -2.282625571644577092e-03 6.137080368980031911e-03 8.171170197523895951e-01
2.399999999999999911e+00 1.706907748644336323e-03 3.500040984034062403e-03 8.367372555733746387e-01
2.500000000000000000e+00 2.165204032421397598e-03 6.132243961367196683e-04 8.519946345517136477e-01
2.600000000000000089e+00 1.048408189745275287e-03 -7.132279936114794237e-04 8.634922206054178595e-01
2.699999999999999734e+00 4.325225425644600111e-05 -6.946206884172888459e-04 8.718970807796574407e-01
2.799999999999999822e+00 -2.860615068113259770e-04 -2.352678905988243386e-04 8.778586170898082797e-01
2.899999999999999911e+00 -1.885224616211859873e-04 5.814834180312620745e-05 8.819584842407416359e-01
3.000000000000000000e+00 -2.545845476937301044e-05 9.532017670469468840e-05 8.846850422531024050e-01
