1.000000000000000056e-01 -1.338932371934644858e-02 9.766550828201601975e-02 -9.946855575357189672e-01
2.000000000000000111e-01 -3.375408549997082480e-02 1.929559483676686338e-01 -9.788413957987681657e-01
2.999999999999999889e-01 -6.760372488693019988e-02 2.827143656985526832e-01 -9.527607867131258068e-01
4.000000000000000222e-01 -1.203928706695257256e-01 3.623165929925686313e-01 -9.169251942670274547e-01
5.000000000000000000e-01 -1.957645379995400781e-01 4.252466284673567243e-01 -8.719824342197969314e-01
5.999999999999999778e-01 -2.945281717280276990e-01 4.630419759725583617e-01 -8.187270397023845847e-01
6.999999999999999556e-01 -4.135297297267955252e-01 4.658091219952845141e-01 -7.580696599319872719e-01
7.999999999999999334e-01 -5.445348156089977465e-01 4.234493555298310952e-01 -6.910257528413454864e-01
8.999999999999999112e-01 -6.735443749648307721e-01 3.277616046918201964e-01 -6.186426757112414299e-01
9.999999999999998890e-01 -7.809059205271617898e-01 1.752019393697925032e-01 -5.420285238452188237e-01
1.099999999999999867e+00 -8.428834390872991245e-01 -2.994520731217242826e-02 -4.622937504764618177e-01
1.199999999999999956e+00 -8.349809876245918305e-01 -2.726481808629248049e-01 -3.804714505914458256e-01
1.300000000000000044e+00 -7.370781272487566538e-01 -5.256360024541990583e-01 -2.975988828276409093e-01
1.399999999999999911e+00 -5.400396185392088988e-01 -7.503622801519012064e-01 -2.146325755159468329e-01
1.500000000000000000e+00 -2.523441384175357238e-01 -9.016640290334307917e-01 -1.324279953015599642e-01
1.599999999999999867e+00 9.522546825525840530e-02 -9.363924545876807226e-01 -5.175489573244049929e-02
1.699999999999999956e+00 4.494677732568040374e-01 -8.253089547789227431e-01 2.674680681106782545e-02
1.800000000000000044e+00 7.413285073359137112e-01 -5.657019102496624319e-01 1.025112115613300706e-01
1.899999999999999911e+00 9.001086678511192041e-01 -1.907394408122223273e-01 1.750667018119522744e-01
2.000000000000000000e+00 8.735223906832328966e-01 2.293197635964749348e-01 2.441195809224145363e-01
2.099999999999999645e+00 6.487541398270011417e-01 5.978622327533293923e-01 3.093799749749560069e-01
2.199999999999999734e+00 2.668317024795318626e-01 8.154687258225481461e-01 3.707002197758227924e-01
2.299999999999999822e+00 -1.778135877744016491e-01 8.118182560860087715e-01 4.280215863340893767e-01
2.399999999999999911e+00 -5.577501386156838992e-01 5.761955589751329709e-01 4.813204644041053082e-01
2.500000000000000000e+00 -7.513921399592434769e-01 1.733479261239382896e-01 5.306234349330388733e-01
2.600000000000000089e+00 -6.892822342729636453e-01 -2.668326533857039995e-01 5.760467494804669686e-01
2.699999999999999734e+00 -3.896993149541458368e-01 -5.891015753488550999e-01 6.177406922469287354e-01
2.799999999999999822e+00 3.585535340562606699e-02 -6.721799945807551691e-01 6.558508245212403276e-01
2.899999999999999911e+00 4.177635822623728679e-01 -4.846513586035448573e-01 6.905781541160790349e-01
3.000000000000000000e+00 5.968480487741023577e-01 -1.092779861124722474e-01 7.221272476657180084e-01
