1.000000000000000056e-01 9.753712082733750899e-01 0.000000000000000000e+00 2.462879172662679750e-02 0.000000000000000000e+00 0.000000000000000000e+00 0.000000000000000000e+00 1.601964817398675647e-02 1.622534159021045697e-01 0.000000000000000000e+00 0.000000000000000000e+00 0.000000000000000000e+00 0.000000000000000000e+00 0.000000000000000000e+00 0.000000000000000000e+00 0.000000000000000000e+00 0.000000000000000000e+00
2.000000000000000111e-01 9.049687567937341193e-01 0.000000000000000000e+00 9.503124320626823995e-02 0.000000000000000000e+00 0.000000000000000000e+00 0.000000000000000000e+00 3.756295585160059763e-02 3.038051763935300520e-01 0.000000000000000000e+00 0.000000000000000000e+00 0.000000000000000000e+00 0.000000000000000000e+00 0.000000000000000000e+00 0.000000000000000000e+00 0.000000000000000000e+00 0.000000000000000000e+00
2.999999999999999889e-01 7.987806424684171791e-01 0.000000000000000000e+00 2.012193575315809890e-01 0.000000000000000000e+00 0.000000000000000000e+00 0.000000000000000000e+00 6.765989863375877766e-02 4.069440588269181980e-01 0.000000000000000000e+00 0.000000000000000000e+00 0.000000000000000000e+00 0.000000000000000000e+00 0.000000000000000000e+00 0.000000000000000000e+00 0.000000000000000000e+00 0.000000000000000000e+00
4.000000000000000222e-01 6.714755056149045442e-01 0.000000000000000000e+00 3.285244943850947341e-01 0.000000000000000000e+00 0.000000000000000000e+00 0.000000000000000000e+00 1.057752195749922519e-01 4.603224330447213131e-01 0.000000000000000000e+00 0.000000000000000000e+00 0.000000000000000000e+00 0.000000000000000000e+00 0.000000000000000000e+00 0.000000000000000000e+00 0.000000000000000000e+00 0.000000000000000000e+00
5.000000000000000000e-01 5.395378783613755669e-01 0.000000000000000000e+00 4.604621216386228233e-01 0.000000000000000000e+00 0.000000000000000000e+00 0.000000000000000000e+00 1.477438309068573596e-01 4.608385197754931162e-01 0.000000000000000000e+00 0.000000000000000000e+00 0.000000000000000000e+00 0.000000000000000000e+00 0.000000000000000000e+00 0.000000000000000000e+00 0.000000000000000000e+00 0.000000000000000000e+00
5.999999999999999778e-01 4.181840357627687466e-01 0.000000000000000000e+00 5.818159642372369156e-01 0.000000000000000000e+00 0.000000000000000000e+00 0.000000000000000000e+00 1.868574436569274688e-01 4.136897247914751996e-01 0.000000000000000000e+00 0.000000000000000000e+00 0.000000000000000000e+00 0.000000000000000000e+00 0.000000000000000000e+00 0.000000000000000000e+00 0.000000000000000000e+00 0.000000000000000000e+00
6.999999999999999556e-01 3.188528765872227777e-01 0.000000000000000000e+00 6.811471234127750574e-01 0.000000000000000000e+00 0.000000000000000000e+00 0.000000000000000000e+00 2.157389636561688473e-01 3.307200384020744788e-01 0.000000000000000000e+00 0.000000000000000000e+00 0.000000000000000000e+00 0.000000000000000000e+00 0.000000000000000000e+00 0.000000000000000000e+00 0.000000000000000000e+00 0.000000000000000000e+00
7.999999999999999334e-01 2.478133368070982168e-01 0.000000000000000000e+00 7.521866631929010616e-01 0.000000000000000000e+00 0.000000000000000000e+00 0.000000000000000000e+00 2.283782480474627619e-01 2.276282236846727258e-01 0.000000000000000000e+00 0.000000000000000000e+00 0.000000000000000000e+00 0.000000000000000000e+00 0.000000000000000000e+00 0.000000000000000000e+00 0.000000000000000000e+00 0.000000000000000000e+00
8.999999999999999112e-01 2.060396414576378121e-01 0.000000000000000000e+00 7.939603585423599119e-01 0.000000000000000000e+00 0.000000000000000000e+00 0.000000000000000000e+00 2.217104908542666397e-01 1.208183488121385429e-01 0.000000000000000000e+00 0.000000000000000000e+00 0.000000000000000000e+00 0.000000000000000000e+00 0.000000000000000000e+00 0.000000000000000000e+00 0.000000000000000000e+00 0.000000000000000000e+00
9.999999999999998890e-01 1.901382517508003189e-01 0.000000000000000000e+00 8.098617482492012076e-01 0.000000000000000000e+00 0.000000000000000000e+00 0.000000000000000000e+00 1.963389287854280796e-01 2.461504725978343883e-02 0.000000000000000000e+00 0.000000000000000000e+00 0.000000000000000000e+00 0.000000000000000000e+00 0.000000000000000000e+00 0.000000000000000000e+00 0.000000000000000000e+00 0.000000000000000000e+00
1.099999999999999867e+00 1.938881450482232149e-01 0.000000000000000000e+00 8.061118549517773957e-01 0.000000000000000000e+00 0.000000000000000000e+00 0.000000000000000000e+00 1.563103012270149472e-01 -5.068162761309540076e-02 0.000000000000000000e+00 0.000000000000000000e+00 0.000000000000000000e+00 0.000000000000000000e+00 0.000000000000000000e+00 0.000000000000000000e+00 0.000000000000000000e+00 0.000000000000000000e+00
1.199999999999999956e+00 2.099179740675737316e-01 0.000000000000000000e+00 7.900820259324269346e-01 0.000000000000000000e+00 0.000000000000000000e+00 0.000000000000000000e+00 1.081096616267574473e-01 -9.971738862966425532e-02 0.000000000000000000e+00 0.000000000000000000e+00 0.000000000000000000e+00 0.000000000000000000e+00 0.000000000000000000e+00 0.000000000000000000e+00 0.000000000000000000e+00 0.000000000000000000e+00
1.300000000000000044e+00 2.311410644004802395e-01 0.000000000000000000e+00 7.688589355995248953e-01 0.000000000000000000e+00 0.000000000000000000e+00 0.000000000000000000e+00 5.921793061815464748e-02 -1.220590684335199905e-01 0.000000000000000000e+00 0.000000000000000000e+00 0.000000000000000000e+00 0.000000000000000000e+00 0.000000000000000000e+00 0.000000000000000000e+00 0.000000000000000000e+00 0.000000000000000000e+00
1.399999999999999911e+00 2.517435700435815549e-01 0.000000000000000000e+00 7.482564299564224974e-01 0.000000000000000000e+00 0.000000000000000000e+00 0.000000000000000000e+00 1.656679075236941120e-02 -1.213951803717965711e-01 0.000000000000000000e+00 0.000000000000000000e+00 0.000000000000000000e+00 0.000000000000000000e+00 0.000000000000000000e+00 0.000000000000000000e+00 0.000000000000000000e+00 0.000000000000000000e+00
1.500000000000000000e+00 2.676715162214752253e-01 0.000000000000000000e+00 7.323284837785294377e-01 0.000000000000000000e+00 0.000000000000000000e+00 0.000000000000000000e+00 -1.476315559814415229e-02 -1.042365457237809656e-01 0.000000000000000000e+00 0.000000000000000000e+00 0.000000000000000000e+00 0.000000000000000000e+00 0.000000000000000000e+00 0.000000000000000000e+00 0.000000000000000000e+00 0.000000000000000000e+00
1.599999999999999867e+00 2.766855279862096562e-01 0.000000000000000000e+00 7.233144720137913986e-01 0.000000000000000000e+00 0.000000000000000000e+00 0.000000000000000000e+00 -3.236277952817744052e-02 -7.835087470996809911e-02 0.000000000000000000e+00 0.000000000000000000e+00 0.000000000000000000e+00 0.000000000000000000e+00 0.000000000000000000e+00 0.000000000000000000e+00 0.000000000000000000e+00 0.000000000000000000e+00
1.699999999999999956e+00 2.781056365499670613e-01 0.000000000000000000e+00 7.218943634500354367e-01 0.000000000000000000e+00 0.000000000000000000e+00 0.000000000000000000e+00 -3.670764455814804622e-02 -5.119843986926118917e-02 0.000000000000000000e+00 0.000000000000000000e+00 0.000000000000000000e+00 0.000000000000000000e+00 0.000000000000000000e+00 0.000000000000000000e+00 0.000000000000000000e+00 0.000000000000000000e+00
1.800000000000000044e+00 2.723908365476955251e-01 0.000000000000000000e+00 7.276091634523051965e-01 0.000000000000000000e+00 0.000000000000000000e+00 0.000000000000000000e+00 -3.073111374847902963e-02 -2.860549682066571703e-02 0.000000000000000000e+00 0.000000000000000000e+00 0.000000000000000000e+00 0.000000000000000000e+00 0.000000000000000000e+00 0.000000000000000000e+00 0.000000000000000000e+00 0.000000000000000000e+00
1.899999999999999911e+00 2.606806155049706808e-01 0.000000000000000000e+00 7.393193844950276539e-01 0.000000000000000000e+00 0.000000000000000000e+00 0.000000000000000000e+00 -1.887769826962620509e-02 -1.390798094772948898e-02 0.000000000000000000e+00 0.000000000000000000e+00 0.000000000000000000e+00 0.000000000000000000e+00 0.000000000000000000e+00 0.000000000000000000e+00 0.000000000000000000e+00 0.000000000000000000e+00
2.000000000000000000e+00 2.443957395522168563e-01 0.000000000000000000e+00 7.556042604477837266e-01 0.000000000000000000e+00 0.000000000000000000e+00 0.000000000000000000e+00 -5.864258901162230572e-03 -7.722391556445386621e-03 0.000000000000000000e+00 0.000000000000000000e+00 0.000000000000000000e+00 0.000000000000000000e+00 0.000000000000000000e+00 0.000000000000000000e+00 0.000000000000000000e+00 0.000000000000000000e+00
2.099999999999999645e+00 2.249532636680655340e-01 0.000000000000000000e+00 7.750467363319362146e-01 0.000000000000000000e+00 0.000000000000000000e+00 0.000000000000000000e+00 4.500859486067715874e-03 -8.375308224896250639e-03 0.000000000000000000e+00 0.000000000000000000e+00 0.000000000000000000e+00 0.000000000000000000e+00 0.000000000000000000e+00 0.000000000000000000e+00 0.000000000000000000e+00 0.000000000000000000e+00
2.199999999999999734e+00 2.036100553991091744e-01 0.000000000000000000e+00 7.963899446008929628e-01 0.000000000000000000e+00 0.000000000000000000e+00 0.000000000000000000e+00 1.012203283988842573e-02 -1.284857236081247966e-02 0.000000000000000000e+00 0.000000000000000000e+00 0.000000000000000000e+00 0.000000000000000000e+00 0.000000000000000000e+00 0.000000000000000000e+00 0.000000000000000000e+00 0.000000000000000000e+00
2.299999999999999822e+00 1.814111555754472360e-01 0.000000000000000000e+00 8.185888444245555950e-01 0.000000000000000000e+00 0.000000000000000000e+00 0.000000000000000000e+00 1.082702578347358863e-02 -1.792887723319092422e-02 0.000000000000000000e+00 0.000000000000000000e+00 0.000000000000000000e+00 0.000000000000000000e+00 0.000000000000000000e+00 0.000000000000000000e+00 0.000000000000000000e+00 0.000000000000000000e+00
2.399999999999999911e+00 1.592026593124709344e-01 0.000000000000000000e+00 8.407973406875289824e-01 0.000000000000000000e+00 0.000000000000000000e+00 0.000000000000000000e+00 7.962438403250225380e-03 -2.120446519763246815e-02 0.000000000000000000e+00 0.000000000000000000e+00 0.000000000000000000e+00 0.000000000000000000e+00 0.000000000000000000e+00 0.000000000000000000e+00 0.000000000000000000e+00 0.000000000000000000e+00
2.500000000000000000e+00 1.376650817929541692e-01 0.000000000000000000e+00 8.623349182070474406e-01 0.000000000000000000e+00 0.000000000000000000e+00 0.000000000000000000e+00 3.597426033356040942e-03 -2.161157203672895918e-02 0.000000000000000000e+00 0.000000000000000000e+00 0.000000000000000000e+00 0.000000000000000000e+00 0.000000000000000000e+00 0.000000000000000000e+00 0.000000000000000000e+00 0.000000000000000000e+00
2.600000000000000089e+00 1.173388193671515423e-01 0.000000000000000000e+00 8.826611806328504839e-01 0.000000000000000000e+00 0.000000000000000000e+00 0.000000000000000000e+00 -3.537966311829057720e-04 -1.939766444361200673e-02 0.000000000000000000e+00 0.000000000000000000e+00 0.000000000000000000e+00 0.000000000000000000e+00 0.000000000000000000e+00 0.000000000000000000e+00 0.000000000000000000e+00 0.000000000000000000e+00
2.699999999999999734e+00 9.863227339542011973e-02 0.000000000000000000e+00 9.013677266045836411e-01 0.000000000000000000e+00 0.000000000000000000e+00 0.000000000000000000e+00 -2.727496554309016049e-03 -1.565664522439262282e-02 0.000000000000000000e+00 0.000000000000000000e+00 0.000000000000000000e+00 0.000000000000000000e+00 0.000000000000000000e+00 0.000000000000000000e+00 0.000000000000000000e+00 0.000000000000000000e+00
2.799999999999999822e+00 8.182006442249921407e-02 0.000000000000000000e+00 9.181799355775012161e-01 0.000000000000000000e+00 0.000000000000000000e+00 0.000000000000000000e+00 -3.295566524854760121e-03 -1.165864526123216831e-02 0.000000000000000000e+00 0.000000000000000000e+00 0.000000000000000000e+00 0.000000000000000000e+00 0.000000000000000000e+00 0.000000000000000000e+00 0.000000000000000000e+00 0.000000000000000000e+00
2.899999999999999911e+00 6.704258122913747675e-02 0.000000000000000000e+00 9.329574187708653543e-01 0.000000000000000000e+00 0.000000000000000000e+00 0.000000000000000000e+00 -2.517061147839798254e-03 -8.338348717624229772e-03 0.000000000000000000e+00 0.000000000000000000e+00 0.000000000000000000e+00 0.000000000000000000e+00 0.000000000000000000e+00 0.000000000000000000e+00 0.000000000000000000e+00 0.000000000000000000e+00
3.000000000000000000e+00 5.431708885132247727e-02 0.000000000000000000e+00 9.456829111486773076e-01 0.000000000000000000e+00 0.000000000000000000e+00 0.000000000000000000e+00 -1.124424504871747660e-03 -6.058391904329635258e-03 0.000000000000000000e+00 0.000000000000000000e+00 0.000000000000000000e+00 0.000000000000000000e+00 0.000000000000000000e+00 0.000000000000000000e+00 0.000000000000000000e+00 0.000000000000000000e+00
