0.000000000000000000e+00 -2.278768495831630841e-11 -3.095435636294170709e-09 -1.000000000000000000e+00
1.271794871794871828e-01 3.047145361702240443e-03 -1.128514457116014044e-02 -9.999316190229398105e-01
2.543589743589743657e-01 6.108344964682626242e-03 -2.257192225102186076e-02 -9.997264508704385433e-01
3.815384615384615485e-01 9.172571531347022827e-03 -3.385646784686422578e-02 -9.993844532691440463e-01
5.087179487179487314e-01 1.223974418295749669e-02 -4.513976161364080530e-02 -9.989054888944778332e-01
6.358974358974358587e-01 1.531407279175759847e-02 -5.641847382458661103e-02 -9.982894991520001593e-01
7.630769230769230971e-01 1.839564587469468687e-02 -6.769404547498555913e-02 -9.975362199439379296e-01
8.902564102564103354e-01 2.148764777989155966e-02 -7.896503872229930499e-02 -9.966454240730046044e-01
1.017435897435897463e+00 2.459084594984785321e-02 -9.023146824545398570e-02 -9.956167804348959871e-01
1.144615384615384590e+00 2.770912415789875127e-02 -1.014903527958754964e-01 -9.944501077578049575e-01
1.271794871794871717e+00 3.084560991144880138e-02 -1.127427247384586162e-01 -9.931448198822578899e-01
1.398974358974359067e+00 3.400112400943530733e-02 -1.239845970153137661e-01 -9.917008884166552685e-01
1.526153846153846194e+00 3.718312795315419084e-02 -1.352160113149669940e-01 -9.901175966598647626e-01
1.653333333333333321e+00 4.039340707273609415e-02 -1.464312746498589168e-01 -9.883951455995761970e-01
1.780512820512820671e+00 4.363742420822262769e-02 -1.576315609679782015e-01 -9.865326527735137629e-01
1.907692307692307798e+00 4.691610796295844765e-02 -1.688104396244583250e-01 -9.845305586651704743e-01
2.034871794871794926e+00 5.023473140108237339e-02 -1.799657106363898584e-01 -9.823885273160929410e-01
2.162051282051282275e+00 5.359806332107022731e-02 -1.910860538955099774e-01 -9.801079875473852621e-01
2.289230769230769180e+00 5.700954289334132785e-02 -2.021743856535714312e-01 -9.776878975695535434e-01
2.416410256410256530e+00 6.046941976631040050e-02 -2.132225366052434568e-01 -9.751295756487636801e-01
2.543589743589743435e+00 6.398106557817724582e-02 -2.242207063204273432e-01 -9.724348215000618856e-01
2.670769230769230784e+00 6.755044176021660074e-02 -2.351651123864990645e-01 -9.696041380801296850e-01
2.797948717948718134e+00 7.117573994170350860e-02 -2.460505974377467375e-01 -9.666389642410795346e-01
2.925128205128205039e+00 7.485561862420853085e-02 -2.568670524770134689e-01 -9.635422223518492757e-01
3.052307692307692388e+00 7.859426164671359794e-02 -2.676074390302665140e-01 -9.603159652164223736e-01
3.179487179487179738e+00 8.239037384497716054e-02 -2.782711957863336361e-01 -9.569610284907746900e-01
3.306666666666666643e+00 8.624544138088641176e-02 -2.888435739208334851e-01 -9.534822735995550635e-01
3.433846153846153992e+00 9.015611087319526373e-02 -2.993242171216140002e-01 -9.498811031334110089e-01
3.561025641025641342e+00 9.412154705993003301e-02 -3.097006535571760755e-01 -9.461626440582118214e-01
3.688205128205128247e+00 9.813514665769638989e-02 -3.199755712539027463e-01 -9.423280348342631951e-01
3.815384615384615596e+00 1.022055816469521067e-01 -3.301373476150644137e-01 -9.383817125983647811e-01
3.942564102564102502e+00 1.063200020951513003e-01 -3.401784259648301667e-01 -9.343294229659879768e-01
4.069743589743589851e+00 1.104821046837933529e-01 -3.501025034410525372e-01 -9.301712777317999725e-01
4.196923076923076756e+00 1.146833104168672457e-01 -3.598981108125355322e-01 -9.259144888042294408e-01
4.324102564102564550e+00 1.189229439486702011e-01 -3.695672962262804839e-01 -9.215605173999170674e-01
4.451282051282051455e+00 1.231996739494338466e-01 -3.790980822390211946e-01 -9.171165761082278323e-01
4.578461538461538360e+00 1.275029688921079096e-01 -3.884962101493886766e-01 -9.125841909265430818e-01
4.705641025641026154e+00 1.318401889085106804e-01 -3.977570282577120864e-01 -9.079667493766525599e-01
4.832820512820513059e+00 1.361977855146002947e-01 -4.068738764291019994e-01 -9.032717247924780812e-01
4.959999999999999964e+00 1.405783926446517729e-01 -4.158488404273649186e-01 -8.985006085871788395e-01
