0.000000000000000000e+00 2.883890730448161700e-09 8.817645292484623452e-11 -1.000000000000000000e+00
1.271794871794871828e-01 5.131560532348109632e-02 2.438577879771133827e-02 -9.983842731105403434e-01
2.543589743589743657e-01 9.892188336086592260e-02 5.479992263215574533e-02 -9.935842825690262003e-01
3.815384615384615485e-01 1.381030434760350811e-01 9.619190313176040341e-02 -9.857343084584230253e-01
5.087179487179487314e-01 1.624832872347110047e-01 1.513063646155309583e-01 -9.750395759182316491e-01
6.358974358974358587e-01 1.641164460478563292e-01 2.192870317093832400e-01 -9.617560794800026347e-01
7.630769230769230971e-01 1.345974215045607492e-01 2.943344004094799460e-01 -9.461742340517894645e-01
8.902564102564103354e-01 6.730168313431532379e-02 3.648894361696269906e-01 -9.286119779479364844e-01
1.017435897435897463e+00 -3.941455699318338612e-02 4.140405936927508690e-01 -9.094009277481318598e-01
1.144615384615384590e+00 -1.788123639225986938e-01 4.218155148810780464e-01 -8.888701572307672327e-01
1.271794871794871717e+00 -3.333159299203657944e-01 3.696380881733697943e-01 -8.673290824630341955e-01
1.398974358974359067e+00 -4.744425016755597913e-01 2.465764690523712943e-01 -8.450415117133707188e-01
1.526153846153846194e+00 -5.663974725246400110e-01 5.597673608037712079e-02 -8.222229293209121215e-01
1.653333333333333321e+00 -5.737644377904116411e-01 -1.797389277462355384e-01 -7.990479381236591516e-01
1.780512820512820671e+00 -4.722749195721958615e-01 -4.186631261974275153e-01 -7.756714632843096924e-01
1.907692307692307798e+00 -2.600247353702764830e-01 -6.053852906914419796e-01 -7.522524689179560520e-01
2.034871794871794926e+00 3.479130144247094547e-02 -6.836617872920343064e-01 -7.289605852752024662e-01
2.162051282051282275e+00 3.537145394071699589e-01 -6.135987255254590211e-01 -7.059528891415275398e-01
2.289230769230769180e+00 6.180742072783755869e-01 -3.886095682351878855e-01 -6.833397575756584574e-01
2.416410256410256530e+00 7.488334956555080524e-01 -4.585569365307973211e-02 -6.611591590191435719e-01
2.543589743589743435e+00 6.918035178305934618e-01 3.355209677450002315e-01 -6.393894765160695881e-01
2.670769230769230784e+00 4.405439806182276929e-01 6.511673769919538168e-01 -6.179700390479532235e-01
2.797948717948718134e+00 4.779292876313491478e-02 8.009046791125973286e-01 -5.968684853833980952e-01
2.925128205128205039e+00 -3.814668940027097221e-01 7.228656113409519524e-01 -5.761357286930701704e-01
3.052307692307692388e+00 -7.168868143701248030e-01 4.207781187113737165e-01 -5.558802112864162925e-01
3.179487179487179738e+00 -8.436159792679086555e-01 -2.733439347872738956e-02 -5.362353120253811056e-01
3.306666666666666643e+00 -7.044811990219996822e-01 -4.859073396690758995e-01 -5.172846352920228430e-01
3.433846153846153992e+00 -3.276481910931055008e-01 -8.022616675600540148e-01 -4.990046696333635401e-01
3.561025641025641342e+00 1.732401638479181549e-01 -8.592781929039459143e-01 -4.812601612924277128e-01
3.688205128205128247e+00 6.308957700120197964e-01 -6.219142791011815774e-01 -4.638700321442201790e-01
3.815384615384615596e+00 8.805098117677847558e-01 -1.585468465792607695e-01 -4.467072315720790887e-01
3.942564102564102502e+00 8.215199829729895598e-01 3.746786080877698710e-01 -4.297704399842501855e-01
4.069743589743589851e+00 4.613426345816880048e-01 7.851161715690483378e-01 -4.132035620637819484e-01
4.196923076923076756e+00 -7.852409139698932061e-02 9.143550034982107499e-01 -3.972030555338497138e-01
4.324102564102564550e+00 -6.007949552300476670e-01 7.022585964173932993e-01 -3.819155778002251145e-01
4.451282051282051455e+00 -9.042590908300618402e-01 2.176111334695139676e-01 -3.673444582743584652e-01
4.578461538461538360e+00 -8.632759901052213802e-01 -3.604439564652358041e-01 -3.532925662594453287e-01
4.705641025641026154e+00 -4.828595292771455938e-01 -8.071964293785172107e-01 -3.395016131440282137e-01
4.832820512820513059e+00 9.559737131939458066e-02 -9.405991062431590111e-01 -3.257530534725366356e-01
4.959999999999999964e+00 6.444995250386171826e-01 -6.980320604515876104e-01 -3.120129651630065282e-01
