0.000000000000000000e+00 3.262188104978863899e-09 2.645473741813817327e-09 -1.000000000000000000e+00
1.271794871794871828e-01 2.929934809811363672e-01 5.950608516686228810e-02 -9.542595450137383306e-01
2.543589743589743657e-01 5.387329075237906606e-01 1.684773879901645399e-01 -8.254555128525079555e-01
3.815384615384615485e-01 6.863396244101462873e-01 3.526946873925703718e-01 -6.360316326419038768e-01
5.087179487179487314e-01 6.867044207577346349e-01 5.965891185529699214e-01 -4.153411923552372542e-01
6.358974358974358587e-01 5.101681550754579852e-01 8.384987975977190588e-01 -1.914078351633512198e-01
7.630769230769230971e-01 1.706885899925699168e-01 9.852023469028916569e-01 1.517242051608763513e-02
8.902564102564103354e-01 -2.576053895395604143e-01 9.466904255710610894e-01 1.934049308870076644e-01
1.017435897435897463e+00 -6.474666955376623401e-01 6.817635469567074891e-01 3.405506809761913445e-01
1.144615384615384590e+00 -8.569886376299357122e-01 2.342690576309078287e-01 4.589974506625411066e-01
1.271794871794871717e+00 -7.902921493299818190e-01 -2.634057529894552330e-01 5.532149278400914083e-01
1.398974358974359067e+00 -4.534660015426038027e-01 -6.325744698112232278e-01 6.278613983720685576e-01
1.526153846153846194e+00 2.812731531277484764e-02 -7.260664338204011470e-01 6.870435620479692362e-01
1.653333333333333321e+00 4.520224640676570593e-01 -5.065976193907025804e-01 7.341850292486041818e-01
1.780512820512820671e+00 6.304153553652666053e-01 -8.054654197917732183e-02 7.720637409380839422e-01
1.907692307692307798e+00 4.885413079990536533e-01 3.417699874342591260e-01 8.028168434695652778e-01
2.034871794871794926e+00 1.130112290582775403e-01 5.492114553774447572e-01 8.280035365460963748e-01
2.162051282051282275e+00 -2.863405828253249852e-01 4.445303009520635840e-01 8.487619690419043739e-01
2.289230769230769180e+00 -4.893304762550552134e-01 1.030672490042874589e-01 8.659839163017624131e-01
2.416410256410256530e+00 -3.920775745383716648e-01 -2.667173589232273434e-01 8.804161775036338788e-01
2.543589743589743435e+00 -6.995937578276961721e-02 -4.452732689362657315e-01 8.926551885590998658e-01
2.670769230769230784e+00 2.677826169288671787e-01 -3.356230146889616073e-01 9.031310875983319386e-01
2.797948717948718134e+00 4.092288104793644909e-01 -2.344348261919643184e-02 9.121285546352546625e-01
2.925128205128205039e+00 2.752918890202852853e-01 2.793884772156070562e-01 9.198657203321966014e-01
3.052307692307692388e+00 -3.035728352251232387e-02 3.749252463505155508e-01 9.265560763341049721e-01
3.179487179487179738e+00 -2.934488007027089007e-01 2.109384481685571966e-01 9.324106291027318694e-01
3.306666666666666643e+00 -3.368207080066472070e-01 -8.638139104178069183e-02 9.375964175482538465e-01
3.433846153846153992e+00 -1.421373205689064056e-01 -3.033854672969128474e-01 9.422055616492235330e-01
3.561025641025641342e+00 1.407587897448985825e-01 -2.910849705130494347e-01 9.462841472542637966e-01
3.688205128205128247e+00 3.046709882193628371e-01 -6.993526335918381909e-02 9.498852281094880556e-01
3.815384615384615596e+00 2.363859046832727795e-01 1.890432500044791075e-01 9.530906365033711136e-01
3.942564102564102502e+00 -2.654696753573271284e-03 2.933793910199620214e-01 9.559910973122925926e-01
4.069743589743589851e+00 -2.263346216367339014e-01 1.725475084041507845e-01 9.586436089808620942e-01
4.196923076923076756e+00 -2.667544390992114267e-01 -7.216978555483058444e-02 9.610573533345163622e-01
4.324102564102564550e+00 -1.011939841337195223e-01 -2.488961092753185778e-01 9.632280248781709409e-01
4.451282051282051455e+00 1.341410759879557157e-01 -2.245912768952560423e-01 9.651749700603846627e-01
4.578461538461538360e+00 2.535856875096835772e-01 -2.652839123814337841e-02 9.669479785225790769e-01
4.705641025641026154e+00 1.682634883932924985e-01 1.830365994025251741e-01 9.685984204202533476e-01
4.832820512820513059e+00 -4.631626632466248616e-02 2.380679256365407781e-01 9.701424703528375160e-01
4.959999999999999964e+00 -2.143004751258480167e-01 1.006652749216334075e-01 9.715656539381917201e-01
