0.000000000000000000e+00 -1.453082399772635192e-09 -1.453176628869659163e-09 -1.000000000000000000e+00
1.271794871794871828e-01 1.101209149048118646e-01 2.774652338799380447e-01 -9.544013715899406503e-01
2.543589743589743657e-01 2.175812477711372150e-01 5.173860161849883621e-01 -8.276235689579422017e-01
3.815384615384615485e-01 3.195466977541195908e-01 6.930646892628608002e-01 -6.461713388536439728e-01
5.087179487179487314e-01 4.128902143723072182e-01 7.952535555759594477e-01 -4.439327377694177734e-01
6.358974358974358587e-01 4.944257137388899936e-01 8.320595985189787047e-01 -2.513979853872615466e-01
7.630769230769230971e-01 5.614195376738733145e-01 8.228740541052528279e-01 -8.755866850783827759e-02
8.902564102564103354e-01 6.123221149107418437e-01 7.894464422103092405e-01 4.261439376695867060e-02
1.017435897435897463e+00 6.474224305836968618e-01 7.481997782220077831e-01 1.449882877843698403e-01
1.144615384615384590e+00 6.691148699689454249e-01 7.067399997145240587e-01 2.297490397159247799e-01
1.271794871794871717e+00 6.814922437462634930e-01 6.651987602967213142e-01 3.050578059730900682e-01
1.398974358974359067e+00 6.892454169051434043e-01 6.206766445629562368e-01 3.737422155821198966e-01
1.526153846153846194e+00 6.962269757269843318e-01 5.717790187814609792e-01 4.339578968931590008e-01
1.653333333333333321e+00 7.042512595406347220e-01 5.208004765317423290e-01 4.824731925322601755e-01
1.780512820512820671e+00 7.127102286847171175e-01 4.726850706356108267e-01 5.182632931080999317e-01
1.907692307692307798e+00 7.192726953582497806e-01 4.319850081458682656e-01 5.440772396564447222e-01
2.034871794871794926e+00 7.213864089618050590e-01 3.999280770920218830e-01 5.653705312845210829e-01
2.162051282051282275e+00 7.178911285309328427e-01 3.736058530684202017e-01 5.873976755229336488e-01
2.289230769230769180e+00 7.098900357235760072e-01 3.477042987311003142e-01 6.124894760637838997e-01
2.416410256410256530e+00 7.004020234452467131e-01 3.177428447803983813e-01 6.391107173047434475e-01
2.543589743589743435e+00 6.929151680232371602e-01 2.827820980314957877e-01 6.632415557192019584e-01
2.670769230769230784e+00 6.895741177867470428e-01 2.459912952020407162e-01 6.811480878201694455e-01
2.797948717948718134e+00 6.900029977534547498e-01 2.127103013561102429e-01 6.918361924741701641e-01
2.925128205128205039e+00 6.914567776837886592e-01 1.872100251820959516e-01 6.977300249474898131e-01
3.052307692307692388e+00 6.902794472590079167e-01 1.700392405960735598e-01 7.032697462637929053e-01
3.179487179487179738e+00 6.839577663192221157e-01 1.575865753384601831e-01 7.122891588388494677e-01
3.306666666666666643e+00 6.725982665334906407e-01 1.441027674175864304e-01 7.258332312475868076e-01
3.433846153846153992e+00 6.589997322050771267e-01 1.250056174042568080e-01 7.416746281141828323e-01
3.561025641025641342e+00 6.472196321359757754e-01 9.953975882232651839e-02 7.557693036102441919e-01
3.688205128205128247e+00 6.403501170648646657e-01 7.122935059784141210e-02 7.647659810258966573e-01
3.815384615384615596e+00 6.387570279724229527e-01 4.582939473030517297e-02 7.680352242220006564e-01
3.942564102564102502e+00 6.397902535571884375e-01 2.796984485669623544e-02 7.680332637272864194e-01
4.069743589743589851e+00 6.391825464120983735e-01 1.840896461113777915e-02 7.688275330655528483e-01
4.196923076923076756e+00 6.334238858832578201e-01 1.354411925947418549e-02 7.736794362964443117e-01
4.324102564102564550e+00 6.217849449997511213e-01 7.428136110287308913e-03 7.831460194322056312e-01
4.451282051282051455e+00 6.068181880474358136e-01 -4.850597500549225227e-03 7.948193909500009813e-01
4.578461538461538360e+00 5.930237991884130810e-01 -2.433552323706822396e-02 8.048108720891418155e-01
4.705641025641026154e+00 5.843457190973982973e-01 -4.759651057859887180e-02 8.101017176720761714e-01
4.832820512820513059e+00 5.819248570184764047e-01 -6.869030380354840259e-02 8.103303326948981811e-01
4.959999999999999964e+00 5.833791670023829035e-01 -8.257623523195128934e-02 8.079851464730366528e-01
