0.000000000000000000e+00 -2.294161243842240719e-09 4.267439958096121116e-09 -1.000000000000000000e+00
1.271794871794871828e-01 2.044876273910985198e-02 -3.719624136746715881e-03 -9.997837411786674178e-01
2.543589743589743657e-01 4.132246037083849022e-02 -4.876995354534705701e-03 -9.991335055529032561e-01
3.815384615384615485e-01 6.253272898116005174e-02 -1.043102629405816273e-03 -9.980417059546662362e-01
5.087179487179487314e-01 8.312171340368586236e-02 9.980999050371284348e-03 -9.964885434516340679e-01
6.358974358974358587e-01 1.009849367939272269e-01 2.981517985257549699e-02 -9.944400039176498618e-01
7.630769230769230971e-01 1.128383936883821936e-01 5.901028949392962686e-02 -9.918581867227438398e-01
8.902564102564103354e-01 1.145319641208388389e-01 9.647728291589313665e-02 -9.887221466301407968e-01
1.017435897435897463e+00 1.017301895983781235e-01 1.389789762700058828e-01 -9.850544452741425427e-01
1.144615384615384590e+00 7.095557726151541234e-02 1.808925967373188615e-01 -9.809378939955251120e-01
1.271794871794871717e+00 2.088613341003452140e-02 2.144536323166595648e-01 -9.765085379017457434e-01
1.398974358974359067e+00 -4.641614131919362396e-02 2.306718896637486582e-01 -9.719213452081508775e-01
1.526153846153846194e+00 -1.246186464694434282e-01 2.209164790668618206e-01 -9.672955945710425274e-01
1.653333333333333321e+00 -2.030433378026516023e-01 1.790363472254648813e-01 -9.626596810422921591e-01
1.780512820512820671e+00 -2.676566917803465673e-01 1.035984851948106300e-01 -9.579254392597670309e-01
1.907692307692307798e+00 -3.032531904772761133e-01 -2.905055216653740224e-04 -9.529065695188798646e-01
2.034871794871794926e+00 -2.966254991831794863e-01 -1.202478161739254647e-01 -9.473895062113214527e-01
2.162051282051282275e+00 -2.401744388255747653e-01 -2.374705310310918915e-01 -9.412314653773052875e-01
2.289230769230769180e+00 -1.351080890845983151e-01 -3.294410176782999744e-01 -9.344552686413014619e-01
2.416410256410256530e+00 6.719990288382979293e-03 -3.742684649920027806e-01 -9.272916058698744690e-01
2.543589743589743435e+00 1.632118742670147782e-01 -3.559201914827315183e-01 -9.201489121051595887e-01
2.670769230769230784e+00 3.050413086293087828e-01 -2.692052616603088366e-01 -9.134928869011161856e-01
2.797948717948718134e+00 4.011723026796479852e-01 -1.230869305262821956e-01 -9.076899156548088321e-01
2.925128205128205039e+00 4.259037782858601240e-01 5.886790319555620932e-02 -9.028459705348285125e-01
3.052307692307692388e+00 3.659000623792725282e-01 2.416473202030462453e-01 -8.987289935956117581e-01
3.179487179487179738e+00 2.253616612692108667e-01 3.854007479826003779e-01 -8.948006804593996444e-01
3.306666666666666643e+00 2.760246010361427915e-02 4.543733865697229257e-01 -8.903777759545374870e-01
3.433846153846153992e+00 -1.880039277836352551e-01 4.262201184951713295e-01 -8.848617295498285573e-01
3.561025641025641342e+00 -3.736311967786971611e-01 2.992144320140996405e-01 -8.779860168987630997e-01
3.688205128205128247e+00 -4.838430492143647732e-01 9.520478192696971154e-02 -8.699543343965194797e-01
3.815384615384615596e+00 -4.872584961988724594e-01 -1.431940431762431243e-01 -8.614306640334862264e-01
3.942564102564102502e+00 -3.759648347190926443e-01 -3.611372125474672234e-01 -8.533569896244244113e-01
4.069743589743589851e+00 -1.698946793450411274e-01 -5.043070373453503175e-01 -8.466390620088496410e-01
4.196923076923076756e+00 8.567041791708354670e-02 -5.329074872204406788e-01 -8.418179418383575641e-01
4.324102564102564550e+00 3.295664767922567018e-01 -4.332655374854144092e-01 -8.388408835818617071e-01
4.451282051282051455e+00 4.993975064095887428e-01 -2.236240693914066657e-01 -8.370074310989688016e-01
4.578461538461538360e+00 5.478556316071779841e-01 4.814633965599973697e-02 -8.351784904933409193e-01
4.705641025641026154e+00 4.564222561597722216e-01 3.149961360486885908e-01 -8.321315838431462275e-01
4.832820512820513059e+00 2.423569073679222585e-01 5.072651650335584517e-01 -8.270016834192135402e-01
4.959999999999999964e+00 -4.350823739972703441e-02 5.712423220116608080e-01 -8.196191343542109653e-01
