0.000000000000000000e+00 2.562616904137303719e-09 -8.818891514061192357e-11 -1.000000000000000000e+00
1.271794871794871828e-01 -1.136805766740043300e-01 5.891395197243422255e-02 -9.917686257293004681e-01
2.543589743589743657e-01 -2.241542294584461803e-01 1.167912361638204222e-01 -9.675292942408577623e-01
3.815384615384615485e-01 -3.285019463870020862e-01 1.726890244452579104e-01 -9.285807855103798136e-01
5.087179487179487314e-01 -4.243460036600001373e-01 2.258077057396837006e-01 -8.768909201418501054e-01
6.358974358974358587e-01 -5.099918673421671711e-01 2.755360820444088255e-01 -8.148518602760642660e-01
7.630769230769230971e-01 -5.844626363531911784e-01 3.214680455332585285e-01 -7.450209497911293166e-01
8.902564102564103354e-01 -6.474378134799690931e-01 3.633968227577646370e-01 -6.698960315019868439e-01
1.017435897435897463e+00 -6.991444088950820035e-01 4.012783671273885133e-01 -5.917479991397588401e-01
1.144615384615384590e+00 -7.402028197417691580e-01 4.352114109066104741e-01 -5.125262053369289417e-01
1.271794871794871717e+00 -7.715067641319400815e-01 4.653841846737003518e-01 -4.338048581997513975e-01
1.398974358974359067e+00 -7.940901713287170649e-01 4.920456473571930278e-01 -3.567957967062881930e-01
1.526153846153846194e+00 -8.090262211839972517e-01 5.154825871420434247e-01 -2.823921341181184208e-01
1.653333333333333321e+00 -8.173770691762218821e-01 5.359875619357726828e-01 -2.111939119975191348e-01
1.780512820512820671e+00 -8.201340086328918755e-01 5.538555558785630550e-01 -1.435788263200671322e-01
1.907692307692307798e+00 -8.182062135003496106e-01 5.693601818035919360e-01 -7.973786578716519913e-02
2.034871794871794926e+00 -8.123997181295188330e-01 5.827589912379128601e-01 -1.972735060277324912e-02
2.162051282051282275e+00 -8.034182602737842682e-01 5.942876517500126354e-01 3.649392092973884061e-02
2.289230769230769180e+00 -7.918694448097256533e-01 6.041583811450361718e-01 8.902806629189628784e-02
2.416410256410256530e+00 -7.782716834040064313e-01 6.125600949639490311e-01 1.380360582044239115e-01
2.543589743589743435e+00 -7.630631641187448633e-01 6.196598416275369559e-01 1.837036448732174976e-01
2.670769230769230784e+00 -7.466100260355229556e-01 6.256075841281907302e-01 2.262287955851270960e-01
2.797948717948718134e+00 -7.292226599823157240e-01 6.305317801282760426e-01 2.658100202743464702e-01
2.925128205128205039e+00 -7.111533775669772739e-01 6.345449984666062804e-01 3.026625818309315319e-01
3.052307692307692388e+00 -6.926157305725235691e-01 6.377526005142217791e-01 3.369663706654077440e-01
3.179487179487179738e+00 -6.737785561074554064e-01 6.402403861463997758e-01 3.689256355107650709e-01
3.306666666666666643e+00 -6.547864952695469087e-01 6.420860262271619323e-01 3.987126326223311423e-01
3.433846153846153992e+00 -6.357542764227273047e-01 6.433571207301672645e-01 4.264971860307873452e-01
3.561025641025641342e+00 -6.167767572609481608e-01 6.441134834664976605e-01 4.524335842285699960e-01
3.688205128205128247e+00 -5.979265132607809452e-01 6.444129405095353480e-01 4.766632913036970565e-01
3.815384615384615596e+00 -5.792649457619482023e-01 6.442971093201981247e-01 4.993251032378225318e-01
3.942564102564102502e+00 -5.608405178023035953e-01 6.438111974008696725e-01 5.205357048640993911e-01
4.069743589743589851e+00 -5.426910842426305726e-01 6.429889978531464489e-01 5.404109994254915339e-01
4.196923076923076756e+00 -5.248453511475946742e-01 6.418638437901933447e-01 5.590535115144710243e-01
4.324102564102564550e+00 -5.073241140693551809e-01 6.404674908688003931e-01 5.765556688120478945e-01
4.451282051282051455e+00 -4.901428856608285867e-01 6.388240048278197580e-01 5.930065697394809598e-01
4.578461538461538360e+00 -4.733128847067762379e-01 6.369606360665066580e-01 6.084810091097095919e-01
4.705641025641026154e+00 -4.568439271837791971e-01 6.348912502959070947e-01 6.230569356713666629e-01
4.832820512820513059e+00 -4.407390642710436457e-01 6.326389579403942642e-01 6.367969571000773321e-01
4.959999999999999964e+00 -4.249965594782676437e-01 6.302216171710581794e-01 6.497631165446884349e-01
