0.000000000000000000e+00 -3.462932600222785542e-09 2.292922846087974670e-09 -1.000000000000000000e+00
1.271794871794871828e-01 1.759988444120663964e-01 -1.942163863504306476e-02 -9.841971621033254181e-01
2.543589743589743657e-01 3.375943677033695356e-01 -1.523976627066900291e-02 -9.411649515529173504e-01
3.815384615384615485e-01 4.690468010734962223e-01 2.969556544477378046e-02 -8.826686673230635938e-01
5.087179487179487314e-01 5.532051247122037330e-01 1.210775348578589927e-01 -8.241921164191216009e-01
6.358974358974358587e-01 5.733331472688683039e-01 2.504863156274012015e-01 -7.800849104121070354e-01
7.630769230769230971e-01 5.168462492601749725e-01 3.958804955932206937e-01 -7.590353465132755328e-01
8.902564102564103354e-01 3.800863726878391247e-01 5.253507224065748771e-01 -7.612667763939804377e-01
1.017435897435897463e+00 1.725885158783200257e-01 6.035835607068411601e-01 -7.783873041813628157e-01
1.144615384615384590e+00 -8.083663110769329085e-02 5.999011285710473818e-01 -7.959719762253035791e-01
1.271794871794871717e+00 -3.415651669874249508e-01 4.962525443391108126e-01 -7.981566438237510663e-01
1.398974358974359067e+00 -5.626707120892682212e-01 2.933389017004371935e-01 -7.728780507740331540e-01
1.526153846153846194e+00 -6.978239751656458711e-01 1.327479500294453940e-02 -7.161356351084147143e-01
1.653333333333333321e+00 -7.118434403421073364e-01 -3.022913839606571895e-01 -6.339411844124376305e-01
1.780512820512820671e+00 -5.903872094456138475e-01 -5.987386594914940741e-01 -5.412351365844759732e-01
1.907692307692307798e+00 -3.461030220247162115e-01 -8.188016920313877511e-01 -4.579906999970756454e-01
2.034871794871794926e+00 -1.916884475254385101e-02 -9.147557612109699088e-01 -4.035252283193324629e-01
2.162051282051282275e+00 3.286558585687840983e-01 -8.598449155274117128e-01 -3.906789200625711000e-01
2.289230769230769180e+00 6.257821235153415707e-01 -6.562418904746386561e-01 -4.215705456096719428e-01
2.416410256410256530e+00 8.060761290440138227e-01 -3.372892054725666888e-01 -4.862681748622585398e-01
2.543589743589743435e+00 8.242994497972695456e-01 3.710273005221215170e-02 -5.649201831949457464e-01
2.670769230769230784e+00 6.679660963934678231e-01 3.915171156192383539e-01 -6.328650677377425371e-01
2.797948717948718134e+00 3.624446201098303622e-01 6.505612770886056717e-01 -6.673734630244462229e-01
2.925128205128205039e+00 -3.244124799738823395e-02 7.556508461855837577e-01 -6.541578133337710987e-01
3.052307692307692388e+00 -4.341496408830604614e-01 6.792019991842771498e-01 -5.917603587125389586e-01
3.179487179487179738e+00 -7.551374014647411759e-01 4.326652693390109494e-01 -4.924914781982456247e-01
3.306666666666666643e+00 -9.228147154097587901e-01 6.604683958201662541e-02 -3.795110371346270273e-01
3.433846153846153992e+00 -8.969355430435930199e-01 -3.415513508616333516e-01 -2.807596373371219478e-01
3.561025641025641342e+00 -6.802185784596548324e-01 -6.987782136406996969e-01 -2.213319730787754458e-01
3.688205128205128247e+00 -3.192802788173103590e-01 -9.226124323756107470e-01 -2.163850917234423632e-01
3.815384615384615596e+00 1.048168864761895025e-01 -9.580712775014630367e-01 -2.666259100696595219e-01
3.942564102564102502e+00 4.944893467421827005e-01 -7.921678995354176633e-01 -3.576700109901873592e-01
4.069743589743589851e+00 7.581607183028610253e-01 -4.585307754846761896e-01 -4.635956442871419503e-01
4.196923076923076756e+00 8.320500783524018562e-01 -3.105346659464036652e-02 -5.538132466974882151e-01
4.324102564102564550e+00 6.959799953297687303e-01 3.923458791646247112e-01 -6.013803810678322037e-01
4.451282051282051455e+00 3.791698641802116465e-01 7.123717931616255772e-01 -5.905405936023815361e-01
4.578461538461538360e+00 -4.569199232802136079e-02 8.521266025761951024e-01 -5.213181540554044924e-01
4.705641025641026154e+00 -4.790162430135989080e-01 7.762382289968282612e-01 -4.098486176734235098e-01
4.832820512820513059e+00 -8.177273470580310732e-01 5.004929615348681082e-01 -2.842630435247177068e-01
4.959999999999999964e+00 -9.801165984917907803e-01 8.923189971537609511e-02 -1.771579711122572565e-01
