0.000000000000000000e+00 2.736070069735801557e-09 -1.074419896436720437e-09 -1.000000000000000000e+00
1.271794871794871828e-01 3.053172138155071380e-01 1.891509427734325843e-01 -9.332715360900853963e-01
2.543589743589743657e-01 5.741775009147165321e-01 3.281386695164655309e-01 -7.500862423418274139e-01
3.815384615384615485e-01 7.797225349479742773e-01 3.819135492011626609e-01 -4.961372113116293558e-01
5.087179487179487314e-01 9.110984348504096442e-01 3.408954274107678928e-01 -2.316537231026412624e-01
6.358974358974358587e-01 9.747137434294095293e-01 2.230103769306759909e-01 -1.311337886085395948e-02
7.630769230769230971e-01 9.901052414254211120e-01 6.702403966199665941e-02 1.231753028557817514e-01
8.902564102564103354e-01 9.820807610755774020e-01 -8.054573727785374615e-02 1.703020678330105508e-01
1.017435897435897463e+00 9.720463749000649578e-01 -1.805104429159896107e-01 1.500491049824779488e-01
1.144615384615384590e+00 9.715833915856744163e-01 -2.131022863111564081e-01 1.028873415904767857e-01
1.271794871794871717e+00 9.803944379726685643e-01 -1.831701143970144163e-01 7.244329267090067470e-02
1.398974358974359067e+00 9.890384530294011878e-01 -1.169771862755022984e-01 8.995501041897144279e-02
1.526153846153846194e+00 9.850713414439616900e-01 -5.194261616673145898e-02 1.640408739235406921e-01
1.653333333333333321e+00 9.599743475339791443e-01 -2.300676565768267068e-02 2.790948172594331367e-01
1.780512820512820671e+00 9.140378977849364928e-01 -5.037951741379922965e-02 4.024577754869220203e-01
1.907692307692307798e+00 8.572412960111147617e-01 -1.328160688009309975e-01 4.974682027351973734e-01
2.034871794871794926e+00 8.057957268997110178e-01 -2.485948026421112012e-01 5.374682133196888589e-01
2.162051282051282275e+00 7.757450928646187904e-01 -3.636732230481534711e-01 5.156928107879559242e-01
2.289230769230769180e+00 7.762105699188952546e-01 -4.440156949097673333e-01 4.475752651723112763e-01
2.416410256410256530e+00 8.050701768832189131e-01 -4.677116676504319837e-01 3.648052516476510965e-01
2.543589743589743435e+00 8.489217628935263882e-01 -4.326462812577336337e-01 3.035181962481836027e-01
2.670769230769230784e+00 8.875600933769501877e-01 -3.570989271303885992e-01 2.910181304213865228e-01
2.797948717948718134e+00 9.013939595646827119e-01 -2.731565796532053891e-01 3.359301676488891109e-01
2.925128205128205039e+00 8.790462714959971224e-01 -2.153372208984236369e-01 4.253040629399183481e-01
3.052307692307692388e+00 8.221893406880049771e-01 -2.084455041359177252e-01 5.296538388684778331e-01
3.179487179487179738e+00 7.456240820521076174e-01 -2.589601919752587689e-01 6.139742650938033730e-01
3.306666666666666643e+00 6.723860407182828958e-01 -3.529058227574158879e-01 6.506424052628109189e-01
3.433846153846153992e+00 6.254972514867739308e-01 -4.609262773329273477e-01 6.295082373502143280e-01
3.561025641025641342e+00 6.193877082174585880e-01 -5.487166468979373102e-01 5.614691972885884619e-01
3.688205128205128247e+00 6.541655838571323045e-01 -5.891015806393843368e-01 4.743454571781077767e-01
3.815384615384615596e+00 7.150071817601326707e-01 -5.715433910687296448e-01 4.025897590651258962e-01
3.942564102564102502e+00 7.770614476757542466e-01 -5.057412310231457209e-01 3.746685500743752728e-01
4.069743589743589851e+00 8.142348752677203150e-01 -4.181225375813911738e-01 4.027042941634269013e-01
4.196923076923076756e+00 8.087222241471185846e-01 -3.424771447734417662e-01 4.781785729023507736e-01
4.324102564102564550e+00 7.577920536820719200e-01 -3.080694928235084840e-01 5.751725535368563680e-01
4.451282051282051455e+00 6.752318102880650041e-01 -3.294179336739865849e-01 6.599447991738037755e-01
4.578461538461538360e+00 5.867794805914506862e-01 -4.012827234229578433e-01 7.033097707753868111e-01
4.705641025641026154e+00 5.210682075582797612e-01 -5.006302382878471402e-01 6.912593798555763946e-01
4.832820512820513059e+00 4.992671032807155518e-01 -5.948144103278181216e-01 6.300068704747445736e-01
4.959999999999999964e+00 5.271893617663367948e-01 -6.530838924445911964e-01 5.436277653240081387e-01
