0.000000000000000000e+00 2.296750799891562206e-09 -1.835261827016966488e-09 -1.000000000000000000e+00
1.271794871794871828e-01 1.692871040459088539e-01 -5.316371107322341583e-02 -9.841300726122479414e-01
2.543589743589743657e-01 3.234975976515886975e-01 -1.074002005924015596e-01 -9.401103310289463666e-01
3.815384615384615485e-01 4.513191339607328101e-01 -1.622494235752487690e-01 -8.774825519374663818e-01
5.087179487179487314e-01 5.478501434902370848e-01 -2.148386172709610964e-01 -8.085116205488156460e-01
6.358974358974358587e-01 6.151746495609791143e-01 -2.603553997246857987e-01 -7.441500532394731415e-01
7.630769230769230971e-01 6.608464010199368577e-01 -2.936472172150367266e-01 -6.906777151932257386e-01
8.902564102564103354e-01 6.948608097381037130e-01 -3.113559064716439617e-01 -6.482338121049214807e-01
1.017435897435897463e+00 7.261948981095052158e-01 -3.137084817462549857e-01 -6.117255098268599145e-01
1.144615384615384590e+00 7.601014032065187553e-01 -3.051207505348240701e-01 -5.736953741601534817e-01
1.271794871794871717e+00 7.969999792198870781e-01 -2.932363791525720020e-01 -5.279977487381086743e-01
1.398974358974359067e+00 8.332448780722996329e-01 -2.865927415597194772e-01 -4.728050559916285867e-01
1.526153846153846194e+00 8.633250555592830722e-01 -2.917074717949389995e-01 -4.117676165852997561e-01
1.653333333333333321e+00 8.825935486406392139e-01 -3.106627537216221091e-01 -3.528347526817076640e-01
1.780512820512820671e+00 8.894541241346363147e-01 -3.401424779789787856e-01 -3.052030915186832449e-01
1.907692307692307798e+00 8.862132229857180299e-01 -3.723884290239495853e-01 -2.755487659890857866e-01
2.034871794871794926e+00 8.783029873675418653e-01 -3.978636078344603422e-01 -2.650706371200479139e-01
2.162051282051282275e+00 8.722529375309210353e-01 -4.087060920428169375e-01 -2.685297224425698404e-01
2.289230769230769180e+00 8.732235281699847196e-01 -4.017462130173629076e-01 -2.757803358569627661e-01
2.416410256410256530e+00 8.830737115951332594e-01 -3.799596599389192253e-01 -2.752918720103095795e-01
2.543589743589743435e+00 8.997244497976085720e-01 -3.517211895766652052e-01 -2.583835932313732764e-01
2.670769230769230784e+00 9.180489574623561522e-01 -3.280444926754528812e-01 -2.225905472913151106e-01
2.797948717948718134e+00 9.319378137828184805e-01 -3.187330916767165956e-01 -1.728420653151076791e-01
2.925128205128205039e+00 9.367419364862421549e-01 -3.288020286328414143e-01 -1.199029952524452297e-01
3.052307692307692388e+00 9.311374706052731876e-01 -3.564986357479524859e-01 -7.658022404192535437e-02
3.179487179487179738e+00 9.177020952392213049e-01 -3.936799403958275434e-01 -5.302552088133064001e-02
3.306666666666666643e+00 9.019616454442579423e-01 -4.285362785240863781e-01 -5.286384009309570697e-02
3.433846153846153992e+00 8.902880586914376781e-01 -4.497031560115031801e-01 -7.160325317702517789e-02
3.561025641025641342e+00 8.874386314825827293e-01 -4.503589352682123570e-01 -9.799170329642606370e-02
3.688205128205128247e+00 8.946996231961676926e-01 -4.307909641069261886e-01 -1.179180999421487880e-01
3.815384615384615596e+00 9.093441960553252379e-01 -3.984901859888367870e-01 -1.194640587274472393e-01
3.942564102564102502e+00 9.256390792147386470e-01 -3.656479252716580697e-01 -9.729724294793253014e-02
4.069743589743589851e+00 9.370234003221838970e-01 -3.449064803891677133e-01 -5.476685080068174200e-02
4.196923076923076756e+00 9.386390079519244534e-01 -3.448495543676243780e-01 -2.877799833773920027e-03
4.324102564102564550e+00 9.292480438019095068e-01 -3.668428425672234372e-01 4.355596565863529418e-02
4.451282051282051455e+00 9.117853241372436690e-01 -4.044088895399414740e-01 7.123028373702386395e-02
4.578461538461538360e+00 8.923245125204992689e-01 -4.453855963384492633e-01 7.322172550062321095e-02
4.705641025641026154e+00 8.778147575042876127e-01 -4.761797697785904449e-01 5.164119936089791446e-02
4.832820512820513059e+00 8.734402949845168074e-01 -4.866050997774623577e-01 1.703581612663806338e-02
4.959999999999999964e+00 8.806075700883778667e-01 -4.735711358533118975e-01 -1.527667222063732073e-02
