0.000000000000000000e+00 -3.018228988680760740e-09 2.455673568787353677e-09 -1.000000000000000000e+00
1.271794871794871828e-01 -1.390718866129959930e-02 -1.544600728510394164e-02 -9.997838821964328826e-01
2.543589743589743657e-01 -2.634934393206687236e-02 -3.213859659131675095e-02 -9.991358502655911522e-01
3.815384615384615485e-01 -3.570195402133945206e-02 -5.106275389695959233e-02 -9.980568224535762978e-01
5.087179487179487314e-01 -4.004500611972261481e-02 -7.271190945592501120e-02 -9.965483698865832407e-01
6.358974358974358587e-01 -3.717170987534051951e-02 -9.676052698116230366e-02 -9.946128757748746718e-01
7.630769230769230971e-01 -2.476836056065714192e-02 -1.217327103601876237e-01 -9.922533021443371570e-01
8.902564102564103354e-01 -8.289763220273374533e-04 -1.447111303878197419e-01 -9.894729733538615291e-01
1.017435897435897463e+00 3.564201653162409056e-02 -1.612038228491647351e-01 -9.862766087829903938e-01
1.144615384615384590e+00 8.371697563996310931e-02 -1.653787750028182513e-01 -9.826696954602099909e-01
1.271794871794871717e+00 1.395614006789778760e-01 -1.508300772708147108e-01 -9.786578176652225292e-01
1.398974358974359067e+00 1.956740120378960834e-01 -1.120255208686294496e-01 -9.742484305882367357e-01
1.526153846153846194e+00 2.408616930499381525e-01 -4.639532943211960303e-02 -9.694487904925362942e-01
1.653333333333333321e+00 2.613645899243463577e-01 4.325737664593284210e-02 -9.642691583262467114e-01
1.780512820512820671e+00 2.435764872411597115e-01 1.467135882198533914e-01 -9.587195060300103266e-01
1.907692307692307798e+00 1.782489164382364544e-01 2.457235920770318438e-01 -9.528087562736458072e-01
2.034871794871794926e+00 6.545850629023254597e-02 3.158427756595986735e-01 -9.465493359109999894e-01
2.162051282051282275e+00 -8.118021461162427954e-02 3.315005969626418358e-01 -9.399542669602233280e-01
2.289230769230769180e+00 -2.331842931554672926e-01 2.739752433418718436e-01 -9.330377137911403107e-01
2.416410256410256530e+00 -3.508728496185852253e-01 1.405618006789841057e-01 -9.258116103520341866e-01
2.543589743589743435e+00 -3.929317457606780195e-01 -4.836323347635540504e-02 -9.182929513807636113e-01
2.670769230769230784e+00 -3.306804276068445736e-01 -2.482862052999163238e-01 -9.104946506399631545e-01
2.797948717948718134e+00 -1.629414025395031496e-01 -3.988242038203402839e-01 -9.024329829656461133e-01
2.925128205128205039e+00 7.471809418391295310e-02 -4.415336225288992167e-01 -8.941258326328470618e-01
3.052307692307692388e+00 3.128604746418280902e-01 -3.432996629144144940e-01 -8.855840994212844652e-01
3.179487179487179738e+00 4.664234470054323678e-01 -1.166886002525376331e-01 -8.768285514366448430e-01
3.306666666666666643e+00 4.656264905675964183e-01 1.731591356532627968e-01 -8.678727371955280434e-01
3.433846153846153992e+00 2.891773020393567095e-01 4.230286213303232068e-01 -8.587306303923430972e-01
3.561025641025641342e+00 -1.522075585663609787e-02 5.275003636347762592e-01 -8.494153622563759276e-01
3.688205128205128247e+00 -3.370319075691187161e-01 4.253088725959568439e-01 -8.399502354055627951e-01
3.815384615384615596e+00 -5.403003503824329590e-01 1.363501646305163573e-01 -8.303485174669723579e-01
3.942564102564102502e+00 -5.222731610067784525e-01 -2.319916576281511600e-01 -8.206125112065386640e-01
4.069743589743589851e+00 -2.684087282845134537e-01 -5.201979298927155160e-01 -8.107681107529800535e-01
4.196923076923076756e+00 1.253346199253274063e-01 -5.856317567934445911e-01 -8.008249578714432548e-01
4.324102564102564550e+00 4.826116914789747026e-01 -3.764647750338434573e-01 -7.907932745192784996e-01
4.451282051282051455e+00 6.242907496162840575e-01 2.805443972816795695e-02 -7.806839963805231042e-01
4.578461538461538360e+00 4.612469095053488011e-01 4.399394994222692867e-01 -7.705179518404128292e-01
4.705641025641026154e+00 5.392362912848391865e-02 6.473335649034857031e-01 -7.602925019024874276e-01
4.832820512820513059e+00 -4.010839663729990345e-01 5.259064200051182247e-01 -7.500314330698185650e-01
4.959999999999999964e+00 -6.624727198702096143e-01 1.179621931116635603e-01 -7.397349141707529885e-01
