0.000000000000000000e+00 2.341808368058768174e-09 4.347367973108336609e-10 -1.000000000000000000e+00
1.271794871794871828e-01 -2.151059985901883076e-01 9.916299032616052167e-02 -9.715423956356866730e-01
2.543589743589743657e-01 -4.132463338156142640e-01 1.935662922765065963e-01 -8.898069626315275871e-01
3.815384615384615485e-01 -5.806636658549078067e-01 2.792079505397379591e-01 -7.647665188484061849e-01
5.087179487179487314e-01 -7.090096251579758313e-01 3.533444618349874666e-01 -6.102841601173304431e-01
6.358974358974358587e-01 -7.959184751442271999e-01 4.146688855652016503e-01 -4.410851041833573349e-01
7.630769230769230971e-01 -8.440793118085485602e-01 4.631868438273073485e-01 -2.701478693934922792e-01
8.902564102564103354e-01 -8.594539885903873522e-01 4.998458194456266712e-01 -1.071654398388342394e-01
1.017435897435897463e+00 -8.493581126857657759e-01 5.261494712775688365e-01 4.181994643765968300e-02
1.144615384615384590e+00 -8.209841763630265632e-01 5.437937878105234546e-01 1.739679561240543570e-01
1.271794871794871717e+00 -7.805373836132132315e-01 5.544316754652143242e-01 2.887192232904706168e-01
1.398974358974359067e+00 -7.329159285146713554e-01 5.595329416634926556e-01 3.869746919774024185e-01
1.526153846153846194e+00 -6.817389787985421723e-01 5.603303744573260303e-01 4.703770554272406756e-01
1.653333333333333321e+00 -6.295363862291858403e-01 5.578258439385912482e-01 5.408395779348027510e-01
1.780512820512820671e+00 -5.779905023681174425e-01 5.528070935579419976e-01 6.002707222606177284e-01
1.907692307692307798e+00 -5.281686801387628361e-01 5.458902615508757217e-01 6.504119701779058627e-01
2.034871794871794926e+00 -4.806893082342044710e-01 5.375519971981531642e-01 6.927987391938797979e-01
2.162051282051282275e+00 -4.358773981986828194e-01 5.281560457822443988e-01 7.287365122907298876e-01
2.289230769230769180e+00 -3.938597923649400090e-01 5.179855924633586239e-01 7.593158275982049288e-01
2.416410256410256530e+00 -3.546345705444763907e-01 5.072554418163059964e-01 7.854436209149826542e-01
2.543589743589743435e+00 -3.181204725671264999e-01 4.961363919910117826e-01 8.078637055815431900e-01
2.670769230769230784e+00 -2.841944965057514594e-01 4.847590051854275828e-01 8.271869004284275739e-01
2.797948717948718134e+00 -2.527069985372550343e-01 4.732185256913217786e-01 8.439191897041027346e-01
2.925128205128205039e+00 -2.235033850073766259e-01 4.615971921115138432e-01 8.584699583453063720e-01
3.052307692307692388e+00 -1.964142188410948342e-01 4.499596532491122458e-01 8.711798574071447643e-01
3.179487179487179738e+00 -1.712975564613677115e-01 4.383516508471566597e-01 8.823274505763811781e-01
3.306666666666666643e+00 -1.479915812117714724e-01 4.268105995683584286e-01 8.921480348600716592e-01
3.433846153846153992e+00 -1.263727498224912205e-01 4.153677101498953750e-01 9.008310896252219591e-01
3.561025641025641342e+00 -1.063036384701494808e-01 4.040514946993827849e-01 9.085367952576653972e-01
3.688205128205128247e+00 -8.766744367688322770e-02 3.928715646324262289e-01 9.154035501169218714e-01
3.815384615384615596e+00 -7.035252612949746687e-02 3.818468677965634606e-01 9.215426823692283165e-01
3.942564102564102502e+00 -5.425887687903922785e-02 3.709930595456039648e-01 9.270478093468093039e-01
4.069743589743589851e+00 -3.929884040238966481e-02 3.603136478537150578e-01 9.320017675318115202e-01
4.196923076923076756e+00 -2.539155422954896685e-02 3.498163979365683240e-01 9.364728824399560780e-01
4.324102564102564550e+00 -1.244993962697640844e-02 3.394990078744095641e-01 9.405228388312313337e-01
4.451282051282051455e+00 -4.073641824484802720e-04 3.293729998064255371e-01 9.441986699916485870e-01
4.578461538461538360e+00 1.079919230634489302e-02 3.194459521940148927e-01 9.475418696984000411e-01
4.705641025641026154e+00 2.122492327077394464e-02 3.097083288665192224e-01 9.505936316547722864e-01
4.832820512820513059e+00 3.092573962496175666e-02 3.001645918439048155e-01 9.533849576935594650e-01
4.959999999999999964e+00 3.995173877324195710e-02 2.908089559481700226e-01 9.559456735447833253e-01
