0.000000000000000000e+00 5.002136207829047243e-09 -3.543484166030888824e-09 -1.000000000000000000e+00
1.271794871794871828e-01 5.867537565304896570e-03 1.014539302891881954e-02 -9.999311740350026456e-01
2.543589743589743657e-01 1.069066022039899880e-02 2.111458892246532992e-02 -9.997196302908161192e-01
3.815384615384615485e-01 1.336050505040226044e-02 3.345837023574023406e-02 -9.993504074793494452e-01
5.087179487179487314e-01 1.260351999701324333e-02 4.730381696188519502e-02 -9.988005023657208215e-01
6.358974358974358587e-01 7.061303084975274758e-03 6.212078648981927964e-02 -9.980429947666689117e-01
7.630769230769230971e-01 -4.509549910034298635e-03 7.655940335059520374e-02 -9.970540178343791915e-01
8.902564102564103354e-01 -2.290840330507266237e-02 8.838822343700979134e-02 -9.958216842190570350e-01
1.017435897435897463e+00 -4.804160384483500967e-02 9.461968382660120025e-02 -9.943525153521164395e-01
1.144615384615384590e+00 -7.848315555344322070e-02 9.186398789858785108e-02 -9.926726092233479903e-01
1.271794871794871717e+00 -1.111369878135056305e-01 7.695917697307280703e-02 -9.908193918896616159e-01
1.398974358974359067e+00 -1.411861145469347489e-01 4.781070672397572802e-02 -9.888263458208426115e-01
1.526153846153846194e+00 -1.624517408258331352e-01 4.330220529168996024e-03 -9.867052886976815929e-01
1.653333333333333321e+00 -1.682608630513687253e-01 -5.074510045387162216e-02 -9.844336357024764395e-01
1.780512820512820671e+00 -1.527709632232438497e-01 -1.114355970577997346e-01 -9.819568331729621180e-01
1.907692307692307798e+00 -1.125865083185318694e-01 -1.687455975933495056e-01 -9.792063026125634728e-01
2.034871794871794926e+00 -4.832010805190012359e-02 -2.117149504400801518e-01 -9.761339135368215514e-01
2.162051282051282275e+00 3.432216627882687943e-02 -2.293140850981210954e-01 -9.727446604388433338e-01
2.289230769230769180e+00 1.243806287767556390e-01 -2.129158368917306032e-01 -9.691187337715734262e-01
2.416410256410256530e+00 2.067309372674941137e-01 -1.588964327595796810e-01 -9.654059912462832349e-01
2.543589743589743435e+00 2.644865915461408479e-01 -7.070215535118888617e-02 -9.617911607187868972e-01
2.670769230769230784e+00 2.824589069259710872e-01 4.027826723151162192e-02 -9.584302519521169517e-01
2.797948717948718134e+00 2.510146848247339912e-01 1.556068772308340231e-01 -9.553909234387375493e-01
2.925128205128205039e+00 1.694530591794583541e-01 2.526283199196002194e-01 -9.526059331558018872e-01
3.052307692307692388e+00 4.788584878149207413e-02 3.089232703501481048e-01 -9.498771659001703505e-01
3.179487179487179738e+00 -9.319801153274270833e-02 3.076260547370697207e-01 -9.469284051590641793e-01
3.306666666666666643e+00 -2.260008161807741944e-01 2.423510146269204357e-01 -9.434947922231581297e-01
3.433846153846153992e+00 -3.208895127752591780e-01 1.203587228083822930e-01 -9.394339992471079093e-01
3.561025641025641342e+00 -3.532256973321019622e-01 -3.713011745861342222e-02 -9.347968763684935123e-01
3.688205128205128247e+00 -3.100349676479062788e-01 -1.981360983513452967e-01 -9.298453139409371682e-01
3.815384615384615596e+00 -1.947003578814305857e-01 -3.263047433330782954e-01 -9.249911243228856605e-01
3.942564102564102502e+00 -2.815901721021488169e-02 -3.893189139742621041e-01 -9.206678045140297417e-01
4.069743589743589851e+00 1.542559263187216478e-01 -3.673978703380077482e-01 -9.171777670051860509e-01
4.196923076923076756e+00 3.100844930930364285e-01 -2.596312855617880500e-01 -9.145655662394185370e-01
4.324102564102564550e+00 3.997195523350906554e-01 -8.617193565433692304e-02 -9.125730328108951905e-01
4.451282051282051455e+00 3.967895093289948716e-01 1.148220974404340067e-01 -9.106946290607429439e-01
4.578461538461538360e+00 2.961654058558933489e-01 2.953079150258531849e-01 -9.083335856743043335e-01
4.705641025641026154e+00 1.171673516566243967e-01 4.089344844392046041e-01 -9.050054197084878016e-01
4.832820512820513059e+00 -9.942566672559988161e-02 4.232634777355209765e-01 -9.005291449941280613e-01
4.959999999999999964e+00 -3.003908135857116246e-01 3.294275930616457071e-01 -8.951160214780893298e-01
