0.000000000000000000e+00 4.490505528612777765e-09 -3.424165574592329837e-10 -1.000000000000000000e+00
1.271794871794871828e-01 -1.161392320183182447e-01 -3.954231911534397126e-01 -9.111242507559673687e-01
2.543589743589743657e-01 -1.447379213629972350e-01 -7.299437075755234039e-01 -6.679993721479920987e-01
3.815384615384615485e-01 -3.760675768798044105e-02 -9.425768295034734345e-01 -3.318448089163761328e-01
5.087179487179487314e-01 1.900094166437849563e-01 -9.815338192438477494e-01 2.174758986502069169e-02
6.358974358974358587e-01 4.610064703611992387e-01 -8.240989416960000646e-01 3.291204487200684592e-01
7.630769230769230971e-01 6.654457759360868918e-01 -4.978115560324229416e-01 5.561960614457768237e-01
8.902564102564103354e-01 7.074794765428609189e-01 -8.748168040086481967e-02 7.012919159870641961e-01
1.017435897435897463e+00 5.511253703000842386e-01 2.835670831935779845e-01 7.847564330431165969e-01
1.144615384615384590e+00 2.431419229916533253e-01 4.966921945592932541e-01 8.331698820788580040e-01
1.271794871794871717e+00 -1.010847484117320394e-01 4.885739608705012560e-01 8.666437257072517886e-01
1.398974358974359067e+00 -3.462738856538033483e-01 2.837407794488737700e-01 8.941925404593773496e-01
1.526153846153846194e+00 -3.997512268958361981e-01 -1.140755090676487393e-02 9.165501711101255999e-01
1.653333333333333321e+00 -2.570084147733381896e-01 -2.552622157439536910e-01 9.320857132333201234e-01
1.780512820512820671e+00 -5.086620311556072638e-03 -3.380573717843887716e-01 9.411097403775791070e-01
1.907692307692307798e+00 2.208912195207309026e-01 -2.353493273955330478e-01 9.464745985834502884e-01
2.034871794871794926e+00 3.072413547939999434e-01 -1.843262253529395767e-02 9.514512959994262387e-01
2.162051282051282275e+00 2.205233990944786837e-01 1.859461757123533066e-01 9.574916549168710489e-01
2.289230769230769180e+00 2.276853331262579383e-02 2.657630029465735122e-01 9.637679752842759351e-01
2.416410256410256530e+00 -1.662728087812681277e-01 1.850625831545537614e-01 9.685569102775757333e-01
2.543589743589743435e+00 -2.389574785593840955e-01 1.342629870087180821e-03 9.710277704050941372e-01
2.670769230769230784e+00 -1.612660409219141000e-01 -1.712231147397880737e-01 9.719430859648605647e-01
2.797948717948718134e+00 1.008245923837572389e-02 -2.310172315044295988e-01 9.728961311889733343e-01
2.925128205128205039e+00 1.649997317529021401e-01 -1.491875998619398014e-01 9.749439694469040907e-01
3.052307692307692388e+00 2.087505627323537061e-01 1.556295473699326887e-02 9.778439270773227054e-01
3.179487179487179738e+00 1.196558409510521948e-01 1.562112018226850252e-01 9.804480761704034153e-01
3.306666666666666643e+00 -3.998541243514657645e-02 1.856558879917123983e-01 9.817998930438032179e-01
3.433846153846153992e+00 -1.659264516857897886e-01 9.084529217622153152e-02 9.819437487220925576e-01
3.561025641025641342e+00 -1.796166210898632043e-01 -6.137860450246863248e-02 9.818189773920324992e-01
3.688205128205128247e+00 -7.781046967384405710e-02 -1.697329226980177630e-01 9.824124748607540036e-01
3.815384615384615596e+00 6.765237524545070213e-02 -1.651627544209094411e-01 9.839423346585403074e-01
3.942564102564102502e+00 1.589866664092074444e-01 -5.497568716689513191e-02 9.857480012984541906e-01
4.069743589743589851e+00 1.375419533070944000e-01 8.412826080546306762e-02 9.869158655728496043e-01
4.196923076923076756e+00 2.157753445429673456e-02 1.588131709809636471e-01 9.870719745212667151e-01
4.324102564102564550e+00 -1.079738605560177089e-01 1.217877187517827087e-01 9.866649223177550443e-01
4.451282051282051455e+00 -1.634644648066898021e-01 2.362382176189531391e-03 9.865455141537090578e-01
4.578461538461538360e+00 -1.098888266599816338e-01 -1.152695386422421808e-01 9.872363900175903373e-01
4.705641025641026154e+00 1.264920160220199541e-02 -1.505565834496802036e-01 9.885196543827043936e-01
4.832820512820513059e+00 1.180473282857776307e-01 -8.144391072251036534e-02 9.896616553727716203e-01
4.959999999999999964e+00 1.343180938651607481e-01 4.180403422160500204e-02 9.900553416188886402e-01
