0.000000000000000000e+00 -2.920416520364474741e-09 -7.812259455690765107e-10 -1.000000000000000000e+00
1.271794871794871828e-01 8.666817783201760661e-02 9.373151212743263683e-03 -9.961923891286831312e-01
2.543589743589743657e-01 1.707005532417410765e-01 1.898944574044040406e-02 -9.851384674788687956e-01
3.815384615384615485e-01 2.499316192198887121e-01 2.910594551445222847e-02 -9.678236740038003161e-01
5.087179487179487314e-01 3.230101174278419696e-01 4.005845766462909352e-02 -9.455442801480616888e-01
6.358974358974358587e-01 3.894662431198329666e-01 5.211455419944231726e-02 -9.195612679768437880e-01
7.630769230769230971e-01 4.495356444770131632e-01 6.529311800268422505e-02 -8.908681048418339854e-01
8.902564102564103354e-01 5.038220766277423657e-01 7.924258635605432866e-02 -8.601593534549260012e-01
1.017435897435897463e+00 5.529424624353787010e-01 9.328061456510841620e-02 -8.279748364004886341e-01
1.144615384615384590e+00 5.972967638417983061e-01 1.065939324551949396e-01 -7.948975609017048249e-01
1.271794871794871717e+00 6.370211974418877876e-01 1.185650859219604114e-01 -7.616646756704232857e-01
1.398974358974359067e+00 6.721233635274918017e-01 1.290359159534553157e-01 -7.290992504889293180e-01
1.526153846153846194e+00 7.026982612238101833e-01 1.383899640183086643e-01 -6.978884640326191713e-01
1.653333333333333321e+00 7.291146696154587881e-01 1.473670392497458403e-01 -6.683254624950104583e-01
1.780512820512820671e+00 7.520512894074031784e-01 1.566876024049200511e-01 -6.401963259510767834e-01
1.907692307692307798e+00 7.723983092359916203e-01 1.666500881044693516e-01 -6.128714802428089081e-01
2.034871794871794926e+00 7.910142205765806622e-01 1.768976818189340605e-01 -5.856500435828212447e-01
2.162051282051282275e+00 8.084884035496896493e-01 1.865329130029291516e-01 -5.581520112086115759e-01
2.289230769230769180e+00 8.249982516756064754e-01 1.944998316576618536e-01 -5.305929342167624574e-01
2.416410256410256530e+00 8.403277929969683591e-01 2.000973209450453982e-01 -5.037766706622405222e-01
2.543589743589743435e+00 8.540493883786930418e-01 2.033996116366756923e-01 -4.787572295525523991e-01
2.670769230769230784e+00 8.657896784547968183e-01 2.053052882480491670e-01 -4.563308579584849367e-01
2.797948717948718134e+00 8.754610073360993283e-01 2.072005044149023978e-01 -4.365954097722919425e-01
2.925128205128205039e+00 8.833720480180932144e-01 2.103507202802877285e-01 -4.187907745166863926e-01
3.052307692307692388e+00 8.901482911277085464e-01 2.152981086160150603e-01 -4.015741731396096914e-01
3.179487179487179738e+00 8.965243691004730620e-01 2.215556457669991541e-01 -3.835830816682628819e-01
3.306666666666666643e+00 9.030694901601880042e-01 2.277824880813054675e-01 -3.640868249955364622e-01
3.433846153846153992e+00 9.099897348686851739e-01 2.323736383132753991e-01 -3.433649743706002622e-01
3.561025641025641342e+00 9.170684153007301331e-01 2.342189543494268555e-01 -3.226532211513459258e-01
3.688205128205128247e+00 9.237888343511856393e-01 2.332778508633216452e-01 -3.036009466956864911e-01
3.815384615384615596e+00 9.295748865865968158e-01 2.306776233837972145e-01 -2.874997478657417838e-01
3.942564102564102502e+00 9.340523086684959786e-01 2.282491977710661701e-01 -2.746383205655537618e-01
4.069743589743589851e+00 9.372239465510484591e-01 2.277220581982720704e-01 -2.640671542757085377e-01
4.196923076923076756e+00 9.394769103125617526e-01 2.299079167709418559e-01 -2.539742494663603800e-01
4.324102564102564550e+00 9.414381390443350428e-01 2.342783134266996914e-01 -2.424566918903472146e-01
4.451282051282051455e+00 9.437196323940620912e-01 2.391596489086317834e-01 -2.284144259105088948e-01
4.578461538461538360e+00 9.466779535920332167e-01 2.424756158781206095e-01 -2.120932364959597916e-01
4.705641025641026154e+00 9.502804388615646580e-01 2.427138647788964487e-01 -1.950232469045344030e-01
4.832820512820513059e+00 9.541327172451802285e-01 2.396624843350108058e-01 -1.793587326786775238e-01
4.959999999999999964e+00 9.576549647055392356e-01 2.345743166417675329e-01 -1.668792656739996327e-01
