0.000000000000000000e+00 2.627198804549181332e-09 4.358958328023956315e-10 -1.000000000000000000e+00
1.271794871794871828e-01 -4.016636985230069290e-01 -2.055472039459305122e-01 -8.924176732985286131e-01
2.543589743589743657e-01 -6.872465502317117725e-01 -4.106017741477838157e-01 -5.992356004633455635e-01
3.815384615384615485e-01 -7.764961399533912845e-01 -5.981118549607200574e-01 -1.982324753938548290e-01
5.087179487179487314e-01 -6.500336851783545811e-01 -7.295202961176299183e-01 2.126889356923866436e-01
6.358974358974358587e-01 -3.556949654472503219e-01 -7.563702045762887849e-01 5.489710766510239592e-01
7.630769230769230971e-01 6.667114379221128484e-03 -6.442571665662277791e-01 7.647724538751001777e-01
8.902564102564103354e-01 3.180836094274612780e-01 -3.970999796646499380e-01 8.608867401069391079e-01
1.017435897435897463e+00 4.809048134521183848e-01 -6.785844756769532360e-02 8.741383224692385046e-01
1.144615384615384590e+00 4.529124838180018653e-01 2.526318021406132597e-01 8.550080711513363685e-01
1.271794871794871717e+00 2.622611835134415759e-01 4.668351245597673338e-01 8.445561215539308941e-01
1.398974358974359067e+00 -3.616289311885206859e-03 5.093895969235840981e-01 8.605235007257578950e-01
1.526153846153846194e+00 -2.322322068168585774e-01 3.762173538850045462e-01 8.969512595119798481e-01
1.653333333333333321e+00 -3.307305925299053873e-01 1.293815090372549548e-01 9.348113070784282996e-01
1.780512820512820671e+00 -2.632280507158155647e-01 -1.264547920409659909e-01 9.564077309558397522e-01
1.907692307692307798e+00 -6.479205201474311226e-02 -2.870890721065809670e-01 9.557077935227586973e-01
2.034871794871794926e+00 1.745667990032365724e-01 -2.928159859348370975e-01 9.400957137725726165e-01
2.162051282051282275e+00 3.497136377744370916e-01 -1.535838542233192716e-01 9.241787499313234289e-01
2.289230769230769180e+00 3.869262266602579992e-01 5.672133915483432154e-02 9.203611306444203777e-01
2.416410256410256530e+00 2.763146827842867248e-01 2.348159985890891088e-01 9.319366874946745094e-01
2.543589743589743435e+00 7.517803753442822701e-02 2.957877764620592265e-01 9.522884005768756932e-01
2.670769230769230784e+00 -1.195526432221493407e-01 2.120022513285259314e-01 9.699270956193720705e-01
2.797948717948718134e+00 -2.171190309582146649e-01 2.486502316480854180e-02 9.758267354490863799e-01
2.925128205128205039e+00 -1.755174626148437167e-01 -1.761036531607048095e-01 9.685955818531034600e-01
3.052307692307692388e+00 -2.058480621085449769e-02 -2.968696262941451502e-01 9.546937531457493353e-01
3.179487179487179738e+00 1.675887715517842269e-01 -2.842045441402403783e-01 9.440003691558249699e-01
3.306666666666666643e+00 2.944333338064802907e-01 -1.507539700967681640e-01 9.437039546459261574e-01
3.433846153846153992e+00 2.973520318838724918e-01 3.229165070891663880e-02 9.542192944039790126e-01
3.561025641025641342e+00 1.760567128017528904e-01 1.711606274850528686e-01 9.693835179540053471e-01
3.688205128205128247e+00 -8.180803795866720129e-03 1.962178847088303923e-01 9.805247166721187124e-01
3.815384615384615596e+00 -1.638995749877092678e-01 9.618507514900087596e-02 9.817752080589364772e-01
3.942564102564102502e+00 -2.156247120201381096e-01 -7.712547516516091162e-02 9.734239755553594220e-01
4.069743589743589851e+00 -1.416150481232643088e-01 -2.357294351824571199e-01 9.614430107918368051e-01
4.196923076923076756e+00 1.583625821560712132e-02 -3.004340429802377921e-01 9.536687124719048780e-01
4.324102564102564550e+00 1.727125135488483121e-01 -2.408846460590182703e-01 9.550604526998238697e-01
4.451282051282051455e+00 2.466509028554188798e-01 -9.039887443246738541e-02 9.648768929512041570e-01
4.578461538461538360e+00 1.990738637510190423e-01 7.181242844152423144e-02 9.773481671318022812e-01
4.705641025641026154e+00 5.451724818018402474e-02 1.618519934281111849e-01 9.853066999397465109e-01
4.832820512820513059e+00 -1.127392864882228590e-01 1.343425005588037013e-01 9.844995549597376217e-01
4.959999999999999964e+00 -2.176205462276952218e-01 5.428905427462105138e-03 9.760166990112510987e-01
