0.000000000000000000e+00 1.426937000697193224e-09 2.114250031457929966e-09 -1.000000000000000000e+00
1.271794871794871828e-01 -3.526604606597406183e-02 4.373584196768572768e-02 -9.984199716272879055e-01
2.543589743589743657e-01 -7.312142181273639796e-02 7.971892068201580361e-02 -9.941308807641119349e-01
3.815384615384615485e-01 -1.145954449674312925e-01 1.006294598765815340e-01 -9.883009983505111062e-01
5.087179487179487314e-01 -1.580683698821278294e-01 1.001700652702545713e-01 -9.823324189306010812e-01
6.358974358974358587e-01 -1.987101452032352111e-01 7.401273444731493178e-02 -9.772576719033425618e-01
7.630769230769230971e-01 -2.287675086645692413e-01 2.096003925318100369e-02 -9.732532711082692023e-01
8.902564102564103354e-01 -2.387661571242499781e-01 -5.591018445836168360e-02 -9.694639204203823191e-01
1.017435897435897463e+00 -2.194851166754958061e-01 -1.485321446762332409e-01 -9.642404349325837121e-01
1.144615384615384590e+00 -1.644189563773897356e-01 -2.439934846418116421e-01 -9.557343355505475424e-01
1.271794871794871717e+00 -7.222614569921073646e-02 -3.258105101856176855e-01 -9.426688728208828527e-01
1.398974358974359067e+00 5.143136652046158275e-02 -3.764146366596824445e-01 -9.250186733532386185e-01
1.526153846153846194e+00 1.932418283381823199e-01 -3.805633106525010412e-01 -9.043344510016132487e-01
1.653333333333333321e+00 3.332306185712419211e-01 -3.290458441586013305e-01 -8.835591917947120955e-01
1.780512820512820671e+00 4.474914644309548328e-01 -2.218892713011137718e-01 -8.663177449509468220e-01
1.907692307692307798e+00 5.124142128718409683e-01 -7.014534277261408324e-02 -8.558625900813662257e-01
2.034871794871794926e+00 5.097023245258279767e-01 1.044614774414606984e-01 -8.539793544292021421e-01
2.162051282051282275e+00 4.311489842524909299e-01 2.723034896851832531e-01 -8.602040511709052595e-01
2.289230769230769180e+00 2.820397870696244036e-01 4.008589289559603142e-01 -8.716397252269182383e-01
2.416410256410256530e+00 8.210879391032147034e-02 4.611596424797477223e-01 -8.835047199705478027e-01
2.543589743589743435e+00 -1.365280221245403214e-01 4.343696360814077728e-01 -8.903224637851926415e-01
2.670769230769230784e+00 -3.345011341872065058e-01 3.170604886780399312e-01 -8.874528011190739862e-01
2.797948717948718134e+00 -4.725924031107885392e-01 1.237541283429043348e-01 -8.725431284032433288e-01
2.925128205128205039e+00 -5.200679508822124708e-01 -1.141845111350523884e-01 -8.464516015551647454e-01
3.052307692307692388e+00 -4.621065221408611756e-01 -3.534918659263499574e-01 -8.133196655243131179e-01
3.179487179487179738e+00 -3.045244614327144994e-01 -5.471043566788331702e-01 -7.796975615789939473e-01
3.306666666666666643e+00 -7.439105541633234120e-02 -6.539034663734070163e-01 -7.529023652888305884e-01
3.433846153846153992e+00 1.840276531969652907e-01 -6.480600419664295231e-01 -7.390110502202228426e-01
3.561025641025641342e+00 4.175574771352956738e-01 -5.257922018345229098e-01 -7.410625267965761376e-01
3.688205128205128247e+00 5.750897379063457659e-01 -3.077825253016595042e-01 -7.579759806475699913e-01
3.815384615384615596e+00 6.189784845798581570e-01 -3.631777737274133333e-02 -7.845593974902579371e-01
3.942564102564102502e+00 5.342480409631787941e-01 2.326433186674836395e-01 -8.126769998840436271e-01
4.069743589743589851e+00 3.332988623575642850e-01 4.410083009351634109e-01 -8.333139308699428760e-01
4.196923076923076756e+00 5.469935901031569569e-02 5.413348802062768472e-01 -8.390192642991798344e-01
4.324102564102564550e+00 -2.440812900194002932e-01 5.079971891102934567e-01 -8.260456874529956695e-01
4.451282051282051455e+00 -4.986735428036202511e-01 3.440360053437804266e-01 -7.955822549676366817e-01
4.578461538461538360e+00 -6.521032239605607517e-01 8.182554528461341570e-02 -7.536920719965770621e-01
4.705641025641026154e+00 -6.681013494436855993e-01 -2.229417988723770283e-01 -7.098746391874737327e-01
4.832820512820513059e+00 -5.402815754753067523e-01 -5.029524543051393515e-01 -6.746244342909277769e-01
4.959999999999999964e+00 -2.948047663647256900e-01 -6.942334450656575395e-01 -6.565920001115749249e-01
