0.000000000000000000e+00 -1.101009512810204678e-09 -2.199385375902255903e-09 -1.000000000000000000e+00
1.271794871794871828e-01 3.363038513719249223e-02 -1.753300099033912596e-01 -9.839345354047650538e-01
2.543589743589743657e-01 9.595916522523553760e-02 -3.355678759725520544e-01 -9.371144714903344441e-01
3.815384615384615485e-01 2.084632864523177642e-01 -4.594378881755257216e-01 -8.633979461110150577e-01
5.087179487179487314e-01 3.772655956738337757e-01 -5.169052184539502104e-01 -7.684233809431876283e-01
6.358974358974358587e-01 5.848417436044810458e-01 -4.734215983380726245e-01 -6.586544636394968677e-01
7.630769230769230971e-01 7.851247532983622879e-01 -3.023906149350285011e-01 -5.404920691444952130e-01
8.902564102564103354e-01 9.077130227431854381e-01 -3.931101393698455126e-03 -4.195632454673265954e-01
1.017435897435897463e+00 8.760659814494264896e-01 3.772011001421645693e-01 -3.003645432349674183e-01
1.144615384615384590e+00 6.394757003719754307e-01 7.459321364921436270e-01 -1.861365977202534272e-01
1.271794871794871717e+00 2.093827673155560509e-01 9.746355235423719288e-01 -7.896193499139984862e-02
1.398974358974359067e+00 -3.183538022425292380e-01 9.477564024388268615e-01 1.998025008748096146e-02
1.526153846153846194e+00 -7.757179004012985102e-01 6.213595854406664953e-01 1.102932873161686922e-01
1.653333333333333321e+00 -9.789121158503415465e-01 6.963824616251518274e-02 1.920218475660937507e-01
1.780512820512820671e+00 -8.149179593617923434e-01 -5.151517114986946533e-01 2.655531488485265434e-01
1.907692307692307798e+00 -3.184544445024802273e-01 -8.881030300112927600e-01 3.314376964711546192e-01
2.034871794871794926e+00 3.107823256403270396e-01 -8.666192757701631777e-01 3.903549513690156569e-01
2.162051282051282275e+00 7.806920595265613994e-01 -4.407862257271981110e-01 4.429664219751082710e-01
2.289230769230769180e+00 8.506426534871001088e-01 1.906866747812283047e-01 4.899365790518837027e-01
2.416410256410256530e+00 4.749052460477566906e-01 7.010988700957024866e-01 5.319002839753687040e-01
2.543589743589743435e+00 -1.458780844837321844e-01 8.089984622481172227e-01 5.694153926624937467e-01
2.670769230769230784e+00 -6.578963899141850868e-01 4.511648024894301390e-01 6.030055353643364313e-01
2.797948717948718134e+00 -7.576041993660990181e-01 -1.586644663040474579e-01 6.331310317043801206e-01
2.925128205128205039e+00 -3.872142966120596386e-01 -6.435756536980888898e-01 6.602038264080264396e-01
3.052307692307692388e+00 2.120674268728014455e-01 -6.974112986065319486e-01 6.845718990397251513e-01
3.179487179487179738e+00 6.445223597239322366e-01 -2.921548671686768905e-01 7.065624464630277934e-01
3.306666666666666643e+00 6.227082547157394288e-01 2.907072539936618183e-01 7.264420405587308505e-01
3.433846153846153992e+00 1.717080358044568156e-01 6.452083289990490078e-01 7.444575528132157949e-01
3.561025641025641342e+00 -3.795317844212872105e-01 5.264111707670722229e-01 7.608163853110694319e-01
3.688205128205128247e+00 -6.302632020254338441e-01 3.227283284874746250e-02 7.757071949480446316e-01
3.815384615384615596e+00 -4.036680154998113501e-01 -4.626790679106123072e-01 7.892878354221400938e-01
3.942564102564102502e+00 1.165441405529543256e-01 -5.862550461058257945e-01 8.016967646591542929e-01
4.069743589743589851e+00 5.236084258042872364e-01 -2.544808338320967978e-01 8.130615639123415228e-01
4.196923076923076756e+00 5.037817260136373543e-01 2.608939200601755881e-01 8.234888215963046543e-01
4.324102564102564550e+00 8.542925416325880539e-02 5.465096471675101597e-01 8.330814679609679363e-01
4.451282051282051455e+00 -3.833359533483003956e-01 3.797721430495100137e-01 8.419159430404103972e-01
4.578461538461538360e+00 -5.189602640997460492e-01 -8.976880494594402515e-02 8.500692777448407567e-01
4.705641025641026154e+00 -2.195099018373225797e-01 -4.650999636982990904e-01 8.576091760779013251e-01
4.832820512820513059e+00 2.513214032848921642e-01 -4.351098130075861659e-01 8.645884345624486045e-01
4.959999999999999964e+00 4.897345236724499618e-01 -3.745088952838598884e-02 8.710647453323954181e-01
