0.000000000000000000e+00 -4.390786626630256823e-09 -5.161825427988409930e-10 -1.000000000000000000e+00
1.271794871794871828e-01 -8.650671789213748575e-03 5.617151980033048553e-02 -9.983832821222482501e-01
2.543589743589743657e-01 -2.399764115653787999e-02 1.106538071865679901e-01 -9.935685194589093383e-01
3.815384615384615485e-01 -5.209803461596093643e-02 1.604977220334236621e-01 -9.856592332458018468e-01
5.087179487179487314e-01 -9.755196090938440812e-02 2.005116085903774492e-01 -9.748209182761956582e-01
6.358974358974358587e-01 -1.621466991310516470e-01 2.228527804541775570e-01 -9.612707550072542295e-01
7.630769230769230971e-01 -2.431812645007885854e-01 2.175581184540266722e-01 -9.452655488153985930e-01
8.902564102564103354e-01 -3.317964877623263975e-01 1.743732226418215348e-01 -9.270922006451174369e-01
1.017435897435897463e+00 -4.121456500931686695e-01 8.598640564210618953e-02 -9.070482011728779881e-01
1.144615384615384590e+00 -4.622904192206359619e-01 -4.773979724644988876e-02 -8.854388127290391264e-01
1.271794871794871717e+00 -4.577593802121773803e-01 -2.155345497762481133e-01 -8.625508188457980951e-01
1.398974358974359067e+00 -3.779141215940027276e-01 -3.922133046678960011e-01 -8.386546653100139803e-01
1.526153846153846194e+00 -2.143246231901572985e-01 -5.398691925610806797e-01 -8.140009413724117460e-01
1.653333333333333321e+00 2.111123950626767054e-02 -6.142644785996870249e-01 -7.888118644508930188e-01
1.780512820512820671e+00 2.916616002714439992e-01 -5.764615226876043108e-01 -7.632926778446341709e-01
1.907692307692307798e+00 5.383171669578864504e-01 -4.075793343056351437e-01 -7.376199891522009500e-01
2.034871794871794926e+00 6.915342275943801020e-01 -1.220962380861080332e-01 -7.119423207874050474e-01
2.162051282051282275e+00 6.911818694538557351e-01 2.261302124802378466e-01 -6.863826684594340755e-01
2.289230769230769180e+00 5.099184996028249817e-01 5.504602121635513434e-01 -6.610330189440983828e-01
2.416410256410256530e+00 1.717169647666618726e-01 7.523645140481933780e-01 -6.359625450492402132e-01
2.543589743589743435e+00 -2.434905189439395823e-01 7.530469173031199004e-01 -6.112444436457826757e-01
2.670769230769230784e+00 -6.152757611508533619e-01 5.262411082442544075e-01 -5.869350197151659287e-01
2.797948717948718134e+00 -8.177731469231750427e-01 1.190120779243916127e-01 -5.630892347283944499e-01
2.925128205128205039e+00 -7.650887848886510634e-01 -3.511245106966836005e-01 -5.397561105696264683e-01
3.052307692307692388e+00 -4.508781895017743846e-01 -7.276352949889763888e-01 -5.169539489271803845e-01
3.179487179487179738e+00 3.597318015365535970e-02 -8.683231411616603168e-01 -4.946779224492655613e-01
3.306666666666666643e+00 5.313128539142752960e-01 -7.028835038053051765e-01 -4.729127747943104865e-01
3.433846153846153992e+00 8.500547438200687367e-01 -2.709203788365348031e-01 -4.516568533468922619e-01
3.561025641025641342e+00 8.579778526592081178e-01 2.796063883273761097e-01 -4.309047087054450609e-01
3.688205128205128247e+00 5.328123160486790688e-01 7.398841673195822866e-01 -4.106906641748493403e-01
3.815384615384615596e+00 -1.396401910504896371e-02 9.202639870869585570e-01 -3.910285552710911494e-01
3.942564102564102502e+00 -5.703624249740943952e-01 7.323486411184051414e-01 -3.719356537453239464e-01
4.069743589743589851e+00 -9.050471030584456011e-01 2.366438818581222403e-01 -3.533739986677658651e-01
4.196923076923076756e+00 -8.662222172071225579e-01 -3.704277747774055163e-01 -3.352999051249467288e-01
4.324102564102564550e+00 -4.551795151975862597e-01 -8.317967992792745235e-01 -3.176620962211241794e-01
4.451282051282051455e+00 1.623829162897926226e-01 -9.398663266292578422e-01 -3.004436984515408415e-01
4.578461538461538360e+00 7.193888637431234967e-01 -6.340313755885406133e-01 -2.836672785533590480e-01
4.705641025641026154e+00 9.628198965969465561e-01 -3.842196027867128549e-02 -2.673662895010106566e-01
4.832820512820513059e+00 7.718559173212189428e-01 5.839023104860838753e-01 -2.515542357482141722e-01
4.959999999999999964e+00 2.223285920496292922e-01 9.459120027765481886e-01 -2.362273769524105282e-01
