0.000000000000000000e+00 -1.523029297705520970e-09 2.044274825942960981e-09 -1.000000000000000000e+00
1.271794871794871828e-01 -3.746955245891414599e-01 2.508731890468478554e-01 -8.925588974887298521e-01
2.543589743589743657e-01 -6.688202617194967115e-01 4.373428269968941406e-01 -6.011667011162568075e-01
3.815384615384615485e-01 -8.268600262494710806e-01 5.234557704929483357e-01 -2.056314250927768761e-01
5.087179487179487314e-01 -8.343571006263053036e-01 5.145734210523308372e-01 1.976110408819573838e-01
6.358974358974358587e-01 -7.189578174968435098e-01 4.486363469107851332e-01 5.308625243593220189e-01
7.630769230769230971e-01 -5.364573155261432857e-01 3.724879861658798030e-01 7.572708275083710472e-01
8.902564102564103354e-01 -3.478839897614081633e-01 3.179541693868259133e-01 8.819734166051830249e-01
1.017435897435897463e+00 -1.975162818970500056e-01 2.909272332110991455e-01 9.361331538059051161e-01
1.144615384615384590e+00 -1.011811067347800353e-01 2.772853132805157550e-01 9.554435955896035670e-01
1.271794871794871717e+00 -4.888047692796389232e-02 2.587954839894686665e-01 9.646932935374148421e-01
1.398974358974359067e+00 -1.835282544550115302e-02 2.271559739229591091e-01 9.736843677751394477e-01
1.526153846153846194e+00 9.105641066192313171e-03 1.876338556261863688e-01 9.821959655468629480e-01
1.653333333333333321e+00 3.951772760838817566e-02 1.520913431130031523e-01 9.875753900108583672e-01
1.780512820512820671e+00 6.751977463621611220e-02 1.285303584626067419e-01 9.894037162219273540e-01
1.907692307692307798e+00 8.490109014893754136e-02 1.154452245671445526e-01 9.896781836200928550e-01
2.034871794871794926e+00 8.905878677419784561e-02 1.045085514238835445e-01 9.905277654934872000e-01
2.162051282051282275e+00 8.529909373966211572e-02 8.820403075321846253e-02 9.924429470578509660e-01
2.289230769230769180e+00 8.230576549825069366e-02 6.584348272042700456e-02 9.944292041208528943e-01
2.416410256410256530e+00 8.523748796224371593e-02 4.331571928034347319e-02 9.954182288843335114e-01
2.543589743589743435e+00 9.225725107251785129e-02 2.746491182687070542e-02 9.953559184874311017e-01
2.670769230769230784e+00 9.700451459852890701e-02 2.021729033193895436e-02 9.950781303745034334e-01
2.797948717948718134e+00 9.451017416644617863e-02 1.721817503520055304e-02 9.953745473681991918e-01
2.925128205128205039e+00 8.547809915876095066e-02 1.185996372712286306e-02 9.962690643599378948e-01
3.052307692307692388e+00 7.551608036388572642e-02 8.833275357671942218e-04 9.971438456714497578e-01
3.179487179487179738e+00 7.026904330198759097e-02 -1.313552739531193350e-02 9.974412573157178663e-01
3.306666666666666643e+00 7.075714818942697992e-02 -2.435656785148351822e-02 9.971958171007411220e-01
3.433846153846153992e+00 7.281923470474276072e-02 -2.885650027505292509e-02 9.969272509735288557e-01
3.561025641025641342e+00 7.094732493407755747e-02 -2.795058504321437307e-02 9.970880319801631586e-01
3.688205128205128247e+00 6.310942588411062870e-02 -2.690584204271370683e-02 9.976435451477572158e-01
3.815384615384615596e+00 5.238647112146819357e-02 -3.034909982957459743e-02 9.981653308080999931e-01
3.942564102564102502e+00 4.421926019616661402e-02 -3.838360480203624470e-02 9.982839332294677348e-01
4.069743589743589851e+00 4.168824767390001684e-02 -4.669463030540467463e-02 9.980386371605161067e-01
4.196923076923076756e+00 4.296209071711402927e-02 -5.043180121046281911e-02 9.978027260643479446e-01
4.324102564102564550e+00 4.303903612882150481e-02 -4.843856351136922866e-02 9.978981652730026797e-01
4.451282051282051455e+00 3.816855687891979737e-02 -4.418647122247903319e-02 9.982936312993325734e-01
4.578461538461538360e+00 2.905702041263427682e-02 -4.268394527954069706e-02 9.986657530635578706e-01
4.705641025641026154e+00 2.016885860797522356e-02 -4.614696872290342117e-02 9.987307950837908121e-01
4.832820512820513059e+00 1.579103434448200782e-02 -5.217677751904971351e-02 9.985127531103925591e-01
4.959999999999999964e+00 1.631693413683084001e-02 -5.595665146308713422e-02 9.982995886733595503e-01
