0.000000000000000000e+00 -2.645924537010258100e-09 2.107308219398258433e-10 -1.000000000000000000e+00
1.271794871794871828e-01 -3.445814801622471557e-01 -1.027722692820670358e-01 -9.331123508947500866e-01
2.543589743589743657e-01 -6.131863998171266372e-01 -2.555147801597744683e-01 -7.474682041120321863e-01
3.815384615384615485e-01 -7.365104425003996536e-01 -4.740704685627604720e-01 -4.824945765173028756e-01
5.087179487179487314e-01 -6.672959937337428205e-01 -7.206772540794190718e-01 -1.879637348728042945e-01
6.358974358974358587e-01 -4.038963580929481600e-01 -9.101884505716415497e-01 9.173075538115335603e-02
7.630769230769230971e-01 -9.383279546027356588e-03 -9.445710777023393900e-01 3.281584010256654582e-01
8.902564102564103354e-01 3.923579783253871578e-01 -7.646330236134879499e-01 5.112565098170031019e-01
1.017435897435897463e+00 6.546848396069189224e-01 -3.945033347437693072e-01 6.447850310813182384e-01
1.144615384615384590e+00 6.717555624404180081e-01 4.943418158505674675e-02 7.391175106556068242e-01
1.271794871794871717e+00 4.374314138189355772e-01 4.002324735701177083e-01 8.052717491816823170e-01
1.398974358974359067e+00 6.201616400411630314e-02 5.198947420989089574e-01 8.519736228469655392e-01
1.526153846153846194e+00 -2.736080271602919778e-01 3.760310622728008090e-01 8.852883687968194915e-01
1.653333333333333321e+00 -4.104955471399529543e-01 6.762936319932144613e-02 9.093493914802447398e-01
1.780512820512820671e+00 -3.005746783833273539e-01 -2.241305437250374621e-01 9.270476872850433869e-01
1.907692307692307798e+00 -3.542958950426489118e-02 -3.383020089547622011e-01 9.403690056989236767e-01
2.034871794871794926e+00 2.094751974129714922e-01 -2.291102105733086314e-01 9.505925905714909252e-01
2.162051282051282275e+00 2.848770134347314853e-01 9.157837115962907948e-03 9.585192031681313285e-01
2.289230769230769180e+00 1.617365626202897089e-01 2.077560452194442964e-01 9.647158796283625826e-01
2.416410256410256530e+00 -5.532337677574462181e-02 2.381921791485416828e-01 9.696401301025681096e-01
2.543589743589743435e+00 -2.061664049013567646e-01 9.749519533215897371e-02 9.736469618924388225e-01
2.670769230769230784e+00 -1.902982279774560748e-01 -9.664264063259106474e-02 9.769571159057865994e-01
2.797948717948718134e+00 -3.567935878474546435e-02 -1.973028372043532375e-01 9.796923473757941370e-01
2.925128205128205039e+00 1.292295167231486963e-01 -1.381351933487572070e-01 9.819455222546958906e-01
3.052307692307692388e+00 1.778454425993723220e-01 2.137819694918442759e-02 9.838255218390210555e-01
3.179487179487179738e+00 8.245269970017922445e-02 1.487106361818402167e-01 9.854366837070892560e-01
3.306666666666666643e+00 -6.969247865630537331e-02 1.459074081024646641e-01 9.868398055450683382e-01
3.433846153846153992e+00 -1.519859716319440779e-01 2.547580413874483973e-02 9.880537019246876662e-01
3.561025641025641342e+00 -1.027038333113608481e-01 -1.056359120009267294e-01 9.890863966633191007e-01
3.688205128205128247e+00 2.793776087827747057e-02 -1.384848973568867936e-01 9.899698877766034411e-01
3.815384615384615596e+00 1.251183131287860462e-01 -5.250119981381893425e-02 9.907512491998952120e-01
3.942564102564102502e+00 1.089546535887558898e-01 7.166026869441941005e-02 9.914599009222054837e-01
4.069743589743589851e+00 5.482737889983962942e-04 1.254671184387683991e-01 9.920971655952993684e-01
4.196923076923076756e+00 -1.008520186307920452e-01 6.684889268170922383e-02 9.926526135341198209e-01
4.324102564102564550e+00 -1.073814730692932012e-01 -4.643694031356492002e-02 9.931324056408968870e-01
4.451282051282051455e+00 -1.879454869513164442e-02 -1.117175579689360654e-01 9.935618370627551377e-01
4.578461538461538360e+00 8.112641995468350409e-02 -7.385505782676046738e-02 9.939633444155087094e-01
4.705641025641026154e+00 1.025544812546073797e-01 2.780448681574333031e-02 9.943383252413511286e-01
4.832820512820513059e+00 3.027963916200115957e-02 9.852082023394975741e-02 9.946738332985999298e-01
4.959999999999999964e+00 -6.555280829698120759e-02 7.582413486915198786e-02 9.949637154964687813e-01
