0.000000000000000000e+00 -2.186962962379256423e-10 -4.482966576249791347e-09 -1.000000000000000000e+00
1.271794871794871828e-01 8.763701452357768040e-03 4.120695112894460777e-01 -9.111067103541830026e-01
2.543589743589743657e-01 2.800784013707430242e-02 7.437728527459539496e-01 -6.678353160177972203e-01
3.815384615384615485e-01 6.630213860902156586e-02 9.409974152697077043e-01 -3.318272547369913728e-01
5.087179487179487314e-01 1.279930823501104209e-01 9.915806659008284951e-01 1.911631528300641522e-02
6.358974358974358587e-01 2.110747333215679533e-01 9.245245067592580135e-01 3.173061514169782660e-01
7.630769230769230971e-01 3.062461154653387529e-01 7.940828523367131631e-01 5.250043861948021640e-01
8.902564102564103354e-01 3.984291743999301971e-01 6.564014926150941731e-01 6.406069202015303166e-01
1.017435897435897463e+00 4.710826368143322118e-01 5.490602855636352864e-01 6.903629144413933050e-01
1.144615384615384590e+00 5.121439120666692046e-01 4.816763319258476894e-01 7.111146262077059355e-01
1.271794871794871717e+00 5.190846149366565854e-01 4.401104771148811046e-01 7.326949857173500336e-01
1.398974358974359067e+00 5.004439115668385396e-01 4.003959606959794360e-01 7.676117856830180219e-01
1.526153846153846194e+00 4.725591609341834864e-01 3.444589056967862772e-01 8.111880207014562361e-01
1.653333333333333321e+00 4.525564039498936042e-01 2.698403447332927696e-01 8.499236369324107976e-01
1.780512820512820671e+00 4.507384187926377628e-01 1.893711168770091380e-01 8.723333777620979612e-01
1.907692307692307798e+00 4.661240092404950741e-01 1.222499333015166501e-01 8.762280279492176138e-01
2.034871794871794926e+00 4.875274340451107857e-01 8.226691688411127967e-02 8.692186743888153933e-01
2.162051282051282275e+00 4.997940911247590323e-01 6.978605792077607894e-02 8.633235344913917642e-01
2.289230769230769180e+00 4.920510416922507790e-01 7.174130574255024873e-02 8.676006289127529136e-01
2.416410256410256530e+00 4.636989944566282662e-01 6.912433372574987300e-02 8.832879036134714257e-01
2.543589743589743435e+00 4.248867756392541439e-01 4.755217637957129956e-02 9.039929535981920949e-01
2.670769230769230784e+00 3.911622221587121029e-01 4.967651845359105645e-03 9.203050282237320578e-01
2.797948717948718134e+00 3.751148626438368106e-01 -4.769550122286889127e-02 9.257473297940278512e-01
2.925128205128205039e+00 3.795587444304696634e-01 -9.299452213117229138e-02 9.204787273031751482e-01
3.052307692307692388e+00 3.959672070170816016e-01 -1.168968056400102734e-01 9.107901078539732964e-01
3.179487179487179738e+00 4.091446186179292788e-01 -1.165734489922278239e-01 9.049887212231130240e-01
3.306666666666666643e+00 4.055785355352534705e-01 -1.018493060197492861e-01 9.083645663154220617e-01
3.433846153846153992e+00 3.809452980359013252e-01 -8.964460306589594474e-02 9.202382434790561394e-01
3.561025641025641342e+00 3.425798555847365812e-01 -9.458182720528118814e-02 9.347127194951903029e-01
3.688205128205128247e+00 3.054928988077172392e-01 -1.209948565974603846e-01 9.444730507374123896e-01
3.815384615384615596e+00 2.840938290621693452e-01 -1.607136654985732716e-01 9.452284718974365285e-01
3.942564102564102502e+00 2.841895243396163062e-01 -1.977847145811076623e-01 9.381429654097122040e-01
4.069743589743589851e+00 2.997183510640101245e-01 -2.174142587415410777e-01 9.289210022022811319e-01
4.196923076923076756e+00 3.160691227949153359e-01 -2.141724690695797628e-01 9.242426827689169677e-01
4.324102564102564550e+00 3.182000025292756051e-01 -1.949527329932206621e-01 9.277588171793429428e-01
4.451282051282051455e+00 2.990397474653565535e-01 -1.750606544143810672e-01 9.380424826089286405e-01
4.578461538461538360e+00 2.634739345655908727e-01 -1.697067999808427041e-01 9.496190576665379801e-01
4.705641025641026154e+00 2.256713953496868319e-01 -1.855973428566725647e-01 9.563585484066242648e-01
4.832820512820513059e+00 2.011893194965292120e-01 -2.173016114226242745e-01 9.551431445345558435e-01
4.959999999999999964e+00 1.982529548953028686e-01 -2.503561132713891246e-01 9.476353461417201807e-01
