0.000000000000000000e+00 3.747847305242805559e-09 -3.144875366490337857e-09 -1.000000000000000000e+00
1.271794871794871828e-01 -4.011177328020931743e-02 4.101801397748322531e-01 -9.111190093800324297e-01
2.543589743589743657e-01 -6.403722610663833970e-02 7.414288828577046964e-01 -6.679603933717177533e-01
3.815384615384615485e-01 -5.919604659164628968e-02 9.414250440902560690e-01 -3.319624654531162511e-01
5.087179487179487314e-01 -2.000122625620670558e-02 9.995844631444028572e-01 2.034487636994307402e-02
6.358974358974358587e-01 4.996580046377591122e-02 9.448166031483923311e-01 3.237426868592965801e-01
7.630769230769230971e-01 1.381797580813058923e-01 8.283270649320193524e-01 5.429247449112885038e-01
8.902564102564103354e-01 2.266044406345286422e-01 7.005666385908704274e-01 6.766428975683620450e-01
1.017435897435897463e+00 2.977611325411030907e-01 5.932519022393745178e-01 7.479175709503833591e-01
1.144615384615384590e+00 3.411254084764121508e-01 5.135912802027734481e-01 7.873046078948693349e-01
1.271794871794871717e+00 3.568289876387602533e-01 4.510434562780832879e-01 8.180615609369524810e-01
1.398974358974359067e+00 3.545594876832364184e-01 3.906492435030374244e-01 8.495136275711425711e-01
1.526153846153846194e+00 3.480259999642273394e-01 3.246478360788895845e-01 8.794743981282102663e-01
1.653333333333333321e+00 3.477455337577106120e-01 2.564457097308093791e-01 9.018330686918543115e-01
1.780512820512820671e+00 3.561120773962920816e-01 1.962508529676755265e-01 9.135997089772222024e-01
1.907692307692307798e+00 3.673752112574851791e-01 1.526359041877981826e-01 9.174598147797599079e-01
2.034871794871794926e+00 3.723502099665865761e-01 1.261128726668347411e-01 9.194812168702386490e-01
2.162051282051282275e+00 3.648927621016928580e-01 1.087101530491605406e-01 9.246785454134038851e-01
2.289230769230769180e+00 3.460673019850852850e-01 8.934462279400076645e-02 9.339434357760600935e-01
2.416410256410256530e+00 3.235113367097212644e-01 6.102947023145091632e-02 9.442518794231731238e-01
2.543589743589743435e+00 3.065254205662194531e-01 2.507095525659702728e-02 9.515301957531427934e-01
2.670769230769230784e+00 3.001265226895210025e-01 -1.037267172202413490e-02 9.538410151335959819e-01
2.797948717948718134e+00 3.019607658880584800e-01 -3.614216600751576913e-02 9.526329796761979773e-01
2.925128205128205039e+00 3.040509118903308439e-01 -4.837471202220561262e-02 9.514247346570056107e-01
3.052307692307692388e+00 2.981666027842936884e-01 -5.105336809429134037e-02 9.531455324677005070e-01
3.179487179487179738e+00 2.813475294742243116e-01 -5.329925730987966626e-02 9.581227259516966743e-01
3.306666666666666643e+00 2.578355402067282753e-01 -6.333141686766366463e-02 9.641092518901609454e-01
3.433846153846153992e+00 2.362727960620735201e-01 -8.313968503472733695e-02 9.681218125143461473e-01
3.561025641025641342e+00 2.239638781826954750e-01 -1.073738091796221372e-01 9.686629761518968929e-01
3.688205128205128247e+00 2.220733911459777110e-01 -1.270976927795680056e-01 9.667090566541686192e-01
3.815384615384615596e+00 2.248898606498337394e-01 -1.358222921283245566e-01 9.648697200124758400e-01
3.942564102564102502e+00 2.236791578382487933e-01 -1.338305862536991464e-01 9.654293127803500463e-01
4.069743589743589851e+00 2.125263851943451077e-01 -1.279371981930479407e-01 9.687422423017141293e-01
4.196923076923076756e+00 1.922766638979227505e-01 -1.269554336196382638e-01 9.730925740636440224e-01
4.324102564102564550e+00 1.699571666484036292e-01 -1.358538528942710710e-01 9.760407859126711827e-01
4.451282051282051455e+00 1.540700708505144401e-01 -1.525447185882077006e-01 9.762119955767984969e-01
4.578461538461538360e+00 1.489208878435495376e-01 -1.693826478376116162e-01 9.742326759994114349e-01
4.705641025641026154e+00 1.517466680601259610e-01 -1.783123242355511562e-01 9.722009918040431797e-01
4.832820512820513059e+00 1.545879861006118072e-01 -1.762638293413401613e-01 9.721269042041592590e-01
4.959999999999999964e+00 1.496367370086832405e-01 -1.671783731899648406e-01 9.745037065603602278e-01
