0.000000000000000000e+00 -1.384864649880714090e-09 -2.196758203008422404e-09 -1.000000000000000000e+00
1.271794871794871828e-01 3.044390557202269476e-01 -1.913530217634448471e-01 -9.331121065796835756e-01
2.543589743589743657e-01 5.603632145301584710e-01 -3.567582110035372733e-01 -7.474697344357480455e-01
3.815384615384615485e-01 7.335856354149815628e-01 -4.785852119526873283e-01 -4.824936945360209228e-01
5.087179487179487314e-01 8.125530951045178973e-01 -5.517407148778777914e-01 -1.879630774116392566e-01
6.358974358974358587e-01 8.077292553391530738e-01 -5.823659304583724827e-01 9.172593965855879716e-02
7.630769230769230971e-01 7.435798011897050142e-01 -5.825736345953830275e-01 3.281585016219971673e-01
8.902564102564103354e-01 6.478624154484898812e-01 -5.646970144547986958e-01 5.112569329781770922e-01
1.017435897435897463e+00 5.431537762237992339e-01 -5.378004368599363927e-01 6.447851450405492901e-01
1.144615384615384590e+00 4.432903314279161289e-01 -5.071410106040765697e-01 7.391183406332705319e-01
1.271794871794871717e+00 3.543022771026574369e-01 -4.753960201666169727e-01 8.052723919881314973e-01
1.398974358974359067e+00 2.774843477645752565e-01 -4.440035324586857346e-01 8.519736618772200121e-01
1.526153846153846194e+00 2.121888929045440964e-01 -4.138088913050034234e-01 8.852877789629811645e-01
1.653333333333333321e+00 1.572544863129559656e-01 -3.851642205398946861e-01 9.093494300681500553e-01
1.780512820512820671e+00 1.113211370662906263e-01 -3.580322234926253677e-01 9.270478519613879476e-01
1.907692307692307798e+00 7.290949026884890882e-02 -3.322448948790000522e-01 9.403696213337885412e-01
2.034871794871794926e+00 4.061495971858314347e-02 -3.077666806418845602e-01 9.505934096023352931e-01
2.162051282051282275e+00 1.335654330279379548e-02 -2.847105336431679512e-01 9.585194107383919748e-01
2.289230769230769180e+00 -9.564225992529755416e-03 -2.631163877364904313e-01 9.647157131148755838e-01
2.416410256410256530e+00 -2.867887750636446270e-02 -2.428439227597943006e-01 9.696404545430170607e-01
2.543589743589743435e+00 -4.456431945732816646e-02 -2.236606369921070869e-01 9.736469191137629986e-01
2.670769230769230784e+00 -5.784706318202834097e-02 -2.054438790604368736e-01 9.769570229297931396e-01
2.797948717948718134e+00 -6.903189698911600669e-02 -1.882461636190368437e-01 9.796920786597470565e-01
2.925128205128205039e+00 -7.837358004611102991e-02 -1.721597360456421644e-01 9.819456612611505708e-01
3.052307692307692388e+00 -8.598396345003533892e-02 -1.571402788113356042e-01 9.838254106990245162e-01
3.179487179487179738e+00 -9.201955972681311047e-02 -1.429899914797942428e-01 9.854364896112701722e-01
3.306666666666666643e+00 -9.677172603258482608e-02 -1.295407508704379818e-01 9.868400577671229135e-01
3.433846153846153992e+00 -1.005575084319085266e-01 -1.167770069602568767e-01 9.880537652841351326e-01
3.561025641025641342e+00 -1.035460345236572099e-01 -1.048079060407346441e-01 9.890866970335627784e-01
3.688205128205128247e+00 -1.057398718120132197e-01 -9.368676912787565758e-02 9.899701431518533878e-01
3.815384615384615596e+00 -1.071043845013537887e-01 -8.330341439417453253e-02 9.907513551446494038e-01
3.942564102564102502e+00 -1.077413627550055375e-01 -7.347167604962363818e-02 9.914599356834625787e-01
4.069743589743589851e+00 -1.078624449288365372e-01 -6.409510266458244565e-02 9.920970907078043854e-01
4.196923076923076756e+00 -1.076516462977484684e-01 -5.523560214407795266e-02 9.926526628754621662e-01
4.324102564102564550e+00 -1.071323674591458108e-01 -4.701213230939967763e-02 9.931322671729131413e-01
4.451282051282051455e+00 -1.062100178247421672e-01 -3.942312393666003167e-02 9.935615032509317324e-01
4.578461538461538360e+00 -1.048403675969844240e-01 -3.232096119672039219e-02 9.939633236323504040e-01
4.705641025641026154e+00 -1.031389995874074372e-01 -2.554846953472625359e-02 9.943384137780441057e-01
4.832820512820513059e+00 -1.012871403323707398e-01 -1.908616076889519536e-02 9.946737724897091182e-01
4.959999999999999964e+00 -9.937970728497655393e-02 -1.304556805202420483e-02 9.949637112488219914e-01
