0.000000000000000000e+00 -5.613138248633074707e-09 2.278050480587590721e-09 -1.000000000000000000e+00
1.271794871794871828e-01 2.055052793974882497e-01 1.176775784048134238e-01 -9.715543119999653365e-01
2.543589743589743657e-01 3.716306692392900013e-01 2.642100735643653220e-01 -8.899887290932874118e-01
3.815384615384615485e-01 4.570702382293090338e-01 4.527034353448551318e-01 -7.655981925324710780e-01
5.087179487179487314e-01 4.226993741077915145e-01 6.678684545456210486e-01 -6.125923495281527797e-01
6.358974358974358587e-01 2.446585568651094000e-01 8.610108729358318946e-01 -4.458627344405453052e-01
7.630769230769230971e-01 -6.659731298917548337e-02 9.581817153163438849e-01 -2.782854065035303415e-01
8.902564102564103354e-01 -4.506522135451462296e-01 8.846945461376377606e-01 -1.192385897562953517e-01
1.017435897435897463e+00 -7.980337686381976381e-01 6.020566264553399716e-01 2.568147121521838216e-02
1.144615384615384590e+00 -9.776153898484828408e-01 1.433178801441657990e-01 1.540062029138332678e-01
1.271794871794871717e+00 -8.886153355059169812e-01 -3.740172164136439381e-01 2.654505104504875090e-01
1.398974358974359067e+00 -5.183262639540140437e-01 -7.752159127579711928e-01 3.610661151881202069e-01
1.526153846153846194e+00 2.596697460930735835e-02 -8.963902510196347651e-01 4.424944669251678619e-01
1.653333333333333321e+00 5.396277917092157095e-01 -6.686107383951095384e-01 5.116181544519378122e-01
1.780512820512820671e+00 8.028892273148460212e-01 -1.736774499182693332e-01 5.702604926604837310e-01
1.907692307692307798e+00 6.916678795802748692e-01 3.702716702933225301e-01 6.200700869762775236e-01
2.034871794871794926e+00 2.578261063524435182e-01 7.033041813660768637e-01 6.624816301792983975e-01
2.162051282051282275e+00 -2.770665694806531687e-01 6.595632927050409933e-01 6.987158211220199089e-01
2.289230769230769180e+00 -6.284089740195009099e-01 2.692423205900134064e-01 7.297975749311550464e-01
2.416410256410256530e+00 -6.069994546586952033e-01 -2.431879594420588708e-01 7.565747506791641319e-01
2.543589743589743435e+00 -2.367754744830610492e-01 -5.795864879816924331e-01 7.797507941155217281e-01
2.670769230769230784e+00 2.495286353131394297e-01 -5.458059015629830313e-01 7.998913148188402378e-01
2.797948717948718134e+00 5.481921413595817194e-01 -1.766985266073520799e-01 8.174704754809247742e-01
2.925128205128205039e+00 4.772759367593801261e-01 2.801817737499674443e-01 8.328872284319778219e-01
3.052307692307692388e+00 9.833554517135600914e-02 5.232837190618996326e-01 8.464630713549815555e-01
3.179487179487179738e+00 -3.221522611999325658e-01 3.990468372147320530e-01 8.584726087321694621e-01
3.306666666666666643e+00 -4.945006600122553997e-01 8.260424825016696171e-03 8.691356233295534084e-01
3.433846153846153992e+00 -3.088123975553391798e-01 -3.641934249641243238e-01 8.786319365612462740e-01
3.561025641025641342e+00 8.696647458505332717e-02 -4.532616083504483195e-01 8.871228455840252103e-01
3.688205128205128247e+00 3.960484706259253529e-01 -2.063222350923540616e-01 8.947474946168260113e-01
3.815384615384615596e+00 3.934605965789079729e-01 1.796482333693722733e-01 9.016161920937677543e-01
3.942564102564102502e+00 9.426745642486135390e-02 4.086220927050008278e-01 9.078205819212871175e-01
4.069743589743589851e+00 -2.608554828730166308e-01 3.123704432473517478e-01 9.134417629318694054e-01
4.196923076923076756e+00 -3.947357643926817650e-01 -2.126258514209880546e-02 9.185469133696045896e-01
4.324102564102564550e+00 -2.113148228289698782e-01 -3.210110851321666958e-01 9.231981718750708055e-01
4.451282051282051455e+00 1.311344115277092992e-01 -3.501932172647190256e-01 9.274510603963982414e-01
4.578461538461538360e+00 3.512566569223066759e-01 -9.593733603454021597e-02 9.313495033103625920e-01
4.705641025641026154e+00 2.749358376461733533e-01 2.243162588373159572e-01 9.349276635174038619e-01
4.832820512820513059e+00 -2.399270814675019681e-02 3.452134633128999819e-01 9.382160192783778330e-01
4.959999999999999964e+00 -2.894821344957626552e-01 1.739263678936207591e-01 9.412476075467151038e-01
