0.000000000000000000e+00 2.889238788534586296e-09 1.325497751911694559e-09 -1.000000000000000000e+00
1.271794871794871828e-01 -5.897289490922710820e-02 -3.542868119992084175e-01 -9.332713181582068529e-01
2.543589743589743657e-01 -5.713547452308087582e-02 -6.588549134378479666e-01 -7.500864060688668955e-01
3.815384615384615485e-01 4.459508289802466274e-02 -8.670853282562104303e-01 -4.961362868662105852e-01
5.087179487179487314e-01 2.485566901884412316e-01 -9.404942445886809166e-01 -2.316531182587544535e-01
6.358974358974358587e-01 5.165111374339985684e-01 -8.561637112849272979e-01 -1.311189625047722018e-02
7.630769230769230971e-01 7.786773212444504377e-01 -6.151918752339373686e-01 1.231781517733151060e-01
8.902564102564103354e-01 9.534018766256944222e-01 -2.489868732545461039e-01 1.703024707225135048e-01
1.017435897435897463e+00 9.720737424560983442e-01 1.803615137137957181e-01 1.500492326890516814e-01
1.144615384615384590e+00 8.020655585930256404e-01 5.882832659613096427e-01 1.028873925076221885e-01
1.271794871794871717e+00 4.606631428763411362e-01 8.845978821023015026e-01 7.244395809565817856e-02
1.398974358974359067e+00 1.517976658389397215e-02 9.958161682352066890e-01 8.995480737129284143e-02
1.526153846153846194e+00 -4.317832484921455549e-01 8.869198506854831798e-01 1.640393502980923290e-01
1.653333333333333321e+00 -7.686302616181968084e-01 5.755758822412264664e-01 2.790939532221226038e-01
1.780512820512820671e+00 -9.057066095707011488e-01 1.330384642308130583e-01 4.024568135297735827e-01
1.907692307692307798e+00 -8.020504062577484827e-01 -3.304815989258320097e-01 4.974675863400082054e-01
2.034871794871794926e+00 -4.798404192297415771e-01 -6.934413359525756215e-01 5.374663572561046987e-01
2.162051282051282275e+00 -2.146728398313335617e-02 -8.564923798369483698e-01 5.156910677333598203e-01
2.289230769230769180e+00 4.509597556909203941e-01 -7.721969531913893681e-01 4.475747315291627726e-01
2.416410256410256530e+00 8.086715761155212068e-01 -4.614560789685145381e-01 3.648056725447224591e-01
2.543589743589743435e+00 9.527539740422037440e-01 -1.056511045176417030e-02 3.035160911484538482e-01
2.670769230769230784e+00 8.434689486707288575e-01 4.514887768171781945e-01 2.910183200004775039e-01
2.797948717948718134e+00 5.133258454573723650e-01 7.896975299506814316e-01 3.359294443851455481e-01
2.925128205128205039e+00 5.925208331245418458e-02 9.030953999383131148e-01 4.253039650180832631e-01
3.052307692307692388e+00 -3.846220796630866468e-01 7.559824197626398012e-01 5.296546701259231549e-01
3.179487179487179738e+00 -6.860993893360221030e-01 3.902357293088256074e-01 6.139734558721609003e-01
3.306666666666666643e+00 -7.545027485998069272e-01 -8.584929173245561818e-02 6.506429071187095348e-01
3.433846153846153992e+00 -5.686480674388618706e-01 -5.294700419409955616e-01 6.295084956452492442e-01
3.561025641025641342e+00 -1.842986404678267354e-01 -8.066990280347595688e-01 5.614704338209312029e-01
3.688205128205128247e+00 2.818302201129523343e-01 -8.339929202806605213e-01 4.743458853945937137e-01
3.815384615384615596e+00 6.871628474513644669e-01 -6.047342762115881509e-01 4.025901815376594639e-01
3.942564102564102502e+00 9.070287929516809289e-01 -1.920882011960080016e-01 3.746673716388727038e-01
4.069743589743589851e+00 8.735924764948606036e-01 2.732054360765980849e-01 4.027035773477996572e-01
4.196923076923076756e+00 5.976239528839240034e-01 6.435584977107698945e-01 4.781784442081301045e-01
4.324102564102564550e+00 1.658779243205091569e-01 8.010247714689682219e-01 5.751717239391573866e-01
4.451282051282051455e+00 -2.855705655633762330e-01 6.949126079175406145e-01 6.599446110178812663e-01
4.578461538461538360e+00 -6.139917667957210945e-01 3.582612060327828307e-01 7.033102469771348453e-01
4.705641025641026154e+00 -7.153144156922501828e-01 -1.023153105009630970e-01 6.912588316642779285e-01
4.832820512820513059e+00 -5.576187553756024595e-01 -5.404920678731176542e-01 6.300077367693430741e-01
4.959999999999999964e+00 -1.918761285803624039e-01 -8.170859912778840606e-01 5.436285259140865023e-01
