0.000000000000000000e+00 4.091072897481152432e-09 2.376607603804726194e-09 -1.000000000000000000e+00
1.271794871794871828e-01 -1.588463015371298359e-01 8.131139089754892135e-02 -9.839486423694423500e-01
2.543589743589743657e-01 -3.093860885315397602e-01 1.602836155320207512e-01 -9.373294845028817823e-01
3.815384615384615485e-01 -4.445702646967343852e-01 2.348523284489020535e-01 -8.644057313045472313e-01
5.087179487179487314e-01 -5.595235166138295968e-01 3.034004470822956323e-01 -7.712818589840829686e-01
6.358974358974358587e-01 -6.518785728175697791e-01 3.648763114097627880e-01 -6.647648808129025255e-01
7.630769230769230971e-01 -7.215466388599989234e-01 4.188047712142364820e-01 -5.513298547611403810e-01
8.902564102564103354e-01 -7.701348361354860561e-01 4.652073710534516127e-01 -4.364230947390114745e-01
1.017435897435897463e+00 -8.002622541224237995e-01 5.044730454379912077e-01 -3.241562693390763195e-01
1.144615384615384590e+00 -8.149593225397241403e-01 5.372211164236408987e-01 -2.173116569929431641e-01
1.271794871794871717e+00 -8.172339742773681026e-01 5.641798807299580609e-01 -1.175543324828055985e-01
1.398974358974359067e+00 -8.098302864020702208e-01 5.860926483264730091e-01 -2.568163887998068870e-02
1.526153846153846194e+00 -7.951076687600122650e-01 6.036680099175537606e-01 5.812039460710912570e-02
1.653333333333333321e+00 -7.750083393767023265e-01 6.175554918986452257e-01 1.340770551022807400e-01
1.780512820512820671e+00 -7.510969806010949767e-01 6.283182464882913765e-01 2.026303029326516070e-01
1.907692307692307798e+00 -7.245934791486409177e-01 6.364501499700364606e-01 2.643581854770175599e-01
2.034871794871794926e+00 -6.964454932086365790e-01 6.423663133219001953e-01 3.198737191537009417e-01
2.162051282051282275e+00 -6.673779681229261573e-01 6.464090700285333169e-01 3.698002512664511632e-01
2.289230769230769180e+00 -6.379241173542122834e-01 6.488790557547033933e-01 4.147280174440635681e-01
2.416410256410256530e+00 -6.084841746321598688e-01 6.500141481365342422e-01 4.552136194601391073e-01
2.543589743589743435e+00 -5.793451085843067672e-01 6.500260853525124949e-01 4.917483299673534036e-01
2.670769230769230784e+00 -5.507172107731110877e-01 6.490910348726133261e-01 5.247692293656959217e-01
2.797948717948718134e+00 -5.227525927651310855e-01 6.473453894458390812e-01 5.546758435736293125e-01
2.925128205128205039e+00 -4.955522169177420388e-01 6.449089531119712726e-01 5.818181193506096749e-01
3.052307692307692388e+00 -4.691773579959186424e-01 6.418799447952306947e-01 6.065104017684280757e-01
3.179487179487179738e+00 -4.436533365764524506e-01 6.383490485292013794e-01 6.290266806689223111e-01
3.306666666666666643e+00 -4.189994561147563079e-01 6.343915015128088752e-01 6.495994592019433966e-01
3.433846153846153992e+00 -3.952201437963220876e-01 6.300735716020314792e-01 6.684318227405592339e-01
3.561025641025641342e+00 -3.723163018969184446e-01 6.254429503769006748e-01 6.857074213483581593e-01
3.688205128205128247e+00 -3.502721035700022134e-01 6.205409703319835213e-01 7.015921451683786447e-01
3.815384615384615596e+00 -3.290592513941966168e-01 6.154024245242161184e-01 7.162354558955239536e-01
3.942564102564102502e+00 -3.086470869106157089e-01 6.100657934476312327e-01 7.297603938482639663e-01
4.069743589743589851e+00 -2.890084081734799470e-01 6.045688705450655842e-01 7.422697057514598962e-01
4.196923076923076756e+00 -2.701195791452523087e-01 5.989353478787851071e-01 7.538605466326607774e-01
4.324102564102564550e+00 -2.519643329450000913e-01 5.931886362454916739e-01 7.646144333856292885e-01
4.451282051282051455e+00 -2.345133179999166761e-01 5.873341372304243801e-01 7.746200798193068060e-01
4.578461538461538360e+00 -2.177270143250162326e-01 5.813880289968254012e-01 7.839497426441056627e-01
4.705641025641026154e+00 -2.015693773137469114e-01 5.753730762969067047e-01 7.926600951378184323e-01
4.832820512820513059e+00 -1.860105737444877894e-01 5.693072164908344890e-01 8.008020396371063887e-01
4.959999999999999964e+00 -1.710417900077577935e-01 5.632089871319225782e-01 8.084151154698443476e-01
