0.000000000000000000e+00 -2.670887324832619219e-09 1.232777993223657571e-09 -1.000000000000000000e+00
1.271794871794871828e-01 -1.819762829275654165e-02 3.015053905325732614e-02 -9.993794171120049530e-01
2.543589743589743657e-01 -3.960170401379839444e-02 5.817307476972169433e-02 -9.975201827839493829e-01
3.815384615384615485e-01 -6.689651828581839876e-02 8.143315688799518393e-02 -9.944304390768413660e-01
5.087179487179487314e-01 -1.017389554430715715e-01 9.640679278670757912e-02 -9.901276725857296457e-01
6.358974358974358587e-01 -1.440471126108621991e-01 9.864568236035986537e-02 -9.846404565642439266e-01
7.630769230769230971e-01 -1.912231579154253236e-01 8.319266613687872902e-02 -9.780130362156090884e-01
8.902564102564103354e-01 -2.375293598964484665e-01 4.559817724326609839e-02 -9.703076339696486974e-01
1.017435897435897463e+00 -2.739552429020516988e-01 -1.648851510559901090e-02 -9.615988692995577347e-01
1.144615384615384590e+00 -2.889160816167460344e-01 -1.013515884541845991e-01 -9.519719230738826754e-01
1.271794871794871717e+00 -2.701604277201775095e-01 -2.013827596502547057e-01 -9.415163089172587929e-01
1.398974358974359067e+00 -2.079061268668559448e-01 -3.021134493257549014e-01 -9.303207051905159064e-01
1.526153846153846194e+00 -9.880588270232473769e-02 -3.829323549023004314e-01 -9.184735971722829406e-01
1.653333333333333321e+00 5.020278930948782192e-02 -4.201398438158160942e-01 -9.060657822350312030e-01
1.780512820512820671e+00 2.195811427582865516e-01 -3.924097469312267106e-01 -8.931915883517039800e-01
1.907692307692307798e+00 3.779265669086114832e-01 -2.878567610544615629e-01 -8.799443136993687631e-01
2.034871794871794926e+00 4.868489111663873992e-01 -1.108845386786018461e-01 -8.664146038340183598e-01
2.162051282051282275e+00 5.099213197783527551e-01 1.136184749142729739e-01 -8.526793645322329196e-01
2.289230769230769180e+00 4.241783356339795530e-01 3.413033638092351496e-01 -8.387939582478179945e-01
2.416410256410256530e+00 2.309539283796656628e-01 5.161068007313691641e-01 -8.247933953593152845e-01
2.543589743589743435e+00 -3.797286849615827409e-02 5.842194213575571116e-01 -8.107005395948602144e-01
2.670769230769230784e+00 -3.225862650940161669e-01 5.113053724804346167e-01 -7.965514182146911093e-01
2.797948717948718134e+00 -5.469552554920397158e-01 2.978124739306369229e-01 -7.823915305353362770e-01
2.925128205128205039e+00 -6.399461711619575111e-01 -1.371951604155335902e-02 -7.682897091495722863e-01
3.052307692307692388e+00 -5.591640372006163595e-01 -3.440028136377236700e-01 -7.543113710379515391e-01
3.179487179487179738e+00 -3.101319340388886125e-01 -5.961964533420321954e-01 -7.405103907735458568e-01
3.306666666666666643e+00 4.731791450373523666e-02 -6.851130729890643201e-01 -7.268895327155255881e-01
3.433846153846153992e+00 4.106118045834395436e-01 -5.678183011424745574e-01 -7.134194423753866809e-01
3.561025641025641342e+00 6.632478231710194905e-01 -2.645882671151033039e-01 -7.000585718889101861e-01
3.688205128205128247e+00 7.133662054546042741e-01 1.394151442902969440e-01 -6.867739073318226417e-01
3.815384615384615596e+00 5.292978533999377344e-01 5.158589803213786684e-01 -6.735869311105622259e-01
3.942564102564102502e+00 1.581223102193896612e-01 7.339248079131872604e-01 -6.605584210585968563e-01
4.069743589743589851e+00 -2.825968734110895775e-01 7.074673035945744370e-01 -6.477765702385606117e-01
4.196923076923076756e+00 -6.405772365322103257e-01 4.313164173734619355e-01 -6.353047704449702460e-01
4.324102564102564550e+00 -7.820481203447298135e-01 -8.824647419268392273e-03 -6.231434991644028143e-01
4.451282051282051455e+00 -6.438383739722424171e-01 -4.602701714872484140e-01 -6.112350140489437589e-01
4.578461538461538360e+00 -2.635834456964644690e-01 -7.557419544329064820e-01 -5.994683891200598413e-01
4.705641025641026154e+00 2.265824956667927270e-01 -7.766418351705922651e-01 -5.877687036500741646e-01
4.832820512820513059e+00 6.442247527310103195e-01 -5.030316073246973163e-01 -5.761229833251407806e-01
4.959999999999999964e+00 8.248628434210661942e-01 -2.864175895364137747e-02 -5.645925612298720031e-01
