0.000000000000000000e+00 3.643183440906851182e-09 -6.190146934757255853e-10 -1.000000000000000000e+00
1.271794871794871828e-01 1.757369688245158292e-03 -1.145987777241739072e-02 -9.999326634855832951e-01
2.543589743589743657e-01 5.372870006582128148e-03 -2.207325265846918003e-02 -9.997416888210759467e-01
3.815384615384615485e-01 1.236029946428021838e-02 -3.078349424283463934e-02 -9.994493245405176030e-01
5.087179487179487314e-01 2.368155042351525671e-02 -3.623605643053026681e-02 -9.990622136770981321e-01
6.358974358974358587e-01 3.944402824240357541e-02 -3.678363936581719590e-02 -9.985440002787486780e-01
7.630769230769230971e-01 5.868467405962200095e-02 -3.068294709207180365e-02 -9.978043089030943502e-01
8.902564102564103354e-01 7.926304081450939731e-02 -1.644566075278182382e-02 -9.967173260967007176e-01
1.017435897435897463e+00 9.794573577001128295e-02 6.671358774338644049e-03 -9.951684990896878524e-01
1.144615384615384590e+00 1.107313089085221885e-01 3.815292389037150400e-02 -9.931167166415586500e-01
1.271794871794871717e+00 1.134425417047573575e-01 7.580883197254273398e-02 -9.906469332548757389e-01
1.398974358974359067e+00 1.025378111042308249e-01 1.156029240794947677e-01 -9.879874331403993848e-01
1.526153846153846194e+00 7.603267853537469534e-02 1.518357851036472861e-01 -9.854754443440216782e-01
1.653333333333333321e+00 3.436184781155693369e-02 1.777760151709576186e-01 -9.834692007998500074e-01
1.780512820512820671e+00 -1.905129280470572312e-02 1.867258946672943343e-01 -9.822255745844549191e-01
1.907692307692307798e+00 -7.771418068368989018e-02 1.733517312441758829e-01 -9.817872649518123440e-01
2.034871794871794926e+00 -1.326381796981908334e-01 1.351084913105808361e-01 -9.819110826753667531e-01
2.162051282051282275e+00 -1.735603985739621324e-01 7.340602455007794180e-02 -9.820819327045231528e-01
2.289230769230769180e+00 -1.907484854302521071e-01 -5.806056943915467033e-03 -9.816200054149076815e-01
2.416410256410256530e+00 -1.770585630966265978e-01 -9.227055592651919880e-02 -9.798636498411393836e-01
2.543589743589743435e+00 -1.298756729677431609e-01 -1.726358148679324467e-01 -9.763837567909351423e-01
2.670769230769230784e+00 -5.245729100457380278e-02 -2.325582389660058868e-01 -9.711645148017350460e-01
2.797948717948718134e+00 4.570280996550637326e-02 -2.593891928631987809e-01 -9.646883546923876729e-01
2.925128205128205039e+00 1.497915122138914756e-01 -2.449914136942350495e-01 -9.578811744364499337e-01
3.052307692307692388e+00 2.418524941478863155e-01 -1.880450602307589814e-01 -9.519142084446775565e-01
3.179487179487179738e+00 3.039741444362550338e-01 -9.526275200219222472e-02 -9.479022641053987952e-01
3.306666666666666643e+00 3.219176728915921770e-01 1.891239439837280600e-02 -9.465755250208892635e-01
3.433846153846153992e+00 2.884875350304272335e-01 1.342970674784014495e-01 -9.480154102934653659e-01
3.561025641025641342e+00 2.058265264366538894e-01 2.284433121634497910e-01 -9.515478446354912467e-01
3.688205128205128247e+00 8.601153588345071543e-02 2.810064434381290277e-01 -9.558409345604707008e-01
3.815384615384615596e+00 -5.040477361684053692e-02 2.781898007658905603e-01 -9.591999359389304924e-01
3.942564102564102502e+00 -1.778253910434329510e-01 2.162512769776138710e-01 -9.600043211170190549e-01
4.069743589743589851e+00 -2.705035258267116660e-01 1.032192675990009217e-01 -9.571667628764426450e-01
4.196923076923076756e+00 -3.079286535496761346e-01 -4.175847574861701883e-02 -9.504895111959197340e-01
4.324102564102564550e+00 -2.796066228878514304e-01 -1.915537972419747714e-01 -9.408086009057531340e-01
4.451282051282051455e+00 -1.880871272820498485e-01 -3.162032428369035975e-01 -9.298557071061452906e-01
4.578461538461538360e+00 -4.938806280295836293e-02 -3.890973303527534566e-01 -9.198676303088696438e-01
4.705641025641026154e+00 1.094965351955112937e-01 -3.929708407111219826e-01 -9.130040698041949065e-01
4.832820512820513059e+00 2.556955872847958555e-01 -3.242309170373901539e-01 -9.107612057627851865e-01
4.959999999999999964e+00 3.572531440462535790e-01 -1.946325110130507630e-01 -9.134990053723366366e-01
