1.000000000000000056e-01 9.899384550364913604e-01 0.000000000000000000e+00 1.006154496351050788e-02 0.000000000000000000e+00 0.000000000000000000e+00 0.000000000000000000e+00 9.495320264864516580e-02 3.072783002185251397e-02 0.000000000000000000e+00 0.000000000000000000e+00 0.000000000000000000e+00 0.000000000000000000e+00 0.000000000000000000e+00 0.000000000000000000e+00 0.000000000000000000e+00 0.000000000000000000e+00
2.000000000000000111e-01 9.603674595111094670e-01 0.000000000000000000e+00 3.963254048889273268e-02 0.000000000000000000e+00 0.000000000000000000e+00 0.000000000000000000e+00 1.849639376703381133e-01 6.204952597982402174e-02 0.000000000000000000e+00 0.000000000000000000e+00 0.000000000000000000e+00 0.000000000000000000e+00 0.000000000000000000e+00 0.000000000000000000e+00 0.000000000000000000e+00 0.000000000000000000e+00
2.999999999999999889e-01 9.130695302736937524e-01 0.000000000000000000e+00 8.693046972630520675e-02 0.000000000000000000e+00 0.000000000000000000e+00 0.000000000000000000e+00 2.654711323535866585e-01 9.433260371628664209e-02 0.000000000000000000e+00 0.000000000000000000e+00 0.000000000000000000e+00 0.000000000000000000e+00 0.000000000000000000e+00 0.000000000000000000e+00 0.000000000000000000e+00 0.000000000000000000e+00
4.000000000000000222e-01 8.508119233189618269e-01 0.000000000000000000e+00 1.491880766810350922e-01 0.000000000000000000e+00 0.000000000000000000e+00 0.000000000000000000e+00 3.326460581371501468e-01 1.275836732192187073e-01 0.000000000000000000e+00 0.000000000000000000e+00 0.000000000000000000e+00 0.000000000000000000e+00 0.000000000000000000e+00 0.000000000000000000e+00 0.000000000000000000e+00 0.000000000000000000e+00
5.000000000000000000e-01 7.770735660900969233e-01 0.000000000000000000e+00 2.229264339099046033e-01 0.000000000000000000e+00 0.000000000000000000e+00 0.000000000000000000e+00 3.836694005321866219e-01 1.613320486136823884e-01 0.000000000000000000e+00 0.000000000000000000e+00 0.000000000000000000e+00 0.000000000000000000e+00 0.000000000000000000e+00 0.000000000000000000e+00 0.000000000000000000e+00 0.000000000000000000e+00
5.999999999999999778e-01 6.957212156520233837e-01 0.000000000000000000e+00 3.042787843479797250e-01 0.000000000000000000e+00 0.000000000000000000e+00 0.000000000000000000e+00 4.169063519055660194e-01 1.946337554916693913e-01 0.000000000000000000e+00 0.000000000000000000e+00 0.000000000000000000e+00 0.000000000000000000e+00 0.000000000000000000e+00 0.000000000000000000e+00 0.000000000000000000e+00 0.000000000000000000e+00
6.999999999999999556e-01 6.106812852446386053e-01 0.000000000000000000e+00 3.893187147553608396e-01 0.000000000000000000e+00 0.000000000000000000e+00 0.000000000000000000e+00 4.319776969802763822e-01 2.261524299112450953e-01 0.000000000000000000e+00 0.000000000000000000e+00 0.000000000000000000e+00 0.000000000000000000e+00 0.000000000000000000e+00 0.000000000000000000e+00 0.000000000000000000e+00 0.000000000000000000e+00
7.999999999999999334e-01 5.256112987997129116e-01 0.000000000000000000e+00 4.743887012002896975e-01 0.000000000000000000e+00 0.000000000000000000e+00 0.000000000000000000e+00 4.297062643447513985e-01 2.543552379004654362e-01 0.000000000000000000e+00 0.000000000000000000e+00 0.000000000000000000e+00 0.000000000000000000e+00 0.000000000000000000e+00 0.000000000000000000e+00 0.000000000000000000e+00 0.000000000000000000e+00
8.999999999999999112e-01 4.436736509094152403e-01 0.000000000000000000e+00 5.563263490905844266e-01 0.000000000000000000e+00 0.000000000000000000e+00 0.000000000000000000e+00 4.119643087123349701e-01 2.776918270085058094e-01 0.000000000000000000e+00 0.000000000000000000e+00 0.000000000000000000e+00 0.000000000000000000e+00 0.000000000000000000e+00 0.000000000000000000e+00 0.000000000000000000e+00 0.000000000000000000e+00
9.999999999999998890e-01 3.673689292573235066e-01 0.000000000000000000e+00 6.326310707426735513e-01 0.000000000000000000e+00 0.000000000000000000e+00 0.000000000000000000e+00 3.814383136157541987e-01 2.948114865785590455e-01 0.000000000000000000e+00 0.000000000000000000e+00 0.000000000000000000e+00 0.000000000000000000e+00 0.000000000000000000e+00 0.000000000000000000e+00 0.000000000000000000e+00 0.000000000000000000e+00
1.099999999999999867e+00 2.984645115331512888e-01 0.000000000000000000e+00 7.015354884668512092e-01 0.000000000000000000e+00 0.000000000000000000e+00 0.000000000000000000e+00 3.413348047703266275e-01 3.047523556164332126e-01 0.000000000000000000e+00 0.000000000000000000e+00 0.000000000000000000e+00 0.000000000000000000e+00 0.000000000000000000e+00 0.000000000000000000e+00 0.000000000000000000e+00 0.000000000000000000e+00
1.199999999999999956e+00 2.379741784348990974e-01 0.000000000000000000e+00 7.620258215650993483e-01 0.000000000000000000e+00 0.000000000000000000e+00 0.000000000000000000e+00 2.950647259136605083e-01 3.070493065551113121e-01 0.000000000000000000e+00 0.000000000000000000e+00 0.000000000000000000e+00 0.000000000000000000e+00 0.000000000000000000e+00 0.000000000000000000e+00 0.000000000000000000e+00 0.000000000000000000e+00
1.300000000000000044e+00 1.862667234743501932e-01 0.000000000000000000e+00 8.137332765256509726e-01 0.000000000000000000e+00 0.000000000000000000e+00 0.000000000000000000e+00 2.459551725625915841e-01 3.017904635823508430e-01 0.000000000000000000e+00 0.000000000000000000e+00 0.000000000000000000e+00 0.000000000000000000e+00 0.000000000000000000e+00 0.000000000000000000e+00 0.000000000000000000e+00 0.000000000000000000e+00
1.399999999999999911e+00 1.431675182493925003e-01 0.000000000000000000e+00 8.568324817506081104e-01 0.000000000000000000e+00 0.000000000000000000e+00 0.000000000000000000e+00 1.969899653885668067e-01 2.895954650355510029e-01 0.000000000000000000e+00 0.000000000000000000e+00 0.000000000000000000e+00 0.000000000000000000e+00 0.000000000000000000e+00 0.000000000000000000e+00 0.000000000000000000e+00 0.000000000000000000e+00
1.500000000000000000e+00 1.080914190932570074e-01 0.000000000000000000e+00 8.919085809067436310e-01 0.000000000000000000e+00 0.000000000000000000e+00 0.000000000000000000e+00 1.506451817272480009e-01 2.715026587038832373e-01 0.000000000000000000e+00 0.000000000000000000e+00 0.000000000000000000e+00 0.000000000000000000e+00 0.000000000000000000e+00 0.000000000000000000e+00 0.000000000000000000e+00 0.000000000000000000e+00
1.599999999999999867e+00 8.018932835666024717e-02 0.000000000000000000e+00 9.198106716433324115e-01 0.000000000000000000e+00 0.000000000000000000e+00 0.000000000000000000e+00 1.087828722174050133e-01 2.488479186423006029e-01 0.000000000000000000e+00 0.000000000000000000e+00 0.000000000000000000e+00 0.000000000000000000e+00 0.000000000000000000e+00 0.000000000000000000e+00 0.000000000000000000e+00 0.000000000000000000e+00
1.699999999999999956e+00 5.848528090477095320e-02 0.000000000000000000e+00 9.415147190952289913e-01 0.000000000000000000e+00 0.000000000000000000e+00 0.000000000000000000e+00 7.259386837366453571e-02 2.231476719171869016e-01 0.000000000000000000e+00 0.000000000000000000e+00 0.000000000000000000e+00 0.000000000000000000e+00 0.000000000000000000e+00 0.000000000000000000e+00 0.000000000000000000e+00 0.000000000000000000e+00
1.800000000000000044e+00 4.193995245980568914e-02 0.000000000000000000e+00 9.580600475401935823e-01 0.000000000000000000e+00 0.000000000000000000e+00 0.000000000000000000e+00 4.264537853092641162e-02 1.958631289750284998e-01 0.000000000000000000e+00 0.000000000000000000e+00 0.000000000000000000e+00 0.000000000000000000e+00 0.000000000000000000e+00 0.000000000000000000e+00 0.000000000000000000e+00 0.000000000000000000e+00
1.899999999999999911e+00 2.959033925480407043e-02 0.000000000000000000e+00 9.704096607451901946e-01 0.000000000000000000e+00 0.000000000000000000e+00 0.000000000000000000e+00 1.901799891952380556e-02 1.683836895554540747e-01 0.000000000000000000e+00 0.000000000000000000e+00 0.000000000000000000e+00 0.000000000000000000e+00 0.000000000000000000e+00 0.000000000000000000e+00 0.000000000000000000e+00 0.000000000000000000e+00
2.000000000000000000e+00 2.054372432860446587e-02 0.000000000000000000e+00 9.794562756713970364e-01 0.000000000000000000e+00 0.000000000000000000e+00 0.000000000000000000e+00 1.323772718563440490e-03 1.418447315487277871e-01 0.000000000000000000e+00 0.000000000000000000e+00 0.000000000000000000e+00 0.000000000000000000e+00 0.000000000000000000e+00 0.000000000000000000e+00 0.000000000000000000e+00 0.000000000000000000e+00
2.099999999999999645e+00 1.404394753028563071e-02 0.000000000000000000e+00 9.859560524697149608e-01 0.000000000000000000e+00 0.000000000000000000e+00 0.000000000000000000e+00 -1.109743424247464083e-02 1.171476107186473631e-01 0.000000000000000000e+00 0.000000000000000000e+00 0.000000000000000000e+00 0.000000000000000000e+00 0.000000000000000000e+00 0.000000000000000000e+00 0.000000000000000000e+00 0.000000000000000000e+00
2.199999999999999734e+00 9.458272471607949081e-03 0.000000000000000000e+00 9.905417275283884271e-01 0.000000000000000000e+00 0.000000000000000000e+00 0.000000000000000000e+00 -1.903962302286065292e-02 9.490156359072222936e-02 0.000000000000000000e+00 0.000000000000000000e+00 0.000000000000000000e+00 0.000000000000000000e+00 0.000000000000000000e+00 0.000000000000000000e+00 0.000000000000000000e+00 0.000000000000000000e+00
2.299999999999999822e+00 6.280330629044901872e-03 0.000000000000000000e+00 9.937196693709571260e-01 0.000000000000000000e+00 0.000000000000000000e+00 0.000000000000000000e+00 -2.342443407051675308e-02 7.544656596167237383e-02 0.000000000000000000e+00 0.000000000000000000e+00 0.000000000000000000e+00 0.000000000000000000e+00 0.000000000000000000e+00 0.000000000000000000e+00 0.000000000000000000e+00 0.000000000000000000e+00
2.399999999999999911e+00 4.111346663849384415e-03 0.000000000000000000e+00 9.958886533361454019e-01 0.000000000000000000e+00 0.000000000000000000e+00 0.000000000000000000e+00 -2.508294009665457819e-02 5.886671385093299874e-02 0.000000000000000000e+00 0.000000000000000000e+00 0.000000000000000000e+00 0.000000000000000000e+00 0.000000000000000000e+00 0.000000000000000000e+00 0.000000000000000000e+00 0.000000000000000000e+00
2.500000000000000000e+00 2.656038221865874953e-03 0.000000000000000000e+00 9.973439617781383326e-01 0.000000000000000000e+00 0.000000000000000000e+00 0.000000000000000000e+00 -2.481673230347397618e-02 4.509006381533497282e-02 0.000000000000000000e+00 0.000000000000000000e+00 0.000000000000000000e+00 0.000000000000000000e+00 0.000000000000000000e+00 0.000000000000000000e+00 0.000000000000000000e+00 0.000000000000000000e+00
2.600000000000000089e+00 1.692937946958325167e-03 0.000000000000000000e+00 9.983070620530429817e-01 0.000000000000000000e+00 0.000000000000000000e+00 0.000000000000000000e+00 -2.325677384802609521e-02 3.389977505550006986e-02 0.000000000000000000e+00 0.000000000000000000e+00 0.000000000000000000e+00 0.000000000000000000e+00 0.000000000000000000e+00 0.000000000000000000e+00 0.000000000000000000e+00 0.000000000000000000e+00
2.699999999999999734e+00 1.065403623336907187e-03 0.000000000000000000e+00 9.989345963766642633e-01 0.000000000000000000e+00 0.000000000000000000e+00 0.000000000000000000e+00 -2.094318256893044211e-02 2.501303599980872136e-02 0.000000000000000000e+00 0.000000000000000000e+00 0.000000000000000000e+00 0.000000000000000000e+00 0.000000000000000000e+00 0.000000000000000000e+00 0.000000000000000000e+00 0.000000000000000000e+00
2.799999999999999822e+00 6.621167547294383709e-04 0.000000000000000000e+00 9.993378832452669558e-01 0.000000000000000000e+00 0.000000000000000000e+00 0.000000000000000000e+00 -1.826137758446523540e-02 1.811631096441827099e-02 0.000000000000000000e+00 0.000000000000000000e+00 0.000000000000000000e+00 0.000000000000000000e+00 0.000000000000000000e+00 0.000000000000000000e+00 0.000000000000000000e+00 0.000000000000000000e+00
2.899999999999999911e+00 4.072838663838255048e-04 0.000000000000000000e+00 9.995927161336124467e-01 0.000000000000000000e+00 0.000000000000000000e+00 0.000000000000000000e+00 -1.552331586767164047e-02 1.288971763870793048e-02 0.000000000000000000e+00 0.000000000000000000e+00 0.000000000000000000e+00 0.000000000000000000e+00 0.000000000000000000e+00 0.000000000000000000e+00 0.000000000000000000e+00 0.000000000000000000e+00
3.000000000000000000e+00 2.481176377609552218e-04 0.000000000000000000e+00 9.997518823622385531e-01 0.000000000000000000e+00 0.000000000000000000e+00 0.000000000000000000e+00 -1.293136341587061526e-02 8.990887323000932782e-03 0.000000000000000000e+00 0.000000000000000000e+00 0.000000000000000000e+00 0.000000000000000000e+00 0.000000000000000000e+00 0.000000000000000000e+00 0.000000000000000000e+00 0.000000000000000000e+00
