0.000000000000000000e+00 -7.835451087769286388e-12 9.764761604998910330e-12 -1.000000000000000000e+00
1.025641025641025605e-01 -2.075371162286207549e-01 2.391245871030923120e-01 -9.483249710586652004e-01
2.051282051282051211e-01 -4.112476466442021583e-01 4.290869855342666628e-01 -8.020439138599405604e-01
3.076923076923077094e-01 -6.039994538506104904e-01 5.330051483326756490e-01 -5.836207118537942717e-01
4.102564102564102422e-01 -7.712495863181041411e-01 5.326106118713458404e-01 -3.218771522168683008e-01
5.128205128205127750e-01 -8.897715028627279921e-01 4.304927993189967550e-01 -4.655295208126390694e-02
6.153846153846154188e-01 -9.338034803541017670e-01 2.510948259976552022e-01 2.151319177204049082e-01
7.179487179487179516e-01 -8.875600576073454651e-01 3.728483991705089373e-02 4.421926377121407348e-01
8.205128205128204844e-01 -7.559023596099271325e-01 -1.610836054587240496e-01 6.233583002608366064e-01
9.230769230769230171e-01 -5.652363978129159028e-01 -3.028794289260213213e-01 7.574780849982125641e-01
1.025641025641025550e+00 -3.545429051332635861e-01 -3.671675812547372519e-01 8.505822110626305443e-01
1.128205128205128194e+00 -1.627200047972011121e-01 -3.559623185571687554e-01 9.117655085474036802e-01
1.230769230769230838e+00 -1.811844366492590397e-02 -2.894016130923596219e-01 9.500515630553835189e-01
1.333333333333333259e+00 6.725211918509782505e-02 -1.966723119091786376e-01 9.729238816154552882e-01
1.435897435897435903e+00 9.782606442184721418e-02 -1.059770445043184545e-01 9.859651940904181622e-01
1.538461538461538325e+00 8.968567546991582096e-02 -3.658633852928689506e-02 9.930524733463295117e-01
1.641025641025640969e+00 6.276932704814565389e-02 4.450743662262626743e-03 9.967181037563338508e-01
1.743589743589743613e+00 3.374660711867893959e-02 2.055578284946514567e-02 9.985207629695139753e-01
1.846153846153846034e+00 1.212575387551610012e-02 2.066738991554928351e-02 9.993634731042939645e-01
1.948717948717948678e+00 3.143140362258534798e-04 1.401537384878305190e-02 9.997382651036478274e-01
2.051282051282051100e+00 -3.782631462783221307e-03 6.931123559794269071e-03 9.998971172227695270e-01
2.153846153846153744e+00 -3.682661950333654920e-03 2.179853655318502847e-03 9.999612802771501441e-01
2.256410256410256387e+00 -2.224203050078372990e-03 -3.164338641031133603e-05 9.999860506752773492e-01
2.358974358974359031e+00 -9.318260033221905780e-04 -6.024271679606351976e-04 9.999951842020287085e-01
2.461538461538461675e+00 -2.169591139584010051e-04 -4.767118081001696763e-04 9.999984113773507932e-01
2.564102564102563875e+00 3.600703197539505173e-05 -2.378698489557469649e-04 9.999994970079090217e-01
2.666666666666666519e+00 6.703587511607091490e-05 -7.291175985123417302e-05 9.999998486325263336e-01
2.769230769230769162e+00 3.834101366854386059e-05 -1.169075381655909523e-05 9.999999563579243800e-01
2.871794871794871806e+00 9.411602724739507995e-06 6.681532727668202403e-06 9.999999880654409923e-01
2.974358974358974450e+00 6.691776816746610205e-07 1.090236470084261002e-05 9.999999968259107863e-01
3.076923076923076650e+00 4.921552402715533993e-06 3.186638551625667971e-06 9.999999992120954806e-01
3.179487179487179294e+00 1.640400497548815094e-06 1.282443576338807345e-06 9.999999998208556340e-01
3.282051282051281937e+00 8.993887867853007615e-07 2.064693574993959801e-06 9.999999999629803904e-01
3.384615384615384581e+00 -3.693950092953737423e-07 1.684782262931818380e-06 9.999999999957583929e-01
3.487179487179487225e+00 -2.934978226775029070e-06 4.835106004513673661e-07 1.000000000000839995e+00
3.589743589743589425e+00 -4.086154875144106821e-07 2.332972813220939967e-06 1.000000000005206058e+00
3.692307692307692069e+00 -3.719628914694627573e-06 1.280199130873464673e-06 9.999999999991340260e-01
3.794871794871794712e+00 -2.047893228547906557e-06 3.272952312487664461e-06 1.000000000002389200e+00
3.897435897435897356e+00 -1.312784171911808756e-06 -3.897558788428019902e-06 1.000000000002204903e+00
4.000000000000000000e+00 -1.726097402632041986e-06 -2.561915215920656006e-06 1.000000000006832312e+00
