1.000000000000000056e-01 7.884070812839992504e-02 8.871048875057754857e-02 -9.514148589544099144e-01
2.000000000000000111e-01 8.932184330283823859e-03 9.134956639315926219e-03 -8.150794144261688245e-01
2.999999999999999889e-01 1.102899307895410108e-04 9.628762174080344885e-05 -6.200278313335095826e-01
4.000000000000000222e-01 1.731506689997032773e-07 1.207276818109718447e-07 -4.115083513624827605e-01
5.000000000000000000e-01 -2.813597476626344080e-11 -7.140693771918801997e-12 -2.354651071205172141e-01
5.999999999999999778e-01 -3.864021176805886779e-11 -1.508996084591754514e-11 -1.173216030412390504e-01
6.999999999999999556e-01 -2.077463295772516938e-11 -8.203826193766922685e-12 -5.398538762241078537e-02
7.999999999999999334e-01 -1.141195881860550603e-11 -4.562439004044207914e-12 -2.590872916755191518e-02
8.999999999999999112e-01 -7.137950235751023963e-12 -2.893718626173288982e-12 -1.438173718689019637e-02
9.999999999999998890e-01 -4.974482038851140954e-12 -2.046996671098688833e-12 -9.004931035420552649e-03
1.099999999999999867e+00 -3.569766967178428439e-12 -1.493402954477539727e-12 -5.864902727948819242e-03
1.199999999999999956e+00 -2.540417264532422982e-12 -1.081882567918781126e-12 -3.819905230828259026e-03
1.300000000000000044e+00 -1.792498743495692618e-12 -7.779475561397017813e-13 -2.484451668370678615e-03
1.399999999999999911e+00 -1.268594657661204266e-12 -5.617089721611975741e-13 -1.630707950021041339e-03
1.500000000000000000e+00 -9.104747664840039242e-13 -4.116712231262151851e-13 -1.091311692574041493e-03
1.599999999999999867e+00 -6.676968263316732994e-13 -3.085995336608016887e-13 -7.498575431150352995e-04
1.699999999999999956e+00 -5.024956149852415536e-13 -2.375872765570185082e-13 -5.310430509619537640e-04
1.800000000000000044e+00 -3.888167446057383786e-13 -1.882027190516311277e-13 -3.881995862744256958e-04
1.899999999999999911e+00 -3.093573089760796473e-13 -1.534090829706717110e-13 -2.928887023938119417e-04
2.000000000000000000e+00 -2.528674792131742410e-13 -1.285450244345657565e-13 -2.278042217999686262e-04
2.099999999999999645e+00 -2.119912471061933979e-13 -1.105293713333527549e-13 -1.823185662396573472e-04
2.199999999999999734e+00 -1.818977588324886742e-13 -9.731868994715159969e-14 -1.498117111450082163e-04
2.299999999999999822e+00 -1.593805135545825709e-13 -8.753640645783502989e-14 -1.260855466294428921e-04
2.399999999999999911e+00 -1.422756579309873050e-13 -8.024604146011417814e-14 -1.084281511493151228e-04
2.500000000000000000e+00 -1.291007460967541103e-13 -7.479776801133973523e-14 -9.505031795242005488e-05
2.600000000000000089e+00 -1.188224545629854333e-13 -7.073491664353151279e-14 -8.475062477201821898e-05
2.699999999999999734e+00 -1.107035691501892009e-13 -6.772667944923561467e-14 -7.670479346527861865e-05
2.799999999999999822e+00 -1.042135845962032535e-13 -6.553237506325578457e-14 -7.033583112389664405e-05
2.899999999999999911e+00 -9.896440749439781948e-14 -6.397384161281912257e-14 -6.523591437656957250e-05
3.000000000000000000e+00 -9.466801465575788760e-14 -6.291460976582123518e-14 -6.110953616875762680e-05
