1.000000000000000056e-01 9.756260842917442444e-01 0.000000000000000000e+00 2.437391570825733073e-02 0.000000000000000000e+00 0.000000000000000000e+00 0.000000000000000000e+00 -2.678605442648415453e-03 1.541838285853441570e-01 0.000000000000000000e+00 0.000000000000000000e+00 0.000000000000000000e+00 0.000000000000000000e+00 0.000000000000000000e+00 0.000000000000000000e+00 0.000000000000000000e+00 0.000000000000000000e+00
2.000000000000000111e-01 9.059848560612930868e-01 0.000000000000000000e+00 9.401514393870948061e-02 0.000000000000000000e+00 0.000000000000000000e+00 0.000000000000000000e+00 -2.025610128242250063e-02 2.911459891474577621e-01 0.000000000000000000e+00 0.000000000000000000e+00 0.000000000000000000e+00 0.000000000000000000e+00 0.000000000000000000e+00 0.000000000000000000e+00 0.000000000000000000e+00 0.000000000000000000e+00
2.999999999999999889e-01 8.007130983520068801e-01 0.000000000000000000e+00 1.992869016479929256e-01 0.000000000000000000e+00 0.000000000000000000e+00 0.000000000000000000e+00 -6.220557791812131310e-02 3.945910522856289071e-01 0.000000000000000000e+00 0.000000000000000000e+00 0.000000000000000000e+00 0.000000000000000000e+00 0.000000000000000000e+00 0.000000000000000000e+00 0.000000000000000000e+00 0.000000000000000000e+00
4.000000000000000222e-01 6.734225616426722238e-01 0.000000000000000000e+00 3.265774383573262218e-01 0.000000000000000000e+00 0.000000000000000000e+00 0.000000000000000000e+00 -1.287209015442835891e-01 4.509496032052031089e-01 0.000000000000000000e+00 0.000000000000000000e+00 0.000000000000000000e+00 0.000000000000000000e+00 0.000000000000000000e+00 0.000000000000000000e+00 0.000000000000000000e+00 0.000000000000000000e+00
5.000000000000000000e-01 5.388509568483857981e-01 0.000000000000000000e+00 4.611490431516150901e-01 0.000000000000000000e+00 0.000000000000000000e+00 0.000000000000000000e+00 -2.098591815044575370e-01 4.521611737695226951e-01 0.000000000000000000e+00 0.000000000000000000e+00 0.000000000000000000e+00 0.000000000000000000e+00 0.000000000000000000e+00 0.000000000000000000e+00 0.000000000000000000e+00 0.000000000000000000e+00
5.999999999999999778e-01 4.101225761734838549e-01 0.000000000000000000e+00 5.898774238265160896e-01 0.000000000000000000e+00 0.000000000000000000e+00 0.000000000000000000e+00 -2.880619818767298224e-01 3.986757368672570467e-01 0.000000000000000000e+00 0.000000000000000000e+00 0.000000000000000000e+00 0.000000000000000000e+00 0.000000000000000000e+00 0.000000000000000000e+00 0.000000000000000000e+00 0.000000000000000000e+00
6.999999999999999556e-01 2.968010397203088013e-01 0.000000000000000000e+00 7.031989602796890892e-01 0.000000000000000000e+00 0.000000000000000000e+00 0.000000000000000000e+00 -3.435939870502572879e-01 3.010869551118223186e-01 0.000000000000000000e+00 0.000000000000000000e+00 0.000000000000000000e+00 0.000000000000000000e+00 0.000000000000000000e+00 0.000000000000000000e+00 0.000000000000000000e+00 0.000000000000000000e+00
7.999999999999999334e-01 2.041620341582384701e-01 0.000000000000000000e+00 7.958379658417638058e-01 0.000000000000000000e+00 0.000000000000000000e+00 0.000000000000000000e+00 -3.611565338899733191e-01 1.790135633627389367e-01 0.000000000000000000e+00 0.000000000000000000e+00 0.000000000000000000e+00 0.000000000000000000e+00 0.000000000000000000e+00 0.000000000000000000e+00 0.000000000000000000e+00 0.000000000000000000e+00
8.999999999999999112e-01 1.334294342559239899e-01 0.000000000000000000e+00 8.665705657440726517e-01 0.000000000000000000e+00 0.000000000000000000e+00 0.000000000000000000e+00 -3.352621065685855162e-01 5.679207742562725203e-02 0.000000000000000000e+00 0.000000000000000000e+00 0.000000000000000000e+00 0.000000000000000000e+00 0.000000000000000000e+00 0.000000000000000000e+00 0.000000000000000000e+00 0.000000000000000000e+00
9.999999999999998890e-01 8.280385421538961899e-02 0.000000000000000000e+00 9.171961457846089516e-01 0.000000000000000000e+00 0.000000000000000000e+00 0.000000000000000000e+00 -2.722226215335368238e-01 -4.292109169512942080e-02 0.000000000000000000e+00 0.000000000000000000e+00 0.000000000000000000e+00 0.000000000000000000e+00 0.000000000000000000e+00 0.000000000000000000e+00 0.000000000000000000e+00 0.000000000000000000e+00
1.099999999999999867e+00 4.876900260291300304e-02 0.000000000000000000e+00 9.512309973970841659e-01 0.000000000000000000e+00 0.000000000000000000e+00 0.000000000000000000e+00 -1.878876731794348609e-01 -1.053034147171440921e-01 0.000000000000000000e+00 0.000000000000000000e+00 0.000000000000000000e+00 0.000000000000000000e+00 0.000000000000000000e+00 0.000000000000000000e+00 0.000000000000000000e+00 0.000000000000000000e+00
1.199999999999999956e+00 2.724326166545618794e-02 0.000000000000000000e+00 9.727567383345350205e-01 0.000000000000000000e+00 0.000000000000000000e+00 0.000000000000000000e+00 -1.019823116897064369e-01 -1.268884327362692077e-01 0.000000000000000000e+00 0.000000000000000000e+00 0.000000000000000000e+00 0.000000000000000000e+00 0.000000000000000000e+00 0.000000000000000000e+00 0.000000000000000000e+00 0.000000000000000000e+00
1.300000000000000044e+00 1.442237950490730079e-02 0.000000000000000000e+00 9.855776204950956743e-01 0.000000000000000000e+00 0.000000000000000000e+00 0.000000000000000000e+00 -3.150564407043280474e-02 -1.149859501306925158e-01 0.000000000000000000e+00 0.000000000000000000e+00 0.000000000000000000e+00 0.000000000000000000e+00 0.000000000000000000e+00 0.000000000000000000e+00 0.000000000000000000e+00 0.000000000000000000e+00
1.399999999999999911e+00 7.230084666221260788e-03 0.000000000000000000e+00 9.927699153337853355e-01 0.000000000000000000e+00 0.000000000000000000e+00 0.000000000000000000e+00 1.406128681711557929e-02 -8.354693660531334332e-02 0.000000000000000000e+00 0.000000000000000000e+00 0.000000000000000000e+00 0.000000000000000000e+00 0.000000000000000000e+00 0.000000000000000000e+00 0.000000000000000000e+00 0.000000000000000000e+00
1.500000000000000000e+00 3.430373120598901975e-03 0.000000000000000000e+00 9.965696268793966528e-01 0.000000000000000000e+00 0.000000000000000000e+00 0.000000000000000000e+00 3.415007921208007557e-02 -4.745922045163140229e-02 0.000000000000000000e+00 0.000000000000000000e+00 0.000000000000000000e+00 0.000000000000000000e+00 0.000000000000000000e+00 0.000000000000000000e+00 0.000000000000000000e+00 0.000000000000000000e+00
1.599999999999999867e+00 1.537750487676634373e-03 0.000000000000000000e+00 9.984622495123317565e-01 0.000000000000000000e+00 0.000000000000000000e+00 0.000000000000000000e+00 3.495140147695927069e-02 -1.771398319996629611e-02 0.000000000000000000e+00 0.000000000000000000e+00 0.000000000000000000e+00 0.000000000000000000e+00 0.000000000000000000e+00 0.000000000000000000e+00 0.000000000000000000e+00 0.000000000000000000e+00
1.699999999999999956e+00 6.511509807717163079e-04 0.000000000000000000e+00 9.993488490192269369e-01 0.000000000000000000e+00 0.000000000000000000e+00 0.000000000000000000e+00 2.549889041914237681e-02 7.303640852600840972e-04 0.000000000000000000e+00 0.000000000000000000e+00 0.000000000000000000e+00 0.000000000000000000e+00 0.000000000000000000e+00 0.000000000000000000e+00 0.000000000000000000e+00 0.000000000000000000e+00
1.800000000000000044e+00 2.601111414272504348e-04 0.000000000000000000e+00 9.997398888585684595e-01 0.000000000000000000e+00 0.000000000000000000e+00 0.000000000000000000e+00 1.379745474481299319e-02 8.347072146539385312e-03 0.000000000000000000e+00 0.000000000000000000e+00 0.000000000000000000e+00 0.000000000000000000e+00 0.000000000000000000e+00 0.000000000000000000e+00 0.000000000000000000e+00 0.000000000000000000e+00
1.899999999999999911e+00 9.753909559106054158e-05 0.000000000000000000e+00 9.999024609044109280e-01 0.000000000000000000e+00 0.000000000000000000e+00 0.000000000000000000e+00 4.683705433261617368e-03 8.694386117004368128e-03 0.000000000000000000e+00 0.000000000000000000e+00 0.000000000000000000e+00 0.000000000000000000e+00 0.000000000000000000e+00 0.000000000000000000e+00 0.000000000000000000e+00 0.000000000000000000e+00
2.000000000000000000e+00 3.434328533246243007e-05 0.000000000000000000e+00 9.999656567146658626e-01 0.000000000000000000e+00 0.000000000000000000e+00 0.000000000000000000e+00 -3.264383337883335827e-04 5.851104666671489048e-03 0.000000000000000000e+00 0.000000000000000000e+00 0.000000000000000000e+00 0.000000000000000000e+00 0.000000000000000000e+00 0.000000000000000000e+00 0.000000000000000000e+00 0.000000000000000000e+00
2.099999999999999645e+00 1.130444427691324956e-05 0.000000000000000000e+00 9.999886955557281132e-01 0.000000000000000000e+00 0.000000000000000000e+00 0.000000000000000000e+00 -1.960079094433977553e-03 2.731715822017394702e-03 0.000000000000000000e+00 0.000000000000000000e+00 0.000000000000000000e+00 0.000000000000000000e+00 0.000000000000000000e+00 0.000000000000000000e+00 0.000000000000000000e+00 0.000000000000000000e+00
2.199999999999999734e+00 3.434768082671809540e-06 0.000000000000000000e+00 9.999965652319180442e-01 0.000000000000000000e+00 0.000000000000000000e+00 0.000000000000000000e+00 -1.727451935839397802e-03 6.712091424587662229e-04 0.000000000000000000e+00 0.000000000000000000e+00 0.000000000000000000e+00 0.000000000000000000e+00 0.000000000000000000e+00 0.000000000000000000e+00 0.000000000000000000e+00 0.000000000000000000e+00
2.299999999999999822e+00 9.683476580965655545e-07 0.000000000000000000e+00 9.999990316523348355e-01 0.000000000000000000e+00 0.000000000000000000e+00 0.000000000000000000e+00 -9.561017379507011967e-04 -2.324957301912232844e-04 0.000000000000000000e+00 0.000000000000000000e+00 0.000000000000000000e+00 0.000000000000000000e+00 0.000000000000000000e+00 0.000000000000000000e+00 0.000000000000000000e+00 0.000000000000000000e+00
2.399999999999999911e+00 2.629324868188984345e-07 0.000000000000000000e+00 9.999997370675171027e-01 0.000000000000000000e+00 0.000000000000000000e+00 0.000000000000000000e+00 -3.464533309723798042e-04 -3.778308840907326489e-04 0.000000000000000000e+00 0.000000000000000000e+00 0.000000000000000000e+00 0.000000000000000000e+00 0.000000000000000000e+00 0.000000000000000000e+00 0.000000000000000000e+00 0.000000000000000000e+00
2.500000000000000000e+00 6.864816871109683258e-08 0.000000000000000000e+00 9.999999313518285193e-01 0.000000000000000000e+00 0.000000000000000000e+00 0.000000000000000000e+00 -3.102563586710998519e-05 -2.598590570029661834e-04 0.000000000000000000e+00 0.000000000000000000e+00 0.000000000000000000e+00 0.000000000000000000e+00 0.000000000000000000e+00 0.000000000000000000e+00 0.000000000000000000e+00 0.000000000000000000e+00
2.600000000000000089e+00 1.986851468569613469e-08 0.000000000000000000e+00 9.999999801314891634e-01 0.000000000000000000e+00 0.000000000000000000e+00 0.000000000000000000e+00 6.611903836164833908e-05 -1.238281175372181930e-04 0.000000000000000000e+00 0.000000000000000000e+00 0.000000000000000000e+00 0.000000000000000000e+00 0.000000000000000000e+00 0.000000000000000000e+00 0.000000000000000000e+00 0.000000000000000000e+00
2.699999999999999734e+00 7.970550989580012290e-09 0.000000000000000000e+00 9.999999920294456723e-01 0.000000000000000000e+00 0.000000000000000000e+00 0.000000000000000000e+00 7.530541987064042397e-05 -4.652072129626604388e-05 0.000000000000000000e+00 0.000000000000000000e+00 0.000000000000000000e+00 0.000000000000000000e+00 0.000000000000000000e+00 0.000000000000000000e+00 0.000000000000000000e+00 0.000000000000000000e+00
2.799999999999999822e+00 2.846543296654529423e-09 0.000000000000000000e+00 9.999999971534533350e-01 0.000000000000000000e+00 0.000000000000000000e+00 0.000000000000000000e+00 5.173740790660377443e-05 4.975829587927254311e-06 0.000000000000000000e+00 0.000000000000000000e+00 0.000000000000000000e+00 0.000000000000000000e+00 0.000000000000000000e+00 0.000000000000000000e+00 0.000000000000000000e+00 0.000000000000000000e+00
2.899999999999999911e+00 7.665794285601390100e-10 0.000000000000000000e+00 9.999999992334169807e-01 0.000000000000000000e+00 0.000000000000000000e+00 0.000000000000000000e+00 1.958871169597207611e-05 1.482923188177740363e-05 0.000000000000000000e+00 0.000000000000000000e+00 0.000000000000000000e+00 0.000000000000000000e+00 0.000000000000000000e+00 0.000000000000000000e+00 0.000000000000000000e+00 0.000000000000000000e+00
3.000000000000000000e+00 1.676862775733056034e-10 0.000000000000000000e+00 9.999999998323053640e-01 0.000000000000000000e+00 0.000000000000000000e+00 0.000000000000000000e+00 7.232039690945733614e-07 4.224664739067961335e-06 0.000000000000000000e+00 0.000000000000000000e+00 0.000000000000000000e+00 0.000000000000000000e+00 0.000000000000000000e+00 0.000000000000000000e+00 0.000000000000000000e+00 0.000000000000000000e+00
