1.000000000000000056e-01 9.756246051717981649e-01 0.000000000000000000e+00 2.437539482820198083e-02 0.000000000000000000e+00 0.000000000000000000e+00 0.000000000000000000e+00 -2.432544236917879004e-03 1.541924695835939219e-01 0.000000000000000000e+00 0.000000000000000000e+00 0.000000000000000000e+00 0.000000000000000000e+00 0.000000000000000000e+00 0.000000000000000000e+00 0.000000000000000000e+00 0.000000000000000000e+00
2.000000000000000111e-01 9.059671699261432343e-01 0.000000000000000000e+00 9.403283007386184500e-02 0.000000000000000000e+00 0.000000000000000000e+00 0.000000000000000000e+00 -1.840984417481416474e-02 2.912932106635717222e-01 0.000000000000000000e+00 0.000000000000000000e+00 0.000000000000000000e+00 0.000000000000000000e+00 0.000000000000000000e+00 0.000000000000000000e+00 0.000000000000000000e+00 0.000000000000000000e+00
2.999999999999999889e-01 8.006359394850142142e-01 0.000000000000000000e+00 1.993640605149887834e-01 0.000000000000000000e+00 0.000000000000000000e+00 0.000000000000000000e+00 -5.656930907516850154e-02 3.954970861571713847e-01 0.000000000000000000e+00 0.000000000000000000e+00 0.000000000000000000e+00 0.000000000000000000e+00 0.000000000000000000e+00 0.000000000000000000e+00 0.000000000000000000e+00 0.000000000000000000e+00
4.000000000000000222e-01 6.732224281697560819e-01 0.000000000000000000e+00 3.267775718302447507e-01 0.000000000000000000e+00 0.000000000000000000e+00 0.000000000000000000e+00 -1.172691268228630013e-01 4.541386817133361564e-01 0.000000000000000000e+00 0.000000000000000000e+00 0.000000000000000000e+00 0.000000000000000000e+00 0.000000000000000000e+00 0.000000000000000000e+00 0.000000000000000000e+00 0.000000000000000000e+00
5.000000000000000000e-01 5.384560352289599061e-01 0.000000000000000000e+00 4.615439647710434246e-01 0.000000000000000000e+00 0.000000000000000000e+00 0.000000000000000000e+00 -1.918564918919945794e-01 4.601219619766738211e-01 0.000000000000000000e+00 0.000000000000000000e+00 0.000000000000000000e+00 0.000000000000000000e+00 0.000000000000000000e+00 0.000000000000000000e+00 0.000000000000000000e+00 0.000000000000000000e+00
5.999999999999999778e-01 4.094914260825120444e-01 0.000000000000000000e+00 5.905085739174901205e-01 0.000000000000000000e+00 0.000000000000000000e+00 0.000000000000000000e+00 -2.649550515228155656e-01 4.142547750463194678e-01 0.000000000000000000e+00 0.000000000000000000e+00 0.000000000000000000e+00 0.000000000000000000e+00 0.000000000000000000e+00 0.000000000000000000e+00 0.000000000000000000e+00 0.000000000000000000e+00
6.999999999999999556e-01 2.959597365938925750e-01 0.000000000000000000e+00 7.040402634061038167e-01 0.000000000000000000e+00 0.000000000000000000e+00 0.000000000000000000e+00 -3.192055462971168933e-01 3.263056698416207380e-01 0.000000000000000000e+00 0.000000000000000000e+00 0.000000000000000000e+00 0.000000000000000000e+00 0.000000000000000000e+00 0.000000000000000000e+00 0.000000000000000000e+00 0.000000000000000000e+00
7.999999999999999334e-01 2.031622924879499248e-01 0.000000000000000000e+00 7.968377075120535169e-01 0.000000000000000000e+00 0.000000000000000000e+00 0.000000000000000000e+00 -3.408756989741661969e-01 2.137548438031512954e-01 0.000000000000000000e+00 0.000000000000000000e+00 0.000000000000000000e+00 0.000000000000000000e+00 0.000000000000000000e+00 0.000000000000000000e+00 0.000000000000000000e+00 0.000000000000000000e+00
8.999999999999999112e-01 1.323765962594819767e-01 0.000000000000000000e+00 8.676234037405254895e-01 0.000000000000000000e+00 0.000000000000000000e+00 0.000000000000000000e+00 -3.243918094404520391e-01 9.809682462859634078e-02 0.000000000000000000e+00 0.000000000000000000e+00 0.000000000000000000e+00 0.000000000000000000e+00 0.000000000000000000e+00 0.000000000000000000e+00 0.000000000000000000e+00 0.000000000000000000e+00
9.999999999999998890e-01 8.180111769514318565e-02 0.000000000000000000e+00 9.181988823048626847e-01 0.000000000000000000e+00 0.000000000000000000e+00 0.000000000000000000e+00 -2.740610122961723016e-01 -5.063471447597585242e-04 0.000000000000000000e+00 0.000000000000000000e+00 0.000000000000000000e+00 0.000000000000000000e+00 0.000000000000000000e+00 0.000000000000000000e+00 0.000000000000000000e+00 0.000000000000000000e+00
1.099999999999999867e+00 4.789463484173229341e-02 0.000000000000000000e+00 9.521053651582754851e-01 0.000000000000000000e+00 0.000000000000000000e+00 0.000000000000000000e+00 -2.023671041304843099e-01 -6.817839783433359002e-02 0.000000000000000000e+00 0.000000000000000000e+00 0.000000000000000000e+00 0.000000000000000000e+00 0.000000000000000000e+00 0.000000000000000000e+00 0.000000000000000000e+00 0.000000000000000000e+00
1.199999999999999956e+00 2.654087363405552985e-02 0.000000000000000000e+00 9.734591263659482241e-01 0.000000000000000000e+00 0.000000000000000000e+00 0.000000000000000000e+00 -1.255971421461185289e-01 -1.003085915191199301e-01 0.000000000000000000e+00 0.000000000000000000e+00 0.000000000000000000e+00 0.000000000000000000e+00 0.000000000000000000e+00 0.000000000000000000e+00 0.000000000000000000e+00 0.000000000000000000e+00
1.300000000000000044e+00 1.390489971421500319e-02 0.000000000000000000e+00 9.860951002857841763e-01 0.000000000000000000e+00 0.000000000000000000e+00 0.000000000000000000e+00 -5.857877756516926410e-02 -1.013907306793993823e-01 0.000000000000000000e+00 0.000000000000000000e+00 0.000000000000000000e+00 0.000000000000000000e+00 0.000000000000000000e+00 0.000000000000000000e+00 0.000000000000000000e+00 0.000000000000000000e+00
1.399999999999999911e+00 6.877472321733752413e-03 0.000000000000000000e+00 9.931225276782678080e-01 0.000000000000000000e+00 0.000000000000000000e+00 0.000000000000000000e+00 -1.061407390045113371e-02 -8.196044224158990921e-02 0.000000000000000000e+00 0.000000000000000000e+00 0.000000000000000000e+00 0.000000000000000000e+00 0.000000000000000000e+00 0.000000000000000000e+00 0.000000000000000000e+00 0.000000000000000000e+00
1.500000000000000000e+00 3.206918181388343590e-03 0.000000000000000000e+00 9.967930818186189201e-01 0.000000000000000000e+00 0.000000000000000000e+00 0.000000000000000000e+00 1.598389134013327925e-02 -5.423236105226503928e-02 0.000000000000000000e+00 0.000000000000000000e+00 0.000000000000000000e+00 0.000000000000000000e+00 0.000000000000000000e+00 0.000000000000000000e+00 0.000000000000000000e+00 0.000000000000000000e+00
1.599999999999999867e+00 1.406972816608211647e-03 0.000000000000000000e+00 9.985930271833926009e-01 0.000000000000000000e+00 0.000000000000000000e+00 0.000000000000000000e+00 2.473316646103681030e-02 -2.816493720964432027e-02 0.000000000000000000e+00 0.000000000000000000e+00 0.000000000000000000e+00 0.000000000000000000e+00 0.000000000000000000e+00 0.000000000000000000e+00 0.000000000000000000e+00 0.000000000000000000e+00
1.699999999999999956e+00 5.796282139961931625e-04 0.000000000000000000e+00 9.994203717860042913e-01 0.000000000000000000e+00 0.000000000000000000e+00 0.000000000000000000e+00 2.217634088927099636e-02 -9.354254499304241396e-03 0.000000000000000000e+00 0.000000000000000000e+00 0.000000000000000000e+00 0.000000000000000000e+00 0.000000000000000000e+00 0.000000000000000000e+00 0.000000000000000000e+00 0.000000000000000000e+00
1.800000000000000044e+00 2.237206802803315300e-04 0.000000000000000000e+00 9.997762793197200182e-01 0.000000000000000000e+00 0.000000000000000000e+00 0.000000000000000000e+00 1.492112039290025179e-02 1.015243859575784557e-03 0.000000000000000000e+00 0.000000000000000000e+00 0.000000000000000000e+00 0.000000000000000000e+00 0.000000000000000000e+00 0.000000000000000000e+00 0.000000000000000000e+00 0.000000000000000000e+00
1.899999999999999911e+00 8.078903672360377407e-05 0.000000000000000000e+00 9.999192109632824010e-01 0.000000000000000000e+00 0.000000000000000000e+00 0.000000000000000000e+00 7.664063499665683434e-03 4.695161236079545448e-03 0.000000000000000000e+00 0.000000000000000000e+00 0.000000000000000000e+00 0.000000000000000000e+00 0.000000000000000000e+00 0.000000000000000000e+00 0.000000000000000000e+00 0.000000000000000000e+00
2.000000000000000000e+00 2.712577155993410903e-05 0.000000000000000000e+00 9.999728742284408334e-01 0.000000000000000000e+00 0.000000000000000000e+00 0.000000000000000000e+00 2.615529422163867350e-03 4.503769384189860829e-03 0.000000000000000000e+00 0.000000000000000000e+00 0.000000000000000000e+00 0.000000000000000000e+00 0.000000000000000000e+00 0.000000000000000000e+00 0.000000000000000000e+00 0.000000000000000000e+00
2.099999999999999645e+00 8.476643868928835759e-06 0.000000000000000000e+00 9.999915233561368355e-01 0.000000000000000000e+00 0.000000000000000000e+00 0.000000000000000000e+00 4.717067047401689317e-05 2.911055564532471183e-03 0.000000000000000000e+00 0.000000000000000000e+00 0.000000000000000000e+00 0.000000000000000000e+00 0.000000000000000000e+00 0.000000000000000000e+00 0.000000000000000000e+00 0.000000000000000000e+00
2.199999999999999734e+00 2.448058043302698090e-06 0.000000000000000000e+00 9.999975519419552761e-01 0.000000000000000000e+00 0.000000000000000000e+00 0.000000000000000000e+00 -7.579387454937408421e-04 1.368743042317857291e-03 0.000000000000000000e+00 0.000000000000000000e+00 0.000000000000000000e+00 0.000000000000000000e+00 0.000000000000000000e+00 0.000000000000000000e+00 0.000000000000000000e+00 0.000000000000000000e+00
2.299999999999999822e+00 6.486008734666533352e-07 0.000000000000000000e+00 9.999993513991275451e-01 0.000000000000000000e+00 0.000000000000000000e+00 0.000000000000000000e+00 -6.949247804795502135e-04 4.068801048553912230e-04 0.000000000000000000e+00 0.000000000000000000e+00 0.000000000000000000e+00 0.000000000000000000e+00 0.000000000000000000e+00 0.000000000000000000e+00 0.000000000000000000e+00 0.000000000000000000e+00
2.399999999999999911e+00 1.617473351112492510e-07 0.000000000000000000e+00 9.999998382526736895e-01 0.000000000000000000e+00 0.000000000000000000e+00 0.000000000000000000e+00 -4.020382034425082980e-04 -3.434235782561145852e-06 0.000000000000000000e+00 0.000000000000000000e+00 0.000000000000000000e+00 0.000000000000000000e+00 0.000000000000000000e+00 0.000000000000000000e+00 0.000000000000000000e+00 0.000000000000000000e+00
2.500000000000000000e+00 3.580695158128522599e-08 0.000000000000000000e+00 9.999999641930523708e-01 0.000000000000000000e+00 0.000000000000000000e+00 0.000000000000000000e+00 -1.579561336089704620e-04 -1.036651877830152297e-04 0.000000000000000000e+00 0.000000000000000000e+00 0.000000000000000000e+00 0.000000000000000000e+00 0.000000000000000000e+00 0.000000000000000000e+00 0.000000000000000000e+00 0.000000000000000000e+00
2.600000000000000089e+00 8.488542207969539865e-09 0.000000000000000000e+00 9.999999915114523574e-01 0.000000000000000000e+00 0.000000000000000000e+00 0.000000000000000000e+00 -3.823614784936577759e-05 -8.289532761373378795e-05 0.000000000000000000e+00 0.000000000000000000e+00 0.000000000000000000e+00 0.000000000000000000e+00 0.000000000000000000e+00 0.000000000000000000e+00 0.000000000000000000e+00 0.000000000000000000e+00
2.699999999999999734e+00 2.026869328853641579e-09 0.000000000000000000e+00 9.999999979731331035e-01 0.000000000000000000e+00 0.000000000000000000e+00 0.000000000000000000e+00 7.404172637911242210e-06 -4.253602999052837194e-05 0.000000000000000000e+00 0.000000000000000000e+00 0.000000000000000000e+00 0.000000000000000000e+00 0.000000000000000000e+00 0.000000000000000000e+00 0.000000000000000000e+00 0.000000000000000000e+00
2.799999999999999822e+00 4.166857750711185931e-10 0.000000000000000000e+00 9.999999995833188660e-01 0.000000000000000000e+00 0.000000000000000000e+00 0.000000000000000000e+00 8.298990296544048444e-06 -1.317658382478558828e-05 0.000000000000000000e+00 0.000000000000000000e+00 0.000000000000000000e+00 0.000000000000000000e+00 0.000000000000000000e+00 0.000000000000000000e+00 0.000000000000000000e+00 0.000000000000000000e+00
2.899999999999999911e+00 1.511928726101434388e-10 0.000000000000000000e+00 9.999999998488010577e-01 0.000000000000000000e+00 0.000000000000000000e+00 0.000000000000000000e+00 1.141856840632170924e-07 -1.280559968720119582e-06 0.000000000000000000e+00 0.000000000000000000e+00 0.000000000000000000e+00 0.000000000000000000e+00 0.000000000000000000e+00 0.000000000000000000e+00 0.000000000000000000e+00 0.000000000000000000e+00
3.000000000000000000e+00 2.111623197910421242e-10 0.000000000000000000e+00 9.999999997888454617e-01 0.000000000000000000e+00 0.000000000000000000e+00 0.000000000000000000e+00 3.591766094688618410e-06 9.275073202557649778e-07 0.000000000000000000e+00 0.000000000000000000e+00 0.000000000000000000e+00 0.000000000000000000e+00 0.000000000000000000e+00 0.000000000000000000e+00 0.000000000000000000e+00 0.000000000000000000e+00
