0.000000000000000000e+00 1.840136503993098372e-14 1.463094824942062560e-18 -1.000000000000000000e+00
1.034482758620689641e-01 -3.043530041512311213e-01 1.985590102104425880e-02 -9.523517138481500943e-01
2.068965517241379282e-01 -5.781002752184382087e-01 1.382440561334130624e-02 -8.158470225108335194e-01
3.103448275862069061e-01 -7.927808008408704366e-01 -3.596810970519631612e-02 -6.084414370421973306e-01
4.137931034482758563e-01 -9.249394423563076506e-01 -1.335257929043335845e-01 -3.558834326298995765e-01
5.172413793103448620e-01 -9.598003801889076758e-01 -2.669616063772436432e-01 -8.665683965146202261e-02
6.206896551724138122e-01 -8.950407930188837291e-01 -4.110237682002365611e-01 1.730785146995178214e-01
7.241379310344827624e-01 -7.432504670113655454e-01 -5.337028888468011711e-01 4.034046242462955290e-01
8.275862068965517127e-01 -5.315289958886938448e-01 -6.052449995359650003e-01 5.925803158336420129e-01
9.310344827586206629e-01 -2.973193815838217069e-01 -6.069215796596950652e-01 7.370510281008748610e-01
1.034482758620689724e+00 -8.088307433394423263e-02 -5.368602580842032346e-01 8.397836559664122458e-01
1.137931034482758674e+00 8.382490067388434496e-02 -4.108927690264243537e-01 9.078208955368080035e-01
1.241379310344827624e+00 1.771281256955547501e-01 -2.579644434450125146e-01 9.497782502914243752e-01
1.344827586206896575e+00 1.977775357949103363e-01 -1.114687381394426774e-01 9.738880262387602516e-01
1.448275862068965525e+00 1.616839033091365674e-01 5.768515673414756351e-04 9.868421216642003779e-01
1.551724137931034475e+00 9.559505424743598712e-02 6.315907899981537676e-02 9.934143556423171706e-01
1.655172413793103425e+00 2.792093538436225125e-02 7.714466915279230563e-02 9.966287230452465229e-01
1.758620689655172376e+00 -2.002950435336817853e-02 5.659404865599231005e-02 9.981962244033398823e-01
1.862068965517241326e+00 -3.929392499341312350e-02 2.193421196759842706e-02 9.989868377248446452e-01
1.965517241379310276e+00 -3.345885047270245188e-02 -8.128896320822105032e-03 9.994069689465968631e-01
2.068965517241379448e+00 -1.429268816807708481e-02 -2.270973667890896844e-02 9.996398743705565693e-01
2.172413793103448398e+00 4.854568775122216490e-03 -2.077127353327536119e-02 9.997724239330650908e-01
2.275862068965517349e+00 1.488809608086034617e-02 -8.832973163158753041e-03 9.998501141235790479e-01
2.379310344827586299e+00 1.373536673966603387e-02 3.932002841173539223e-03 9.998979039802166069e-01
2.482758620689655249e+00 5.403410534542906450e-03 1.063057768312023615e-02 9.999288686686477190e-01
2.586206896551724199e+00 -3.551474867787769371e-03 9.400306442163046394e-03 9.999494872577502358e-01
2.689655172413793149e+00 -7.998219190638384407e-03 3.079498616700459754e-03 9.999632527553973249e-01
2.793103448275862100e+00 -6.568110998155702457e-03 -3.427482732428201347e-03 9.999725389743465698e-01
2.896551724137931050e+00 -1.533962201299116090e-03 -6.288478496257791928e-03 9.999790359340737789e-01
3.000000000000000000e+00 3.272731788859420139e-03 -4.652596712323585695e-03 9.999838079287084458e-01
