0.000000000000000000e+00 1.809496303261132162e-14 1.391220951377977549e-18 -1.000000000000000000e+00
1.034482758620689641e-01 -1.072671706564299055e-01 -1.836505607941623375e-01 -9.771209682751499370e-01
2.068965517241379282e-01 -1.911033816768022420e-01 -3.672658041549424213e-01 -9.102711335070020615e-01
3.103448275862069061e-01 -2.303503564052838404e-01 -5.473656474005196282e-01 -8.045662062713537788e-01
4.137931034482758563e-01 -2.087351242087243652e-01 -7.145199266582313857e-01 -6.677478998109678265e-01
5.172413793103448620e-01 -1.178613951672372595e-01 -8.525587718042985097e-01 -5.091637351573239378e-01
6.206896551724138122e-01 3.972495506180673264e-02 -9.400646847327188693e-01 -3.386668607466780667e-01
7.241379310344827624e-01 2.483408203009206394e-01 -9.544231164844776405e-01 -1.655231408853871933e-01
8.275862068965517127e-01 4.789438785422677203e-01 -8.778391809326271389e-01 2.366628798260443818e-03
9.310344827586206629e-01 6.919729042215387871e-01 -7.041926415167388820e-01 1.589993923840409551e-01
1.034482758620689724e+00 8.437605047013931880e-01 -4.447786717583518401e-01 3.003914749343964408e-01
1.137931034482758674e+00 8.959403081072035979e-01 -1.307330001193861002e-01 4.244938190831015201e-01
1.241379310344827624e+00 8.259750743139664397e-01 1.896440503218814744e-01 5.308444664026740201e-01
1.344827586206896575e+00 6.358966733142614736e-01 4.593584587315754364e-01 6.201783655788621896e-01
1.448275862068965525e+00 3.559910801149300807e-01 6.258136498012929483e-01 6.939913949009799410e-01
1.551724137931034475e+00 4.095707898931516544e-02 6.553815603505889209e-01 7.541845645249732888e-01
1.655172413793103425e+00 -2.418882024828939437e-01 5.450174227176476371e-01 8.027722812769850780e-01
1.758620689655172376e+00 -4.301083877667766231e-01 3.263930425061594698e-01 8.417077819866070065e-01
1.862068965517241326e+00 -4.844812691227352586e-01 5.982464013901381272e-02 8.727524019737800121e-01
1.965517241379310276e+00 -4.020321476843987663e-01 -1.815983774699503339e-01 8.974353894105642215e-01
2.068965517241379448e+00 -2.185366703090579066e-01 -3.335795194646615225e-01 9.170412947428170369e-01
2.172413793103448398e+00 1.683096856623343685e-03 -3.608487786852182522e-01 9.326220072186605092e-01
2.275862068965517349e+00 1.862776643971800761e-01 -2.687661913673731751e-01 9.450206410964371306e-01
2.379310344827586299e+00 2.791109562758634088e-01 -1.011592109455030641e-01 9.549150025501149663e-01
2.482758620689655249e+00 2.592747931587262578e-01 7.562775845316749290e-02 9.628374359320621689e-01
2.586206896551724199e+00 1.474480420484023946e-01 1.972336571386994475e-01 9.692042998719546665e-01
2.689655172413793149e+00 -3.519920590991765241e-03 2.250338136593782457e-01 9.743441480088985696e-01
2.793103448275862100e+00 -1.304451887216697692e-01 1.596808929532842480e-01 9.785117535732212879e-01
2.896551724137931050e+00 -1.853752672230416787e-01 3.864594790359968113e-02 9.819072030411357677e-01
3.000000000000000000e+00 -1.542200126247635916e-01 -8.127801246053995010e-02 9.846874573542339082e-01
