1.000000000000000056e-01 8.313597967806109212e-02 2.413862170003986951e-01 -9.651733844084448011e-01
2.000000000000000111e-01 1.340658573576714307e-01 4.714040731439246290e-01 -8.646295391200695679e-01
2.999999999999999889e-01 1.269702488923324935e-01 6.751020737321991039e-01 -7.094298263644155389e-01
4.000000000000000222e-01 4.828242566899040161e-02 8.324090037218377924e-01 -5.157111930348504680e-01
5.000000000000000000e-01 -9.886001660141416347e-02 9.200249417726000800e-01 -3.018630446719208216e-01
5.999999999999999778e-01 -2.929189389669522026e-01 9.169450572767356977e-01 -8.560527294847951330e-02
6.999999999999999556e-01 -4.964238463914204535e-01 8.122960787259683180e-01 1.183782399323298484e-01
7.999999999999999334e-01 -6.633265077572779722e-01 6.128259876146441298e-01 2.998327855074011117e-01
8.999999999999999112e-01 -7.504738131990348338e-01 3.467348444962872756e-01 4.532234425479160222e-01
9.999999999999998890e-01 -7.305492278689490471e-01 6.110130040327473727e-02 5.771089072332039605e-01
1.099999999999999867e+00 -6.023653126584452844e-01 -1.879351835227960621e-01 6.729736632978486899e-01
1.199999999999999956e+00 -3.942271334447167153e-01 -3.502682508526063221e-01 7.439591531567590899e-01
1.300000000000000044e+00 -1.577472860485664152e-01 -3.975401576892731437e-01 7.938535873045664548e-01
1.399999999999999911e+00 4.723437556717735575e-02 -3.334962133217962976e-01 8.265180311272841696e-01
1.500000000000000000e+00 1.721933977934125559e-01 -1.940356654342372811e-01 8.457138491807723035e-01
1.599999999999999867e+00 1.968119107397041379e-01 -3.544123370520789462e-02 8.551396355174061270e-01
1.699999999999999956e+00 1.360559748891567999e-01 8.588677506469818979e-02 8.584265428889729099e-01
1.800000000000000044e+00 3.346908595473641751e-02 1.346080186043080995e-01 8.589187642454449989e-01
1.899999999999999911e+00 -5.765639225428178388e-02 1.094460029789134370e-01 8.592443379309506746e-01
2.000000000000000000e+00 -9.770702899233825456e-02 4.146917068948086788e-02 8.608663659705849680e-01
2.099999999999999645e+00 -7.801939894415363397e-02 -2.265151280348865967e-02 8.639041717164723799e-01
2.199999999999999734e+00 -2.294453461582939696e-02 -4.515241536245463011e-02 8.674389304311018734e-01
2.299999999999999822e+00 2.548519607956602900e-02 -1.711699979075734929e-02 8.702742616829461930e-01
2.399999999999999911e+00 3.305226287731485163e-02 3.760803206755714695e-02 8.718176955028713593e-01
2.500000000000000000e+00 -5.222851685731944027e-03 7.816102211078256035e-02 8.725784348366827370e-01
