1.000000000000000000e+00 -4.078961679443310895e-01 -3.335535911993666169e-01 8.086400992255914355e-01
1.050847457627118731e+00 -3.091801578074794277e-01 -3.509872509565939436e-01 8.490813992841721447e-01
1.101694915254237239e+00 -2.157220030527591259e-01 -3.504534179482385881e-01 8.823477862774381508e-01
1.152542372881355970e+00 -1.312611264563632862e-01 -3.340345564636678644e-01 9.093473093318266143e-01
1.203389830508474478e+00 -5.871419456506488804e-02 -3.047175352568093354e-01 9.309583494012386717e-01
1.254237288135593209e+00 4.762778060150851811e-05 -2.660533979222798329e-01 9.480229348942109668e-01
1.305084745762711940e+00 4.424279024648219982e-02 -2.218206401794783900e-01 9.613165376170645926e-01
1.355932203389830448e+00 7.416999681017298618e-02 -1.756871425174303114e-01 9.715338733828723372e-01
1.406779661016949179e+00 9.103871179995115526e-02 -1.309010757577033224e-01 9.792843173884887564e-01
1.457627118644067910e+00 9.678097608496161186e-02 -9.007889601017798897e-02 9.850861942350218614e-01
1.508474576271186418e+00 9.375748420139783101e-02 -5.504654101587577036e-02 9.893754970421253514e-01
1.559322033898305149e+00 8.451661390173852151e-02 -2.682810329882371475e-02 9.925061880180290341e-01
1.610169491525423879e+00 7.148861909577043650e-02 -5.672475559886223928e-03 9.947654448525520277e-01
1.661016949152542388e+00 5.683432723901941236e-02 8.783267692764780421e-03 9.963771376269427993e-01
1.711864406779661119e+00 4.229059747129961661e-02 1.739183669011655498e-02 9.975143573648704853e-01
1.762711864406779849e+00 2.910682762868885276e-02 2.126594444997961450e-02 9.983085713889349178e-01
1.813559322033898358e+00 1.804551911083083701e-02 2.163976567617847957e-02 9.988577656389491244e-01
1.864406779661016866e+00 9.429677616390696321e-03 1.968495434625289198e-02 9.992343735674641403e-01
1.915254237288135597e+00 3.245210323395752994e-03 1.643764474124367533e-02 9.994904085483978795e-01
1.966101694915254328e+00 -7.759927440763973727e-04 1.272130563318703972e-02 9.996630604066997217e-01
2.016949152542372836e+00 -3.015969642952518771e-03 9.117766419164199249e-03 9.997786527107854759e-01
2.067796610169491345e+00 -3.943208531944450423e-03 5.992174908995831148e-03 9.998554595979070037e-01
2.118644067796610297e+00 -3.972866575470003492e-03 3.511592082560232534e-03 9.999062265889075984e-01
2.169491525423728806e+00 -3.487079775679935781e-03 1.707138535419741501e-03 9.999395345069295171e-01
2.220338983050847759e+00 -2.767362784893573520e-03 5.114154385849030773e-04 9.999612609590592394e-01
2.271186440677966267e+00 -2.009287344987227379e-03 -1.869875084364285966e-04 9.999753455945521452e-01
2.322033898305084776e+00 -1.336935424680771268e-03 -5.144360359508356843e-04 9.999844149472393307e-01
2.372881355932203284e+00 -7.994606398730093886e-04 -6.054030122435644697e-04 9.999902212381522881e-01
2.423728813559322237e+00 -4.146874897291729137e-04 -5.599375089330724860e-04 9.999939072642415328e-01
2.474576271186440746e+00 -1.644453121404654814e-04 -4.474537283108718979e-04 9.999962342770676305e-01
2.525423728813559698e+00 -2.018028223625805968e-05 -3.209116126044402701e-04 9.999976912786056049e-01
2.576271186440678207e+00 4.602774293135139224e-05 -2.113992323210268367e-04 9.999985957129398084e-01
2.627118644067796716e+00 7.157348637066020497e-05 -1.265749344840534098e-04 9.999991530270679885e-01
2.677966101694915224e+00 6.372755036685096497e-05 -6.518615407547470500e-05 9.999994942743535287e-01
2.728813559322033733e+00 5.106912976888907703e-05 -2.694443435582820267e-05 9.999997005353892243e-01
2.779661016949152685e+00 3.895424378409955611e-05 -6.537823403822178232e-06 9.999998241559560075e-01
2.830508474576271194e+00 2.480985569216168508e-05 2.691750708154933046e-06 9.999998977894490881e-01
2.881355932203390147e+00 1.419148369896289555e-05 6.255034138613116537e-06 9.999999411495087420e-01
2.932203389830508655e+00 4.738576655353090297e-06 8.602210311023870463e-06 9.999999664345812223e-01
2.983050847457627164e+00 3.056437141175463321e-06 4.099072618415889628e-06 9.999999810452552262e-01
3.033898305084745672e+00 2.878231491852802321e-06 3.846080840857536013e-07 9.999999893969506726e-01
3.084745762711864625e+00 -7.916521929658093951e-07 2.437050570782352219e-06 9.999999941250996560e-01
3.135593220338983134e+00 3.040658228091854843e-07 1.708482692309112955e-06 9.999999967771495690e-01
3.186440677966101642e+00 1.642944853945296758e-06 -2.866697649328420358e-06 9.999999982472193016e-01
3.237288135593220595e+00 -2.675741078408657606e-06 2.778417319465570160e-06 9.999999990537200567e-01
3.288135593220339103e+00 2.608343858564426480e-07 2.376969718567796166e-06 9.999999995002726294e-01
3.338983050847457612e+00 -1.817002546109454076e-06 -2.563455194410471309e-07 9.999999997399764418e-01
3.389830508474576565e+00 -2.032858122807773788e-06 2.060604157363875991e-06 9.999999998647886024e-01
3.440677966101695073e+00 1.504342068681012657e-07 3.321971099438906219e-06 9.999999999301354414e-01
3.491525423728813582e+00 -4.447487429444413638e-07 -1.296702368207561954e-06 9.999999999704840548e-01
3.542372881355932535e+00 1.660559135332818859e-06 2.569899139197121617e-06 9.999999999843383058e-01
3.593220338983051043e+00 2.232356735910844043e-06 1.782686658160772767e-06 9.999999999947173368e-01
3.644067796610169552e+00 -2.696221503477502421e-07 1.861737479111048568e-06 1.000000000001874056e+00
3.694915254237288504e+00 -1.755714285533399963e-06 1.815678038947737535e-06 1.000000000002654099e+00
3.745762711864407013e+00 -4.278899782369574951e-08 -1.629951449478731821e-06 1.000000000006044054e+00
3.796610169491525522e+00 7.027202060155768182e-07 -4.432865332083315401e-06 9.999999999990010213e-01
3.847457627118644474e+00 5.521047940051404313e-07 -2.575133307396407962e-06 1.000000000007153167e+00
3.898305084745762983e+00 -3.333141397637339816e-06 4.122240738364302382e-06 9.999999999976523224e-01
3.949152542372881491e+00 -2.060761955305462934e-06 6.861318703298768465e-07 1.000000000008806067e+00
4.000000000000000000e+00 1.075702522987904235e-06 -1.701021057103019896e-06 1.000000000008893997e+00
