1.000000000000000056e-01 -4.421477712476175326e-03 4.324888960212187189e-02 -9.990513345466821571e-01
2.000000000000000111e-01 -6.620049238508687872e-03 8.658926758382631816e-02 -9.962088537812544553e-01
2.999999999999999889e-01 -4.380727807826542697e-03 1.299193969441525265e-01 -9.914835246041514560e-01
4.000000000000000222e-01 4.477554491020649396e-03 1.727681380711294790e-01 -9.848927181594517855e-01
5.000000000000000000e-01 2.203513914203954205e-02 2.140970404554602968e-01 -9.764628867019093938e-01
5.999999999999999778e-01 5.011976343295966585e-02 2.521746715797554272e-01 -9.662239180518514825e-01
6.999999999999999556e-01 9.010563124877853103e-02 2.844232668473046788e-01 -9.542168298489290823e-01
7.999999999999999334e-01 1.426116522648596396e-01 3.074240335737482566e-01 -9.404815318259506229e-01
8.999999999999999112e-01 2.071178113663138531e-01 3.169379676274028390e-01 -9.250734989061094593e-01
9.999999999999998890e-01 2.815371797529935272e-01 3.082301198979409129e-01 -9.080386576689282174e-01
1.099999999999999867e+00 3.618106279067988540e-01 2.764345662649016488e-01 -8.894419337016072902e-01
1.199999999999999956e+00 4.415580351896590816e-01 2.173464479537544070e-01 -8.693498040535879712e-01
1.300000000000000044e+00 5.120261192015946872e-01 1.283625983970405615e-01 -8.478239881758669050e-01
1.399999999999999911e+00 5.623403745617741034e-01 9.635578342230166626e-03 -8.249355889783442919e-01
1.500000000000000000e+00 5.803339255840086475e-01 -1.346645505334113091e-01 -8.007568828948617989e-01
1.599999999999999867e+00 5.539934227612436368e-01 -2.953461635278061825e-01 -7.753700554678886192e-01
1.699999999999999956e+00 4.736303338703521382e-01 -4.575333438236107719e-01 -7.488559249809548790e-01
1.800000000000000044e+00 3.345416520816506534e-01 -6.010991535837528765e-01 -7.212683071727450379e-01
1.899999999999999911e+00 1.398509993329005718e-01 -7.021366911782774833e-01 -6.927058289025449511e-01
2.000000000000000000e+00 -9.699732603554944710e-02 -7.361593560067472009e-01 -6.632506668483991730e-01
2.099999999999999645e+00 -3.510348618053468206e-01 -6.827430117807047338e-01 -6.329636367527630147e-01
2.199999999999999734e+00 -5.867049384971679826e-01 -5.311681164329835614e-01 -6.019462443036492916e-01
2.299999999999999822e+00 -7.617128777407832230e-01 -2.862618472528314917e-01 -5.702467716949480847e-01
2.399999999999999911e+00 -8.341022789221680389e-01 2.741654285689698600e-02 -5.379932281146900808e-01
2.500000000000000000e+00 -7.721831381851861353e-01 3.646578190875927050e-01 -5.051851890235731224e-01
2.600000000000000089e+00 -5.652785151166164201e-01 6.638463145268320709e-01 -4.719464635470572156e-01
2.699999999999999734e+00 -2.329698320768160413e-01 8.573505266060732488e-01 -4.383321656410256173e-01
2.799999999999999822e+00 1.710480293641156169e-01 8.872006532300519277e-01 -4.044378469888995631e-01
2.899999999999999911e+00 5.637272547225976593e-01 7.235665268726769739e-01 -3.702948579796974116e-01
3.000000000000000000e+00 8.480265333355051505e-01 3.807167396288639316e-01 -3.359878375768082792e-01
