1.000000000000000056e-01 -7.810211269420683222e-02 -1.714768724347238149e-01 -9.819233441531216577e-01
2.000000000000000111e-01 -1.554415437938826139e-01 -3.340334536318953496e-01 -9.288235037143014461e-01
2.999999999999999889e-01 -2.311429487479194911e-01 -4.796868866359487171e-01 -8.439222889011407380e-01
4.000000000000000222e-01 -3.041140052332527155e-01 -6.021216093991220708e-01 -7.320928091817378025e-01
5.000000000000000000e-01 -3.730290159149598495e-01 -6.971036362354356974e-01 -5.992658934159423856e-01
5.999999999999999778e-01 -4.363646688789287187e-01 -7.625728259356434613e-01 -4.518127105061572890e-01
6.999999999999999556e-01 -4.924869608792867837e-01 -7.984581548887697000e-01 -2.960391826944716587e-01
7.999999999999999334e-01 -5.397846180475632805e-01 -8.063530379505494672e-01 -1.378205800396651026e-01
8.999999999999999112e-01 -5.768270120314856753e-01 -7.891429546340051893e-01 1.764926588051414502e-02
9.999999999999998890e-01 -6.025082062381451609e-01 -7.506416764786025819e-01 1.660077739108243022e-01
1.099999999999999867e+00 -6.161764676911112293e-01 -6.952581400960561320e-01 3.037997845660450058e-01
1.199999999999999956e+00 -6.177320971335824584e-01 -6.276646602593545232e-01 4.285620528372813265e-01
1.300000000000000044e+00 -6.076506042389241413e-01 -5.525268935844723783e-01 5.387757595345387118e-01
1.399999999999999911e+00 -5.869689092351983994e-01 -4.742155552350950654e-01 6.338448406689146664e-01
1.500000000000000000e+00 -5.571775707652332210e-01 -3.965747357004150153e-01 7.139956225031078851e-01
1.599999999999999867e+00 -5.201281236393782148e-01 -3.227610441702343236e-01 7.800779072101254874e-01
1.699999999999999956e+00 -4.778249385472064792e-01 -2.551269573798640167e-01 8.334319683795143874e-01
1.800000000000000044e+00 -4.323207366984491706e-01 -1.952269833329154380e-01 8.756455409634679166e-01
1.899999999999999911e+00 -3.855234616348159893e-01 -1.438416477668816584e-01 9.084259571375279396e-01
2.000000000000000000e+00 -3.391191653365116521e-01 -1.011295487804814985e-01 9.334324316272857303e-01
2.099999999999999645e+00 -2.944949701274079956e-01 -6.671864386834217009e-02 9.521956111569029879e-01
2.199999999999999734e+00 -2.526908662158513508e-01 -3.989846192389412405e-02 9.660606856912333784e-01
2.299999999999999822e+00 -2.144220006268109657e-01 -1.971880741430387385e-02 9.761613149100163422e-01
2.399999999999999911e+00 -1.800999075289617946e-01 -5.149586363086613994e-03 9.834219943941355790e-01
2.500000000000000000e+00 -1.498577947802825494e-01 4.843160185377851090e-03 9.885797374077701649e-01
2.600000000000000089e+00 -1.236495221355753682e-01 1.123731309748754459e-02 9.922007233890898226e-01
2.699999999999999734e+00 -1.012586277137291768e-01 1.489191852363828256e-02 9.947167442882658417e-01
2.799999999999999822e+00 -8.237601232467148260e-02 1.654001307322451597e-02 9.964479007370982133e-01
2.899999999999999911e+00 -6.663158050202369620e-02 1.678903773440060254e-02 9.976283970692938485e-01
3.000000000000000000e+00 -5.363725227223901937e-02 1.610724723179816908e-02 9.984267057059367234e-01
