1.000000000000000056e-01 -1.367470026754740754e-03 1.215643280694798066e-02 -9.990174611883435585e-01
2.000000000000000111e-01 -5.722902008882839106e-05 5.371307655285441221e-04 -9.956958279968136649e-01
2.999999999999999889e-01 -1.478349498682866188e-07 1.402740410810340729e-06 -9.889460737952510128e-01
4.000000000000000222e-01 -2.758917028390973676e-10 2.711365466393240859e-10 -9.770728256199960882e-01
5.000000000000000000e-01 -1.204291135314220194e-10 1.134931991635254829e-10 -9.579683529104154882e-01
5.999999999999999778e-01 -1.364253174062436682e-10 1.285611822165014363e-10 -9.294096553375248426e-01
6.999999999999999556e-01 -1.515506010043533101e-10 1.414051803869711841e-10 -8.894575637737309748e-01
7.999999999999999334e-01 -1.617255680197985623e-10 1.493154997122409203e-10 -8.369128681563822170e-01
8.999999999999999112e-01 -1.663329195872370695e-10 1.516567660862260344e-10 -7.717544113546279672e-01
9.999999999999998890e-01 -1.649782003370858222e-10 1.482054742836635313e-10 -6.954181222500936954e-01
1.099999999999999867e+00 -1.577430325313430677e-10 1.392359508011111660e-10 -6.108099420459683904e-01
1.199999999999999956e+00 -1.454172711447394773e-10 1.257546554081470806e-10 -5.219836998673132999e-01
1.300000000000000044e+00 -1.292793239943462358e-10 1.091478474725539088e-10 -4.335305210249316699e-01
1.399999999999999911e+00 -1.109337019100869696e-10 9.106519196301011675e-11 -3.498471239764958662e-01
1.500000000000000000e+00 -9.201148705728992140e-11 7.310995524281806744e-11 -2.744673424594820665e-01
1.599999999999999867e+00 -7.393777453918413699e-11 5.654565518317763481e-11 -2.096440078195356549e-01
1.699999999999999956e+00 -5.772224938580821248e-11 4.222298466652944007e-11 -1.562486741870485474e-01
1.800000000000000044e+00 -4.393000298622802980e-11 3.051185983383559747e-11 -1.139589581930197659e-01
1.899999999999999911e+00 -3.272498669164637166e-11 2.138835992840492654e-11 -8.161499064075324050e-02
2.000000000000000000e+00 -2.396262406989053511e-11 1.458350621944441930e-11 -5.761502575522872704e-02
2.099999999999999645e+00 -1.732366755998601883e-11 9.692456927901692965e-12 -4.025294298845712160e-02
2.199999999999999734e+00 -1.242116474826990275e-11 6.289284895504876022e-12 -2.794689157338667990e-02
2.299999999999999822e+00 -8.870906338103915476e-12 3.984985078825114132e-12 -1.935886348955433156e-02
2.399999999999999911e+00 -6.336431986536492740e-12 2.460925627369693120e-12 -1.343013895009051092e-02
2.500000000000000000e+00 -4.543315072479682108e-12 1.472256381389525094e-12 -9.363580094418934296e-03
2.600000000000000089e+00 -3.280844558627598180e-12 8.418914842903294097e-13 -6.580979207773354767e-03
2.699999999999999734e+00 -2.392866245211405730e-12 4.464709129794815596e-13 -4.675009849269677956e-03
2.799999999999999822e+00 -1.766297851792998622e-12 2.021861478689642023e-13 -3.363336043230977582e-03
2.899999999999999911e+00 -1.321939102684253397e-12 5.395830314502422731e-14 -2.454769462202206071e-03
3.000000000000000000e+00 -1.004357625213814088e-12 -3.393977778280928264e-14 -1.819793669835163136e-03
