0.000000000000000000e+00 5.913902490742735136e-09 -2.352111438306462944e-10 -1.000000000000000000e+00
1.107692307692307726e-01 1.558659915659033404e-02 -9.605252476787311255e-02 -9.952538549961278402e-01
2.215384615384615452e-01 3.949321650993836003e-02 -1.890728429921250398e-01 -9.811678164187802587e-01
3.323076923076923039e-01 7.926409938234083019e-02 -2.749474113572754619e-01 -9.581852277037673504e-01
4.430769230769230904e-01 1.407742913494866854e-01 -3.476235311040560827e-01 -9.270045705511436029e-01
5.538461538461538769e-01 2.270513988672924754e-01 -3.987028194126223113e-01 -8.885267976358519615e-01
6.646153846153846079e-01 3.369104427015222059e-01 -4.177328216380553072e-01 -8.437926258909834720e-01
7.753846153846154499e-01 4.635926021809855802e-01 -3.934232354788453900e-01 -7.939109770526582288e-01
8.861538461538461808e-01 5.938323155051694613e-01 -3.158395742452939636e-01 -7.400015982165338846e-01
9.969230769230769118e-01 7.078670819160702843e-01 -1.795236505787080050e-01 -6.831460805007528725e-01
1.107692307692307754e+00 7.810349514284895545e-01 1.299109662776670726e-02 -6.243461448665516000e-01
1.218461538461538485e+00 7.872905863433992124e-01 2.480089964900314969e-01 -5.644971389644102278e-01
1.329230769230769216e+00 7.046634343841939874e-01 4.990506267890763015e-01 -5.043702853689973065e-01
1.439999999999999947e+00 5.219655810919088257e-01 7.279138292646980535e-01 -4.446170351801200793e-01
1.550769230769230900e+00 2.453558433438269848e-01 8.893631151772518617e-01 -3.857775334575205828e-01
1.661538461538461631e+00 -9.724224316814852886e-02 9.395592600342623779e-01 -3.282721454356835045e-01
1.772307692307692362e+00 -4.561056878270821624e-01 8.472011837049424621e-01 -2.724109440387982861e-01
1.883076923076923093e+00 -7.656636555743964179e-01 6.050061153969915617e-01 -2.184412376027174141e-01
1.993846153846153824e+00 -9.568376059835577152e-01 2.381657653971113175e-01 -1.665188782006605250e-01
2.104615384615384777e+00 -9.740419823145392009e-01 -1.939132714455211182e-01 -1.167452069734116193e-01
2.215384615384615508e+00 -7.930613825902992353e-01 -6.051941786531573886e-01 -6.916037008166198152e-02
2.326153846153846239e+00 -4.344317397725114827e-01 -9.003847524703010308e-01 -2.378747669182307289e-02
2.436923076923076970e+00 3.319291640633353219e-02 -9.992554448973565151e-01 1.939773094806126683e-02
2.547692307692307701e+00 5.033968750621016230e-01 -8.619322050268074520e-01 6.044816978267630869e-02
2.658461538461538431e+00 8.560931228899103518e-01 -5.071627453104069483e-01 9.939819556608274487e-02
2.769230769230769162e+00 9.905267885934369021e-01 -1.593401043564812714e-02 1.363538163650687696e-01
2.879999999999999893e+00 8.581680539299610944e-01 4.839072775589246533e-01 1.713797688743063097e-01
2.990769230769231068e+00 4.843281118533971363e-01 8.506279440762756217e-01 2.045681978780391763e-01
3.101538461538461799e+00 -3.097591203953231620e-02 9.712537498856662621e-01 2.360011521092132969e-01
3.212307692307692530e+00 -5.368353579626019556e-01 8.007282478998682951e-01 2.657668889949569846e-01
3.323076923076923261e+00 -8.755718613318653754e-01 3.833458698673484766e-01 2.939556246731770406e-01
3.433846153846153992e+00 -9.346021438603280274e-01 -1.538901361257164480e-01 3.206663434606919494e-01
3.544615384615384723e+00 -6.883911174497514551e-01 -6.375031198469511828e-01 3.459737198076647813e-01
3.655384615384615454e+00 -2.139035909826137449e-01 -9.040877840081046335e-01 3.699473408548488162e-01
3.766153846153846185e+00 3.294398542772841165e-01 -8.586369020464854618e-01 3.926866201698901993e-01
3.876923076923076916e+00 7.517791862033439410e-01 -5.130512031460571221e-01 4.142430146148099457e-01
3.987692307692307647e+00 9.004898205361893115e-01 1.201287698201092269e-02 4.347006587496657359e-01
4.098461538461538822e+00 7.189347053479399063e-01 5.262102366042257229e-01 4.541219357391919065e-01
4.209230769230769553e+00 2.725556957747899411e-01 8.380833896166943742e-01 4.725682574335105524e-01
4.320000000000000284e+00 -2.707884369618995257e-01 8.285329228909189547e-01 4.901001226810816069e-01
