0.000000000000000000e+00 -1.787067405808677857e-09 -4.672311779669150955e-09 -1.000000000000000000e+00
1.107692307692307726e-01 -1.458159170732821301e-02 -5.999101358708401263e-03 -9.998756188531771061e-01
2.215384615384615452e-01 -2.915543601549356462e-02 -1.200978718580599479e-02 -9.995026126404819022e-01
3.323076923076923039e-01 -4.371624026849111472e-02 -1.801895660834155338e-02 -9.988812944809878358e-01
4.430769230769230904e-01 -5.825630208979547947e-02 -2.403154549664181239e-02 -9.980121279307128113e-01
5.538461538461538769e-01 -7.276911830144532078e-02 -3.004320396139342070e-02 -9.968959161152534110e-01
6.646153846153846079e-01 -8.724814777298628421e-02 -3.605430015206486510e-02 -9.955335963707979685e-01
7.753846153846154499e-01 -1.016860722759062446e-01 -4.206519519228606174e-02 -9.939263762187651174e-01
8.861538461538461808e-01 -1.160753413125306666e-01 -4.807749237262379238e-02 -9.920756697011311465e-01
9.969230769230769118e-01 -1.304089127771562162e-01 -5.409211789781411678e-02 -9.899830838145434742e-01
1.107692307692307754e+00 -1.446796712510578786e-01 -6.010534878077943705e-02 -9.876507332042832044e-01
1.218461538461538485e+00 -1.588809922958912546e-01 -6.612051883982184020e-02 -9.850805148239160092e-01
1.329230769230769216e+00 -1.730047157714379724e-01 -7.213624709096425058e-02 -9.822750761661809271e-01
1.439999999999999947e+00 -1.870448749637551311e-01 -7.815116022165594090e-02 -9.792369918566431464e-01
1.550769230769230900e+00 -2.009917342327917356e-01 -8.416794599858697101e-02 -9.759694841679001920e-01
1.661538461538461631e+00 -2.148380847702155982e-01 -9.018130695977805145e-02 -9.724763038211773347e-01
1.772307692307692362e+00 -2.285794936926348886e-01 -9.619382039486140679e-02 -9.687601736645772288e-01
1.883076923076923093e+00 -2.422043864613697139e-01 -1.022054522111644215e-01 -9.648259255880633489e-01
1.993846153846153824e+00 -2.557077163306948897e-01 -1.082133910815796241e-01 -9.606775144199457550e-01
2.104615384615384777e+00 -2.690811862361326967e-01 -1.142151220948146167e-01 -9.563200074456198463e-01
2.215384615384615508e+00 -2.823175411962697279e-01 -1.202128808928445147e-01 -9.517579937126989797e-01
2.326153846153846239e+00 -2.954113862142923042e-01 -1.261999273355085549e-01 -9.469969242173157387e-01
2.436923076923076970e+00 -3.083582160055993171e-01 -1.321773907482969856e-01 -9.420412431333899939e-01
2.547692307692307701e+00 -3.211455061088295260e-01 -1.381419538934808566e-01 -9.368989243633059072e-01
2.658461538461538431e+00 -3.337751764026309909e-01 -1.440901464466210202e-01 -9.315735417175455835e-01
2.769230769230769162e+00 -3.462361908898124452e-01 -1.500225650315132608e-01 -9.260727325150368561e-01
2.879999999999999893e+00 -3.585254031726772816e-01 -1.559349848854850451e-01 -9.204024472504805932e-01
2.990769230769231068e+00 -3.706387619645373221e-01 -1.618202363338345495e-01 -9.145697565222047354e-01
3.101538461538461799e+00 -3.825716804130812054e-01 -1.676811545121593416e-01 -9.085805048954311847e-01
3.212307692307692530e+00 -3.943186614436197113e-01 -1.735125423859611715e-01 -9.024426067897780568e-01
3.323076923076923261e+00 -4.058784443371638018e-01 -1.793111544170591376e-01 -8.961621182143187925e-01
3.433846153846153992e+00 -4.172521805145266161e-01 -1.850707559232675492e-01 -8.897447108680729411e-01
3.544615384615384723e+00 -4.284272398952530536e-01 -1.907965262086350755e-01 -8.832003605996898710e-01
3.655384615384615454e+00 -4.394112090988039343e-01 -1.964772722562521112e-01 -8.765331917935594852e-01
3.766153846153846185e+00 -4.501971409789084499e-01 -2.021118695179607849e-01 -8.697523601602275001e-01
3.876923076923076916e+00 -4.607883711687136841e-01 -2.077016239330897185e-01 -8.628614204830186152e-01
3.987692307692307647e+00 -4.711818573817156408e-01 -2.132403155688057106e-01 -8.558690450357415713e-01
4.098461538461538822e+00 -4.813775458123465967e-01 -2.187235778189477453e-01 -8.487821457288874383e-01
4.209230769230769553e+00 -4.913741815255558976e-01 -2.241510760891920473e-01 -8.416074290713366768e-01
4.320000000000000284e+00 -5.011740300639403456e-01 -2.295229253235174238e-01 -8.343494793809237420e-01
