0.000000000000000000e+00 4.091072897481152432e-09 2.376607603804726194e-09 -1.000000000000000000e+00
1.107692307692307726e-01 -1.209551298479761838e-01 6.181128685593564182e-02 -9.907311319583138598e-01
2.215384615384615452e-01 -2.382264723202048851e-01 1.225840113764551931e-01 -9.634413228627538572e-01
3.323076923076923039e-01 -3.484484893771277458e-01 1.813642447021857340e-01 -9.196126304828593501e-01
4.430769230769230904e-01 -4.488742059439818632e-01 2.373134698610345206e-01 -8.615043906208205149e-01
5.538461538461538769e-01 -5.375335834424195269e-01 2.897597192584556169e-01 -7.918909970671802467e-01
6.646153846153846079e-01 -6.133062302500421614e-01 3.382211692752799537e-01 -7.137613278900797331e-01
7.753846153846154499e-01 -6.758597999996459604e-01 3.824154271331841048e-01 -6.300510580124469850e-01
8.861538461538461808e-01 -7.255298655364565974e-01 4.222297829479988995e-01 -5.434334837077724467e-01
9.969230769230769118e-01 -7.631415350470919234e-01 4.577169695540822536e-01 -4.561808878731051786e-01
1.107692307692307754e+00 -7.898336346922983919e-01 4.890412195462931488e-01 -3.701240009157240607e-01
1.218461538461538485e+00 -8.069115500150914055e-01 5.164525244049833486e-01 -2.866363243631200874e-01
1.329230769230769216e+00 -8.157181330717226952e-01 5.402532149148693286e-01 -2.066880048940633874e-01
1.439999999999999947e+00 -8.175548273835835378e-01 5.607659157488692481e-01 -1.309008984039518320e-01
1.550769230769230900e+00 -8.136226089374398729e-01 5.783182703366498423e-01 -5.962784987720243235e-02
1.661538461538461631e+00 -8.050001549148131375e-01 5.932241855828660482e-01 7.002939071311174539e-03
1.772307692307692362e+00 -7.926263223849752126e-01 6.057805324362119936e-01 6.901249355385320750e-02
1.883076923076923093e+00 -7.773028852141412592e-01 6.162637168444433655e-01 1.265251113689187801e-01
1.993846153846153824e+00 -7.597066592975778576e-01 6.249204904636767033e-01 1.797488246634608711e-01
2.104615384615384777e+00 -7.404016356172897773e-01 6.319729441420267602e-01 2.289219007159154773e-01
2.215384615384615508e+00 -7.198548666085964332e-01 6.376142443564574158e-01 2.743115763621779002e-01
2.326153846153846239e+00 -6.984453673510433447e-01 6.420187239058846584e-01 3.161898325643309748e-01
2.436923076923076970e+00 -6.764847415678996168e-01 6.453337344957890132e-01 3.548280559110690846e-01
2.547692307692307701e+00 -6.542191826511756236e-01 6.476935739213136589e-01 3.904877451921866527e-01
2.658461538461538431e+00 -6.318469248908822333e-01 6.492136976032049089e-01 4.234166210431504762e-01
2.769230769230769162e+00 -6.095235865975163758e-01 6.499951245525241728e-01 4.538481437440367028e-01
2.879999999999999893e+00 -5.873677153864502731e-01 6.501262333004156346e-01 4.820021417132407948e-01
2.990769230769231068e+00 -5.654783704413182122e-01 6.496856613868207120e-01 5.080688737254327458e-01
3.101538461538461799e+00 -5.439313989463152588e-01 6.487403750550090331e-01 5.322273869030312854e-01
3.212307692307692530e+00 -5.227815992693279901e-01 6.473480322456288683e-01 5.546454172614000422e-01
3.323076923076923261e+00 -5.020757285361570066e-01 6.455579513846139150e-01 5.754708587246467610e-01
3.433846153846153992e+00 -4.818348697367924593e-01 6.434146664574800223e-01 5.948484841199449535e-01
3.544615384615384723e+00 -4.620793730941746835e-01 6.409566414170033699e-01 6.129024564252230078e-01
3.655384615384615454e+00 -4.428170971759120000e-01 6.382230652764258050e-01 6.297433514016487210e-01
3.766153846153846185e+00 -4.240572504916341190e-01 6.352460504122250384e-01 6.454691559847194338e-01
3.876923076923076916e+00 -4.058020065072416305e-01 6.320543156547394625e-01 6.601702582289533661e-01
3.987692307692307647e+00 -3.880486115392837720e-01 6.286745483762301578e-01 6.739283604385818416e-01
4.098461538461538822e+00 -3.707973130970536602e-01 6.251196503085167944e-01 6.868244158217400308e-01
4.209230769230769553e+00 -3.540405406195573090e-01 6.214109968951185836e-01 6.989254733825037702e-01
4.320000000000000284e+00 -3.377681657388324488e-01 6.175638237812657305e-01 7.102963267457576002e-01
