0.000000000000000000e+00 -2.830312336560493679e-09 1.054582165334804578e-09 -1.000000000000000000e+00
1.107692307692307726e-01 -8.735193231444154244e-03 -1.232294920418141107e-03 -9.999609967229158292e-01
2.215384615384615452e-01 -1.718720907726712169e-02 -2.895261702032834311e-03 -9.998479290605202241e-01
3.323076923076923039e-01 -2.510011422699817002e-02 -5.353852942757215266e-03 -9.996703678183272990e-01
4.430769230769230904e-01 -3.230163844718289545e-02 -8.963111006584903798e-03 -9.994376718997409759e-01
5.538461538461538769e-01 -3.872537128065687423e-02 -1.402056934204210653e-02 -9.991511581401085751e-01
6.646153846153846079e-01 -4.441783025023462311e-02 -2.074309281807542107e-02 -9.987972368282488356e-01
7.753846153846154499e-01 -4.953701528996925368e-02 -2.923515013284565950e-02 -9.983438246937322846e-01
8.861538461538461808e-01 -5.432618042574491324e-02 -3.946962061975243380e-02 -9.977422822153285686e-01
9.969230769230769118e-01 -5.907848587245503880e-02 -5.126322961391600180e-02 -9.969355451180450522e-01
1.107692307692307754e+00 -6.408425189528246801e-02 -6.428498760889672647e-02 -9.958710322843910001e-01
1.218461538461538485e+00 -6.957440642454547353e-02 -7.805631440548246869e-02 -9.945173967418595717e-01
1.329230769230769216e+00 -7.566752969465212475e-02 -9.199992942530658968e-02 -9.928788634344970498e-01
1.439999999999999947e+00 -8.232261754757463912e-02 -1.054833608368237058e-01 -9.910065602491585635e-01
1.550769230769230900e+00 -8.931250947148530739e-02 -1.178980416880553717e-01 -9.889999216956206762e-01
1.661538461538461631e+00 -9.622619412723792953e-02 -1.287308952088855873e-01 -9.869985695381422452e-01
1.772307692307692362e+00 -1.024917346475828495e-01 -1.376477636316804087e-01 -9.851627534557879651e-01
1.883076923076923093e+00 -1.074384963400862036e-01 -1.445537311340272801e-01 -9.836453398620693678e-01
1.993846153846153824e+00 -1.103759016278317018e-01 -1.496268898528208269e-01 -9.825608476681741976e-01
2.104615384615384777e+00 -1.106931784679111019e-01 -1.533289920300381914e-01 -9.819541996070975109e-01
2.215384615384615508e+00 -1.079609949380786194e-01 -1.563636309766606169e-01 -9.817798287184941186e-01
2.326153846153846239e+00 -1.020196701642353820e-01 -1.596044071562773836e-01 -9.818936928492619787e-01
2.436923076923076970e+00 -9.304868613217971707e-02 -1.639832416804828386e-01 -9.820632657949871502e-01
2.547692307692307701e+00 -8.158160315979245958e-02 -1.703696636670337938e-01 -9.819956379111981493e-01
2.658461538461538431e+00 -6.848631246017147789e-02 -1.794278692852391832e-01 -9.813827098741778610e-01
2.769230769230769162e+00 -5.489262755678789296e-02 -1.915052789601107142e-01 -9.799536514880072824e-01
2.879999999999999893e+00 -4.206146204134338096e-02 -2.065526611986834016e-01 -9.775291595428973190e-01
2.990769230769231068e+00 -3.123599261762806389e-02 -2.240801646266832037e-01 -9.740680372645050822e-01
3.101538461538461799e+00 -2.346824146136297640e-02 -2.431845433369592135e-01 -9.696939406582267829e-01
3.212307692307692530e+00 -1.946144296541468463e-02 -2.626392082851659038e-01 -9.646954773270592920e-01
3.323076923076923261e+00 -1.943818292345703136e-02 -2.810277133657844706e-01 -9.595002342488189173e-01
3.433846153846153992e+00 -2.307258421305938279e-02 -2.969204425383387136e-01 -9.546207184100592436e-01
3.544615384615384723e+00 -2.948907972640031627e-02 -3.090773397285098700e-01 -9.505767486872256367e-01
3.655384615384615454e+00 -3.734071155238885553e-02 -3.166250611598125930e-01 -9.478125560814772976e-01
3.766153846153846185e+00 -4.495936195164917937e-02 -3.192057225059533598e-01 -9.466153879092564782e-01
3.876923076923076916e+00 -5.057420744267721036e-02 -3.170645417773919617e-01 -9.470515727555783858e-01
3.987692307692307647e+00 -5.254226589568308792e-02 -3.110565166858749175e-01 -9.489349920004114258e-01
4.098461538461538822e+00 -4.959849304377335344e-02 -3.025709716829182439e-01 -9.518326717340556131e-01
4.209230769230769553e+00 -4.105918302400966835e-02 -2.933749159428820086e-01 -9.551126330486372495e-01
4.320000000000000284e+00 -2.695585288949563230e-02 -2.853894302899164237e-01 -9.580298943666373246e-01
