0.000000000000000000e+00 1.896428602191337311e-09 -7.729699122572136420e-13 -1.000000000000000000e+00
1.107692307692307726e-01 2.081125398026399953e-01 9.459378914872051958e-02 -9.735187181836052472e-01
2.215384615384615452e-01 3.911120770562519500e-01 2.053160239521880093e-01 -8.971462754943075879e-01
3.323076923076923039e-01 5.245550877655603683e-01 3.424461160790716607e-01 -7.794642991957023703e-01
4.430769230769230904e-01 5.862564347274987764e-01 5.057757197273156091e-01 -6.328378216813578261e-01
5.538461538461538769e-01 5.592686133017525929e-01 6.821173373636181259e-01 -4.710859748781137668e-01
6.646153846153846079e-01 4.361057806771294620e-01 8.458702438395760970e-01 -3.070851619844442992e-01
7.753846153846154499e-01 2.230930019409246290e-01 9.630220238887721163e-01 -1.510078758060949544e-01
8.861538461538461808e-01 -5.662052687568230880e-02 9.983444469879954042e-01 -9.354438121511420359e-03
9.969230769230769118e-01 -3.631875162877338248e-01 9.245874638001438939e-01 1.149695086677113287e-01
1.107692307692307754e+00 -6.444740515359522748e-01 7.317057336194418005e-01 2.219131306301771744e-01
1.218461538461538485e+00 -8.449576046285885988e-01 4.335666376169025615e-01 3.131336404021890507e-01
1.329230769230769216e+00 -9.177732225915631314e-01 6.969743260740779434e-02 3.909235223277170435e-01
1.439999999999999947e+00 -8.372747263393558459e-01 -2.995008000402997750e-01 4.574468314757775267e-01
1.550769230769230900e+00 -6.085992520078624679e-01 -6.041370498326741334e-01 5.144057228840013263e-01
1.661538461538461631e+00 -2.708262523380638442e-01 -7.807508088094582410e-01 5.630894720611833160e-01
1.772307692307692362e+00 1.083929113200546857e-01 -7.891371539054050643e-01 6.045680622924747283e-01
1.883076923076923093e+00 4.467047446968826496e-01 -6.252985122148390085e-01 6.398798091056890902e-01
1.993846153846153824e+00 6.667349272847709063e-01 -3.261545699737289361e-01 6.701326224455983471e-01
2.104615384615384777e+00 7.167185202697263779e-01 3.647943387480565014e-02 6.964009070649994637e-01
2.215384615384615508e+00 5.861006431464697020e-01 3.723486724558169869e-01 7.196063864422228562e-01
2.326153846153846239e+00 3.109707370591865971e-01 5.959364965738209730e-01 7.403702537700219688e-01
2.436923076923076970e+00 -3.344256364747830168e-02 6.502135828052254540e-01 7.590095186339771427e-01
2.547692307692307701e+00 -3.521317015408569895e-01 5.238410798065437080e-01 7.756195389565140319e-01
2.658461538461538431e+00 -5.567374363370077850e-01 2.560309620602841396e-01 7.902428647277651708e-01
2.769230769230769162e+00 -5.914330922762016662e-01 -7.338939669543577404e-02 8.030027259377648940e-01
2.879999999999999893e+00 -4.502047374924604828e-01 -3.666408238392642738e-01 8.141762087886165178e-01
2.990769230769231068e+00 -1.796043840998872154e-01 -5.371301839575368664e-01 8.241519039132602087e-01
3.101538461538461799e+00 1.347339309603490243e-01 -5.361118430239097954e-01 8.333210654136856688e-01
3.212307692307692530e+00 3.943091345893849908e-01 -3.683029620402956117e-01 8.419421615812736626e-01
3.323076923076923261e+00 5.187327418409419799e-01 -9.082721706684543372e-02 8.500942849512796995e-01
3.433846153846153992e+00 4.716168495669144645e-01 2.047817106108271723e-01 8.576920923193884772e-01
3.544615384615384723e+00 2.725389045947640421e-01 4.221555364895557827e-01 8.645814851875426310e-01
3.655384615384615454e+00 -9.286390767073549046e-03 4.917780025216981210e-01 8.706676656601776143e-01
3.766153846153846185e+00 -2.780183057718941808e-01 3.941366488116436750e-01 8.759887667535415368e-01
3.876923076923076916e+00 -4.434892336739557628e-01 1.662354097430025213e-01 8.807254953754761750e-01
3.987692307692307647e+00 -4.518690979390083684e-01 -1.111260448008591362e-01 8.851326170383160274e-01
4.098461538461538822e+00 -3.040584794660761703e-01 -3.412674615786695509e-01 8.894265090533503004e-01
4.209230769230769553e+00 -5.514650340823393226e-02 -4.452579388182645870e-01 8.936995574909971651e-01
4.320000000000000284e+00 2.051424446362120624e-01 -3.894821763306332008e-01 8.978947669005317156e-01
