0.000000000000000000e+00 4.582852116628651791e-09 1.864323059817905301e-09 -1.000000000000000000e+00
1.107692307692307726e-01 -1.169091706808106368e-02 1.800762731408282746e-01 -9.835820682181698471e-01
2.215384615384615452e-01 -2.033509427341620435e-02 3.515267250089996187e-01 -9.359545729903634426e-01
3.323076923076923039e-01 -2.343505886998883958e-02 5.069070273445541730e-01 -8.616781062635795463e-01
4.430769230769230904e-01 -1.952076330080632083e-02 6.408730623782491476e-01 -7.673926084079670806e-01
5.538461538461538769e-01 -8.319914864963390277e-03 7.506576986635756787e-01 -6.606303455314254114e-01
6.646153846153846079e-01 9.352892182269617605e-03 8.360148389073638331e-01 -5.486151775022912735e-01
7.753846153846154499e-01 3.193590865648671118e-02 8.987373518474249812e-01 -4.373063157804647494e-01
8.861538461538461808e-01 5.756777664173207132e-02 9.419055707229549990e-01 -3.308842784358930755e-01
9.969230769230769118e-01 8.452772420667209463e-02 9.690998069987311059e-01 -2.316992032013043268e-01
1.107692307692307754e+00 1.115336534192815643e-01 9.837512062162853121e-01 -1.406318218277008147e-01
1.218461538461538485e+00 1.378607318694922701e-01 9.887664886242887308e-01 -5.760689498241965828e-02
1.329230769230769216e+00 1.632494902762841593e-01 9.864148931273319931e-01 1.784746786391598269e-02
1.439999999999999947e+00 1.877168333336733941e-01 9.784210941189264155e-01 8.624329747868719753e-02
1.550769230769230900e+00 2.113242804277307152e-01 9.661416191380532981e-01 1.479727682843219594e-01
1.661538461538461631e+00 2.340214995826362943e-01 9.507165797807919372e-01 2.033609396315936013e-01
1.772307692307692362e+00 2.556006097357986784e-01 9.331409983223688531e-01 2.527849311235206287e-01
1.883076923076923093e+00 2.757577875033944137e-01 9.142499863247242065e-01 2.967977512679756402e-01
1.993846153846153824e+00 2.942363459354949140e-01 8.946534284489409128e-01 3.361618950358143953e-01
2.104615384615384777e+00 3.109489400557439720e-01 8.747061775195548172e-01 3.717321105865689090e-01
2.215384615384615508e+00 3.260398830829608907e-01 8.545297433541879650e-01 4.043044903611855423e-01
2.326153846153846239e+00 3.398584807251956996e-01 8.341059069806642245e-01 4.344526065684312099e-01
2.436923076923076970e+00 3.528350056970172011e-01 8.134124835570815115e-01 4.624428710636498407e-01
2.547692307692307701e+00 3.653288089261929050e-01 7.925272979974024024e-01 4.882842122336371604e-01
2.658461538461538431e+00 3.775019632537756076e-01 7.716774397269080543e-01 5.118521369698809664e-01
2.769230769230769162e+00 3.892776826724620998e-01 7.511866262760561463e-01 5.330743175170266079e-01
2.879999999999999893e+00 4.003871988622265121e-01 7.313703488475069570e-01 5.520638167368223659e-01
2.990769230769231068e+00 4.105094413263090103e-01 7.124076634861034041e-01 5.691612368302609859e-01
3.101538461538461799e+00 4.194196013363459263e-01 6.942644345226232083e-01 5.848688039594711618e-01
3.212307692307692530e+00 4.271086274003024208e-01 6.767052654956799973e-01 5.996964681806812303e-01
3.323076923076923261e+00 4.338121041497347008e-01 6.593970972180863699e-01 6.139954437498968964e-01
3.433846153846153992e+00 4.399356881550359755e-01 6.420481145309065996e-01 6.278685470012900227e-01
3.544615384615384723e+00 4.458990036763133546e-01 6.245520525195059625e-01 6.411685726728025836e-01
3.655384615384615454e+00 4.519975226368562193e-01 6.070350505161340449e-01 6.536017343237847665e-01
3.766153846153846185e+00 4.582793046757611122e-01 5.898268551332320753e-01 6.648857693703666971e-01
3.876923076923076916e+00 4.645410966029376865e-01 5.733017645699877152e-01 6.749189411214020495e-01
3.987692307692307647e+00 4.704135358274003642e-01 5.577419791386677428e-01 6.838304424546786109e-01
4.098461538461538822e+00 4.755217399005177703e-01 5.431831148983352620e-01 6.919685063211141740e-01
4.209230769230769553e+00 4.796448964225998313e-01 5.294038544281410852e-01 6.997583194883042479e-01
4.320000000000000284e+00 4.828149565201045879e-01 5.159910128871457724e-01 7.075538943459821484e-01
