0.000000000000000000e+00 -1.929673680450297553e-09 -2.337306913781665193e-09 -1.000000000000000000e+00
1.107692307692307726e-01 -3.345520724636663612e-01 9.634249760283492003e-02 -9.374361786039104860e-01
2.215384615384615452e-01 -6.307985357880991906e-01 1.587731444255587598e-01 -7.595199680655105867e-01
3.323076923076923039e-01 -8.544484067290705198e-01 1.619490281987918667e-01 -4.936297723257650483e-01
4.430769230769230904e-01 -9.791217441337300986e-01 9.556701396376519886e-02 -1.793426157832884726e-01
5.538461538461538769e-01 -9.897101927644843533e-01 -3.257143142701110494e-02 1.392438167292321394e-01
6.646153846153846079e-01 -8.848626050583031644e-01 -1.977626230435507448e-01 4.217663397140000714e-01
7.753846153846154499e-01 -6.780755463052667853e-01 -3.636640409870917634e-01 6.387057013791526128e-01
8.861538461538461808e-01 -3.969147246602039436e-01 -4.904435826215869376e-01 7.758289886984749417e-01
9.969230769230769118e-01 -8.005937647706395932e-02 -5.440397237148720810e-01 8.352246332314751109e-01
1.107692307692307754e+00 2.277654573456384113e-01 -5.044176987912174503e-01 8.328712389895439605e-01
1.218461538461538485e+00 4.824279740493231938e-01 -3.709174853771790570e-01 7.935180442382363530e-01
1.329230769230769216e+00 6.476310999538075208e-01 -1.634105739457969997e-01 7.442155367319048809e-01
1.439999999999999947e+00 7.014712329673148394e-01 8.115662925230818225e-02 7.080511765503112454e-01
1.550769230769230900e+00 6.408946429704759362e-01 3.161518208166252952e-01 6.994902527948924087e-01
1.661538461538461631e+00 4.829339236042345940e-01 4.950562552399885852e-01 7.222736988000911795e-01
1.772307692307692362e+00 2.621598008370678023e-01 5.815243291017578864e-01 7.701222798850706486e-01
1.883076923076923093e+00 2.453156136554213163e-02 5.574918570900413428e-01 8.298130744149667670e-01
1.993846153846153824e+00 -1.813244039959900356e-01 4.274594272938020412e-01 8.856584411492458564e-01
2.104615384615384777e+00 -3.137913714563048684e-01 2.179094910386534245e-01 9.241446106164034058e-01
2.215384615384615508e+00 -3.467984034837522378e-01 -2.809558022671015953e-02 9.375153654466678033e-01
2.326153846153846239e+00 -2.753818610362831487e-01 -2.600445107410811474e-01 9.254915348144989728e-01
2.436923076923076970e+00 -1.168994740331471827e-01 -4.308631850111566686e-01 8.948088189015728222e-01
2.547692307692307701e+00 9.253023238609434098e-02 -5.071445674683924265e-01 8.568735626579612186e-01
2.658461538461538431e+00 3.057972949226516191e-01 -4.764529873877292321e-01 8.242991405454552778e-01
2.769230769230769162e+00 4.751022273803450213e-01 -3.499912265224384145e-01 8.073239197005489531e-01
2.879999999999999893e+00 5.625743303896445502e-01 -1.599915610624567108e-01 8.111108664163674264e-01
2.990769230769231068e+00 5.488073936399047170e-01 4.761926395496907105e-02 8.345847679039611888e-01
3.101538461538461799e+00 4.372916043888786519e-01 2.236428172298037254e-01 8.710627349073192249e-01
3.212307692307692530e+00 2.536670807613919942e-01 3.268022334622313618e-01 9.104094968437104196e-01
3.323076923076923261e+00 3.987528041633402187e-02 3.331131553446288751e-01 9.420400268318183112e-01
3.433846153846153992e+00 -1.555003369985177852e-01 2.412745483976435901e-01 9.579149458754454560e-01
3.544615384615384723e+00 -2.885077904568530416e-01 7.281062911065577792e-02 9.547022892635860236e-01
3.655384615384615454e+00 -3.300493915922850241e-01 -1.330517992201109556e-01 9.345362536030138445e-01
3.766153846153846185e+00 -2.727012590560928817e-01 -3.286301723692502952e-01 9.042278810635953068e-01
3.876923076923076916e+00 -1.324326674129158721e-01 -4.690230654094051932e-01 8.731949325741337198e-01
3.987692307692307647e+00 5.524560128904432155e-02 -5.226630675184419372e-01 8.507412911100884489e-01
4.098461538461538822e+00 2.437689505002604284e-01 -4.787015150975996169e-01 8.434517113200401539e-01
4.209230769230769553e+00 3.866697765472714154e-01 -3.494777136424368491e-01 8.534292173179365282e-01
4.320000000000000284e+00 4.487208516449084916e-01 -1.674695091902929367e-01 8.778349468342814266e-01
