0.000000000000000000e+00 3.262188104978863899e-09 2.645473741813817327e-09 -1.000000000000000000e+00
1.107692307692307726e-01 2.247447799559049442e-01 4.225529791192057794e-02 -9.735000510642305427e-01
2.215384615384615452e-01 4.291125516701825293e-01 1.072540239785242100e-01 -8.968583782151431372e-01
3.323076923076923039e-01 5.914545899390993844e-01 2.115650870382966842e-01 -7.780845040853641148e-01
4.430769230769230904e-01 6.890448628225140926e-01 3.603072670773858066e-01 -6.287985512852308778e-01
5.538461538461538769e-01 7.006602989058057229e-01 5.435808359697775760e-01 -4.621528592628589838e-01
6.646153846153846079e-01 6.116114880821792443e-01 7.358067181282985647e-01 -2.907042621995981624e-01
7.753846153846154499e-01 4.201100692365005718e-01 8.988453441056302173e-01 -1.247925577699129374e-01
8.861538461538461808e-01 1.429058736675963281e-01 9.893232161144629444e-01 2.838922463994986503e-02
9.969230769230769118e-01 -1.823323623379387581e-01 9.693138740573248313e-01 1.648460083384784003e-01
1.107692307692307754e+00 -5.000923303073677717e-01 8.183134424428030185e-01 2.833017032501927712e-01
1.218461538461538485e+00 -7.464509392458358317e-01 5.431881159505911327e-01 3.843790875972991627e-01
1.329230769230769216e+00 -8.637427764264600238e-01 1.824305986701453830e-01 4.697422278594752254e-01
1.439999999999999947e+00 -8.170628549325725798e-01 -1.980855678527287944e-01 5.414436973204980186e-01
1.550769230769230900e+00 -6.076529921528686096e-01 -5.185547907112180166e-01 6.015399138595016737e-01
1.661538461538461631e+00 -2.780275329137307239e-01 -7.054933829638587728e-01 6.518986603008948277e-01
1.772307692307692362e+00 9.462246477445070136e-02 -7.135656861731731748e-01 6.941636629652836454e-01
1.883076923076923093e+00 4.167594821534906790e-01 -5.420000180962305514e-01 7.297537901020680895e-01
1.993846153846153824e+00 6.044489631419729392e-01 -2.391990398566621878e-01 7.598807774906815027e-01
2.104615384615384777e+00 6.093598415931201773e-01 1.077665657700466184e-01 7.855322088750774645e-01
2.215384615384615508e+00 4.359396589258023313e-01 3.973588385015230928e-01 8.075003682809741568e-01
2.326153846153846239e+00 1.427649693241007101e-01 5.446765903731697334e-01 8.264019381562930366e-01
2.436923076923076970e+00 -1.740804495426924170e-01 5.094227151588254232e-01 8.427214160788986108e-01
2.547692307692307701e+00 -4.115177020773960193e-01 3.105540162321431263e-01 8.568573522720949187e-01
2.658461538461538431e+00 -4.940659587351355353e-01 2.117720548532303626e-02 8.691638278640368975e-01
2.769230769230769162e+00 -4.003068107554141886e-01 -2.558244464340899693e-01 8.799453998849948722e-01
2.879999999999999893e+00 -1.709367927128751241e-01 -4.238376377380311255e-01 8.894594311094239369e-01
2.990769230769231068e+00 1.056163866371380433e-01 -4.273307085637599312e-01 8.979029121834372074e-01
3.101538461538461799e+00 3.256764731241525435e-01 -2.722966216057358113e-01 9.054200963688511239e-01
3.212307692307692530e+00 4.092252038907627232e-01 -2.380297550504331672e-02 9.121208696054676768e-01
3.323076923076923261e+00 3.302640420066480509e-01 2.191482873817942878e-01 9.180937566524991489e-01
3.433846153846153992e+00 1.264560437850970054e-01 3.623159088933252114e-01 9.234352429511278881e-01
3.544615384615384723e+00 -1.163545272049006513e-01 3.533133263688565395e-01 9.282392017811632590e-01
3.655384615384615454e+00 -2.990505341543231443e-01 2.020780675517019898e-01 9.325931853597708709e-01
3.766153846153846185e+00 -3.496654881971422713e-01 -2.398602663309891414e-02 9.365658814393693632e-01
3.876923076923076916e+00 -2.525715603979584167e-01 -2.285283177802052423e-01 9.402018120042101579e-01
3.987692307692307647e+00 -5.416732112913263952e-02 -3.268514413114685380e-01 9.435206169484374739e-01
4.098461538461538822e+00 1.576837577808080648e-01 -2.814078193347108181e-01 9.465424823321121339e-01
4.209230769230769553e+00 2.917887374207843165e-01 -1.170624697907268752e-01 9.492907761410346312e-01
4.320000000000000284e+00 2.929957593447128916e-01 9.069324530490424641e-02 9.518012186799246210e-01
