0.000000000000000000e+00 -2.678748848383033671e-09 3.352556055241603074e-09 -1.000000000000000000e+00
1.107692307692307726e-01 -2.535776955943039868e-01 -1.905729256454718745e-01 -9.483552073375973723e-01
2.215384615384615452e-01 -4.577430673680902840e-01 -3.849264733342905309e-01 -8.014344111531109816e-01
3.323076923076923039e-01 -5.715710424781843546e-01 -5.790806562789501122e-01 -5.813463102601172938e-01
4.430769230769230904e-01 -5.703699629507776869e-01 -7.568792656910132699e-01 -3.190631467090888629e-01
5.538461538461538769e-01 -4.515438053689177500e-01 -8.909751623131381137e-01 -4.754014055316167775e-02
6.646153846153846079e-01 -2.370754567104033095e-01 -9.496326360988578408e-01 2.048950881763076937e-01
7.753846153846154499e-01 2.897468328248911651e-02 -9.074728375645869649e-01 4.190984690862419870e-01
8.861538461538461808e-01 2.886440267062757581e-01 -7.566214979160663656e-01 5.866855660892708046e-01
9.969230769230769118e-01 4.830992701461200856e-01 -5.140578857147263259e-01 7.087682610889943779e-01
1.107692307692307754e+00 5.677392898282489497e-01 -2.216955600515920222e-01 7.927908097392788456e-01
1.218461538461538485e+00 5.251272677629811314e-01 6.200438951671211063e-02 8.487590193281402406e-01
1.329230769230769216e+00 3.712871584090565169e-01 2.772794888526265433e-01 8.861476758542863319e-01
1.439999999999999947e+00 1.524318716303041943e-01 3.805763725296051336e-01 9.120978607470682231e-01
1.550769230769230900e+00 -6.798244195364919196e-02 3.585241754173688622e-01 9.310400817210903179e-01
1.661538461538461631e+00 -2.284035454807044618e-01 2.329968504909232796e-01 9.452732415380019626e-01
1.772307692307692362e+00 -2.884797001843816822e-01 5.471139343815564771e-02 9.559203111797178742e-01
1.883076923076923093e+00 -2.417656316220039847e-01 -1.131388578826194036e-01 9.637150708014216027e-01
1.993846153846153824e+00 -1.169758097937653174e-01 -2.158739768228646327e-01 9.693879739321837885e-01
2.104615384615384777e+00 3.307116526157108383e-02 -2.255146887305434777e-01 9.736773252720644090e-01
2.215384615384615508e+00 1.510982842348602140e-01 -1.493028200904851499e-01 9.771776819771129663e-01
2.326153846153846239e+00 1.963323178025016547e-01 -2.524667049662402546e-02 9.802115077283827249e-01
2.436923076923076970e+00 1.588038140161064093e-01 9.377356837467656914e-02 9.828460464868651325e-01
2.547692307692307701e+00 6.143036691330727717e-02 1.611068244910652814e-01 9.850225820891939099e-01
2.658461538461538431e+00 -5.087616946839900595e-02 1.543242775540144274e-01 9.867088247910961174e-01
2.769230769230769162e+00 -1.305200055962148775e-01 8.283170407691664572e-02 9.879788344742224115e-01
2.879999999999999893e+00 -1.468845735066754421e-01 -1.778948451395945263e-02 9.889930495231595842e-01
2.990769230769231068e+00 -9.820062177460878172e-02 -1.021110138037382986e-01 9.899135427389220698e-01
3.101538461538461799e+00 -1.073565308774614147e-02 -1.347315995665105681e-01 9.908234141517346938e-01
3.212307692307692530e+00 7.405439607371426536e-02 -1.050474950396293183e-01 9.917055631612676780e-01
3.323076923076923261e+00 1.184709474192569834e-01 -3.063482913206039271e-02 9.924843284975359836e-01
3.433846153846153992e+00 1.051490368578409385e-01 5.197227323190438397e-02 9.930969761319372591e-01
3.544615384615384723e+00 4.387399642046354437e-02 1.046164128488100420e-01 9.935439360662347008e-01
3.655384615384615454e+00 -3.413738110619210508e-02 1.049676040981055436e-01 9.938890984013519780e-01
3.766153846153846185e+00 -9.157443479027464750e-02 5.605378996722541057e-02 9.942188989032227919e-01
3.876923076923076916e+00 -1.026241906799959247e-01 -1.624540137234651432e-02 9.945871065533279376e-01
3.987692307692307647e+00 -6.458499335385467499e-02 -7.632129828933859050e-02 9.949889557381148553e-01
4.098461538461538822e+00 1.802954698148475504e-03 -9.607085301322242088e-02 9.953724699817473320e-01
4.209230769230769553e+00 6.320297457384048412e-02 -6.799232061244175895e-02 9.956815094590146797e-01
4.320000000000000284e+00 9.015391762013647003e-02 -7.981508329277027525e-03 9.958954881114369106e-01
