0.000000000000000000e+00 -1.641395679190319558e-09 -4.428712237256704874e-09 -1.000000000000000000e+00
1.107692307692307726e-01 -3.008631701680087867e-01 -1.749366394557898829e-01 -9.374827826697050837e-01
2.215384615384615452e-01 -5.482139118629288932e-01 -3.486167685562203689e-01 -7.602092887731347615e-01
3.323076923076923039e-01 -6.987783942797826109e-01 -5.148154274198492031e-01 -4.966484042246827602e-01
4.430769230769230904e-01 -7.278738427081556939e-01 -6.597042005186971592e-01 -1.870113161172339000e-01
5.538461538461538769e-01 -6.343320505086711414e-01 -7.627883690903233260e-01 1.255377311880815361e-01
6.646153846153846079e-01 -4.408729921710481392e-01 -8.016512175916327143e-01 4.036967773299243722e-01
7.753846153846154499e-01 -1.896262614609662278e-01 -7.591536413399966321e-01 6.226678921265405009e-01
8.861538461538461808e-01 6.654932167940499910e-02 -6.307419591570241346e-01 7.731276558460317139e-01
9.969230769230769118e-01 2.753541420207081258e-01 -4.292078482011872920e-01 8.602055411407550922e-01
1.107692307692307754e+00 3.965603529938884764e-01 -1.848516558314387548e-01 8.992017630829253205e-01
1.218461538461538485e+00 4.110781907121074941e-01 5.967889541230647632e-02 9.096414446883926974e-01
1.329230769230769216e+00 3.252364827442812967e-01 2.588688813801803823e-01 9.095067525508027106e-01
1.439999999999999947e+00 1.689798061399788165e-01 3.757323104024291593e-01 9.111890739685032381e-01
1.550769230769230900e+00 -1.190971851813864280e-02 3.917970015753027280e-01 9.199717619663986268e-01
1.661538461538461631e+00 -1.677160779652838718e-01 3.125690269495089435e-01 9.349691294278122955e-01
1.772307692307692362e+00 -2.578593573458678456e-01 1.665909944028295397e-01 9.517100589099044550e-01
1.883076923076923093e+00 -2.615099154411980598e-01 -2.028462134909397863e-03 9.651969374872657603e-01
1.993846153846153824e+00 -1.827884104844552660e-01 -1.456272338811353262e-01 9.723055950897218080e-01
2.104615384615384777e+00 -4.893903698816461784e-02 -2.261884865782436416e-01 9.728519087966043255e-01
2.215384615384615508e+00 9.810274704234148158e-02 -2.257985199873245863e-01 9.692201883775377613e-01
2.326153846153846239e+00 2.143278462550019525e-01 -1.512101632023873377e-01 9.649848347366007939e-01
2.436923076923076970e+00 2.667585445240631126e-01 -3.103414346954506964e-02 9.632618292608241539e-01
2.547692307692307701e+00 2.430603256452906757e-01 9.357236167384916370e-02 9.654856745129710704e-01
2.658461538461538431e+00 1.547098636072954114e-01 1.819421932026351607e-01 9.710607045808541393e-01
2.769230769230769162e+00 3.275974442681079540e-02 2.065201186684251233e-01 9.778924433402644834e-01
2.879999999999999893e+00 -8.244518628208366562e-02 1.611540490744762244e-01 9.834784783028769350e-01
2.990769230769231068e+00 -1.543431937766665818e-01 6.244665660434737392e-02 9.860408366702173577e-01
3.101538461538461799e+00 -1.617764462180397989e-01 -5.621589407682628381e-02 9.852238487541979950e-01
3.212307692307692530e+00 -1.054312631040826009e-01 -1.559591617840121458e-01 9.821194677500461045e-01
3.323076923076923261e+00 -7.058706511004375628e-03 -2.052910104771406286e-01 9.786742135036067269e-01
3.433846153846153992e+00 9.825045989910956290e-02 -1.903393622060588208e-01 9.767881528322547302e-01
3.544615384615384723e+00 1.740736566140596853e-01 -1.190472296602678864e-01 9.775088167127876648e-01
3.655384615384615454e+00 1.949229711768126760e-01 -1.800307710572814079e-02 9.806520731449481776e-01
3.766153846153846185e+00 1.546152568832100394e-01 7.693458801652426626e-02 9.849736296923665702e-01
3.876923076923076916e+00 6.797512966555625813e-02 1.330183325739965894e-01 9.887788738850585846e-01
3.987692307692307647e+00 -3.465720897689734264e-02 1.317176231531878572e-01 9.906804053292777024e-01
4.098461538461538822e+00 -1.181457099157698643e-01 7.479658627085715439e-02 9.901743980803212608e-01
4.209230769230769553e+00 -1.547854786934052818e-01 -1.669562720169021075e-02 9.878060476565359016e-01
4.320000000000000284e+00 -1.337731493636230007e-01 -1.100867248688682243e-01 9.848774089511929120e-01
