0.000000000000000000e+00 -2.953454233490704248e-09 -6.523012698970650066e-10 -1.000000000000000000e+00
1.107692307692307726e-01 1.355310182500800431e-01 -1.542151140279897359e-03 -9.907707355089486745e-01
2.215384615384615452e-01 2.656416788855716082e-01 -4.680654986941992779e-03 -9.640580536659458799e-01
3.323076923076923039e-01 3.856249090677988933e-01 -1.063386479107976401e-02 -9.225905192128568411e-01
4.430769230769230904e-01 4.920998977100642380e-01 -1.985885721697547984e-02 -8.703067596044408161e-01
5.538461538461538769e-01 5.833251449346856798e-01 -3.196835233175024382e-02 -8.116021921227002389e-01
6.646153846153846079e-01 6.592144479883038644e-01 -4.586910892377027427e-02 -7.505455883077237766e-01
7.753846153846154499e-01 7.210649847804184720e-01 -6.007752996589340450e-02 -6.902467809873353843e-01
8.861538461538461808e-01 7.710673682393787143e-01 -7.315844749999975138e-02 -6.325236410403511922e-01
9.969230769230769118e-01 8.117451216429412142e-01 -8.412067560423341916e-02 -5.779061901969861914e-01
1.107692307692307754e+00 8.454295957442509168e-01 -9.269462262597225055e-02 -5.259633750728778256e-01
1.218461538461538485e+00 8.739036202915816398e-01 -9.938779798191937909e-02 -4.758094194287046941e-01
1.329230769230769216e+00 8.982448558853407539e-01 -1.053096932533728047e-01 -4.266677350549828995e-01
1.439999999999999947e+00 9.189019417272971113e-01 -1.118235827021654138e-01 -3.782768099738118006e-01
1.550769230769230900e+00 9.359148637150922490e-01 -1.201133801867394491e-01 -3.310803679220210016e-01
1.661538461538461631e+00 9.492106930422977706e-01 -1.308125884062713018e-01 -2.861201237279414333e-01
1.772307692307692362e+00 9.588639686015274499e-01 -1.437762190291840270e-01 -2.447151773194155278e-01
1.883076923076923093e+00 9.652574323125266975e-01 -1.580918845610592149e-01 -2.079951885198982053e-01
1.993846153846153824e+00 9.690891190259164345e-01 -1.723203157706389432e-01 -1.764900545855668523e-01
2.104615384615384777e+00 9.712507858705259345e-01 -1.848953177645687451e-01 -1.498740694074665314e-01
2.215384615384615508e+00 9.726226700757492072e-01 -1.945829211950130255e-01 -1.269611258002805165e-01
2.326153846153846239e+00 9.738588641401978441e-01 -2.008556588461465342e-01 -1.059827134718272779e-01
2.436923076923076970e+00 9.752435412070536991e-01 -2.040758548718683008e-01 -8.502607417599869488e-02
2.547692307692307701e+00 9.766567028884515222e-01 -2.054359453708989314e-01 -6.256241294275778630e-02
2.658461538461538431e+00 9.776684807999110882e-01 -2.066543512480002454e-01 -3.787583210559398311e-02
2.769230769230769162e+00 9.777297763959135191e-01 -2.095084433026157544e-01 -1.126646798997044986e-02
2.879999999999999893e+00 9.763938808593628504e-01 -2.153476659394960580e-01 1.601910292505150102e-02
2.990769230769231068e+00 9.735058068907274098e-01 -2.246909606361578993e-01 4.215068484005531774e-02
3.101538461538461799e+00 9.692894605592096147e-01 -2.370637335036945292e-01 6.523061083624535905e-02
3.212307692307692530e+00 9.643103130913556198e-01 -2.510924328503574832e-01 8.387230101733761378e-02
3.323076923076923261e+00 9.593198563116517308e-01 -2.648636052255015638e-01 9.761698706443389106e-02
3.433846153846153992e+00 9.550304219827301377e-01 -2.764372689018531060e-01 1.071249588172043105e-01
3.544615384615384723e+00 9.518961164811181597e-01 -2.843742489724461198e-01 1.140242101088682625e-01
3.655384615384615454e+00 9.499564380853620094e-01 -2.881583410381741150e-01 1.205156012781956054e-01
3.766153846153846185e+00 9.488123335389876400e-01 -2.883570739094397095e-01 1.287705794365764378e-01
3.876923076923076916e+00 9.477359055900864693e-01 -2.864932661827335747e-01 1.403382482925119024e-01
3.987692307692307647e+00 9.458862146709667851e-01 -2.846551595638219245e-01 1.557156043035745341e-01
4.098461538461538822e+00 9.425725032557537020e-01 -2.849389293754643893e-01 1.741942069318510866e-01
4.209230769230769553e+00 9.374835758816044695e-01 -2.888728982618993801e-01 1.940460224988871385e-01
4.320000000000000284e+00 9.308102460211890028e-01 -2.970003041983917957e-01 2.129790940169449254e-01
