0.000000000000000000e+00 6.721858573358628974e-10 1.958172346120760323e-09 -1.000000000000000000e+00
1.107692307692307726e-01 -5.034462271269003752e-02 4.325723117744616208e-02 -9.977943589136717417e-01
2.215384615384615452e-01 -1.035827871295418312e-01 8.213093822009687184e-02 -9.912234123508151251e-01
3.323076923076923039e-01 -1.619435317025881838e-01 1.119989621138878511e-01 -9.804226706739365138e-01
4.430769230769230904e-01 -2.263825584848389583e-01 1.278618859703784527e-01 -9.656084715309302124e-01
5.538461538461538769e-01 -2.959333371507331667e-01 1.244488301502610084e-01 -9.470653268383353307e-01
6.646153846153846079e-01 -3.671285662753878132e-01 9.667013801637834580e-02 -9.251311283953844722e-01
7.753846153846154499e-01 -4.336345092524309108e-01 4.043993528656042447e-02 -9.001783974129839994e-01
8.861538461538461808e-01 -4.862389910972926277e-01 -4.613968912042112902e-02 -8.726038621027853992e-01
9.969230769230769118e-01 -5.134531328712774734e-01 -1.613712758271640957e-01 -8.428044008081198024e-01
1.107692307692307754e+00 -5.028274904244987020e-01 -2.985900993630415945e-01 -8.111732015454600209e-01
1.218461538461538485e+00 -4.431021805559525184e-01 -4.452384246740916929e-01 -7.780848471868961891e-01
1.329230769230769216e+00 -3.270409407791590728e-01 -5.828053618626868326e-01 -7.438914093016574247e-01
1.439999999999999947e+00 -1.545493690615662163e-01 -6.881516133081366782e-01 -7.089100856989903887e-01
1.550769230769230900e+00 6.456970990564184221e-02 -7.364201019268710180e-01 -6.734295274679703569e-01
1.661538461538461631e+00 3.090901186614415375e-01 -7.055392033768259630e-01 -6.377055444432166986e-01
1.772307692307692362e+00 5.469868173892722396e-01 -5.817588297365632322e-01 -6.019570315178788267e-01
1.883076923076923093e+00 7.388169060946200295e-01 -3.651825791069800431e-01 -5.663752827540377011e-01
1.993846153846153824e+00 8.440628834662029512e-01 -7.384938811798708036e-02 -5.311247826414752238e-01
2.104615384615384777e+00 8.297515135384482265e-01 2.552618176959151608e-01 -4.963294171132653365e-01
2.215384615384615508e+00 6.797773328412912708e-01 5.695211279660628012e-01 -4.621008564749578551e-01
2.326153846153846239e+00 4.026925404672420106e-01 8.088221036286109555e-01 -4.285253287799414834e-01
2.436923076923076970e+00 3.541039533471740386e-02 9.177025729764791695e-01 -3.956718197000042569e-01
2.547692307692307701e+00 -3.594277018947272251e-01 8.594199382891134498e-01 -3.635890185322991908e-01
2.658461538461538431e+00 -7.032786841147611323e-01 6.284510574234243308e-01 -3.323192620042069167e-01
2.769230769230769162e+00 -9.178646091912443516e-01 2.576486817126136808e-01 -3.018761597746842940e-01
2.879999999999999893e+00 -9.445937287976934327e-01 -1.832665264697735941e-01 -2.722929833458140325e-01
2.990769230769231068e+00 -7.625310170354157036e-01 -5.993413976136314769e-01 -2.435643748371919548e-01
3.101538461538461799e+00 -3.993976413996759844e-01 -8.910383083367201529e-01 -2.156834111005998533e-01
3.212307692307692530e+00 6.890095249454208925e-02 -9.796169726442257586e-01 -1.886537646872135932e-01
3.323076923076923261e+00 5.322590346973752329e-01 -8.308377194915070874e-01 -1.624683245044216406e-01
3.433846153846153992e+00 8.721573345784559006e-01 -4.696075505768353420e-01 -1.371028040695240757e-01
3.544615384615384723e+00 9.934336011568043467e-01 2.025968977903314094e-02 -1.125433678209504101e-01
3.655384615384615454e+00 8.535014445840732877e-01 5.134597685954824797e-01 -8.877552850488150404e-02
3.766153846153846185e+00 4.796451907550766669e-01 8.749861894514781024e-01 -6.577482275326364258e-02
3.876923076923076916e+00 -3.255539522747702419e-02 9.985150951585883838e-01 -4.352505041457281620e-02
3.987692307692307647e+00 -5.417033452949686634e-01 8.402739594233697984e-01 -2.199622626852760013e-02
4.098461538461538822e+00 -8.993895715118116474e-01 4.371311976866125160e-01 -1.173583525110665632e-03
4.209230769230769553e+00 -9.949334387480006647e-01 -9.866104860994745485e-02 1.897671273516904691e-02
4.320000000000000284e+00 -7.922476197466554737e-01 -6.089745416941725331e-01 3.847594876575091694e-02
