0.000000000000000000e+00 1.903530839178702669e-09 1.422080753513878489e-09 -1.000000000000000000e+00
1.107692307692307726e-01 -1.068340243574411041e-01 -8.394540346511450424e-02 -9.907264168178375741e-01
2.215384615384615452e-01 -2.112573431443305338e-01 -1.651961482028653505e-01 -9.633685081531613292e-01
3.323076923076923039e-01 -3.110444735749961498e-01 -2.412715737748400424e-01 -9.192588112187025651e-01
4.430769230769230904e-01 -4.042918407928006164e-01 -3.101012977243416957e-01 -8.604543855270506691e-01
5.538461538461538769e-01 -4.895244829766089989e-01 -3.701576561881688709e-01 -7.895217695100834598e-01
6.646153846153846079e-01 -5.657517226585940806e-01 -4.205030406100111473e-01 -7.092931998778561065e-01
7.753846153846154499e-01 -6.324647674370299510e-01 -4.607786006010391455e-01 -6.226277192662582616e-01
8.861538461538461808e-01 -6.895859349310271558e-01 -4.911329687759983798e-01 -5.322150316311002882e-01
9.969230769230769118e-01 -7.373940322984775531e-01 -5.121103454787626630e-01 -4.404380313908492495e-01
1.107692307692307754e+00 -7.764346895529234960e-01 -5.245380125250108660e-01 -3.492867414321649266e-01
1.218461538461538485e+00 -8.074340829583774859e-01 -5.294050091983655282e-01 -2.603313039688754937e-01
1.329230769230769216e+00 -8.312119225619525320e-01 -5.277719643469421795e-01 -1.747430050764968157e-01
1.439999999999999947e+00 -8.486227624144713211e-01 -5.206925736555367834e-01 -9.332814196229176351e-02
1.550769230769230900e+00 -8.605024743834008838e-01 -5.091677019266105386e-01 -1.658870804534156099e-02
1.661538461538461631e+00 -8.676444701782246582e-01 -4.941010092594032566e-01 5.521524130572146027e-02
1.772307692307692362e+00 -8.707733112195131797e-01 -4.762928624247136922e-01 1.220265322025755328e-01
1.883076923076923093e+00 -8.705370540795006606e-01 -4.564367067085231544e-01 1.839086867600666919e-01
1.993846153846153824e+00 -8.675042005722273242e-01 -4.351171454421673412e-01 2.410421346527642228e-01
2.104615384615384777e+00 -8.621699547467516211e-01 -4.128168597976295540e-01 2.936616562904128536e-01
2.215384615384615508e+00 -8.549583436506029699e-01 -3.899351417677572318e-01 3.420364950563072326e-01
2.326153846153846239e+00 -8.462282850850658678e-01 -3.667958328272794555e-01 3.864593850084132032e-01
2.436923076923076970e+00 -8.362833983828044104e-01 -3.436486074855791273e-01 4.272332744113514491e-01
2.547692307692307701e+00 -8.253792226056250181e-01 -3.206990982000246238e-01 4.646439453099495132e-01
2.658461538461538431e+00 -8.137256373391313913e-01 -2.981014513600155902e-01 4.989780364572288796e-01
2.769230769230769162e+00 -8.015063316764317047e-01 -2.759678619856883452e-01 5.304927070100077247e-01
2.879999999999999893e+00 -7.888593235213352539e-01 -2.543948965043357768e-01 5.594439906364441217e-01
2.990769230769231068e+00 -7.759082760689229863e-01 -2.334346616017657916e-01 5.860615929484501718e-01
3.101538461538461799e+00 -7.627555554834614115e-01 -2.131362957021281646e-01 6.105494769166373015e-01
3.212307692307692530e+00 -7.494822016125978204e-01 -1.935217591811207449e-01 6.331032418038253784e-01
3.323076923076923261e+00 -7.361518599869547597e-01 -1.746098167386871958e-01 6.539005954833400081e-01
3.433846153846153992e+00 -7.228254536311436995e-01 -1.564011477909679759e-01 6.730946105028182691e-01
3.544615384615384723e+00 -7.095392008355024815e-01 -1.388948232252277259e-01 6.908377705537828151e-01
3.655384615384615454e+00 -6.963351051577265638e-01 -1.220794819881402260e-01 7.072543051427055971e-01
3.766153846153846185e+00 -6.832388895071660473e-01 -1.059472344699246560e-01 7.224642475885114656e-01
3.876923076923076916e+00 -6.702718951065415043e-01 -9.048211439776909781e-02 7.365755252213687099e-01
3.987692307692307647e+00 -6.574564374736955319e-01 -7.565850360191950230e-02 7.496811976315653769e-01
4.098461538461538822e+00 -6.448056800684085488e-01 -6.146283061775670298e-02 7.618682043911535473e-01
4.209230769230769553e+00 -6.323295993927160463e-01 -4.786884840885308190e-02 7.732161302261132407e-01
4.320000000000000284e+00 -6.200355137337227873e-01 -3.485917698655499608e-02 7.837960600666110667e-01
