0.000000000000000000e+00 2.202976313484930614e-09 8.751927292454467921e-10 -1.000000000000000000e+00
1.107692307692307726e-01 4.401021490315975421e-02 -8.679785540468677729e-02 -9.952530546574829273e-01
2.215384615384615452e-01 8.717309199083765614e-02 -1.724346912982212543e-01 -9.811554163985775068e-01
3.323076923076923039e-01 1.286726877831850246e-01 -2.558108593225765781e-01 -9.581243895596395221e-01
4.430769230769230904e-01 1.677820192271059496e-01 -3.359289062328083553e-01 -9.268217306845231152e-01
5.538461538461538769e-01 2.038949805939186954e-01 -4.119379564101508517e-01 -8.881052049061980425e-01
6.646153846153846079e-01 2.365440570146439825e-01 -4.831607565253410730e-01 -8.429702447729106041e-01
7.753846153846154499e-01 2.654009493711438905e-01 -5.490944912174506864e-01 -7.924980620033286183e-01
8.861538461538461808e-01 2.902842748181534982e-01 -6.094289717104997006e-01 -7.377847655454909948e-01
9.969230769230769118e-01 3.111434214158459444e-01 -6.640161555292488638e-01 -6.799020091914220743e-01
1.107692307692307754e+00 3.280333478006738912e-01 -7.128554711942949318e-01 -6.198589384484687326e-01
1.218461538461538485e+00 3.411041370224079938e-01 -7.560723962080168059e-01 -5.585659550699372256e-01
1.329230769230769216e+00 3.505743374429239334e-01 -7.938852757648914293e-01 -4.968267497012190392e-01
1.439999999999999947e+00 3.567086776820038718e-01 -8.265847557596642803e-01 -4.353265662032182459e-01
1.550769230769230900e+00 3.598040325819735763e-01 -8.545085562376468769e-01 -3.746312073624061267e-01
1.661538461538461631e+00 3.601628218901063994e-01 -8.780227907982331992e-01 -3.151996583238470540e-01
1.772307692307692362e+00 3.580963207308888729e-01 -8.975023487051472237e-01 -2.573877659903801018e-01
1.883076923076923093e+00 3.539077141447072306e-01 -9.133207901601316792e-01 -2.014602044327608033e-01
1.993846153846153824e+00 3.478771211897992433e-01 -9.258432438346693161e-01 -1.476056712987445230e-01
2.104615384615384777e+00 3.402741941262290570e-01 -9.354141350639172403e-01 -9.594492350732553021e-02
2.215384615384615508e+00 3.313417868153876178e-01 -9.423571970915257667e-01 -4.655161408138677043e-02
2.326153846153846239e+00 3.213052848552527818e-01 -9.469710188971474096e-01 5.563725649064438531e-04
2.436923076923076970e+00 3.103571114511474160e-01 -9.495317316526593610e-01 4.538140373105776365e-02
2.547692307692307701e+00 2.986789690642457362e-01 -9.502864046772461215e-01 8.796688861589206654e-02
2.658461538461538431e+00 2.864228640325877095e-01 -9.494609763800923030e-01 1.283643335374716477e-01
2.769230769230769162e+00 2.737255724085910225e-01 -9.472564658276275695e-01 1.666468473957480323e-01
2.879999999999999893e+00 2.607086616544516677e-01 -9.438518285510463235e-01 2.028952138805557304e-01
2.990769230769231068e+00 2.474685160735632938e-01 -9.394097372392544720e-01 2.371929933900648046e-01
3.101538461538461799e+00 2.340963196036088823e-01 -9.340686330603312770e-01 2.696416975210951250e-01
3.212307692307692530e+00 2.206682127156842643e-01 -9.279559944652034931e-01 3.003252628539549440e-01
3.323076923076923261e+00 2.072452877442833019e-01 -9.211824028809869613e-01 3.293395280301293915e-01
3.433846153846153992e+00 1.938825568002701116e-01 -9.138452405845626236e-01 3.567754156093700391e-01
3.544615384615384723e+00 1.806215066269957203e-01 -9.060307053211573702e-01 3.827226475500877245e-01
3.655384615384615454e+00 1.675034009580807226e-01 -8.978121321232274132e-01 4.072695593803377090e-01
3.766153846153846185e+00 1.545608303140496576e-01 -8.892580969848471462e-01 4.304922985908811728e-01
3.876923076923076916e+00 1.418139481661922496e-01 -8.804260448785531379e-01 4.524726838160278430e-01
3.987692307692307647e+00 1.292851684338526819e-01 -8.713637947771140091e-01 4.732899193149125439e-01
4.098461538461538822e+00 1.169894950917212406e-01 -8.621201768935838894e-01 4.930063393869121291e-01
4.209230769230769553e+00 1.049410278515194306e-01 -8.527322964910655223e-01 5.116914331261038784e-01
4.320000000000000284e+00 9.315020457584100022e-02 -8.432308858071292379e-01 5.294128199407593938e-01
