0.000000000000000000e+00 -1.854148983784511215e-09 -4.257734590391089251e-09 -1.000000000000000000e+00
1.107692307692307726e-01 1.946320090975354467e-01 -1.953831116975615345e-01 -9.612181213367169130e-01
2.215384615384615452e-01 3.910166035271719354e-01 -3.522002123994704137e-01 -8.503255473137243392e-01
3.323076923076923039e-01 5.855070599481160265e-01 -4.374760792214712479e-01 -6.824842826120190997e-01
4.430769230769230904e-01 7.656153454588261464e-01 -4.290506831495020656e-01 -4.793058644624802467e-01
5.538461538461538769e-01 9.097714993877359380e-01 -3.199839400361136343e-01 -2.644042132745008655e-01
6.646153846153846079e-01 9.908579349241943834e-01 -1.213049737172897657e-01 -5.889244963657801896e-02
7.753846153846154499e-01 9.829000059894084096e-01 1.378527434258965401e-01 1.220123613737330165e-01
8.861538461538461808e-01 8.693338695761109181e-01 4.135185547435959452e-01 2.706373081910424250e-01
9.969230769230769118e-01 6.505355167976879516e-01 6.537597381701552024e-01 3.865051309147793379e-01
1.107692307692307754e+00 3.482000995319884940e-01 8.084929594456609081e-01 4.744272836434375029e-01
1.218461538461538485e+00 4.698038584132924189e-03 8.405059650405605209e-01 5.417692850630496659e-01
1.329230769230769216e+00 -3.232628077026582503e-01 7.351904677284365475e-01 5.958047145170343173e-01
1.439999999999999947e+00 -5.758850591670188201e-01 5.062945407849990254e-01 6.418801346086040471e-01
1.550769230769230900e+00 -7.040296641118857224e-01 1.955317200950940082e-01 6.827138601860841538e-01
1.661538461538461631e+00 -6.820502591318345909e-01 -1.347433993875637726e-01 7.187774615690735169e-01
1.772307692307692362e+00 -5.160818799940264379e-01 -4.148296863994017647e-01 7.493769708896917958e-01
1.883076923076923093e+00 -2.449731303676078720e-01 -5.840888540609757706e-01 7.738338946662355333e-01
1.993846153846153824e+00 6.716738270824045010e-02 -6.063832099779065121e-01 7.923250207240347676e-01
2.104615384615384777e+00 3.456607502694799550e-01 -4.803250197701264268e-01 8.061004041080244154e-01
2.215384615384615508e+00 5.236795517422490054e-01 -2.409987714208194076e-01 8.171113378951556649e-01
2.326153846153846239e+00 5.596806772365480187e-01 4.794074714393145586e-02 8.273155914825408574e-01
2.436923076923076970e+00 4.488722576637015349e-01 3.102659267010006716e-01 8.379981673532477249e-01
2.547692307692307701e+00 2.251523898683156499e-01 4.772860048820662393e-01 8.494097582074987551e-01
2.658461538461538431e+00 -4.759415419883966658e-02 5.065885197728187128e-01 8.608691406324550099e-01
2.769230769230769162e+00 -2.928269313473877422e-01 3.939867162000660339e-01 8.712175273206852477e-01
2.879999999999999893e+00 -4.426974731183731526e-01 1.749204799559381240e-01 8.794402520499652320e-01
2.990769230769231068e+00 -4.573747691755253308e-01 -8.548395899728430947e-02 8.851521613870512173e-01
3.101538461538461799e+00 -3.365162384066245349e-01 -3.111566653065250265e-01 8.887811926475414070e-01
3.212307692307692530e+00 -1.193460330259363544e-01 -4.372783513209507200e-01 8.913685631110133123e-01
3.323076923076923261e+00 1.270414417063667478e-01 -4.294174956804238108e-01 8.941224523103749044e-01
3.433846153846153992e+00 3.278395533246231675e-01 -2.937148686111986096e-01 8.979124519216725719e-01
3.544615384615384723e+00 4.231836259839141801e-01 -7.481087151205428887e-02 9.029468879104499690e-01
3.655384615384615454e+00 3.863400000848131732e-01 1.579652925186319223e-01 9.087258709680098301e-01
3.766153846153846185e+00 2.317486578842503642e-01 3.321389642224775729e-01 9.143143827874719021e-01
3.876923076923076916e+00 1.025053278634457943e-02 3.946391712603752877e-01 9.187761071799966928e-01
3.987692307692307647e+00 -2.071029923198924316e-01 3.282972343181548291e-01 9.215878032427639033e-01
4.098461538461538822e+00 -3.516878384877071273e-01 1.570141800494886941e-01 9.228526643647396721e-01
4.209230769230769553e+00 -3.791216192430476029e-01 -6.219562381689673625e-02 9.232515147830933078e-01
4.320000000000000284e+00 -2.833273246089829112e-01 -2.577661950453962736e-01 9.237299885256086140e-01
