0.000000000000000000e+00 -2.905756919627300989e-10 -4.519627526121992820e-09 -1.000000000000000000e+00
1.107692307692307726e-01 1.864863086981505824e-01 2.565978761782333750e-01 -9.483552900789373741e-01
2.215384615384615452e-01 3.516132115591986684e-01 4.838028223613582424e-01 -8.014345751830912468e-01
3.323076923076923039e-01 4.789836334882459079e-01 6.577264132927914675e-01 -5.813452487274108904e-01
4.430769230769230904e-01 5.605144941201424258e-01 7.642064239419907867e-01 -3.190639107929956753e-01
5.538461538461538769e-01 5.972662190950079886e-01 8.006258427201872196e-01 -4.754240297893095463e-02
6.646153846153846079e-01 5.976538355296294736e-01 7.751237509184218943e-01 2.048958980053037782e-01
7.753846153846154499e-01 5.739304605340375121e-01 7.035267369025934858e-01 4.190993620042518519e-01
8.861538461538461808e-01 5.382999506210963681e-01 6.049993951179908347e-01 5.866861248583221666e-01
9.969230769230769118e-01 4.999595833711643067e-01 4.976738228332759917e-01 7.087695440394571333e-01
1.107692307692307754e+00 4.638729738783282097e-01 3.953493176381586705e-01 7.927894083647589740e-01
1.218461538461538485e+00 4.312491607135585103e-01 3.059849243175910560e-01 8.487594384769725497e-01
1.329230769230769216e+00 4.011294152562096538e-01 2.320212603819503672e-01 8.861474175331965908e-01
1.439999999999999947e+00 3.721245834000592723e-01 1.720351988234572194e-01 9.120984916040382195e-01
1.550769230769230900e+00 3.435980989114864048e-01 1.228936196520827584e-01 9.310394320985255767e-01
1.661538461538461631e+00 3.159095506521651942e-01 8.159883113992483228e-02 9.452724882740038970e-01
1.772307692307692362e+00 2.899534965275055165e-01 4.627473900965045628e-02 9.559200876295772531e-01
1.883076923076923093e+00 2.664331610879002166e-01 1.623250040470688993e-02 9.637155736573964626e-01
1.993846153846153824e+00 2.453790675643648389e-01 -8.605692492317795761e-03 9.693879882096545497e-01
2.104615384615384777e+00 2.261494184381642736e-01 -2.840018693294855262e-02 9.736775859266352251e-01
2.215384615384615508e+00 2.078491872570138455e-01 -4.382554462488649771e-02 9.771777425215640855e-01
2.326153846153846239e+00 1.898565270862575260e-01 -5.602639705857559438e-02 9.802111847159347136e-01
2.436923076923076970e+00 1.721293769496196335e-01 -6.621165199640691168e-02 9.828458845513284858e-01
2.547692307692307701e+00 1.551540947343774679e-01 -7.521180942860666852e-02 9.850223479940141136e-01
2.658461538461538431e+00 1.395593621065165935e-01 -8.323382105481397231e-02 9.867086853199595886e-01
2.769230769230769162e+00 1.256925828513744681e-01 -8.999000826095321370e-02 9.879787204408957413e-01
2.879999999999999893e+00 1.133941618947046648e-01 -9.504293920052110656e-02 9.889931429634485349e-01
2.990769230769231068e+00 1.020878248528536564e-01 -9.822583075931455576e-02 9.899134520508292567e-01
3.101538461538461799e+00 9.111458328216162639e-02 -9.982752642615154437e-02 9.908236627834511312e-01
3.212307692307692530e+00 8.011507145547649977e-02 -1.005030314109064127e-01 9.917054499870974205e-01
3.323076923076923261e+00 6.919237756018539742e-02 -1.009256115315309288e-01 9.924844931726932717e-01
3.433846153846153992e+00 5.881483647686960164e-02 -1.014802096910233237e-01 9.930970026132297512e-01
3.544615384615384723e+00 4.949689949720689763e-02 -1.020777522809785537e-01 9.935438047646187876e-01
3.655384615384615454e+00 4.146129469298477643e-02 -1.022961194774459071e-01 9.938891246096434040e-01
3.766153846153846185e+00 3.450719550696182414e-02 -1.016727114289995709e-01 9.942188210138209747e-01
3.876923076923076916e+00 2.810734478652793938e-02 -1.000290106028583481e-01 9.945870261681036828e-01
3.987692307692307647e+00 2.173171887456086873e-02 -9.759189977870665056e-02 9.949888250782434884e-01
4.098461538461538822e+00 1.513096292157497039e-02 -9.489040650697448676e-02 9.953723440676255363e-01
4.209230769230769553e+00 8.468174234588364546e-03 -9.244058841653415848e-02 9.956818225255492649e-01
4.320000000000000284e+00 2.202326487212006960e-03 -9.048152671306125550e-02 9.958953380210390227e-01
