0.000000000000000000e+00 -9.674966155666773824e-10 -4.748992642133606025e-09 -1.000000000000000000e+00
1.107692307692307726e-01 -1.322329802428625911e-01 3.219249623742562738e-01 -9.374829376265790826e-01
2.215384615384615452e-01 -2.479664330591305754e-01 6.004864545810183474e-01 -7.602099112554355775e-01
3.323076923076923039e-01 -3.326103030821171425e-01 8.016836702545407922e-01 -4.966484305306552161e-01
4.430769230769230904e-01 -3.754432100759657054e-01 9.077736265604033905e-01 -1.870102401514883717e-01
5.538461538461538769e-01 -3.712477590393183924e-01 9.199992439423942958e-01 1.255374890933517174e-01
6.646153846153846079e-01 -3.214321046761851597e-01 8.565599544804066712e-01 4.036971474631265711e-01
7.753846153846154499e-01 -2.342026814953602765e-01 7.466062297776153711e-01 6.226684978024012995e-01
8.861538461538461808e-01 -1.234747014544119170e-01 6.221071610750863456e-01 7.731283237739837721e-01
9.969230769230769118e-01 -6.503325061680748087e-03 5.098989845741878080e-01 8.602056014344491297e-01
1.107692307692307754e+00 9.946344880742176431e-02 4.260715685537175279e-01 8.992019678852545272e-01
1.218461538461538485e+00 1.807279233858540557e-01 3.740123933798870093e-01 9.096409275186958521e-01
1.329230769230769216e+00 2.299974560528518508e-01 3.462553748609267235e-01 9.095069339934460650e-01
1.439999999999999947e+00 2.477031170084145473e-01 3.292008687370481246e-01 9.111884975020259070e-01
1.550769230769230900e+00 2.412843600559662072e-01 3.089156878324854638e-01 9.199716270419772135e-01
1.661538461538461631e+00 2.226419116152814348e-01 2.761519002697224723e-01 9.349685052738845314e-01
1.772307692307692362e+00 2.044064645345403941e-01 2.290437028548168441e-01 9.517106023881207744e-01
1.883076923076923093e+00 1.962203647268944418e-01 1.728830476569982455e-01 9.651972564666381205e-01
1.993846153846153824e+00 2.021014082657047461e-01 1.173624367393794055e-01 9.723056018044659021e-01
2.104615384615384777e+00 2.197798790267405378e-01 7.247743421817533227e-02 9.728519706763327779e-01
2.215384615384615508e+00 2.421036515289708424e-01 4.466842824936652356e-02 9.692200392925611752e-01
2.326153846153846239e+00 2.600175594459802064e-01 3.451844874127214802e-02 9.649850056386189978e-01
2.436923076923076970e+00 2.660281702786894131e-01 3.678325985159605627e-02 9.632614568544847211e-01
2.547692307692307701e+00 2.569502800464433800e-01 4.255545401701857355e-02 9.654855379432797369e-01
2.658461538461538431e+00 2.349801050628127497e-01 4.268750620437219978e-02 9.710608412796516431e-01
2.769230769230769162e+00 2.067697181753229418e-01 3.114842327038412628e-02 9.778923680209089531e-01
2.879999999999999893e+00 1.808794384294989122e-01 7.091397005183297519e-03 9.834785828716331446e-01
2.990769230769231068e+00 1.645975914273433705e-01 -2.508089313555785654e-02 9.860408448421762451e-01
3.101538461538461799e+00 1.612889365714321455e-01 -5.760046323510971400e-02 9.852238168111827621e-01
3.212307692307692530e+00 1.692650445789628533e-01 -8.239577270978132306e-02 9.821191221849709940e-01
3.323076923076923261e+00 1.825497779410479304e-01 -9.418038384324672885e-02 9.786741567786255702e-01
3.433846153846153992e+00 1.932516189352079250e-01 -9.239088474549649044e-02 9.767881503586798297e-01
3.544615384615384723e+00 1.945816315266091778e-01 -8.130810074531401310e-02 9.775092752031672161e-01
3.655384615384615454e+00 1.834373898279616777e-01 -6.833275465258731307e-02 9.806523091366181610e-01
3.766153846153846185e+00 1.615113380013079025e-01 -6.114626817601481051e-02 9.849736591224113047e-01
3.876923076923076916e+00 1.345890322924109539e-01 -6.480728548899657160e-02 9.887790376055997088e-01
3.987692307692307647e+00 1.102961005069011541e-01 -7.991052679158056060e-02 9.906802794005564738e-01
4.098461538461538822e+00 9.516115042286145409e-02 -1.024592352725335331e-01 9.901741035789957124e-01
4.209230769230769553e+00 9.214865185579575180e-02 -1.254845537957472723e-01 9.878058278255568148e-01
4.320000000000000284e+00 9.956666758542942475e-02 -1.417765505561531525e-01 9.848775405316660958e-01
