0.000000000000000000e+00 -2.066380421612118210e-09 7.693918182022106286e-10 -1.000000000000000000e+00
1.107692307692307726e-01 -1.773715215374240262e-01 3.379142838378374619e-02 -9.835627966657448651e-01
2.215384615384615452e-01 -3.497929102354396247e-01 4.679913554588077673e-02 -9.356555099768406603e-01
3.323076923076923039e-01 -5.094420067986278333e-01 2.098619888011832302e-02 -8.602458885002575162e-01
4.430769230769230904e-01 -6.437336414475461899e-01 -5.606398240850457571e-02 -7.631883825651805120e-01
5.538461538461538769e-01 -7.351204929950184708e-01 -1.881171940057747849e-01 -6.513069705894346528e-01
6.646153846153846079e-01 -7.631807368078431519e-01 -3.676091251521895753e-01 -5.314209836387612240e-01
7.753846153846154499e-01 -7.089439251088811567e-01 -5.741479708068237819e-01 -4.095620821220798402e-01
8.861538461538461808e-01 -5.608706193945487417e-01 -7.752683155364265000e-01 -2.904666240382179354e-01
9.969230769230769118e-01 -3.211403559394643281e-01 -9.302535238647622329e-01 -1.774384744886967347e-01
1.107692307692307754e+00 -1.038788897876791184e-02 -9.973120099575265574e-01 -7.244146955476236938e-02
1.218461538461538485e+00 3.311362973797509213e-01 -9.432801260623009387e-01 2.362706347071513377e-02
1.329230769230769216e+00 6.475355580473445283e-01 -7.539633704941387515e-01 1.105616451138686368e-01
1.439999999999999947e+00 8.767947667358980679e-01 -4.422861812840330753e-01 1.886825113183733249e-01
1.550769230769230900e+00 9.646439105096784594e-01 -5.119227141809423731e-02 2.585128614166845584e-01
1.661538461538461631e+00 8.797253951311519993e-01 3.509770427027495976e-01 3.207587404859630897e-01
1.772307692307692362e+00 6.258973028541309214e-01 6.831832390597186722e-01 3.761668667761393081e-01
1.883076923076923093e+00 2.472049673540415993e-01 8.705359549434187327e-01 4.254943309686149977e-01
1.993846153846153824e+00 -1.775486367627070738e-01 8.648946057692169509e-01 4.694919915831483603e-01
2.104615384615384777e+00 -5.510613032117276378e-01 6.613896950469289049e-01 5.088068595015665663e-01
2.215384615384615508e+00 -7.816933016091789366e-01 3.049409040011356042e-01 5.440186605649935947e-01
2.326153846153846239e+00 -8.093385063668661061e-01 -1.168264437198293648e-01 5.755977542438867056e-01
2.436923076923076970e+00 -6.252311218748543009e-01 -4.942701630393230294e-01 6.039647123412895668e-01
2.547692307692307701e+00 -2.786344962954310223e-01 -7.253289201736037306e-01 6.294850749504979914e-01
2.658461538461538431e+00 1.335152974025991535e-01 -7.459271558468730801e-01 6.525007845979104992e-01
2.769230769230769162e+00 4.925656362097138308e-01 -5.513406667262698013e-01 6.733452987189522121e-01
2.879999999999999893e+00 6.931067030215237734e-01 -2.008113681265370487e-01 6.922928818105834603e-01
2.990769230769231068e+00 6.762427037607495750e-01 1.979465651894469491e-01 7.095807372512045186e-01
3.101538461538461799e+00 4.500099504616463242e-01 5.208558048767909510e-01 7.253911667837100730e-01
3.212307692307692530e+00 8.903712910435307437e-02 6.668373182075308936e-01 7.398598920456643802e-01
3.323076923076923261e+00 -2.879542215464838129e-01 5.915288401559299913e-01 7.531058942886189600e-01
3.433846153846153992e+00 -5.565743296794832817e-01 3.234528848470621942e-01 7.652424418289421881e-01
3.544615384615384723e+00 -6.287062028574783579e-01 -4.411470272614398391e-02 7.763860496273835565e-01
3.655384615384615454e+00 -4.833674647471955521e-01 -3.840539498886772485e-01 7.866711776728846361e-01
3.766153846153846185e+00 -1.750064391184083523e-01 -5.791494497706142219e-01 7.962109973770454818e-01
3.876923076923076916e+00 1.848310881096925651e-01 -5.636107749825263191e-01 8.050924093354171474e-01
3.987692307692307647e+00 4.668437533945562490e-01 -3.470990642455040742e-01 8.133712281981972936e-01
4.098461538461538822e+00 5.706880317962538252e-01 -1.180040159702167024e-02 8.210783487988835283e-01
4.209230769230769553e+00 4.619131550469611769e-01 3.172616203212619834e-01 8.282361893952165932e-01
4.320000000000000284e+00 1.850299441401584699e-01 5.183915677834571856e-01 8.348821294314383579e-01
