0.000000000000000000e+00 -1.294361066214775686e-09 -5.754198314391106440e-09 -1.000000000000000000e+00
1.107692307692307726e-01 1.234699075150175358e-02 9.804220202249976091e-03 -9.998756166140324586e-01
2.215384615384615452e-01 2.468376823497279993e-02 1.962661036865972347e-02 -9.995024611764566913e-01
3.323076923076923039e-01 3.700883472850090977e-02 2.945499722353776134e-02 -9.988805029331583318e-01
4.430769230769230904e-01 4.931185572162412323e-02 3.929459075374322485e-02 -9.980098369908947387e-01
5.538461538461538769e-01 6.158952088058056856e-02 4.914829517771621831e-02 -9.968903571307733413e-01
6.646153846153846079e-01 7.383233684658187246e-02 5.901656783196401745e-02 -9.955224193685163758e-01
7.753846153846154499e-01 8.603098022048970284e-02 6.890547373259969799e-02 -9.939062382942508433e-01
8.861538461538461808e-01 9.817671363383390082e-02 7.881654359811347821e-02 -9.920423564200157029e-01
9.969230769230769118e-01 1.102602553636936461e-01 8.875260487060097903e-02 -9.899314358372981459e-01
1.107692307692307754e+00 1.222699251966407052e-01 9.871377075619187924e-02 -9.875748562272140818e-01
1.218461538461538485e+00 1.341943918508739231e-01 1.087007625347372330e-01 -9.849742588474306171e-01
1.329230769230769216e+00 1.460228089297940512e-01 1.187134904030934107e-01 -9.821316451620258903e-01
1.439999999999999947e+00 1.577440734707942493e-01 1.287547017063366550e-01 -9.790490256873356500e-01
1.550769230769230900e+00 1.693438924926138900e-01 1.388145730524166788e-01 -9.757309871048210903e-01
1.661538461538461631e+00 1.808122956752308552e-01 1.488984951763920594e-01 -9.721799148972254390e-01
1.772307692307692362e+00 1.921364003345573668e-01 1.589986394265346936e-01 -9.684010049173179535e-01
1.883076923076923093e+00 2.033040406265400890e-01 1.691090297860382841e-01 -9.643997650884545969e-01
1.993846153846153824e+00 2.143105399444366344e-01 1.792257818854333662e-01 -9.601803201959989709e-01
2.104615384615384777e+00 2.251400283591994955e-01 1.893429905438425154e-01 -9.557500542302044266e-01
2.215384615384615508e+00 2.357828235013184059e-01 1.994549375536089908e-01 -9.511156535685582059e-01
2.326153846153846239e+00 2.462371009125768340e-01 2.095524734581498960e-01 -9.462830865749007891e-01
2.436923076923076970e+00 2.564898787073437436e-01 2.196278389367413986e-01 -9.412613952179826882e-01
2.547692307692307701e+00 2.665365325550139719e-01 2.296757090883858876e-01 -9.360574957465067625e-01
2.658461538461538431e+00 2.763731549730360504e-01 2.396866142752147599e-01 -9.306794969311931176e-01
2.769230769230769162e+00 2.859950232021397643e-01 2.496529674203494253e-01 -9.251357705864629022e-01
2.879999999999999893e+00 2.953954557094816691e-01 2.595658489872945118e-01 -9.194361739371211817e-01
2.990769230769231068e+00 3.045771717568785952e-01 2.694208866027894000e-01 -9.135867483298800718e-01
3.101538461538461799e+00 3.135357524601363743e-01 2.792091840969139760e-01 -9.075973837654498499e-01
3.212307692307692530e+00 3.222713883511805766e-01 2.889219541694688087e-01 -9.014768642553021571e-01
3.323076923076923261e+00 3.307834555105657048e-01 2.985534259748519603e-01 -8.952336407577495825e-01
3.433846153846153992e+00 3.390713140292515582e-01 3.080969978157255817e-01 -8.888767249276254834e-01
3.544615384615384723e+00 3.471406377513519548e-01 3.175471095076080053e-01 -8.824125996789828896e-01
3.655384615384615454e+00 3.549865747875918798e-01 3.269003530887350517e-01 -8.758511931716458365e-01
3.766153846153846185e+00 3.626165959608719236e-01 3.361456832638892722e-01 -8.692006360853345992e-01
3.876923076923076916e+00 3.700325610133324838e-01 3.452830948213285733e-01 -8.624672686375837172e-01
3.987692307692307647e+00 3.772380987615671644e-01 3.543090536521068534e-01 -8.556580247764833391e-01
4.098461538461538822e+00 3.842359383456964705e-01 3.632181798320954780e-01 -8.487810597194087592e-01
4.209230769230769553e+00 3.910326668981897735e-01 3.720043234471037685e-01 -8.418432561681886694e-01
4.320000000000000284e+00 3.976270858884078385e-01 3.806683437155327643e-01 -8.348520778338723858e-01
