0.000000000000000000e+00 1.389024248743454682e-09 2.067549358175294165e-09 -1.000000000000000000e+00
1.107692307692307726e-01 6.504273473588267906e-02 1.189135716418308203e-01 -9.907707110641611470e-01
2.215384615384615452e-01 1.163373753633346608e-01 2.388572381603314698e-01 -9.640580842917808591e-01
3.323076923076923039e-01 1.412151143303581879e-01 3.589948617137682096e-01 -9.225907155087071931e-01
4.430769230769230904e-01 1.291935181013751377e-01 4.752533876487511355e-01 -8.703065140518965181e-01
5.538461538461538769e-01 7.332967817316263237e-02 5.795799169725424083e-01 -8.116019597838218802e-01
6.646153846153846079e-01 -2.834574935727701694e-02 6.601996125096646351e-01 -7.505456629868934026e-01
7.753846153846154499e-01 -1.715543878703404967e-01 7.029312190670216065e-01 -6.902469361537094672e-01
8.861538461538461808e-01 -3.449466807445757399e-01 6.934769923696271210e-01 -6.325218871238769136e-01
9.969230769230769118e-01 -5.301908741013898752e-01 6.204059035927329546e-01 -5.779061002561065585e-01
1.107692307692307754e+00 -7.032110223835641438e-01 4.783712777656525805e-01 -5.259614221130859413e-01
1.218461538461538485e+00 -8.367786499044027604e-01 2.708951151362918308e-01 -4.758116053375091026e-01
1.329230769230769216e+00 -9.043152280533842680e-01 1.210976766369850632e-02 -4.266683187703981806e-01
1.439999999999999947e+00 -8.844487397124513040e-01 -2.731940633933242490e-01 -3.782766832413218538e-01
1.550769230769230900e+00 -7.656334711336438836e-01 -5.515148185052114460e-01 -3.310800460594651717e-01
1.661538461538461631e+00 -5.499234236664384268e-01 -7.846627605128374539e-01 -2.861211719351290372e-01
1.772307692307692362e+00 -2.549566688639375855e-01 -9.354613060714167538e-01 -2.447153122269284664e-01
1.883076923076923093e+00 8.655702948086446691e-02 -9.742802572711654063e-01 -2.079949897483462651e-01
1.993846153846153824e+00 4.302127061925674623e-01 -8.852927175975542351e-01 -1.764927345015113447e-01
2.104615384615384777e+00 7.259755385556820872e-01 -6.711727442464959781e-01 -1.498745187729677575e-01
2.215384615384615508e+00 9.261715665651115703e-01 -3.550525114362043100e-01 -1.269626886253825138e-01
2.326153846153846239e+00 9.941325576528189378e-01 2.104928483692797281e-02 -1.059853650729727370e-01
2.436923076923076970e+00 9.118837309115340739e-01 4.015150452548854609e-01 -8.502445772336644780e-02
2.547692307692307701e+00 6.852511595678411060e-01 7.255976747865182652e-01 -6.256394455099445473e-02
2.658461538461538431e+00 3.450613909096275078e-01 9.378024886695756068e-01 -3.787433023205711430e-02
2.769230769230769162e+00 -5.624381329735311796e-02 9.983411351716797721e-01 -1.126625752012369065e-02
2.879999999999999893e+00 -4.524274566366873751e-01 8.916434585884075448e-01 1.602030025601526922e-02
2.990769230769231068e+00 -7.746264575542802788e-01 6.309931127511121396e-01 4.215324410632975000e-02
3.101538461538461799e+00 -9.639195047730187982e-01 2.580306191658696680e-01 6.522869938651078281e-02
3.212307692307692530e+00 -9.829973002482864652e-01 -1.632729663165199407e-01 8.386695874306797360e-02
3.323076923076923261e+00 -8.244577824537625554e-01 -5.574192504668387116e-01 9.761456044577018765e-02
3.433846153846153992e+00 -5.138184214030814267e-01 -8.511705321155174087e-01 1.071208488500543510e-01
3.544615384615384723e+00 -1.062339357670786244e-01 -9.877692950123976301e-01 1.140251034261489521e-01
3.655384615384615454e+00 3.228646158355724105e-01 -9.387277024216093002e-01 1.205168647902011836e-01
3.766153846153846185e+00 6.916806210433885660e-01 -7.106138690709946637e-01 1.287689569601989381e-01
3.876923076923076916e+00 9.279888666459702451e-01 -3.451362030159291772e-01 1.403329190937077642e-01
3.987692307692307647e+00 9.838738090118390733e-01 8.787667050510084010e-02 1.557104128228029571e-01
4.098461538461538822e+00 8.462055058230248950e-01 5.035554311034431407e-01 1.741953090437668439e-01
4.209230769230769553e+00 5.404137255339144241e-01 8.187045263815864171e-01 1.940408823892145751e-01
4.320000000000000284e+00 1.264556732619130930e-01 9.688280328409886177e-01 2.129724852162286075e-01
