0.000000000000000000e+00 -1.130097853539568079e-09 2.138439430734419394e-09 -1.000000000000000000e+00
1.107692307692307726e-01 -1.382621253981010101e-01 3.369764135351768775e-01 -9.313044451053600348e-01
2.215384615384615452e-01 -2.792347002005917123e-01 6.145807333148588514e-01 -7.377758205270457115e-01
3.323076923076923039e-01 -4.187868751944281431e-01 7.866292462449152589e-01 -4.536785849734192855e-01
4.430769230769230904e-01 -5.428802537514612059e-01 8.303152150992491043e-01 -1.258917018991179693e-01
5.538461538461538769e-01 -6.300954113146457480e-01 7.509047054793777098e-01 1.977702963137421277e-01
6.646153846153846079e-01 -6.591593948353340338e-01 5.795595541234930259e-01 4.791785207356543119e-01
7.753846153846154499e-01 -6.182313403529478002e-01 3.645611341582989939e-01 6.963328249999860553e-01
8.861538461538461808e-01 -5.117424904379808126e-01 1.580872427682534220e-01 8.444667285400833112e-01
9.969230769230769118e-01 -3.614111571173581061e-01 2.292163162110255614e-03 9.324024017346447257e-01
1.107692307692307754e+00 -2.004683984589374079e-01 -8.109640819533633915e-02 9.763372288904204055e-01
1.218461538461538485e+00 -6.311405311549947439e-02 -9.430772524218387909e-02 9.935401040489063584e-01
1.329230769230769216e+00 2.655459196591551316e-02 -5.919808552315308087e-02 9.978927866843395611e-01
1.439999999999999947e+00 6.166948083490119553e-02 -6.875535922785648568e-03 9.980727393548671778e-01
1.550769230769230900e+00 5.286616700262279644e-02 3.454810643593811403e-02 9.980035976418971666e-01
1.661538461538461631e+00 2.198928188302691836e-02 4.938351896499910271e-02 9.985376204742337780e-01
1.772307692307692362e+00 -7.886614568253774021e-03 3.759981298283778667e-02 9.992616245408574294e-01
1.883076923076923093e+00 -2.153966120608557036e-02 1.124375531139726499e-02 9.997046809696477077e-01
1.993846153846153824e+00 -1.603323846873466046e-02 -1.360875934374237636e-02 9.997787686825034825e-01
2.104615384615384777e+00 9.398737983897995085e-04 -2.519783439877911271e-02 9.996819534090667370e-01
2.215384615384615508e+00 1.718139847690564395e-02 -2.093328587033910226e-02 9.996331366016774078e-01
2.326153846153846239e+00 2.321451943496204151e-02 -6.969118653073336569e-03 9.997061299115953537e-01
2.436923076923076970e+00 1.684561403689464887e-02 6.592993896404034451e-03 9.998362998436651772e-01
2.547692307692307701e+00 3.172990404475989693e-03 1.175776820178239639e-02 9.999257948278728048e-01
2.658461538461538431e+00 -9.315029010051045777e-03 6.714415966177222916e-03 9.999340277324082482e-01
2.769230769230769162e+00 -1.399030014305650479e-02 -4.102968213639849107e-03 9.998936589911610051e-01
2.879999999999999893e+00 -9.600329159549607361e-03 -1.337853616657585024e-02 9.998643548176172624e-01
2.990769230769231068e+00 -3.433242728618386957e-04 -1.556629516408549602e-02 9.998787216571844993e-01
3.101538461538461799e+00 7.254568231420240043e-03 -9.955485455975573300e-03 9.999240804643277913e-01
3.212307692307692530e+00 8.463056519597602842e-03 -5.702420146266855977e-04 9.999639919156056989e-01
3.323076923076923261e+00 2.984073213006756178e-03 6.712370961091958244e-03 9.999729901860376913e-01
3.433846153846153992e+00 -5.296386764258858605e-03 7.881857094684899603e-03 9.999548745431643404e-01
3.544615384615384723e+00 -1.107800129179764385e-02 3.065131038623918752e-03 9.999338956733367922e-01
3.655384615384615454e+00 -1.101608178456582945e-02 -3.920846254288774466e-03 9.999315898355118915e-01
3.766153846153846185e+00 -5.657511938286325856e-03 -8.224716785767593324e-03 9.999501336100860005e-01
3.876923076923076916e+00 1.210599643603447149e-03 -7.098475092781711057e-03 9.999740440770082950e-01
3.987692307692307647e+00 5.164035467422591931e-03 -1.434766597857767062e-03 9.999856150352495199e-01
4.098461538461538822e+00 3.975385336449921425e-03 5.037886764998479594e-03 9.999793819911174664e-01
4.209230769230769553e+00 -1.152899798080127790e-03 8.307102886677950049e-03 9.999647979658949914e-01
4.320000000000000284e+00 -6.539452682656162787e-03 6.638734843640383548e-03 9.999565443005037357e-01
