0.000000000000000000e+00 3.747847305242805559e-09 -3.144875366490337857e-09 -1.000000000000000000e+00
1.107692307692307726e-01 -3.132762740558883707e-02 3.156616338273928735e-01 -9.483524016265624246e-01
2.215384615384615452e-01 -5.542910997860667210e-02 5.955308431404000569e-01 -8.014125409152002000e-01
3.323076923076923039e-01 -6.596497397693767972e-02 8.109493415245829784e-01 -5.813750905816302827e-01
4.430769230769230904e-01 -5.842596002766581309e-02 9.457068227245519765e-01 -3.197018795528580593e-01
5.538461538461538769e-01 -3.090520017942893771e-02 9.982430753027617953e-01 -5.038569825587111556e-02
6.646153846153846079e-01 1.539936633487370976e-02 9.803153354879869941e-01 1.967948624590530327e-01
7.753846153846154499e-01 7.615038175478500149e-02 9.127212512534146338e-01 4.014050589907154909e-01
8.861538461538461808e-01 1.444633725130247681e-01 8.194184831684501180e-01 5.546805630559852318e-01
9.969230769230769118e-01 2.121321302940603060e-01 7.217442169242862526e-01 6.588427109236372203e-01
1.107692307692307754e+00 2.712804409351808332e-01 6.342280570142578844e-01 7.239830145739504230e-01
1.218461538461538485e+00 3.160640175906436200e-01 5.629729836474076654e-01 7.636461956482678559e-01
1.329230769230769216e+00 3.439226200179267279e-01 5.066231788368920075e-01 7.905955710647091239e-01
1.439999999999999947e+00 3.560205756651239062e-01 4.592694517089146999e-01 8.138259354826770098e-01
1.550769230769230900e+00 3.566687708610219998e-01 4.140724904740672452e-01 8.374507145346689052e-01
1.661538461538461631e+00 3.518776596010971258e-01 3.663556641549857718e-01 8.613702030370058438e-01
1.772307692307692362e+00 3.474648379658663577e-01 3.152178334178528107e-01 8.831192137285893695e-01
1.883076923076923093e+00 3.473354815376931137e-01 2.633629274040644730e-01 8.999956746915391825e-01
1.993846153846153824e+00 3.524694219008623897e-01 2.154811703466036898e-01 9.106743144598261619e-01
2.104615384615384777e+00 3.609333164063416866e-01 1.759752196959368797e-01 9.158354528487884227e-01
2.215384615384615508e+00 3.689186437005824160e-01 1.469972160214163825e-01 9.177612072566648793e-01
2.326153846153846239e+00 3.723708705153944698e-01 1.275398986875019847e-01 9.192759921688478109e-01
2.436923076923076970e+00 3.686399032545822352e-01 1.138366078330367570e-01 9.225729241653543022e-01
2.547692307692307701e+00 3.575308232163527666e-01 1.008696646495959859e-01 9.284353466459985826e-01
2.658461538461538431e+00 3.414023202244044208e-01 8.432977557510479283e-02 9.361241457254824150e-01
2.769230769230769162e+00 3.242637139036097516e-01 6.219616623154600177e-02 9.439176112016530729e-01
2.879999999999999893e+00 3.102551584288676390e-01 3.539732561851119397e-02 9.499920001769908140e-01
2.990769230769231068e+00 3.020883901859969245e-01 7.306418897435301707e-03 9.532499130717684288e-01
3.101538461538461799e+00 3.000551515474477737e-01 -1.772031503903617744e-02 9.537552604912657994e-01
3.212307692307692530e+00 3.019600507379513465e-01 -3.612426362562307092e-02 9.526338852403872792e-01
3.323076923076923261e+00 3.040175347259545524e-01 -4.656202245828583441e-02 9.515258363882531656e-01
3.433846153846153992e+00 3.023653689499541941e-01 -5.043014681275753697e-02 9.518550834480485889e-01
3.544615384615384723e+00 2.945813157673809468e-01 -5.129392346853167695e-02 9.542468241623754954e-01
3.655384615384615454e+00 2.806297622171318173e-01 -5.347705292471459371e-02 9.583233009055931451e-01
3.766153846153846185e+00 2.628761825708958999e-01 -6.038894752917947639e-02 9.629360899160983589e-01
3.876923076923076916e+00 2.451540580882661247e-01 -7.322270761997917710e-02 9.667133690363677312e-01
3.987692307692307647e+00 2.312759150432734112e-01 -9.055505114260747890e-02 9.686630742269702887e-01
4.098461538461538822e+00 2.235382147857066515e-01 -1.089513664717445818e-01 9.685851434343417665e-01
4.209230769230769553e+00 2.218323603976530556e-01 -1.243504152368498233e-01 9.671216123735342229e-01
4.320000000000000284e+00 2.237075406427505575e-01 -1.336935808799229186e-01 9.654417193505820949e-01
