0.000000000000000000e+00 2.465035662882903624e-10 3.016137295792864957e-09 -1.000000000000000000e+00
1.107692307692307726e-01 2.237418116138167601e-01 4.588237641304306058e-02 -9.735658307188663763e-01
2.215384615384615452e-01 4.324826094968247103e-01 8.212161428644990102e-02 -8.978900352287398912e-01
3.323076923076923039e-01 6.136134791013275747e-01 1.009633872262192811e-01 -7.831169655518457340e-01
4.430769230769230904e-01 7.587913717516936440e-01 9.813309094890140805e-02 -6.438858049074045464e-01
5.538461538461538769e-01 8.649205881767180193e-01 7.353515863321152812e-02 -4.964728315067937214e-01
6.646153846153846079e-01 9.340475167714638038e-01 3.107183255998624549e-02 -3.557639670244831520e-01
7.753846153846154499e-01 9.722714690578950769e-01 -2.242261122468380830e-02 -2.327281999914548594e-01
8.861538461538461808e-01 9.879786657478235590e-01 -7.880634387211271630e-02 -1.329063762863979259e-01
9.969230769230769118e-01 9.898415482019520262e-01 -1.304898320166986148e-01 -5.623401981405719285e-02
1.107692307692307754e+00 9.850788123843332578e-01 -1.720236356183348914e-01 1.924494498134511188e-03
1.218461538461538485e+00 9.783397064271094346e-01 -2.011140119877377064e-01 4.879255328545081816e-02
1.329230769230769216e+00 9.714205185814018817e-01 -2.188085763085299007e-01 9.187612736198723373e-02
1.439999999999999947e+00 9.637686907425792038e-01 -2.288859564610661312e-01 1.368851378213037373e-01
1.550769230769230900e+00 9.535478039579063925e-01 -2.366071530366584130e-01 1.863875590255031911e-01
1.661538461538461631e+00 9.388916914014144854e-01 -2.471903561565336194e-01 2.394919184055355754e-01
1.772307692307692362e+00 9.189669496238992430e-01 -2.643867107767383096e-01 2.925353757939876953e-01
1.883076923076923093e+00 8.945330794305348387e-01 -2.895323324585064029e-01 3.405284863429092201e-01
1.993846153846153824e+00 8.678841093315300403e-01 -3.212676248928268419e-01 3.788704390038000747e-01
2.104615384615384777e+00 8.422006050680277411e-01 -3.560118848830385874e-01 4.048858517965227000e-01
2.215384615384615508e+00 8.205836900384904098e-01 -3.889983322262083321e-01 4.186905458410175584e-01
2.326153846153846239e+00 8.050469923798984073e-01 -4.156265590651600506e-01 4.232411123815255083e-01
2.436923076923076970e+00 7.958393254766454872e-01 -4.327241314349641876e-01 4.235194685840599771e-01
2.547692307692307701e+00 7.912865960648483021e-01 -4.394273148658942585e-01 4.251450596547818872e-01
2.658461538461538431e+00 7.882267972589815930e-01 -4.374145361908114427e-01 4.328352064753032136e-01
2.769230769230769162e+00 7.829225451124970370e-01 -4.304747048584670610e-01 4.491139629409297562e-01
2.879999999999999893e+00 7.721804441809063668e-01 -4.235025586383839302e-01 4.736695784199654868e-01
2.990769230769231068e+00 7.543373799778443356e-01 -4.212157980798081902e-01 5.035204156538173326e-01
3.101538461538461799e+00 7.298380062556039105e-01 -4.269133531349851296e-01 5.339124215280574015e-01
3.212307692307692530e+00 7.011874659519596875e-01 -4.416212619061578581e-01 5.597216340686156366e-01
3.323076923076923261e+00 6.723125132671019522e-01 -4.638384663622909798e-01 5.769156182098967856e-01
3.433846153846153992e+00 6.474716034779738338e-01 -4.899411133835989141e-01 5.837124603638303988e-01
3.544615384615384723e+00 6.300327459413643805e-01 -5.151559974154780175e-01 5.810808800881726022e-01
3.655384615384615454e+00 6.214737285324767324e-01 -5.348334579459813609e-01 5.724555405320197465e-01
3.766153846153846185e+00 6.208890887231701683e-01 -5.456668892466268739e-01 5.627841146716510146e-01
3.876923076923076916e+00 6.251692588294436304e-01 -5.465864007088054866e-01 5.571249057161217211e-01
3.987692307692307647e+00 6.298050389088787337e-01 -5.390337458391161185e-01 5.592582015917314520e-01
4.098461538461538822e+00 6.301126941435216677e-01 -5.265982862085754057e-01 5.706434684665022683e-01
4.209230769230769553e+00 6.225544598859176215e-01 -5.140691257080673982e-01 5.900347625966423371e-01
4.320000000000000284e+00 6.057542798093533687e-01 -5.061905141605573810e-01 6.138530618580280152e-01
