0.000000000000000000e+00 2.291520193942334715e-09 2.185988391791184219e-10 -1.000000000000000000e+00
1.107692307692307726e-01 1.516689185274638918e-01 -2.302910394275556882e-01 -9.612275374837796482e-01
2.215384615384615452e-01 3.116237438138237392e-01 -4.237528849139100551e-01 -8.504794378280643441e-01
3.323076923076923039e-01 4.824753997580421006e-01 -5.480342691458481852e-01 -6.832733630378461376e-01
4.430769230769230904e-01 6.572201997263610318e-01 -5.795545531253077920e-01 -4.818308913194497833e-01
5.538461538461538769e-01 8.181362134149499088e-01 -5.073790359447588605e-01 -2.705552967067429426e-01
6.646153846153846079e-01 9.391244003754087855e-01 -3.360489164791997108e-01 -7.138630853607372262e-02
7.753846153846154499e-01 9.912089102855328182e-01 -8.664634730957194997e-02 9.988451420239673195e-02
8.861538461538461808e-01 9.500395901575924285e-01 2.046864998426036752e-01 2.356023702823767940e-01
9.969230769230769118e-01 8.035901939470929678e-01 4.911678101445670630e-01 3.361221062152945360e-01
1.107692307692307754e+00 5.580461119466174624e-01 7.226071119599882797e-01 4.079281362601984151e-01
1.218461538461538485e+00 2.400741217632370028e-01 8.544951263951761078e-01 4.606355263915402620e-01
1.329230769230769216e+00 -1.056154240773075625e-01 8.573296600851232352e-01 5.038000081581980316e-01
1.439999999999999947e+00 -4.234316063484529491e-01 7.240929117279295557e-01 5.444069876080426251e-01
1.550769230769230900e+00 -6.576485757907741814e-01 4.738425303382187148e-01 5.856246063902075250e-01
1.661538461538461631e+00 -7.644858633243118984e-01 1.500359659443778471e-01 6.269257629677298382e-01
1.772307692307692362e+00 -7.227576076183537257e-01 -1.867557583254990661e-01 6.653795286571094758e-01
1.883076923076923093e+00 -5.403399908717751998e-01 -4.707005631796133960e-01 6.974672449149080800e-01
1.993846153846153824e+00 -2.544460813838940183e-01 -6.447246280500409377e-01 7.208153602633708967e-01
2.104615384615384777e+00 7.489671978987308409e-02 -6.736639704214295588e-01 7.352245352237566367e-01
2.215384615384615508e+00 3.771683041363860234e-01 -5.531581435223247301e-01 7.427975087625137141e-01
2.326153846153846239e+00 5.869050376204403285e-01 -3.119072546499865872e-01 7.471575681143176606e-01
2.436923076923076970e+00 6.589053719733486414e-01 -6.150797983979994221e-03 7.521928812827454180e-01
2.547692307692307701e+00 5.793094258857592882e-01 2.926859643055120808e-01 7.607391129916619699e-01
2.658461538461538431e+00 3.695921228689806881e-01 5.145548472328569378e-01 7.737077984321802937e-01
2.769230769230769162e+00 8.204175163230985335e-02 6.076341188533285198e-01 7.899615204222603104e-01
2.879999999999999893e+00 -2.124249580771920554e-01 5.512101669573181706e-01 8.068660146238448849e-01
2.990769230769231068e+00 -4.414800788669588361e-01 3.611863946654039204e-01 8.213585899174713489e-01
3.101538461538461799e+00 -5.493426453585311675e-01 8.649888167173308551e-02 8.311023362858490637e-01
3.212307692307692530e+00 -5.109420014792237508e-01 -2.029263090836045946e-01 8.353142086833474922e-01
3.323076923076923261e+00 -3.384842844110161897e-01 -4.338062888070188805e-01 8.350036701795716665e-01
3.433846153846153992e+00 -7.849135147951025182e-02 -5.483137571799847620e-01 8.325753391444165041e-01
3.544615384615384723e+00 2.001250771539249684e-01 -5.191156463538731947e-01 8.309388656789593597e-01
3.655384615384615454e+00 4.240334360736613961e-01 -3.565848525747408182e-01 8.324862940705660685e-01
3.766153846153846185e+00 5.348161298557597698e-01 -1.061205903153573105e-01 8.382725451404159367e-01
3.876923076923076916e+00 5.045035393387515832e-01 1.638937695360770386e-01 8.477063503918745857e-01
3.987692307692307647e+00 3.430838714476069917e-01 3.804270368021393511e-01 8.588132179760847862e-01
4.098461538461538822e+00 9.578920698535811629e-02 4.854627886646828427e-01 8.689891188949602219e-01
4.209230769230769553e+00 -1.692146674494267033e-01 4.517586251121955554e-01 8.759409633573135290e-01
4.320000000000000284e+00 -3.794929198376362223e-01 2.902252723966034509e-01 8.784910464078476977e-01
