0.000000000000000000e+00 2.301351076747526630e-09 1.413361490721562456e-09 -1.000000000000000000e+00
1.107692307692307726e-01 -1.953345126381954289e-01 1.188438137742184042e-01 -9.735083514938218663e-01
2.215384615384615452e-01 -3.761362219213769120e-01 2.322332712939511878e-01 -8.969865704035473453e-01
3.323076923076923039e-01 -5.301586969244469483e-01 3.354917869613437409e-01 -7.786978475981899406e-01
4.430769230769230904e-01 -6.492364630545093274e-01 4.252559428963633703e-01 -6.305874986090975742e-01
5.538461538461538769e-01 -7.300651814514328430e-01 4.997553295532745632e-01 -4.660889796461285539e-01
6.646153846153846079e-01 -7.739874996153627285e-01 5.587414386826905499e-01 -2.978920929081985136e-01
7.753846153846154499e-01 -7.858894081463529968e-01 6.031624077670190154e-01 -1.362375534507113684e-01
8.861538461538461808e-01 -7.726398522018276260e-01 6.347217906148195921e-01 1.197826772799330530e-02
9.969230769230769118e-01 -7.415257810669932947e-01 6.554463245584505326e-01 1.432389074804041040e-01
1.107692307692307754e+00 -6.990558639362711713e-01 6.673637722124190486e-01 2.567774388839690891e-01
1.218461538461538485e+00 -6.503178159993374674e-01 6.723244956364432534e-01 3.536314229619418881e-01
1.329230769230769216e+00 -5.988718408814079908e-01 6.719316887653413728e-01 4.357173025902908448e-01
1.439999999999999947e+00 -5.470118532577390447e-01 6.675411479206135867e-01 5.051303660813203367e-01
1.550769230769230900e+00 -4.961710806886959202e-01 6.602505680977190927e-01 5.638030551901425103e-01
1.661538461538461631e+00 -4.472625022715684406e-01 6.509206193822303366e-01 6.133918785276419872e-01
1.772307692307692362e+00 -4.008870344893823434e-01 6.401636726558538326e-01 6.553407979661358684e-01
1.883076923076923093e+00 -3.574022252023859036e-01 6.283771581970499787e-01 6.909397739744131961e-01
1.993846153846153824e+00 -3.169302278816819585e-01 6.158071986712474466e-01 7.213384352795673138e-01
2.104615384615384777e+00 -2.793704657575676320e-01 6.026224305941026982e-01 7.475233502443913158e-01
2.215384615384615508e+00 -2.444792133775683107e-01 5.889857118019654614e-01 7.702719832417955770e-01
2.326153846153846239e+00 -2.119772186239581857e-01 5.750959678998932567e-01 7.901416323661135666e-01
2.436923076923076970e+00 -1.816470522573628565e-01 5.611562321805970699e-01 8.075282384530667601e-01
2.547692307692307701e+00 -1.533776276100274893e-01 5.473398264149768044e-01 8.227323458523086996e-01
2.658461538461538431e+00 -1.271376138043547321e-01 5.337338537220844836e-01 8.360374152782975576e-01
2.769230769230769162e+00 -1.029014292712186335e-01 5.203394728475451148e-01 8.477338694279885623e-01
2.879999999999999893e+00 -8.057034323580213042e-02 5.070727344211579668e-01 8.581261304018185099e-01
2.990769230769231068e+00 -5.994887772643455598e-02 4.938598413904414786e-01 8.674696441961355919e-01
3.101538461538461799e+00 -4.078032331601835064e-02 4.806820766991908855e-01 8.759434259808581702e-01
3.212307692307692530e+00 -2.281542690858046063e-02 4.675985836763895676e-01 8.836438070866772243e-01
3.323076923076923261e+00 -5.909234607063973063e-03 4.547370924196229569e-01 8.906035947076909043e-01
3.433846153846153992e+00 9.986322038518957722e-03 4.422144086580580002e-01 8.968513522557800544e-01
3.544615384615384723e+00 2.481651561934061778e-02 4.300948944213484060e-01 9.024401993017611145e-01
3.655384615384615454e+00 3.852435189209951760e-02 4.183306829869134491e-01 9.074751950905495246e-01
3.766153846153846185e+00 5.112046329444780435e-02 4.068096380431848180e-01 9.120792986836082639e-01
3.876923076923076916e+00 6.271944670281562328e-02 3.954086985374231089e-01 9.163593030595944544e-01
3.987692307692307647e+00 7.351010243819863788e-02 3.840499492911059742e-01 9.203793464523959411e-01
4.098461538461538822e+00 8.369126241178401204e-02 3.727723946317626491e-01 9.241389812210453192e-01
4.209230769230769553e+00 9.338744727541478663e-02 3.616842320076911754e-01 9.276096914001756844e-01
4.320000000000000284e+00 1.026060183280922689e-01 3.509223426105213539e-01 9.307642217347809055e-01
