0.000000000000000000e+00 -7.365102114499056262e-10 -2.228434041153385628e-09 -1.000000000000000000e+00
1.107692307692307726e-01 -9.057552960859339974e-02 1.011448074350683041e-01 -9.907393307609914102e-01
2.215384615384615452e-01 -1.777360957572184930e-01 1.998595781757694645e-01 -9.635679684672194822e-01
3.323076923076923039e-01 -2.584233234080151043e-01 2.939427752531766358e-01 -9.202231965655867096e-01
4.430769230769230904e-01 -3.302861468106247367e-01 3.815825553903027800e-01 -8.633075892425042808e-01
5.538461538461538769e-01 -3.918327510150839688e-01 4.614811227620609357e-01 -7.959239723890779716e-01
6.646153846153846079e-01 -4.424498988636515473e-01 5.328837925681577659e-01 -7.212934796264741655e-01
7.753846153846154499e-01 -4.822777484672627901e-01 5.955604288303354421e-01 -6.424220232297487287e-01
8.861538461538461808e-01 -5.120104546820515301e-01 6.497072219055537445e-01 -5.618850979152173464e-01
9.969230769230769118e-01 -5.326824568623336198e-01 6.958307684248390412e-01 -4.817230490262237041e-01
1.107692307692307754e+00 -5.454634120972060574e-01 7.346336430021835895e-01 -4.034482896540356744e-01
1.218461538461538485e+00 -5.515320541536802290e-01 7.669043966143321844e-01 -3.281111374684729798e-01
1.329230769230769216e+00 -5.519945636534683286e-01 7.934407880681932923e-01 -2.563984501585273024e-01
1.439999999999999947e+00 -5.478628136426153539e-01 8.149970223970206540e-01 -1.887123220817021330e-01
1.550769230769230900e+00 -5.400376161591099455e-01 8.322637320850808651e-01 -1.252294035631942859e-01
1.661538461538461631e+00 -5.293094953064600983e-01 8.458517174098469926e-01 -6.597097522598274755e-02
1.772307692307692362e+00 -5.163520999178892179e-01 8.562998169689265415e-01 -1.081336547763329936e-02
1.883076923076923093e+00 -5.017143691030967467e-01 8.640788514376555041e-01 4.045047786984229399e-02
1.993846153846153824e+00 -4.858278816076938567e-01 8.695988818204768434e-01 8.806205305645392611e-02
2.104615384615384777e+00 -4.690217578789642183e-01 8.732159390901842455e-01 1.322818322935639668e-01
2.215384615384615508e+00 -4.515536350720942282e-01 8.752354230668573098e-01 1.733446458411371516e-01
2.326153846153846239e+00 -4.336400783238855139e-01 8.759150369335327868e-01 2.114600977104774959e-01
2.436923076923076970e+00 -4.154750018142565060e-01 8.754679145536414797e-01 2.468255701741494113e-01
2.547692307692307701e+00 -3.972391693282978919e-01 8.740651125144679456e-01 2.796386995481645599e-01
2.658461538461538431e+00 -3.790838083066218056e-01 8.718446578394959401e-01 3.101114630001944317e-01
2.769230769230769162e+00 -3.611315361506159949e-01 8.689153918861673986e-01 3.384627058139156874e-01
2.879999999999999893e+00 -3.434423087414320563e-01 8.653734063743131477e-01 3.649155825811429832e-01
2.990769230769231068e+00 -3.260348847030556385e-01 8.613095740106013753e-01 3.896593362121117399e-01
3.101538461538461799e+00 -3.089041667394816781e-01 8.568083364063464602e-01 4.128501053392699682e-01
3.212307692307692530e+00 -2.920453712066080065e-01 8.519583801453681771e-01 4.345850135021239735e-01
3.323076923076923261e+00 -2.754745223461810832e-01 8.468348499917646155e-01 4.549422193944314130e-01
3.433846153846153992e+00 -2.592367611047748932e-01 8.414967803461280704e-01 4.739910827990507225e-01
3.544615384615384723e+00 -2.433948318710483782e-01 8.359802256885942029e-01 4.918173196285762216e-01
3.655384615384615454e+00 -2.279983892827745495e-01 8.303008401950014994e-01 5.085328726560875978e-01
3.766153846153846185e+00 -2.130680151717731785e-01 8.244602314013309563e-01 5.242670613311899430e-01
3.876923076923076916e+00 -1.985795185887258563e-01 8.184604881437156365e-01 5.391450406404484363e-01
3.987692307692307647e+00 -1.844793307869727061e-01 8.123164942559106816e-01 5.532614575533956192e-01
4.098461538461538822e+00 -1.706991906558851801e-01 8.060651603425428302e-01 5.666655480147798629e-01
4.209230769230769553e+00 -1.572040672432636899e-01 7.997486201034810227e-01 5.793774982459113376e-01
4.320000000000000284e+00 -1.439870680384248147e-01 7.934160310005307082e-01 5.913950762548747520e-01
