0.000000000000000000e+00 -1.373752583799324411e-10 2.008265242331753932e-09 -1.000000000000000000e+00
1.107692307692307726e-01 -3.988848459326620882e-02 -1.641982957396119491e-02 -9.990689475511642659e-01
2.215384615384615452e-01 -7.956615972882717658e-02 -3.285358060347384063e-02 -9.962875303832338103e-01
3.323076923076923039e-01 -1.188293754147261849e-01 -4.927431356246224359e-02 -9.916905286089895410e-01
4.430769230769230904e-01 -1.574871207412806839e-01 -6.566286488886377559e-02 -9.853345512343231194e-01
5.538461538461538769e-01 -1.953624838432200805e-01 -8.199821872568800740e-02 -9.772958942574501151e-01
6.646153846153846079e-01 -2.323030968134790764e-01 -9.824345098516840125e-02 -9.676675317763002715e-01
7.753846153846154499e-01 -2.681740926524211477e-01 -1.143558332591158300e-01 -9.565572814135701041e-01
8.861538461538461808e-01 -3.028653327057115874e-01 -1.302872065838790450e-01 -9.440835457338498937e-01
9.969230769230769118e-01 -3.362880138352442594e-01 -1.459854979359172522e-01 -9.303730367594483797e-01
1.107692307692307754e+00 -3.683755535861844010e-01 -1.613991850384870197e-01 -9.155569965240928365e-01
1.218461538461538485e+00 -3.990822342542407752e-01 -1.764782668949809175e-01 -8.997683768986299846e-01
1.329230769230769216e+00 -4.283864590090244451e-01 -1.911842522268112909e-01 -8.831350136186653099e-01
1.439999999999999947e+00 -4.562797343224723745e-01 -2.054745703913588295e-01 -8.657842284086721962e-01
1.550769230769230900e+00 -4.827737539083294394e-01 -2.193181664094622507e-01 -8.478336399071483287e-01
1.661538461538461631e+00 -5.078956083382792919e-01 -2.326835000895996208e-01 -8.293930286795878626e-01
1.772307692307692362e+00 -5.316761623307837414e-01 -2.455436189620174570e-01 -8.105681240003157484e-01
1.883076923076923093e+00 -5.541580038091422633e-01 -2.578863887526215981e-01 -7.914511746501797784e-01
1.993846153846153824e+00 -5.753838757206959365e-01 -2.696891971812014899e-01 -7.721347966723164369e-01
2.104615384615384777e+00 -5.954043908615838099e-01 -2.809499071883303500e-01 -7.526960585555351191e-01
2.215384615384615508e+00 -6.142699627941898832e-01 -2.916695060192107669e-01 -7.332063203892653647e-01
2.326153846153846239e+00 -6.320328194632172103e-01 -3.018513429603779108e-01 -7.137297086314038363e-01
2.436923076923076970e+00 -6.487495447056300657e-01 -3.115080077057340580e-01 -6.943170989569319440e-01
2.547692307692307701e+00 -6.644799494849847887e-01 -3.206524196710323626e-01 -6.750092753360681375e-01
2.658461538461538431e+00 -6.792824234956678087e-01 -3.292961075715243879e-01 -6.558416154638284645e-01
2.769230769230769162e+00 -6.932135857679416757e-01 -3.374482269627502307e-01 -6.368454018816256390e-01
2.879999999999999893e+00 -7.063294468617352662e-01 -3.451141022659597324e-01 -6.180478249339569352e-01
2.990769230769231068e+00 -7.186781711729632871e-01 -3.523025573603742466e-01 -5.994768155030495427e-01
3.101538461538461799e+00 -7.303053034238262686e-01 -3.590243814963068325e-01 -5.811568150729558013e-01
3.212307692307692530e+00 -7.412473352974697782e-01 -3.652973729355465382e-01 -5.631141488081353730e-01
3.323076923076923261e+00 -7.515442548920995280e-01 -3.711424294896856768e-01 -5.453637442292966764e-01
3.433846153846153992e+00 -7.612267568410210350e-01 -3.765906062214513517e-01 -5.279206312597151118e-01
3.544615384615384723e+00 -7.703370328882047646e-01 -3.816661940744835446e-01 -5.107821506748845275e-01
3.655384615384615454e+00 -7.789139167706242706e-01 -3.863915148803376276e-01 -4.939444668254469040e-01
3.766153846153846185e+00 -7.869962561784131783e-01 -3.907822301577765778e-01 -4.774016907260469900e-01
3.876923076923076916e+00 -7.946218350268838826e-01 -3.948466214507190264e-01 -4.611489265186936581e-01
3.987692307692307647e+00 -8.018262687497641483e-01 -3.985835409454616118e-01 -4.451872304542419667e-01
4.098461538461538822e+00 -8.086373590305142578e-01 -4.020010921066545784e-01 -4.295188616440322460e-01
4.209230769230769553e+00 -8.150749600949930285e-01 -4.051029173442829423e-01 -4.141617951090534877e-01
4.320000000000000284e+00 -8.211561894845935683e-01 -4.079077714971899860e-01 -3.991230024673438903e-01
