0.000000000000000000e+00 1.884084672312123555e-09 1.763207030115066984e-09 -1.000000000000000000e+00
1.107692307692307726e-01 1.537480159317499984e-01 9.479838290349403007e-02 -9.835515072982978779e-01
2.215384615384615452e-01 3.015264112490062542e-01 1.842694094170448382e-01 -9.354806376531052958e-01
3.323076923076923039e-01 4.380262785424979821e-01 2.637214656741092567e-01 -8.594067515718858408e-01
4.430769230769230904e-01 5.591164453441013205e-01 3.296451102493505037e-01 -7.607348379034177821e-01
5.538461538461538769e-01 6.621450941442282856e-01 3.799898011980768486e-01 -6.458830814314797664e-01
6.646153846153846079e-01 7.460063075644143282e-01 4.142026933814402234e-01 -5.214431688676667287e-01
7.753846153846154499e-01 8.109639315409198357e-01 4.330213413974534631e-01 -3.934735707972602525e-01
8.861538461538461808e-01 8.583393150001282779e-01 4.381221678693487664e-01 -2.670083127493506625e-01
9.969230769230769118e-01 8.901341374959782504e-01 4.317299018609363492e-01 -1.458115929657381737e-01
1.107692307692307754e+00 9.086694923880989094e-01 4.162453658908437104e-01 -3.240247532083126436e-02
1.218461538461538485e+00 9.163059161969860922e-01 3.939773352650083882e-01 7.180340462228962384e-02
1.329230769230769216e+00 9.152512727817414540e-01 3.669677560607567113e-01 1.662537997328724093e-01
1.439999999999999947e+00 9.074509477826206982e-01 3.369245303333546215e-01 2.510088253834396599e-01
1.550769230769230900e+00 8.945517106061954271e-01 3.052119553333822455e-01 3.265179826522725537e-01
1.661538461538461631e+00 8.778996976328301560e-01 2.728722507683274401e-01 3.934771806771878988e-01
1.772307692307692362e+00 8.585735420432306642e-01 2.406820144280392426e-01 4.526758446610594788e-01
1.883076923076923093e+00 8.374149431432269530e-01 2.091857611921062177e-01 5.049452152799832616e-01
1.993846153846153824e+00 8.150764417939105888e-01 1.787585512473212901e-01 5.510791863129590462e-01
2.104615384615384777e+00 7.920525530959952043e-01 1.496368803979356288e-01 5.918229420004447183e-01
2.215384615384615508e+00 7.687212164578622886e-01 1.219614928288678679e-01 6.278425265927516374e-01
2.326153846153846239e+00 7.453584721996102669e-01 9.580412928598770750e-02 6.597391734587494394e-01
2.436923076923076970e+00 7.221702998451720035e-01 7.118530318666793644e-02 6.880381301681245398e-01
2.547692307692307701e+00 6.992991425943915207e-01 4.808744835661295236e-02 7.132056776096781237e-01
2.658461538461538431e+00 6.768509303140908262e-01 2.647283459684847406e-02 7.356400623111192250e-01
2.769230769230769162e+00 6.548884712174284362e-01 6.279260567988581565e-03 7.556958369156560051e-01
2.879999999999999893e+00 6.334682582539169493e-01 -1.256160954499596638e-02 7.736633323804481543e-01
2.990769230769231068e+00 6.126197482931284855e-01 -3.011704737734785531e-02 7.898005978089380763e-01
3.101538461538461799e+00 5.923530293222751819e-01 -4.646467251816438493e-02 8.043345670252919355e-01
3.212307692307692530e+00 5.726789332374098151e-01 -6.166517325843301478e-02 8.174543486571627104e-01
3.323076923076923261e+00 5.535922125393158977e-01 -7.579543016236456321e-02 8.293287965777420556e-01
3.433846153846153992e+00 5.350823852158300697e-01 -8.891729916484292229e-02 8.401048994669372272e-01
3.544615384615384723e+00 5.171354718115006577e-01 -1.011015696129288211e-01 8.499089501332480756e-01
3.655384615384615454e+00 4.997392492773916617e-01 -1.124105583541691322e-01 8.588483774714611441e-01
3.766153846153846185e+00 4.828783480356152458e-01 -1.229052975969244788e-01 8.670172511525532366e-01
3.876923076923076916e+00 4.665417939496976363e-01 -1.326385961456157114e-01 8.744952820360460954e-01
3.987692307692307647e+00 4.507133906804194345e-01 -1.416527009478060206e-01 8.813559538235942181e-01
4.098461538461538822e+00 4.353713309302709167e-01 -1.499943292873218981e-01 8.876654667119278086e-01
4.209230769230769553e+00 4.205005706363231788e-01 -1.577069735954059748e-01 8.934787968907881295e-01
4.320000000000000284e+00 4.060758475653313271e-01 -1.648329728076312062e-01 8.988488038938658997e-01
