0.000000000000000000e+00 -2.670887324832619219e-09 1.232777993223657571e-09 -1.000000000000000000e+00
1.107692307692307726e-01 -1.362349063777650721e-02 2.298085048467022468e-02 -9.996428547094328154e-01
2.215384615384615452e-01 -2.868154566139869202e-02 4.505761503106479882e-02 -9.985721520556578579e-01
3.323076923076923039e-01 -4.644572514283841491e-02 6.519423809479724108e-02 -9.967904896211352561e-01
4.430769230769230904e-01 -6.796191728250719488e-02 8.210869844529308792e-02 -9.943026321575022530e-01
5.538461538461538769e-01 -9.387722133451331663e-02 9.419200782370279468e-02 -9.911170079302195068e-01
6.646153846153846079e-01 -1.242498111741455052e-01 9.953093744349421346e-02 -9.872452426324380692e-01
7.753846153846154499e-01 -1.583569443581875347e-01 9.597764965896567191e-02 -9.827047163760376236e-01
8.861538461538461808e-01 -1.945152290595470457e-01 8.136339678684723076e-02 -9.775175709945164160e-01
9.969230769230769118e-01 -2.299461527855583276e-01 5.381687940017185201e-02 -9.717123413571345791e-01
1.107692307692307754e+00 -2.607696443022169963e-01 1.220177088461057990e-02 -9.653218447585004691e-01
1.218461538461538485e+00 -2.821635254462787068e-01 -4.339396037990500554e-02 -9.583821037676216736e-01
1.329230769230769216e+00 -2.887408429838276280e-01 -1.111441956820697075e-01 -9.509315549766467202e-01
1.439999999999999947e+00 -2.751776707141735945e-01 -1.870972046430139091e-01 -9.430093240321620884e-01
1.550769230769230900e+00 -2.370773866297050392e-01 -2.649725749924106699e-01 -9.346540149166123745e-01
1.661538461538461631e+00 -1.719795627728736842e-01 -3.363274677908971166e-01 -9.259053651505729787e-01
1.772307692307692362e+00 -8.039844047766298019e-02 -3.911590100698353889e-01 -9.168010673199998850e-01
1.883076923076923093e+00 3.330614472693027572e-02 -4.189786080652518341e-01 -9.073812327422574597e-01
1.993846153846153824e+00 1.605077342314954747e-01 -4.103547942244406554e-01 -8.976852822737676485e-01
2.104615384615384777e+00 2.884451285074132176e-01 -3.587134458865746667e-01 -8.877591969441103181e-01
2.215384615384615508e+00 4.012401509090050000e-01 -2.621991329915585589e-01 -8.776388039274470865e-01
2.326153846153846239e+00 4.816634928952530093e-01 -1.251701628252744058e-01 -8.673662784749175403e-01
2.436923076923076970e+00 5.137215793841055644e-01 4.101909758628397018e-02 -8.569706678631326957e-01
2.547692307692307701e+00 4.855914519414318287e-01 2.183089731273396283e-01 -8.464826834022594060e-01
2.658461538461538431e+00 3.925780795754412189e-01 3.835561302120580884e-01 -8.359172083487580451e-01
2.769230769230769162e+00 2.393600392418946399e-01 5.114635633329184250e-01 -8.252889717253180102e-01
2.879999999999999893e+00 4.102635098380949530e-02 5.785480616983742497e-01 -8.146095628853403658e-01
2.990769230769231068e+00 -1.776526862929934114e-01 5.676191799615876166e-01 -8.038889407522422648e-01
3.101538461538461799e+00 -3.849620224297279347e-01 4.719256035964367602e-01 -7.931453706079529820e-01
3.212307692307692530e+00 -5.467793372138246566e-01 2.980975520441179194e-01 -7.824059064789291584e-01
3.323076923076923261e+00 -6.324367962713443037e-01 6.703002116786896392e-02 -7.716988805140584384e-01
3.433846153846153992e+00 -6.208792924186584683e-01 -1.878592949155831193e-01 -7.610558325837970539e-01
3.544615384615384723e+00 -5.059465607978422819e-01 -4.251490574366585395e-01 -7.505026867254340761e-01
3.655384615384615454e+00 -2.994992332113188827e-01 -6.021708632286242313e-01 -7.400527916017011210e-01
3.766153846153846185e+00 -3.140032041151419318e-02 -6.830266084176284114e-01 -7.297095907331767606e-01
3.876923076923076916e+00 2.541384065347892518e-01 -6.463599325672708673e-01 -7.194578526751286285e-01
3.987692307692307647e+00 5.056338099236997730e-01 -4.911647531415656021e-01 -7.092802525105551537e-01
4.098461538461538822e+00 6.737701223243167670e-01 -2.391594719425422788e-01 -6.991589413672025799e-01
4.209230769230769553e+00 7.215485636152674243e-01 6.728724456167745060e-02 -6.890765311224150702e-01
4.320000000000000284e+00 6.329649079949098978e-01 3.718029868245279479e-01 -6.790464582753777956e-01
