0.000000000000000000e+00 1.806251682301678941e-09 -2.422320312381252290e-09 -1.000000000000000000e+00
1.107692307692307726e-01 2.268914450613786563e-02 1.409659017725320082e-02 -9.996429324688669293e-01
2.215384615384615452e-01 4.522456009878473432e-02 2.836615349455011426e-02 -9.985735648540817744e-01
3.323076923076923039e-01 6.747276576361369016e-02 4.291385234088741091e-02 -9.967971001377057272e-01
4.430769230769230904e-01 8.931093941982502782e-02 5.784365414924925314e-02 -9.943218121859603853e-01
5.538461538461538769e-01 1.106437235362503491e-01 7.322098140669468236e-02 -9.911581184519601129e-01
6.646153846153846079e-01 1.313927337006165208e-01 8.906549720043130391e-02 -9.873199106280701187e-01
7.753846153846154499e-01 1.514997773643127488e-01 1.053532285659543460e-01 -9.828252066579482582e-01
8.861538461538461808e-01 1.709094933191677990e-01 1.220192960926924225e-01 -9.777001875640018991e-01
9.969230769230769118e-01 1.895691888599848884e-01 1.389704464713104604e-01 -9.719808148873413378e-01
1.107692307692307754e+00 2.074238621925303949e-01 1.561037864332667502e-01 -9.657134463281247250e-01
1.218461538461538485e+00 2.244086853884685595e-01 1.733172355878554449e-01 -9.589561688968053499e-01
1.329230769230769216e+00 2.404655383529833435e-01 1.905334045929427123e-01 -9.517709554236902791e-01
1.439999999999999947e+00 2.555403910885140073e-01 2.077012662400225251e-01 -9.442210822913923440e-01
1.550769230769230900e+00 2.696065770367855885e-01 2.247986463995568229e-01 -9.363608192794303786e-01
1.661538461538461631e+00 2.826713877406051845e-01 2.418275767219435490e-01 -9.282292818289088476e-01
1.772307692307692362e+00 2.947783820052395365e-01 2.587965716578209951e-01 -9.198493922881836315e-01
1.883076923076923093e+00 3.060047996128759107e-01 2.757006038992648733e-01 -9.112314112687694978e-01
1.993846153846153824e+00 3.164581244967845097e-01 2.925111580009691070e-01 -9.023765892614896700e-01
2.104615384615384777e+00 3.262504849398585316e-01 3.091621839983368369e-01 -8.932922191896055519e-01
2.215384615384615508e+00 3.354813369053176730e-01 3.255551484562216880e-01 -8.840007570042841545e-01
2.326153846153846239e+00 3.442147759851675870e-01 3.415705095093714561e-01 -8.745493687867431643e-01
2.436923076923076970e+00 3.524742358332138004e-01 3.570970595763958144e-01 -8.650052253251255818e-01
2.547692307692307701e+00 3.602324014508472283e-01 3.720449658393019110e-01 -8.554561492530707856e-01
2.658461538461538431e+00 3.674244202543319737e-01 3.863868241658352520e-01 -8.459871261320530689e-01
2.769230769230769162e+00 3.739686947796749261e-01 4.001520397799070428e-01 -8.366690576466413454e-01
2.879999999999999893e+00 3.798028828006945745e-01 4.134320178066807627e-01 -8.275341427374502956e-01
2.990769230769231068e+00 3.849026617466025368e-01 4.263615682727772138e-01 -8.185685410441184695e-01
3.101538461538461799e+00 3.893007473946631936e-01 4.390828637564731518e-01 -8.097157290001019136e-01
3.212307692307692530e+00 3.931037871659993632e-01 4.517078723677757646e-01 -8.008854513315740720e-01
3.323076923076923261e+00 3.964702392783988616e-01 4.642866524936886674e-01 -7.919829894827510319e-01
3.433846153846153992e+00 3.995853786794592022e-01 4.767907690153576628e-01 -7.829365220955046833e-01
3.544615384615384723e+00 4.026262608699101575e-01 4.891199275739605001e-01 -7.737189458256132912e-01
3.655384615384615454e+00 4.057212444205545165e-01 5.011082037424957614e-01 -7.643741017002747551e-01
3.766153846153846185e+00 4.089157196824202978e-01 5.125857529084898445e-01 -7.550035915658630525e-01
3.876923076923076916e+00 4.121616546751262211e-01 5.234135606400157625e-01 -7.457528966133184500e-01
3.987692307692307647e+00 4.153312782334970810e-01 5.335232647758048063e-01 -7.367760576256398020e-01
4.098461538461538822e+00 4.182407264124989865e-01 5.429467205178046818e-01 -7.281959993598065006e-01
4.209230769230769553e+00 4.207042526965654172e-01 5.518151242441415860e-01 -7.200650186237697037e-01
4.320000000000000284e+00 4.225804292465544787e-01 5.603290969173300162e-01 -7.123499848328471717e-01
