8.000000000000000444e-01 6.453487945909047729e-01 -2.442891947127784069e-01 4.190982517848185762e-01
8.517241379310345195e-01 5.485385600212814294e-01 -3.123593934950161799e-01 4.751833259791127251e-01
9.034482758620689946e-01 4.440959402472641759e-01 -3.606898464528321413e-01 5.219705436288941680e-01
9.551724137931034697e-01 3.373886604593308025e-01 -3.879257422355700813e-01 5.606198622046577595e-01
1.006896551724137945e+00 2.337057762673685757e-01 -3.942550632728820670e-01 5.924069350321135019e-01
1.058620689655172420e+00 1.378631692135790787e-01 -3.813430446348340386e-01 6.186038216631732922e-01
1.110344827586206895e+00 5.383886975048467194e-02 -3.520843928822831037e-01 6.404236418078042004e-01
1.162068965517241370e+00 -1.549498754477534462e-02 -3.102827943320559667e-01 6.589666405398887372e-01
1.213793103448275845e+00 -6.854558787591485958e-02 -2.602235509611983133e-01 6.752027761121980332e-01
1.265517241379310320e+00 -1.049876020744664046e-01 -2.062974361762976439e-01 6.899355609007669088e-01
1.317241379310344795e+00 -1.257123413151084168e-01 -1.526060610557014030e-01 7.038031891710908594e-01
1.368965517241379271e+00 -1.325992567045291004e-01 -1.026290603614051222e-01 7.172876366398962533e-01
1.420689655172413746e+00 -1.282302771412208997e-01 -5.899591170803580864e-02 7.307275495174526680e-01
1.472413793103448221e+00 -1.155805263530422788e-01 -2.338254897065207907e-02 7.443309248307486969e-01
1.524137931034482696e+00 -9.767644373816884718e-02 3.506913913162253670e-03 7.582024635880666441e-01
1.575862068965517171e+00 -7.733096951786525008e-02 2.183639418473479199e-02 7.723589425192785018e-01
1.627586206896551646e+00 -5.691481949482329883e-02 3.243758493672402321e-02 7.867540167793412031e-01
1.679310344827586121e+00 -3.821665806772454876e-02 3.664112937001832299e-02 8.012968618493062634e-01
1.731034482758620596e+00 -2.241044528020868370e-02 3.600098126613134053e-02 8.158675372642590906e-01
1.782758620689655071e+00 -1.006776916599272029e-02 3.210998106521741058e-02 8.303324860721318368e-01
1.834482758620689546e+00 -1.252311971811449764e-03 2.642611122154362585e-02 8.445544874263858359e-01
1.886206896551724022e+00 4.339263108237028169e-03 2.013743024407584070e-02 8.584028098279432584e-01
1.937931034482758497e+00 7.263642705341979977e-03 1.412053478947920826e-02 8.717589983254220298e-01
1.989655172413792972e+00 8.179711890195678556e-03 8.939848616091851385e-03 8.845205850476018927e-01
2.041379310344827225e+00 7.754227681062419823e-03 4.866678138302662007e-03 8.966041125611009521e-01
2.093103448275861922e+00 6.556171509260480534e-03 1.946089052193679739e-03 9.079459899578670168e-01
2.144827586206896619e+00 5.055940283497711504e-03 6.266360118280375410e-05 9.185021532598142135e-01
2.196551724137930872e+00 3.565471877614267895e-03 -9.749169290102000819e-04 9.282474242200993153e-01
2.248275862068965125e+00 2.282491006725853588e-03 -1.393641384580851690e-03 9.371735654315104247e-01
2.299999999999999822e+00 1.284302054598062586e-03 -1.414930875827161020e-03 9.452875226626262783e-01
