0.000000000000000000e+00 -9.674966155666773824e-10 -4.748992642133606025e-09 -1.000000000000000000e+00
7.384615384615383915e-02 -5.976370390912765646e-02 1.457686243836599782e-01 -9.875109539020980876e-01
1.476923076923076783e-01 -1.180608761728253187e-01 2.875533848328920561e-01 -9.504581621046642725e-01
2.215384615384615175e-01 -1.734241676080029437e-01 4.215500509003944352e-01 -8.900637317410405869e-01
2.953846153846153566e-01 -2.244682196097932958e-01 5.442917513243537009e-01 -8.083019685755390427e-01
3.692307692307691958e-01 -2.699128653413087608e-01 6.527965251650857947e-01 -7.078086490851560608e-01
4.430769230769230349e-01 -3.086111761401335030e-01 7.446941527114674386e-01 -5.917576158651751683e-01
5.169230769230768185e-01 -3.395825194231710809e-01 8.183092045644767554e-01 -4.637233644118765041e-01
5.907692307692307132e-01 -3.620464898918891450e-01 8.727215085558629459e-01 -3.275115041750669143e-01
6.646153846153846079e-01 -3.754436161790087878e-01 9.077733504132449172e-01 -1.870107886418037879e-01
7.384615384615383915e-01 -3.794613874735839332e-01 9.240533288904776432e-01 -4.601639885445969053e-02
8.123076923076921751e-01 -3.740526527835361659e-01 9.228321778586006108e-01 9.191556568716018061e-02
8.861538461538460698e-01 -3.594412313626871303e-01 9.059723268394223039e-01 2.236061629920980953e-01
9.599999999999999645e-01 -3.361260676768869082e-01 8.758065188477084373e-01 3.463619812723907065e-01
1.033846153846153637e+00 -3.048670948341271059e-01 8.350041716337659459e-01 4.580497941818794105e-01
1.107692307692307532e+00 -2.666736248221522332e-01 7.864160296403983619e-01 5.571551120544078195e-01
1.181538461538461426e+00 -2.227622672340543730e-01 7.329308093065565188e-01 6.427888842592152097e-01
1.255384615384615321e+00 -1.745242366272454493e-01 6.773170433967958814e-01 7.146834248144594559e-01
1.329230769230769216e+00 -1.234746554855135070e-01 6.221078527971244387e-01 7.731277786994534829e-01
1.403076923076922888e+00 -7.119179869631436786e-02 5.694743586185960771e-01 8.189154489112511204e-01
1.476923076923076783e+00 -1.925351555437682105e-02 5.211493263047405344e-01 8.532440548804602898e-01
1.550769230769230678e+00 3.082404589692039343e-02 4.783772647928685728e-01 8.776095493644818779e-01
1.624615384615384350e+00 7.765131737604585860e-02 4.418808559197452412e-01 8.937032655268223325e-01
1.698461538461538245e+00 1.200275773299174786e-01 4.118764334386392223e-01 9.032969870637761467e-01
1.772307692307692140e+00 1.569882032598191035e-01 3.881165811454154180e-01 9.081380122607110028e-01
1.846153846153846034e+00 1.878413699368362555e-01 3.699449554321466715e-01 9.098630842504892291e-01
1.919999999999999929e+00 2.122019130152972277e-01 3.563895033441021876e-01 9.099183270322122041e-01
1.993846153846153602e+00 2.299987473768639046e-01 3.462548245559230464e-01 9.095068165701337692e-01
2.067692307692307274e+00 2.414628998433126505e-01 3.382415052753179330e-01 9.095508900299535959e-01
2.141538461538461391e+00 2.471142687983601816e-01 3.310263402605050365e-01 9.106868881861207576e-01
2.215384615384615064e+00 2.477160741924092913e-01 3.233889666979762878e-01 9.132638849623614385e-01
2.289230769230769180e+00 2.442258462537438835e-01 3.142809252851280766e-01 9.173745081604914864e-01
2.363076923076922853e+00 2.377372035411949580e-01 3.029015414786617177e-01 9.228903652424322868e-01
2.436923076923076525e+00 2.294064578204130234e-01 2.887368273790325013e-01 9.295154167151347124e-01
2.510769230769230642e+00 2.203812446811607983e-01 2.715846850378293986e-01 9.368400804773039381e-01
2.584615384615384315e+00 2.117372772990973040e-01 2.515569244623538370e-01 9.443951582939912326e-01
2.658461538461538431e+00 2.044091944627393631e-01 2.290436685605372613e-01 9.517100259673381135e-01
2.732307692307692104e+00 1.991428802525747610e-01 2.046845446641841759e-01 9.583541840395369826e-01
2.806153846153845777e+00 1.964540185856236409e-01 1.792876527366119022e-01 9.639805077400677158e-01
2.879999999999999893e+00 1.966057352808429914e-01 1.537767919373059233e-01 9.683469258761352449e-01
