0.000000000000000000e+00 -9.457505815103516294e-10 -2.870046443547050858e-09 -1.000000000000000000e+00
7.384615384615383915e-02 -9.604394057106533517e-03 -6.947190031874167157e-03 -9.999296238537129788e-01
1.476923076923076783e-01 -1.909883336657181713e-02 -1.389710445669642414e-02 -9.997207913027429393e-01
2.215384615384615175e-01 -2.838700667760801072e-02 -2.080169349033995918e-02 -9.993802225384861293e-01
2.953846153846153566e-01 -3.736936716183224955e-02 -2.764402597238557052e-02 -9.989186725778261833e-01
3.692307692307691958e-01 -4.594977603481152639e-02 -3.441022439427873086e-02 -9.983504157355320707e-01
4.430769230769230349e-01 -5.403724573352687577e-02 -4.109519861582972000e-02 -9.976923314168246737e-01
5.169230769230768185e-01 -6.154831539120933503e-02 -4.769948131157995819e-02 -9.969630030080895988e-01
5.907692307692307132e-01 -6.840676182282473539e-02 -5.423353628664982079e-02 -9.961815847477649699e-01
6.646153846153846079e-01 -7.454562058277357239e-02 -6.071693373548905925e-02 -9.953666514276722221e-01
7.384615384615383915e-01 -7.990870600117416789e-02 -6.717647635703774545e-02 -9.945351428478925726e-01
8.123076923076921751e-01 -8.445193305155407337e-02 -7.365030363565061577e-02 -9.937009650336143807e-01
8.861538461538460698e-01 -8.814277330117353815e-02 -8.018107109991924608e-02 -9.928745309167856803e-01
9.599999999999999645e-01 -9.096389037577130854e-02 -8.682033843044661969e-02 -9.920613267649409650e-01
1.033846153846153637e+00 -9.291102301471054759e-02 -9.362476453832214995e-02 -9.912616801488021157e-01
1.107692307692307532e+00 -9.399599943923020451e-02 -1.006529180442271854e-01 -9.904703011897409981e-01
1.181538461538461426e+00 -9.424568205746991501e-02 -1.079646364104878409e-01 -9.896761942403449197e-01
1.255384615384615321e+00 -9.370203492774056842e-02 -1.156211544723707713e-01 -9.888625609525533156e-01
1.329230769230769216e+00 -9.242432145820497769e-02 -1.236755771964133666e-01 -9.880078383913936113e-01
1.403076923076922888e+00 -9.048296145037892924e-02 -1.321782716115788570e-01 -9.870861316087397030e-01
1.476923076923076783e+00 -8.796475275496259960e-02 -1.411709105831219224e-01 -9.860680318863783711e-01
1.550769230769230678e+00 -8.496745304449410119e-02 -1.506824191537751156e-01 -9.849225414924037691e-01
1.624615384615384350e+00 -8.159758637695894989e-02 -1.607298399468806704e-01 -9.836181666555890990e-01
1.698461538461538245e+00 -7.797216546573346174e-02 -1.713165925874719497e-01 -9.821241123437839393e-01
1.772307692307692140e+00 -7.421237422242406290e-02 -1.824291492134757775e-01 -9.804125560936527428e-01
1.846153846153846034e+00 -7.044232670931643847e-02 -1.940348271497883137e-01 -9.784604474320321987e-01
1.919999999999999929e+00 -6.678546474907721964e-02 -2.060879902447645406e-01 -9.762498354741369067e-01
1.993846153846153602e+00 -6.336470682885708694e-02 -2.185203195547001376e-01 -9.737709617929312111e-01
2.067692307692307274e+00 -6.029040035264060515e-02 -2.312516571780340313e-01 -9.710219515094816733e-01
2.141538461538461391e+00 -5.766815606226775859e-02 -2.441806602539296489e-01 -9.680112914964391635e-01
2.215384615384615064e+00 -5.558606910851309618e-02 -2.571994018670330506e-01 -9.647559789986348555e-01
2.289230769230769180e+00 -5.411769207570267526e-02 -2.701810874901015014e-01 -9.612849014632606215e-01
2.363076923076922853e+00 -5.331631127942866588e-02 -2.829925201397703316e-01 -9.576364516398599980e-01
2.436923076923076525e+00 -5.321451070352750667e-02 -2.954971502435621011e-01 -9.538576312399676960e-01
2.510769230769230642e+00 -5.382007168397223706e-02 -3.075534665878975060e-01 -9.500046110759473583e-01
2.584615384615384315e+00 -5.511730942977352554e-02 -3.190215003667500882e-01 -9.461403875006387798e-01
2.658461538461538431e+00 -5.706409227481742952e-02 -3.297685572871664195e-01 -9.423324453121093569e-01
2.732307692307692104e+00 -5.959024625024778032e-02 -3.396682237344648136e-01 -9.386524088116838804e-01
2.806153846153845777e+00 -6.260714389050488216e-02 -3.486119057736254412e-01 -9.351704326536789402e-01
2.879999999999999893e+00 -6.599739042214458618e-02 -3.565015529459312216e-01 -9.319573326978006778e-01
