0.000000000000000000e+00 -4.390786626630256823e-09 -5.161825427988409930e-10 -1.000000000000000000e+00
7.384615384615383915e-02 -2.566229146273078451e-03 1.900655756445836925e-02 -9.998159268538425737e-01
1.476923076923076783e-01 -5.412077421266404953e-03 3.796478678270101548e-02 -9.992641610378112382e-01
2.215384615384615175e-01 -8.777061860477136657e-03 5.680909048906406661e-02 -9.983460984388984327e-01
2.953846153846153566e-01 -1.291345957460401581e-02 7.546855704306806856e-02 -9.970640634556791060e-01
3.692307692307691958e-01 -1.806813720145128421e-02 9.385615285209150671e-02 -9.954211866664457453e-01
4.430769230769230349e-01 -2.447684125075989814e-02 1.118626407031748926e-01 -9.934214454996235233e-01
5.169230769230768185e-01 -3.236219888078162299e-02 1.293494229595125444e-01 -9.910699842031645002e-01
5.907692307692307132e-01 -4.192749404580321804e-02 1.461528190995963206e-01 -9.883721467684037920e-01
6.646153846153846079e-01 -5.335155852532749710e-02 1.620710902886185467e-01 -9.853346568776981673e-01
7.384615384615383915e-01 -6.678530940780899594e-02 1.768719101962381302e-01 -9.819641661740069472e-01
8.123076923076921751e-01 -8.234073908369568540e-02 1.902800065507199156e-01 -9.782693150475085808e-01
8.861538461538460698e-01 -1.000924612196375935e-01 2.019909480451174411e-01 -9.742577900671808289e-01
9.599999999999999645e-01 -1.200535988386754738e-01 2.116649438211669620e-01 -9.699391336004435926e-01
1.033846153846153637e+00 -1.421908458509276996e-01 2.189304022332657917e-01 -9.653226541521581217e-01
1.107692307692307532e+00 -1.663952496732821196e-01 2.233973866011285669e-01 -9.604179064995131965e-01
1.181538461538461426e+00 -1.924843286996930081e-01 2.246563217633107956e-01 -9.552357784966726273e-01
1.255384615384615321e+00 -2.201896164883826723e-01 2.222955663957538741e-01 -9.497878929534607773e-01
1.329230769230769216e+00 -2.491666131907805115e-01 2.159129491693340674e-01 -9.440832440587946239e-01
1.403076923076922888e+00 -2.789669294672673105e-01 2.051236562527976037e-01 -9.381348859205671520e-01
1.476923076923076783e+00 -3.090554638990619662e-01 1.895867018715359509e-01 -9.319531479694247444e-01
1.550769230769230678e+00 -3.387985294337700903e-01 1.690180377659479261e-01 -9.255502475649733940e-01
1.624615384615384350e+00 -3.674752863158294303e-01 1.432092012891688637e-01 -9.189383270631660272e-01
1.698461538461538245e+00 -3.942875480552170409e-01 1.120491365602192535e-01 -9.121275276602552884e-01
1.772307692307692140e+00 -4.183600814181770433e-01 7.555019539590340782e-02 -9.051304232191088595e-01
1.846153846153846034e+00 -4.387690452038017774e-01 3.385268309470526593e-02 -8.979585375586702778e-01
1.919999999999999929e+00 -4.545566369913577320e-01 -1.274394709474763188e-02 -8.906230628296393226e-01
1.993846153846153602e+00 -4.647596716099416381e-01 -6.376607906877070076e-02 -8.831340016236072232e-01
2.067692307692307274e+00 -4.684330141066304631e-01 -1.185597629273161674e-01 -8.755039497620589195e-01
2.141538461538461391e+00 -4.646890542883411190e-01 -1.762884747236652672e-01 -8.677438028719967056e-01
2.215384615384615064e+00 -4.527355875282217945e-01 -2.359220712561566624e-01 -8.598627117679158438e-01
2.289230769230769180e+00 -4.319164395477115836e-01 -2.962474215242426601e-01 -8.518673871169112344e-01
2.363076923076922853e+00 -4.017316303751556350e-01 -3.558774857868556296e-01 -8.437742889588010220e-01
2.436923076923076525e+00 -3.619061247767932366e-01 -4.132926732894683375e-01 -8.355866356331607125e-01
2.510769230769230642e+00 -3.124047925664902303e-01 -4.668376117407118109e-01 -8.273195340675900677e-01
2.584615384615384315e+00 -2.534784064955351024e-01 -5.147971522375029974e-01 -8.189774680512494909e-01
2.658461538461538431e+00 -1.856825017136607414e-01 -5.554221833574686240e-01 -8.105673656332929022e-01
2.732307692307692104e+00 -1.099094281926262240e-01 -5.869780909785766720e-01 -8.021020478496155848e-01
2.806153846153845777e+00 -2.737267719862862547e-02 -6.078326873662224239e-01 -7.935874034251831910e-01
2.879999999999999893e+00 6.036310802948174903e-02 -6.165014258122336610e-01 -7.850304911308011446e-01
