0.000000000000000000e+00 2.414143260354382137e-14 -1.100053931672694408e-13 -1.000000000000000000e+00
7.384615384615383915e-02 1.504477674136233539e-03 -6.826607368285509021e-03 -9.999755666904576179e-01
1.476923076923076783e-01 3.019155156903687888e-03 -1.353261181614056827e-02 -9.999038719359214511e-01
2.215384615384615175e-01 4.552532526471910097e-03 -1.999790794353753509e-02 -9.997896569496080854e-01
2.953846153846153566e-01 6.110217018439481965e-03 -2.610663078218673772e-02 -9.996404899030082447e-01
3.692307692307691958e-01 7.689680487533755507e-03 -3.174471557528740079e-02 -9.994664285698816597e-01
4.430769230769230349e-01 9.284784150016645726e-03 -3.680532660408807055e-02 -9.992793206606404022e-01
5.169230769230768185e-01 1.087926031251269104e-02 -4.118790953457820980e-02 -9.990921868081142909e-01
5.907692307692307132e-01 1.244708663423405026e-02 -4.479858047280765865e-02 -9.989184937438685408e-01
6.646153846153846079e-01 1.395150804777355383e-02 -4.755440505035816307e-02 -9.987712120186899023e-01
7.384615384615383915e-01 1.534863688767134499e-02 -4.938592900481212494e-02 -9.986618292924609452e-01
8.123076923076921751e-01 1.658106687789742684e-02 -5.023133478185073941e-02 -9.985999605572254412e-01
8.861538461538460698e-01 1.758274234912824210e-02 -5.004687379473302111e-02 -9.985920877041766230e-01
9.599999999999999645e-01 1.827849422114047329e-02 -4.880316713416540941e-02 -9.986411504656591553e-01
1.033846153846153637e+00 1.858372774974075339e-02 -4.648490077051704167e-02 -9.987461133479460518e-01
1.107692307692307532e+00 1.840820242253599776e-02 -4.310184903417300234e-02 -9.989010805000132498e-01
1.181538461538461426e+00 1.765897094999105063e-02 -3.867503521446343656e-02 -9.990957923991055090e-01
1.255384615384615321e+00 1.623997562805262057e-02 -3.324982698694121941e-02 -9.993151215854167990e-01
1.329230769230769216e+00 1.405597536267816361e-02 -2.688995192407274068e-02 -9.995395740333081758e-01
1.403076923076922888e+00 1.101383906698466877e-02 -1.968035852702779837e-02 -9.997456570510457885e-01
1.476923076923076783e+00 7.027581238543001950e-03 -1.172450844750805819e-02 -9.999065701171838683e-01
1.550769230769230678e+00 2.020644338007255257e-03 -3.145867566318790581e-03 -9.999930102233286489e-01
1.624615384615384350e+00 -4.069985219930611839e-03 5.912016380952452715e-03 -9.999742412584666784e-01
1.698461538461538245e+00 -1.129613392902947475e-02 1.529295646576452235e-02 -9.998192450513503360e-01
1.772307692307692140e+00 -1.968585865702454640e-02 2.482367705867539326e-02 -9.994979999914117563e-01
1.846153846153846034e+00 -2.925063951259803882e-02 3.432044747024735887e-02 -9.989827360810191736e-01
1.919999999999999929e+00 -3.997778432076477817e-02 4.359012153872487971e-02 -9.982493065661507403e-01
1.993846153846153602e+00 -5.182850732227484158e-02 5.243555267252725943e-02 -9.972784558871086169e-01
2.067692307692307274e+00 -6.473928851200387580e-02 6.065427352619040535e-02 -9.960571688436790083e-01
2.141538461538461391e+00 -7.861860763636560612e-02 6.805151864204254941e-02 -9.945793610045015054e-01
2.215384615384615064e+00 -9.334992851029669247e-02 7.443766628308791378e-02 -9.928468285119267378e-01
2.289230769230769180e+00 -1.087868080100311691e-01 7.963546701304009823e-02 -9.908701341426050524e-01
2.363076923076922853e+00 -1.247585077502981754e-01 8.348180688926334914e-02 -9.886688537566283852e-01
2.436923076923076525e+00 -1.410710605788424998e-01 8.583645999142180960e-02 -9.862712903966706079e-01
2.510769230769230642e+00 -1.575061972624884898e-01 8.658231790089410129e-02 -9.837150502003304542e-01
2.584615384615384315e+00 -1.738294196875777575e-01 8.563478590668012480e-02 -9.810453690051270659e-01
2.658461538461538431e+00 -1.897933762505795707e-01 8.294073264503973308e-02 -9.783145248359907953e-01
2.732307692307692104e+00 -2.051363655971770728e-01 7.848169801049337257e-02 -9.755817211617191509e-01
2.806153846153845777e+00 -2.195943233909774528e-01 7.227943601401314033e-02 -9.729100763090886561e-01
2.879999999999999893e+00 -2.329041044547841555e-01 6.439655117227030545e-02 -9.703652726325245892e-01
