0.000000000000000000e+00 -2.254413379836923447e-09 -2.023521938299888673e-09 -1.000000000000000000e+00
7.384615384615383915e-02 -1.097190394621838996e-02 1.648729530103811014e-01 -9.862523255941686440e-01
1.476923076923076783e-01 -2.214237686120568843e-02 3.250187073634071555e-01 -9.454451922999587143e-01
2.215384615384615175e-01 -3.360977158512375162e-02 4.758684127429427257e-01 -8.788688005474921683e-01
2.953846153846153566e-01 -4.541624822342021917e-02 6.131961811562065545e-01 -7.886159557938968723e-01
3.692307692307691958e-01 -5.748267454631908469e-02 7.332639534461595776e-01 -6.774981498454891726e-01
4.430769230769230349e-01 -6.958748669188608016e-02 8.329495584255521834e-01 -5.489386923845080979e-01
5.169230769230768185e-01 -8.134925618659810675e-02 9.098634806775314221e-01 -4.068284572478256811e-01
5.907692307692307132e-01 -9.222791670311369927e-02 9.624181531706137438e-01 -2.553864284888009428e-01
6.646153846153846079e-01 -1.015403959836438108e-01 9.898823918656809440e-01 -9.898672945635431097e-02
7.384615384615383915e-01 -1.084768467517422119e-01 9.923935152829660433e-01 5.799782744957909103e-02
8.123076923076921751e-01 -1.121530369303132824e-01 9.709379384719347694e-01 2.113711957898243565e-01
8.861538461538460698e-01 -1.116468038098926141e-01 9.273019051873020446e-01 3.572452463368571696e-01
9.599999999999999645e-01 -1.060612141077634796e-01 8.639843690113859775e-01 4.922012217707646409e-01
1.033846153846153637e+00 -9.458016435616817263e-02 7.840965494200121677e-01 6.133756171608362173e-01
1.107692307692307532e+00 -7.653225854259539107e-02 6.912209189706198798e-01 7.185691432394478717e-01
1.181538461538461426e+00 -5.144977728285787810e-02 5.892694585551141451e-01 8.062892520838795818e-01
1.255384615384615321e+00 -1.911520285299304900e-02 4.823259163658481508e-01 8.757778942245560971e-01
1.329230769230769216e+00 2.039449057688014211e-02 3.744797759764267875e-01 9.270070028091232928e-01
1.403076923076922888e+00 6.667911507279766781e-02 2.696662123494485419e-01 9.606399179094383678e-01
1.476923076923076783e+00 1.190080960950860162e-01 1.715193206959108319e-01 9.779644831112578318e-01
1.550769230769230678e+00 1.763230945558239005e-01 8.324019575269785143e-02 9.808046818250752974e-01
1.624615384615384350e+00 2.372755352213034852e-01 7.470420978604702666e-03 9.714115076148777117e-01
1.698461538461538245e+00 3.002529788941182276e-01 -5.379320864131517665e-02 9.523386590232170157e-01
1.772307692307692140e+00 3.634288316621370196e-01 -9.926850846867202316e-02 9.263143297593324776e-01
1.846153846153846034e+00 4.248540122620670378e-01 -1.283978519757610626e-01 8.961052189413851732e-01
1.919999999999999929e+00 4.825239030731077738e-01 -1.413674610978288837e-01 8.643934583922987525e-01
1.993846153846153602e+00 5.344792980693432449e-01 -1.390637846265284638e-01 8.336558429209066645e-01
2.067692307692307274e+00 5.788930559260045960e-01 -1.230232583432565030e-01 8.060620470214479028e-01
2.141538461538461391e+00 6.141552324215436842e-01 -9.533511003858541333e-02 7.833975511897369737e-01
2.215384615384615064e+00 6.389653734292108922e-01 -5.853844648548485463e-02 7.669961642915024136e-01
2.289230769230769180e+00 6.523928680594427432e-01 -1.549428478327179864e-02 7.577135308816665971e-01
2.363076923076922853e+00 6.539381631682292806e-01 3.074975082720154268e-02 7.559137606331589598e-01
2.436923076923076525e+00 6.435699720805007074e-01 7.710988157181007663e-02 7.614842045845724439e-01
2.510769230769230642e+00 6.217376442011643967e-01 1.205974211824320519e-01 7.738768635146948682e-01
2.584615384615384315e+00 5.893650428100480898e-01 1.584626739242847582e-01 7.921652999835658848e-01
2.658461538461538431e+00 5.478217943134463530e-01 1.883092637427444815e-01 8.151190935721118747e-01
2.732307692307692104e+00 4.988699406724940166e-01 2.082015829215000391e-01 8.412907273910418260e-01
2.806153846153845777e+00 4.445907655767737943e-01 2.167474773192318849e-01 8.691086863453554301e-01
2.879999999999999893e+00 3.873000683435711688e-01 2.131380966760917928e-01 8.969739928593397638e-01
