0.000000000000000000e+00 -8.460091898399557176e-10 -2.232754793231581039e-09 -1.000000000000000000e+00
7.384615384615383915e-02 -3.234309750301561648e-02 9.732909904108913435e-02 -9.947262609715199488e-01
1.476923076923076783e-01 -6.412899476417499578e-02 1.934377902323329013e-01 -9.790137982157294250e-01
2.215384615384615175e-01 -9.479796726719080802e-02 2.871410692530553810e-01 -9.531848694002836853e-01
2.953846153846153566e-01 -1.238352577153414846e-01 3.773233246349858572e-01 -9.177631847663899611e-01
3.692307692307691958e-01 -1.507705388736645669e-01 4.629742944869170151e-01 -8.734527098121611655e-01
4.430769230769230349e-01 -1.752003336737965600e-01 5.432075411586854141e-01 -8.211128203825163174e-01
5.169230769230768185e-01 -1.967837972053486095e-01 6.172827713693088691e-01 -7.617304344198284616e-01
5.907692307692307132e-01 -2.152666076305890241e-01 6.846293442553285091e-01 -6.963744631287243081e-01
6.646153846153846079e-01 -2.304714363042115188e-01 7.448369415743939514e-01 -6.261746239673517955e-01
7.384615384615383915e-01 -2.423032032049352857e-01 7.976704116462434158e-01 -5.522719362755522665e-01
8.123076923076921751e-01 -2.507484186990716624e-01 8.430494370919248137e-01 -4.757999475421502145e-01
8.861538461538460698e-01 -2.558679471870440869e-01 8.810491198238842303e-01 -3.978395816199172819e-01
9.599999999999999645e-01 -2.577875382235644275e-01 9.118790794349500572e-01 -3.193963895894976757e-01
1.033846153846153637e+00 -2.566895695402020006e-01 9.358584484082583810e-01 -2.413940681836218294e-01
1.107692307692307532e+00 -2.528069783133527482e-01 9.534022824477768054e-01 -1.646335173221840087e-01
1.181538461538461426e+00 -2.464037716471937367e-01 9.649927580085753132e-01 -8.980821155515564258e-02
1.255384615384615321e+00 -2.377689545019116280e-01 9.711599405765629633e-01 -1.748147027826324820e-02
1.329230769230769216e+00 -2.272032282054697594e-01 9.724594486204946042e-01 5.189057657910239180e-02
1.403076923076922888e+00 -2.150106380345203350e-01 9.694544642442141091e-01 1.179824392139554035e-01
1.476923076923076783e+00 -2.014857252228290929e-01 9.627001018240549657e-01 1.805644441228779207e-01
1.550769230769230678e+00 -1.869158945000814753e-01 9.527287043989111082e-01 2.395039132260735892e-01
1.624615384615384350e+00 -1.715607196211924035e-01 9.400429277807724748e-01 2.947508313014131076e-01
1.698461538461538245e+00 -1.556639351315322051e-01 9.251035950928276907e-01 3.463294919899567170e-01
1.772307692307692140e+00 -1.394359748311863045e-01 9.083332712935848763e-01 3.943102045290421964e-01
1.846153846153846034e+00 -1.230679835977176451e-01 8.901062646868042050e-01 4.388138595986175172e-01
1.919999999999999929e+00 -1.067198308049142896e-01 8.707557186906100810e-01 4.799876038341604478e-01
1.993846153846153602e+00 -9.052685183127390234e-02 8.505700176955846015e-01 5.180043660901798575e-01
2.067692307692307274e+00 -7.460402507951971462e-02 8.297980332215461052e-01 5.530485538567099235e-01
2.141538461538461391e+00 -5.903789094760061168e-02 8.086527678281225651e-01 5.853107681904271553e-01
2.215384615384615064e+00 -4.390210136655781081e-02 7.873100348839044971e-01 6.149871871036184379e-01
2.289230769230769180e+00 -2.925008731804341899e-02 7.659243182584833942e-01 6.422603080577676815e-01
2.363076923076922853e+00 -1.512328018300140853e-02 7.446165327196880845e-01 6.673167706095286533e-01
2.436923076923076525e+00 -1.550334353025983880e-03 7.234816062303718320e-01 6.903378540508946504e-01
2.510769230769230642e+00 1.145147496264570242e-02 7.026069227767846037e-01 7.114822428466619497e-01
2.584615384615384315e+00 2.387301846424794149e-02 6.820576178647416166e-01 7.309051172273698382e-01
2.658461538461538431e+00 3.570897329479316706e-02 6.618804868042816869e-01 7.487550263016800045e-01
2.732307692307692104e+00 4.696446357724104459e-02 6.421099817856537051e-01 7.651694540569689007e-01
2.806153846153845777e+00 5.764661172834661951e-02 6.227796350525998115e-01 7.802677431947732112e-01
2.879999999999999893e+00 6.776421636478718868e-02 6.039006333974180629e-01 7.941709846347778656e-01
