0.000000000000000000e+00 2.144565702148796487e-09 3.614973029344315055e-09 -1.000000000000000000e+00
7.384615384615383915e-02 1.626582498477211272e-02 -4.015975872119117301e-02 -9.990606191653748080e-01
1.476923076923076783e-01 3.320212510373858616e-02 -7.988484960979176652e-02 -9.962505102274790136e-01
2.215384615384615175e-01 5.142722008157129404e-02 -1.187258542259344019e-01 -9.915936688429728418e-01
2.953846153846153566e-01 7.153968693303752735e-02 -1.562059888839041621e-01 -9.851293780687565560e-01
3.692307692307691958e-01 9.408421222864118971e-02 -1.918096618247494001e-01 -9.769108801114947394e-01
4.430769230769230349e-01 1.195315590911602832e-01 -2.249680230344860976e-01 -9.670050425007327144e-01
5.169230769230768185e-01 1.482544633796363254e-01 -2.550593545430202003e-01 -9.554904559080927839e-01
5.907692307692307132e-01 1.805176731578554683e-01 -2.814053111165452647e-01 -9.424545448382919410e-01
6.646153846153846079e-01 2.164428445781551025e-01 -3.032719064063820746e-01 -9.279947776800407944e-01
7.384615384615383915e-01 2.560026875449127326e-01 -3.198830480655358022e-01 -9.122130280472139363e-01
8.123076923076921751e-01 2.989945542336175377e-01 -3.304329052761877383e-01 -8.952156089420240104e-01
8.861538461538460698e-01 3.450231920829276433e-01 -3.341041914507004718e-01 -8.771131893078607522e-01
9.599999999999999645e-01 3.934958914629097526e-01 -3.301011752371058039e-01 -8.580138988217240748e-01
1.033846153846153637e+00 4.436034462996120142e-01 -3.176740298134187457e-01 -8.380288393310680872e-01
1.107692307692307532e+00 4.943214444055981649e-01 -2.961717836098321510e-01 -8.172645076107383222e-01
1.181538461538461426e+00 5.444234805253352905e-01 -2.650604154813179791e-01 -7.958254991896400732e-01
1.255384615384615321e+00 5.924800502689397952e-01 -2.239954258656992880e-01 -7.738120753174625444e-01
1.329230769230769216e+00 6.368941254894545656e-01 -1.728482962924616506e-01 -7.513192488742693742e-01
1.403076923076922888e+00 6.759224686089988499e-01 -1.117616178971783392e-01 -7.284429844963364875e-01
1.476923076923076783e+00 7.077453272124618611e-01 -4.118172854446439102e-02 -7.052596255373859702e-01
1.550769230769230678e+00 7.304928233640179958e-01 3.809729225960334364e-02 -6.818496000690156267e-01
1.624615384615384350e+00 7.423228150242379142e-01 1.248994321891306325e-01 -6.582907010610037357e-01
1.698461538461538245e+00 7.415027215564560237e-01 2.176761244833507747e-01 -6.346496145398212718e-01
1.772307692307692140e+00 7.264865657143756428e-01 3.144851240902021838e-01 -6.109871832432469674e-01
1.846153846153846034e+00 6.960019279210265530e-01 4.130134337464614336e-01 -5.873583506484139072e-01
1.919999999999999929e+00 6.491392585232070855e-01 5.106029180130418066e-01 -5.638184666386355515e-01
1.993846153846153602e+00 5.854343136935491465e-01 6.043322901237176970e-01 -5.404046473662472705e-01
2.067692307692307274e+00 5.049476263534456999e-01 6.910517588196538608e-01 -5.171684235151946529e-01
2.141538461538461391e+00 4.083339988078041327e-01 7.675164156230561696e-01 -4.941349930742570673e-01
2.215384615384615064e+00 2.968832217184660394e-01 8.304724597028141364e-01 -4.713417727036987581e-01
2.289230769230769180e+00 1.725504384688006931e-01 8.767995040231990611e-01 -4.488161421710401555e-01
2.363076923076922853e+00 3.795640572787950529e-02 9.036480640274369147e-01 -4.265750245105446314e-01
2.436923076923076525e+00 -1.036330867712791926e-01 9.085743754234382186e-01 -4.046472101859509007e-01
2.510769230769230642e+00 -2.483860769819562497e-01 8.897009698527184041e-01 -3.830443406036432297e-01
2.584615384615384315e+00 -3.919862807542540684e-01 8.458428548815868364e-01 -3.617773758421188868e-01
2.658461538461538431e+00 -5.297615815880786228e-01 7.766314494348907083e-01 -3.408552553728312340e-01
2.732307692307692104e+00 -6.568432890703330695e-01 6.826080010055119995e-01 -3.202955041205237663e-01
2.806153846153845777e+00 -7.683460703660578428e-01 5.653079308159072447e-01 -3.000951929401831086e-01
2.879999999999999893e+00 -8.595829746294975093e-01 4.272651464880324879e-01 -2.802629081350271334e-01
