0.000000000000000000e+00 -2.028813997516069038e-09 1.403126626427559729e-09 -1.000000000000000000e+00
7.384615384615383915e-02 1.982019287304254140e-02 3.853753149953480922e-02 -9.990604136771705779e-01
1.476923076923076783e-01 3.888706527932382639e-02 7.732072701817058191e-02 -9.962473133628745314e-01
2.215384615384615175e-01 5.646301740477620984e-02 1.165550813950973347e-01 -9.915775102178346900e-01
2.953846153846153566e-01 7.179386216395602927e-02 1.564098517488540785e-01 -9.850788956466015600e-01
3.692307692307691958e-01 8.412791268530846189e-02 1.969848847905928679e-01 -9.767896271415137388e-01
4.430769230769230349e-01 9.271660841038682765e-02 2.382894414316056864e-01 -9.667574561732171778e-01
5.169230769230768185e-01 9.681668281851464608e-02 2.802167796675695266e-01 -9.550408298824829556e-01
5.907692307692307132e-01 9.571015400186161370e-02 3.225363968919745528e-01 -9.417045302935896922e-01
6.646153846153846079e-01 8.870645196568899271e-02 3.648726328050973522e-01 -9.268205692606155122e-01
7.384615384615383915e-01 7.517780198594228858e-02 4.066754618329507798e-01 -9.104725583977212322e-01
8.123076923076921751e-01 5.458044514979500800e-02 4.472464191615569407e-01 -8.927419454331483317e-01
8.861538461538460698e-01 2.647607376668281720e-02 4.857029931860820104e-01 -8.737207230514038026e-01
9.599999999999999645e-01 -9.420065419241813176e-03 5.210050585710835902e-01 -8.534992212883467655e-01
1.033846153846153637e+00 -5.320851374937909939e-02 5.519494774325638398e-01 -8.321755952903769904e-01
1.107692307692307532e+00 -1.047708989865252932e-01 5.772083797260746385e-01 -8.098449219278892608e-01
1.181538461538461426e+00 -1.637221796411029440e-01 5.953490979289852714e-01 -7.866062881781399341e-01
1.255384615384615321e+00 -2.293800522219814342e-01 6.048910145664107008e-01 -7.625524807652152015e-01
1.329230769230769216e+00 -3.007412828998524690e-01 6.043393481957120006e-01 -7.377825208592572181e-01
1.403076923076922888e+00 -3.764455082424327248e-01 5.922739402172395584e-01 -7.123864341494259289e-01
1.476923076923076783e+00 -4.547771979878973969e-01 5.674058021566851240e-01 -6.864562241840305168e-01
1.550769230769230678e+00 -5.336636877504739029e-01 5.286667005316312284e-01 -6.600819220430562684e-01
1.624615384615384350e+00 -6.107031852196996846e-01 4.753087707612294044e-01 -6.333375491583324024e-01
1.698461538461538245e+00 -6.831917154450202201e-01 4.069673747204898273e-01 -6.063164664840056117e-01
1.772307692307692140e+00 -7.482148433276734067e-01 3.237767304778566002e-01 -5.790820747280723824e-01
1.846153846153846034e+00 -8.027041524431581809e-01 2.264269243534152709e-01 -5.517150124167184977e-01
1.919999999999999929e+00 -8.435735800983417132e-01 1.162444723840365124e-01 -5.242739891870795699e-01
1.993846153846153602e+00 -8.678350259178519988e-01 -4.790036582603240944e-03 -4.968214700510291126e-01
2.067692307692307274e+00 -8.727449796569335394e-01 -1.339914690286741483e-01 -4.694191871064221644e-01
2.141538461538461391e+00 -8.559735021289109902e-01 -2.680078764003210878e-01 -4.421232003848421521e-01
2.215384615384615064e+00 -8.157686654457109166e-01 -4.028728715818972739e-01 -4.149777934868664753e-01
2.289230769230769180e+00 -7.511175267502155917e-01 -5.340893729098714626e-01 -3.880238517643486151e-01
2.363076923076922853e+00 -6.618892357103086654e-01 -6.567785508203213274e-01 -3.612974753336550826e-01
2.436923076923076525e+00 -5.489735654374802154e-01 -7.658316646563696484e-01 -3.348449103290971895e-01
2.510769230769230642e+00 -4.143554747061177768e-01 -8.561574546180521494e-01 -3.086989806140301718e-01
2.584615384615384315e+00 -2.611852570099048587e-01 -9.229085508822008066e-01 -2.828659263287308101e-01
2.658461538461538431e+00 -9.373138278118009481e-02 -9.617454619161787122e-01 -2.573926925700982249e-01
2.732307692307692104e+00 8.265900684547849986e-02 -9.691243457230284131e-01 -2.322849938933079506e-01
2.806153846153845777e+00 2.617207434442831993e-01 -9.425525213254294377e-01 -2.075758488591873674e-01
2.879999999999999893e+00 4.364750315402147196e-01 -8.808474659959315556e-01 -1.832701360096731513e-01
