0.000000000000000000e+00 -3.990652332786344602e-13 3.075034472545236047e-13 -1.000000000000000000e+00
7.384615384615383915e-02 1.515565637074879797e-02 -1.170564477587036217e-02 -9.998166251597437881e-01
1.476923076923076783e-01 3.004723528424862317e-02 -2.336900892898829268e-02 -9.992752639171731399e-01
2.215384615384615175e-01 4.441487771906442450e-02 -3.494449872047310918e-02 -9.984018232571069129e-01
2.953846153846153566e-01 5.801070797834925047e-02 -4.637866895806155854e-02 -9.972380742964425115e-01
3.692307692307691958e-01 7.059593734575117518e-02 -5.760624283810633628e-02 -9.958402153085083031e-01
4.430769230769230349e-01 8.195346063320439745e-02 -6.854828566085630071e-02 -9.942759992839407257e-01
5.169230769230768185e-01 9.188704028526911705e-02 -7.910943982577667288e-02 -9.926220167962196417e-01
5.907692307692307132e-01 1.002260409791920076e-01 -8.917590433627384239e-02 -9.909603416844494639e-01
6.646153846153846079e-01 1.068308594535420653e-01 -9.861554888351088677e-02 -9.893746211556265768e-01
7.384615384615383915e-01 1.115942015054843806e-01 -1.072786080521088148e-01 -9.879463722606157683e-01
8.123076923076921751e-01 1.144453701035424709e-01 -1.149997705658878933e-01 -9.867508854477030633e-01
8.861538461538460698e-01 1.153523847773154920e-01 -1.215936021286270208e-01 -9.858543621597760653e-01
9.599999999999999645e-01 1.143225738994256419e-01 -1.268735511206401378e-01 -9.853088100274188799e-01
1.033846153846153637e+00 1.114060435640162883e-01 -1.306379599123150825e-01 -9.851509614242004442e-01
1.107692307692307532e+00 1.066946430169367632e-01 -1.326882905098978882e-01 -9.853984324515343562e-01
1.181538461538461426e+00 1.003240479422044390e-01 -1.328265849105869090e-01 -9.860487734987789521e-01
1.255384615384615321e+00 9.246739378918762686e-02 -1.308681432382864107e-01 -9.870781682966102144e-01
1.329230769230769216e+00 8.334148434727667309e-02 -1.266438458476848161e-01 -9.884409608785819090e-01
1.403076923076922888e+00 7.319713842418038019e-02 -1.200101907266424572e-01 -9.900705697753086065e-01
1.476923076923076783e+00 6.231868663515795215e-02 -1.108522174879912198e-01 -9.918811255837235441e-01
1.550769230769230678e+00 5.102045878261605993e-02 -9.909140584614854752e-02 -9.937694933929348551e-01
1.624615384615384350e+00 3.964078114693356247e-02 -8.469442705370332225e-02 -9.956181308429558063e-01
1.698461538461538245e+00 2.853244412844242045e-02 -6.767304093235752827e-02 -9.972994831645674019e-01
1.772307692307692140e+00 1.806322165183870537e-02 -4.809303756849652584e-02 -9.986795179904514042e-01
1.846153846153846034e+00 8.600422957374811300e-03 -2.607433259436999634e-02 -9.996230098035411293e-01
1.919999999999999929e+00 5.102748379727489302e-04 -1.792010091001192606e-03 -9.999982642291752599e-01
1.993846153846153602e+00 -5.859460097360883607e-03 2.451893680061305314e-02 -9.996821937485409482e-01
2.067692307692307274e+00 -1.017636932293662470e-02 5.256807933302460462e-02 -9.985654903456636644e-01
2.141538461538461391e+00 -1.214122807141821900e-02 8.201222610667092960e-02 -9.965573666996964119e-01
2.215384615384615064e+00 -1.149239062471678341e-02 1.124588934905409177e-01 -9.935899165282040535e-01
2.289230769230769180e+00 -8.015892840462016111e-03 1.434738317209485747e-01 -9.896216472585052104e-01
2.363076923076922853e+00 -1.549115035792206219e-03 1.745819805493953325e-01 -9.846414232900373431e-01
2.436923076923076525e+00 8.006340486109604637e-03 2.052858527130015931e-01 -9.786693094816062422e-01
2.510769230769230642e+00 2.068547062607475895e-02 2.350668583350941088e-01 -9.717590664263594524e-01
2.584615384615384315e+00 3.645414667796474661e-02 2.634015355063805686e-01 -9.639972645676473384e-01
2.658461538461538431e+00 5.520186706242401209e-02 2.897682247927875765e-01 -9.555035999840714167e-01
2.732307692307692104e+00 7.674381725377484031e-02 3.136652725206968140e-01 -9.464272203643886439e-01
2.806153846153845777e+00 1.008229495995544983e-01 3.346193469448616176e-01 -9.369443022150882872e-01
2.879999999999999893e+00 1.271069053353678924e-01 3.521941612518281195e-01 -9.272556858216869369e-01
