0.000000000000000000e+00 1.112810645752464164e-09 -2.074696745697854809e-09 -1.000000000000000000e+00
7.384615384615383915e-02 -3.695227620742948943e-04 -1.186950738448194417e-02 -9.999294455282849992e-01
1.476923076923076783e-01 -7.305546493723814004e-04 -2.374018250488343570e-02 -9.997178183041626198e-01
2.215384615384615175e-01 -1.090007994796023810e-03 -3.560498069156989992e-02 -9.993652355212433447e-01
2.953846153846153566e-01 -1.449444539347075067e-03 -4.745947943975240696e-02 -9.988719667312577766e-01
3.692307692307691958e-01 -1.809016350964136322e-03 -5.930229135189354212e-02 -9.982382516639839443e-01
4.430769230769230349e-01 -2.166577997291837046e-03 -7.113171991685748874e-02 -9.974643643594558462e-01
5.169230769230768185e-01 -2.524255061066040667e-03 -8.293996931223789060e-02 -9.965511003429839976e-01
5.907692307692307132e-01 -2.878664672849758077e-03 -9.472841120166596018e-02 -9.954987091020620626e-01
6.646153846153846079e-01 -3.232510181388863202e-03 -1.064921933457677189e-01 -9.943079674768779963e-01
7.384615384615383915e-01 -3.583686779635872344e-03 -1.182304594089742256e-01 -9.929793643101142431e-01
8.123076923076921751e-01 -3.932504494851454813e-03 -1.299393421186142150e-01 -9.915137601412002955e-01
8.861538461538460698e-01 -4.280221925543642447e-03 -1.416121878550647140e-01 -9.899125377559934158e-01
9.599999999999999645e-01 -4.625378841706441826e-03 -1.532514721075259601e-01 -9.881759394081038872e-01
1.033846153846153637e+00 -4.968247439378056796e-03 -1.648513810096026433e-01 -9.863054108959065092e-01
1.107692307692307532e+00 -5.308129261670159471e-03 -1.764094192391313098e-01 -9.843020341869457290e-01
1.181538461538461426e+00 -5.643670045061985330e-03 -1.879258000431422715e-01 -9.821664447355911154e-01
1.255384615384615321e+00 -5.978557283369267950e-03 -1.993932578890533491e-01 -9.799007072181757927e-01
1.329230769230769216e+00 -6.310860956042149694e-03 -2.108110633900847075e-01 -9.775058091830639562e-01
1.403076923076922888e+00 -6.638042559713092094e-03 -2.221785678256553154e-01 -9.749827107894343259e-01
1.476923076923076783e+00 -6.962603386902313507e-03 -2.334888044713634703e-01 -9.723338387447925113e-01
1.550769230769230678e+00 -7.284455430001932075e-03 -2.447433152130022715e-01 -9.695597797836675857e-01
1.624615384615384350e+00 -7.598790404552843714e-03 -2.559377921063273886e-01 -9.666625847941194838e-01
1.698461538461538245e+00 -7.915171671525111918e-03 -2.670693676007556694e-01 -9.636439571761897804e-01
1.772307692307692140e+00 -8.225109862045776321e-03 -2.781343168762090423e-01 -9.605060900259170253e-01
1.846153846153846034e+00 -8.532392172176161971e-03 -2.891364851490085819e-01 -9.572489309329442753e-01
1.919999999999999929e+00 -8.834182864355333287e-03 -3.000676320204059278e-01 -9.538760527368806974e-01
1.993846153846153602e+00 -9.135395228509063381e-03 -3.109269438616475978e-01 -9.503888970779954537e-01
2.067692307692307274e+00 -9.429357866523435661e-03 -3.217132403541242414e-01 -9.467891420442858808e-01
2.141538461538461391e+00 -9.721515978202310837e-03 -3.324237864703745160e-01 -9.430789165462540868e-01
2.215384615384615064e+00 -1.001163071359181811e-02 -3.430570719135624946e-01 -9.392600604559359079e-01
2.289230769230769180e+00 -1.029631015898865853e-02 -3.536099888452050033e-01 -9.353350919077065839e-01
2.363076923076922853e+00 -1.057855280155173272e-02 -3.640827259148560202e-01 -9.313052983551499686e-01
2.436923076923076525e+00 -1.085626140744166100e-02 -3.744693132329446894e-01 -9.271744683598065473e-01
2.510769230769230642e+00 -1.112802961152850600e-02 -3.847738213598517198e-01 -9.229424782165481789e-01
2.584615384615384315e+00 -1.140124575861193798e-02 -3.949903637566021253e-01 -9.186131350029917986e-01
2.658461538461538431e+00 -1.167036516242275779e-02 -4.051191257704158111e-01 -9.141879932487535498e-01
2.732307692307692104e+00 -1.193344014396895830e-02 -4.151591945405910256e-01 -9.096690337577232333e-01
2.806153846153845777e+00 -1.219585934347371808e-02 -4.251065983747230326e-01 -9.050595991306835675e-01
2.879999999999999893e+00 -1.245493562989021669e-02 -4.349612439012975895e-01 -9.003614562568575952e-01
