0.000000000000000000e+00 2.632997546189912577e-09 1.489057166585595127e-09 -1.000000000000000000e+00
7.384615384615383915e-02 2.213065582937857878e-02 -5.634731783374932745e-02 -9.981653912345670454e-01
1.476923076923076783e-01 4.368090223971257680e-02 -1.122278191970184080e-01 -9.927209255996457538e-01
2.215384615384615175e-01 6.403870538685060843e-02 -1.671837602249151289e-01 -9.838422459871372094e-01
2.953846153846153566e-01 8.266690196917800271e-02 -2.207657746969247103e-01 -9.718150845484346823e-01
3.692307692307691958e-01 9.909241670355029008e-02 -2.725411528929668203e-01 -9.570250162055827792e-01
4.430769230769230349e-01 1.129286477089052609e-01 -3.220994304543368103e-01 -9.399430404690122254e-01
5.169230769230768185e-01 1.238883503674269304e-01 -3.690554078165030338e-01 -9.211094513684185969e-01
5.907692307692307132e-01 1.317968922443175650e-01 -4.130585805380135866e-01 -9.011126804725391182e-01
6.646153846153846079e-01 1.365995165551924517e-01 -4.537945812674838431e-01 -8.805691428852830960e-01
7.384615384615383915e-01 1.383649613317538551e-01 -4.909905539999138702e-01 -8.601008866286466992e-01
8.123076923076921751e-01 1.372831957500769140e-01 -5.244232830339506934e-01 -8.403111915520282693e-01
8.861538461538460698e-01 1.336624074001220575e-01 -5.539180118834707844e-01 -8.217650953527476654e-01
9.599999999999999645e-01 1.279173113124715544e-01 -5.793564095074005271e-01 -8.049667061510785704e-01
1.033846153846153637e+00 1.205531995210247787e-01 -6.006814056589657724e-01 -7.903394008033547413e-01
1.107692307692307532e+00 1.121549614172731024e-01 -6.178922344852253445e-01 -7.782143999040594951e-01
1.181538461538461426e+00 1.033601415759506370e-01 -6.310532513487804307e-01 -7.688142667300882360e-01
1.255384615384615321e+00 9.484022045187728844e-02 -6.402918839249391869e-01 -7.622455869445229348e-01
1.329230769230769216e+00 8.727595405668825412e-02 -6.457976608618860581e-01 -7.584951368912572489e-01
1.403076923076922888e+00 8.133093610513503213e-02 -6.478201581901317230e-01 -7.574304399552693745e-01
1.476923076923076783e+00 7.763087059171003279e-02 -6.466687878746625318e-01 -7.588013705864574687e-01
1.550769230769230678e+00 7.673499726743115978e-02 -6.427040467370375154e-01 -7.622532043873818663e-01
1.624615384615384350e+00 7.912005397863647316e-02 -6.363355494708028415e-01 -7.673356115140663736e-01
1.698461538461538245e+00 8.515859971875283652e-02 -6.280120422532194935e-01 -7.735217763722734841e-01
1.772307692307692140e+00 9.510189026226334441e-02 -6.182177617561940286e-01 -7.802241306646298113e-01
1.846153846153846034e+00 1.090694963845907361e-01 -6.074569610503028905e-01 -7.868210490318627848e-01
1.919999999999999929e+00 1.270457876982427625e-01 -5.962503427066918604e-01 -7.926743145600335660e-01
1.993846153846153602e+00 1.488722745160084293e-01 -5.851149335145031660e-01 -7.971608259086621073e-01
2.067692307692307274e+00 1.742504055011143693e-01 -5.745640055791049194e-01 -7.996880052150434626e-01
2.141538461538461391e+00 2.027542356877304330e-01 -5.650842671754093827e-01 -7.997239512402606332e-01
2.215384615384615064e+00 2.338306367094203086e-01 -5.571337221955167118e-01 -7.968143189965352091e-01
2.289230769230769180e+00 2.668273253198184536e-01 -5.511223518471909388e-01 -7.906041580111070610e-01
2.363076923076922853e+00 3.010058587419618958e-01 -5.474067486930850324e-01 -7.808512072349248490e-01
2.436923076923076525e+00 3.355661653631885066e-01 -5.462766132661449614e-01 -7.674399446642303779e-01
2.510769230769230642e+00 3.696716088006850587e-01 -5.479501846403422860e-01 -7.503864543230489570e-01
2.584615384615384315e+00 4.024759586082199414e-01 -5.525633975345028981e-01 -7.298441785971133688e-01
2.658461538461538431e+00 4.331490914720097507e-01 -5.601696400884317306e-01 -7.060997832721269685e-01
2.732307692307692104e+00 4.609090713556558416e-01 -5.707319557851193714e-01 -6.795676694150505348e-01
2.806153846153845777e+00 4.850456171557317453e-01 -5.841262473651109843e-01 -6.507771591586620774e-01
2.879999999999999893e+00 5.049457254303537646e-01 -6.001392084209483668e-01 -6.203592986362470585e-01
