0.000000000000000000e+00 -5.869316802541055381e-10 -3.230119881711780268e-09 -1.000000000000000000e+00
7.384615384615383915e-02 -1.891654747861715169e-02 7.849582741674906994e-02 -9.967345120542289161e-01
1.476923076923076783e-01 -3.934915059455186548e-02 1.558368702797995053e-01 -9.869978612204844959e-01
2.215384615384615175e-01 -6.271547090667253799e-02 2.308339018525178699e-01 -9.709685141674186948e-01
2.953846153846153566e-01 -9.032213183914240828e-02 3.022614692002612569e-01 -9.489343254439861486e-01
3.692307692307691958e-01 -1.232861672954553289e-01 3.688227226570738870e-01 -9.212848664560063794e-01
4.430769230769230349e-01 -1.624799209470250694e-01 4.291502877154894646e-01 -8.884958039396377849e-01
5.169230769230768185e-01 -2.084644664717172080e-01 4.818124857340035372e-01 -8.511126944033975406e-01
5.907692307692307132e-01 -2.614598289685186039e-01 5.253227722799460597e-01 -8.097328659765404835e-01
6.646153846153846079e-01 -3.212898843038567986e-01 5.581823150293914182e-01 -7.649816551293382449e-01
7.384615384615383915e-01 -3.873553818490382827e-01 5.789099164001267894e-01 -7.175025182351013608e-01
8.123076923076921751e-01 -4.586253366900495121e-01 5.861133001101589413e-01 -6.679250838046706384e-01
8.861538461538460698e-01 -5.336177652819584782e-01 5.785501360520515224e-01 -6.168638173696932014e-01
9.599999999999999645e-01 -6.104381827771034885e-01 5.552068161226131338e-01 -5.648885096777244152e-01
1.033846153846153637e+00 -6.867928875371713815e-01 5.153821182425317726e-01 -5.125276447841762284e-01
1.107692307692307532e+00 -7.600579525165186423e-01 4.587791647860262612e-01 -4.602399540628548946e-01
1.181538461538461426e+00 -8.273473645250744024e-01 3.855666029009150453e-01 -4.084378357494693468e-01
1.255384615384615321e+00 -8.856144001943855315e-01 2.964668325213440370e-01 -3.574645516531635980e-01
1.329230769230769216e+00 -9.317758597362229001e-01 1.927950706084300414e-01 -3.075870093190489762e-01
1.403076923076922888e+00 -9.628278508704175565e-01 7.650444377249243644e-02 -2.590275498179672731e-01
1.476923076923076783e+00 -9.760020435634366720e-01 -4.981853605220043502e-02 -2.119518089080617840e-01
1.550769230769230678e+00 -9.689153016941293162e-01 -1.829658220360498855e-01 -1.664689407409837008e-01
1.624615384615384350e+00 -9.397158974216854865e-01 -3.191814835230049052e-01 -1.226471411735652467e-01
1.698461538461538245e+00 -8.872295312197749917e-01 -4.542278593667291031e-01 -8.053450208798214327e-02
1.772307692307692140e+00 -8.110817334557718361e-01 -5.835412646133556480e-01 -4.013697923361891212e-02
1.846153846153846034e+00 -7.118010573245384665e-01 -7.023689233055236958e-01 -1.451579897353462737e-03
1.919999999999999929e+00 -5.908882711901098927e-01 -8.059604126946401381e-01 3.555053612569379629e-02
1.993846153846153602e+00 -4.508461014627866970e-01 -8.897732284281341109e-01 7.089714467455736358e-02
2.067692307692307274e+00 -2.951556979144260850e-01 -9.496948312081023857e-01 1.046322966301198309e-01
2.141538461538461391e+00 -1.282127906572672060e-01 -9.822587768519259743e-01 1.368002309169562836e-01
2.215384615384615064e+00 4.478338456690467151e-02 -9.848560432016403299e-01 1.674462537388163585e-01
2.289230769230769180e+00 2.180191423962812292e-01 -9.559236665477551798e-01 1.966289200425815065e-01
2.363076923076922853e+00 3.852587243992119381e-01 -8.951015428108375360e-01 2.243979428379040686e-01
2.436923076923076525e+00 5.401193269980150147e-01 -8.033406509051778110e-01 2.507997229813332951e-01
2.510769230769230642e+00 6.763468314897491673e-01 -6.829458249812487836e-01 2.759088796774684105e-01
2.584615384615384315e+00 7.881121164575048965e-01 -5.375904990060212940e-01 2.997692353371226859e-01
2.658461538461538431e+00 8.703287331364462087e-01 -3.722003005267532361e-01 3.224606267232238421e-01
2.732307692307692104e+00 9.189316520768464613e-01 -1.928296734623740072e-01 3.440459668230672619e-01
2.806153846153845777e+00 9.311441786121790187e-01 -6.436625145223140443e-03 3.645757793085425136e-01
2.879999999999999893e+00 9.056730919302491412e-01 1.794063756109287033e-01 3.841303788838624778e-01
