0.000000000000000000e+00 2.172242239442469501e-09 -9.350772432063792706e-10 -1.000000000000000000e+00
7.384615384615383915e-02 2.518888218338921278e-02 1.542131677445660737e-02 -9.995636608980017490e-01
1.476923076923076783e-01 5.034257266253074070e-02 3.082421736309349375e-02 -9.982560444506332065e-01
2.215384615384615175e-01 7.542784520758383238e-02 4.617150834718895813e-02 -9.960814716209659414e-01
2.953846153846153566e-01 1.004121569764437200e-01 6.143892658341292001e-02 -9.930468023477461159e-01
3.692307692307691958e-01 1.252644852310078327e-01 7.659891852289388292e-02 -9.891615307827200665e-01
4.430769230769230349e-01 1.499502199859332474e-01 9.162617187685603848e-02 -9.844381734695309971e-01
5.169230769230768185e-01 1.744401390253466910e-01 1.064959314794508560e-01 -9.788912170598897955e-01
5.907692307692307132e-01 1.987017705906083398e-01 1.211829599442131589e-01 -9.725383655529032945e-01
6.646153846153846079e-01 2.227092874853675575e-01 1.356651222582932748e-01 -9.653983315769291140e-01
7.384615384615383915e-01 2.464329295148934840e-01 1.499203162376486764e-01 -9.574930346305039475e-01
8.123076923076921751e-01 2.698469100120418074e-01 1.639271539970341141e-01 -9.488459013648461449e-01
8.861538461538460698e-01 2.929279789265416545e-01 1.776675440648721738e-01 -9.394813787199206567e-01
9.599999999999999645e-01 3.156520327208405807e-01 1.911202387549265913e-01 -9.294269592163949545e-01
1.033846153846153637e+00 3.379963766976839534e-01 2.042693041067265847e-01 -9.187110153700220883e-01
1.107692307692307532e+00 3.599461201097028384e-01 2.170997861717404720e-01 -9.073608465715538030e-01
1.181538461538461426e+00 3.814788138358436997e-01 2.295969688890562299e-01 -8.954083882601330258e-01
1.255384615384615321e+00 4.025803329519335172e-01 2.417490879380704283e-01 -8.828835103841337073e-01
1.329230769230769216e+00 4.232346074210586173e-01 2.535443528393012125e-01 -8.698185864144041268e-01
1.403076923076922888e+00 4.434310941324213773e-01 2.649722356098324627e-01 -8.562447246140962864e-01
1.476923076923076783e+00 4.631601569061034041e-01 2.760262406877729835e-01 -8.421926387885256826e-01
1.550769230769230678e+00 4.824069769537339125e-01 2.866943919609714064e-01 -8.276991615075203201e-01
1.624615384615384350e+00 5.011732432138903404e-01 2.969761163061618303e-01 -8.127892999098319526e-01
1.698461538461538245e+00 5.194410868422809635e-01 3.068654761828217281e-01 -7.975024950147039382e-01
1.772307692307692140e+00 5.372159073155312603e-01 3.163591625902418270e-01 -7.818640932391941467e-01
1.846153846153846034e+00 5.544922985247826563e-01 3.254530680920574293e-01 -7.659072538546695119e-01
1.919999999999999929e+00 5.712639212605032935e-01 3.341506907017861017e-01 -7.496639281543845401e-01
1.993846153846153602e+00 5.875378925564708199e-01 3.424481399759704003e-01 -7.331599255867730092e-01
2.067692307692307274e+00 6.033107674608106930e-01 3.503508224993582276e-01 -7.164253110993081819e-01
2.141538461538461391e+00 6.185836154128068198e-01 3.578581341668676252e-01 -6.994901782381752753e-01
2.215384615384615064e+00 6.333603903847413452e-01 3.649746710643541614e-01 -6.823800940259756587e-01
2.289230769230769180e+00 6.476490951974067656e-01 3.717025880341671140e-01 -6.651181595615133224e-01
2.363076923076922853e+00 6.614509018930591067e-01 3.780472029193853722e-01 -6.477323449519624132e-01
2.436923076923076525e+00 6.747684274339089683e-01 3.840168900347091796e-01 -6.302480641446432941e-01
2.510769230769230642e+00 6.876140502219714179e-01 3.896132987742694231e-01 -6.126844878424858587e-01
2.584615384615384315e+00 6.999932222973979101e-01 3.948441596115065400e-01 -5.950641340599854834e-01
2.658461538461538431e+00 7.119099176691603414e-01 3.997178845815529957e-01 -5.774110315800938809e-01
2.732307692307692104e+00 7.233783673070333098e-01 4.042401711459524538e-01 -5.597384300140016977e-01
2.806153846153845777e+00 7.344014310116582234e-01 4.084203188693465991e-01 -5.420707884032416324e-01
2.879999999999999893e+00 7.449910238954302599e-01 4.122657903448546102e-01 -5.244220990384121928e-01
