0.000000000000000000e+00 -1.534266900172774622e-09 -1.788958874805612604e-09 -1.000000000000000000e+00
7.384615384615383915e-02 -1.205874173254949111e-02 1.491195957400442973e-02 -9.998159397483376010e-01
1.476923076923076783e-01 -2.413618986330769850e-02 2.979263784714259247e-02 -9.992643633650307722e-01
2.215384615384615175e-01 -3.620645771995611301e-02 4.462174591102209542e-02 -9.983472121385303932e-01
2.953846153846153566e-01 -4.826792762538496817e-02 5.937745468734488552e-02 -9.970674149430693856e-01
3.692307692307691958e-01 -6.031807888619959701e-02 7.403365863588201590e-02 -9.954292505620691012e-01
4.430769230769230349e-01 -7.235219567544218244e-02 8.856973411791717321e-02 -9.934379438238778448e-01
5.169230769230768185e-01 -8.436493738260651687e-02 1.029644352994901896e-01 -9.910998977581493286e-01
5.907692307692307132e-01 -9.635467207486615726e-02 1.171972628030536895e-01 -9.884221973222769853e-01
6.646153846153846079e-01 -1.083149830548642140e-01 1.312509095451100394e-01 -9.854129389393019300e-01
7.384615384615383915e-01 -1.202408857748357290e-01 1.451103614910141393e-01 -9.820806703516750114e-01
8.123076923076921751e-01 -1.321263667016878418e-01 1.587597702919268383e-01 -9.784349856264230594e-01
8.861538461538460698e-01 -1.439654902734632258e-01 1.721862521837365101e-01 -9.744858257834436710e-01
9.599999999999999645e-01 -1.557504122968585147e-01 1.853811515101544960e-01 -9.702433508605863288e-01
1.033846153846153637e+00 -1.674747312717665970e-01 1.983326210030223469e-01 -9.657187145426160413e-01
1.107692307692307532e+00 -1.791292248295198175e-01 2.110345025908489935e-01 -9.609230654834650664e-01
1.181538461538461426e+00 -1.907069741155975884e-01 2.234786592495753843e-01 -9.558681103605907170e-01
1.255384615384615321e+00 -2.022002133272672031e-01 2.356596919401754142e-01 -9.505656290475653636e-01
1.329230769230769216e+00 -2.135977750449255530e-01 2.475750459328856790e-01 -9.450279079359433787e-01
1.403076923076922888e+00 -2.248919726938611308e-01 2.592193818371672509e-01 -9.392676928480712117e-01
1.476923076923076783e+00 -2.360752200443911875e-01 2.705900943569770623e-01 -9.332974378373536384e-01
1.550769230769230678e+00 -2.471398679545006860e-01 2.816859601704754801e-01 -9.271295756898876306e-01
1.624615384615384350e+00 -2.580757172924248444e-01 2.925058571006274311e-01 -9.207775648474059160e-01
1.698461538461538245e+00 -2.688788772110111136e-01 3.030475227996792809e-01 -9.142538795543234675e-01
1.772307692307692140e+00 -2.795398153456092327e-01 3.133137837734727982e-01 -9.075712138854177269e-01
1.846153846153846034e+00 -2.900559402822875388e-01 3.233012853938074249e-01 -9.007425325951110562e-01
1.919999999999999929e+00 -3.004225575854309049e-01 3.330138157023118106e-01 -8.937791139136849194e-01
1.993846153846153602e+00 -3.106349235314044277e-01 3.424526117649225321e-01 -8.866932463293918376e-01
2.067692307692307274e+00 -3.206907416228854113e-01 3.516194011247334439e-01 -8.794963040930717790e-01
2.141538461538461391e+00 -3.305881987278556089e-01 3.605160454776492607e-01 -8.721994467040208310e-01
2.215384615384615064e+00 -3.403266157826492222e-01 3.691496684837756170e-01 -8.648111455631707356e-01
2.289230769230769180e+00 -3.499036828977628577e-01 3.775232714409224033e-01 -8.573420248330374527e-01
2.363076923076922853e+00 -3.593216277247651136e-01 3.856409966667697642e-01 -8.498002716546354529e-01
2.436923076923076525e+00 -3.685771149019113624e-01 3.935122664646174551e-01 -8.421937295313202121e-01
2.510769230769230642e+00 -3.776735988233819730e-01 4.011397718625578368e-01 -8.345301487165448506e-01
2.584615384615384315e+00 -3.866098553122098713e-01 4.085330596764642497e-01 -8.268157951696465391e-01
2.658461538461538431e+00 -3.953849562615269209e-01 4.157009616263347418e-01 -8.190567852092620615e-01
2.732307692307692104e+00 -4.039967561573554189e-01 4.226486424241400197e-01 -8.112614190998082009e-01
2.806153846153845777e+00 -4.124488314002296430e-01 4.293856900546625388e-01 -8.034326424147449908e-01
2.879999999999999893e+00 -4.207358943890273650e-01 4.359213711729933438e-01 -7.955776304558213052e-01
