0.000000000000000000e+00 -3.079518994818567343e-09 3.321315086254188397e-10 -1.000000000000000000e+00
7.384615384615383915e-02 -4.277407099840671578e-02 4.289287252285080287e-02 -9.981631383545369607e-01
1.476923076923076783e-01 -8.608538434652611426e-02 8.464461020814481595e-02 -9.926846403714517653e-01
2.215384615384615175e-01 -1.303884321709697924e-01 1.241348989548708981e-01 -9.836598455089002879e-01
2.953846153846153566e-01 -1.760820144054376923e-01 1.602438641348307158e-01 -9.712432306321442388e-01
3.692307692307691958e-01 -2.234511814859140300e-01 1.918650327951781920e-01 -9.556426208408261846e-01
4.430769230769230349e-01 -2.726343655948466616e-01 2.179128459833316600e-01 -9.371120454408250477e-01
5.169230769230768185e-01 -3.235890303168237336e-01 2.373442437055714727e-01 -9.159428872131721855e-01
5.907692307692307132e-01 -3.760829376081813447e-01 2.491740458838177796e-01 -8.924497167318917734e-01
6.646153846153846079e-01 -4.296626080194281272e-01 2.524933715336461493e-01 -8.669652600227560901e-01
7.384615384615383915e-01 -4.836479605004692095e-01 2.465077895658535079e-01 -8.398269220262534196e-01
8.123076923076921751e-01 -5.371409823229951197e-01 2.305602274062527046e-01 -8.113638682122100709e-01
8.861538461538460698e-01 -5.890201090081874646e-01 2.041766481902429486e-01 -7.818926631848061026e-01
9.599999999999999645e-01 -6.379684640543891172e-01 1.670862897538712422e-01 -7.517090641470174361e-01
1.033846153846153637e+00 -6.825023461314378981e-01 1.192784330804553816e-01 -7.210759415364719205e-01
1.107692307692307532e+00 -7.210074476024633805e-01 6.102392932487210597e-02 -6.902252721361383792e-01
1.181538461538461426e+00 -7.517886749062911989e-01 -7.095635594340288232e-03 -6.593552403905396098e-01
1.255384615384615321e+00 -7.731306850334745961e-01 -8.415995966783990090e-02 -6.286265065660875395e-01
1.329230769230769216e+00 -7.833614925637890636e-01 -1.688953874876459316e-01 -5.981670227169154641e-01
1.403076923076922888e+00 -7.809264350540656707e-01 -2.596744534080720479e-01 -5.680732194711211047e-01
1.476923076923076783e+00 -7.644631372701786720e-01 -3.545265063557959673e-01 -5.384149473095103389e-01
1.550769230769230678e+00 -7.328798496300183984e-01 -4.511595629532857421e-01 -5.092399505856877173e-01
1.624615384615384350e+00 -6.854292160232068332e-01 -5.470036793968040545e-01 -4.805792544933242816e-01
1.698461538461538245e+00 -6.217773131040864598e-01 -6.392657243357638963e-01 -4.524539695553773666e-01
1.772307692307692140e+00 -5.420685777832465746e-01 -7.249973792704903497e-01 -4.248793089615969798e-01
1.846153846153846034e+00 -4.469757907274599651e-01 -8.011888710636416722e-01 -3.978575042358648006e-01
1.919999999999999929e+00 -3.377192024213711008e-01 -8.648590057827444388e-01 -3.714106397991366881e-01
1.993846153846153602e+00 -2.160997024814310663e-01 -9.131658572823737607e-01 -3.455576026646217658e-01
2.067692307692307274e+00 -8.447794541421130288e-02 -9.435304593163941211e-01 -3.203037438359347955e-01
2.141538461538461391e+00 5.425162022879634338e-02 -9.537310968660442922e-01 -2.956929239891749051e-01
2.215384615384615064e+00 1.967172729387743069e-01 -9.420420870756982534e-01 -2.717338948839133073e-01
2.289230769230769180e+00 3.391462660756409120e-01 -9.073153268046612041e-01 -2.484730839404875880e-01
2.363076923076922853e+00 4.774757174998153775e-01 -8.490901508464280267e-01 -2.259266513585361513e-01
2.436923076923076525e+00 6.074699932885064824e-01 -7.676533389833841703e-01 -2.041284419044974430e-01
2.510769230769230642e+00 7.248686670992965375e-01 -6.640963290358897764e-01 -1.830880170236671156e-01
2.584615384615384315e+00 8.255349757559944379e-01 -5.403347821627348946e-01 -1.628188661461349718e-01
2.658461538461538431e+00 9.056288450972720394e-01 -3.990962210373215635e-01 -1.433112197615670769e-01
2.732307692307692104e+00 9.617618310678279769e-01 -2.438839516825324349e-01 -1.245561656805926343e-01
2.806153846153845777e+00 9.911641533995441122e-01 -7.889628205518042781e-02 -1.065286859169650435e-01
2.879999999999999893e+00 9.918308130778002996e-01 9.108645984174182364e-02 -8.918658248605274008e-02
