0.000000000000000000e+00 -2.510644471147028799e-09 -1.111898641388007824e-10 -1.000000000000000000e+00
7.384615384615383915e-02 -1.473932164685622659e-01 -5.562630480961101853e-02 -9.875116639997164603e-01
1.476923076923076783e-01 -2.898830794810196565e-01 -1.121399793987494509e-01 -9.504677742034340904e-01
2.215384615384615175e-01 -4.227431502704264155e-01 -1.702500210748267850e-01 -8.901111222619750851e-01
2.953846153846153566e-01 -5.415852724085629122e-01 -2.304137813424096959e-01 -8.084476308694106272e-01
3.692307692307691958e-01 -6.425323087137112532e-01 -2.927039846501647280e-01 -7.081436083397878445e-01
4.430769230769230349e-01 -7.223417385474663055e-01 -3.567380913079181703e-01 -5.924097721824542750e-01
5.169230769230768185e-01 -7.785511386754363494e-01 -4.216321319833550851e-01 -4.648354439781266501e-01
5.907692307692307132e-01 -8.095577732718632902e-01 -4.860096826428240702e-01 -3.292372149634213985e-01
6.646153846153846079e-01 -8.146960755772321150e-01 -5.480437765874333067e-01 -1.894833111854175856e-01
7.384615384615383915e-01 -7.942718104370509735e-01 -6.055447053220480713e-01 -4.932704366327635148e-02
8.123076923076921751e-01 -7.495605668507754338e-01 -6.560829807562496008e-01 8.774615618797969308e-02
8.861538461538460698e-01 -6.827651865767010442e-01 -6.971449541082416212e-01 2.186466283664812438e-01
9.599999999999999645e-01 -5.969407165595297382e-01 -7.263018675113186440e-01 3.407841420174297364e-01
1.033846153846153637e+00 -4.958668620437806651e-01 -7.413911121553315997e-01 4.521533531334476774e-01
1.107692307692307532e+00 -3.839144114846683165e-01 -7.406815908430675055e-01 5.513519688092338722e-01
1.181538461538461426e+00 -2.658491752319676604e-01 -7.230382532002599394e-01 6.375967094760487397e-01
1.255384615384615321e+00 -1.466288206848502529e-01 -6.880401241657047029e-01 7.106979458290666463e-01
1.329230769230769216e+00 -3.118898627603412799e-02 -6.360712753938415620e-01 7.709944722242046966e-01
1.403076923076922888e+00 7.578286194525096775e-02 -5.683499001409662021e-01 8.192852270619036537e-01
1.476923076923076783e+00 1.700729446409723900e-01 -4.869251116659250034e-01 8.567221926961983147e-01
1.550769230769230678e+00 2.481209470941176110e-01 -3.946005059698109996e-01 8.847151774812821445e-01
1.624615384615384350e+00 3.072159370378331200e-01 -2.948189456610802450e-01 9.048177841070117466e-01
1.698461538461538245e+00 3.456092296303884814e-01 -1.914891021837920315e-01 9.186303166763883921e-01
1.772307692307692140e+00 3.626052451977913593e-01 -8.880283699733379499e-02 9.276999848843026086e-01
1.846153846153846034e+00 3.585911980777692909e-01 9.010685288256034542e-03 9.334490432363606871e-01
1.919999999999999929e+00 3.350101438330208570e-01 9.790695206688503072e-02 9.371117976683228656e-01
1.993846153846153602e+00 2.942747233736568435e-01 1.742637217417898343e-01 9.396971407513280417e-01
2.067692307692307274e+00 2.396293022059029498e-01 2.350928205615097077e-01 9.419689070358404637e-01
2.141538461538461391e+00 1.749593005433258408e-01 2.782168353543603145e-01 9.444474431965260708e-01
2.215384615384615064e+00 1.045790615275078023e-01 3.024010126605792825e-01 9.474245603771996871e-01
2.289230769230769180e+00 3.296561907649814271e-02 3.074349206280332369e-01 9.509961201539320896e-01
2.363076923076922853e+00 -3.548684453338069034e-02 2.941373703940035056e-01 9.551024240121058773e-01
2.436923076923076525e+00 -9.672567414714600131e-02 2.643221947608000999e-01 9.595701344892104689e-01
2.510769230769230642e+00 -1.472786764083569566e-01 2.206717614631763802e-01 9.641628920663469771e-01
2.584615384615384315e+00 -1.844455823436177977e-01 1.665791702810988650e-01 9.686219689816439882e-01
2.658461538461538431e+00 -2.064462576065077271e-01 1.059358066560719958e-01 9.727050206439593616e-01
2.732307692307692104e+00 -2.125224960938531804e-01 4.289183014586359782e-02 9.762131729695322502e-01
2.806153846153845777e+00 -2.029520123318691027e-01 -1.841701099685967569e-02 9.790143596351078559e-01
2.879999999999999893e+00 -1.790167314902355034e-01 -7.410770613444260524e-02 9.810499436091635328e-01
