0.000000000000000000e+00 -2.621122016711239946e-09 -7.175837397011254073e-10 -1.000000000000000000e+00
7.384615384615383915e-02 2.321755424619136726e-03 -1.163441286842111129e-02 -9.999294764897622700e-01
1.476923076923076783e-01 4.847529167121736315e-03 -2.321632691167489770e-02 -9.997184407816427365e-01
2.215384615384615175e-01 7.714171571579192532e-03 -3.467516640851659587e-02 -9.993684712815495974e-01
2.953846153846153566e-01 1.108497840741665304e-02 -4.594307689440383508e-02 -9.988820445601740428e-01
3.692307692307691958e-01 1.511648282938326399e-02 -5.694243634643076507e-02 -9.982623913571823104e-01
4.430769230769230349e-01 1.995380025227043441e-02 -6.758327818068968207e-02 -9.975133427522330232e-01
5.169230769230768185e-01 2.572662006361467121e-02 -7.776388017317398260e-02 -9.966389600670002569e-01
5.907692307692307132e-01 3.254988581289074145e-02 -8.736714132079603790e-02 -9.956432892669384582e-01
6.646153846153846079e-01 4.051681044822075944e-02 -9.625957182546332480e-02 -9.945302057363688553e-01
7.384615384615383915e-01 4.969647451857261283e-02 -1.042940699225897161e-01 -9.933028909568101250e-01
8.123076923076921751e-01 6.013352681320374704e-02 -1.113048818225892134e-01 -9.919640033161430948e-01
8.861538461538460698e-01 7.183756488398125584e-02 -1.171143085307603665e-01 -9.905154143025358682e-01
9.599999999999999645e-01 8.478915366354605743e-02 -1.215326770353937769e-01 -9.889578186907538315e-01
1.033846153846153637e+00 9.892874211193955492e-02 -1.243629236499197988e-01 -9.872910940392917167e-01
1.107692307692307532e+00 1.141593343337937716e-01 -1.254029692864448431e-01 -9.855142081735126514e-01
1.181538461538461426e+00 1.303416057395920535e-01 -1.244495701759020106e-01 -9.836257693140857405e-01
1.255384615384615321e+00 1.472925631209565656e-01 -1.213072338723542171e-01 -9.816239188263675697e-01
1.329230769230769216e+00 1.647864317690871383e-01 -1.157930099254265155e-01 -9.795066339572048308e-01
1.403076923076922888e+00 1.825533861709466854e-01 -1.077458699599103953e-01 -9.772720670902106388e-01
1.476923076923076783e+00 2.002819346396249589e-01 -9.702728971137815350e-02 -9.749195987186942691e-01
1.550769230769230678e+00 2.176209300745376996e-01 -8.353572216785706828e-02 -9.724495093180404170e-01
1.624615384615384350e+00 2.341847644430395670e-01 -6.721626896684765318e-02 -9.698630667202678968e-01
1.698461538461538245e+00 2.495558854360283851e-01 -4.805785261896679261e-02 -9.671643962795104521e-01
1.772307692307692140e+00 2.632966606422579847e-01 -2.611004284452554669e-02 -9.643586260073809813e-01
1.846153846153846034e+00 2.749488316168254842e-01 -1.486588605207492253e-03 -9.614546857958663484e-01
1.919999999999999929e+00 2.840539413935647128e-01 2.563265504318613941e-02 -9.584624574975461053e-01
1.993846153846153602e+00 2.901583441625171234e-01 5.499088173220932629e-02 -9.553940838584765727e-01
2.067692307692307274e+00 2.928249539227076870e-01 8.625576730064121733e-02 -9.522641276010799238e-01
2.141538461538461391e+00 2.916451721620234583e-01 1.190231217173274014e-01 -9.490889527218347999e-01
2.215384615384615064e+00 2.862551849240504986e-01 1.528080912712512784e-01 -9.458861861224612255e-01
2.289230769230769180e+00 2.763509823901543205e-01 1.870581975237114725e-01 -9.426728872397872605e-01
2.363076923076922853e+00 2.616964315166758759e-01 2.211546433301732617e-01 -9.394669674383570035e-01
2.436923076923076525e+00 2.421386804772062418e-01 2.544219977753612860e-01 -9.362855656134366766e-01
2.510769230769230642e+00 2.176257682597065868e-01 2.861349126743042981e-01 -9.331441482137202703e-01
2.584615384615384315e+00 1.882102341522274846e-01 3.155433294755753959e-01 -9.300544531331469411e-01
2.658461538461538431e+00 1.540584842770579277e-01 3.418793527413844791e-01 -9.270254894336806828e-01
2.732307692307692104e+00 1.154613148654885235e-01 3.643653445074024888e-01 -9.240661089825639163e-01
2.806153846153845777e+00 7.283710936155908533e-02 3.822598072040121475e-01 -9.211751194331087023e-01
2.879999999999999893e+00 2.672848710369468694e-02 3.948504836459959533e-01 -9.183517427785918841e-01
