0.000000000000000000e+00 2.391116534391520856e-09 1.122263025767021362e-09 -1.000000000000000000e+00
7.384615384615383915e-02 -2.702182912023614811e-02 1.185245874979235121e-02 -9.995642459521237866e-01
1.476923076923076783e-01 -5.410243595875051381e-02 2.317836411814829661e-02 -9.982657203452647288e-01
2.215384615384615175e-01 -8.124289562240821772e-02 3.350108916624411348e-02 -9.961302406415925015e-01
2.953846153846153566e-01 -1.084466099023842917e-01 4.233207466923702422e-02 -9.931993496561556389e-01
3.692307692307691958e-01 -1.356794122035136774e-01 4.920057235748817592e-02 -9.895289061158928368e-01
4.430769230769230349e-01 -1.628701441064235034e-01 5.365685348938505073e-02 -9.851856426960261537e-01
5.169230769230768185e-01 -1.898901410511165122e-01 5.528123545440823128e-02 -9.802457105018583805e-01
5.907692307692307132e-01 -2.165594033773318716e-01 5.369134130379214775e-02 -9.747895383600601038e-01
6.646153846153846079e-01 -2.426332417691228205e-01 4.855078272558860375e-02 -9.688997751939698588e-01
7.384615384615383915e-01 -2.678059007729211571e-01 3.957872649539362353e-02 -9.626566577779237521e-01
8.123076923076921751e-01 -2.917051004461011510e-01 2.655739358063408107e-02 -9.561363096654844629e-01
8.861538461538460698e-01 -3.139051297381179606e-01 9.342935721033229779e-03 -9.494048574932272277e-01
9.599999999999999645e-01 -3.339201658395629657e-01 -1.212410917709774716e-02 -9.425195741030253371e-01
1.033846153846153637e+00 -3.512240774915471597e-01 -3.781073484436270338e-02 -9.355235623328680417e-01
1.107692307692307532e+00 -3.652528527843193484e-01 -6.758244787287549793e-02 -9.284475546625573505e-01
1.181538461538461426e+00 -3.754246900842289625e-01 -1.011933703113323674e-01 -9.213075847485305836e-01
1.255384615384615321e+00 -3.811558334058891551e-01 -1.382889599698597927e-01 -9.141047080125962454e-01
1.329230769230769216e+00 -3.818727500082956250e-01 -1.783912435961925169e-01 -9.068298549772856321e-01
1.403076923076922888e+00 -3.770374433171950757e-01 -2.209086719707204494e-01 -8.994622471905940886e-01
1.476923076923076783e+00 -3.661715342996812450e-01 -2.651299037492371724e-01 -8.919721652973318093e-01
1.550769230769230678e+00 -3.488683332712202434e-01 -3.102418024014349518e-01 -8.843247750487553960e-01
1.624615384615384350e+00 -3.248236717701898923e-01 -3.553190625575410322e-01 -8.764855613967064141e-01
1.698461538461538245e+00 -2.938508475710177592e-01 -3.993584846488770768e-01 -8.684198777620288912e-01
1.772307692307692140e+00 -2.559016223943006985e-01 -4.412873742296254953e-01 -8.600976769468711147e-01
1.846153846153846034e+00 -2.110895617224501364e-01 -4.799757312358456929e-01 -8.515000219318009655e-01
1.919999999999999929e+00 -1.596908084447019871e-01 -5.142813454266835782e-01 -8.426155393134601157e-01
1.993846153846153602e+00 -1.021672483627483197e-01 -5.430589937091609976e-01 -8.334481223828892338e-01
2.067692307692307274e+00 -3.916976481198639060e-02 -5.651991097435962175e-01 -8.240159354055306418e-01
2.141538461538461391e+00 2.847109104117234724e-02 -5.796559941593982801e-01 -8.143552577145480864e-01
2.215384615384615064e+00 9.973042953277155842e-02 -5.854870428343890154e-01 -8.045150802255404132e-01
2.289230769230769180e+00 1.734166405064581085e-01 -5.818836289465193490e-01 -7.945586645581865781e-01
2.363076923076922853e+00 2.481787560770296608e-01 -5.681999238794644969e-01 -7.845642809081544433e-01
2.436923076923076525e+00 3.225332373516299755e-01 -5.439914268081769144e-01 -7.746161713289899664e-01
2.510769230769230642e+00 3.948861568271414546e-01 -5.090329767414812911e-01 -7.648101548033412467e-01
2.584615384615384315e+00 4.635735201334126310e-01 -4.633540121795305389e-01 -7.552393716976961713e-01
2.658461538461538431e+00 5.268969169965138644e-01 -4.072435195337932856e-01 -7.459999201149548620e-01
2.732307692307692104e+00 5.831675080484494123e-01 -3.412770040476428290e-01 -7.371762800091218315e-01
2.806153846153845777e+00 6.307479894701149004e-01 -2.663069491893186314e-01 -7.288487465778406005e-01
2.879999999999999893e+00 6.681083165309238403e-01 -1.834697354770377931e-01 -7.210775287847531745e-01
