0.000000000000000000e+00 -2.678748848383033671e-09 3.352556055241603074e-09 -1.000000000000000000e+00
7.384615384615383915e-02 -1.157382607312007206e-01 -8.437245334198388569e-02 -9.896892325775535904e-01
1.476923076923076783e-01 -2.269818290138374273e-01 -1.692377449380398080e-01 -9.590805212029462901e-01
2.215384615384615175e-01 -3.293976885583083103e-01 -2.549118734738384240e-01 -9.091278189321893022e-01
2.953846153846153566e-01 -4.189408925077006129e-01 -3.414384076534350831e-01 -8.413698664987704356e-01
3.692307692307691958e-01 -4.920168801898534006e-01 -4.284546975021304993e-01 -7.578519014071664062e-01
4.430769230769230349e-01 -5.455986325422559347e-01 -5.151157605433914766e-01 -6.610371995344014318e-01
5.169230769230768185e-01 -5.773732382604682689e-01 -6.000634140553345874e-01 -5.536742339062752372e-01
5.907692307692307132e-01 -5.858319658961887999e-01 -6.814237295706666586e-01 -4.386944038425181769e-01
6.646153846153846079e-01 -5.703691432228965574e-01 -7.568795947703015337e-01 -3.190638521963117813e-01
7.384615384615383915e-01 -5.313401226933670563e-01 -8.237663414900423531e-01 -1.976755139637305925e-01
8.123076923076921751e-01 -4.700811427311331059e-01 -8.792326897045869005e-01 -7.721544843442600115e-02
8.861538461538460698e-01 -3.889063838377858628e-01 -9.204072641512432984e-01 3.988602033006043851e-02
9.599999999999999645e-01 -2.910369968457967027e-01 -9.446189602793519935e-01 1.515956774008768160e-01
1.033846153846153637e+00 -1.805097478559568314e-01 -9.495973047829636693e-01 2.562621449654385875e-01
1.107692307692307532e+00 -6.202152369173544177e-02 -9.336798705408608789e-01 3.526822913590751396e-01
1.181538461538461426e+00 5.926436923250774647e-02 -8.959974738845547515e-01 4.400754909738976428e-01
1.255384615384615321e+00 1.779461957065727740e-01 -8.366152645310879210e-01 5.180741562819193291e-01
1.329230769230769216e+00 2.886443934725447802e-01 -7.566230430187784739e-01 5.866833816219465536e-01
1.403076923076922888e+00 3.862661092399239937e-01 -6.581689590448096538e-01 6.462230468555477669e-01
1.476923076923076783e+00 4.662959118850621976e-01 -5.444214172456647294e-01 6.972561696475908510e-01
1.550769230769230678e+00 5.250316325076320734e-01 -4.194673774871175431e-01 7.405283330751998294e-01
1.624615384615384350e+00 5.598213960580534776e-01 -2.881189447281646276e-01 7.769049711146048809e-01
1.698461538461538245e+00 5.692378826310928730e-01 -1.556989397013636700e-01 8.072920235505839370e-01
1.772307692307692140e+00 5.531770988192415972e-01 -2.774211479073179776e-02 8.325984911961425983e-01
1.846153846153846034e+00 5.129112004869699204e-01 9.030387531524136646e-02 8.536758328186031530e-01
1.919999999999999929e+00 4.510196481670945001e-01 1.934088029725704316e-01 8.713035124269299381e-01
1.993846153846153602e+00 3.712886058613474316e-01 2.772788406425032992e-01 8.861472794925963070e-01
2.067692307692307274e+00 2.784722467441674287e-01 3.386161501621052228e-01 8.987704747743335831e-01
2.141538461538461391e+00 1.780448029887485295e-01 3.753490064541162852e-01 9.096205174633492652e-01
2.215384615384615064e+00 7.585401917245494785e-02 3.867868528907511538e-01 9.190422409189688002e-01
2.289230769230769180e+00 -2.223097068077758975e-02 3.736717478707027862e-01 9.272928042360015777e-01
2.363076923076922853e+00 -1.106896097461245732e-01 3.381521264669306026e-01 9.345575729685109412e-01
2.436923076923076525e+00 -1.847062003460269997e-01 2.836560320842869132e-01 9.409675641245082156e-01
2.510769230769230642e+00 -2.404735893018473680e-01 2.146728669140372803e-01 9.466177916310266616e-01
2.584615384615384315e+00 -2.754422576622246877e-01 1.364642438894653198e-01 9.515810257031667163e-01
2.658461538461538431e+00 -2.884804011014938663e-01 5.471199492250819474e-02 9.559200634548862263e-01
2.732307692307692104e+00 -2.799375711390981736e-01 -2.486067120187263058e-02 9.596950260495432650e-01
2.806153846153845777e+00 -2.516029567067750716e-01 -9.687989053316836685e-02 9.629683167175991931e-01
2.879999999999999893e+00 -2.065649749623485187e-01 -1.566824579723511413e-01 9.658050283492558563e-01
