0.000000000000000000e+00 2.091040970450057212e-09 1.377572557123883559e-09 -1.000000000000000000e+00
7.384615384615383915e-02 1.847276710697210843e-03 -3.478246962437152486e-03 -9.999922263621342511e-01
1.476923076923076783e-01 3.736813736905507388e-03 -6.938198158587819547e-03 -9.999689142812001608e-01
2.215384615384615175e-01 5.692776123947762730e-03 -1.036385104510584299e-02 -9.999300399888911839e-01
2.953846153846153566e-01 7.744361938846158755e-03 -1.373396489046423315e-02 -9.998756300904557692e-01
3.692307692307691958e-01 9.924117452452162202e-03 -1.702675020988442950e-02 -9.998057042663957006e-01
4.430769230769230349e-01 1.226048010030548335e-02 -2.022358895392665362e-02 -9.997202132185183387e-01
5.169230769230768185e-01 1.478075524493500589e-02 -2.329632956304877184e-02 -9.996192273357800140e-01
5.907692307692307132e-01 1.751318310674291473e-02 -2.621936826734252296e-02 -9.995026734328026352e-01
6.646153846153846079e-01 2.047941579278412388e-02 -2.896160925676002224e-02 -9.993705772895257189e-01
7.384615384615383915e-01 2.369769449969314282e-02 -3.148613356433579286e-02 -9.992230734159290861e-01
8.123076923076921751e-01 2.718572430222171085e-02 -3.376064387645097420e-02 -9.990599759253810941e-01
8.861538461538460698e-01 3.095821725860346124e-02 -3.573869408018926636e-02 -9.988813684725150743e-01
9.599999999999999645e-01 3.501627146904510990e-02 -3.737874415738795530e-02 -9.986872957027376208e-01
1.033846153846153637e+00 3.936320811909825579e-02 -3.863110485593210242e-02 -9.984777282831133194e-01
1.107692307692307532e+00 4.399085452274696662e-02 -3.944306685148257774e-02 -9.982527851297257060e-01
1.181538461538461426e+00 4.888791363556306557e-02 -3.976313777145253081e-02 -9.980122298368709899e-01
1.255384615384615321e+00 5.402850428357570262e-02 -3.953323865324658015e-02 -9.977562639868273742e-01
1.329230769230769216e+00 5.938122240852396205e-02 -3.869321124501141906e-02 -9.974849368761133928e-01
1.403076923076922888e+00 6.490165619601959146e-02 -3.718845783590288279e-02 -9.971982069715956687e-01
1.476923076923076783e+00 7.053879109355522259e-02 -3.496120661412070035e-02 -9.968958972644761385e-01
1.550769230769230678e+00 7.621995950638477124e-02 -3.195681290226677629e-02 -9.965784977698433078e-01
1.624615384615384350e+00 8.187586460134053945e-02 -2.812385607558725784e-02 -9.962453392617883763e-01
1.698461538461538245e+00 8.740707227337059237e-02 -2.341875784082881815e-02 -9.958970468542259757e-01
1.772307692307692140e+00 9.271254463652048305e-02 -1.780793374291194872e-02 -9.955333235320966700e-01
1.846153846153846034e+00 9.767489802915364783e-02 -1.126602739226718886e-02 -9.951542577748582197e-01
1.919999999999999929e+00 1.021660472701261813e-01 -3.777579461615186707e-03 -9.947598247851788811e-01
1.993846153846153602e+00 1.060437524383543578e-01 4.644552142454710930e-03 -9.943502429396120501e-01
2.067692307692307274e+00 1.091597198039961220e-01 1.398031728520909150e-02 -9.939255180366092235e-01
2.141538461538461391e+00 1.113617333062446313e-01 2.418201097398819249e-02 -9.934852756931740192e-01
2.215384615384615064e+00 1.124882823905805351e-01 3.517989254010772671e-02 -9.930296718037125991e-01
2.289230769230769180e+00 1.123735113457616647e-01 4.688088300342405090e-02 -9.925590778834286754e-01
2.363076923076922853e+00 1.108637463849684868e-01 5.915024359969656143e-02 -9.920733830325115798e-01
2.436923076923076525e+00 1.078069835563928297e-01 7.183864576960667658e-02 -9.915724654954612971e-01
2.510769230769230642e+00 1.030671835314196927e-01 8.475450369720605170e-02 -9.910564539927270156e-01
2.584615384615384315e+00 9.652333019258702018e-02 9.768462323950118098e-02 -9.905251119912042990e-01
2.658461538461538431e+00 8.808267774461948918e-02 1.103737408218541938e-01 -9.899788340069514136e-01
2.732307692307692104e+00 7.768327374064017132e-02 1.225448461945500556e-01 -9.894175316935162057e-01
2.806153846153845777e+00 6.529718112600474411e-02 1.338970256298487316e-01 -9.888411501166486373e-01
2.879999999999999893e+00 5.095032931396149822e-02 1.441022639203135558e-01 -9.882497304881761035e-01
