0.000000000000000000e+00 -1.523029297705520970e-09 2.044274825942960981e-09 -1.000000000000000000e+00
7.384615384615383915e-02 -1.305975960466455588e-01 8.810625003851740855e-02 -9.875120918779682899e-01
1.476923076923076783e-01 -2.578855938379980839e-01 1.734608679323492164e-01 -9.504753594756429891e-01
2.215384615384615175e-01 -3.786567410417654989e-01 2.534773371658203822e-01 -8.901481524162641046e-01
2.953846153846153566e-01 -4.899518454639367193e-01 3.258422486584900968e-01 -8.085590601533622079e-01
3.692307692307691958e-01 -5.891582383297584435e-01 3.886523265669928895e-01 -7.084024522517077260e-01
4.430769230769230349e-01 -6.740995399198344007e-01 4.404966115751532407e-01 -5.929107282418391023e-01
5.169230769230768185e-01 -7.431166333303491633e-01 4.805196861979842970e-01 -4.656906835839622616e-01
5.907692307692307132e-01 -7.951072746401049995e-01 5.084494941233892451e-01 -3.305629426357820644e-01
6.646153846153846079e-01 -8.295645920913576887e-01 5.245799751648604348e-01 -1.913795098962295105e-01
7.384615384615383915e-01 -8.465752132269576125e-01 5.297246106037870605e-01 -5.186165731530648776e-02
8.123076923076921751e-01 -8.467950827777024347e-01 5.251436344219760910e-01 8.455575617282727607e-02
8.861538461538460698e-01 -8.314062816207857809e-01 5.124361207331231682e-01 2.148501646780097418e-01
9.599999999999999645e-01 -8.020486571462422942e-01 4.934244208928119657e-01 3.365095314439356389e-01
1.033846153846153637e+00 -7.607265071769396814e-01 4.700298903062272160e-01 4.476117379226896564e-01
1.107692307692307532e+00 -7.097207195694479331e-01 4.441446886630808777e-01 5.468291090702244173e-01
1.181538461538461426e+00 -6.514619575525453232e-01 4.175260408696821468e-01 6.334511951369753424e-01
1.255384615384615321e+00 -5.884375514034737575e-01 3.916871572367299770e-01 7.073291303802826668e-01
1.329230769230769216e+00 -5.230631012443850425e-01 3.678365535395805574e-01 7.688265777730836081e-01
1.403076923076922888e+00 -4.575930823430276462e-01 3.468240186790495505e-01 8.187280293796653785e-01
1.476923076923076783e+00 -3.940233190454860424e-01 3.291301125430905472e-01 8.581454970688695560e-01
1.550769230769230678e+00 -3.340252165881195112e-01 3.148689114651289644e-01 8.884143763298493202e-01
1.624615384615384350e+00 -2.789004599112500093e-01 3.038410055918701613e-01 9.109835933961532017e-01
1.698461538461538245e+00 -2.295416330985766418e-01 2.955772961628355677e-01 9.273300778484557805e-01
1.772307692307692140e+00 -1.864418597265094513e-01 2.894203817310270210e-01 9.388673880649972547e-01
1.846153846153846034e+00 -1.497057007604964962e-01 2.846021854978609822e-01 9.468826450673448747e-01
1.919999999999999929e+00 -1.190977121572308062e-01 2.803292883390192114e-01 9.524853535521239367e-01
1.993846153846153602e+00 -9.409624855454788717e-02 2.758592791036870717e-01 9.565797481305334804e-01
2.067692307692307274e+00 -7.396095732203210316e-02 2.705663842061878377e-01 9.598546685988187388e-01
2.141538461538461391e+00 -5.781262961402459932e-02 2.639860969069414143e-01 9.627910070792402575e-01
2.215384615384615064e+00 -4.471900451538324966e-02 2.558498781354524576e-01 9.656804029160687142e-01
2.289230769230769180e+00 -3.375300276511702946e-02 2.460936083749475922e-01 9.686569955429852330e-01
2.363076923076922853e+00 -2.407811321646011193e-02 2.348417708250674918e-01 9.717342308101224457e-01
2.436923076923076525e+00 -1.498994912116773104e-02 2.223882024057325657e-01 9.748419061200199742e-01
2.510769230769230642e+00 -5.951582859985676821e-03 2.091407273281074841e-01 9.778664640580198020e-01
2.584615384615384315e+00 3.374331820765616441e-03 1.955960234287235366e-01 9.806778399774777055e-01
2.658461538461538431e+00 1.313837850093037274e-02 1.822538547193216507e-01 9.831628843185097333e-01
2.732307692307692104e+00 2.330757372868901001e-02 1.695892704924387706e-01 9.852383899173581261e-01
2.806153846153845777e+00 3.371061235239013187e-02 1.579950472598503075e-01 9.868635646025183394e-01
2.879999999999999893e+00 4.405210502890435920e-02 1.477518100410350477e-01 9.880422144489127145e-01
