0.000000000000000000e+00 -1.868323944512486747e-09 2.384945145029575743e-09 -1.000000000000000000e+00
7.384615384615383915e-02 -7.131806276671218137e-03 1.651047027591101835e-01 -9.862488005335344754e-01
1.476923076923076783e-01 -1.402122146948085041e-02 3.256349194306687456e-01 -9.453884682050345267e-01
2.215384615384615175e-01 -2.036589897998893062e-02 4.771367416738790390e-01 -8.785877743914924931e-01
2.953846153846153566e-01 -2.588050547874864993e-02 6.154358139322300136e-01 -7.877539259292803964e-01
3.692307692307691958e-01 -3.026558074514645869e-02 7.367486118271526774e-01 -6.754772015020253928e-01
4.430769230769230349e-01 -3.320461039984928808e-02 8.378001433772751527e-01 -5.449489521195827191e-01
5.169230769230768185e-01 -3.436450421380965459e-02 9.159160070655956165e-01 -3.998693488500956739e-01
5.907692307692307132e-01 -3.339673543677521006e-02 9.691038830239190327e-01 -2.443340759419771191e-01
6.646153846153846079e-01 -2.994181628009112694e-02 9.961118646125193266e-01 -8.270770445506170354e-02
7.384615384615383915e-01 -2.363667887695710540e-02 9.964619761230085748e-01 8.050313278259685346e-02
8.123076923076921751e-01 -1.412048348065760364e-02 9.704632812443358958e-01 2.407870792816060590e-01
8.861538461538460698e-01 -1.050519148674822212e-03 9.191980789775738847e-01 3.937667451751694081e-01
9.599999999999999645e-01 1.588854967517239203e-02 8.444909226270344016e-01 5.353162011571208634e-01
1.033846153846153637e+00 3.697099549971885613e-02 7.488452117182020640e-01 6.617005423458607316e-01
1.107692307692307532e+00 6.240724562484187277e-02 6.353650675431159467e-01 7.696773753264682938e-01
1.181538461538461426e+00 9.234258652584154126e-02 5.076668659076324364e-01 8.565844975355473290e-01
1.255384615384615321e+00 1.268278037354872712e-01 3.697556433977575718e-01 9.204282419230946921e-01
1.329230769230769216e+00 1.658145982589485645e-01 2.259135658399066271e-01 9.599289294086814639e-01
1.403076923076922888e+00 2.091355050598258380e-01 8.056012050314793893e-02 9.745606474076159431e-01
1.476923076923076783e+00 2.565162773602266411e-01 -6.186578562365721567e-02 9.645555009322952511e-01
1.550769230769230678e+00 3.075584211561924741e-01 -1.970780604916660128e-01 9.308927335904298994e-01
1.624615384615384350e+00 3.617180908905223702e-01 -3.210414924362936517e-01 8.752616499948199236e-01
1.698461538461538245e+00 4.183275495404923938e-01 -4.301002445287006593e-01 8.000022142066993691e-01
1.772307692307692140e+00 4.765997419705791383e-01 -5.210892087615485169e-01 7.080279441883482461e-01
1.846153846153846034e+00 5.356424362232872216e-01 -5.914281073369496156e-01 6.027289401450054429e-01
1.919999999999999929e+00 5.944674307630191112e-01 -6.391993553082090385e-01 4.878653331149368499e-01
1.993846153846153602e+00 6.520180831617985451e-01 -6.632014829226127173e-01 3.674429494435607069e-01
2.067692307692307274e+00 7.071887074580783805e-01 -6.629832062748173271e-01 2.455895282521129985e-01
2.141538461538461391e+00 7.588546444520244405e-01 -6.388532259809379665e-01 1.264209148703050734e-01
2.215384615384615064e+00 8.059008438841811506e-01 -5.918664971054161672e-01 1.391681623140199678e-02
2.289230769230769180e+00 8.472554068553641571e-01 -5.237879820219835114e-01 -8.820631477238544127e-02
2.363076923076922853e+00 8.819219441177479357e-01 -4.370346167029527940e-01 -1.766090470423328784e-01
2.436923076923076525e+00 9.090127973969415187e-01 -3.345951740395200491e-01 -2.484323955241226067e-01
2.510769230769230642e+00 9.277792259400956532e-01 -2.199396535366222594e-01 -3.013795098321018773e-01
2.584615384615384315e+00 9.376415433717372183e-01 -9.690080013493573841e-02 -3.337907696087853981e-01
2.658461538461538431e+00 9.382136405431457105e-01 3.043554837211082109e-02 -3.446834442711409485e-01
2.732307692307692104e+00 9.293241393994496891e-01 1.578716201324721347e-01 -3.337827130453688285e-01
2.806153846153845777e+00 9.110310938018563176e-01 2.812152944999369297e-01 -3.015255427087900619e-01
2.879999999999999893e+00 8.836333918575433044e-01 3.964234165755722850e-01 -2.490328365715594738e-01
