0.000000000000000000e+00 2.889238788534586296e-09 1.325497751911694559e-09 -1.000000000000000000e+00
7.384615384615383915e-02 -2.315250964586544613e-02 -1.219395818770182133e-01 -9.922661923118617500e-01
1.476923076923076783e-01 -4.375079646942295342e-02 -2.419669102980096520e-01 -9.692950144116992961e-01
2.215384615384615175e-01 -5.939828829331955662e-02 -3.581473070409922910e-01 -9.317695834645960407e-01
2.953846153846153566e-01 -6.787681940545889359e-02 -4.685869477980796893e-01 -8.807998436461517144e-01
3.692307692307691958e-01 -6.726265748455148574e-02 -5.714279088457607791e-01 -8.178828527953304617e-01
4.430769230769230349e-01 -5.600999093482228464e-02 -6.648660164009280171e-01 -7.448488142433242754e-01
5.169230769230768185e-01 -3.302102878936549746e-02 -7.471745062768696544e-01 -6.637928495744310764e-01
5.907692307692307132e-01 2.298651561754933015e-03 -8.167255162712345751e-01 -5.770033616415838340e-01
6.646153846153846079e-01 5.001214935868336653e-02 -8.720255063680364405e-01 -4.868747466502261756e-01
7.384615384615383915e-01 1.096247423391478737e-01 -9.117444661786148208e-01 -3.958276479692304783e-01
8.123076923076921751e-01 1.800982158199343486e-01 -9.347551475315631908e-01 -3.062209325583798991e-01
8.861538461538460698e-01 2.598643832908468232e-01 -9.401722765073246002e-01 -2.202714453922984816e-01
9.599999999999999645e-01 3.468777029982725857e-01 -9.273910964789605638e-01 -1.399784425737538585e-01
1.033846153846153637e+00 4.386711162552956456e-01 -8.961267683240873305e-01 -6.705614832653644664e-02
1.107692307692307532e+00 5.324377161892873689e-01 -8.464477165485089216e-01 -2.883926620906882964e-03
1.181538461538461426e+00 6.251206845607257812e-01 -7.788066354276858005e-01 5.154007216561582588e-02
1.255384615384615321e+00 7.135155730615660996e-01 -6.940641489856580471e-01 9.561713649379013913e-02
1.329230769230769216e+00 7.943857516685191023e-01 -5.934991259436138700e-01 1.291601945849263910e-01
1.403076923076922888e+00 8.645727479964521178e-01 -4.788131758843059416e-01 1.523953001733012458e-01
1.476923076923076783e+00 9.211169838632533580e-01 -3.521131179003843537e-01 1.659288122181310499e-01
1.550769230769230678e+00 9.613632498641012658e-01 -2.158989491355843282e-01 1.707069976737730643e-01
1.624615384615384350e+00 9.830677517133112886e-01 -7.301295553025510809e-02 1.679863674116278682e-01
1.698461538461538245e+00 9.844910422039396813e-01 7.340676116411654073e-02 1.592523133577687100e-01
1.772307692307692140e+00 9.644752567937645571e-01 2.199925301070995154e-01 1.461613910639248115e-01
1.846153846153846034e+00 9.225026811085631495e-01 3.632349231746567764e-01 1.304664489844173381e-01
1.919999999999999929e+00 8.587389892166878980e-01 4.995571274541247275e-01 1.139396657367795496e-01
1.993846153846153602e+00 7.740469732022793314e-01 6.254281626761432067e-01 9.830083565163212633e-02
2.067692307692307274e+00 6.699838539509018753e-01 7.374581322328286337e-01 8.514251673283172728e-02
2.141538461538461391e+00 5.487717013707870128e-01 8.325059345763294871e-01 7.586546850110560680e-02
2.215384615384615064e+00 4.132447986379057525e-01 9.077829766244767118e-01 7.163008519063082669e-02
2.289230769230769180e+00 2.667793533926575145e-01 9.609508591525710575e-01 7.330961320283171934e-02
2.363076923076922853e+00 1.131920455083359478e-01 9.902149671572721967e-01 8.144921790515120830e-02
2.436923076923076525e+00 -4.335834043723230113e-02 9.943963765062424631e-01 9.627074137102591134e-02
2.510769230769230642e+00 -1.985161504704833213e-01 9.729961611259204668e-01 1.176522392976930703e-01
2.584615384615384315e+00 -3.478372315310975793e-01 9.262358697240006267e-01 1.451508111918404509e-01
2.658461538461538431e+00 -4.869546746460917674e-01 8.550766138184341392e-01 1.780217093601455525e-01
2.732307692307692104e+00 -6.117054087236135640e-01 7.612171839790525807e-01 2.152621214006381622e-01
2.806153846153845777e+00 -7.182741412007302984e-01 6.470662447493346070e-01 2.556575794749265107e-01
2.879999999999999893e+00 -8.033247050131617772e-01 5.156881773899375521e-01 2.978403077361554407e-01
