0.000000000000000000e+00 1.215644591703589429e-15 3.652388689005617096e-14 -1.000000000000000000e+00
7.384615384615383915e-02 2.523849353282186375e-03 8.066059843312610445e-02 -9.967384300963396671e-01
1.476923076923076783e-01 4.055770475849446860e-03 1.602991740525650521e-01 -9.870601427943670458e-01
2.215384615384615175e-01 3.643187811555509414e-03 2.379067526524545340e-01 -9.712811663742537682e-01
2.953846153846153566e-01 4.085092740183718374e-04 3.125033988150792141e-01 -9.499165536064435589e-01
3.692307692307691958e-01 -6.413359907246486691e-03 3.831472237155039151e-01 -9.236650224425528855e-01
4.430769230769230349e-01 -1.744476631268032651e-02 4.489510032839601483e-01 -8.933860736971895866e-01
5.169230769230768185e-01 -3.313776165206426538e-02 5.090949131208006850e-01 -8.600722399852485101e-01
5.907692307692307132e-01 -5.375582924957508779e-02 5.628352130034096623e-01 -8.248192732683924389e-01
6.646153846153846079e-01 -7.935061689112773986e-02 6.095208574889603437e-01 -7.887888206493565146e-01
7.384615384615383915e-01 -1.097638920016732744e-01 6.485998409746129845e-01 -7.531733757617328218e-01
8.123076923076921751e-01 -1.446134160283742975e-01 6.796327474675777358e-01 -7.191566504700254159e-01
8.861538461538460698e-01 -1.833124827185320105e-01 7.023003426498972690e-01 -6.878740888367134154e-01
9.599999999999999645e-01 -2.250705202557306550e-01 7.164111349699042730e-01 -6.603774269440199074e-01
1.033846153846153637e+00 -2.689165017259848023e-01 7.219039412242436171e-01 -6.376038065621589812e-01
1.107692307692307532e+00 -3.137288372264939174e-01 7.188597002213460430e-01 -6.203345449389058297e-01
1.181538461538461426e+00 -3.582573994584309363e-01 7.074982311655473310e-01 -6.091780430135396163e-01
1.255384615384615321e+00 -4.011725613833518889e-01 6.881770499108336159e-01 -6.045435661907815339e-01
1.329230769230769216e+00 -4.410865779875431381e-01 6.613967784983660891e-01 -6.066275064576073239e-01
1.403076923076922888e+00 -4.766132630664131620e-01 6.277874084087682327e-01 -6.154045554269713669e-01
1.476923076923076783e+00 -5.064015959859343718e-01 5.881079014893884072e-01 -6.306239122540768793e-01
1.550769230769230678e+00 -5.291780957007133912e-01 5.432339594038535502e-01 -6.518185391726101230e-01
1.624615384615384350e+00 -5.437960931612030313e-01 4.941483987444474368e-01 -6.783090509379270383e-01
1.698461538461538245e+00 -5.492696742447377156e-01 4.419203643628356604e-01 -7.092314262588549356e-01
1.772307692307692140e+00 -5.448103507730706063e-01 3.876949911976314000e-01 -7.435551593302768270e-01
1.846153846153846034e+00 -5.298563445832429331e-01 3.326731252222890345e-01 -7.801159179617930262e-01
1.919999999999999929e+00 -5.041031859279194727e-01 2.780845831383617628e-01 -8.176484222096614962e-01
1.993846153846153602e+00 -4.675127927694691099e-01 2.251703296958000311e-01 -8.548275328675095652e-01
2.067692307692307274e+00 -4.203366901945162493e-01 1.751589371253145233e-01 -8.903013047853260975e-01
2.141538461538461391e+00 -3.631063100809305277e-01 1.292383883628170915e-01 -9.227411588835560119e-01
2.215384615384615064e+00 -2.966339413278351045e-01 8.853414350049532144e-02 -9.508785464208598937e-01
2.289230769230769180e+00 -2.220016444059172422e-01 5.408080851905101849e-02 -9.735453434696607067e-01
2.363076923076922853e+00 -1.405350522018089798e-01 2.680263968061840502e-02 -9.897128459302202419e-01
2.436923076923076525e+00 -5.378065752394889376e-02 7.486884559533923608e-03 -9.985247055118672277e-01
2.510769230769230642e+00 3.653335673639770270e-02 -3.234565226769714995e-03 -9.993271993148823418e-01
2.584615384615384315e+00 1.285387130750079709e-01 -4.903080156554572022e-03 -9.916923712730411067e-01
2.658461538461538431e+00 2.202702978915280496e-01 2.748325167160163562e-03 -9.754350018614875717e-01
2.732307692307692104e+00 3.097150809834885998e-01 1.979130864374527982e-02 -9.506234128033816955e-01
2.806153846153845777e+00 3.948654945479471712e-01 4.608932840670192099e-02 -9.175821570075053391e-01
2.879999999999999893e+00 4.737740947049342566e-01 8.129326482376730834e-02 -8.768862597128992409e-01
