1.000000000000000056e-01 -1.590963687524128006e-02 -1.327378892507230512e-01 -8.891964309425623991e-01
2.000000000000000111e-01 -4.389683510578716585e-02 -2.596928249134090039e-01 -8.540501133826745583e-01
2.999999999999999889e-01 -9.445606884021751082e-02 -3.735247012216075801e-01 -7.970751794841361981e-01
4.000000000000000222e-01 -1.747270675380131200e-01 -4.642753045326479810e-01 -7.205506927337148593e-01
5.000000000000000000e-01 -2.864768056983452160e-01 -5.191822430735173466e-01 -6.274476616922174399e-01
5.999999999999999778e-01 -4.239912141776593923e-01 -5.239060893114229067e-01 -5.212318093042626055e-01
6.999999999999999556e-01 -5.725905882362760657e-01 -4.653388329400915957e-01 -4.056280326886077536e-01
7.999999999999999334e-01 -7.084858779767749803e-01 -3.359238724259634434e-01 -2.844080639204685790e-01
8.999999999999999112e-01 -8.010955682242798526e-01 -1.387439704326148826e-01 -1.611980087066722800e-01
9.999999999999998890e-01 -8.184656648967880699e-01 1.079694847046095973e-01 -3.930805109552810983e-02
1.099999999999999867e+00 -7.357379252017784976e-01 3.691444405387726002e-01 7.842800065388796926e-02
1.199999999999999956e+00 -5.451156530302422309e-01 5.959294178755709659e-01 1.897265011706855964e-01
1.300000000000000044e+00 -2.643704298135694519e-01 7.350015015450546141e-01 2.928441443762203056e-01
1.399999999999999911e+00 6.019783256896454882e-02 7.432647007326671496e-01 3.866598529774333270e-01
1.500000000000000000e+00 3.599791161790315552e-01 6.045449757191150297e-01 4.705104338308214729e-01
1.599999999999999867e+00 5.607818281232578306e-01 3.420080786168104847e-01 5.442679508728378579e-01
1.699999999999999956e+00 6.069598347868239152e-01 1.949823347291476661e-02 6.081484938784635919e-01
1.800000000000000044e+00 4.850068743615143507e-01 -2.728711465268820469e-01 6.626739337730671586e-01
1.899999999999999911e+00 2.358811855209586028e-01 -4.474968663426150961e-01 7.085826131748721446e-01
2.000000000000000000e+00 -5.296733692654206904e-02 -4.533730327058765330e-01 7.467161664234066576e-01
2.099999999999999645e+00 -2.775002236562886804e-01 -3.006277540343013643e-01 7.779929049113366579e-01
2.199999999999999734e+00 -3.592525529698830100e-01 -6.129469444288412894e-02 8.033477139119896693e-01
2.299999999999999822e+00 -2.810980823318093291e-01 1.587556235985479458e-01 8.236552251937916402e-01
2.399999999999999911e+00 -9.685313523293599680e-02 2.675167316496734338e-01 8.397388128665279616e-01
2.500000000000000000e+00 9.435167811401001803e-02 2.310355544673235451e-01 8.523412807924745094e-01
2.600000000000000089e+00 1.987908484054740077e-01 8.942862839392440311e-02 8.621036655090182910e-01
2.699999999999999734e+00 1.773322653649317959e-01 -6.721872724827551715e-02 8.695907209663038540e-01
2.799999999999999822e+00 6.390216848887858569e-02 -1.514886985326518720e-01 8.752648285520285842e-01
2.899999999999999911e+00 -5.973290811649600851e-02 -1.289065567092639308e-01 8.795184666251627537e-01
3.000000000000000000e+00 -1.176213726300532336e-01 -3.389608080476852470e-02 8.826656709225871866e-01
