1.000000000000000056e-01 9.734406717918979712e-01 5.192388424302104774e-03 2.136693978380152167e-02 0.000000000000000000e+00 7.106936271692784746e-02 -1.904667785717920492e-03 4.434080053614358917e-06 1.442201379811512418e-01 -2.818623998233192748e-04 1.052929268202063354e-02 0.000000000000000000e+00 0.000000000000000000e+00 0.000000000000000000e+00 0.000000000000000000e+00 0.000000000000000000e+00 0.000000000000000000e+00
2.000000000000000111e-01 8.965849524762368183e-01 2.021779497069640941e-02 8.319725255306667511e-02 0.000000000000000000e+00 1.345871912990347641e-01 -3.641246613718648710e-03 3.497094941967154874e-05 2.731179296306784909e-01 -1.103947921604371682e-03 4.099812548433458270e-02 0.000000000000000000e+00 0.000000000000000000e+00 0.000000000000000000e+00 0.000000000000000000e+00 0.000000000000000000e+00 0.000000000000000000e+00
2.999999999999999889e-01 7.775972371035682063e-01 4.348006548873085270e-02 1.789226974077019472e-01 0.000000000000000000e+00 1.838053917990379038e-01 -5.055367559502563918e-03 1.152569660333006444e-04 3.730010481020457069e-01 -2.397735559958447029e-03 8.816927732998258715e-02 0.000000000000000000e+00 0.000000000000000000e+00 0.000000000000000000e+00 0.000000000000000000e+00 0.000000000000000000e+00 0.000000000000000000e+00
4.000000000000000222e-01 6.291185898246581809e-01 7.250785566479858724e-02 2.983735545105424269e-01 0.000000000000000000e+00 2.134942907623425257e-01 -6.018946076702633673e-03 2.642509632070995829e-04 4.332577523796262153e-01 -4.055418198217490902e-03 1.470305417519654212e-01 0.000000000000000000e+00 0.000000000000000000e+00 0.000000000000000000e+00 0.000000000000000000e+00 0.000000000000000000e+00 0.000000000000000000e+00
5.000000000000000000e-01 4.669228517700078074e-01 1.042173733233750371e-01 4.288597749066171971e-01 0.000000000000000000e+00 2.204994174266210194e-01 -6.440502478670147649e-03 4.944244971972238572e-04 4.474865189696424217e-01 -5.938920554865801185e-03 2.113276330427692473e-01 0.000000000000000000e+00 0.000000000000000000e+00 0.000000000000000000e+00 0.000000000000000000e+00 0.000000000000000000e+00 0.000000000000000000e+00
5.999999999999999778e-01 3.082430958632821349e-01 1.352395697222431858e-01 5.565173344144757062e-01 0.000000000000000000e+00 2.040767537208179605e-01 -6.272339755178184782e-03 8.105534370725460055e-04 4.141762536264684824e-01 -7.891301057335915400e-03 2.742278108011365623e-01 0.000000000000000000e+00 0.000000000000000000e+00 0.000000000000000000e+00 0.000000000000000000e+00 0.000000000000000000e+00 0.000000000000000000e+00
6.999999999999999556e-01 1.699352912418465866e-01 1.622791558806370715e-01 6.677855528775142879e-01 0.000000000000000000e+00 1.659715311744918154e-01 -5.514201790010476133e-03 1.209219617683596638e-03 3.368662495088303732e-01 -9.749902067243769108e-03 3.290480439691286230e-01 0.000000000000000000e+00 0.000000000000000000e+00 0.000000000000000000e+00 0.000000000000000000e+00 0.000000000000000000e+00 0.000000000000000000e+00
7.999999999999999334e-01 6.669270741866381580e-02 1.824636965137872713e-01 7.508435960675489129e-01 0.000000000000000000e+00 1.102327117875838008e-01 -4.212740126259693213e-03 1.679039836997025950e-03 2.237699110700841765e-01 -1.135955337373404164e-02 3.699630503027610540e-01 0.000000000000000000e+00 0.000000000000000000e+00 0.000000000000000000e+00 0.000000000000000000e+00 0.000000000000000000e+00 0.000000000000000000e+00
8.999999999999999112e-01 9.483176071148543065e-03 1.936491298814625173e-01 7.968676940473889969e-01 0.000000000000000000e+00 4.278283310922592619e-02 -2.457232381827292606e-03 2.201621741365508006e-03 8.690218369494134842e-02 -1.258515536058251241e-02 3.926249475612236806e-01 0.000000000000000000e+00 0.000000000000000000e+00 0.000000000000000000e+00 0.000000000000000000e+00 0.000000000000000000e+00 0.000000000000000000e+00
9.999999999999998890e-01 4.384332544067137162e-03 1.946474761642695561e-01 8.009681912916619684e-01 0.000000000000000000e+00 -2.921063160170274051e-02 -3.718161579972557602e-04 2.753108571688787226e-03 -5.919570275597098308e-02 -1.332246629144868272e-02 3.946250737277771092e-01 0.000000000000000000e+00 0.000000000000000000e+00 0.000000000000000000e+00 0.000000000000000000e+00 0.000000000000000000e+00 0.000000000000000000e+00
1.099999999999999867e+00 5.193697542254969296e-02 1.853532456722100374e-01 7.627097789052391663e-01 0.000000000000000000e+00 -9.809737749109442850e-02 1.895118508459745334e-03 3.306217709525587772e-03 -1.990022811000972391e-01 -1.350606551764126952e-02 3.757503416101686811e-01 0.000000000000000000e+00 0.000000000000000000e+00 0.000000000000000000e+00 0.000000000000000000e+00 0.000000000000000000e+00 0.000000000000000000e+00
1.199999999999999956e+00 1.470879437848049975e-01 1.667545891826930360e-01 6.861574670325044645e-01 0.000000000000000000e+00 -1.565569847395296699e-01 4.183318456120630954e-03 3.832540836406170617e-03 -3.176646069447171539e-01 -1.311394530605653960e-02 3.380058149915333710e-01 0.000000000000000000e+00 0.000000000000000000e+00 0.000000000000000000e+00 0.000000000000000000e+00 0.000000000000000000e+00 0.000000000000000000e+00
1.300000000000000044e+00 2.797252611413398315e-01 1.408286523940648072e-01 5.794460864645967213e-01 0.000000000000000000e+00 -1.983764453073584011e-01 6.333840366614223658e-03 4.304859852546372330e-03 -4.025756775010014832e-01 -1.216848580334205059e-02 2.854024166769347226e-01 0.000000000000000000e+00 0.000000000000000000e+00 0.000000000000000000e+00 0.000000000000000000e+00 0.000000000000000000e+00 0.000000000000000000e+00
1.399999999999999911e+00 4.357619803331936326e-01 1.103296570466726911e-01 4.539083626201324551e-01 0.000000000000000000e+00 -2.191122968326733866e-01 8.201903229830666622e-03 4.699400386093336400e-03 -4.447178010870787568e-01 -1.073344851257911070e-02 2.235270611390697271e-01 0.000000000000000000e+00 0.000000000000000000e+00 0.000000000000000000e+00 0.000000000000000000e+00 0.000000000000000000e+00 0.000000000000000000e+00
1.500000000000000000e+00 5.986153002114384947e-01 7.849970120565322174e-02 3.228849985829085889e-01 0.000000000000000000e+00 -2.165586588153604886e-01 9.667961401773689928e-03 4.997554127581262801e-03 -4.396122436177906656e-01 -8.907921028314919054e-03 1.589560469294625522e-01 0.000000000000000000e+00 0.000000000000000000e+00 0.000000000000000000e+00 0.000000000000000000e+00 0.000000000000000000e+00 0.000000000000000000e+00
1.599999999999999867e+00 7.509870828501220563e-01 4.872064018357737114e-02 2.002922769663011415e-01 0.000000000000000000e+00 -1.909848606502182189e-01 1.064680412314069312e-02 5.187265381984233238e-03 -3.878015021006824825e-01 -6.817075686399244432e-03 9.854894944463786499e-02 0.000000000000000000e+00 0.000000000000000000e+00 0.000000000000000000e+00 0.000000000000000000e+00 0.000000000000000000e+00 0.000000000000000000e+00
1.699999999999999956e+00 8.766832612794048796e-01 2.415836576047602352e-02 9.915837296011925650e-02 0.000000000000000000e+00 -1.451074678059811884e-01 1.109313737345289132e-02 5.263687429311367239e-03 -2.947927738245609275e-01 -4.601407672035099511e-03 4.872711041699349238e-02 0.000000000000000000e+00 0.000000000000000000e+00 0.000000000000000000e+00 0.000000000000000000e+00 0.000000000000000000e+00 0.000000000000000000e+00
1.800000000000000044e+00 9.623536811168978966e-01 7.422652331908289984e-03 3.022366655119444398e-02 0.000000000000000000e+00 -8.379815744086349660e-02 1.100389313714804883e-02 5.229223021529685010e-03 -1.704655749246027363e-01 -2.404504969658544881e-03 1.478371147021773080e-02 0.000000000000000000e+00 0.000000000000000000e+00 0.000000000000000000e+00 0.000000000000000000e+00 0.000000000000000000e+00 0.000000000000000000e+00
1.899999999999999911e+00 9.988943344385881051e-01 2.930117714038748362e-04 8.126537900080734855e-04 0.000000000000000000e+00 -1.357129842433665336e-02 1.041669766135983576e-02 5.092902199884653813e-03 -2.803243365884149421e-02 -3.615224091772702175e-04 3.277478162899038127e-04 0.000000000000000000e+00 0.000000000000000000e+00 0.000000000000000000e+00 0.000000000000000000e+00 0.000000000000000000e+00 0.000000000000000000e+00
2.000000000000000000e+00 9.824241779990973145e-01 3.527732007642410145e-03 1.404808999326099747e-02 0.000000000000000000e+00 5.811433401924841202e-02 9.404959391783335870e-03 4.869210622796039251e-03 1.173774828676057425e-01 1.411713419232464486e-03 6.896735594820800445e-03 0.000000000000000000e+00 0.000000000000000000e+00 0.000000000000000000e+00 0.000000000000000000e+00 0.000000000000000000e+00 0.000000000000000000e+00
2.099999999999999645e+00 9.146928790960816569e-01 1.678417975586670580e-02 6.852294114805057568e-02 0.000000000000000000e+00 1.236415899608419577e-01 8.070121939184165746e-03 4.576514108756744338e-03 2.503128074262331859e-01 2.827071704962700639e-03 3.379510359732543212e-02 0.000000000000000000e+00 0.000000000000000000e+00 0.000000000000000000e+00 0.000000000000000000e+00 0.000000000000000000e+00 0.000000000000000000e+00
2.199999999999999734e+00 8.028961691646692156e-01 3.865492978288450482e-02 1.584489010524467723e-01 0.000000000000000000e+00 1.760489470624160835e-01 6.531706870158706345e-03 4.235223797407591979e-03 3.566511996212508584e-01 3.830069071012934430e-03 7.816752340501673113e-02 0.000000000000000000e+00 0.000000000000000000e+00 0.000000000000000000e+00 0.000000000000000000e+00 0.000000000000000000e+00 0.000000000000000000e+00
2.299999999999999822e+00 6.589105869863327580e-01 6.681741127495696708e-02 2.742720017387092479e-01 0.000000000000000000e+00 2.097678017305657505e-01 4.916197390553146002e-03 3.865900915649308784e-03 4.250950250089918225e-01 4.402407020014972860e-03 1.353024905678493206e-01 0.000000000000000000e+00 0.000000000000000000e+00 0.000000000000000000e+00 0.000000000000000000e+00 0.000000000000000000e+00 0.000000000000000000e+00
2.399999999999999911e+00 4.980349703590533639e-01 9.827999401409122371e-02 4.036850356268553153e-01 0.000000000000000000e+00 2.212141024066476835e-01 3.345850855338007059e-03 3.487551441766617404e-03 4.483716108230130781e-01 4.561286330428765412e-03 1.991315081849971136e-01 0.000000000000000000e+00 0.000000000000000000e+00 0.000000000000000000e+00 0.000000000000000000e+00 0.000000000000000000e+00 0.000000000000000000e+00
2.500000000000000000e+00 3.373626176202791371e-01 1.297002787361020149e-01 5.329371036436177933e-01 0.000000000000000000e+00 2.091705223784613710e-01 1.928242133624174376e-03 3.116104343195468755e-03 4.240086629357350256e-01 4.355516788907308652e-03 2.628747237087956101e-01 0.000000000000000000e+00 0.000000000000000000e+00 0.000000000000000000e+00 0.000000000000000000e+00 0.000000000000000000e+00 0.000000000000000000e+00
2.600000000000000089e+00 1.939580100735164014e-01 1.577415993430715813e-01 6.483003905834123781e-01 0.000000000000000000e+00 1.749133714791923921e-01 7.476624014545601993e-04 2.763467478970125200e-03 3.545919008415364670e-01 3.858992257031092048e-03 3.197640515199856592e-01 0.000000000000000000e+00 0.000000000000000000e+00 0.000000000000000000e+00 0.000000000000000000e+00 0.000000000000000000e+00 0.000000000000000000e+00
2.699999999999999734e+00 8.306859296097474088e-02 1.794226590335700477e-01 7.375087480054549616e-01 0.000000000000000000e+00 1.220834468504243125e-01 -1.407651804713047280e-04 2.437016798999542926e-03 2.475032825114298063e-01 3.162200749799333292e-03 3.637523623484792967e-01 0.000000000000000000e+00 0.000000000000000000e+00 0.000000000000000000e+00 0.000000000000000000e+00 0.000000000000000000e+00 0.000000000000000000e+00
2.799999999999999822e+00 1.646649751028869332e-02 1.924417603626120965e-01 7.910917421270998728e-01 0.000000000000000000e+00 5.628793173392905580e-02 -7.144839661017921223e-04 2.139598423735946005e-03 1.141136811770928072e-01 2.362443883899854880e-03 3.901711244086766839e-01 0.000000000000000000e+00 0.000000000000000000e+00 0.000000000000000000e+00 0.000000000000000000e+00 0.000000000000000000e+00 0.000000000000000000e+00
2.899999999999999911e+00 1.231844639746268498e-03 1.954146881405531000e-01 8.033534672197005788e-01 0.000000000000000000e+00 -1.548398684425896128e-02 -9.831001866513128847e-04 1.870136425935143166e-03 -3.140236334170735943e-02 1.554175427473495274e-03 3.962128869714509061e-01 0.000000000000000000e+00 0.000000000000000000e+00 0.000000000000000000e+00 0.000000000000000000e+00 0.000000000000000000e+00 0.000000000000000000e+00
3.000000000000000000e+00 3.898372515480939132e-02 1.880250606286208437e-01 7.729912142165699107e-01 0.000000000000000000e+00 -8.560926545800347232e-02 -9.853608515284755648e-04 1.624590713884698293e-03 -1.735840939570389430e-01 8.199050094923021311e-04 3.812362098152498602e-01 0.000000000000000000e+00 0.000000000000000000e+00 0.000000000000000000e+00 0.000000000000000000e+00 0.000000000000000000e+00 0.000000000000000000e+00
