1.000000000000000056e-01 6.017583963729979113e-02 2.327627782155519409e-01 -8.630908749667176583e-01
2.000000000000000111e-01 1.072283044162577886e-01 4.470664900556475807e-01 -7.530502164252692587e-01
2.999999999999999889e-01 1.314808896585278886e-01 6.256714768066354848e-01 -5.819339704279060665e-01
4.000000000000000222e-01 1.253113881598515722e-01 7.546351469603556072e-01 -3.667280684643421385e-01
5.000000000000000000e-01 8.433895091814193334e-02 8.245809676827421386e-01 -1.288397323378313863e-01
5.999999999999999778e-01 8.441184171061932862e-03 8.313896326868072117e-01 1.080561888102440360e-01
6.999999999999999556e-01 -9.814986102683295743e-02 7.765359281395841640e-01 3.203702210898684566e-01
7.999999999999999334e-01 -2.272171531164661196e-01 6.669196318999651707e-01 4.869356107400816258e-01
8.999999999999999112e-01 -3.673557980946231538e-01 5.141962133795132672e-01 5.911192933930766724e-01
9.999999999999998890e-01 -5.051336665797886427e-01 3.336761911979441719e-01 6.224779319051746418e-01
1.099999999999999867e+00 -6.264931537231052117e-01 1.428917647711051564e-01 5.778086787631211418e-01
1.199999999999999956e+00 -7.182505487858112936e-01 -4.002188021964583203e-02 4.614814646928506736e-01
1.300000000000000044e+00 -7.695470332152232196e-01 -1.979962108804689813e-01 2.850194105521643984e-01
1.399999999999999911e+00 -7.730813862054854990e-01 -3.165830717872564204e-01 6.597562375969376336e-02
1.500000000000000000e+00 -7.260073026973179466e-01 -3.852481193528018988e-01 -1.737970303930823635e-01
1.599999999999999867e+00 -6.303875083299446125e-01 -3.982985513667884891e-01 -4.102878268410388163e-01
1.699999999999999956e+00 -4.931521083815119666e-01 -3.553439441051916559e-01 -6.197201144625874569e-01
1.800000000000000044e+00 -3.255554909382649686e-01 -2.612656532425495781e-01 -7.808928317722874102e-01
1.899999999999999911e+00 -1.421826120146144345e-01 -1.256942529942445819e-01 -8.772908710993227999e-01
2.000000000000000000e+00 4.042163453770691167e-02 3.796072856394408501e-02 -8.987393454860475028e-01
2.099999999999999645e+00 2.053222763246740634e-01 2.138009932784759315e-01 -8.424244650992221972e-01
2.199999999999999734e+00 3.368780282846365326e-01 3.849814052913916873e-01 -7.132022543873928200e-01
2.299999999999999822e+00 4.222957361428549272e-01 5.352981763767620249e-01 -5.231474058305423114e-01
2.399999999999999911e+00 4.529571579420279548e-01 6.507179521905588349e-01 -2.903826409814726506e-01
2.500000000000000000e+00 4.253407415355126564e-01 7.206747722792005151e-01 -3.732715987079513603e-02
2.600000000000000089e+00 3.414679199144844413e-01 7.390376235591123999e-01 2.115136235732165970e-01
2.699999999999999734e+00 2.088036899432968996e-01 7.046426549056298283e-01 4.319268508384691563e-01
2.799999999999999822e+00 3.961471026730965794e-02 6.213513418849018199e-01 6.024014054386728212e-01
2.899999999999999911e+00 -1.501397699013302389e-01 4.976361322616616456e-01 7.062263351700429626e-01
3.000000000000000000e+00 -3.423156325004709233e-01 3.457255445724587428e-01 7.331615999795044747e-01
