1.000000000000000056e-01 1.475794791654759063e-09 -5.356813747521418216e-10 -9.999999598238981102e-01
2.000000000000000111e-01 1.133175589977056336e-08 -4.090044188213086312e-09 -9.999993575635890419e-01
2.999999999999999889e-01 3.524805082310254109e-08 -1.259213078496553398e-08 -9.999967508787961368e-01
4.000000000000000222e-01 7.420411959811545659e-08 -2.612968220856975757e-08 -9.999897453671826586e-01
5.000000000000000000e-01 1.225479346653111791e-07 -4.237062219970153805e-08 -9.999750087382923702e-01
5.999999999999999778e-01 1.669207795843581127e-07 -5.647810116985645030e-08 -9.999482905115385512e-01
6.999999999999999556e-01 1.860200559105148986e-07 -6.151966886272217890e-08 -9.999044470949547403e-01
7.999999999999999334e-01 1.513189297878770799e-07 -4.934671971497428858e-08 -9.998374720635593293e-01
8.999999999999999112e-01 2.872314450209052355e-08 -1.186938322977490712e-08 -9.997405314206394555e-01
9.999999999999998890e-01 -2.188578203846105784e-07 5.741715835349565592e-08 -9.996060035921306985e-01
1.099999999999999867e+00 -6.281930407114053222e-07 1.618661276053586044e-07 -9.994255238743106062e-01
1.199999999999999956e+00 -1.231890546955678499e-06 3.002740467559395706e-07 -9.991900330279765985e-01
1.300000000000000044e+00 -2.054286077367989828e-06 4.658782566643251480e-07 -9.988898296887086525e-01
1.399999999999999911e+00 -3.107430839827351130e-06 6.459660220117753751e-07 -9.985146262426389807e-01
1.500000000000000000e+00 -4.387502502110170078e-06 8.222246503906551885e-07 -9.980536078004946798e-01
1.599999999999999867e+00 -5.872020858718702291e-06 9.719480483853544410e-07 -9.974954938894492473e-01
1.699999999999999956e+00 -7.518185762317680650e-06 1.070062104443438156e-06 -9.968286024725606653e-01
1.800000000000000044e+00 -9.262619232676247747e-06 1.091880674604600753e-06 -9.960409158991100353e-01
1.899999999999999911e+00 -1.102268988806453808e-05 1.016389149380318264e-06 -9.951201483857021746e-01
2.000000000000000000e+00 -1.269950836411195867e-05 8.297631422387756256e-07 -9.940538146278897758e-01
2.099999999999999645e+00 -1.418254409530521024e-05 5.287790374334072789e-07 -9.928292991442599913e-01
2.199999999999999734e+00 -1.535567713432981309e-05 1.237278288864065518e-07 -9.914339259602484855e-01
2.299999999999999822e+00 -1.610437949621114888e-05 -3.595340796766166588e-07 -9.898550282460820693e-01
2.399999999999999911e+00 -1.632358411197154546e-05 -8.787406728632375296e-07 -9.880800175331629909e-01
2.500000000000000000e+00 -1.592571232943742389e-05 -1.375839308693185607e-06 -9.860964521445151343e-01
2.600000000000000089e+00 -1.484827779394416138e-05 -1.779206181702708617e-06 -9.838921044883737199e-01
2.699999999999999734e+00 -1.306044814030845558e-05 -2.007474117608568471e-06 -9.814550268788273524e-01
2.799999999999999822e+00 -1.056799577199202581e-05 -1.974803714316045622e-06 -9.787736155636537205e-01
2.899999999999999911e+00 -7.416140363318852014e-06 -1.597323997404240604e-06 -9.758366726568523664e-01
3.000000000000000000e+00 -3.689907383104102276e-06 -8.002743170124657789e-07 -9.726334656918194099e-01
