1.000000000000000056e-01 1.186456712831674906e-02 3.377813300077631142e-02 -9.993569642934637676e-01
2.000000000000000111e-01 2.240706425459416604e-02 6.618564378728175601e-02 -9.975251611946780450e-01
2.999999999999999889e-01 3.046109240896846537e-02 9.586007213057751164e-02 -9.947813116216516205e-01
4.000000000000000222e-01 3.515600903388057391e-02 1.214648711153853144e-01 -9.915380027562340493e-01
5.000000000000000000e-01 3.602725545551965780e-02 1.417243112016998707e-01 -9.882775967093831992e-01
5.999999999999999778e-01 3.308547124379224852e-02 1.554793864155022132e-01 -9.854724929312340675e-01
6.999999999999999556e-01 2.683674119809656422e-02 1.617637785851419596e-01 -9.835026098545348594e-01
7.999999999999999334e-01 1.825089521144756047e-02 1.598938673525796272e-01 -9.825815646369140399e-01
8.999999999999999112e-01 8.679742197447513907e-03 1.495622945189661324e-01 -9.827021948469131241e-01
9.999999999999998890e-01 -2.679697643143564428e-04 1.309214950238999364e-01 -9.836098657780026899e-01
1.099999999999999867e+00 -6.883667020047720859e-03 1.046424925324082739e-01 -9.848086903245997226e-01
1.199999999999999956e+00 -9.533464416476546133e-03 7.193543354406475854e-02 -9.856017408996551321e-01
1.300000000000000044e+00 -6.833236979336123826e-03 3.452176573414359601e-02 -9.851620335851164478e-01
1.399999999999999911e+00 2.193193971550944695e-03 -5.446724961063563811e-03 -9.826270299715520462e-01
1.500000000000000000e+00 1.798910675152852121e-02 -4.552029155764747426e-02 -9.772061255236612620e-01
1.599999999999999867e+00 4.038674483035895740e-02 -8.312644879773142814e-02 -9.682884873227186606e-01
1.699999999999999956e+00 6.858537418073298864e-02 -1.157732531168316897e-01 -9.555379507709584885e-01
1.800000000000000044e+00 1.011896016990572050e-01 -1.412611469558644750e-01 -9.389626011557256069e-01
1.899999999999999911e+00 1.363061350073454248e-01 -1.578813918832748242e-01 -9.189490874333025028e-01
2.000000000000000000e+00 1.716912784310981321e-01 -1.645792728900465074e-01 -8.962554010654496528e-01
2.099999999999999645e+00 2.049361933542246106e-01 -1.610631243574091875e-01 -8.719604093987897153e-01
2.199999999999999734e+00 2.336728777749551289e-01 -1.478455153888253715e-01 -8.473733589738442484e-01
2.299999999999999822e+00 2.557814051422737656e-01 -1.262100241488619545e-01 -8.239113039174659203e-01
2.399999999999999911e+00 2.695785050838115371e-01 -9.810507280921010320e-02 -8.029564216693474421e-01
2.500000000000000000e+00 2.739691593566461192e-01 -6.597430538940250722e-02 -7.857079773145563273e-01
2.600000000000000089e+00 2.685463911198017750e-01 -3.253999277853630856e-02 -7.730449392312895851e-01
2.699999999999999734e+00 2.536294945814205337e-01 -5.610962270723154552e-04 -7.654147504106411093e-01
2.799999999999999822e+00 2.302370551753129546e-01 2.740969482564179285e-02 -7.627615300766067419e-01
2.899999999999999911e+00 1.999975965030936220e-01 4.924570737966738054e-02 -7.645032199562875608e-01
3.000000000000000000e+00 1.650068610818452297e-01 6.342134999141366136e-02 -7.695622730478123286e-01
