1.000000000000000056e-01 -7.876318565502888660e-12 -4.784893748719240599e-11 -9.999999832752484163e-01
2.000000000000000111e-01 -8.744929532329351863e-12 -5.422845469705973432e-11 -9.999997324693872258e-01
2.999999999999999889e-01 -2.575200071180650047e-12 -1.679894569427976007e-11 -9.999986461778178626e-01
4.000000000000000222e-01 3.375440573938410551e-12 1.703671220808600600e-11 -9.999957236939944760e-01
5.000000000000000000e-01 7.417593041833199208e-12 4.180650149997877329e-11 -9.999895674618503039e-01
5.999999999999999778e-01 1.125247269759802659e-11 5.776005613668249994e-11 -9.999783865106846026e-01
6.999999999999999556e-01 1.410211982316642492e-11 6.868735592204180374e-11 -9.999600008738808166e-01
7.999999999999999334e-01 1.505669779073531319e-11 7.707199899829690842e-11 -9.999318469929100450e-01
8.999999999999999112e-01 1.587933075815634413e-11 8.313682443096122702e-11 -9.998909841081827787e-01
9.999999999999998890e-01 1.677791842218141636e-11 8.304027065521199184e-11 -9.998341016381258051e-01
1.099999999999999867e+00 1.473057683172514944e-11 7.688108619536456764e-11 -9.997575275474396284e-01
1.199999999999999956e+00 9.395383968452957309e-12 5.685594556738259164e-11 -9.996572377048764668e-01
1.300000000000000044e+00 -2.149820719956594620e-13 1.764070316441090834e-11 -9.995288662301334837e-01
1.399999999999999911e+00 -1.805785237062861744e-11 -5.122434399358703562e-11 -9.993677168280351575e-01
1.500000000000000000e+00 -4.705621450657093463e-11 -1.585781040188088214e-10 -9.991687751070341683e-01
1.599999999999999867e+00 -9.241829590854957500e-11 -3.159011288535285844e-10 -9.989267218771155088e-01
1.699999999999999956e+00 -1.568400483680522299e-10 -5.290237190276580057e-10 -9.986359474200738884e-01
1.800000000000000044e+00 -2.463414395989622146e-10 -8.056844978283404311e-10 -9.982905667231092295e-01
1.899999999999999911e+00 -3.640657749979255474e-10 -1.148411315414547285e-09 -9.978844356634527513e-01
2.000000000000000000e+00 -5.140377090486630405e-10 -1.553400513782706277e-09 -9.974111681292423537e-01
2.099999999999999645e+00 -6.947426618143806400e-10 -2.010953199836519080e-09 -9.968641540583627059e-01
2.199999999999999734e+00 -9.053173031171293258e-10 -2.504971196384498444e-09 -9.962365783732501923e-01
2.299999999999999822e+00 -1.140067724481082379e-09 -3.010409450272505532e-09 -9.955214407862359449e-01
2.399999999999999911e+00 -1.387496034832211617e-09 -3.496172382144281058e-09 -9.947115764454800280e-01
2.500000000000000000e+00 -1.632769241165413797e-09 -3.924617626749037533e-09 -9.937996773875694689e-01
2.600000000000000089e+00 -1.854009677118616334e-09 -4.253846901282439721e-09 -9.927783147583172374e-01
2.699999999999999734e+00 -2.025911938390516678e-09 -4.438496553777764528e-09 -9.916399617586139081e-01
2.799999999999999822e+00 -2.115928224558490285e-09 -4.436593100262045478e-09 -9.903770172675380179e-01
2.899999999999999911e+00 -2.089561127062030072e-09 -4.208096424465255934e-09 -9.889818300901369597e-01
3.000000000000000000e+00 -1.910355031339249661e-09 -3.720192476499821672e-09 -9.874467237724013913e-01
