1.000000000000000056e-01 2.234090053373084552e-07 -8.717026863751807035e-07 -9.999998954841685661e-01
2.000000000000000111e-01 -1.787533881128343083e-06 6.835743791842308805e-06 -9.999983303985008343e-01
2.999999999999999889e-01 -8.287655535143171896e-06 3.091078849566474386e-05 -9.999915696778475249e-01
4.000000000000000222e-01 -2.154468414862601520e-05 7.761408336840852325e-05 -9.999734528878682083e-01
5.000000000000000000e-01 -4.378004651784941161e-05 1.510470151389615827e-04 -9.999354895265224474e-01
5.999999999999999778e-01 -7.704216217220644851e-05 2.526718910707012144e-04 -9.998669890528453230e-01
6.999999999999999556e-01 -1.230073404917103304e-04 3.810224032190599871e-04 -9.997552223193273413e-01
7.999999999999999334e-01 -1.827159328341832856e-04 5.316327249379094880e-04 -9.995856102524330877e-01
8.999999999999999112e-01 -2.562642683380062457e-04 6.972008368219333955e-04 -9.993419349102573568e-01
9.999999999999998890e-01 -3.424845029636896273e-04 8.679869774867240029e-04 -9.990065674935463269e-01
1.099999999999999867e+00 -4.386533563189478203e-04 1.032431819510028085e-03 -9.985607075463344140e-01
1.199999999999999956e+00 -5.402754484826477206e-04 1.177962132322632081e-03 -9.979846274982122623e-01
1.300000000000000044e+00 -6.409867187518107461e-04 1.291935401707262204e-03 -9.972579169039562652e-01
1.399999999999999911e+00 -7.326175262444537982e-04 1.362660352246532420e-03 -9.963597212378292323e-01
1.500000000000000000e+00 -8.054436957827726309e-04 1.380419239745847224e-03 -9.952689708826937265e-01
1.599999999999999867e+00 -8.486376516815594779e-04 1.338411242763880684e-03 -9.939645969728267971e-01
1.699999999999999956e+00 -8.509119912018081166e-04 1.233535758011207852e-03 -9.924257319260132437e-01
1.800000000000000044e+00 -8.013263808902016403e-04 1.066940454688015049e-03 -9.906318937359952503e-01
1.899999999999999911e+00 -6.902074848061796582e-04 8.442720070869559916e-04 -9.885631542711258435e-01
2.000000000000000000e+00 -5.101131758171219017e-04 5.755870182330023645e-04 -9.862002928190706230e-01
2.099999999999999645e+00 -2.567587838697018383e-04 2.749057201152202055e-04 -9.835249368186028684e-01
2.199999999999999734e+00 7.018348618057975179e-05 -4.058013796627786188e-05 -9.805196920419733120e-01
2.299999999999999822e+00 4.664991674411421083e-04 -3.516036252401511311e-04 -9.771682643881426378e-01
2.399999999999999911e+00 9.231368384748748915e-04 -6.381526689103684050e-04 -9.734555749188660290e-01
2.500000000000000000e+00 1.426261643832412579e-03 -8.809385173138463291e-04 -9.693678688710040126e-01
2.600000000000000089e+00 1.957688009381588351e-03 -1.062889409234512835e-03 -9.648928182164787648e-01
2.699999999999999734e+00 2.495690730845438916e-03 -1.170547248000102956e-03 -9.600196160655730671e-01
2.799999999999999822e+00 3.016159316391462970e-03 -1.195246682676376435e-03 -9.547390600003186067e-01
2.899999999999999911e+00 3.494026983375546260e-03 -1.133968531660858522e-03 -9.490436204710270829e-01
3.000000000000000000e+00 3.904876374963588657e-03 -9.897825511911541654e-04 -9.429274898671471394e-01
