1.000000000000000056e-01 2.522919891579495921e-01 -5.785689681357727293e-02 -8.569927307321578702e-01
2.000000000000000111e-01 4.798233324259812416e-01 -1.103508602088723312e-01 -7.290601337178816976e-01
2.999999999999999889e-01 6.602579871959057822e-01 -1.526326528013554895e-01 -5.298003411084918346e-01
4.000000000000000222e-01 7.758765117766250885e-01 -1.808317075451139067e-01 -2.787170042228035993e-01
5.000000000000000000e-01 8.153100126579782003e-01 -1.924254376283717483e-01 -3.859779637133467218e-04
5.999999999999999778e-01 7.746553141394364461e-01 -1.864789007221039352e-01 2.779479446048351843e-01
6.999999999999999556e-01 6.578581478611851274e-01 -1.637311810500448050e-01 5.290429890928953771e-01
7.999999999999999334e-01 4.763269876534548808e-01 -1.265200925450331304e-01 7.283222757736669273e-01
8.999999999999999112e-01 2.478171366688287358e-01 -7.855317053598070975e-02 8.562806352560505818e-01
9.999999999999998890e-01 -5.306374607715037134e-03 -2.454705596685937546e-02 9.003941912616113541e-01
1.099999999999999867e+00 -2.582639506535533425e-01 3.023084369471726318e-02 8.563468079149445522e-01
1.199999999999999956e+00 -4.862788291566608190e-01 8.047002072723360988e-02 7.284531461157695009e-01
1.300000000000000044e+00 -6.670173365187086478e-01 1.213319990370735069e-01 5.292327202103944694e-01
1.399999999999999911e+00 -7.827645093653796682e-01 1.489131677773434526e-01 2.781894299657476366e-01
1.500000000000000000e+00 -8.221673210187804282e-01 1.606198932024635040e-01 -1.014403726219564070e-04
1.599999999999999867e+00 -7.813441681388775262e-01 1.554136240128447255e-01 -2.784024175739231999e-01
1.699999999999999956e+00 -6.642680750519561750e-01 1.339053854355320983e-01 -5.294655750425618645e-01
1.800000000000000044e+00 -4.823797364340938199e-01 9.829006402947076948e-02 -7.287153215604680323e-01
1.899999999999999911e+00 -2.534657971075049976e-01 5.212652508995871403e-02 -8.566485101154569515e-01
2.000000000000000000e+00 7.638254319580365997e-05 -1.263415795496995843e-05 -9.007410133527180562e-01
2.099999999999999645e+00 2.534386357360262632e-01 -5.299122884542006862e-02 -8.566772770257211622e-01
2.199999999999999734e+00 4.818223355522439078e-01 -1.016098880529438947e-01 -7.287706399847712069e-01
2.299999999999999822e+00 6.628730884401954349e-01 -1.411142923327035337e-01 -5.295403455101541645e-01
2.399999999999999911e+00 7.788644327764555619e-01 -1.676561445957958918e-01 -2.784871745384964736e-01
2.500000000000000000e+00 8.184353489906620593e-01 -1.786659665733380253e-01 -1.899442437328491393e-04
2.600000000000000089e+00 7.777066080204952936e-01 -1.731008283238015810e-01 2.781137861083653462e-01
2.699999999999999734e+00 6.606560687335555349e-01 -1.515406141846281085e-01 5.291827729205909048e-01
2.799999999999999822e+00 4.787360630741238632e-01 -1.161283596246373701e-01 7.284374344822899250e-01
2.899999999999999911e+00 2.497475126233184295e-01 -7.035584509522560537e-02 8.563757492490331469e-01
3.000000000000000000e+00 -3.899152646891270932e-03 -1.871978650776433273e-02 9.004741520929305798e-01
