1.000000000000000056e-01 1.820749093838235910e-01 2.435409617407060523e-01 -9.508380281183740346e-01
2.000000000000000111e-01 3.613304819372410437e-01 4.380863906988604062e-01 -8.126532851337434638e-01
2.999999999999999889e-01 5.296818889303714917e-01 5.470599081182891954e-01 -6.102519296225221712e-01
4.000000000000000222e-01 6.722543483986316293e-01 5.550722985414443533e-01 -3.759531248335464815e-01
5.000000000000000000e-01 7.707889495175909156e-01 4.702616907678552338e-01 -1.401109072138389533e-01
5.999999999999999778e-01 8.099891717756684262e-01 3.196796783276418252e-01 7.580697222778855215e-02
6.999999999999999556e-01 7.833654049057443558e-01 1.401311603956305052e-01 2.614690265858660712e-01
7.999999999999999334e-01 6.959842200936410261e-01 -3.172127160028404003e-02 4.155171528374886902e-01
8.999999999999999112e-01 5.636050755438274384e-01 -1.670731774774456002e-01 5.416527910029191872e-01
9.999999999999998890e-01 4.090256359225564742e-01 -2.495053381977538620e-01 6.449570212169498662e-01
1.099999999999999867e+00 2.567489211761588841e-01 -2.762456020860925565e-01 7.297812507520419212e-01
1.199999999999999956e+00 1.273899254885711430e-01 -2.563599413617475009e-01 7.991186553894837896e-01
1.300000000000000044e+00 3.340829489723148166e-02 -2.064460390655309119e-01 8.549019982861099098e-01
1.399999999999999911e+00 -2.244313627974438979e-02 -1.450399260045100724e-01 8.985911374567060461e-01
1.500000000000000000e+00 -4.569444695633283898e-02 -8.755665712472944506e-02 9.316320449403627801e-01
1.599999999999999867e+00 -4.660168236968845190e-02 -4.328743969841419847e-02 9.556354654656814551e-01
1.699999999999999956e+00 -3.612413776364371137e-02 -1.499267473683147875e-02 9.723344997036021953e-01
1.800000000000000044e+00 -2.287534679266790133e-02 -5.653102698040916863e-04 9.834407554044398703e-01
1.899999999999999911e+00 -1.188393911807074030e-02 4.438372757251597689e-03 9.904943721971661841e-01
2.000000000000000000e+00 -4.831512193360044602e-03 4.523498415597739311e-03 9.947700085727111396e-01
2.099999999999999645e+00 -1.284432954850479565e-03 2.951682109398024237e-03 9.972428903365219144e-01
2.199999999999999734e+00 1.084037859981189927e-05 1.442567623522286822e-03 9.986075270585432762e-01
2.299999999999999822e+00 2.459709349244020883e-04 5.257522934148184737e-04 9.993262097271334854e-01
2.399999999999999911e+00 1.612391724033347782e-04 1.277213765593939289e-04 9.996875666457167853e-01
2.500000000000000000e+00 5.576633771935176617e-05 1.157713680600457184e-05 9.998611256591730667e-01
2.600000000000000089e+00 5.309829409769954459e-06 -2.349399494477428398e-06 9.999408037806788441e-01
2.699999999999999734e+00 -3.525333548528718901e-06 5.521579317708740457e-08 9.999757922396298460e-01
2.799999999999999822e+00 1.483346687402073309e-06 3.195429999915254268e-08 9.999904981177055729e-01
2.899999999999999911e+00 3.456642326962089226e-07 -5.833699677211309242e-07 9.999964186406095079e-01
3.000000000000000000e+00 3.370365909991940227e-07 1.675448443322263162e-06 9.999987031629087308e-01
