1.000000000000000056e-01 -1.230659097354879633e-01 1.237531913688145191e-01 -3.499428728250515430e-01
2.000000000000000111e-01 -2.431998008422744106e-01 2.221909937448821593e-01 -2.984509768440056221e-01
2.999999999999999889e-01 -3.493268177120144591e-01 2.891371268741139700e-01 -2.185944899095024485e-01
4.000000000000000222e-01 -4.238508279236562482e-01 3.260582553738821110e-01 -1.180931503404358540e-01
5.000000000000000000e-01 -4.601736610427380469e-01 3.280056223849833197e-01 -6.875717970250210843e-03
5.999999999999999778e-01 -4.567968442002198759e-01 2.926509182108961160e-01 1.041461921386586664e-01
6.999999999999999556e-01 -4.152480685558722628e-01 2.222394190402086078e-01 2.040830714233758669e-01
7.999999999999999334e-01 -3.403367628067059947e-01 1.229107648961731969e-01 2.831232513946644325e-01
8.999999999999999112e-01 -2.398249698311005484e-01 3.947751376664226930e-03 3.335051113194469896e-01
9.999999999999998890e-01 -1.237223901093678774e-01 -1.231706829786190366e-01 3.502735696150039435e-01
1.099999999999999867e+00 -3.338021900878860269e-03 -2.459389509729469903e-01 3.317719413209295198e-01
1.199999999999999956e+00 1.097826002136653573e-01 -3.520792624791526104e-01 2.798044700694693465e-01
1.300000000000000044e+00 2.049460941140869852e-01 -4.307913829356563307e-01 1.994605662560000880e-01
1.399999999999999911e+00 2.733109096811222605e-01 -4.738506235736419381e-01 9.861948160084543780e-02
1.500000000000000000e+00 3.087069720631719916e-01 -4.764632768402174978e-01 -1.282641530689141926e-02
1.599999999999999867e+00 3.081932870467597452e-01 -4.377776800496099296e-01 -1.239316028439992751e-01
1.699999999999999956e+00 2.723090930168581281e-01 -3.610095217665065803e-01 -2.237808400435937761e-01
1.800000000000000044e+00 2.049874208077234750e-01 -2.531594713409978659e-01 -3.025530345627239215e-01
1.899999999999999911e+00 1.131483556765125742e-01 -1.243571541934946484e-01 -3.524851994057466853e-01
2.000000000000000000e+00 6.006719480828720363e-03 1.311695110993393691e-02 -3.686370467930203398e-01
2.099999999999999645e+00 -1.058286160742303722e-01 1.460200030643737101e-01 -3.493762118177163312e-01
2.199999999999999734e+00 -2.114016005198542936e-01 2.614574069139418144e-01 -2.965383319835772635e-01
2.299999999999999822e+00 -3.004466064797120528e-01 3.481346561155108654e-01 -2.152542702400014052e-01
2.399999999999999911e+00 -3.643933783978050567e-01 3.974972725616952030e-01 -1.134436676929768129e-01
2.500000000000000000e+00 -3.971726467078985912e-01 4.045795960815680159e-01 -1.042840932514453416e-03
2.600000000000000089e+00 -3.957864237980974198e-01 3.685158750083814549e-01 1.109654506989228434e-01
2.699999999999999734e+00 -3.605776424645458222e-01 2.926506062161363109e-01 2.116294921034904131e-01
2.799999999999999822e+00 -2.951740951295369619e-01 1.842324814175800018e-01 2.911011502383999971e-01
2.899999999999999911e+00 -2.061151733121890095e-01 5.372549865424439131e-02 3.415999935870411841e-01
3.000000000000000000e+00 -1.022008942823886268e-01 -8.619905503946716230e-02 3.581769145042316693e-01
