1.000000000000000056e-01 -5.753349698789158098e-03 -1.578703988258066959e-01 -3.534308191503728325e-01
2.000000000000000111e-01 -5.512858012491069631e-03 -3.027368752739831859e-01 -3.115486872395120121e-01
2.999999999999999889e-01 5.624800953969135570e-03 -4.227753324932617685e-01 -2.464380898227633288e-01
4.000000000000000222e-01 3.117663264844341975e-02 -5.084107091944367607e-01 -1.646222597593591797e-01
5.000000000000000000e-01 7.278667294554609646e-02 -5.531931714023803348e-01 -7.430699434211018861e-02
5.999999999999999778e-01 1.298436792430801290e-01 -5.543680863813980064e-01 1.544217859540251633e-02
6.999999999999999556e-01 1.994438002054105818e-01 -5.131069594420629709e-01 9.560517988757841201e-02
7.999999999999999334e-01 2.766270092611841092e-01 -4.343784196806849129e-01 1.581127736904918979e-01
8.999999999999999112e-01 3.548570723861707576e-01 -3.264684974601839151e-01 1.966543495061376934e-01
9.999999999999998890e-01 4.266987429757136963e-01 -2.001946568331635090e-01 2.073144664274964299e-01
1.099999999999999867e+00 4.846184279640370351e-01 -6.789649754704825402e-02 1.889695823088498594e-01
1.199999999999999956e+00 5.218305510862978336e-01 5.771347948120322119e-02 1.434125241855369048e-01
1.300000000000000044e+00 5.330999930935316211e-01 1.647315331898131507e-01 7.517640756384486034e-02
1.399999999999999911e+00 5.153964653748173141e-01 2.431470192950417331e-01 -8.900206380986906002e-03
1.500000000000000000e+00 4.683506492946768462e-01 2.857574405362391934e-01 -1.003507814391950831e-01
1.599999999999999867e+00 3.944390882392623254e-01 2.888086123508595282e-01 -1.899199363460283563e-01
1.699999999999999956e+00 2.988730405443170701e-01 2.523109530290833513e-01 -2.684824187903336878e-01
1.800000000000000044e+00 1.892126508707440702e-01 1.800020799981967567e-01 -3.279465674767366168e-01
1.899999999999999911e+00 7.470239993743217621e-02 7.895761454338530438e-02 -3.620739444419361908e-01
2.000000000000000000e+00 -3.456984045390647936e-02 -4.110247367375886168e-02 -3.671027041193150597e-01
2.099999999999999645e+00 -1.286406400106238357e-01 -1.687532765981784866e-01 -3.421358680430102162e-01
2.199999999999999734e+00 -1.986535098587552950e-01 -2.919518263320227125e-01 -2.892455540495016408e-01
2.299999999999999822e+00 -2.377570074136913514e-01 -3.991820849637054414e-01 -2.132849974368565271e-01
2.399999999999999911e+00 -2.418428999061595919e-01 -4.805348916616221100e-01 -1.214201463458044195e-01
2.500000000000000000e+00 -2.100132426823377307e-01 -5.286286255162548908e-01 -2.243844319289783201e-02
2.600000000000000089e+00 -1.447602586271756198e-01 -5.392864266630378323e-01 7.411381577441980562e-02
2.699999999999999734e+00 -5.180244382340538217e-02 -5.119036004748203084e-01 1.588692839734649476e-01
2.799999999999999822e+00 6.038920156738081246e-02 -4.494759112617766061e-01 2.235585542698449724e-01
2.899999999999999911e+00 1.813597281502682679e-01 -3.582836632312174086e-01 2.618344218943948754e-01
3.000000000000000000e+00 2.996204644632806113e-01 -2.472787433816232561e-01 2.699009476684631759e-01
