1.000000000000000056e-01 1.008134409146708710e-01 -8.360455855741158460e-02 -3.580246857374382308e-01
2.000000000000000111e-01 1.913425981142970467e-01 -1.660980343891320654e-01 -3.294888077225164857e-01
2.999999999999999889e-01 2.623278335102473546e-01 -2.462011810354653440e-01 -2.852512491187492727e-01
4.000000000000000222e-01 3.064571513539386394e-01 -3.223374142696198152e-01 -2.299345596233540456e-01
5.000000000000000000e-01 3.191029686359455608e-01 -3.925550886934805472e-01 -1.693283985296819838e-01
5.999999999999999778e-01 2.987949610421727353e-01 -4.545431429058217621e-01 -1.097882379468880787e-01
6.999999999999999556e-01 2.473838652137531624e-01 -5.057290928541958719e-01 -5.757990386957684975e-02
7.999999999999999334e-01 1.698862858640557416e-01 -5.434692749471689011e-01 -1.822376122731425921e-02
8.999999999999999112e-01 7.400908569200567722e-02 -5.653104108558840712e-01 4.083206229839307991e-03
9.999999999999998890e-01 -3.057910720825915418e-02 -5.692908505838756295e-01 6.910078491201684416e-03
1.099999999999999867e+00 -1.331840137182468964e-01 -5.542533787991722471e-01 -1.013587918435349469e-02
1.199999999999999956e+00 -2.231211455250057263e-01 -5.201217720013697754e-01 -4.535687219828015565e-02
1.300000000000000044e+00 -2.907550126105827304e-01 -4.681078136878764062e-01 -9.511415665450267953e-02
1.399999999999999911e+00 -3.284539001613785980e-01 -4.008050101868617099e-01 -1.541904711576348452e-01
1.500000000000000000e+00 -3.313481974914502248e-01 -3.221579249414329160e-01 -2.163030699888149888e-01
1.599999999999999867e+00 -2.978310404997775440e-01 -2.372812603431849743e-01 -2.747452938283130308e-01
1.699999999999999956e+00 -2.297516592432732319e-01 -1.521425558322030414e-01 -3.230664801811595210e-01
1.800000000000000044e+00 -1.322764461047400697e-01 -7.312965010937098886e-02 -3.557373042296809174e-01
1.899999999999999911e+00 -1.342777127113171931e-02 -6.519438547646652649e-03 -3.687304738347996214e-01
2.000000000000000000e+00 1.166462037346340241e-01 4.206987405884975856e-02 -3.599496558030142457e-01
2.099999999999999645e+00 2.466141846755038336e-01 6.822471088362927483e-02 -3.294726822177639347e-01
2.199999999999999734e+00 3.650232010182313802e-01 6.920798388656532185e-02 -2.795751554063680144e-01
2.299999999999999822e+00 4.613760400029091602e-01 4.430254690008370022e-02 -2.145330620064903049e-01
2.399999999999999911e+00 5.271251243529537778e-01 -5.014351248705029018e-03 -1.402227973133042260e-01
2.500000000000000000e+00 5.564887805322127345e-01 -7.508410420462285906e-02 -6.355307508057858601e-02
2.600000000000000089e+00 5.470067137585991057e-01 -1.602960316108011651e-01 8.208011927014081249e-03
2.699999999999999734e+00 4.997878693987451437e-01 -2.535013137142600459e-01 6.815589601521923613e-02
2.799999999999999822e+00 4.194233513161145233e-01 -3.465925135969990523e-01 1.104382221850348372e-01
2.899999999999999911e+00 3.135663424448273950e-01 -4.312089172217491440e-01 1.308520824543556449e-01
3.000000000000000000e+00 1.922283710487747155e-01 -4.994835123464639870e-01 1.272796669548424409e-01
