1.000000000000000056e-01 -8.314457801005660509e-02 1.129477835339645769e-01 -3.565528789468499493e-01
2.000000000000000111e-01 -1.650624985674108702e-01 2.143512253192818851e-01 -3.237379100869798298e-01
2.999999999999999889e-01 -2.443832147231947138e-01 2.938175884988524778e-01 -2.728090098065052427e-01
4.000000000000000222e-01 -3.194746289390216210e-01 3.431400308017011347e-01 -2.090076721726883135e-01
5.000000000000000000e-01 -3.883853494414753471e-01 3.571250818406632166e-01 -1.389069549799977765e-01
5.999999999999999778e-01 -4.488626065994829606e-01 3.341180925901334753e-01 -6.974140055947472550e-02
6.999999999999999556e-01 -4.984503991844699833e-01 2.761878240243352267e-01 -8.665430669914538780e-03
7.999999999999999334e-01 -5.346681543793970759e-01 1.889420730398114201e-01 3.797893697367723392e-02
8.999999999999999112e-01 -5.552530950368014251e-01 8.099818496788108169e-02 6.531805073103592874e-02
9.999999999999998890e-01 -5.584418699654108975e-01 -3.684820376140881398e-02 7.045298982086403705e-02
1.099999999999999867e+00 -5.432547840412286222e-01 -1.526709612905237101e-01 5.276776524287013492e-02
1.199999999999999956e+00 -5.097477547334350323e-01 -2.545715279786773810e-01 1.400755566040219266e-02
1.300000000000000044e+00 -4.591963237841905077e-01 -3.318463655186080219e-01 -4.188002163409275391e-02
1.399999999999999911e+00 -3.941747284281869601e-01 -3.760481332411529376e-01 -1.091346084792960136e-01
1.500000000000000000e+00 -3.185158248707394280e-01 -3.818235394264107296e-01 -1.807525247889498199e-01
1.599999999999999867e+00 -2.371333331565842473e-01 -3.474661466604874183e-01 -2.491883948234525914e-01
1.699999999999999956e+00 -1.557178686022233083e-01 -2.751111808295065297e-01 -3.071190959344666793e-01
1.800000000000000044e+00 -8.032470205665798169e-02 -1.705675648513052534e-01 -3.481864270120951788e-01
1.899999999999999911e+00 -1.687732437101788219e-02 -4.278613053285255929e-02 -3.676541256952216008e-01
2.000000000000000000e+00 2.935061346163474194e-02 9.696614361557238937e-02 -3.629015057274236344e-01
2.099999999999999645e+00 5.424439975398920311e-02 2.361751584630488732e-01 -3.337128983164034390e-01
2.199999999999999734e+00 5.528345066129876362e-02 3.622589982833469002e-01 -2.823255913305820486e-01
2.299999999999999822e+00 3.185380080113386220e-02 4.637699840956396868e-01 -2.132327148983217124e-01
2.399999999999999911e+00 -1.458776371808560846e-02 5.314849392712348575e-01 -1.327617424764344634e-01
2.500000000000000000e+00 -8.054044554332520645e-02 5.592979407046814178e-01 -4.846164993256848325e-02
2.600000000000000089e+00 -1.606784278960244616e-01 5.448120077125999661e-01 3.163607421132748343e-02
2.699999999999999734e+00 -2.482491618267895217e-01 4.895791702576771098e-01 9.980759892832392899e-02
2.799999999999999822e+00 -3.356221520761383248e-01 3.989673271049509751e-01 1.494069123365495688e-01
2.899999999999999911e+00 -4.149436822421819770e-01 2.816681153634630341e-01 1.755325021651614470e-01
3.000000000000000000e+00 -4.788520745654851196e-01 1.488731251727682947e-01 1.755310958463699167e-01
