1.000000000000000056e-01 1.210663494121480419e-04 1.226592384226973679e-03 -9.999992404067481466e-01
2.000000000000000111e-01 2.308759356978237623e-04 2.455836696423692022e-03 -9.999969577766204543e-01
2.999999999999999889e-01 3.180879003933759523e-04 3.691174506498625784e-03 -9.999931370019370380e-01
4.000000000000000222e-01 3.712760866964356487e-04 4.934790307128526267e-03 -9.999877549244812203e-01
5.000000000000000000e-01 3.788491280522127179e-04 6.188127843842278035e-03 -9.999807815890795482e-01
5.999999999999999778e-01 3.290324983329181606e-04 7.452181081655976681e-03 -9.999721779806026722e-01
6.999999999999999556e-01 2.098960240720167299e-04 8.726271838369405870e-03 -9.999619033364056664e-01
7.999999999999999334e-01 9.386486118385631739e-06 1.000824967213981634e-02 -9.999499161714759943e-01
8.999999999999999112e-01 -2.846035410456909144e-04 1.129495078003215497e-02 -9.999361695072924716e-01
9.999999999999998890e-01 -6.840920517524914750e-04 1.258094488199320606e-02 -9.999206227723624885e-01
1.099999999999999867e+00 -1.200805970054253605e-03 1.385804434685076851e-02 -9.999032516567804008e-01
1.199999999999999956e+00 -1.845957145901717857e-03 1.511633006138676273e-02 -9.998840377814144365e-01
1.300000000000000044e+00 -2.629996451267253062e-03 1.634303998935525415e-02 -9.998629846952429290e-01
1.399999999999999911e+00 -3.561855857314068317e-03 1.752330984497490682e-02 -9.998401106168351982e-01
1.500000000000000000e+00 -4.649313004534375016e-03 1.863863560758707502e-02 -9.998154755519388370e-01
1.599999999999999867e+00 -5.897130667213419490e-03 1.966696675603475317e-02 -9.997891949172538206e-01
1.699999999999999956e+00 -7.308172754729703145e-03 2.058549215886490424e-02 -9.997613855961783313e-01
1.800000000000000044e+00 -8.881232947819098569e-03 2.136707384381439714e-02 -9.997322500861834937e-01
1.899999999999999911e+00 -1.061092766345551018e-02 2.198243379069885969e-02 -9.997020460242330708e-01
2.000000000000000000e+00 -1.248706453285353644e-02 2.240096307751206564e-02 -9.996710809458234648e-01
2.099999999999999645e+00 -1.449368159489379179e-02 2.258963874713696210e-02 -9.996397558232237301e-01
2.199999999999999734e+00 -1.660879270979521635e-02 2.251624591005912251e-02 -9.996085067016391434e-01
2.299999999999999822e+00 -1.880167436597013006e-02 2.214852585441404523e-02 -9.995778808501428747e-01
2.399999999999999911e+00 -2.103741820440146668e-02 2.145615900271320362e-02 -9.995484281630385714e-01
2.500000000000000000e+00 -2.326877024667628469e-02 2.041013766920213648e-02 -9.995208805107387295e-01
