1.000000000000000056e-01 -1.283697075006306218e-04 -2.659710026138207726e-04 -9.999999563903168021e-01
2.000000000000000111e-01 -2.570719916585865105e-04 -5.350407966867263285e-04 -9.999998238226528446e-01
2.999999999999999889e-01 -3.864273312753898292e-04 -8.089438427615329875e-04 -9.999995981417476587e-01
4.000000000000000222e-01 -5.168580405453163757e-04 -1.090275053077057864e-03 -9.999992720788124512e-01
5.000000000000000000e-01 -6.488278689327683360e-04 -1.381760284513596383e-03 -9.999988348796363669e-01
5.999999999999999778e-01 -7.829732258504369441e-04 -1.685799906636768026e-03 -9.999982725144239692e-01
6.999999999999999556e-01 -9.200126784846315419e-04 -2.005236595099543512e-03 -9.999975662982756308e-01
7.999999999999999334e-01 -1.060863776065566842e-03 -2.341637463592942392e-03 -9.999966956456073364e-01
8.999999999999999112e-01 -1.206630899949333140e-03 -2.697882392154446040e-03 -9.999956327262922162e-01
9.999999999999998890e-01 -1.358619369629983668e-03 -3.076580110471612093e-03 -9.999943443867953530e-01
1.099999999999999867e+00 -1.518471234303093607e-03 -3.479333676237263053e-03 -9.999927942129775982e-01
1.199999999999999956e+00 -1.688086269103830249e-03 -3.908443299738949099e-03 -9.999909371778069600e-01
1.300000000000000044e+00 -1.869459179474666430e-03 -4.366083339315016826e-03 -9.999887211572544565e-01
1.399999999999999911e+00 -2.064975747810566219e-03 -4.853966871775179312e-03 -9.999860873407244721e-01
1.500000000000000000e+00 -2.277672681944607237e-03 -5.373400758319516954e-03 -9.999829692416188909e-01
1.599999999999999867e+00 -2.510325329162218632e-03 -5.925723721404211469e-03 -9.999792918141853226e-01
1.699999999999999956e+00 -2.766636793805434848e-03 -6.512624550530571495e-03 -9.999749654041334423e-01
1.800000000000000044e+00 -3.050287825002151714e-03 -7.134154018728322035e-03 -9.999698993399060987e-01
1.899999999999999911e+00 -3.365403689373301817e-03 -7.791279338499688262e-03 -9.999639843625164337e-01
2.000000000000000000e+00 -3.716256155690744831e-03 -8.483102208039737524e-03 -9.999571122834041148e-01
2.099999999999999645e+00 -4.107655884033976218e-03 -9.208894659776303490e-03 -9.999491604120587240e-01
2.199999999999999734e+00 -4.544687546377136622e-03 -9.968259135488299547e-03 -9.999399879984590678e-01
2.299999999999999822e+00 -5.032261237162913986e-03 -1.075847963213998754e-02 -9.999294632165752761e-01
2.399999999999999911e+00 -5.576565646918468788e-03 -1.157741102238887647e-02 -9.999174292969104094e-01
2.500000000000000000e+00 -6.182001222346007394e-03 -1.242129410692734311e-02 -9.999037424732755142e-01
