0.000000000000000000e+00 -4.249043881210527911e-10 -2.109818987962669359e-09 -1.000000000000000000e+00
8.205128205128205121e-02 3.885293250171097112e-03 5.332120309910705347e-02 -9.985694599902025237e-01
1.641025641025641024e-01 7.770359303974704035e-03 1.062803471926009741e-01 -9.943050803205149002e-01
2.461538461538461675e-01 1.169167576751839466e-02 1.585102160566123630e-01 -9.872869689420410433e-01
3.282051282051282048e-01 1.566076387455113406e-02 2.096767032310813128e-01 -9.776438034556982348e-01
4.102564102564102422e-01 1.968291521789664045e-02 2.594786820449870857e-01 -9.655462756303488936e-01
4.923076923076923350e-01 2.375386045257316808e-02 3.076550824962013264e-01 -9.511990000077565899e-01
5.743589743589743168e-01 2.786681934521564874e-02 3.539934378958732308e-01 -9.348297886522968225e-01
6.564102564102564097e-01 3.200117948592309802e-02 3.983295407669393828e-01 -9.166806227055567247e-01
7.384615384615385025e-01 3.613634693199263559e-02 4.405477761515504964e-01 -8.969977214772213436e-01
8.205128205128204844e-01 4.024841153715215392e-02 4.805824032050812766e-01 -8.760210895507412054e-01
9.025641025641025772e-01 4.431263601364224258e-02 5.184103889034558099e-01 -8.539781291712970068e-01
9.846153846153846700e-01 4.830844894606173279e-02 5.540423491665300570e-01 -8.310801626738273384e-01
1.066666666666666652e+00 5.222126275352129143e-02 5.875215791897639983e-01 -8.075156358331329054e-01
1.148717948717948634e+00 5.604336361405226619e-02 6.189132136546624530e-01 -7.834507477432918199e-01
1.230769230769230838e+00 5.977634063130221609e-02 6.482971083857116401e-01 -7.590299769465328472e-01
1.312820512820512819e+00 6.342973102815402386e-02 6.757613051886622868e-01 -7.343783588872252466e-01
1.394871794871794801e+00 6.702116615513670217e-02 7.013979404509974591e-01 -7.096032380167728304e-01
1.476923076923077005e+00 7.057429635403822399e-02 7.252974231048000542e-01 -6.847992596484746564e-01
1.558974358974358987e+00 7.411339996149853004e-02 7.475458507191368174e-01 -6.600522581904744168e-01
1.641025641025640969e+00 7.766401794446638196e-02 7.682252949225346628e-01 -6.354402261563116827e-01
1.723076923076923173e+00 8.125075870031421565e-02 7.874119736527227520e-01 -6.110370817232857465e-01
1.805128205128205154e+00 8.488868398191232179e-02 8.051808009320797765e-01 -5.869096693701489897e-01
1.887179487179487136e+00 8.858600055190610223e-02 8.215979492360190317e-01 -5.631288465052989300e-01
1.969230769230769340e+00 9.234000399063665987e-02 8.367389944039549388e-01 -5.397458241032294657e-01
2.051282051282051100e+00 9.614328726894605381e-02 8.506686796796251171e-01 -5.168203658292972458e-01
2.133333333333333304e+00 9.997440597185605626e-02 8.634611792801588637e-01 -4.943921522453086914e-01
2.215384615384615508e+00 1.038095879176090808e-01 8.751905986826228334e-01 -4.724916619305710164e-01
2.297435897435897267e+00 1.076205346925396822e-01 8.859314082471242413e-01 -4.511390711924715413e-01
2.379487179487179471e+00 1.113772020924462813e-01 8.957606387074377174e-01 -4.303380420030675224e-01
2.461538461538461675e+00 1.150545757300823757e-01 9.047544063559477268e-01 -4.100786500875006624e-01
2.543589743589743435e+00 1.186334347935901201e-01 9.129854284934356690e-01 -3.903409783003695677e-01
2.625641025641025639e+00 1.221052723204764101e-01 9.205224692659869090e-01 -3.710941132361644246e-01
2.707692307692307843e+00 1.254738939274976373e-01 9.274280427540780858e-01 -3.523002871408533743e-01
2.789743589743589602e+00 1.287466009785591115e-01 9.337567063411280621e-01 -3.339229091651184089e-01
2.871794871794871806e+00 1.319510510016187466e-01 9.395532236947853333e-01 -3.159276577882648707e-01
2.953846153846154010e+00 1.351167804959308993e-01 9.448550220137101885e-01 -2.982849565940875469e-01
3.035897435897435770e+00 1.382816376452188911e-01 9.496911443877545933e-01 -2.809737557601745817e-01
3.117948717948717974e+00 1.414791016959578984e-01 9.540823836069753927e-01 -2.639918024300720867e-01
3.200000000000000178e+00 1.447485019431158371e-01 9.580458435499321634e-01 -2.473400851793479682e-01
