0.000000000000000000e+00 -1.033053645783207969e-09 -2.272611696918410796e-09 -1.000000000000000000e+00
8.205128205128205121e-02 2.196279525302670052e-03 8.366304668611941608e-03 -9.999625532154245988e-01
1.641025641025641024e-01 4.251058125949116855e-03 1.677287046500713225e-02 -9.998502197379772749e-01
2.461538461538461675e-01 6.037563350812947399e-03 2.524162714675168978e-02 -9.996630482088199043e-01
3.282051282051282048e-01 7.419694009678665103e-03 3.379618326720250365e-02 -9.994010741732614056e-01
4.102564102564102422e-01 8.261237611201791703e-03 4.244691439058728005e-02 -9.990644093934748504e-01
4.923076923076923350e-01 8.422239247621438746e-03 5.119314679732758777e-02 -9.986530702216558364e-01
5.743589743589743168e-01 7.761729944180895124e-03 6.001166875732224376e-02 -9.981672823908145364e-01
6.564102564102564097e-01 6.142616019631036428e-03 6.886067122144816366e-02 -9.976071282833275378e-01
7.384615384615385025e-01 3.425286608520004827e-03 7.767074067983217867e-02 -9.969729049668611953e-01
8.205128205128204844e-01 -5.208471443161090397e-04 8.634720270999640679e-02 -9.962646641898077471e-01
9.025641025641025772e-01 -5.816104769166580146e-03 9.476234910352368535e-02 -9.954825971882412805e-01
9.846153846153846700e-01 -1.256993927082248469e-02 1.027544249168069329e-01 -9.946269649446626282e-01
1.066666666666666652e+00 -2.087132263611751748e-02 1.101246913357580015e-01 -9.936982291585108040e-01
1.148717948717948634e+00 -3.077695234647687128e-02 1.166455792293009663e-01 -9.926962001744095154e-01
1.230769230769230838e+00 -4.231174644529359097e-02 1.220470849826448684e-01 -9.916215645178243498e-01
1.312820512820512819e+00 -5.545237307870702625e-02 1.260317285578669289e-01 -9.904746696699521236e-01
1.394871794871794801e+00 -7.012608868981182186e-02 1.282762402817523018e-01 -9.892555392109460000e-01
1.476923076923077005e+00 -8.618938091353087194e-02 1.284363748105792347e-01 -9.879647771845256887e-01
1.558974358974358987e+00 -1.034304813677978802e-01 1.261565599899577839e-01 -9.866030194035863010e-01
1.641025641025640969e+00 -1.215534530115601891e-01 1.210903505216676668e-01 -9.851703876284078065e-01
1.723076923076923173e+00 -1.401782461176281080e-01 1.129076196925936637e-01 -9.836669505807908997e-01
1.805128205128205154e+00 -1.588251588799149683e-01 1.013177436072759674e-01 -9.820936678837139944e-01
1.887179487179487136e+00 -1.769281302215802154e-01 8.608573826490457936e-02 -9.804510716451466656e-01
1.969230769230769340e+00 -1.938290495706530003e-01 6.707182768001515583e-02 -9.787390970038176707e-01
2.051282051282051100e+00 -2.087858881950326317e-01 4.423227073257739866e-02 -9.769598027204925428e-01
2.133333333333333304e+00 -2.210098533055158132e-01 1.766945863039734443e-02 -9.751106970449883171e-01
2.215384615384615508e+00 -2.296427416127621302e-01 -1.236488289483503311e-02 -9.731956065394199440e-01
2.297435897435897267e+00 -2.338375890999464801e-01 -4.542807584675044585e-02 -9.712129438087599986e-01
2.379487179487179471e+00 -2.327581596345749682e-01 -8.088543461337492635e-02 -9.691642880837970653e-01
2.461538461538461675e+00 -2.256435704571074230e-01 -1.178842548637184517e-01 -9.670503922158882881e-01
2.543589743589743435e+00 -2.118521200428798712e-01 -1.553733217294255287e-01 -9.648709387588374486e-01
2.625641025641025639e+00 -1.909119895499949981e-01 -1.920872705159404892e-01 -9.626282563558452576e-01
2.707692307692307843e+00 -1.625889298770308300e-01 -2.265972882321432014e-01 -9.603210365191544584e-01
2.789743589743589602e+00 -1.269308653696183398e-01 -2.573275160303054032e-01 -9.579504217841696700e-01
2.871794871794871806e+00 -8.431991362477442298e-02 -2.826144383704384255e-01 -9.555192816493087715e-01
2.953846153846154010e+00 -3.551826908346172873e-02 -3.007983935891379024e-01 -9.530249604700846700e-01
3.035897435897435770e+00 1.830821565197565670e-02 -3.102683328215169456e-01 -9.504715220678858767e-01
3.117948717948717974e+00 7.556504084287712919e-02 -3.096025123333233098e-01 -9.478575160999604954e-01
3.200000000000000178e+00 1.342769150644025911e-01 -2.976472272377038708e-01 -9.451843379109197141e-01
