0.000000000000000000e+00 -1.171241273307736091e-09 -1.865183257950806040e-09 -1.000000000000000000e+00
8.205128205128205121e-02 3.885545199831707836e-03 7.725083374112626071e-03 -9.999625532503908509e-01
1.641025641025641024e-01 7.635008025180815318e-03 1.552594341934534182e-02 -9.998502048428740130e-01
2.461538461538461675e-01 1.113410769191485079e-02 2.344543622998187388e-02 -9.996629562871321983e-01
3.282051282051282048e-01 1.425471559574256926e-02 3.153308054175520125e-02 -9.994008489523633632e-01
4.102564102564102422e-01 1.686413674708935398e-02 3.983289133289159845e-02 -9.990637805310857988e-01
4.923076923076923350e-01 1.882410145582364552e-02 4.836858342447208220e-02 -9.986518601385292460e-01
5.743589743589743168e-01 1.999414082759869843e-02 5.714997775200331837e-02 -9.981650280871093850e-01
6.564102564102564097e-01 2.022792818559964595e-02 6.616379192103849505e-02 -9.976033291299134520e-01
7.384615384615385025e-01 1.937945231941362589e-02 7.537128503982561123e-02 -9.969667662108858686e-01
8.205128205128204844e-01 1.729764291145777233e-02 8.470633069025515494e-02 -9.962553202405395325e-01
9.025641025641025772e-01 1.383890379811198064e-02 9.406888823904939467e-02 -9.954689684966322449e-01
9.846153846153846700e-01 8.864035925219410778e-03 1.033195854572306893e-01 -9.946081334277386832e-01
1.066666666666666652e+00 2.250035767395630604e-03 1.122886826063083238e-01 -9.936724515074051300e-01
1.148717948717948634e+00 -6.106619107886186726e-03 1.207598414925895175e-01 -9.926622948895720278e-01
1.230769230769230838e+00 -1.628281319190925946e-02 1.284794489140223539e-01 -9.915777668809867551e-01
1.312820512820512819e+00 -2.831812225611204936e-02 1.351562286327290530e-01 -9.904187765000297405e-01
1.394871794871794801e+00 -4.220040616200987360e-02 1.404587281189224879e-01 -9.891859530604032447e-01
1.476923076923077005e+00 -5.786388712710676535e-02 1.440311774227513719e-01 -9.878790785902157312e-01
1.558974358974358987e+00 -7.517392930441540999e-02 1.454905843103352914e-01 -9.864986376749023123e-01
1.641025641025640969e+00 -9.391770238207927668e-02 1.444441123334930799e-01 -9.850448989675001377e-01
1.723076923076923173e+00 -1.137918293549698423e-01 1.405010396008173901e-01 -9.835186145712923045e-01
1.805128205128205154e+00 -1.344059578612836758e-01 1.332932421055683658e-01 -9.819194679116853841e-01
1.887179487179487136e+00 -1.552665339965134117e-01 1.224879396330182113e-01 -9.802483370653799488e-01
1.969230769230769340e+00 -1.757830068636952736e-01 1.078158909103853619e-01 -9.785058855456354454e-01
2.051282051282051100e+00 -1.952742288711649399e-01 8.909710968638223649e-02 -9.766920074893664649e-01
2.133333333333333304e+00 -2.129699670499096142e-01 6.625844114724514788e-02 -9.748082412507724781e-01
2.215384615384615508e+00 -2.280367186501953136e-01 3.936981011580226175e-02 -9.728549051601386166e-01
2.297435897435897267e+00 -2.395945596778222275e-01 8.661386289111200343e-03 -9.708330071535000716e-01
2.379487179487179471e+00 -2.467553769697389821e-01 -2.545332298615352040e-02 -9.687420247512460447e-01
2.461538461538461675e+00 -2.486421838045867472e-01 -6.236112000351748397e-02 -9.665843166748223636e-01
2.543589743589743435e+00 -2.444526408683062868e-01 -1.012398152165312204e-01 -9.643601003568308405e-01
2.625641025641025639e+00 -2.334940482250576488e-01 -1.410552516575380999e-01 -9.620711176372969131e-01
2.707692307692307843e+00 -2.152482153795741704e-01 -1.805773245429366236e-01 -9.597170612643858290e-01
2.789743589743589602e+00 -1.894084918169425258e-01 -2.184049198267873915e-01 -9.572984882294408582e-01
2.871794871794871806e+00 -1.559407590295604218e-01 -2.529804628367129382e-01 -9.548193247599229272e-01
2.953846153846154010e+00 -1.151334598807071674e-01 -2.826776466677116129e-01 -9.522783795117346628e-01
3.035897435897435770e+00 -6.762713187494737155e-02 -3.058345336382921609e-01 -9.496779305319552611e-01
3.117948717948717974e+00 -1.444678832306431349e-02 -3.208514141604020820e-01 -9.470173938048972451e-01
3.200000000000000178e+00 4.299558776306038055e-02 -3.262577194101253797e-01 -9.443005017066086193e-01
