0.000000000000000000e+00 -1.717479399089803503e-09 -5.809232135007336167e-09 -1.000000000000000000e+00
8.205128205128205121e-02 8.776141144254889781e-02 4.714192818060203988e-02 -9.950250411924469462e-01
1.641025641025641024e-01 1.727295121068289918e-01 9.661757656571300090e-02 -9.802183832681024001e-01
2.461538461538461675e-01 2.520751432242220313e-01 1.505352895034141325e-01 -9.559262376803953076e-01
3.282051282051282048e-01 3.228765260880299692e-01 2.106008015226982777e-01 -9.227106638875991473e-01
4.102564102564102422e-01 3.821380230200495109e-01 2.779417913882815117e-01 -8.813143258841881211e-01
4.923076923076923350e-01 4.268140130716963077e-01 3.529003699574856934e-01 -8.326381810913292547e-01
5.743589743589743168e-01 4.539127888043414938e-01 4.349219684356754323e-01 -7.776891780507387830e-01
6.564102564102564097e-01 4.606226391658135855e-01 5.224419905453019375e-01 -7.175477613574959834e-01
7.384615384615385025e-01 4.445227232050615318e-01 6.128392500635526652e-01 -6.533149656212173806e-01
8.205128205128204844e-01 4.038092822439677265e-01 7.024498808106064418e-01 -5.860839587052449895e-01
9.025641025641025772e-01 3.375473770217807257e-01 7.866778089417467701e-01 -5.169055883835028675e-01
9.846153846153846700e-01 2.459588461553879890e-01 8.601850609298191674e-01 -4.467404657459412842e-01
1.066666666666666652e+00 1.306361334079327863e-01 9.171688754959413936e-01 -3.764652021080116540e-01
1.148717948717948634e+00 -5.250591514664115778e-03 9.517419673365995481e-01 -3.068385994295416141e-01
1.230769230769230838e+00 -1.568709462774287577e-01 9.583841892181598210e-01 -2.384979508490823463e-01
1.312820512820512819e+00 -3.177532562792700910e-01 9.324409469594474587e-01 -1.719783868560923745e-01
1.394871794871794801e+00 -4.799533417453104023e-01 8.706545940736075684e-01 -1.076802401826226635e-01
1.476923076923077005e+00 -6.343726899485047088e-01 7.716548804769205461e-01 -4.593126681452178867e-02
1.558974358974358987e+00 -7.712553458245332560e-01 6.363832399751502278e-01 1.308325614417444466e-02
1.641025641025640969e+00 -8.808037129595963632e-01 4.683847177583026489e-01 6.921131208343103691e-02
1.723076923076923173e+00 -9.539269096987846863e-01 2.739203275723631759e-01 1.223961086580229868e-01
1.805128205128205154e+00 -9.830392465425319415e-01 6.185933979444890873e-02 1.726183336024176562e-01
1.887179487179487136e+00 -9.628484339326435215e-01 -1.566742511882353583e-01 2.199227267651034101e-01
1.969230769230769340e+00 -8.910674724752356557e-01 -3.689094150078386924e-01 2.643759910580511518e-01
2.051282051282051100e+00 -7.689534462613013543e-01 -5.612626829989432187e-01 3.060802332889497879e-01
2.133333333333333304e+00 -6.015988060302435159e-01 -7.203796102526616174e-01 3.451413660029918895e-01
2.215384615384615508e+00 -3.979337346023286148e-01 -8.342406468245107121e-01 3.816829559111983849e-01
2.297435897435897267e+00 -1.703392617108753226e-01 -8.933355699490198587e-01 4.158449448409359817e-01
2.379487179487179471e+00 6.606622623095020908e-02 -8.917032358561076677e-01 4.477629384355862885e-01
2.461538461538461675e+00 2.944723688407489548e-01 -8.277665947078892694e-01 4.775770511012926156e-01
2.543589743589743435e+00 4.977273302352478446e-01 -7.048531526687661364e-01 5.054117768517798481e-01
2.625641025641025639e+00 6.598105289140432372e-01 -5.312691653462620067e-01 5.314083938790515882e-01
2.707692307692307843e+00 7.673543191753156023e-01 -3.199589228603737512e-01 5.556848107897365274e-01
2.789743589743589602e+00 8.110597251290215803e-01 -8.760623915738757761e-02 5.783592462163784642e-01
2.871794871794871806e+00 7.867868165074489717e-01 1.466323825778277357e-01 5.995480328249039870e-01
2.953846153846154010e+00 6.962647196855487053e-01 3.627766580661372364e-01 6.193553870624568525e-01
3.035897435897435770e+00 5.472524416803581371e-01 5.418680188149411769e-01 6.378765912257123860e-01
3.117948717948717974e+00 3.530824082275299536e-01 6.678500885635038076e-01 6.552113813044854185e-01
3.200000000000000178e+00 1.316489628429693970e-01 7.292683794344444470e-01 6.714382157093647940e-01
