0.000000000000000000e+00 2.596915979196907759e-09 6.276235608201939219e-10 -1.000000000000000000e+00
8.205128205128205121e-02 -1.434816212405488900e-01 1.442707447752767658e-01 -9.790791546196503381e-01
1.641025641025641024e-01 -2.816168856964036404e-01 2.812909102773633596e-01 -9.173663883956647558e-01
2.461538461538461675e-01 -4.092287499746610768e-01 4.043414546912316720e-01 -8.179425705260569002e-01
3.282051282051282048e-01 -5.215798983031124658e-01 5.076738105511792165e-01 -6.857175247579559985e-01
4.102564102564102422e-01 -6.145575086209578153e-01 5.869166187836850623e-01 -5.270974745894816405e-01
4.923076923076923350e-01 -6.848318779770447007e-01 6.393608554235716834e-01 -3.495775892211414604e-01
5.743589743589743168e-01 -7.300139950815942580e-01 6.641212939689236094e-01 -1.612531451920749259e-01
6.564102564102564097e-01 -7.487675209104498464e-01 6.621526233006924667e-01 2.967921121902130852e-02
7.384615384615385025e-01 -7.408820874168599024e-01 6.361316046013320014e-01 2.154314910795606663e-01
8.205128205128204844e-01 -7.072969844957474050e-01 5.902081666066837373e-01 3.890593813954356661e-01
9.025641025641025772e-01 -6.500730898000719460e-01 5.296439780768823491e-01 5.448543859372102505e-01
9.846153846153846700e-01 -5.723080369005697499e-01 4.603829506020410967e-01 6.785998123243163205e-01
1.066666666666666652e+00 -4.780019968524983343e-01 3.885703671955286764e-01 7.877287104870199785e-01
1.148717948717948634e+00 -3.718607562785548604e-01 3.200762195555670875e-01 8.713568541119242061e-01
1.230769230769230838e+00 -2.590556611122407649e-01 2.600480504205569532e-01 9.301932461261025464e-01
1.312820512820512819e+00 -1.449606589740942142e-01 2.125385881702928081e-01 9.663384093634393990e-01
1.394871794871794801e+00 -3.485924073266846723e-02 1.802272058454191250e-01 9.830057497538862155e-01
1.476923076923077005e+00 6.635277776011395956e-02 1.642762384154843880e-01 9.841788658507469867e-01
1.558974358974358987e+00 1.544502549145863046e-01 1.643016505548181017e-01 9.742416324397770166e-01
1.641025641025640969e+00 2.261239576838587895e-01 1.784640448734138851e-01 9.576085861657983589e-01
1.723076923076923173e+00 2.791496301733330521e-01 2.036987675029355294e-01 9.383906336315769314e-01
1.805128205128205154e+00 3.125341872407615962e-01 2.360321681025552010e-01 9.201114359302684509e-01
1.887179487179487136e+00 3.265428194864506417e-01 2.709681627105570145e-01 9.055049937975778729e-01
1.969230769230769340e+00 3.226660863091770914e-01 3.039097957010012951e-01 8.963918364657865734e-01
2.051282051282051100e+00 3.034918812537344412e-01 3.305652946409434190e-01 8.936509703392299109e-01
2.133333333333333304e+00 2.724995834401617856e-01 3.473368665908621589e-01 8.972703086074983458e-01
2.215384615384615508e+00 2.337868658194009464e-01 3.516126273346151798e-01 9.064797570419604877e-01
2.297435897435897267e+00 1.917708594624919216e-01 3.419931775129638196e-01 9.199230657371758602e-01
2.379487179487179471e+00 1.508340678004484181e-01 3.183815945483978727e-01 9.358829012919127610e-01
2.461538461538461675e+00 1.150112908163102993e-01 2.819719336907231533e-01 9.525017672344749942e-01
2.543589743589743435e+00 8.766972126460553794e-02 2.351113458078011031e-01 9.680046216175686169e-01
2.625641025641025639e+00 7.128475637862388692e-02 1.810721185155746982e-01 9.808815014067616689e-01
2.707692307692307843e+00 6.724023946330862089e-02 1.237357638973181073e-01 9.900334147610916347e-01
2.789743589743589602e+00 7.575881617016477776e-02 6.723765608563567198e-02 9.948558786477279536e-01
2.871794871794871806e+00 9.591386563570371282e-02 1.559500414774323690e-02 9.952667505050788455e-01
2.953846153846154010e+00 1.257490971620702780e-01 -2.766504467055424035e-02 9.916753179314697908e-01
3.035897435897435770e+00 1.624365668222964854e-01 -5.981396975334804522e-02 9.849031048475661576e-01
3.117948717948717974e+00 2.025656918936270534e-01 -7.914304642801646417e-02 9.760636830722425605e-01
3.200000000000000178e+00 2.424447129064556394e-01 -8.511136083761659810e-02 9.664226774665216624e-01
