0.000000000000000000e+00 -2.786375555690266296e-09 3.888571586671441960e-09 -1.000000000000000000e+00
8.205128205128205121e-02 -4.656804691496629900e-02 -2.630629695706675208e-02 -9.985684618656768263e-01
1.641025641025641024e-01 -9.293309287328693769e-02 -5.246105427713827762e-02 -9.942889221189141757e-01
2.461538461538461675e-01 -1.388999598123008550e-01 -7.829182208299087509e-02 -9.872061438434334146e-01
3.282051282051282048e-01 -1.842775688275190005e-01 -1.036479550309453990e-01 -9.773930850825102157e-01
4.102564102564102422e-01 -2.288871547799324335e-01 -1.283829934625783653e-01 -9.649489171576558499e-01
4.923076923076923350e-01 -2.725599289434244010e-01 -1.523618526113444949e-01 -9.499970787115163962e-01
5.743589743589743168e-01 -3.151424536641731500e-01 -1.754668863511579802e-01 -9.326808987805502715e-01
6.564102564102564097e-01 -3.564988652466803409e-01 -1.975900683412671333e-01 -9.131611737035484344e-01
7.384615384615385025e-01 -3.965096946034306069e-01 -2.186423585531815927e-01 -8.916118744043505240e-01
8.205128205128204844e-01 -4.350745970558406173e-01 -2.385475788667582309e-01 -8.682170544999553430e-01
9.025641025641025772e-01 -4.721148075008854139e-01 -2.572492074036606402e-01 -8.431641069501645269e-01
9.846153846153846700e-01 -5.075656360288014479e-01 -2.747036332787125557e-01 -8.166454905157133348e-01
1.066666666666666652e+00 -5.413810375195213798e-01 -2.908835607881795071e-01 -7.888521518005100486e-01
1.148717948717948634e+00 -5.735346659862200491e-01 -3.057750956745828863e-01 -7.599694419466920259e-01
1.230769230769230838e+00 -6.040079890519517436e-01 -3.193770168716634217e-01 -7.301823368806206194e-01
1.312820512820512819e+00 -6.328084825950178738e-01 -3.316998859389262977e-01 -6.996583468941550699e-01
1.394871794871794801e+00 -6.599443777379676579e-01 -3.427621568156313803e-01 -6.685658919034261904e-01
1.476923076923077005e+00 -6.854438542678006341e-01 -3.525939696981590932e-01 -6.370531292272463286e-01
1.558974358974358987e+00 -7.093348024063717006e-01 -3.612304497945153514e-01 -6.052675898011385947e-01
1.641025641025640969e+00 -7.316620362195480620e-01 -3.687141626581927900e-01 -5.733344314586640289e-01
1.723076923076923173e+00 -7.524713524627003602e-01 -3.750916221994007316e-01 -5.413729664404532960e-01
1.805128205128205154e+00 -7.718159146957596084e-01 -3.804106720667288499e-01 -5.094891593548732667e-01
1.887179487179487136e+00 -7.897506497013200288e-01 -3.847236434553510387e-01 -4.777788887555132757e-01
1.969230769230769340e+00 -8.063339919665819533e-01 -3.880856518348592132e-01 -4.463248053304372798e-01
2.051282051282051100e+00 -8.216269465968020214e-01 -3.905499598479180712e-01 -4.151993358162183734e-01
2.133333333333333304e+00 -8.356894497395497279e-01 -3.921686584124440822e-01 -3.844701474699399601e-01
2.215384615384615508e+00 -8.485835117576883135e-01 -3.929997233273075929e-01 -3.541856572814436888e-01
2.297435897435897267e+00 -8.603693421065619074e-01 -3.930949973647785978e-01 -3.243932746136283796e-01
2.379487179487179471e+00 -8.711068991165253905e-01 -3.925036266919431638e-01 -2.951332135756807307e-01
2.461538461538461675e+00 -8.808537557432744025e-01 -3.912760442230629465e-01 -2.664386208235997033e-01
2.543589743589743435e+00 -8.896680252471351746e-01 -3.894617375193856201e-01 -2.383276626795564901e-01
2.625641025641025639e+00 -8.976033491550275967e-01 -3.871061437030713925e-01 -2.108238157817178271e-01
2.707692307692307843e+00 -9.047130220332826323e-01 -3.842518943866843895e-01 -1.839412205914123521e-01
2.789743589743589602e+00 -9.110483860234711573e-01 -3.809391651963038861e-01 -1.576885197445961617e-01
2.871794871794871806e+00 -9.166558225377169355e-01 -3.772127377664556969e-01 -1.320684500907412517e-01
2.953846153846154010e+00 -9.215825129360531998e-01 -3.731034088665799997e-01 -1.070929229266800869e-01
3.035897435897435770e+00 -9.258721463882989555e-01 -3.686500771991950698e-01 -8.274798324684670692e-02
3.117948717948717974e+00 -9.295654998403396485e-01 -3.638836327324276310e-01 -5.904234666913004553e-02
3.200000000000000178e+00 -9.327027098358798840e-01 -3.588340330076715823e-01 -3.595956488194661932e-02
