0.000000000000000000e+00 1.586721302172683224e-09 -1.767425086520568371e-09 -1.000000000000000000e+00
8.205128205128205121e-02 -1.742640214528799469e-01 -8.535977203466812990e-02 -9.809907741142362969e-01
1.641025641025641024e-01 -3.395834905065162612e-01 -1.709943776893934064e-01 -9.248989142113804851e-01
2.461538461538461675e-01 -4.875080832249978346e-01 -2.568793770946576904e-01 -8.344696174643105868e-01
3.282051282051282048e-01 -6.105328018820573854e-01 -3.425395467659237969e-01 -7.140754414543211137e-01
4.102564102564102422e-01 -7.025103707222368765e-01 -4.268626928576683688e-01 -5.694311387212585007e-01
4.923076923076923350e-01 -7.589959243502755193e-01 -5.080182294499411277e-01 -4.072157260182978078e-01
5.743589743589743168e-01 -7.774937746816652506e-01 -5.834559081732453301e-01 -2.346550801630274408e-01
6.564102564102564097e-01 -7.575994709186490983e-01 -6.500264051173885171e-01 -5.906231545910138603e-02
7.384615384615385025e-01 -7.010296101527981882e-01 -7.041721037213313217e-01 1.126006424975337372e-01
8.205128205128204844e-01 -6.115295285797468505e-01 -7.422064544525077689e-01 2.741202247731695518e-01
9.025641025641025772e-01 -4.946655169478806902e-01 -7.606470177866773152e-01 4.203621231685602533e-01
9.846153846153846700e-01 -3.575034890970626988e-01 -7.565729555742054524e-01 5.475149548734874472e-01
1.066666666666666652e+00 -2.082111941135744715e-01 -7.279607997987601609e-01 6.532282806543578957e-01
1.148717948717948634e+00 -5.556128815453378889e-02 -6.740008746204632084e-01 7.366299444820810782e-01
1.230769230769230838e+00 9.157681180879942429e-02 -5.953105791643187317e-01 7.982534576841037177e-01
1.312820512820512819e+00 2.247823164860628942e-01 -4.940676989182873902e-01 8.398576415699129383e-01
1.394871794871794801e+00 3.366021684562121585e-01 -3.739985226703121390e-01 8.641850223575306966e-01
1.476923076923077005e+00 4.210106650378764304e-01 -2.402591548562116319e-01 8.746528455938917812e-01
1.558974358974358987e+00 4.737919838157506613e-01 -9.918268357593279516e-02 8.750291387810037458e-01
1.641025641025640969e+00 4.928070084088322367e-01 4.210628867750587645e-02 8.691145782261072705e-01
1.723076923076923173e+00 4.781355478693918859e-01 1.761252206984958435e-01 8.604404897676130037e-01
1.805128205128205154e+00 4.320633996386913922e-01 2.955662621252355127e-01 8.520287877811340005e-01
1.887179487179487136e+00 3.589266833142569224e-01 3.938102970996142926e-01 8.462128268414658150e-01
1.969230769230769340e+00 2.648198910556104346e-01 4.654222717474381654e-01 8.445374692344491674e-01
2.051282051282051100e+00 1.571666922300996583e-01 5.065998836348937218e-01 8.477300876657699602e-01
2.133333333333333304e+00 4.419820999623425006e-02 5.154707465255586873e-01 8.557615293876653650e-01
2.215384615384615508e+00 -6.560774895178658750e-02 4.922886055260017324e-01 8.679512357260621425e-01
2.297435897435897267e+00 -1.641556603593140040e-01 4.394631657505233546e-01 8.831293214292416094e-01
2.379487179487179471e+00 -2.442875040952746102e-01 3.614160471151659504e-01 8.998305541992044354e-01
2.461538461538461675e+00 -3.003157872280671770e-01 2.642810422476014609e-01 9.164931073828667119e-01
2.543589743589743435e+00 -3.284211564038185260e-01 1.554854565990881066e-01 9.316427120839332332e-01
2.625641025641025639e+00 -3.269364319348012637e-01 4.319076785765610382e-02 9.440561630829399364e-01
2.707692307692307843e+00 -2.964512282927577735e-01 -6.429547977964100713e-02 9.528788635652327699e-01
2.789743589743589602e+00 -2.397631860403126314e-01 -1.591646811309626042e-01 9.576929841364977269e-01
2.871794871794871806e+00 -1.616485007646493166e-01 -2.346787584761601542e-01 9.585360310257600158e-01
2.953846153846154010e+00 -6.848267971411045596e-02 -2.857010656935755621e-01 9.558663897855715907e-01
3.035897435897435770e+00 3.225963302260881349e-02 -3.090782314895550997e-01 9.504868284746970097e-01
3.117948717948717974e+00 1.325932043470728627e-01 -3.038846299696530417e-01 9.434341852042462673e-01
3.200000000000000178e+00 2.246614625949936994e-01 -2.714711222664318857e-01 9.358553176578270349e-01
