0.000000000000000000e+00 -3.707464123902667998e-09 4.632792177467861465e-09 -1.000000000000000000e+00
8.205128205128205121e-02 2.089723302871589194e-02 7.175967906558967935e-02 -9.972024727697079705e-01
1.641025641025641024e-01 4.176033156549018022e-02 1.426947328234213774e-01 -9.888843059239199595e-01
2.461538461538461675e-01 6.258741692754817010e-02 2.119870594155220667e-01 -9.752646371004061177e-01
3.282051282051282048e-01 8.334616243622411380e-02 2.789023011036868560e-01 -9.566935915610570440e-01
4.102564102564102422e-01 1.039906672382756025e-01 3.427957269433334897e-01 -9.336335490067853016e-01
4.923076923076923350e-01 1.244617342258866610e-01 4.031357143310400071e-01 -9.066335037539652308e-01
5.743589743589743168e-01 1.446824381903059897e-01 4.595250836051452681e-01 -8.762967546298601196e-01
6.564102564102564097e-01 1.645631793386959640e-01 5.116943957125389408e-01 -8.432550140797419047e-01
7.384615384615385025e-01 1.840071093107220612e-01 5.595096556429037804e-01 -8.081339509427891699e-01
8.205128205128204844e-01 2.029115827488334189e-01 6.029620984986810983e-01 -7.715262438002973289e-01
9.025641025641025772e-01 2.211804383425395870e-01 6.421454175878951176e-01 -7.339732082511969402e-01
9.846153846153846700e-01 2.387284514249864986e-01 6.772421939035142557e-01 -6.959447141234793577e-01
1.066666666666666652e+00 2.554849597759740742e-01 7.084976434231945452e-01 -6.578335769622364326e-01
1.148717948717948634e+00 2.714048490241428579e-01 7.362014885093508543e-01 -6.199455714801760386e-01
1.230769230769230838e+00 2.864670567500655629e-01 7.606587591663644954e-01 -5.825117374473874898e-01
1.312820512820512819e+00 3.006782999570322135e-01 7.821730312482982894e-01 -5.456943563571970968e-01
1.394871794871794801e+00 3.140722623312608430e-01 8.010331058198425502e-01 -5.095963500766536036e-01
1.476923076923077005e+00 3.267054606494556035e-01 8.174985703057490172e-01 -4.742815382131168600e-01
1.558974358974358987e+00 3.386533912872347063e-01 8.317953402290043652e-01 -4.397877758376426693e-01
1.641025641025640969e+00 3.500033783651011476e-01 8.441167665989276481e-01 -4.061366785195004714e-01
1.723076923076923173e+00 3.608419394902532829e-01 8.546250938527805152e-01 -3.733512545898817203e-01
1.805128205128205154e+00 3.712578219492331799e-01 8.634549197034124823e-01 -3.414601296264360708e-01
1.887179487179487136e+00 3.813231234202114073e-01 8.707254040113759919e-01 -3.105019349937253592e-01
1.969230769230769340e+00 3.910949608884651263e-01 8.765444822098092947e-01 -2.805276467548203922e-01
2.051282051282051100e+00 4.006089591834208763e-01 8.810203209542670777e-01 -2.515883512326138050e-01
2.133333333333333304e+00 4.098786937738904124e-01 8.842624237470919635e-01 -2.237415513915717580e-01
2.215384615384615508e+00 4.188960454207384387e-01 8.863899507376515885e-01 -1.970270510685870613e-01
2.297435897435897267e+00 4.276363524643257974e-01 8.875258336853959484e-01 -1.714806638333109257e-01
2.379487179487179471e+00 4.360580229018689025e-01 8.878026655287185598e-01 -1.471063945692882846e-01
2.461538461538461675e+00 4.441192247752269173e-01 8.873514212188258199e-01 -1.238787466981667168e-01
2.543589743589743435e+00 4.517729150277703942e-01 8.863000896942118123e-01 -1.017530883456661955e-01
2.625641025641025639e+00 4.589843511773405438e-01 8.847651026205054503e-01 -8.064942079627075711e-02
2.707692307692307843e+00 4.657313912969645586e-01 8.828466001069352753e-01 -6.046789061677224769e-02
2.789743589743589602e+00 4.720122311220930067e-01 8.806227846680059201e-01 -4.108710011360922759e-02
2.871794871794871806e+00 4.778445471013631485e-01 8.781477938755277712e-01 -2.238769189507492513e-02
2.953846153846154010e+00 4.832695442334369318e-01 8.754499518644283107e-01 -4.253246043867536796e-03
3.035897435897435770e+00 4.883490806153374941e-01 8.725338252032197595e-01 1.341871534344670804e-02
3.117948717948717974e+00 4.931559110953740999e-01 8.693873192157655083e-01 3.071008271531437683e-02
3.200000000000000178e+00 4.977757406249372352e-01 8.659836781690049001e-01 4.766311674949907234e-02
