0.000000000000000000e+00 6.733293095264418560e-14 1.849661471577244321e-13 -1.000000000000000000e+00
8.205128205128205121e-02 -4.978123016202230626e-03 -1.373932338521558806e-02 -9.998932189439125873e-01
1.641025641025641024e-01 -9.728766735593060225e-03 -2.723010161647883287e-02 -9.995818489047029187e-01
2.461538461538461675e-01 -1.403459117610255519e-02 -4.022332349055492140e-02 -9.990921451511987073e-01
3.282051282051282048e-01 -1.769913864023052105e-02 -5.246761478893738340e-02 -9.984657680078704578e-01
4.102564102564102422e-01 -2.055665368000843610e-02 -6.371179295683512822e-02 -9.977565992811757711e-01
4.923076923076923350e-01 -2.248004440502543444e-02 -7.370583023734395001e-02 -9.970266286149187529e-01
5.743589743589743168e-01 -2.338921464738646233e-02 -8.220143974832547218e-02 -9.963412407255514136e-01
6.564102564102564097e-01 -2.325557670426253373e-02 -8.895625955453587141e-02 -9.957640091997962406e-01
7.384615384615385025e-01 -2.210846903560611740e-02 -9.374085515252203460e-02 -9.953511278544384666e-01
8.205128205128204844e-01 -2.003448744712230112e-02 -9.634286715421447322e-02 -9.951465576484598285e-01
9.025641025641025772e-01 -1.717931603950415345e-02 -9.657329229980426977e-02 -9.951776073737023109e-01
9.846153846153846700e-01 -1.374545911527457268e-02 -9.427642703552538417e-02 -9.954511628624647113e-01
1.066666666666666652e+00 -9.985583004522936845e-03 -8.933942465186546500e-02 -9.959511811715081597e-01
1.148717948717948634e+00 -6.201065864119292143e-03 -8.169579273244263751e-02 -9.966380206242920758e-01
1.230769230769230838e+00 -2.728805761825998932e-03 -7.134253498910647640e-02 -9.974481421917839041e-01
1.312820512820512819e+00 7.118066466964972916e-05 -5.833699202868326134e-02 -9.982969449527449024e-01
1.394871794871794801e+00 1.819332252477016618e-03 -4.281003306036815920e-02 -9.990815737237933591e-01
1.476923076923077005e+00 2.138453063757535938e-03 -2.497056206351953161e-02 -9.996858996923273510e-01
1.558974358974358987e+00 6.679218884735808708e-04 -5.101810015543344415e-03 -9.999867625619927036e-01
1.641025641025640969e+00 -2.926990783837405546e-03 1.643465558670401463e-02 -9.998606576521716915e-01
1.723076923076923173e+00 -8.934780577175071431e-03 3.920659213480814920e-02 -9.991911793544263620e-01
1.805128205128205154e+00 -1.758212434538067998e-02 6.271351597199698036e-02 -9.978766876815085007e-01
1.887179487179487136e+00 -2.902470442193874622e-02 8.640037412407536310e-02 -9.958376081362582122e-01
1.969230769230769340e+00 -4.333536856700125756e-02 1.096725825100514917e-01 -9.930226434268191182e-01
2.051282051282051100e+00 -6.048764638641387220e-02 1.319031390935927750e-01 -9.894153863355585887e-01
2.133333333333333304e+00 -8.035417598082278401e-02 1.524673225293137757e-01 -9.850365078701962540e-01
2.215384615384615508e+00 -1.027029927472695170e-01 1.707422846083301859e-01 -9.799485535762575417e-01
2.297435897435897267e+00 -1.271959686930346223e-01 1.861470894829726219e-01 -9.742537895996487007e-01
2.379487179487179471e+00 -1.533899847812561501e-01 1.981550456177037789e-01 -9.680940503377101214e-01
2.461538461538461675e+00 -1.807459278288020554e-01 2.063171446934829734e-01 -9.616465801222376930e-01
2.543589743589743435e+00 -2.086426302907505304e-01 2.102833059562825846e-01 -9.551173663903383959e-01
2.625641025641025639e+00 -2.363877088282671790e-01 2.098190463997006150e-01 -9.487343248701041176e-01
2.707692307692307843e+00 -2.632405130050742836e-01 2.048294769949528527e-01 -9.427350197706806378e-01
2.789743589743589602e+00 -2.884267491958757423e-01 1.953524083393561872e-01 -9.373619615109624048e-01
2.871794871794871806e+00 -3.111695084012695012e-01 1.815853009937593576e-01 -9.328452798074388097e-01
2.953846153846154010e+00 -3.307152031446466967e-01 1.638769140803948976e-01 -9.293932496171375401e-01
3.035897435897435770e+00 -3.463561401813786134e-01 1.427227277955724905e-01 -9.271826397841289591e-01
3.117948717948717974e+00 -3.574621010306443525e-01 1.187616408832321835e-01 -9.263457881102991065e-01
3.200000000000000178e+00 -3.635012437457273426e-01 9.276089616503141455e-02 -9.269640028594174908e-01
