0.000000000000000000e+00 -1.713864037768527600e-10 2.933263213521965364e-09 -1.000000000000000000e+00
8.205128205128205121e-02 -1.593466819621102981e-01 -7.582270829745933749e-02 -9.843050582674247595e-01
1.641025641025641024e-01 -3.111745401627260543e-01 -1.530027256603924135e-01 -9.379520971115662409e-01
2.461538461538461675e-01 -4.482968232574657819e-01 -2.325720737454157194e-01 -8.630933721034420580e-01
3.282051282051282048e-01 -5.641737464454272821e-01 -3.150724470682103040e-01 -7.631668961649199501e-01
4.102564102564102422e-01 -6.531962809086534483e-01 -4.003288904589553665e-01 -6.426930889169059080e-01
4.923076923076923350e-01 -7.109545165690139834e-01 -4.873190691146441211e-01 -5.069949656764886070e-01
5.743589743589743168e-01 -7.344408865705048806e-01 -5.741160016944755196e-01 -3.618912263987796862e-01
6.564102564102564097e-01 -7.222116843747888870e-01 -6.579278349719368535e-01 -2.133486150170605944e-01
7.384615384615385025e-01 -6.744778561793459692e-01 -7.352193012165703090e-01 -6.714073489234341496e-02
8.205128205128204844e-01 -5.931244823754475703e-01 -8.019172235459436360e-01 7.146892862575857097e-02
9.025641025641025772e-01 -4.816602460698030663e-01 -8.536849290277416236e-01 1.979942423002844509e-01
9.846153846153846700e-01 -3.450866154546576858e-01 -8.862471037941536123e-01 3.089636404333483410e-01
1.066666666666666652e+00 -1.896918371979129381e-01 -8.957397129184613283e-01 4.020519593347447462e-01
1.148717948717948634e+00 -2.278177081105758894e-02 -8.790631931119314846e-01 4.761390988647455358e-01
1.230769230769230838e+00 1.476542838270359370e-01 -8.341969174561285616e-01 5.313137411910836549e-01
1.312820512820512819e+00 3.133228492034048629e-01 -7.604792169615541830e-01 5.687543263747611988e-01
1.394871794871794801e+00 4.660375179134976786e-01 -6.587858746733140647e-01 5.905861554134375080e-01
1.476923076923077005e+00 5.981329959520708117e-01 -5.316287098255882970e-01 5.996580913707701965e-01
1.558974358974358987e+00 7.028798718901705378e-01 -3.831409923743017698e-01 5.992869519533721157e-01
1.641025641025640969e+00 7.748594297571691492e-01 -2.189387405994439595e-01 5.929928470444044697e-01
1.723076923076923173e+00 8.102805019291794419e-01 -4.589579276359739834e-02 5.842266007534365757e-01
1.805128205128205154e+00 8.072266509673493573e-01 1.282168314608884696e-01 5.761311106551260108e-01
1.887179487179487136e+00 7.658073079517300208e-01 2.951382341834793421e-01 5.713264996619580316e-01
1.969230769230769340e+00 6.881966402186578957e-01 4.466022489793385897e-01 5.717632355194399718e-01
2.051282051282051100e+00 5.785664648922523856e-01 5.748347300034299945e-01 5.786254399785769609e-01
2.133333333333333304e+00 4.428985065905173824e-01 6.730573851794978690e-01 5.922976434272959612e-01
2.215384615384615508e+00 2.886742527110450762e-01 7.359338444527682155e-01 6.124139229839737908e-01
2.297435897435897267e+00 1.245060638717058743e-01 7.599498819760256429e-01 6.379320316185048689e-01
2.379487179487179471e+00 -4.036112879588776847e-02 7.436937101092717661e-01 6.672887186968736728e-01
2.461538461538461675e+00 -1.965545245706431798e-01 6.880081582998035516e-01 6.985667930694171579e-01
2.543589743589743435e+00 -3.351335020231127060e-01 5.960054476016353187e-01 7.296906243259062563e-01
2.625641025641025639e+00 -4.481163449476792127e-01 4.729353939577036203e-01 7.586238117147978688e-01
2.707692307692307843e+00 -5.289722312648990066e-01 3.259081815520895598e-01 7.835555352942428220e-01
2.789743589743589602e+00 -5.730388718825364380e-01 1.635134065821612359e-01 8.030426663602950876e-01
2.871794871794871806e+00 -5.778277319918687649e-01 -4.699046430081010861e-03 8.161379754680977427e-01
2.953846153846154010e+00 -5.432093713072034813e-01 -1.687784224196895444e-01 8.224511107457193049e-01
3.035897435897435770e+00 -4.714483612948323077e-01 -3.190012870366501496e-01 8.221696976692743908e-01
3.117948717948717974e+00 -3.670942478902807782e-01 -4.464683946436746043e-01 8.160244899800067619e-01
3.200000000000000178e+00 -2.367315689882532048e-01 -5.436795238081324477e-01 8.052071294660775314e-01
