0.000000000000000000e+00 1.167347416564144223e-09 -1.624973915222252048e-09 -1.000000000000000000e+00
8.205128205128205121e-02 4.852938312425540517e-03 -7.157077380018055622e-03 -9.999625496231571153e-01
1.641025641025641024e-01 9.726973762169964163e-03 -1.431012366105421235e-02 -9.998501760878292233e-01
2.461538461538461675e-01 1.460397154920140515e-02 -2.146126353886140120e-02 -9.996628451960414274e-01
3.282051282051282048e-01 1.948590865550765480e-02 -2.861114313430790368e-02 -9.994004541974916833e-01
4.102564102564102422e-01 2.437640051766714472e-02 -3.575776975447866879e-02 -9.990628809260447829e-01
4.923076923076923350e-01 2.927713251237202413e-02 -4.289979687625483651e-02 -9.986500016696722160e-01
5.743589743589743168e-01 3.418573973118400194e-02 -5.003731410179482197e-02 -9.981617472532483548e-01
6.564102564102564097e-01 3.911050413232538409e-02 -5.716685913907807587e-02 -9.975978610192838270e-01
7.384615384615385025e-01 4.404921839325627586e-02 -6.429004330674979728e-02 -9.969581396472843027e-01
8.205128205128204844e-01 4.900471644014977451e-02 -7.140457457702345523e-02 -9.962423912573559193e-01
9.025641025641025772e-01 5.397777463906462680e-02 -7.850562593307780501e-02 -9.954507250304596155e-01
9.846153846153846700e-01 5.896966371346133023e-02 -8.559444686122015533e-02 -9.945828019272159315e-01
1.066666666666666652e+00 6.398420303935051234e-02 -9.267018750928059101e-02 -9.936382336506791590e-01
1.148717948717948634e+00 6.902015994794616360e-02 -9.972489019023572654e-02 -9.926176226170120298e-01
1.230769230769230838e+00 7.407937500956790489e-02 -1.067612227323621876e-01 -9.915204324692207249e-01
1.312820512820512819e+00 7.916371037834050994e-02 -1.137749543746826714e-01 -9.903467807474957141e-01
1.394871794871794801e+00 8.427336171727381475e-02 -1.207640686176911921e-01 -9.890967183251381245e-01
1.476923076923077005e+00 8.940800035595862505e-02 -1.277253917123357951e-01 -9.877705246499240976e-01
1.558974358974358987e+00 9.456944156645898103e-02 -1.346529889190537510e-01 -9.863687270697966136e-01
1.641025641025640969e+00 9.975639990677877267e-02 -1.415486416542109382e-01 -9.848911675974235669e-01
1.723076923076923173e+00 1.049706637726907643e-01 -1.484086353108414469e-01 -9.833381420403839446e-01
1.805128205128205154e+00 1.102106154853712550e-01 -1.552274602562044303e-01 -9.817106578723160393e-01
1.887179487179487136e+00 1.154792650441035518e-01 -1.620049587534476698e-01 -9.800084627984401164e-01
1.969230769230769340e+00 1.207733331342686206e-01 -1.687364668065431395e-01 -9.782327713711289618e-01
2.051282051282051100e+00 1.260903725175468726e-01 -1.754187900777847975e-01 -9.763846107500561144e-01
2.133333333333333304e+00 1.314326204733758663e-01 -1.820524436425321468e-01 -9.744638062246790966e-01
2.215384615384615508e+00 1.367989671072791791e-01 -1.886299519171390493e-01 -9.724721134944934731e-01
2.297435897435897267e+00 1.421888385472482585e-01 -1.951512399143637833e-01 -9.704099381255768542e-01
2.379487179487179471e+00 1.475960843266449218e-01 -2.016137892494958006e-01 -9.682790342485027013e-01
2.461538461538461675e+00 1.530253102072791638e-01 -2.080140553272582515e-01 -9.660798677536619472e-01
2.543589743589743435e+00 1.584731171843604680e-01 -2.143498368386543285e-01 -9.638138896309452752e-01
2.625641025641025639e+00 1.639359932649734619e-01 -2.206194039058367307e-01 -9.614825815351820681e-01
2.707692307692307843e+00 1.694146677579614901e-01 -2.268209871038343040e-01 -9.590867982175672601e-01
2.789743589743589602e+00 1.749085442859842077e-01 -2.329530962389269599e-01 -9.566275778995771972e-01
2.871794871794871806e+00 1.804134344509506216e-01 -2.390128585925786475e-01 -9.541070184556472711e-01
2.953846153846154010e+00 1.859268479274228392e-01 -2.449973884386253686e-01 -9.515270534799662450e-01
3.035897435897435770e+00 1.914472059110803870e-01 -2.509082532955040912e-01 -9.488883771147502699e-01
3.117948717948717974e+00 1.969765205145689313e-01 -2.567428707243935571e-01 -9.461920388659001979e-01
3.200000000000000178e+00 2.025084914667749925e-01 -2.624996160396977918e-01 -9.434406065335073643e-01
