0.000000000000000000e+00 3.296129325288690234e-09 8.059376256978799973e-09 -1.000000000000000000e+00
8.205128205128205121e-02 -3.491724202097583329e-02 1.046092529323243078e-02 -9.993352261779717693e-01
1.641025641025641024e-01 -6.973458690777648017e-02 2.086896660289718278e-02 -9.973468284101938419e-01
2.461538461538461675e-01 -1.043355238362260601e-01 3.119855871003422362e-02 -9.940520387138965797e-01
3.282051282051282048e-01 -1.386164205175642594e-01 4.141526389776051253e-02 -9.894789290289680572e-01
4.102564102564102422e-01 -1.724783575897069765e-01 5.148249974297924858e-02 -9.836659126713571677e-01
4.923076923076923350e-01 -2.058317928419571563e-01 6.137090775184386726e-02 -9.766597719161266289e-01
5.743589743589743168e-01 -2.385914649227157680e-01 7.105338823962284445e-02 -9.685156251591120480e-01
6.564102564102564097e-01 -2.706831645595678681e-01 8.050406369251938976e-02 -9.592946693121745527e-01
7.384615384615385025e-01 -3.020408983473416575e-01 8.970592014919358259e-02 -9.490628212662461927e-01
8.205128205128204844e-01 -3.326105718146099566e-01 9.864195443917928019e-02 -9.378889160339617392e-01
9.025641025641025772e-01 -3.623392461810817089e-01 1.073046736908887244e-01 -9.258461945265139548e-01
9.846153846153846700e-01 -3.911942577952474687e-01 1.156828481752185112e-01 -9.130056302201595697e-01
1.066666666666666652e+00 -4.191424149527921972e-01 1.237756133054823682e-01 -8.994406809584213347e-01
1.148717948717948634e+00 -4.461594629278413660e-01 1.315846672712236431e-01 -8.852237425934411652e-01
1.230769230769230838e+00 -4.722317969529724047e-01 1.391110377242594232e-01 -8.704244239271393679e-01
1.312820512820512819e+00 -4.973441999883875808e-01 1.463621375966833171e-01 -8.551139536201430857e-01
1.394871794871794801e+00 -5.214988607456294556e-01 1.533438713819720300e-01 -8.393552140389215488e-01
1.476923076923077005e+00 -5.446913651748618301e-01 1.600641911667536610e-01 -8.232150024232680607e-01
1.558974358974358987e+00 -5.669321296166320856e-01 1.665305736301948558e-01 -8.067510737703814661e-01
1.641025641025640969e+00 -5.882255697028389019e-01 1.727551924797774974e-01 -7.900238588932019246e-01
1.723076923076923173e+00 -6.085890904801564139e-01 1.787465674067076904e-01 -7.730847172231677389e-01
1.805128205128205154e+00 -6.280413999959432170e-01 1.845119192876478187e-01 -7.559827902375956254e-01
1.887179487179487136e+00 -6.465992458866864911e-01 1.900658984671356189e-01 -7.387656177865303819e-01
1.969230769230769340e+00 -6.642874804989499227e-01 1.954121901292353303e-01 -7.214749771562620762e-01
2.051282051282051100e+00 -6.811313794232739527e-01 2.005636231672590086e-01 -7.041476169063428658e-01
2.133333333333333304e+00 -6.971564408006881708e-01 2.055302987873126597e-01 -6.868183591567915691e-01
2.215384615384615508e+00 -7.123922468259200613e-01 2.103205938449492773e-01 -6.695158618190507616e-01
2.297435897435897267e+00 -7.268653435200285173e-01 2.149459758035192070e-01 -6.522680868705266199e-01
2.379487179487179471e+00 -7.406032784549338999e-01 2.194155397072249658e-01 -6.350999741141366561e-01
2.461538461538461675e+00 -7.536348099965710645e-01 2.237428635758543505e-01 -6.180305810352768603e-01
2.543589743589743435e+00 -7.659852762497029177e-01 2.279370973778707399e-01 -6.010815829356686013e-01
2.625641025641025639e+00 -7.776812635336988189e-01 2.320091274925247249e-01 -5.842697976336665988e-01
2.707692307692307843e+00 -7.887489949099826259e-01 2.359687739159115061e-01 -5.676099897465983757e-01
2.789743589743589602e+00 -7.992127045780278438e-01 2.398234523296196019e-01 -5.511178388886706081e-01
2.871794871794871806e+00 -8.090948833038295041e-01 2.435796857546693173e-01 -5.348095868819565668e-01
2.953846153846154010e+00 -8.184212752951812719e-01 2.472480511503725165e-01 -5.186922896038184128e-01
3.035897435897435770e+00 -8.272139829840980951e-01 2.508281340286004912e-01 -5.027810138217694291e-01
3.117948717948717974e+00 -8.354966209384440123e-01 2.543270047353091146e-01 -4.870825998024381764e-01
3.200000000000000178e+00 -8.432924804685573150e-01 2.577466608262840575e-01 -4.716042336611803720e-01
