0.000000000000000000e+00 8.999541035061370065e-10 -2.296736368729605089e-09 -1.000000000000000000e+00
8.205128205128205121e-02 2.438726004004878462e-02 4.760475172228263718e-02 -9.985683118842221262e-01
1.641025641025641024e-01 4.736325232395711265e-02 9.565913200570096142e-02 -9.942863398907150208e-01
2.461538461538461675e-01 6.752924762793158231e-02 1.445297042494511353e-01 -9.871929266983177076e-01
3.282051282051282048e-01 8.346748439825263377e-02 1.944588185746440323e-01 -9.773522844278401678e-01
4.102564102564102422e-01 9.376767463103052869e-02 2.454965496808886316e-01 -9.648508778762970861e-01
4.923076923076923350e-01 9.703460814159470260e-02 2.974298139992918033e-01 -9.497986971045174753e-01
5.743589743589743168e-01 9.193293533224408676e-02 3.497450099836877935e-01 -9.323219139395350075e-01
6.564102564102564097e-01 7.721989430348763506e-02 4.015663407531213647e-01 -9.125670140999014857e-01
7.384615384615385025e-01 5.183381558820931989e-02 4.516406902819106728e-01 -8.906910347222318780e-01
8.205128205128204844e-01 1.495695279331599181e-02 4.983213347642312940e-01 -8.668611565740527158e-01
9.025641025641025772e-01 -3.386896738128904183e-02 5.395728817619340756e-01 -8.412548379681331623e-01
9.846153846153846700e-01 -9.464898868212284766e-02 5.730212548298554420e-01 -8.140538044024449027e-01
1.066666666666666652e+00 -1.668120218339952665e-01 5.960344640471439970e-01 -7.854372177645475572e-01
1.148717948717948634e+00 -2.491155152824573449e-01 6.058234950325718238e-01 -7.555885195516913733e-01
1.230769230769230838e+00 -3.395535916353385475e-01 5.996056291295458474e-01 -7.246866260310516061e-01
1.312820512820512819e+00 -4.352996386633690706e-01 5.747949029535003307e-01 -6.929061923645850607e-01
1.394871794871794801e+00 -5.326956158839984967e-01 5.292330226410939531e-01 -6.604099940833680904e-01
1.476923076923077005e+00 -6.273041785762827338e-01 4.614197178721277104e-01 -6.273552089512842711e-01
1.558974358974358987e+00 -7.140037656051549941e-01 3.707841870705977372e-01 -5.938944544725496266e-01
1.641025641025640969e+00 -7.871986323185600209e-01 2.579180607082786070e-01 -5.601689273801616631e-01
1.723076923076923173e+00 -8.410817212965160383e-01 1.248015533310582459e-01 -5.263063932716658400e-01
1.805128205128205154e+00 -8.699922965842097344e-01 -2.505391362498698982e-02 -4.924203710273515333e-01
1.887179487179487136e+00 -8.688192564606466162e-01 -1.865694359746174480e-01 -4.586249690568979798e-01
1.969230769230769340e+00 -8.334726604243669623e-01 -3.530999266676715376e-01 -4.250122776379576250e-01
2.051282051282051100e+00 -7.613482928165655750e-01 -5.166618652479784135e-01 -3.916641120142496102e-01
2.133333333333333304e+00 -6.517688004987223227e-01 -6.682369020989384900e-01 -3.586757427967127154e-01
2.215384615384615508e+00 -5.063833931710570724e-01 -7.982697122480217899e-01 -3.260866438294515168e-01
2.297435897435897267e+00 -3.293977338359626583e-01 -8.972538793002812207e-01 -2.939789217148704448e-01
2.379487179487179471e+00 -1.277016864199400636e-01 -9.564695317790905538e-01 -2.623915699221647246e-01
2.461538461538461675e+00 8.928373685923640668e-02 -9.687559445326128227e-01 -2.313679821913923740e-01
2.543589743589743435e+00 3.099171566298085656e-01 -9.292825418685750627e-01 -2.009381190789825411e-01
2.625641025641025639e+00 5.209382363809427208e-01 -8.362583567309440635e-01 -1.711314435661514810e-01
2.707692307692307843e+00 7.082911334109167623e-01 -6.914895739745179348e-01 -1.419733155058006124e-01
2.789743589743589602e+00 8.581457471622964128e-01 -5.006978230789227435e-01 -1.134818005717573852e-01
2.871794871794871806e+00 9.580242825642626414e-01 -2.735726933453003218e-01 -8.566193581295887538e-02
2.953846153846154010e+00 9.980054731621331721e-01 -2.343355155389159616e-02 -5.853580578792477035e-02
3.035897435897435770e+00 9.718375224694862924e-01 2.334361549032240024e-01 -3.209146107807598486e-02
3.117948717948717974e+00 8.778701670157612602e-01 4.788467251326499197e-01 -6.345205834312092966e-03
3.200000000000000178e+00 7.196898632406436569e-01 6.940364145273414387e-01 1.871995876960200200e-02
