0.000000000000000000e+00 1.158879742893078992e-09 -4.429332066886678253e-09 -1.000000000000000000e+00
8.205128205128205121e-02 7.727532815040263903e-02 1.320665304054879363e-01 -9.882235343908019054e-01
1.641025641025641024e-01 1.527334576704091340e-01 2.602740846750344339e-01 -9.533768528999252423e-01
2.461538461538461675e-01 2.246839313271438432e-01 3.809624269236698280e-01 -8.968728588530539003e-01
3.282051282051282048e-01 2.916309844865946355e-01 4.908840418255002724e-01 -8.209622356818464528e-01
4.102564102564102422e-01 3.523654805397780088e-01 5.873769005050465397e-01 -7.285741852426391718e-01
4.923076923076923350e-01 4.060199175396373428e-01 6.684671487408513357e-01 -6.231305166676108787e-01
5.743589743589743168e-01 4.520820973421116884e-01 7.329467780547147537e-01 -5.083324272236429131e-01
6.564102564102564097e-01 4.904041558005522994e-01 7.803851096232515827e-01 -3.879343214255787653e-01
7.384615384615385025e-01 5.211612684683099017e-01 8.110958155305476591e-01 -2.655260275066028131e-01
8.205128205128204844e-01 5.447971092026316908e-01 8.260388528993037882e-01 -1.443783424708064977e-01
9.025641025641025772e-01 5.619629352083364004e-01 8.267059870758655116e-01 -2.727447737557642249e-02
9.846153846153846700e-01 5.734341679487631183e-01 8.149727438409765101e-01 8.355688488611504039e-02
1.066666666666666652e+00 5.800425246904503673e-01 7.929431961922941419e-01 1.864967534268219818e-01
1.148717948717948634e+00 5.826103919987742907e-01 7.627973025541471275e-01 2.805263577078811466e-01
1.230769230769230838e+00 5.819010850332605456e-01 7.266557490862534108e-01 3.651747573415274895e-01
1.312820512820512819e+00 5.785889040715892495e-01 6.864703455759533224e-01 4.404360086548307351e-01
1.394871794871794801e+00 5.732328396651942271e-01 6.439417946488654731e-01 5.066893721677868667e-01
1.476923076923077005e+00 5.662913720636789661e-01 6.004774657516892544e-01 5.645639384466911714e-01
1.558974358974358987e+00 5.581130832637702932e-01 5.571725877095350388e-01 6.148662777715251382e-01
1.641025641025640969e+00 5.489694676404024420e-01 5.148232208392451437e-01 6.584695120389555401e-01
1.723076923076923173e+00 5.390689903563097296e-01 4.739687359546320145e-01 6.962407972666243561e-01
1.805128205128205154e+00 5.285826999521625602e-01 4.349282749119361413e-01 7.289932296594093808e-01
1.887179487179487136e+00 5.176557504236318774e-01 3.978550597764581864e-01 7.574547299190660388e-01
1.969230769230769340e+00 5.064145588989252822e-01 3.627899330638720277e-01 7.822543706328800583e-01
2.051282051282051100e+00 4.949795118222956591e-01 3.297133255980531641e-01 8.039147279144607250e-01
2.133333333333333304e+00 4.834648331487380046e-01 2.985658858775900870e-01 8.228699456893034947e-01
2.215384615384615508e+00 4.719621905625541736e-01 2.692740909325499477e-01 8.394868837655096172e-01
2.297435897435897267e+00 4.605511763651171653e-01 2.417784911389207481e-01 8.540673933078760660e-01
2.379487179487179471e+00 4.492860269906401305e-01 2.160214991141258256e-01 8.668750469251627067e-01
2.461538461538461675e+00 4.381959767689437846e-01 1.919405883807892010e-01 8.781451357001219815e-01
2.543589743589743435e+00 4.272917837658293805e-01 1.694759110737423247e-01 8.880853713992967746e-01
2.625641025641025639e+00 4.165638267186260735e-01 1.485555005519872129e-01 8.968846139568905640e-01
2.707692307692307843e+00 4.059858977058468099e-01 1.290892750945564216e-01 9.047141786815385833e-01
2.789743589743589602e+00 3.955404031410990617e-01 1.109841081781593602e-01 9.117164042039963556e-01
2.871794871794871806e+00 3.852091140480502496e-01 9.412161452338027590e-02 9.180150751525296693e-01
2.953846153846154010e+00 3.749771923589846345e-01 7.838664215971961891e-02 9.237122921520668495e-01
3.035897435897435770e+00 3.648573648811582193e-01 6.366594427170918502e-02 9.288824657207090940e-01
3.117948717948717974e+00 3.548664335640846490e-01 4.985597744731529168e-02 9.335851305278518586e-01
3.200000000000000178e+00 3.450298204546284886e-01 3.687051140738173416e-02 9.378657172749325088e-01
