0.000000000000000000e+00 1.054302275294548956e-09 -2.176818906084129296e-09 -1.000000000000000000e+00
8.205128205128205121e-02 -7.559608222228306196e-02 1.888577224808791477e-01 -9.790897148680401951e-01
1.641025641025641024e-01 -1.518685411897680582e-01 3.675061912540634190e-01 -9.175360283004753148e-01
2.461538461538461675e-01 -2.290883752518057537e-01 5.264342352300318550e-01 -8.187680858642404358e-01
3.282051282051282048e-01 -3.068241282172367024e-01 6.574601412085677721e-01 -6.881854945842980076e-01
4.102564102564102422e-01 -3.837335973999752570e-01 7.543004136467369447e-01 -5.327027615809143413e-01
4.923076923076923350e-01 -4.575072601018046470e-01 8.129750872249487115e-01 -3.602088501193236869e-01
5.743589743589743168e-01 -5.250014804164284676e-01 8.320715878445564817e-01 -1.789454776098161060e-01
6.564102564102564097e-01 -5.825158197697319906e-01 8.128079144627903263e-01 3.093873394589425826e-03
7.384615384615385025e-01 -6.262057529235953712e-01 7.588974377680685057e-01 1.786957842129478780e-01
8.205128205128204844e-01 -6.525672211667781220e-01 6.762215362175094668e-01 3.418657196132471321e-01
9.025641025641025772e-01 -6.589299161451909193e-01 5.723272439896500696e-01 4.881038579762946306e-01
9.846153846153846700e-01 -6.438711397346309484e-01 4.557950439051742797e-01 6.145521131122432257e-01
1.066666666666666652e+00 -6.075349468868697089e-01 3.355194098053316809e-01 7.199461572738881099e-01
1.148717948717948634e+00 -5.517342049011000338e-01 2.199711609702845738e-01 8.044858776819689972e-01
1.230769230769230838e+00 -4.798968859632600781e-01 1.165194220451379326e-01 8.695508067105718331e-01
1.312820512820512819e+00 -3.967858054537205525e-01 3.085742128208202040e-02 9.173908942139384903e-01
1.394871794871794801e+00 -3.080578116764913776e-01 -3.339586941115781082e-02 9.507802094096611256e-01
1.476923076923077005e+00 -2.197010665098805549e-01 -7.486329098344499111e-02 9.726897765257119799e-01
1.558974358974358987e+00 -1.374408763576765447e-01 -9.437585442280606307e-02 9.860031080956865868e-01
1.641025641025640969e+00 -6.616063371172103968e-02 -9.470246974056989453e-02 9.933043177181916095e-01
1.723076923076923173e+00 -9.424245778040671317e-03 -8.008468693423104190e-02 9.967432481225407814e-01
1.805128205128205154e+00 3.083312134850967057e-02 -5.565866961871556579e-02 9.979734527139820788e-01
1.887179487179487136e+00 5.441329696267187266e-02 -2.679849845176136836e-02 9.981586211304904754e-01
1.969230769230769340e+00 6.275641689842229032e-02 1.497609710963448276e-03 9.980275426741301859e-01
2.051282051282051100e+00 5.865206047500950287e-02 2.515053488112177146e-02 9.979614053479024527e-01
2.133333333333333304e+00 4.579302333094775745e-02 4.136671651913784165e-02 9.980938764695027610e-01
2.215384615384615508e+00 2.825891173452779043e-02 4.884252220942983391e-02 9.984064643039409770e-01
2.297435897435897267e+00 9.972091491686119538e-03 4.773589348163629481e-02 9.988100500915449986e-01
2.379487179487179471e+00 -5.774079081496952953e-03 3.944501889904233199e-02 9.992049240399053511e-01
2.461538461538461675e+00 -1.666867344325146175e-02 2.628096370730458736e-02 9.995155079553255106e-01
2.543589743589743435e+00 -2.157175573985058853e-02 1.097370072796780525e-02 9.997069901915833778e-01
2.625641025641025639e+00 -2.052308898863525535e-02 -3.750925697951062836e-03 9.997822682051121790e-01
2.707692307692307843e+00 -1.456115908149398577e-02 -1.561375236645183573e-02 9.997719893295584637e-01
2.789743589743589602e+00 -5.449426275309181972e-03 -2.307619365798880759e-02 9.997187729283805169e-01
2.871794871794871806e+00 4.707186620213322029e-03 -2.552085718542634538e-02 9.996631161049116532e-01
2.953846153846154010e+00 1.385602821835347533e-02 -2.324345105529041638e-02 9.996337143279394599e-01
3.035897435897435770e+00 2.033682724164370681e-02 -1.730164395417389117e-02 9.996433760518785849e-01
3.117948717948717974e+00 2.314234836601076692e-02 -9.282275510506997340e-03 9.996889991589857916e-01
3.200000000000000178e+00 2.201034023041893717e-02 -9.526595271666452036e-04 9.997572106329469799e-01
