0.000000000000000000e+00 -3.990652332786344602e-13 3.075034472545236047e-13 -1.000000000000000000e+00
8.205128205128205121e-02 1.868179156241300820e-02 -1.444667758328271878e-02 -9.997211031952011329e-01
1.641025641025641024e-01 3.686838542505729149e-02 -2.881371127702972434e-02 -9.989046461976760494e-01
2.461538461538461675e-01 5.407747052097416213e-02 -4.300929501237658881e-02 -9.976100579386207867e-01
3.282051282051282048e-01 6.985260413447835770e-02 -5.692046757162064902e-02 -9.959320629677556047e-01
4.102564102564102422e-01 8.377805719899886205e-02 -7.040375001957729917e-02 -9.939942399775301141e-01
4.923076923076923350e-01 9.548580274926046774e-02 -8.327730960020912621e-02 -9.919412034776536879e-01
5.743589743589743168e-01 1.046727077948556711e-01 -9.531725911110644489e-02 -9.899284035980203678e-01
6.564102564102564097e-01 1.111082427639959319e-01 -1.062570213646293893e-01 -9.881115340348457510e-01
7.384615384615385025e-01 1.146424441705989894e-01 -1.157910192436935881e-01 -9.866354695215672210e-01
8.205128205128204844e-01 1.152144258195215987e-01 -1.235793354259635268e-01 -9.856235508284347802e-01
9.025641025641025772e-01 1.128559055672543332e-01 -1.292555993662636571e-01 -9.851682773476989619e-01
9.846153846153846700e-01 1.076971950340188389e-01 -1.324466141546928877e-01 -9.853218806825686515e-01
1.066666666666666652e+00 9.996956917592886294e-02 -1.327799224914579246e-01 -9.860910593553641190e-01
1.148717948717948634e+00 8.999499934706831072e-02 -1.299052809130381292e-01 -9.874338044774746415e-01
1.230769230769230838e+00 7.819076077922752777e-02 -1.235125120600999160e-01 -9.892577341624571030e-01
1.312820512820512819e+00 6.505666846123663027e-02 -1.133521327363314624e-01 -9.914226767832802212e-01
1.394871794871794801e+00 5.116137378162910476e-02 -9.925276752687672843e-02 -9.937461456134561999e-01
1.476923076923077005e+00 3.713540666433603338e-02 -8.113701534816238070e-02 -9.960109167097600524e-01
1.558974358974358987e+00 2.364930870516809489e-02 -5.904110115002153547e-02 -9.979753796668490162e-01
1.641025641025640969e+00 1.139101277218443863e-02 -3.312034535878427555e-02 -9.993864554334174199e-01
1.723076923076923173e+00 1.052765340709401008e-03 -3.662852868011011453e-03 -9.999927372725043728e-01
1.805128205128205154e+00 -6.699058981886029870e-03 2.891189893506349723e-02 -9.995595152433126573e-01
1.887179487179487136e+00 -1.124921203002174352e-02 6.405482353526195660e-02 -9.978829764903601740e-01
1.969230769230769340e+00 -1.205149026795970801e-02 1.010929254143799055e-01 -9.948039916906648017e-01
2.051282051282051100e+00 -8.659492018223746701e-03 1.392449595203706370e-01 -9.902201042068383696e-01
2.133333333333333304e+00 -7.442333881795062944e-04 1.776409117046367225e-01 -9.840950931534035995e-01
2.215384615384615508e+00 1.188592246187180484e-02 2.153410311526850196e-01 -9.764665714169759037e-01
2.297435897435897267e+00 2.926718792604511565e-02 2.513697237700199261e-01 -9.674485481450155744e-01
2.379487179487179471e+00 5.127069698853022051e-02 2.847407259860167961e-01 -9.572324870539982156e-01
2.461538461538461675e+00 7.759225909817248079e-02 3.144974347816855698e-01 -9.460818172205458509e-01
2.543589743589743435e+00 1.077591564311324857e-01 3.397431907672062712e-01 -9.343246376263271147e-01
2.625641025641025639e+00 1.411267586805368401e-01 3.596780588139305013e-01 -9.223420902534561483e-01
2.707692307692307843e+00 1.768970319035860772e-01 3.736293256473287583e-01 -9.105539888388196612e-01
2.789743589743589602e+00 2.141315437378880082e-01 3.810862493176514487e-01 -8.994003294509677060e-01
2.871794871794871806e+00 2.517791037200304283e-01 3.817216875506616036e-01 -8.893232463047663350e-01
2.953846153846154010e+00 2.887036389792772550e-01 3.754186158240360172e-01 -8.807446121627171554e-01
3.035897435897435770e+00 3.237218819139495163e-01 3.622779821354324969e-01 -8.740473705361651025e-01
3.117948717948717974e+00 3.556395566619767190e-01 3.426278663876184405e-01 -8.695554330916163144e-01
3.200000000000000178e+00 3.832939699260716204e-01 3.170285034816956449e-01 -8.675129166759765198e-01
