0.000000000000000000e+00 -3.620689006580155522e-09 2.303458575965786497e-09 -1.000000000000000000e+00
8.205128205128205121e-02 -1.423994677188354097e-01 -1.042199166824206991e-01 -9.843064336320453966e-01
1.641025641025641024e-01 -2.763836383959086818e-01 -2.093185706301098625e-01 -9.379737819731193138e-01
2.461538461538461675e-01 -3.939735476714265050e-01 -3.157251486779204530e-01 -8.631904724976626753e-01
3.282051282051282048e-01 -4.880419167072850284e-01 -4.230827567134440303e-01 -7.634197482138123103e-01
4.102564102564102422e-01 -5.527035248591487537e-01 -5.299661041517286231e-01 -6.431537889346733428e-01
4.923076923076923350e-01 -5.836892742890819052e-01 -6.337666758531675937e-01 -5.075798822759990392e-01
5.743589743589743168e-01 -5.786540733496223776e-01 -7.307046940710633098e-01 -3.622426730381912430e-01
6.564102564102564097e-01 -5.373985974010931921e-01 -8.160678188248697840e-01 -2.126617609375927864e-01
7.384615384615385025e-01 -4.619947581620950094e-01 -8.845640859573729031e-01 -6.399875356495961232e-02
8.205128205128204844e-01 -3.567731313587494402e-01 -9.308211311175779157e-01 7.920603176410402624e-02
9.025641025641025772e-01 -2.281570339540563985e-01 -9.499729215411136796e-01 2.132714806697272591e-01
9.846153846153846700e-01 -8.433189700007484579e-02 -9.382557178921758778e-01 3.354904228797745969e-01
1.066666666666666652e+00 6.523188239419977497e-02 -8.935684152594585150e-01 4.441514135988529621e-01
1.148717948717948634e+00 2.104203690499376611e-01 -8.159225239328753432e-01 5.385022551048557204e-01
1.230769230769230838e+00 3.411980020960342364e-01 -7.076978124650483704e-01 6.186594452024246626e-01
1.312820512820512819e+00 4.483874492024365610e-01 -5.737219106146844716e-01 6.854082332546691525e-01
1.394871794871794801e+00 5.244470033492645289e-01 -4.210593647909758319e-01 7.400389738652657368e-01
1.476923076923077005e+00 5.641329727169939190e-01 -2.585893793290086617e-01 7.841424986533798158e-01
1.558974358974358987e+00 5.650180734938843319e-01 -9.635945464337991595e-02 8.194290517557099029e-01
1.641025641025640969e+00 5.277902688199702652e-01 5.523983179303471047e-02 8.475736107161199184e-01
1.723076923076923173e+00 4.562697101797655863e-01 1.863812712760551382e-01 8.701008214439251987e-01
1.805128205128205154e+00 3.571360362177909975e-01 2.887108909901449083e-01 8.883105939554152286e-01
1.887179487179487136e+00 2.393885952493497449e-01 3.561387693783902852e-01 9.032466059485915189e-01
1.969230769230769340e+00 1.135348398470970716e-01 3.854850848561054422e-01 9.157005626090780614e-01
2.051282051282051100e+00 -9.359123063555296884e-03 3.768282068151918018e-01 9.262341088519313592e-01
2.133333333333333304e+00 -1.187131955671748285e-01 3.335498335581796314e-01 9.352265014149769851e-01
2.215384615384615508e+00 -2.054786936677541476e-01 2.620235895570125484e-01 9.429312213509075669e-01
2.297435897435897267e+00 -2.629906136396357730e-01 1.710309248250599934e-01 9.495165469151833904e-01
2.379487179487179471e+00 -2.876468177700142181e-01 7.086637502287299051e-02 9.551098107581709185e-01
2.461538461538461675e+00 -2.792262708603929777e-01 -2.769567842391754131e-02 9.598246017126079721e-01
2.543589743589743435e+00 -2.408666890258437665e-01 -1.145054215455822422e-01 9.637787624689416743e-01
2.625641025641025639e+00 -1.786893659817848090e-01 -1.810930135542334618e-01 9.670952913308078491e-01
2.707692307692307843e+00 -1.010778962422768518e-01 -2.215267169780399670e-01 9.699005847386589219e-01
2.789743589743589602e+00 -1.771916408232906970e-02 -2.329978231092116325e-01 9.723148198275568532e-01
2.871794871794871806e+00 6.149297849446715147e-02 -2.160523545605755047e-01 9.744424720920579208e-01
2.953846153846154010e+00 1.276001376011348387e-01 -1.744410969843440407e-01 9.763640313935842974e-01
3.035897435897435770e+00 1.735466774480584617e-01 -1.145935280576379500e-01 9.781350379308013654e-01
3.117948717948717974e+00 1.949803957525982068e-01 -4.479696648915870716e-02 9.797827479491734159e-01
3.200000000000000178e+00 1.906700222003922807e-01 2.584298635209183320e-02 9.813131541269864977e-01
