0.000000000000000000e+00 3.814312393459720064e-09 1.130174411757011068e-09 -1.000000000000000000e+00
8.205128205128205121e-02 -5.749266354182634015e-03 -2.297295610741107927e-02 -9.997194439715814118e-01
1.641025641025641024e-01 -1.100958325974575949e-02 -4.604339567930908206e-02 -9.988785581567991567e-01
2.461538461538461675e-01 -1.530863707385569233e-02 -6.927876195515837721e-02 -9.974795671091795102e-01
3.282051282051282048e-01 -1.816701362366214545e-02 -9.272016074788119733e-02 -9.955260536028833762e-01
4.102564102564102422e-01 -1.909975257054943865e-02 -1.163577337587453631e-01 -9.930232016137904294e-01
4.923076923076923350e-01 -1.762853770157005867e-02 -1.401157636778471716e-01 -9.899775798271132077e-01
5.743589743589743168e-01 -1.328160493675976939e-02 -1.638413795477290102e-01 -9.863965712658017138e-01
6.564102564102564097e-01 -5.606198120469904622e-03 -1.872777991589014146e-01 -9.822901780868604771e-01
7.384615384615385025e-01 5.810946922481213806e-03 -2.100685949489703164e-01 -9.776684553311896231e-01
8.205128205128204844e-01 2.133875537880984552e-02 -2.317392936561313288e-01 -9.725428210845035171e-01
9.025641025641025772e-01 4.126375234948456705e-02 -2.516924914411838299e-01 -9.669260431057609129e-01
9.846153846153846700e-01 6.577179381056967589e-02 -2.692073544942574226e-01 -9.608324751328846114e-01
1.066666666666666652e+00 9.491462140509662748e-02 -2.834570234918921683e-01 -9.542749575449069876e-01
1.148717948717948634e+00 1.285823646684988719e-01 -2.935006089687240971e-01 -9.472703453950488406e-01
1.230769230769230838e+00 1.664519919144852866e-01 -2.983336825724533514e-01 -9.398338575272219275e-01
1.312820512820512819e+00 2.079755080435893855e-01 -2.969000605215783017e-01 -9.319835087300518683e-01
1.394871794871794801e+00 2.523407758769520837e-01 -2.881514504052383185e-01 -9.237366284940584649e-01
1.476923076923077005e+00 2.984517884110278185e-01 -2.711058413523125821e-01 -9.151089701405029642e-01
1.558974358974358987e+00 3.449121836008994801e-01 -2.449019605892356066e-01 -9.061206679331990088e-01
1.641025641025640969e+00 3.900400452550005781e-01 -2.088847358055357928e-01 -8.967896969940681862e-01
1.723076923076923173e+00 4.318778103414837588e-01 -1.626926813853468434e-01 -8.871348731203709814e-01
1.805128205128205154e+00 4.682496536401343223e-01 -1.063278356887370490e-01 -8.771727785316320025e-01
1.887179487179487136e+00 4.968079474018836095e-01 -4.025213481010925243e-02 -8.669238018298293103e-01
1.969230769230769340e+00 5.151408673984775310e-01 3.454554103043822044e-02 -8.564061405703855545e-01
2.051282051282051100e+00 5.208862548662015479e-01 1.164925833425118351e-01 -8.456369117229316501e-01
2.133333333333333304e+00 5.118623073154658920e-01 2.034027667014119967e-01 -8.346370052034647324e-01
2.215384615384615508e+00 4.862429161936558941e-01 2.924728862388105144e-01 -8.234208052910177988e-01
2.297435897435897267e+00 4.427064452305611852e-01 3.803260745718536340e-01 -8.120081789251393234e-01
2.379487179487179471e+00 3.806301655848732812e-01 4.630878828657926105e-01 -8.004150898594970531e-01
2.461538461538461675e+00 3.002250499023653152e-01 5.365435160522961100e-01 -7.886569309438971054e-01
2.543589743589743435e+00 2.026973635717323474e-01 5.962918014296584301e-01 -7.767518594242023289e-01
2.625641025641025639e+00 9.033283442717700285e-02 6.379993615993181377e-01 -7.647157751933126857e-01
2.707692307692307843e+00 -3.344863540384976353e-02 6.576694279369647012e-01 -7.525591751531566231e-01
2.789743589743589602e+00 -1.641336943229130818e-01 6.519220038559990771e-01 -7.403045726492130107e-01
2.871794871794871806e+00 -2.961879776931012342e-01 6.183382383595267262e-01 -7.279583584186802847e-01
2.953846153846154010e+00 -4.232881739070320504e-01 5.557167056161282925e-01 -7.155408571462020806e-01
3.035897435897435770e+00 -5.385732993300295091e-01 4.643709807134690504e-01 -7.030582466874021330e-01
3.117948717948717974e+00 -6.350120336563699341e-01 3.463057659039660008e-01 -6.905247057260682775e-01
3.200000000000000178e+00 -7.058326587846260880e-01 2.053455040175592161e-01 -6.779570135636090455e-01
