0.000000000000000000e+00 8.921504380497090802e-10 -2.315473279331518330e-09 -1.000000000000000000e+00
8.205128205128205121e-02 1.882784292150473104e-02 1.436636152988144191e-02 -9.997194307131087587e-01
1.641025641025641024e-01 3.733658376245953953e-02 2.911316100105570265e-02 -9.988784022352913405e-01
2.461538461538461675e-01 5.520426877187090131e-02 4.458589749529463103e-02 -9.974788672321358574e-01
3.282051282051282048e-01 7.208059931032939627e-02 6.112044092213814866e-02 -9.955239947955846214e-01
4.102564102564102422e-01 8.758608745982689181e-02 7.901176218965319520e-02 -9.930181283629243572e-01
4.923076923076923350e-01 1.012984888556421742e-01 9.850020639565439107e-02 -9.899673551401875216e-01
5.743589743589743168e-01 1.127521567999350549e-01 1.197664488545076289e-01 -9.863781259658818135e-01
6.564102564102564097e-01 1.214356545218436834e-01 1.428973138537547871e-01 -9.822588410483729104e-01
7.384615384615385025e-01 1.267976114249136366e-01 1.678786481831113786e-01 -9.776183641763626087e-01
8.205128205128204844e-01 1.282520663721345988e-01 1.945737147692851721e-01 -9.724663660161654288e-01
9.025641025641025772e-01 1.251859042072098749e-01 2.226978739941373187e-01 -9.668155702445685451e-01
9.846153846153846700e-01 1.169960535964648524e-01 2.518158567205814324e-01 -9.606761781818071722e-01
1.066666666666666652e+00 1.031034252479272606e-01 2.813059797594367195e-01 -9.540620926082196140e-01
1.148717948717948634e+00 8.299822784846616619e-02 3.103595047009158892e-01 -9.469878281325295744e-01
1.230769230769230838e+00 5.628014355288529780e-02 3.379834796733786617e-01 -9.394664390191554970e-01
1.312820512820512819e+00 2.269739628647968188e-02 3.629942447707255049e-01 -9.315134581706563388e-01
1.394871794871794801e+00 -1.778540468920825068e-02 3.840344840418693506e-01 -9.231458843389690472e-01
1.476923076923077005e+00 -6.494682845664068171e-02 3.996175725301361892e-01 -9.143766485079817263e-01
1.558974358974358987e+00 -1.182328151206026023e-01 4.081467244552058338e-01 -9.052259654452022852e-01
1.641025641025640969e+00 -1.767253643256433415e-01 4.080081529174990895e-01 -8.957087170481220495e-01
1.723076923076923173e+00 -2.391043186083639249e-01 3.976309224220824223e-01 -8.858415291647713241e-01
1.805128205128205154e+00 -3.036052688456710724e-01 3.755943749286283495e-01 -8.756420155825614948e-01
1.887179487179487136e+00 -3.680311906732423033e-01 3.407351596429032403e-01 -8.651292966793958650e-01
1.969230769230769340e+00 -4.297832115276148390e-01 2.922726691832715495e-01 -8.543178371704909235e-01
2.051282051282051100e+00 -4.858869146226165725e-01 2.299439205533074515e-01 -8.432291863505128049e-01
2.133333333333333304e+00 -5.331293907534269128e-01 1.541143255989766425e-01 -8.318758431784590845e-01
2.215384615384615508e+00 -5.681535647142712531e-01 6.589578029905965306e-02 -8.202771872059583247e-01
2.297435897435897267e+00 -5.876474713119106408e-01 -3.277239707535437030e-02 -8.084501535537405026e-01
2.379487179487179471e+00 -5.885444128583565693e-01 -1.390647530250321839e-01 -7.964116650682108167e-01
2.461538461538461675e+00 -5.682557255113864780e-01 -2.492837736803805992e-01 -7.841797975938826770e-01
2.543589743589743435e+00 -5.249266328428245920e-01 -3.589151419917030461e-01 -7.717685686884628860e-01
2.625641025641025639e+00 -4.576712600833905409e-01 -4.627740699309860206e-01 -7.591915047845196884e-01
2.707692307692307843e+00 -3.668182424820735088e-01 -5.551803086723334779e-01 -7.464674308719131401e-01
2.789743589743589602e+00 -2.540805338944325253e-01 -6.302785788215391483e-01 -7.336117853120629473e-01
2.871794871794871806e+00 -1.227045966096327601e-01 -6.823656517654091980e-01 -7.206350123469320579e-01
2.953846153846154010e+00 2.251303214274830156e-02 -7.062929256164719449e-01 -7.075573701150684736e-01
3.035897435897435770e+00 1.752952946827562863e-01 -6.979229646527892461e-01 -6.943838324812902085e-01
3.117948717948717974e+00 3.280647686094619320e-01 -6.545384124501253398e-01 -6.811363418632068178e-01
3.200000000000000178e+00 4.723042767331776526e-01 -5.752729104597602561e-01 -6.678198373189601078e-01
