0.000000000000000000e+00 1.438770335734212676e-09 2.212323535433900689e-09 -1.000000000000000000e+00
8.205128205128205121e-02 -5.286840367715649885e-02 5.283008440868038058e-02 -9.972024773361974903e-01
1.641025641025641024e-01 -1.067187932499832625e-01 1.035207669890286925e-01 -9.888843893795119522e-01
2.461538461538461675e-01 -1.623788326573149532e-01 1.499635758089247484e-01 -9.752644263495443555e-01
3.282051282051282048e-01 -2.204747870183577652e-01 1.900632794222744393e-01 -9.566934305011607353e-01
4.102564102564102422e-01 -2.813176361794622604e-01 2.217725457217801233e-01 -9.336335759322463845e-01
4.923076923076923350e-01 -3.448102825653970860e-01 2.431352716754806575e-01 -9.066334707827453654e-01
5.743589743589743168e-01 -4.103925472106995653e-01 2.523350930269050441e-01 -8.762972814410793232e-01
6.564102564102564097e-01 -4.769911775460797809e-01 2.477735886696027789e-01 -8.432546829328398941e-01
7.384615384615385025e-01 -5.430062974177842783e-01 2.281524444449408717e-01 -8.081338467051040197e-01
8.205128205128204844e-01 -6.063438526024245157e-01 1.925711601659143568e-01 -7.715258388391068589e-01
9.025641025641025772e-01 -6.644466621679762097e-01 1.406410817386423429e-01 -7.339743769701868592e-01
9.846153846153846700e-01 -7.144089351135777255e-01 7.257793161724918063e-02 -6.959446892250666927e-01
1.066666666666666652e+00 -7.530781688242378369e-01 -1.070052914661323573e-02 -6.578332753801083843e-01
1.148717948717948634e+00 -7.772358610115955857e-01 -1.075044118052009834e-01 -6.199454309315132194e-01
1.230769230769230838e+00 -7.837718792995820305e-01 -2.153295115952139627e-01 -5.825110868009241161e-01
1.312820512820512819e+00 -7.698987827555997532e-01 -3.308456679250856847e-01 -5.456928674514099908e-01
1.394871794871794801e+00 -7.333657256453861573e-01 -4.499660672432607145e-01 -5.095962873848208785e-01
1.476923076923077005e+00 -6.726854454906812109e-01 -5.679190555176518718e-01 -4.742835007744594100e-01
1.558974358974358987e+00 -5.873325722517215297e-01 -6.794183288794128917e-01 -4.397877813874736530e-01
1.641025641025640969e+00 -4.779046682663106171e-01 -7.788709636820370097e-01 -4.061389583160622263e-01
1.723076923076923173e+00 -3.462622430299102660e-01 -8.606345573793894310e-01 -3.733522844238678640e-01
1.805128205128205154e+00 -1.955800751521748759e-01 -9.193109527185703289e-01 -3.414626876013435730e-01
1.887179487179487136e+00 -3.034169579688178464e-02 -9.500777830117931311e-01 -3.105031385235946795e-01
1.969230769230769340e+00 1.437461085652106951e-01 -9.490107320257668011e-01 -2.805281392709169097e-01
2.051282051282051100e+00 3.199498952048049905e-01 -9.134079566509195613e-01 -2.515911827143559876e-01
2.133333333333333304e+00 4.907558758043780722e-01 -8.420678809797672582e-01 -2.237416669836817251e-01
2.215384615384615508e+00 6.482116118452972975e-01 -7.355140754709788009e-01 -1.970294177825338555e-01
2.297435897435897267e+00 7.843462103745174607e-01 -5.961332259368402609e-01 -1.714813947856990706e-01
2.379487179487179471e+00 8.916073245577347262e-01 -4.282242284042601099e-01 -1.471052308694274502e-01
2.461538461538461675e+00 9.633412236921534699e-01 -2.379210247611622531e-01 -1.238819079036246329e-01
2.543589743589743435e+00 9.942514166239649898e-01 -3.301046582160441223e-02 -1.017535977749870063e-01
2.625641025641025639e+00 9.808214693013287411e-01 1.773802360538030143e-01 -8.065248801782502752e-02
2.707692307692307843e+00 9.216678676732761311e-01 3.832116430256237161e-01 -6.046888936788890473e-02
2.789743589743589602e+00 8.177884683171064983e-01 5.740324156227926133e-01 -4.108633591068133750e-02
2.871794871794871806e+00 6.726782347182225230e-01 7.395821844152263846e-01 -2.239304678603885879e-02
2.953846153846154010e+00 4.923080280035281309e-01 8.703987268654063136e-01 -4.255085669284968189e-03
3.035897435897435770e+00 2.849338098564142552e-01 9.584424341754810284e-01 1.341890891909508846e-02
3.117948717948717974e+00 6.075627520117055091e-02 9.976698309380214180e-01 3.070554728691814173e-02
3.200000000000000178e+00 -1.685842201246182392e-01 9.845238109068953358e-01 4.766021068909675334e-02
