0.000000000000000000e+00 -3.117760303004318215e-11 -2.349145560894909303e-09 -1.000000000000000000e+00
8.205128205128205121e-02 8.287419413905584842e-02 -1.557917943426464225e-01 -9.843064310553745200e-01
1.641025641025641024e-01 1.676673504389725455e-01 -3.034635081942036461e-01 -9.379734322477651931e-01
2.461538461538461675e-01 2.558140685945110571e-01 -4.352634114580796187e-01 -8.631915421289165780e-01
3.282051282051282048e-01 3.479200926829141838e-01 -5.441727481854985449e-01 -7.634267640290651746e-01
4.102564102564102422e-01 4.434421200385431638e-01 -6.242351272271341456e-01 -6.431800504618078174e-01
4.923076923076923350e-01 5.405093871790391802e-01 -6.709062139428108029e-01 -5.076651547532528008e-01
5.743589743589743168e-01 6.359203439808520653e-01 -6.813374438609318684e-01 -3.624539771884515149e-01
6.564102564102564097e-01 7.252952276631385864e-01 -6.546153338765990926e-01 -2.131034554135595727e-01
7.384615384615385025e-01 8.033840006990264904e-01 -5.919101505620099068e-01 -6.483544173921780562e-02
8.205128205128204844e-01 8.645198339133604026e-01 -4.965332606425876816e-01 7.776446269169443037e-02
9.025641025641025772e-01 9.031699572254954234e-01 -3.738486463953756278e-01 2.109708631923354061e-01
9.846153846153846700e-01 9.145208446641320821e-01 -2.310676848612009116e-01 3.320352680225241992e-01
1.066666666666666652e+00 8.950666693273979790e-01 -7.686375643423815074e-02 4.392453324831936401e-01
1.148717948717948634e+00 8.431117603745753586e-01 7.911608361876969198e-02 5.318767749258033195e-01
1.230769230769230838e+00 7.591450929547794990e-01 2.268904577387814703e-01 6.100902177340278287e-01
1.312820512820512819e+00 6.460367311469683571e-01 3.568321900532132052e-01 6.747582921957651081e-01
1.394871794871794801e+00 5.090122796991120024e-01 4.603967191397893011e-01 7.272781931267346955e-01
1.476923076923077005e+00 3.553966605633677722e-01 5.308109607282827103e-01 7.693671769032133234e-01
1.558974358974358987e+00 1.941513052641493375e-01 5.636677591746258598e-01 8.028557837247706219e-01
1.641025641025640969e+00 3.520879898887685489e-02 5.573450604867085101e-01 8.295304952333796278e-01
1.723076923076923173e+00 -1.113250018424737642e-01 5.132253474770644974e-01 8.509999652419344418e-01
1.805128205128205154e+00 -2.360357848745791298e-01 4.356537833912286772e-01 8.686125200146108671e-01
1.887179487179487136e+00 -3.310319944603898334e-01 3.316378277552491927e-01 8.834191099933200730e-01
1.969230769230769340e+00 -3.906995986031932544e-01 2.102946150082289911e-01 8.961726829974815400e-01
2.051282051282051100e+00 -4.122476388245708279e-01 8.208936471981963245e-02 9.073637362865223377e-01
2.133333333333333304e+00 -3.960257129684035537e-01 -4.207047711121334604e-02 9.172729855570013191e-01
2.215384615384615508e+00 -3.455394861408601082e-01 -1.518270101478121081e-01 9.260384875479394928e-01
2.297435897435897267e+00 -2.671668766041970788e-01 -2.383060056250147496e-01 9.337176146497915274e-01
2.379487179487179471e+00 -1.695831483882922763e-01 -2.949539475652242504e-01 9.403405704488438932e-01
2.461538461538461675e+00 -6.295856091177773339e-02 -3.181361149866132054e-01 9.459505675602702945e-01
2.543589743589743435e+00 4.201697564717768452e-02 -3.074771925440491493e-01 9.506257743959087847e-01
2.625641025641025639e+00 1.351693551321058173e-01 -2.658754575673751841e-01 9.544823799357384786e-01
2.707692307692307843e+00 2.078327585481812012e-01 -1.991571906508189937e-01 9.576738500863152259e-01
2.789743589743589602e+00 2.536898463260400804e-01 -1.154795373550708409e-01 9.603662169636096868e-01
2.871794871794871806e+00 2.693859528103282885e-01 -2.444938360341811223e-02 9.627205443375208560e-01
2.953846153846154010e+00 2.548046143895850713e-01 6.389095632725753926e-02 9.648782585222260844e-01
3.035897435897435770e+00 2.130487210580867541e-01 1.401391568227029760e-01 9.669378660946704729e-01
3.117948717948717974e+00 1.500132246656771806e-01 1.965090347602594101e-01 9.689571152094361706e-01
3.200000000000000178e+00 7.371253736952609881e-02 2.276461528638960008e-01 9.709487295142898988e-01
