0.000000000000000000e+00 3.097048956804195656e-09 1.103660838681008722e-10 -1.000000000000000000e+00
8.205128205128205121e-02 -1.401820992809612865e-01 -1.071985396189070600e-01 -9.843037607585417570e-01
1.641025641025641024e-01 -2.730186117524464606e-01 -2.138611625213440171e-01 -9.379322279878151702e-01
2.461538461538461675e-01 -3.915334772224943749e-01 -3.192577461566215025e-01 -8.629974227394674458e-01
3.282051282051282048e-01 -4.894149714057062228e-01 -4.224376320879630331e-01 -7.628917391779805879e-01
4.102564102564102422e-01 -5.613309460038522491e-01 -5.221070224978940910e-01 -6.420999349908017573e-01
4.923076923076923350e-01 -6.031809254506830253e-01 -6.165604568574163391e-01 -5.059675300967763079e-01
5.743589743589743168e-01 -6.122987436458696697e-01 -7.036892868436892545e-01 -3.603973528088910139e-01
6.564102564102564097e-01 -5.875876563157517163e-01 -7.810024074749977174e-01 -2.115393485044047561e-01
7.384615384615385025e-01 -5.295829304112489311e-01 -8.457105282562924486e-01 -6.548085676256379384e-02
8.205128205128204844e-01 -4.404373168569833963e-01 -8.948687492024733903e-01 7.209040757542634070e-02
9.025641025641025772e-01 -3.238371124668711354e-01 -9.255373431325233380e-01 1.961707109519748859e-01
9.846153846153846700e-01 -1.848390268793863034e-01 -9.349854715478256306e-01 3.026723430994363029e-01
1.066666666666666652e+00 -2.964525299682241322e-02 -9.209028871462822119e-01 3.886310155344002704e-01
1.148717948717948634e+00 1.346783557652320162e-01 -8.816155093812388932e-01 4.523184194713777417e-01
1.230769230769230838e+00 3.005279085265145089e-01 -8.162856997985422636e-01 4.932925564728646295e-01
1.312820512820512819e+00 4.601206467957316137e-01 -7.250758154338530215e-01 5.123781361639782039e-01
1.394871794871794801e+00 6.058548052508982984e-01 -6.092738613973042172e-01 5.115687671969781913e-01
1.476923076923077005e+00 7.306852617600162469e-01 -4.713559312217176500e-01 4.938618771683300768e-01
1.558974358974358987e+00 8.284628011074038900e-01 -3.149839636393038655e-01 4.630451433021455787e-01
1.641025641025640969e+00 8.942385332941904519e-01 -1.449302235076652678e-01 4.234480784315876600e-01
1.723076923076923173e+00 9.245245932772402364e-01 3.307303651283349799e-02 3.796516019990591739e-01
1.805128205128205154e+00 9.174751847441713348e-01 2.125429984134298289e-01 3.362127771333671133e-01
1.887179487179487136e+00 8.730061069462312640e-01 3.865265609745047182e-01 2.973740685318133625e-01
1.969230769230769340e+00 7.928187309924883408e-01 5.479178599782879022e-01 2.668293583481806119e-01
2.051282051282051100e+00 6.803452861743963798e-01 6.898151430068624190e-01 2.475047353354294100e-01
2.133333333333333304e+00 5.406097849978186431e-01 8.058761867166117643e-01 2.414079597162309410e-01
2.215384615384615508e+00 3.800066381614153888e-01 8.906755526019337621e-01 2.495300774195273186e-01
2.297435897435897267e+00 2.060024123169726384e-01 9.400250401729870475e-01 2.718260664377956104e-01
2.379487179487179471e+00 2.680125213900380610e-02 9.512412099968464707e-01 3.072389035994628204e-01
2.461538461538461675e+00 -1.490589510008746843e-01 9.233481262351428409e-01 3.538137732795946233e-01
2.543589743589743435e+00 -3.131141957333067327e-01 8.571957425187122226e-01 4.088402129179016242e-01
2.625641025641025639e+00 -4.573889296773595015e-01 7.554814983484567925e-01 4.690623747614816597e-01
2.707692307692307843e+00 -5.748033139879737963e-01 6.226737165079583303e-01 5.309014033293064649e-01
2.789743589743589602e+00 -6.595213689681728164e-01 4.648423874846924764e-01 5.907048749690033684e-01
2.871794871794871806e+00 -7.072700844031325484e-01 2.893875746348858469e-01 6.449840653581626615e-01
2.953846153846154010e+00 -7.155584522643441137e-01 1.046993885846104200e-01 6.906490304227880239e-01
3.035897435897435770e+00 -6.838262906821113152e-01 -8.025602708188434020e-02 7.252059326244173487e-01
3.117948717948717974e+00 -6.134945198950554346e-01 -2.563889948796662654e-01 7.469089388569553067e-01
3.200000000000000178e+00 -5.079128724228422209e-01 -4.149438856066036685e-01 7.548709646100678627e-01
