0.000000000000000000e+00 1.470777062945543318e-09 -2.646552028047980594e-09 -1.000000000000000000e+00
8.205128205128205121e-02 1.285679765286257548e-01 1.208748010107628529e-01 -9.843050842325002936e-01
1.641025641025641024e-01 2.534671777318700525e-01 2.366295672267192673e-01 -9.379522899923553592e-01
2.461538461538461675e-01 3.712703314104012775e-01 3.423723296321555254e-01 -8.630930768450599810e-01
3.282051282051282048e-01 4.789595851185868280e-01 4.337730932748117829e-01 -7.631678676871685996e-01
4.102564102564102422e-01 5.741093266466563705e-01 5.072741965546608833e-01 -6.426932556062144863e-01
4.923076923076923350e-01 6.550133632598410527e-01 5.602605029143072901e-01 -5.069970989380377935e-01
5.743589743589743168e-01 7.207622323601001746e-01 5.911963803909828785e-01 -3.618933902354499743e-01
6.564102564102564097e-01 7.712641505603490266e-01 5.996749017911915391e-01 -2.133502730745874543e-01
7.384615384615385025e-01 8.072047078616304550e-01 5.864202038395928129e-01 -6.714111516373835742e-02
8.205128205128204844e-01 8.299571727777707020e-01 5.532086843696187861e-01 7.146520793043807662e-02
9.025641025641025772e-01 8.414449069407872184e-01 5.027383426633935670e-01 1.979930162240302605e-01
9.846153846153846700e-01 8.439704814583748327e-01 4.384437630727733293e-01 3.089635080343304807e-01
1.066666666666666652e+00 8.400249136358836077e-01 3.642702713714761065e-01 4.020497678452156776e-01
1.148717948717948634e+00 8.320882320945259814e-01 2.844288425104798401e-01 4.761399485736962367e-01
1.230769230769230838e+00 8.224492583078643060e-01 2.031359478590847867e-01 5.313133157427654130e-01
1.312820512820512819e+00 8.130397117235692583e-01 1.243666682357984499e-01 5.687538508863524411e-01
1.394871794871794801e+00 8.053093499272806488e-01 5.162976619660269995e-02 5.905872264651015335e-01
1.476923076923077005e+00 8.001518899789274997e-01 -1.222144755570847563e-02 5.996581049611894310e-01
1.558974358974358987e+00 7.978693051754817134e-01 -6.513012673708742928e-02 5.992869754399552384e-01
1.641025641025640969e+00 7.982000349046641796e-01 -1.059150906150819749e-01 5.929930872798052643e-01
1.723076923076923173e+00 8.003907133855043821e-01 -1.342984753612765370e-01 5.842264459338245564e-01
1.805128205128205154e+00 8.033017707998240109e-01 -1.508675774136712389e-01 5.761310459412974927e-01
1.887179487179487136e+00 8.055591879175616477e-01 -1.569838808417749476e-01 5.713248609567137537e-01
1.969230769230769340e+00 8.057019580896752631e-01 -1.546422211946983372e-01 5.717620032386901974e-01
2.051282051282051100e+00 8.023547045894632301e-01 -1.462966951762292855e-01 5.786242276056231537e-01
2.133333333333333304e+00 7.943752262289202060e-01 -1.346539229062618803e-01 5.922992573588110599e-01
2.215384615384615508e+00 7.809812519900510841e-01 -1.224685681661318859e-01 6.124151165141444864e-01
2.297435897435897267e+00 7.618429354678341037e-01 -1.123362743529539576e-01 6.379334116211478056e-01
2.379487179487179471e+00 7.371332416612126348e-01 -1.065031807270044317e-01 6.672896809965784826e-01
2.461538461538461675e+00 7.075302569011726606e-01 -1.067219256669518779e-01 6.985671399832588113e-01
2.543589743589743435e+00 6.741748647549705709e-01 -1.141280015397113240e-01 7.296907686264759718e-01
2.625641025641025639e+00 6.385803828541457561e-01 -1.291902374953767807e-01 7.586246773367046892e-01
2.707692307692307843e+00 6.025110241407516387e-01 -1.516806471596411909e-01 7.835564301991158054e-01
2.789743589743589602e+00 5.678433747164525203e-01 -1.807329484565100564e-01 8.030425806193245419e-01
2.871794871794871806e+00 5.363906073653719186e-01 -2.149196520762879925e-01 8.161390870872148318e-01
2.953846153846154010e+00 5.097698902883807115e-01 -2.523823728018771972e-01 8.224514406533149913e-01
3.035897435897435770e+00 4.892366393933992308e-01 -2.909853095679571511e-01 8.221700681538157696e-01
3.117948717948717974e+00 4.755893364560664360e-01 -3.284924675885649847e-01 8.160244001662025903e-01
3.200000000000000178e+00 4.690865316486773073e-01 -3.627480864841461372e-01 8.052078054719399303e-01
