0.000000000000000000e+00 2.378910831410564819e-09 9.162560646832481879e-10 -1.000000000000000000e+00
8.205128205128205121e-02 -1.608737104911467930e-01 1.084737378218093573e-01 -9.809950718955571247e-01
1.641025641025641024e-01 -3.155428516799234639e-01 2.118131944547210210e-01 -9.249671272975280578e-01
2.461538461538461675e-01 -4.581252655151279440e-01 3.053189667841710309e-01 -8.348028567387547616e-01
3.282051282051282048e-01 -5.834272178462900360e-01 3.850804628535068885e-01 -7.150649661506203181e-01
4.102564102564102422e-01 -6.872060620591694535e-01 4.482723546961493999e-01 -5.716555640909051217e-01
4.923076923076923350e-01 -7.663958894904887575e-01 4.933535844971549400e-01 -4.113738699558762701e-01
5.743589743589743168e-01 -8.192504479569069353e-01 5.201191938473335163e-01 -2.414386314347930773e-01
6.564102564102564097e-01 -8.454022671837635450e-01 5.296447907949680678e-01 -6.898408049269584563e-02
7.384615384615385025e-01 -8.458289984158170460e-01 5.241018147078780887e-01 9.938834827159934160e-02
8.205128205128204844e-01 -8.227433825438384973e-01 5.064793066412756062e-01 2.579922148045197816e-01
9.025641025641025772e-01 -7.793875157637248918e-01 4.802589471363972740e-01 4.023621147009865395e-01
9.846153846153846700e-01 -7.197875272430511728e-01 4.490429340727239982e-01 5.293923566074242304e-01
1.066666666666666652e+00 -6.484422959617660576e-01 4.162211321097396000e-01 6.373960115868197995e-01
1.148717948717948634e+00 -5.700116238529358004e-01 3.846694847739974277e-01 7.260223738619858702e-01
1.230769230769230838e+00 -4.889945178132785730e-01 3.565497267810973092e-01 7.960842728764615517e-01
1.312820512820512819e+00 -4.094445445336071798e-01 3.331773370498352094e-01 8.493188721726756540e-01
1.394871794871794801e+00 -3.347390227100087157e-01 3.150235704546636706e-01 8.880908276413823632e-01
1.476923076923077005e+00 -2.674082772060745739e-01 3.017877590922893871e-01 9.151027286847946973e-01
1.558974358974358987e+00 -2.090617223275484660e-01 2.925485254880478836e-01 9.331157955354667521e-01
1.641025641025640969e+00 -1.603724937452207788e-01 2.859937077978847442e-01 9.447143181369618281e-01
1.723076923076923173e+00 -1.211656138756988382e-01 2.806436300450842469e-01 9.521319041243988535e-01
1.805128205128205154e+00 -9.055564292498846646e-02 2.750802075027573568e-01 9.571456735564117801e-01
1.887179487179487136e+00 -6.715612760210680487e-02 2.681395410242602417e-01 9.610352028030235694e-01
1.969230769230769340e+00 -4.927287456225185047e-02 2.590522515179843888e-01 9.646044080958671163e-01
2.051282051282051100e+00 -3.514972063594276608e-02 2.475099315805430189e-01 9.682463608346738582e-01
2.133333333333333304e+00 -2.316411301690017230e-02 2.336601575760362259e-01 9.720412500928191646e-01
2.215384615384615508e+00 -1.199235131217082917e-02 2.180367122614612352e-01 9.758658593750901833e-01
2.297435897435897267e+00 -7.047054503219463140e-04 2.014550890436065389e-01 9.794965609147754382e-01
2.379487179487179471e+00 1.117224393183399722e-02 1.848505326538038562e-01 9.827022840524842762e-01
2.461538461538461675e+00 2.369042465125259511e-02 1.691388583039973581e-01 9.853066844204774188e-01
2.543589743589743435e+00 3.653790605914767481e-02 1.550697657552548847e-01 9.872268768478867917e-01
2.625641025641025639e+00 4.915364214434936319e-02 1.431352836799413275e-01 9.884810780756844162e-01
2.707692307692307843e+00 6.086250405930123536e-02 1.335047710222257711e-01 9.891768824938035332e-01
2.789743589743589602e+00 7.100270996002122637e-02 1.260258863084403880e-01 9.894820788084903729e-01
2.871794871794871806e+00 7.906020671839013303e-02 1.202718242635640866e-01 9.895872225785766751e-01
2.953846153846154010e+00 8.473685079541726228e-02 1.156077574485314258e-01 9.896732876521188160e-01
3.035897435897435770e+00 8.801317335990251067e-02 1.113348204344536407e-01 9.898772430811688672e-01
3.117948717948717974e+00 8.913229541474956830e-02 1.067601139738550836e-01 9.902809983267949479e-01
3.200000000000000178e+00 8.857410989031490323e-02 1.013463389027775136e-01 9.908997573688402838e-01
