0.000000000000000000e+00 3.024470433642501049e-09 1.766902385276990263e-10 -1.000000000000000000e+00
8.205128205128205121e-02 -8.782129627641729885e-03 2.033390534646149217e-01 -9.790671755128004250e-01
1.641025641025641024e-01 -1.708270609313145005e-02 3.980958728450171846e-01 -9.171806634337479336e-01
2.461538461538461675e-01 -2.435073590203451488e-02 5.760677458465811585e-01 -8.170320044112961977e-01
3.282051282051282048e-01 -3.003342775390782649e-02 7.298165875661590807e-01 -6.829713813776914222e-01
4.102564102564102422e-01 -3.354175585931823411e-02 8.530056684191664740e-01 -5.208039964478563544e-01
4.923076923076923350e-01 -3.424698790160318751e-02 9.406820207406264567e-01 -3.375236721496032710e-01
5.743589743589743168e-01 -3.148772900302096445e-02 9.894979720988842375e-01 -1.409908802345616885e-01
6.564102564102564097e-01 -2.458146271232127672e-02 9.978581237942965032e-01 6.042173514643273818e-02
7.384615384615385025e-01 -1.285010239323471255e-02 9.659874646125397035e-01 2.582247610061059739e-01
8.205128205128204844e-01 4.352768416096775006e-03 8.959121064618580377e-01 4.441866205077810159e-01
9.025641025641025772e-01 2.760198450968359696e-02 7.913557850102901359e-01 6.107180511311884885e-01
9.846153846153846700e-01 5.736073440402831430e-02 6.575673521278041500e-01 7.511997341549115914e-01
1.066666666666666652e+00 9.393851889664237009e-02 5.010618693928943213e-01 8.602921065249928834e-01
1.148717948717948634e+00 1.374464174676347517e-01 3.293248686490606314e-01 9.341557783819864902e-01
1.230769230769230838e+00 1.877506760637446259e-01 1.504521611463534303e-01 9.706232882943661711e-01
1.312820512820512819e+00 2.444580759214956822e-01 -2.720754939344609269e-02 9.692758295868975082e-01
1.394871794871794801e+00 3.069072844294731262e-01 -1.954686172533986466e-01 9.314468286021698740e-01
1.476923076923077005e+00 3.741117429011366902e-01 -3.466846250610599589e-01 8.601395927141416431e-01
1.558974358974358987e+00 4.447907384816298104e-01 -4.740751494057597881e-01 7.598686295925062284e-01
1.641025641025640969e+00 5.173946283993040574e-01 -5.720502846409780684e-01 6.364308746843382325e-01
1.723076923076923173e+00 5.901408158836567441e-01 -6.364650821437812800e-01 4.966146326150641110e-01
1.805128205128205154e+00 6.610625616141723171e-01 -6.647989567037951852e-01 3.478742589604120194e-01
1.887179487179487136e+00 7.280815181308418760e-01 -6.562652452007704529e-01 1.979638541008845176e-01
1.969230769230769340e+00 7.890839790309527313e-01 -6.118373358557781527e-01 5.456548376787770382e-02
2.051282051282051100e+00 8.420106322226198481e-01 -5.341890077597521991e-01 -7.507390993959063563e-02
2.133333333333333304e+00 8.849482463430354828e-01 -4.275617726881520420e-01 -1.844828144861042074e-01
2.215384615384615508e+00 9.162255448152386572e-01 -2.975516039743381080e-01 -2.682737827618393300e-01
2.297435897435897267e+00 9.345019373717569078e-01 -1.508368224441786198e-01 -3.223847987705748541e-01
2.379487179487179471e+00 9.388483529318301102e-01 5.141047670855325435e-03 -3.442603232442176808e-01
2.461538461538461675e+00 9.288130751758543191e-01 1.625373265714484261e-01 -3.329648359282918468e-01
2.543589743589743435e+00 9.044723933482746725e-01 3.134751472290464025e-01 -2.892062289749703363e-01
2.625641025641025639e+00 8.664572723481438477e-01 4.504207961957326090e-01 -2.152893011339172269e-01
2.707692307692307843e+00 8.159567751562135651e-01 5.665404669516787006e-01 -1.149889531455468433e-01
2.789743589743589602e+00 7.546992914182851786e-01 6.560186936053769013e-01 6.651551660882444594e-03
2.871794871794871806e+00 6.848984819764769583e-01 7.143373169461655348e-01 1.435702266188938203e-01
2.953846153846154010e+00 6.091868941496265677e-01 7.384774611882403139e-01 2.889975506899821189e-01
3.035897435897435770e+00 5.305176698310813954e-01 7.270617760729112256e-01 4.357880767984668169e-01
3.117948717948717974e+00 4.520527845437324332e-01 6.804135281802776714e-01 5.767732238971617909e-01
3.200000000000000178e+00 3.770305470636867717e-01 6.005342998044043146e-01 7.051179257973266834e-01
