0.000000000000000000e+00 3.484081315762106307e-10 -4.102520668369882923e-09 -1.000000000000000000e+00
8.205128205128205121e-02 1.216499644316982286e-02 -8.180128518558496542e-03 -9.998924584879761435e-01
1.641025641025641024e-01 2.434042151747529276e-02 -1.634423500070775886e-02 -9.995699535980034911e-01
2.461538461538461675e-01 3.651048577103668813e-02 -2.449516070606120796e-02 -9.990327877743792051e-01
3.282051282051282048e-01 4.867157434562267154e-02 -3.262891106341006542e-02 -9.982814384109696126e-01
4.102564102564102422e-01 6.082108651575731523e-02 -4.073667358038608743e-02 -9.973166885411963722e-01
4.923076923076923350e-01 7.295504989765172477e-02 -4.881486679681476537e-02 -9.961394415685882464e-01
5.743589743589743168e-01 8.507154089764717986e-02 -5.685501349987034936e-02 -9.947508816948422705e-01
6.564102564102564097e-01 9.716643106277444986e-02 -6.485035117941195804e-02 -9.931525315892912875e-01
7.384615384615385025e-01 1.092372324531540734e-01 -7.279764728312601574e-02 -9.913457628738244765e-01
8.205128205128204844e-01 1.212801755731344605e-01 -8.068920719467810587e-02 -9.893325623431219462e-01
9.025641025641025772e-01 1.332895793117800654e-01 -8.851939116905775673e-02 -9.871152962063909353e-01
9.846153846153846700e-01 1.452624409987036402e-01 -9.628503740344887540e-02 -9.846960300053418935e-01
1.066666666666666652e+00 1.571949500439561165e-01 -1.039768924121197979e-01 -9.820777275291041608e-01
1.148717948717948634e+00 1.690838761165719406e-01 -1.115917920239920258e-01 -9.792629251026138126e-01
1.230769230769230838e+00 1.809223266020884291e-01 -1.191231179640257765e-01 -9.762554008448691700e-01
1.312820512820512819e+00 1.927070693789760814e-01 -1.265689711025285713e-01 -9.730580371099192272e-01
1.394871794871794801e+00 2.044338278076164306e-01 -1.339226149518930598e-01 -9.696747157102370007e-01
1.476923076923077005e+00 2.160987183724857319e-01 -1.411800345572376547e-01 -9.661091560550479906e-01
1.558974358974358987e+00 2.276969045021428883e-01 -1.483369471574434995e-01 -9.623655635086858506e-01
1.641025641025640969e+00 2.392211883230378200e-01 -1.553904760612897784e-01 -9.584487874962573928e-01
1.723076923076923173e+00 2.506711253767541780e-01 -1.623404667507237775e-01 -9.543618078636452173e-01
1.805128205128205154e+00 2.620385506766302885e-01 -1.691757311788872342e-01 -9.501116340945239269e-01
1.887179487179487136e+00 2.733220324057705763e-01 -1.758999856288308017e-01 -9.457012500852776116e-01
1.969230769230769340e+00 2.845147847210969250e-01 -1.825113395891140577e-01 -9.411362212954563766e-01
2.051282051282051100e+00 2.956141045361068698e-01 -1.890033233154307657e-01 -9.364220893033543547e-01
2.133333333333333304e+00 3.066140896157931173e-01 -1.953785328381341391e-01 -9.315638240570212059e-01
2.215384615384615508e+00 3.175125465675342484e-01 -2.016311363433572756e-01 -9.265671285321974704e-01
2.297435897435897267e+00 3.283035840669547567e-01 -2.077653043690277368e-01 -9.214370067696685540e-01
2.379487179487179471e+00 3.389887339759177221e-01 -2.137756487363390856e-01 -9.161780831583778983e-01
2.461538461538461675e+00 3.495568980289482930e-01 -2.196641442874078254e-01 -9.107980865433172868e-01
2.543589743589743435e+00 3.600103556645648517e-01 -2.254328101488401459e-01 -9.052999246869065653e-01
2.625641025641025639e+00 3.703462155943324507e-01 -2.310752686602560169e-01 -8.996905639543851807e-01
2.707692307692307843e+00 3.805581831577518614e-01 -2.365953514053432127e-01 -8.939760441764345034e-01
2.789743589743589602e+00 3.906433285209460760e-01 -2.419967728451192512e-01 -8.881611674244558330e-01
2.871794871794871806e+00 4.006057151722349219e-01 -2.472762855394064763e-01 -8.822495428574217424e-01
2.953846153846154010e+00 4.104365380706418431e-01 -2.524353621515904034e-01 -8.762493034869794917e-01
3.035897435897435770e+00 4.201366832682568164e-01 -2.574764831111374108e-01 -8.701640572828396314e-01
3.117948717948717974e+00 4.297034519939567088e-01 -2.623994495635839641e-01 -8.639998728502760184e-01
3.200000000000000178e+00 4.391377279936996558e-01 -2.672051413093673999e-01 -8.577608242233066838e-01
