0.000000000000000000e+00 1.508933246083413828e-09 -1.807164628038209180e-09 -1.000000000000000000e+00
8.205128205128205121e-02 -4.539337141863837577e-04 -1.465435405450541545e-02 -9.998924664366828363e-01
1.641025641025641024e-01 -8.989271098440131114e-04 -2.930664171046213837e-02 -9.995699705686426073e-01
2.461538461538461675e-01 -1.343518819769035783e-03 -4.394831525192252619e-02 -9.990327669836202018e-01
3.282051282051282048e-01 -1.786994321979235023e-03 -5.857144702439550515e-02 -9.982814421909284031e-01
4.102564102564102422e-01 -2.228470540127348853e-03 -7.317310761164437516e-02 -9.973165457210694251e-01
4.923076923076923350e-01 -2.668807998705828577e-03 -8.774391494231387201e-02 -9.961392278440138748e-01
5.743589743589743168e-01 -3.105705014033600941e-03 -1.022847675419759905e-01 -9.947500065544424563e-01
6.564102564102564097e-01 -3.539815428923717699e-03 -1.167812286190587218e-01 -9.931510082209760171e-01
7.384615384615385025e-01 -3.972131553527991077e-03 -1.312363490196467031e-01 -9.913427606629783284e-01
8.205128205128204844e-01 -4.399084011813290084e-03 -1.456404302764446879e-01 -9.893273743450473612e-01
9.025641025641025772e-01 -4.824696726694407620e-03 -1.599872839936443969e-01 -9.871068054458917995e-01
9.846153846153846700e-01 -5.244779397159362450e-03 -1.742726189199851894e-01 -9.846829508016422539e-01
1.066666666666666652e+00 -5.661690105635552861e-03 -1.884921445950539509e-01 -9.820578069501995078e-01
1.148717948717948634e+00 -6.074016468844679884e-03 -2.026390911807506856e-01 -9.792340348697785579e-01
1.230769230769230838e+00 -6.480992331163684672e-03 -2.167120610476443443e-01 -9.762133888678387050e-01
1.312820512820512819e+00 -6.883262832352896043e-03 -2.307003875492405209e-01 -9.729997755223611655e-01
1.394871794871794801e+00 -7.279093996083479956e-03 -2.446033642403507014e-01 -9.695951371820061837e-01
1.476923076923077005e+00 -7.671267024494748954e-03 -2.584153918999897437e-01 -9.660026228953204619e-01
1.558974358974358987e+00 -8.056554011969807583e-03 -2.721321542830397733e-01 -9.622252973123958109e-01
1.641025641025640969e+00 -8.438361940453997789e-03 -2.857474737654424057e-01 -9.582668851055081705e-01
1.723076923076923173e+00 -8.813440791974491706e-03 -2.992617158116150367e-01 -9.541293961917282074e-01
1.805128205128205154e+00 -9.182352074300126343e-03 -3.126644558683977504e-01 -9.498182384110637200e-01
1.887179487179487136e+00 -9.546068499374227301e-03 -3.259535189610047179e-01 -9.453365255121374267e-01
1.969230769230769340e+00 -9.906188635691343114e-03 -3.391284583798715446e-01 -9.406867880303872997e-01
2.051282051282051100e+00 -1.025798285974982571e-02 -3.521804173983575925e-01 -9.358747302847189031e-01
2.133333333333333304e+00 -1.060721001382244899e-02 -3.651123833945457142e-01 -9.309017796691646529e-01
2.215384615384615508e+00 -1.094585566228317708e-02 -3.779140215248610324e-01 -9.257746894942198157e-01
2.297435897435897267e+00 -1.128447494910991139e-02 -3.905859345053590559e-01 -9.204959472376812446e-01
2.379487179487179471e+00 -1.161628904743838842e-02 -4.031266702386039902e-01 -9.150690449151342998e-01
2.461538461538461675e+00 -1.194346476060206830e-02 -4.155280012066600026e-01 -9.095004932132562114e-01
2.543589743589743435e+00 -1.226417071497144101e-02 -4.277917233149468035e-01 -9.037925914600215549e-01
2.625641025641025639e+00 -1.258426374855048380e-02 -4.399138489613411696e-01 -8.979502021561795999e-01
2.707692307692307843e+00 -1.290045573855190530e-02 -4.518923624356949720e-01 -8.919775222007446658e-01
2.789743589743589602e+00 -1.321026666585015108e-02 -4.637232757665212257e-01 -8.858798723841568856e-01
2.871794871794871806e+00 -1.351680171149596821e-02 -4.754078003210818193e-01 -8.796599115371296351e-01
2.953846153846154010e+00 -1.382167329817660106e-02 -4.869397016856283344e-01 -8.733243591283090801e-01
3.035897435897435770e+00 -1.412235874274749003e-02 -4.983212986334299432e-01 -8.668754798397276806e-01
3.117948717948717974e+00 -1.442284147206569778e-02 -5.095512399220425426e-01 -8.603174284860038989e-01
3.200000000000000178e+00 -1.471708763948659238e-02 -5.206235857808970691e-01 -8.536574036844049029e-01
