0.000000000000000000e+00 3.935827647039291169e-10 2.529411864725893221e-09 -1.000000000000000000e+00
8.205128205128205121e-02 4.746329707607106069e-02 -2.451543453221880983e-02 -9.985715501626291069e-01
1.641025641025641024e-01 9.435658406986198454e-02 -4.884928711665405265e-02 -9.943382185346189006e-01
2.461538461538461675e-01 1.400909895441274089e-01 -7.285789822058100218e-02 -9.874528572375397273e-01
3.282051282051282048e-01 1.841557467567279116e-01 -9.637082477869136909e-02 -9.781590946805465148e-01
4.102564102564102422e-01 2.261173396856018813e-01 -1.192048738167208605e-01 -9.667760971547531001e-01
4.923076923076923350e-01 2.656378145866896134e-01 -1.411679237175133828e-01 -9.536781655401682656e-01
5.743589743589743168e-01 3.024879321720651548e-01 -1.620612621917165430e-01 -9.392710455342777598e-01
6.564102564102564097e-01 3.365538391197159251e-01 -1.816812179479101730e-01 -9.239672106303855603e-01
7.384615384615385025e-01 3.678370894078970554e-01 -1.998302693163652721e-01 -9.081601201300264492e-01
8.205128205128204844e-01 3.964470680012763815e-01 -2.163217976903410444e-01 -8.922022351517369110e-01
9.025641025641025772e-01 4.225866316336454043e-01 -2.309958899600529914e-01 -8.763851212430315840e-01
9.846153846153846700e-01 4.465419702932141854e-01 -2.437228661573945521e-01 -8.609228473137742199e-01
1.066666666666666652e+00 4.686506099273241022e-01 -2.544215998070615825e-01 -8.459458032667910299e-01
1.148717948717948634e+00 4.892809334668839494e-01 -2.630665753141959717e-01 -8.314971866631332142e-01
1.230769230769230838e+00 5.088100508678395917e-01 -2.696941893606636942e-01 -8.175354587309433541e-01
1.312820512820512819e+00 5.275932430053822397e-01 -2.744065423501655387e-01 -8.039482135762984205e-01
1.394871794871794801e+00 5.459467489340876778e-01 -2.773745453640564240e-01 -7.905639154045979167e-01
1.476923076923077005e+00 5.641250740938001940e-01 -2.788338649652000178e-01 -7.771742865851178905e-01
1.558974358974358987e+00 5.823064215138108457e-01 -2.790773752798383356e-01 -7.635573665287989087e-01
1.641025641025640969e+00 6.005880969044262718e-01 -2.784433580768316263e-01 -7.494981957826537533e-01
1.723076923076923173e+00 6.189804261915509143e-01 -2.772984621757715318e-01 -7.348146740285093070e-01
1.805128205128205154e+00 6.374085955054000774e-01 -2.760228390083812045e-01 -7.193781907637624151e-01
1.887179487179487136e+00 6.557286550836612937e-01 -2.749833506221786017e-01 -7.031265037149906361e-01
1.969230769230769340e+00 6.737310373825526888e-01 -2.745238820899608689e-01 -6.860797310620208034e-01
2.051282051282051100e+00 6.911709327244628387e-01 -2.749334064560988722e-01 -6.683383207824558081e-01
2.133333333333333304e+00 7.077792684470770590e-01 -2.764344720988352044e-01 -6.500874692567574220e-01
2.215384615384615508e+00 7.232874513122720117e-01 -2.791670271310283669e-01 -6.315866969328305380e-01
2.297435897435897267e+00 7.374539127222561330e-01 -2.831769316044707718e-01 -6.131498905510662789e-01
2.379487179487179471e+00 7.500793409301294012e-01 -2.884134693660980187e-01 -5.951289208082268800e-01
2.461538461538461675e+00 7.610227826575355348e-01 -2.947260635703339848e-01 -5.778929227174007810e-01
2.543589743589743435e+00 7.702166231363019033e-01 -3.018770682847859432e-01 -5.617967325016512969e-01
2.625641025641025639e+00 7.776747740221390259e-01 -3.095514114701675701e-01 -5.471549260443833163e-01
2.707692307692307843e+00 7.834935714961870357e-01 -3.173743459076227569e-01 -5.342187835781484484e-01
2.789743589743589602e+00 7.878458524168594490e-01 -3.249369431816605536e-01 -5.231567812156137087e-01
2.871794871794871806e+00 7.909766385782692755e-01 -3.318196498152710117e-01 -5.140326894856567241e-01
2.953846153846154010e+00 7.931831432184367481e-01 -3.376236844431302342e-01 -5.068022571697686773e-01
3.035897435897435770e+00 7.948014580808256957e-01 -3.419925465260487130e-01 -5.013076976273492802e-01
3.117948717948717974e+00 7.961830188480814030e-01 -3.446404806126280862e-01 -4.972857592410492300e-01
3.200000000000000178e+00 7.976748577212989799e-01 -3.453735114741345313e-01 -4.943778783870609317e-01
