0.000000000000000000e+00 7.164122501231908754e-10 1.942428108985244126e-09 -1.000000000000000000e+00
8.205128205128205121e-02 -2.742704291417188966e-02 2.401489980005889341e-02 -9.993351141357744716e-01
1.641025641025641024e-01 -5.536046342682882787e-02 4.730802131254774334e-02 -9.973447072527280577e-01
2.461538461538461675e-01 -8.425124292929894732e-02 6.915532617541397808e-02 -9.940413593351712374e-01
3.282051282051282048e-01 -1.144951735008277460e-01 8.880558164168017576e-02 -9.894458264590827445e-01
4.102564102564102422e-01 -1.464026947354011288e-01 1.054662838414368031e-01 -9.835859849599390969e-01
4.923076923076923350e-01 -1.801429617059894517e-01 1.183150390550025549e-01 -9.764978193296635078e-01
5.743589743589743168e-01 -2.157338209136946683e-01 1.264895917084697952e-01 -9.682235599446386010e-01
6.564102564102564097e-01 -2.530011671312509813e-01 1.291144066597080253e-01 -9.588102314411250937e-01
7.384615384615385025e-01 -2.915428070012612283e-01 1.253155293825633232e-01 -9.483119961343515758e-01
8.205128205128204844e-01 -3.307204508613333371e-01 1.142541864247607342e-01 -9.367851489612813998e-01
9.025641025641025772e-01 -3.696270276675188704e-01 9.517400342273933667e-02 -9.242910265242785250e-01
9.846153846153846700e-01 -4.070884958125809416e-01 6.745441350680506098e-02 -9.108921858947698347e-01
1.066666666666666652e+00 -4.416677688220947418e-01 3.067718884755646358e-02 -8.966514482315101064e-01
1.148717948717948634e+00 -4.716695627764895815e-01 -1.530931383006201019e-02 -8.816396200604734723e-01
1.230769230769230838e+00 -4.952102788584730186e-01 -7.030643515991241710e-02 -8.659205836760935915e-01
1.312820512820512819e+00 -5.102635599719580473e-01 -1.337083025099755074e-01 -8.495571920614769512e-01
1.394871794871794801e+00 -5.147357875980491659e-01 -2.044216065859710274e-01 -8.326180031432648398e-01
1.476923076923077005e+00 -5.065935640430339060e-01 -2.808273226984770443e-01 -8.151640789813592303e-01
1.558974358974358987e+00 -4.839758204677184761e-01 -3.607454988312667754e-01 -7.972598395318013509e-01
1.641025641025640969e+00 -4.453548664495992071e-01 -4.414393408936216900e-01 -7.789628933635788233e-01
1.723076923076923173e+00 -3.896804536476748959e-01 -5.196511483943393461e-01 -7.603317952817173486e-01
1.805128205128205154e+00 -3.165493502589647457e-01 -5.916815223069551433e-01 -7.414187391024826823e-01
1.887179487179487136e+00 -2.263569059762328695e-01 -6.535099533865720289e-01 -7.222736048300290035e-01
1.969230769230769340e+00 -1.204133177944662070e-01 -7.009648365287198812e-01 -7.029513154094657601e-01
2.051282051282051100e+00 -1.060863018458424456e-03 -7.299533325618908775e-01 -6.834897902391536828e-01
2.133333333333333304e+00 1.283028299146272422e-01 -7.366923644355367617e-01 -6.639380758426827178e-01
2.215384615384615508e+00 2.632267786675775434e-01 -7.180133033098220485e-01 -6.443285560288920522e-01
2.297435897435897267e+00 3.983007867914380995e-01 -6.716342865448798882e-01 -6.247034117289633759e-01
2.379487179487179471e+00 5.273434211479695044e-01 -5.964576501362274241e-01 -6.050928864861357948e-01
2.461538461538461675e+00 6.436405792411390436e-01 -4.928237334695241278e-01 -5.855267392647433011e-01
2.543589743589743435e+00 7.402997606896629668e-01 -3.626968798426835061e-01 -5.660361985362872828e-01
2.625641025641025639e+00 8.106481653850212687e-01 -2.098029537328277572e-01 -5.466459675696803133e-01
2.707692307692307843e+00 8.486996781432398773e-01 -3.962319368181288493e-02 -5.273786605258973248e-01
2.789743589743589602e+00 8.496317549235319344e-01 1.407008247883039243e-01 -5.082502364764949210e-01
2.871794871794871806e+00 8.102486693850964317e-01 3.226226953854460233e-01 -4.892858312888241912e-01
2.953846153846154010e+00 7.294263448916222803e-01 4.965499008094802491e-01 -4.704935682647096717e-01
3.035897435897435770e+00 6.084142648398664921e-01 6.523882456503637961e-01 -4.518963036632149821e-01
3.117948717948717974e+00 4.510731460363266998e-01 7.801260105897861452e-01 -4.335030351958862327e-01
3.200000000000000178e+00 2.639000863631162930e-01 8.705470627405098583e-01 -4.153225703071499186e-01
