1.000000000000000056e-01 -1.861429131357663410e-03 -3.071757132425114167e-01 -9.512833257385459040e-01
2.000000000000000111e-01 -1.193961474260409050e-02 -5.759923887438513912e-01 -8.119342374348629265e-01
3.000000000000000444e-01 -2.843524338154506878e-02 -7.811968984023598406e-01 -5.981267541386073860e-01
4.000000000000000222e-01 -4.314192502468788132e-02 -9.099356412146548667e-01 -3.293207579015916542e-01
5.000000000000000000e-01 -5.146026255132387511e-02 -9.537137939394345620e-01 -2.841087623409277799e-02
5.999999999999999778e-01 -5.574116279455734041e-02 -9.065042006912665817e-01 2.755047599172126271e-01
7.000000000000000666e-01 -6.033512668359890946e-02 -7.702522298198630768e-01 5.501139510806076771e-01
8.000000000000000444e-01 -6.616972832090591006e-02 -5.584785331378435691e-01 7.677799101183909736e-01
9.000000000000000222e-01 -7.082673016561923107e-02 -2.932162877247533883e-01 9.099097976778202090e-01
1.000000000000000000e+00 -7.202241881610089991e-02 -1.321000381196399170e-04 9.654116073509364515e-01
1.100000000000000089e+00 -6.966832166213043909e-02 2.936345158320654014e-01 9.287887999903945424e-01
1.200000000000000178e+00 -6.529810261642110536e-02 5.603147429003966229e-01 8.013600013814807799e-01
1.300000000000000266e+00 -6.058544815484107060e-02 7.735819628731760433e-01 5.934913034573265911e-01
1.400000000000000133e+00 -5.649396772584168447e-02 9.117530391969200787e-01 3.248393145251073921e-01
1.500000000000000222e+00 -5.327240717533466424e-02 9.606129872607410691e-01 2.215655639865624429e-02
1.600000000000000089e+00 -5.079978611157304896e-02 9.150199978481237117e-01 -2.840916421297173255e-01
1.700000000000000178e+00 -4.886950521166087691e-02 7.793119477958461161e-01 -5.631799960875440991e-01
1.800000000000000266e+00 -4.731198716528300929e-02 5.667520015172690107e-01 -7.872754209638561651e-01
1.900000000000000133e+00 -4.601414816691719312e-02 2.981735600907699513e-01 -9.341171554036257207e-01
2.000000000000000000e+00 -4.490522564322891458e-02 -8.209383638334105898e-05 -9.891477124386999220e-01
2.100000000000000089e+00 -4.393987459089583603e-02 -2.987440930085826785e-01 -9.468946602425469816e-01
2.200000000000000178e+00 -4.308764739018017959e-02 -5.684975877797104893e-01 -8.114759703569143223e-01
2.300000000000000266e+00 -4.232689349205779467e-02 -7.828351260125588906e-01 -5.961840156941980995e-01
2.400000000000000355e+00 -4.164181819907085413e-02 -9.206814276765116212e-01 -3.221625022135699012e-01
2.500000000000000444e+00 -4.102009485221374402e-02 -9.684536013984003100e-01 -1.632165673382630564e-02
2.600000000000000089e+00 -4.045234275814599961e-02 -9.213943566906855898e-01 2.913024238789416187e-01
2.700000000000000178e+00 -3.993085967300765565e-02 -7.840457744342183011e-01 5.704979329669126464e-01
2.800000000000000266e+00 -3.944962481019063244e-02 -5.698050285773477164e-01 7.938483706066071788e-01
2.900000000000000355e+00 -3.900354126075181865e-02 -2.996170565779484596e-01 9.394160375793952911e-01
3.000000000000000444e+00 -3.858839652822854127e-02 7.761163767467517502e-05 9.928974632035300063e-01
3.100000000000000089e+00 -3.820076075771577928e-02 2.999360273771063956e-01 9.490240970613549321e-01
3.200000000000000178e+00 -3.783763934032444154e-02 5.705833708500549495e-01 8.120760576752198423e-01
3.300000000000000266e+00 -3.749643849976241200e-02 7.854895125570825476e-01 5.954670569852290596e-01
3.400000000000000355e+00 -3.717506026286224174e-02 9.235831245554936286e-01 3.204145317814760530e-01
3.500000000000000444e+00 -3.687154278286743775e-02 9.712995584169656915e-01 1.388357695056567122e-02
3.600000000000000089e+00 -3.658435606597251061e-02 9.239286854092545465e-01 -2.940876479978600799e-01
3.700000000000000178e+00 -3.631194208596724704e-02 7.860716180527287378e-01 -5.733053774102204736e-01
3.800000000000000266e+00 -3.605317013367278361e-02 5.711942553795945621e-01 -7.963983965575394119e-01
3.900000000000000355e+00 -3.580675515630797612e-02 3.003114371219968715e-01 -9.414925176542003893e-01
4.000000000000000000e+00 -3.557192408796753386e-02 -7.087007676577395819e-05 -9.943563419330105901e-01
4.099999999999999645e+00 -3.534760830282910465e-02 -3.005443106631371375e-01 -9.497961547907513014e-01
4.200000000000000178e+00 -3.513310674939056771e-02 -5.716899312752651285e-01 -8.121643723805611614e-01
4.299999999999999822e+00 -3.492770007940869392e-02 -7.869436791340510551e-01 -5.949369546905994843e-01
4.399999999999999467e+00 -3.473070307025105663e-02 -9.252135915227717167e-01 -3.193882994570104716e-01
4.500000000000000000e+00 -3.454160822943919823e-02 -9.729394888230297189e-01 -1.250624365983168951e-02
4.599999999999999645e+00 -3.435985254582719917e-02 -9.254225830507606387e-01 2.956441236382489901e-01
4.700000000000000178e+00 -3.418494865038306657e-02 -7.872901671424351600e-01 5.748747343133461252e-01
4.799999999999999822e+00 -3.401650735824370692e-02 -5.720459068668177771e-01 7.978255882302305313e-01
4.900000000000000355e+00 -3.385410464984858064e-02 -3.007448861770077864e-01 9.426523244735305340e-01
5.000000000000000000e+00 -3.369739190741516399e-02 6.552345119432935114e-05 9.951601379601326958e-01
5.099999999999999645e+00 -3.354600228975374021e-02 3.009359801518730060e-01 9.501958692263187123e-01
5.200000000000000178e+00 -3.339965117150079515e-02 5.724104913310444909e-01 8.121556566502287078e-01
5.299999999999999822e+00 -3.325811192281284689e-02 7.879029688261522946e-01 5.945531561014246735e-01
5.400000000000000355e+00 -3.312102095569461474e-02 9.263052504200487425e-01 3.186929127688982177e-01
5.500000000000000000e+00 -3.298818305683122454e-02 9.740492796590832780e-01 1.159516136405105806e-02
5.599999999999999645e+00 -3.285943447101796061e-02 9.264442441760102342e-01 -2.966696848785099760e-01
5.700000000000000178e+00 -3.273447726589073098e-02 7.881326883530839211e-01 -5.759058151246065904e-01
5.799999999999999822e+00 -3.261317243205918981e-02 5.726406240430153005e-01 -7.987622383797103875e-01
5.900000000000000355e+00 -3.249532291055915595e-02 3.010480871787095669e-01 -9.434115636037265773e-01
6.000000000000000000e+00 -3.238079253852648581e-02 -6.151582778397605923e-05 -9.956792693262983551e-01
6.099999999999999645e+00 -3.226938750523684202e-02 -3.012159557472931515e-01 -9.504412175374717942e-01
6.200000000000000178e+00 -3.216095218403762501e-02 -5.729327482992406795e-01 -8.121202810354989365e-01
6.299999999999999822e+00 -3.205540712025338468e-02 -7.886024559534360323e-01 -5.942590139338523869e-01
6.400000000000000355e+00 -3.195259164124240880e-02 -9.271049130099118241e-01 -3.181868833516344752e-01
6.500000000000000000e+00 -3.185236552052874565e-02 -9.748689406286251691e-01 -1.093430274255296347e-02
6.599999999999999645e+00 -3.175468813614759633e-02 -9.272040611606865435e-01 2.974087840338611732e-01
6.700000000000000178e+00 -3.165934714073275619e-02 -7.887636273717241187e-01 5.766474381918148540e-01
6.799999999999999822e+00 -3.156634922110009706e-02 -5.730886755768354046e-01 7.994352160966451404e-01
6.900000000000000355e+00 -3.147553534686128862e-02 -3.012777020249212123e-01 9.439552584081588593e-01
7.000000000000000000e+00 -3.138680388073388644e-02 5.796973410042338052e-05 9.960470296223304931e-01
7.099999999999999645e+00 -3.130012862604512891e-02 3.014332656185028658e-01 9.506065040906380714e-01
7.200000000000000178e+00 -3.121541140931790442e-02 5.733340699056778123e-01 8.120793218576123351e-01
7.299999999999999822e+00 -3.113254902507588823e-02 7.891448808944524496e-01 5.940233969274308912e-01
7.400000000000000355e+00 -3.105152268786425321e-02 9.277276475694680169e-01 3.177913048135084795e-01
7.500000000000000000e+00 -3.097219579612201651e-02 9.755088221610969113e-01 1.043058667392186140e-02
7.599999999999999645e+00 -3.089455152419070399e-02 9.277995303001093097e-01 -2.979755098476612463e-01
7.700000000000000178e+00 -3.081854442904341865e-02 7.892594926787300791e-01 -5.772153614981724301e-01
7.799999999999999822e+00 -3.074407504437660574e-02 5.734394268460609734e-01 -7.999510711547546116e-01
7.900000000000000355e+00 -3.067110527292426711e-02 3.014641457968612603e-01 -9.443669859448330373e-01
8.000000000000000000e+00 -3.059958003887353756e-02 -5.698369696006487636e-05 -9.963238673627019537e-01
8.099999999999999645e+00 -3.052946068600309593e-02 -3.016043827687093781e-01 -9.507269645953909665e-01
8.199999999999999289e+00 -3.046071173228344364e-02 -5.736534328345775924e-01 -8.120404752914571755e-01
8.300000000000000711e+00 -3.039332486462600902e-02 -7.895796744301525338e-01 -5.938336156479251393e-01
8.400000000000000355e+00 -3.032709345009769464e-02 -9.282296381805003049e-01 -3.174781123340837397e-01
8.500000000000000000e+00 -3.026215101397022877e-02 -9.760279768712494253e-01 -1.002202790895962738e-02
8.599999999999999645e+00 -3.019840387832098752e-02 -9.282850240161111266e-01 2.984246957180413662e-01
8.699999999999999289e+00 -3.013577322100415359e-02 -7.896657617986392319e-01 5.776654994880181526e-01
8.800000000000000711e+00 -3.007428244824844610e-02 -5.737315513891547702e-01 8.003574221089867491e-01
8.900000000000000355e+00 -3.001390218336288593e-02 -3.016130520728822484e-01 9.446945311755911012e-01
9.000000000000000000e+00 -2.995452297377411768e-02 5.417632697338442793e-05 9.965413474356052959e-01
9.099999999999999645e+00 -2.989618851823431372e-02 3.017468492479240538e-01 9.508180039830741448e-01
9.199999999999999289e+00 -2.983883036825325449e-02 5.739239670690827744e-01 8.119988048058830454e-01
9.300000000000000711e+00 -2.978245173730632162e-02 7.899413478703173341e-01 5.936734202777516067e-01
9.400000000000000355e+00 -2.972697725830389034e-02 9.286488827831154147e-01 3.172144488822166708e-01
9.500000000000000000e+00 -2.967238121306399121e-02 9.764611835412763119e-01 9.688869333141291590e-03
9.599999999999999645e+00 -2.961871319802269684e-02 9.286901052447705807e-01 -2.987971217511531385e-01
9.700000000000001066e+00 -2.956586125641225832e-02 7.900051180480699431e-01 -5.780367693715291466e-01
9.800000000000000711e+00 -2.951384563291343036e-02 5.739744916076368053e-01 -8.006922452199792817e-01
9.900000000000000355e+00 -2.946266728652370895e-02 3.017366637877798019e-01 -9.449627810112365411e-01
1.000000000000000000e+01 -2.941227985609814674e-02 -5.349822166360735905e-05 -9.967177568492151529e-01
