1.000000000000000056e-01 2.797722545690551482e-02 1.068459502961203733e-01 -9.579071023399645668e-01
2.000000000000000111e-01 2.874248236943122495e-03 1.169096217793023744e-02 -8.372761915818303091e-01
2.999999999999999889e-01 3.057366389417368551e-05 1.379999171025213982e-04 -6.535781210337885394e-01
4.000000000000000222e-01 3.870983216422370726e-08 2.078427910675489452e-07 -4.294744739188702254e-01
5.000000000000000000e-01 5.673679010047612592e-12 4.199223899747608639e-11 -1.913126659985422418e-01
5.999999999999999778e-01 -1.602909199220629283e-17 1.318950497429051994e-15 3.497369485705901365e-02
6.999999999999999556e-01 -1.197161350962053902e-16 4.501622323105363127e-16 2.275204562837978006e-01
7.999999999999999334e-01 1.781948305848757540e-15 5.237602212673953834e-16 3.711380693930674268e-01
8.999999999999999112e-01 1.999641163254252468e-15 1.239899342291305282e-15 4.585493250878164839e-01
9.999999999999998890e-01 6.531296006815892306e-16 5.563181007023777710e-16 4.902009945336503471e-01
1.099999999999999867e+00 2.435346815811038599e-17 3.426486236411794462e-15 4.729355999517798059e-01
1.199999999999999956e+00 2.215627681482648291e-16 2.191872377523198647e-15 4.179208302690482491e-01
1.300000000000000044e+00 5.747154561951353436e-16 8.580874342831859334e-16 3.383405580032577964e-01
1.399999999999999911e+00 5.285426083859197178e-16 7.477788662222904733e-16 2.472751069005033608e-01
1.500000000000000000e+00 4.043388655035329344e-17 4.317069126843451892e-16 1.560713263564449949e-01
1.599999999999999867e+00 1.310708666062367606e-16 3.522396678325802484e-17 7.334563653288940499e-02
1.699999999999999956e+00 -7.054183104120756722e-18 1.516609506063577102e-17 4.623982407397911852e-03
1.800000000000000044e+00 -3.462597979633385541e-17 -2.698550229525228794e-16 -4.750595599993550494e-02
1.899999999999999911e+00 -4.903317070072319074e-17 -3.368458400428368239e-16 -8.288549797248796758e-02
2.000000000000000000e+00 -5.387978291302762864e-17 -3.565888828562016578e-16 -1.031027070299499609e-01
2.099999999999999645e+00 -6.636889171914743458e-17 -2.191561087227531693e-16 -1.107919969595976550e-01
2.199999999999999734e+00 -5.825942216648206045e-17 -1.018298630254968276e-16 -1.090116732601599803e-01
2.299999999999999822e+00 -3.106321458372001707e-17 -3.092280651475550035e-16 -1.007759893918009353e-01
2.399999999999999911e+00 -3.731341230114793490e-17 -2.395228035605962056e-16 -8.873998157168382084e-02
2.500000000000000000e+00 -3.085134736076750700e-17 -3.329078575937370983e-16 -7.503939583264608582e-02
2.600000000000000089e+00 -2.096820629693987191e-17 -2.702967981380685743e-16 -6.124395583595134557e-02
2.699999999999999734e+00 -2.528346678985569038e-17 -1.781154533973857853e-16 -4.839621667818058692e-02
2.799999999999999822e+00 -1.182614775431669000e-17 -1.206361070592629534e-16 -3.709321333897312722e-02
2.899999999999999911e+00 -1.471835512033090945e-17 -7.933873961565256137e-17 -2.759091863810688230e-02
3.000000000000000000e+00 -1.020301330976282839e-17 -3.337081541183323111e-17 -1.990399989221474167e-02
