1.000000000000000056e-01 5.130661196142273332e-03 1.129612945147179942e-01 -9.928660806807381167e-01
3.071428571428571619e-01 -1.971845477695721369e-02 3.380882131157220694e-01 -9.340818877568201062e-01
5.142857142857142350e-01 -1.425694473077860902e-01 5.197744637342156526e-01 -8.228870512573993601e-01
7.214285714285714191e-01 -3.863167076882844109e-01 5.848709929539720465e-01 -6.735394146094060286e-01
9.285714285714284921e-01 -6.913492336284998707e-01 4.369178177024166110e-01 -5.047860979787420765e-01
1.135714285714285676e+00 -8.905588446647734191e-01 2.963877058894920369e-02 -3.346220087631648910e-01
1.342857142857142971e+00 -7.665385079757753850e-01 -5.236694064933380410e-01 -1.724969217783980935e-01
1.550000000000000044e+00 -2.286734906468752271e-01 -9.090141765218952008e-01 -1.418931360135352801e-02
1.757142857142857117e+00 4.881295362296905194e-01 -7.774928391967789176e-01 1.513554792834583274e-01
1.964285714285714191e+00 8.586102580358533354e-01 -1.026444381042213028e-01 3.211457234100175140e-01
2.171428571428571264e+00 5.021524624266691106e-01 6.062601951167901904e-01 4.630092964006214951e-01
2.378571428571428559e+00 -2.973070216273494548e-01 6.621718846535515901e-01 5.374855157714697462e-01
2.585714285714285854e+00 -7.022301610478162148e-01 -1.312707557389117957e-02 5.509007110536303653e-01
2.792857142857142705e+00 -2.560904340484801978e-01 -6.227668915231502345e-01 5.698876509406636259e-01
3.000000000000000000e+00 4.214602288026104704e-01 -4.083378972007764562e-01 6.453234440518251791e-01
