1.000000000000000056e-01 -2.882520138882495593e-11 -6.916634158024054219e-11 -9.998874446110858072e-01
2.000000000000000111e-01 -1.215308739062940397e-11 -2.812414873822405117e-11 -9.995502035546476316e-01
2.999999999999999889e-01 1.328106484830799956e-11 1.435152736960873205e-11 -9.989895496408143227e-01
4.000000000000000222e-01 7.343019740726448390e-11 7.618529471205037876e-11 -9.982075958402832905e-01
5.000000000000000000e-01 2.268346161889625697e-10 2.190242108364253614e-10 -9.972072827956746099e-01
5.999999999999999778e-01 5.533971886397437366e-10 5.398905048154054021e-10 -9.959923614974122152e-01
6.999999999999999556e-01 1.143954128880546655e-09 1.160791418651080384e-09 -9.945673712814721013e-01
7.999999999999999334e-01 2.081303988598330488e-09 2.226216831863171322e-09 -9.929376133474827615e-01
8.999999999999999112e-01 3.412625878418866470e-09 3.883484791669285994e-09 -9.911091200340074181e-01
9.999999999999998890e-01 5.115726247644703830e-09 6.259522112520821337e-09 -9.890886201231436914e-01
1.099999999999999867e+00 7.079642492802400126e-09 9.431036764046373351e-09 -9.868835004778884201e-01
1.199999999999999956e+00 9.060483989934801949e-09 1.337575150926100362e-08 -9.845017643434937904e-01
1.300000000000000044e+00 1.067060410648766316e-08 1.793614693090002143e-08 -9.819519866669114139e-01
1.399999999999999911e+00 1.136852945903051155e-08 2.276181771475202050e-08 -9.792432668074476654e-01
1.500000000000000000e+00 1.046877009940138641e-08 2.726590264630578525e-08 -9.763851790254974850e-01
1.599999999999999867e+00 7.172588862667736296e-09 3.057802200815650176e-08 -9.733877211459542877e-01
1.699999999999999956e+00 6.258517305218629940e-10 3.152049011326717572e-08 -9.702612617975154841e-01
1.800000000000000044e+00 -9.997882715115670466e-09 2.858546077308483544e-08 -9.670164866294178596e-01
1.899999999999999911e+00 -2.539834672745340640e-08 1.995689244767782370e-08 -9.636643439032731573e-01
2.000000000000000000e+00 -4.602012284768644343e-08 3.554551204368744338e-09 -9.602159898495440382e-01
2.099999999999999645e+00 -7.192415984176555087e-08 -2.287893440714682546e-08 -9.566827341662842432e-01
2.199999999999999734e+00 -1.026440717463297116e-07 -6.165024996350467865e-08 -9.530759860228091851e-01
2.299999999999999822e+00 -1.370692462380892225e-07 -1.149405484224607247e-07 -9.494072009124314704e-01
2.399999999999999911e+00 -1.733505360511115423e-07 -1.845812607528794321e-07 -9.456878286777194997e-01
2.500000000000000000e+00 -2.088395740325689983e-07 -2.718021858290294442e-07 -9.419292630085753792e-01
2.600000000000000089e+00 -2.401078293428575596e-07 -3.769407690494303772e-07 -9.381427926886150015e-01
2.699999999999999734e+00 -2.630185969456100836e-07 -4.991441474132590799e-07 -9.343395548392026129e-01
2.799999999999999822e+00 -2.729090582023490746e-07 -6.360767605445095334e-07 -9.305304903833231389e-01
2.899999999999999911e+00 -2.648504582863310304e-07 -7.836603587528028537e-07 -9.267263019240054023e-01
3.000000000000000000e+00 -2.340113024851124983e-07 -9.358730970941964560e-07 -9.229374142040156492e-01
