0.000000000000000000e+00 -3.457663132115218612e-09 1.603704897791012587e-09 -1.000000000000000000e+00
1.128205128205128360e-01 3.269468869395806276e-01 1.558589799142870713e-01 -9.321000247140244221e-01
2.256410256410256721e-01 5.876137085034466301e-01 3.240842390514750426e-01 -7.413991409575690916e-01
3.384615384615384803e-01 7.296618315673910615e-01 5.032021675684514861e-01 -4.630024650234166317e-01
4.512820512820513441e-01 7.269452167684224975e-01 6.714204833329163735e-01 -1.439916547853491713e-01
5.641025641025642079e-01 5.873704075816310599e-01 7.914487571506405583e-01 1.690957296964166467e-01
6.769230769230769607e-01 3.528699555014735978e-01 8.253184315050126063e-01 4.408197795588128520e-01
7.897435897435898244e-01 8.910583616156880771e-02 7.527685249852981153e-01 6.522205561650901151e-01
9.025641025641026882e-01 -1.338618794113965726e-01 5.841704856031867399e-01 8.005122460837816867e-01
1.015384615384615552e+00 -2.640606969106597535e-01 3.608396749637983736e-01 8.944621393961732503e-01
1.128205128205128416e+00 -2.844515745520352912e-01 1.412082149997917480e-01 9.482324302307802988e-01
1.241025641025641280e+00 -2.163283870972395884e-01 -2.146692049478673980e-02 9.760836831548223014e-01
1.353846153846153921e+00 -1.072390835013528609e-01 -9.941828328202521881e-02 9.892494964276088432e-01
1.466666666666666785e+00 -8.704854725720585773e-03 -9.877270453369937919e-02 9.950715255953423988e-01
1.579487179487179649e+00 4.546241157295616980e-02 -5.218755150605644544e-02 9.976016393935748239e-01
1.692307692307692513e+00 4.994506810738658792e-02 -1.567207801022665881e-04 9.987517367796623358e-01
1.805128205128205376e+00 2.352511069144673159e-02 2.859663942442863815e-02 9.993140002626060836e-01
1.917948717948718240e+00 -6.382623763837369686e-03 2.742701839045142559e-02 9.996033027547505112e-01
2.030769230769231104e+00 -2.028831661049234486e-02 8.601616085581914248e-03 9.997570656882650564e-01
2.143589743589743968e+00 -1.504226840560325684e-02 -9.285553816814822586e-03 9.998436576660583164e-01
2.256410256410256832e+00 -7.720313087060696675e-04 -1.438723346582089155e-02 9.998961301657791623e-01
2.369230769230769695e+00 9.490542321568391088e-03 -7.162714951845305413e-03 9.999292510773989395e-01
2.482051282051282559e+00 9.392004433191769586e-03 3.385475735438115558e-03 9.999501125864987960e-01
2.594871794871795423e+00 1.919862313350609827e-03 8.317329696797519031e-03 9.999635233587704786e-01
2.707692307692307843e+00 -5.143160987684456710e-03 5.276228659394569323e-03 9.999728157589820032e-01
2.820512820512820706e+00 -6.257961794289557123e-03 -1.319046315838291001e-03 9.999795148560433056e-01
2.933333333333333570e+00 -1.896811632551263522e-03 -5.259754402498021189e-03 9.999843383452376999e-01
3.046153846153846434e+00 3.109469062154210286e-03 -3.860909672006495198e-03 9.999876851829506696e-01
3.158974358974359298e+00 4.406889935065431106e-03 5.804405724944023542e-04 9.999900966521324541e-01
3.271794871794872162e+00 1.614119643889394291e-03 3.649272331201787196e-03 9.999920164386613131e-01
3.384615384615385025e+00 -2.064314219463987167e-03 2.932999794380050824e-03 9.999935477782549986e-01
3.497435897435897889e+00 -3.233647067801495838e-03 -2.680967410543437599e-04 9.999947172869719791e-01
3.610256410256410753e+00 -1.277420791663543562e-03 -2.685654041967674554e-03 9.999955605906073464e-01
3.723076923076923617e+00 1.536073768561711230e-03 -2.269295002217910050e-03 9.999962294638546911e-01
3.835897435897436480e+00 2.514082204885900295e-03 1.586787097677045582e-04 9.999968123388431884e-01
3.948717948717949344e+00 1.028922966144032222e-03 2.074342910689939978e-03 9.999973055249110621e-01
4.061538461538462208e+00 -1.202976953054027106e-03 1.771559132200886330e-03 9.999976944414664670e-01
4.174358974358974628e+00 -1.994681563807142351e-03 -1.624338725259566723e-04 9.999979854328180373e-01
4.287179487179487936e+00 -7.980789816168440409e-04 -1.702174945113738664e-03 9.999982214753075915e-01
4.400000000000000355e+00 1.010815357648993298e-03 -1.431691727835943768e-03 9.999984535757591164e-01
