0.000000000000000000e+00 -2.367628468859684821e-09 -5.822703043024554540e-10 -1.000000000000000000e+00
1.128205128205128360e-01 3.527602625046512008e-01 -1.139377019009121805e-02 -9.356430719583010980e-01
2.256410256410256721e-01 6.562661969222067793e-01 -7.789559647479502025e-03 -7.544858069641114939e-01
3.384615384615384803e-01 8.722034377184348930e-01 1.895625292518549054e-02 -4.887681492532594540e-01
4.512820512820513441e-01 9.810557019056644901e-01 6.660251042957854306e-02 -1.818927147245318898e-01
5.641025641025642079e-01 9.846699115756656351e-01 1.237674798888951377e-01 1.228731078340677685e-01
6.769230769230769607e-01 9.031632951248138585e-01 1.750674609403949922e-01 3.919685745013768985e-01
7.897435897435898244e-01 7.675365276028482953e-01 2.074464438401718014e-01 6.065039265327867302e-01
9.025641025641026882e-01 6.106634654075587809e-01 2.147121920755283575e-01 7.622228705608050658e-01
1.015384615384615552e+00 4.596230530967412298e-01 1.985720606052501225e-01 8.656281696756373822e-01
1.128205128205128416e+00 3.313982625970957607e-01 1.664638854196613393e-01 9.286885355006627707e-01
1.241025641025641280e+00 2.325184650943603326e-01 1.277616024624909363e-01 9.641630425652939484e-01
1.353846153846153921e+00 1.615893976666385456e-01 9.041587747082655002e-02 9.827067923475435451e-01
1.466666666666666785e+00 1.130409460738613647e-01 5.918025712602338617e-02 9.918259030026740364e-01
1.579487179487179649e+00 8.039583479700972146e-02 3.562136326451157547e-02 9.961260257069518564e-01
1.692307692307692513e+00 5.820538288617382178e-02 1.913836644503671275e-02 9.981209608301053748e-01
1.805128205128205376e+00 4.267636698268170714e-02 8.226164718203692050e-03 9.990549365307727081e-01
1.917948717948718240e+00 3.145933574940257965e-02 1.319029950549239355e-03 9.995040534270243082e-01
2.030769230769231104e+00 2.314733634821147801e-02 -2.840985522285099582e-03 9.997279448742442121e-01
2.143589743589743968e+00 1.687568926483444184e-02 -5.162090928047309395e-03 9.998442055982308396e-01
2.256410256410256832e+00 1.209772684273426220e-02 -6.270843994251478794e-03 9.999071055997877933e-01
2.369230769230769695e+00 8.441798177813691212e-03 -6.598837211619633901e-03 9.999425530244443472e-01
2.482051282051282559e+00 5.647603766627175975e-03 -6.443400935527286016e-03 9.999632593459308882e-01
2.594871794871795423e+00 3.521762150863346017e-03 -5.997524651426114177e-03 9.999757853133656171e-01
2.707692307692307843e+00 1.928619217773816031e-03 -5.394232607247688438e-03 9.999835678851678455e-01
2.820512820512820706e+00 7.423192664462259418e-04 -4.713998024166800131e-03 9.999885937401089553e-01
2.933333333333333570e+00 -1.184251069239177639e-04 -4.020653890509627744e-03 9.999918931565960900e-01
3.046153846153846434e+00 -7.217478801196542532e-04 -3.348197878985454973e-03 9.999941195954529238e-01
3.158974358974359298e+00 -1.125173543972268417e-03 -2.721569428190348701e-03 9.999956506412448487e-01
3.271794871794872162e+00 -1.378162842541430120e-03 -2.147008330710156038e-03 9.999967341853513991e-01
3.384615384615385025e+00 -1.513030483780727128e-03 -1.639438845189937141e-03 9.999975014455096956e-01
3.497435897435897889e+00 -1.555732814991422214e-03 -1.192623679770494528e-03 9.999980697389206918e-01
3.610256410256410753e+00 -1.538201498843028842e-03 -8.056706843037578399e-04 9.999984844077938195e-01
3.723076923076923617e+00 -1.467403283658728170e-03 -4.836672664974187670e-04 9.999987992028905870e-01
3.835897435897436480e+00 -1.364467993920108610e-03 -2.080381064893947925e-04 9.999990409716897899e-01
3.948717948717949344e+00 -1.241511558318783397e-03 9.894311835300078489e-06 9.999992233689868337e-01
4.061538461538462208e+00 -1.107301347998385956e-03 1.894622379389529878e-04 9.999993635939554704e-01
4.174358974358974628e+00 -9.664338748847076978e-04 3.238339034998927819e-04 9.999994756144093833e-01
4.287179487179487936e+00 -8.252590966541395066e-04 4.219824328397125306e-04 9.999995658851186242e-01
4.400000000000000355e+00 -6.900317824257981092e-04 4.969583998650660070e-04 9.999996342311625597e-01
