0.000000000000000000e+00 0.000000000000000000e+00 -4.589814454780309088e-10 -1.000000000000000000e+00
1.128205128205128360e-01 0.000000000000000000e+00 -3.800770704440485370e-01 -9.249548208307096786e-01
2.256410256410256721e-01 0.000000000000000000e+00 -7.031080941879348511e-01 -7.110829823661519722e-01
3.384615384615384803e-01 0.000000000000000000e+00 -9.206089981003293676e-01 -3.904856884543860263e-01
4.512820512820513441e-01 0.000000000000000000e+00 -9.999364079031769492e-01 -1.127741826988258762e-02
5.641025641025642079e-01 0.000000000000000000e+00 -9.291832087001711260e-01 3.696194858558121688e-01
6.769230769230769607e-01 0.000000000000000000e+00 -7.189683005966999163e-01 6.950428640580895712e-01
7.897435897435898244e-01 0.000000000000000000e+00 -4.008405250513643603e-01 9.161478448885704839e-01
9.025641025641026882e-01 0.000000000000000000e+00 -2.255357354263445510e-02 9.997456357863234722e-01
1.015384615384615552e+00 0.000000000000000000e+00 3.591169603548693412e-01 9.332925635868597469e-01
1.128205128205128416e+00 0.000000000000000000e+00 6.868888514062415629e-01 7.267624826689738082e-01
1.241025641025641280e+00 0.000000000000000000e+00 9.115674735174044141e-01 4.111505094631356383e-01
1.353846153846153921e+00 0.000000000000000000e+00 9.994276782474654786e-01 3.382773333742383065e-02
1.466666666666666785e+00 0.000000000000000000e+00 9.372818163904828026e-01 -3.485725139362438330e-01
1.579487179487179649e+00 0.000000000000000000e+00 7.344604399688164920e-01 -6.786515034614359898e-01
1.692307692307692513e+00 0.000000000000000000e+00 4.214038332132408748e-01 -9.068730953644642545e-01
1.805128205128205376e+00 0.000000000000000000e+00 4.509645941593158625e-02 -9.989826379439130655e-01
1.917948717948718240e+00 0.000000000000000000e+00 -3.379757415473649829e-01 -9.411548225063729456e-01
2.030769230769231104e+00 0.000000000000000000e+00 -6.703243758978928435e-01 -7.420682113080301345e-01
2.143589743589743968e+00 0.000000000000000000e+00 -9.020635132275592882e-01 -4.316033116981683460e-01
2.256410256410256832e+00 0.000000000000000000e+00 -9.984105406888195144e-01 -5.635948920403103385e-02
2.369230769230769695e+00 0.000000000000000000e+00 -9.449064359651901945e-01 3.273405342738776591e-01
2.482051282051282559e+00 0.000000000000000000e+00 -7.495806308162151765e-01 6.619130441367198081e-01
2.594871794871795423e+00 0.000000000000000000e+00 -4.417476413802394752e-01 8.971393553297136725e-01
2.707692307692307843e+00 0.000000000000000000e+00 -6.761776221234885864e-02 9.977112990962828665e-01
2.820512820512820706e+00 0.000000000000000000e+00 3.166662071101199460e-01 9.485370412515589100e-01
2.933333333333333570e+00 0.000000000000000000e+00 6.534185338824514133e-01 7.569968427982287640e-01
3.046153846153846434e+00 0.000000000000000000e+00 8.921007688114196421e-01 4.518364877288494896e-01
3.158974358974359298e+00 0.000000000000000000e+00 9.968855422953741829e-01 7.886202174224860029e-02
3.271794871794872162e+00 0.000000000000000000e+00 9.520487623115364562e-01 -3.059463247242827366e-01
3.384615384615385025e+00 0.000000000000000000e+00 7.643203059896823692e-01 -6.448367774496845950e-01
3.497435897435897889e+00 0.000000000000000000e+00 4.618688872409468793e-01 -8.869482177018378488e-01
3.610256410256410753e+00 0.000000000000000000e+00 9.009886133454517165e-02 -9.959328266280667030e-01
3.723076923076923617e+00 0.000000000000000000e+00 -2.951931875305977004e-01 -9.554375865238735610e-01
3.835897435897436480e+00 0.000000000000000000e+00 -6.361813386315643415e-01 -7.715395677335419311e-01
3.948717948717949344e+00 0.000000000000000000e+00 -8.816826696676849373e-01 -4.718428259610342179e-01
4.061538461538462208e+00 0.000000000000000000e+00 -9.948531385268279958e-01 -1.013273524694426192e-01
4.174358974358974628e+00 0.000000000000000000e+00 -9.587067589523500244e-01 2.843964601633635625e-01
4.287179487179487936e+00 0.000000000000000000e+00 -7.786659922921401744e-01 6.274386355275619609e-01
4.400000000000000355e+00 0.000000000000000000e+00 -4.817545914148674280e-01 8.763061694921615574e-01
