0.000000000000000000e+00 -7.735783543005124407e-10 -5.118845901260614873e-09 -1.000000000000000000e+00
1.128205128205128360e-01 4.883556436665836831e-02 3.496830278517229496e-01 -9.355901097885515050e-01
2.256410256410256721e-01 8.971725508588732079e-02 6.510150690614239233e-01 -7.537328495125408256e-01
3.384615384615384803e-01 1.180803413341157126e-01 8.661386764876592981e-01 -4.856295786141859305e-01
4.512820512820513441e-01 1.345274489328195378e-01 9.754112150326256225e-01 -1.744884070955623201e-01
5.641025641025642079e-01 1.444344252505410930e-01 9.802702985794258250e-01 1.348311313273178325e-01
6.769230769230769607e-01 1.554451380653911752e-01 9.007248163168095623e-01 4.055926005498289300e-01
7.897435897435898244e-01 1.739732883253029549e-01 7.685047030265591550e-01 6.157209403162170469e-01
9.025641025641026882e-01 2.022546826830946831e-01 6.180349411573199392e-01 7.596769747889300373e-01
1.015384615384615552e+00 2.372314706821095076e-01 4.779690833208940504e-01 8.457267359263134221e-01
1.128205128205128416e+00 2.717237677460477840e-01 3.655875052771154210e-01 8.902253561318109742e-01
1.241025641025641280e+00 2.974228787454510359e-01 2.852976541793029175e-01 9.111176079277599760e-01
1.353846153846153921e+00 3.082779560550255593e-01 2.311111156715421333e-01 9.227911418706986613e-01
1.466666666666666785e+00 3.029451912183430129e-01 1.917205428084177987e-01 9.335198474374667432e-01
1.579487179487179649e+00 2.851916732568918755e-01 1.560931501586527437e-01 9.456708441359737982e-01
1.692307692307692513e+00 2.621576727328319145e-01 1.176460082944874308e-01 9.578237829270539461e-01
1.805128205128205376e+00 2.413533498896856533e-01 7.573983004639420202e-02 9.674742903435709085e-01
1.917948717948718240e+00 2.276603695626860102e-01 3.446342785683252641e-02 9.731279588596564167e-01
2.030769230769231104e+00 2.216599742003848017e-01 -3.969937203892326405e-04 9.751214750236960604e-01
2.143589743589743968e+00 2.199595415401864318e-01 -2.463562337184573015e-02 9.751954127131546857e-01
2.256410256410256832e+00 2.171864020600180467e-01 -3.776654839607357372e-02 9.753968306240267117e-01
2.369230769230769695e+00 2.087448130848330585e-01 -4.315844961559248127e-02 9.770150154527542652e-01
2.482051282051282559e+00 1.929874957789419754e-01 -4.637248474564371892e-02 9.801026166946863460e-01
2.594871794871795423e+00 1.718890948351891601e-01 -5.257293923709731309e-02 9.837105068775748862e-01
2.707692307692307843e+00 1.499697030266282372e-01 -6.426848894300250803e-02 9.865977660064552124e-01
2.820512820512820706e+00 1.320621478195383169e-01 -8.041352684368160975e-02 9.879726415985085053e-01
2.933333333333333570e+00 1.210450257153058429e-01 -9.718222226862814617e-02 9.878767095648698371e-01
3.046153846153846434e+00 1.165429869334476398e-01 -1.099967615384632169e-01 9.870739653284089643e-01
3.158974358974359298e+00 1.152583226943136446e-01 -1.157992013916804008e-01 9.865609773999487464e-01
3.271794871794872162e+00 1.126293815771390039e-01 -1.145020417814419933e-01 9.870159409015020202e-01
3.384615384615385025e+00 1.050704663765568564e-01 -1.089736884133852557e-01 9.884744260678738348e-01
3.497435897435897889e+00 9.165552093584115878e-02 -1.036305467996404134e-01 9.903822578774567065e-01
3.610256410256410753e+00 7.448860763109922678e-02 -1.023243845269534158e-01 9.919568821438877748e-01
3.723076923076923617e+00 5.760675519584379511e-02 -1.065613978087535108e-01 9.926346445566657239e-01
3.835897435897436480e+00 4.500422235193887038e-02 -1.148762450948074831e-01 9.923585167785162753e-01
3.948717948717949344e+00 3.868901428991621677e-02 -1.236428858792341101e-01 9.915708873182625949e-01
4.061538461538462208e+00 3.777827169573991228e-02 -1.288750154896984856e-01 9.909395327401662179e-01
4.174358974358974628e+00 3.895804164126664970e-02 -1.281818455522384659e-01 9.909837642950318770e-01
4.287179487179487936e+00 3.813823100012264655e-02 -1.218937346973749114e-01 9.918087805746313990e-01
4.400000000000000355e+00 3.243403598144371791e-02 -1.128830984320288305e-01 9.930774987853647762e-01
