0.000000000000000000e+00 -3.498551510543198741e-09 1.405100538762808254e-10 -1.000000000000000000e+00
1.128205128205128360e-01 -2.864739562505255188e-01 2.335680060884635090e-01 -9.291788415961610426e-01
2.256410256410256721e-01 -5.493665849037093762e-01 4.060395251997417354e-01 -7.302855601000831642e-01
3.384615384615384803e-01 -7.627637522410892768e-01 4.737698918667279657e-01 -4.401333316888437763e-01
4.512820512820513441e-01 -8.996051254504260353e-01 4.229947175049568187e-01 -1.084778952744530761e-01
5.641025641025642079e-01 -9.375132167925079862e-01 2.735620322135287608e-01 2.149759075745105441e-01
6.769230769230769607e-01 -8.675658350902383242e-01 7.252562145023516704e-02 4.919898596892707809e-01
7.897435897435898244e-01 -7.017291132568846956e-01 -1.207801085012980835e-01 7.021228765926197379e-01
9.025641025641026882e-01 -4.743100049538049867e-01 -2.536451316903861608e-01 8.430218850487509741e-01
1.015384615384615552e+00 -2.350261234001998767e-01 -2.965119919698349094e-01 9.256554008973698622e-01
1.128205128205128416e+00 -3.499809766280292944e-02 -2.512838635669716880e-01 9.672786946048945733e-01
1.241025641025641280e+00 8.922532813112735162e-02 -1.481786920573824884e-01 9.849261812668461680e-01
1.353846153846153921e+00 1.270933801713296230e-01 -3.243333645064409160e-02 9.913594642125499456e-01
1.466666666666666785e+00 9.575184744426701311e-02 5.386985648364293888e-02 9.939457427567197634e-01
1.579487179487179649e+00 3.111098224404507812e-02 8.727447615623185051e-02 9.956977539306689495e-01
1.692307692307692513e+00 -2.788626829150482253e-02 6.950973077959508861e-02 9.971909202898440183e-01
1.805128205128205376e+00 -5.485388153151585927e-02 2.284937696945184976e-02 9.982325044763850075e-01
1.917948717948718240e+00 -4.451955731657732118e-02 -2.289108207765758532e-02 9.987458662512835872e-01
2.030769230769231104e+00 -1.091988610930431404e-02 -4.503304212333580220e-02 9.989254863234721116e-01
2.143589743589743968e+00 2.296407704122620935e-02 -3.744114002507732686e-02 9.990346291674847556e-01
2.256410256410256832e+00 3.835377410521346314e-02 -1.060528532413882938e-02 9.992076603989439310e-01
2.369230769230769695e+00 2.977160324707235975e-02 1.659480586311117695e-02 9.994187163261026852e-01
2.482051282051282559e+00 5.927585135267705863e-03 2.835153021270003446e-02 9.995802263442594704e-01
2.594871794871795423e+00 -1.717052606629237629e-02 2.017413128294306274e-02 9.996488308331765715e-01
2.707692307692307843e+00 -2.625322153022331684e-02 -1.638228379491658837e-04 9.996551168905707385e-01
2.820512820512820706e+00 -1.806488180300477170e-02 -1.871757751640642717e-02 9.996614061387628647e-01
2.933333333333333570e+00 -6.178581006736211245e-05 -2.434123742016160163e-02 9.997035247881549402e-01
3.046153846153846434e+00 1.529199759967504388e-02 -1.501936029659074051e-02 9.997700985978900112e-01
3.158974358974359298e+00 1.860049271219422692e-02 1.886970389932008524e-03 9.998250721190079515e-01
3.271794871794872162e+00 8.976015277311309715e-03 1.510463195829924235e-02 9.998454933090415997e-01
3.384615384615385025e+00 -6.237691241632884777e-03 1.680616886189733802e-02 9.998391711088081557e-01
3.497435897435897889e+00 -1.682287250532208192e-02 7.183319300953794513e-03 9.998325411899336990e-01
3.610256410256410753e+00 -1.639785938840091634e-02 -6.365763360708036334e-03 9.998451461038970756e-01
3.723076923076923617e+00 -6.191026539353353293e-03 -1.456411560579244820e-02 9.998746477760143136e-01
3.835897435897436480e+00 6.372493111484231476e-03 -1.236791589521592932e-02 9.999030984967234303e-01
3.948717948717949344e+00 1.290700662925155229e-02 -1.917689901452451079e-03 9.999147584185356097e-01
4.061538461538462208e+00 9.624993680455183609e-03 9.371077127039485061e-03 9.999096607764788036e-01
4.174358974358974628e+00 -5.052934934947246604e-04 1.404173487066981418e-02 9.999011717235668506e-01
4.287179487179487936e+00 -1.016050389812674787e-02 9.501705512675595600e-03 9.999031263937719904e-01
4.400000000000000355e+00 -1.280271037472935879e-02 -5.241638167381955371e-04 9.999178024373880369e-01
