0.000000000000000000e+00 8.690048030842478393e-10 2.881421105392547269e-09 -1.000000000000000000e+00
1.128205128205128360e-01 1.510880605292731771e-02 -3.747214437107362350e-01 -9.270107281813794176e-01
2.256410256410256721e-01 5.499231851847447006e-02 -6.897173214461098656e-01 -7.219776601319785048e-01
3.384615384615384803e-01 1.322057986186235268e-01 -8.965065120495911977e-01 -4.228208681236972910e-01
4.512820512820513441e-01 2.400641450287074319e-01 -9.673482042323234831e-01 -8.113929126603593167e-02
5.641025641025642079e-01 3.535779779084714525e-01 -9.010801108378656554e-01 2.510281753789203596e-01
6.769230769230769607e-01 4.383328881449936043e-01 -7.236128847030034450e-01 5.331324582852585703e-01
7.897435897435898244e-01 4.638123182340210260e-01 -4.821526225310223124e-01 7.432317782439431531e-01
9.025641025641026882e-01 4.159266097508279580e-01 -2.337678304234239723e-01 8.788337837912867379e-01
1.015384615384615552e+00 3.035438808880474015e-01 -3.089440570255730378e-02 9.523136918798003059e-01
1.128205128205128416e+00 1.562815450433721887e-01 9.218018956254994678e-02 9.834001524468416466e-01
1.241025641025641280e+00 1.421054289634370721e-02 1.274270405679700791e-01 9.917450632328265181e-01
1.353846153846153921e+00 -8.647511753714706706e-02 9.283579400079178257e-02 9.919180764192311317e-01
1.466666666666666785e+00 -1.260932300404211948e-01 2.381171578183152726e-02 9.917315007624588619e-01
1.579487179487179649e+00 -1.074016254773366291e-01 -4.077390218249107856e-02 9.933783089548362533e-01
1.692307692307692513e+00 -5.259209273115705852e-02 -7.263707680226785812e-02 9.959700913673462663e-01
1.805128205128205376e+00 7.193712486790460048e-03 -6.290109002126573201e-02 9.979932975915537519e-01
1.917948717948718240e+00 4.508142920581811874e-02 -2.246321449736065137e-02 9.987302919319076544e-01
2.030769230769231104e+00 4.870832147957065983e-02 2.565907997159452142e-02 9.984829300485876802e-01
2.143589743589743968e+00 2.333667037748255596e-02 5.813438059978128652e-02 9.980354314576791452e-01
2.256410256410256832e+00 -1.296409893908857108e-02 6.200625868835889232e-02 9.979910187962747203e-01
2.369230769230769695e+00 -3.941631384109250263e-02 3.948202469865494391e-02 9.984420681078830517e-01
2.482051282051282559e+00 -4.279358939916329957e-02 5.181052928971488503e-03 9.990701210385194431e-01
2.594871794871795423e+00 -2.306236598555341799e-02 -2.229234777808278625e-02 9.994851680186702669e-01
2.707692307692307843e+00 7.984696673860494642e-03 -2.993373023062437938e-02 9.995197122983715543e-01
2.820512820512820706e+00 3.377299814361479913e-02 -1.628060275527465003e-02 9.992965830738762545e-01
2.933333333333333570e+00 4.184024469192035300e-02 8.873833416296564303e-03 9.990845295693600026e-01
3.046153846153846434e+00 2.997314404056429515e-02 3.052009792513110317e-02 9.990842720287209655e-01
3.158974358974359298e+00 6.567817683656003436e-03 3.672628007581270337e-02 9.993034481448559436e-01
3.271794871794872162e+00 -1.458866307945212888e-02 2.472740719109040031e-02 9.995875168232785102e-01
3.384615384615385025e+00 -2.203118458666298435e-02 1.768812668426407789e-03 9.997555127650326057e-01
3.497435897435897889e+00 -1.259669676508353223e-02 -1.944939646713177844e-02 9.997312709681923648e-01
3.610256410256410753e+00 7.404012361842395203e-03 -2.795492840343663174e-02 9.995815003169030710e-01
3.723076923076923617e+00 2.616196188871081074e-02 -2.038591849853872359e-02 9.994495336221318471e-01
3.835897435897436480e+00 3.318744189874373723e-02 -2.414974864437122865e-03 9.994459284855961023e-01
3.948717948717949344e+00 2.505340526135866122e-02 1.486413290067638629e-02 9.995753375805949137e-01
4.061538461538462208e+00 6.931754220630616248e-03 2.139361446443800024e-02 9.997468904884797558e-01
4.174358974358974628e+00 -1.071584824197787181e-02 1.370103427595661949e-02 9.998485483797253659e-01
4.287179487179487936e+00 -1.822178728554716895e-02 -3.488640083466562538e-03 9.998277068779224397e-01
4.400000000000000355e+00 -1.209617450431896973e-02 -2.024584058415745264e-02 9.997216369166871397e-01
