0.000000000000000000e+00 -3.970282056348094106e-10 -1.782412958406505002e-09 -1.000000000000000000e+00
1.128205128205128360e-01 1.057916823809479379e-01 3.596440768370915420e-01 -9.270708758193541010e-01
2.256410256410256721e-01 1.627132835172075409e-01 6.715588944400693316e-01 -7.228588231204678971e-01
3.384615384615384803e-01 1.406219668536715650e-01 8.934201681168405518e-01 -4.266312076074578741e-01
4.512820512820513441e-01 3.960789054707614110e-02 9.950787199309731879e-01 -9.075356392530364857e-02
5.641025641025642079e-01 -1.100693398588730165e-01 9.660718850213231290e-01 2.336171008778525349e-01
6.769230769230769607e-01 -2.597903380182894906e-01 8.209461389261504261e-01 5.084736180531528316e-01
7.897435897435898244e-01 -3.614420287319815572e-01 5.985368049732573414e-01 7.149161196041872168e-01
9.025641025641026882e-01 -3.857326226711200734e-01 3.530808608632983181e-01 8.523722958011241690e-01
1.015384615384615552e+00 -3.323046492882071878e-01 1.388793649970535005e-01 9.328893091628246426e-01
1.128205128205128416e+00 -2.275557510856699717e-01 -6.079611929428213601e-03 9.737449376379478938e-01
1.241025641025641280e+00 -1.115864298268705868e-01 -7.054049840837689489e-02 9.912473171249608361e-01
1.353846153846153921e+00 -2.067510331407057880e-02 -6.980064761160885423e-02 9.973463294369773191e-01
1.466666666666666785e+00 2.643746465711797888e-02 -3.524768249408526122e-02 9.990286372395292824e-01
1.579487179487179649e+00 3.253879024340314285e-02 1.143121923013575708e-03 9.994696515711593010e-01
1.692307692307692513e+00 1.552248778105539198e-02 1.969006064040967549e-02 9.996854947685115400e-01
1.805128205128205376e+00 -3.722500191006129430e-03 1.761071708339611783e-02 9.998378913407507396e-01
1.917948717948718240e+00 -1.204839254547300856e-02 4.549644161811190572e-03 9.999169922942527933e-01
2.030769230769231104e+00 -8.148281565379833502e-03 -6.913128582941036743e-03 9.999428440098694360e-01
2.143589743589743968e+00 8.917664701346087602e-04 -9.612871303397036923e-03 9.999533415476633547e-01
2.256410256410256832e+00 6.786747989580411630e-03 -4.545420657544829018e-03 9.999665906681972638e-01
2.369230769230769695e+00 5.960003075918070617e-03 2.206410405217130478e-03 9.999797662051366220e-01
2.482051282051282559e+00 7.397396366679164122e-04 5.091521039374606768e-03 9.999867325449481870e-01
2.594871794871795423e+00 -3.856721538320743471e-03 2.908019407495268834e-03 9.999883042894329721e-01
2.707692307692307843e+00 -4.444241603103585118e-03 -1.375873843284667903e-03 9.999891485394901691e-01
2.820512820512820706e+00 -1.488332754588550695e-03 -3.813168840475777976e-03 9.999915962024092941e-01
2.933333333333333570e+00 1.877967729141071657e-03 -2.737661129660164290e-03 9.999944675416079232e-01
3.046153846153846434e+00 2.818923437994381304e-03 3.654850518891900220e-04 9.999959411827015199e-01
3.158974358974359298e+00 1.007361852444962295e-03 2.628255541240658542e-03 9.999960200270761046e-01
3.271794871794872162e+00 -1.556240280718338732e-03 2.348291863522452508e-03 9.999960130964982152e-01
3.384615384615385025e+00 -2.547083474526117951e-03 2.095922121858500350e-04 9.999967170606968159e-01
3.497435897435897889e+00 -1.329790737513348968e-03 -1.661303897004870380e-03 9.999977213042229307e-01
3.610256410256410753e+00 7.755217212989250382e-04 -1.677844902882157227e-03 9.999982788649643961e-01
3.723076923076923617e+00 1.867496953998223474e-03 -7.596646919848931701e-05 9.999982403806476627e-01
3.835897435897436480e+00 1.161178555471618261e-03 1.544643162478457395e-03 9.999981195132421341e-01
3.948717948717949344e+00 -4.704440694499557526e-04 1.752645536380069424e-03 9.999983408250964212e-01
4.061538461538462208e+00 -1.451787486971424946e-03 5.221705285411673992e-04 9.999987988932258487e-01
4.174358974358974628e+00 -9.683993928791339526e-04 -9.165747573687522097e-04 9.999991014474181039e-01
4.287179487179487936e+00 4.136751847582738513e-04 -1.275818462312139486e-03 9.999990909219295121e-01
4.400000000000000355e+00 1.379819243815251636e-03 -3.664710425447344948e-04 9.999989707017093998e-01
