0.000000000000000000e+00 -1.014699548375000877e-09 -1.683970738104613766e-09 -1.000000000000000000e+00
1.128205128205128360e-01 -6.233412949079492060e-02 -3.570814302923213113e-01 -9.319848922168095795e-01
2.256410256410256721e-01 -8.986500321115631351e-02 -6.668709719024863425e-01 -7.397182382024589664e-01
3.384615384615384803e-01 -5.889173955599741328e-02 -8.881122317807019773e-01 -4.557995222970598892e-01
4.512820512820513441e-01 3.544365104530831229e-02 -9.913562266163666870e-01 -1.261574980598837159e-01
5.641025641025642079e-01 1.766747514982004164e-01 -9.636798596591369392e-01 2.001673324616239924e-01
6.769230769230769607e-01 3.308129813331724955e-01 -8.116666151646175775e-01 4.813788649160845035e-01
7.897435897435898244e-01 4.554333118409477077e-01 -5.616741962652498366e-01 6.907068054803106039e-01
9.025641025641026882e-01 5.116187113532750796e-01 -2.566620151621947787e-01 8.199701825117607923e-01
1.015384615384615552e+00 4.754525494282876297e-01 5.052639079296930569e-02 8.782801849286235862e-01
1.128205128205128416e+00 3.457954726176868387e-01 3.067034018707161525e-01 8.867599802945298482e-01
1.241025641025641280e+00 1.460160449291459661e-01 4.689083701076131594e-01 8.710842967981534679e-01
1.353846153846153921e+00 -8.099631001134122155e-02 5.137553779955589262e-01 8.540945208183080561e-01
1.466666666666666785e+00 -2.834812025277624326e-01 4.430378845981184366e-01 8.504928014744962406e-01
1.579487179487179649e+00 -4.142527447688389430e-01 2.837663186094788736e-01 8.647858067081581890e-01
1.692307692307692513e+00 -4.433595665446096734e-01 8.214206077335078904e-02 8.925638250798531015e-01
1.805128205128205376e+00 -3.663505399606491464e-01 -1.074851738347293306e-01 9.242413275238071657e-01
1.917948717948718240e+00 -2.057903089338888047e-01 -2.360704796684494899e-01 9.496901353160600578e-01
2.030769230769231104e+00 -5.365853130057079978e-03 -2.722914027103275902e-01 9.621955443099264871e-01
2.143589743589743968e+00 1.818416414740962606e-01 -2.105059834551900322e-01 9.605271097558948368e-01
2.256410256410256832e+00 3.077844156274521237e-01 -7.194410939999379417e-02 9.487270294477228028e-01
2.369230769230769695e+00 3.425362140273244260e-01 1.014273050024053491e-01 9.340075839467001373e-01
2.482051282051282559e+00 2.823433866606686604e-01 2.588278698125019428e-01 9.237305498692872652e-01
2.594871794871795423e+00 1.502286750440406105e-01 3.551090547344764037e-01 9.226681881545102382e-01
2.707692307692307843e+00 -1.103340001028246808e-02 3.635776146137638110e-01 9.314923887128865321e-01
2.820512820512820706e+00 -1.515743627233978597e-01 2.834791399025234360e-01 9.469185704788255498e-01
2.933333333333333570e+00 -2.290568423604444903e-01 1.398835859790762970e-01 9.633054269318206408e-01
3.046153846153846434e+00 -2.209771556871369391e-01 -2.400929479751817697e-02 9.749799752593262259e-01
3.158974358974359298e+00 -1.309828236671852775e-01 -1.599278793647890828e-01 9.783968362705027788e-01
3.271794871794872162e+00 1.264804285250668847e-02 -2.290152787028171821e-01 9.733371004548401206e-01
3.384615384615385025e+00 1.658696606134298368e-01 -2.134035576984092408e-01 9.627761500766944813e-01
3.497435897435897889e+00 2.824423591744518180e-01 -1.213727767796324852e-01 9.515699873443289603e-01
3.610256410256410753e+00 3.280956265330600696e-01 1.551936668253404983e-02 9.445115976434750316e-01
3.723076923076923617e+00 2.908816163047887038e-01 1.524664830259445658e-01 9.445271878239478447e-01
3.835897435897436480e+00 1.845509874155390750e-01 2.454332206533484106e-01 9.516795484836728658e-01
3.948717948717949344e+00 4.400089824161178276e-02 2.648320394653419507e-01 9.632858937327039017e-01
4.061538461538462208e+00 -8.586422463756192280e-02 2.046094694531320479e-01 9.750669820009791877e-01
4.174358974358974628e+00 -1.642900465729398296e-01 8.385479789866068234e-02 9.828385639027795717e-01
4.287179487179487936e+00 -1.674123776644566297e-01 -5.949125041608219200e-02 9.840876922446464281e-01
4.400000000000000355e+00 -9.559587215993545217e-02 -1.808415263021541930e-01 9.788522010826375963e-01
