1.000000000000000000e+00 4.073952006821815464e-01 -3.652008960102918200e-01 8.321269748943633804e-01
1.050847457627118731e+00 3.039998704787745809e-01 -3.773349365868328698e-01 8.715164217947457548e-01
1.101694915254237239e+00 2.072653696390870937e-01 -3.711794252125945048e-01 9.030500352921685403e-01
1.152542372881355970e+00 1.209880180803790950e-01 -3.492639726000165146e-01 9.278745296996212533e-01
1.203389830508474478e+00 4.794028272985857014e-02 -3.149466524299598391e-01 9.471000371208601054e-01
1.254237288135593209e+00 -1.025986185043275753e-02 -2.720577441349264491e-01 9.617516252936517684e-01
1.305084745762711940e+00 -5.317615482598325727e-02 -2.245344020305370392e-01 9.727393727503458321e-01
1.355932203389830448e+00 -8.141757437384802842e-02 -1.760565677141844032e-01 9.808524517073170523e-01
1.406779661016949179e+00 -9.651497130928798907e-02 -1.297976824111977123e-01 9.867471783432311128e-01
1.457627118644067910e+00 -1.005990924745657489e-01 -8.821847705880138391e-02 9.909630262612352247e-01
1.508474576271186418e+00 -9.617923931695639139e-02 -5.296989693540526956e-02 9.939301680955742180e-01
1.559322033898305149e+00 -8.584606113036276354e-02 -2.487361968033243928e-02 9.959860693259210418e-01
1.610169491525423879e+00 -7.205761518026451706e-02 -4.036158888693935909e-03 9.973865240339319094e-01
1.661016949152542388e+00 -5.692157581697965263e-02 1.003644868541632429e-02 9.983254521838639262e-01
1.711864406779661119e+00 -4.212000655845758029e-02 1.826816466619416920e-02 9.989442593253854419e-01
1.762711864406779849e+00 -2.882760314744080635e-02 2.183412416772331430e-02 9.993453322931354910e-01
1.813559322033898358e+00 -1.775117449889814653e-02 2.196483005441949438e-02 9.996008900343389403e-01
1.864406779661016866e+00 -9.175081817435834161e-03 1.984561079748287105e-02 9.997608490974474460e-01
1.915254237288135597e+00 -3.042415694784908128e-03 1.650183936629561615e-02 9.998591621743668778e-01
1.966101694915254328e+00 9.113363809193069515e-04 1.272360773418177750e-02 9.999186184636870145e-01
2.016949152542372836e+00 3.106973753208009704e-03 9.095318842709091550e-03 9.999538029112031712e-01
2.067796610169491345e+00 3.995395836757432984e-03 5.961215396721670882e-03 9.999742472986531405e-01
2.118644067796610297e+00 3.999179026812355563e-03 3.483820530411112920e-03 9.999859336558822864e-01
2.169491525423728806e+00 3.499687900122391577e-03 1.685232460292123043e-03 9.999924556914417950e-01
2.220338983050847759e+00 2.771033282794501795e-03 4.936069073074320426e-04 9.999960387324962063e-01
2.271186440677966267e+00 2.006949695746903291e-03 -1.912719538281835562e-04 9.999979677495204333e-01
2.322033898305084776e+00 1.333295619397326798e-03 -5.206661823718657968e-04 9.999989756033600408e-01
2.372881355932203284e+00 7.980465753148389095e-04 -6.082586622733553812e-04 9.999994965724200435e-01
2.423728813559322237e+00 4.117940416620922820e-04 -5.589160168829481780e-04 9.999997590240187195e-01
2.474576271186440746e+00 1.644263711559264284e-04 -4.489333737492397203e-04 9.999998857154041021e-01
2.525423728813559698e+00 2.184462658289749505e-05 -3.195144010920744474e-04 9.999999487221993277e-01
2.576271186440678207e+00 -4.724810518253114763e-05 -2.105370683137279455e-04 9.999999767264983186e-01
2.627118644067796716e+00 -7.060326183892661367e-05 -1.236482223121586105e-04 9.999999898688802791e-01
2.677966101694915224e+00 -6.982259188175927197e-05 -6.443991204239067757e-05 9.999999954915124167e-01
2.728813559322033733e+00 -5.351104094969652450e-05 -2.714373589423836250e-05 9.999999982066390958e-01
2.779661016949152685e+00 -3.783626509397005862e-05 -5.515057654062144961e-06 9.999999992749555311e-01
2.830508474576271194e+00 -2.247276007443457536e-05 4.031957119144632238e-06 9.999999997452194700e-01
2.881355932203390147e+00 -1.278756467818887666e-05 4.078192504772036752e-06 9.999999999171284015e-01
2.932203389830508655e+00 -7.846370138895171365e-06 4.569028043303734136e-06 9.999999999648716553e-01
2.983050847457627164e+00 -3.068167914730566745e-06 1.177524706871154113e-06 1.000000000001038503e+00
3.033898305084745672e+00 -2.201851499760336555e-06 -3.557791458637316681e-07 1.000000000003705702e+00
3.084745762711864625e+00 -4.403223940706911102e-07 1.142460241084039805e-06 1.000000000006010525e+00
3.135593220338983134e+00 8.973259528562611418e-08 -8.641657577299107395e-07 1.000000000007023715e+00
3.186440677966101642e+00 2.670313361465684688e-07 -1.332685774434200339e-06 1.000000000004696687e+00
3.237288135593220595e+00 -1.553797656093217694e-06 -1.813734300226185759e-07 1.000000000005351941e+00
3.288135593220339103e+00 -1.640010809594733493e-06 -1.002614146613007280e-06 1.000000000004796830e+00
3.338983050847457612e+00 1.364731612971341957e-06 2.772530166143426903e-06 1.000000000002797984e+00
3.389830508474576565e+00 5.165013875257190470e-07 1.305259725168737577e-06 1.000000000006282530e+00
3.440677966101695073e+00 3.490877372953913660e-06 4.467662901787520002e-06 9.999999999925095473e-01
3.491525423728813582e+00 3.371290334905598607e-06 3.358513119192904508e-06 9.999999999965454300e-01
3.542372881355932535e+00 -1.241403123761772396e-06 -2.352677438628831375e-06 1.000000000004751310e+00
3.593220338983051043e+00 1.826711215311970642e-06 -1.859044764061851907e-06 1.000000000005134337e+00
3.644067796610169552e+00 -3.386297689872219964e-07 5.303764199357095100e-07 1.000000000004775291e+00
3.694915254237288504e+00 3.388817303138393581e-06 -3.897681167776868070e-07 1.000000000001533218e+00
3.745762711864407013e+00 -1.272454800034841466e-06 -3.779599811712077139e-07 1.000000000007760903e+00
3.796610169491525522e+00 3.287627473077365981e-07 -1.298321101725149583e-07 1.000000000009383827e+00
3.847457627118644474e+00 -1.276072140719907594e-06 3.442715163090699795e-07 1.000000000009367396e+00
3.898305084745762983e+00 2.944986971325957793e-06 1.694088551271620897e-06 1.000000000005161871e+00
3.949152542372881491e+00 6.302030397510283580e-07 -1.148381552176093579e-06 1.000000000011631363e+00
4.000000000000000000e+00 1.514096297728143032e-06 1.908121832131750037e-06 1.000000000008830714e+00
