1.000000000000000000e+00 3.089293243314690796e-01 -3.878568543391964774e-01 6.811928499346069366e-01
1.050847457627118731e+00 2.140297135009563700e-01 -3.864287049949569619e-01 7.233101393650750444e-01
1.101694915254237239e+00 1.277832732738678201e-01 -3.687736472596102599e-01 7.604734634628420586e-01
1.152542372881355970e+00 5.317084227646148159e-02 -3.378075906282318464e-01 7.933082681918057766e-01
1.203389830508474478e+00 -7.798550188834067753e-03 -2.970473025680407386e-01 8.223371614520568196e-01
1.254237288135593209e+00 -5.421849731025092656e-02 -2.502417587769166230e-01 8.480080689843690900e-01
1.305084745762711940e+00 -8.621724309060539715e-02 -2.010710606766910880e-01 8.706860185938914976e-01
1.355932203389830448e+00 -1.048392413395886763e-01 -1.528328414580985839e-01 8.906751049878188775e-01
1.406779661016949179e+00 -1.118684000501678211e-01 -1.082456302383001251e-01 9.082242470304329185e-01
1.457627118644067910e+00 -1.095327942006618649e-01 -6.928878235349295034e-02 9.235514219877072328e-01
1.508474576271186418e+00 -1.003177694549051147e-01 -3.717287103931220249e-02 9.368458252748748105e-01
1.559322033898305149e+00 -8.665531058321185309e-02 -1.233610702807964171e-02 9.482880291047804944e-01
1.610169491525423879e+00 -7.078327397366188101e-02 5.413540102032238233e-03 9.580465339251456047e-01
1.661016949152542388e+00 -5.454471762565228643e-02 1.676734576350085923e-02 9.662888513971329418e-01
1.711864406779661119e+00 -3.935331008187455126e-02 2.276182130227935238e-02 9.731778194999084475e-01
1.762711864406779849e+00 -2.614684287518412309e-02 2.459438743786480225e-02 9.788729543331035066e-01
1.813559322033898358e+00 -1.543375019842207520e-02 2.347166128026183241e-02 9.835282319946637708e-01
1.864406779661016866e+00 -7.323771281934711441e-03 2.051154034087184636e-02 9.872901501562689752e-01
1.915254237288135597e+00 -1.676070597050388286e-03 1.665101144692433116e-02 9.902946181997487329e-01
1.966101694915254328e+00 1.856461368652417843e-03 1.260173298466344197e-02 9.926662466360514081e-01
2.016949152542372836e+00 3.710730022266320489e-03 8.853953029045794759e-03 9.945163772731835383e-01
2.067796610169491345e+00 4.349861042299169381e-03 5.702296970350403255e-03 9.959426822179446859e-01
2.118644067796610297e+00 4.181510553619026752e-03 3.254480134686100080e-03 9.970295185192484810e-01
2.169491525423728806e+00 3.578890101597090485e-03 1.507768904794384423e-03 9.978479664395915050e-01
2.220338983050847759e+00 2.789719682646588962e-03 3.725765641535633884e-04 9.984572303583845176e-01
2.271186440677966267e+00 1.996911468379854952e-03 -2.713655491074185803e-04 9.989055544658509422e-01
2.322033898305084776e+00 1.311465410459211481e-03 -5.702712001955709655e-04 9.992316747520809672e-01
2.372881355932203284e+00 7.819109619940562729e-04 -6.324161176820171371e-04 9.994662160878968749e-01
2.423728813559322237e+00 3.967832100440008545e-04 -5.703285967074626754e-04 9.996330034307200352e-01
2.474576271186440746e+00 1.537498394117482888e-04 -4.521487633097592937e-04 9.997502763667405201e-01
2.525423728813559698e+00 1.369419705787917776e-05 -3.213987949311077302e-04 9.998318237395549257e-01
2.576271186440678207e+00 -5.231121572592762139e-05 -2.111459907567022503e-04 9.998879017604829222e-01
2.627118644067796716e+00 -7.159053410926350097e-05 -1.242863603644097357e-04 9.999260441402240129e-01
2.677966101694915224e+00 -6.873393248753710441e-05 -6.215367850942273204e-05 9.999517051465874884e-01
2.728813559322033733e+00 -5.459674009085163719e-05 -2.751457509996155048e-05 9.999687820956566497e-01
2.779661016949152685e+00 -3.615557422422601845e-05 -3.004766239102146715e-06 9.999800249801142904e-01
2.830508474576271194e+00 -1.921436438772083593e-05 4.094585546623058400e-06 9.999873476211005308e-01
2.881355932203390147e+00 -1.385744327155672303e-05 6.767119455671277771e-06 9.999920662791481618e-01
2.932203389830508655e+00 -5.461600556847927674e-06 4.709123558305255064e-06 9.999950750236739072e-01
2.983050847457627164e+00 2.626618288264450285e-07 5.995271812801629267e-06 9.999969732610144435e-01
3.033898305084745672e+00 -2.755006210781413901e-06 -1.024421814090218988e-06 9.999981583958202913e-01
3.084745762711864625e+00 2.789885600344952080e-07 3.886393790108287543e-06 9.999988906013932422e-01
3.135593220338983134e+00 1.205580029777187271e-06 2.591976547070056475e-06 9.999993383111210887e-01
3.186440677966101642e+00 1.807577581058162315e-06 6.005963902601274697e-07 9.999996092403899972e-01
3.237288135593220595e+00 -2.382527450706234791e-06 -1.649599701570561739e-07 9.999997715099332440e-01
3.288135593220339103e+00 -1.228497456143959025e-06 5.828600964892534799e-07 9.999998677085736309e-01
3.338983050847457612e+00 5.319428654292674681e-06 1.521780438881234403e-07 9.999999241454822219e-01
3.389830508474576565e+00 3.283596049319167265e-06 1.433432100361728900e-06 9.999999569416665457e-01
3.440677966101695073e+00 2.768877367702621910e-06 1.342769563129601655e-06 9.999999757962082514e-01
3.491525423728813582e+00 9.341757882588828473e-07 2.719186918452069877e-06 9.999999865269270094e-01
3.542372881355932535e+00 -2.189642154009144981e-06 1.191834672251326063e-06 9.999999925759393005e-01
3.593220338983051043e+00 1.427344633679588396e-07 -4.050490108466470914e-06 9.999999959433382157e-01
3.644067796610169552e+00 -4.987644149391021181e-07 -7.872286301033406093e-07 9.999999978120228672e-01
3.694915254237288504e+00 3.197860227756469613e-06 -2.446006117463737853e-06 9.999999988255777739e-01
3.745762711864407013e+00 9.797772600591582793e-08 9.549206162017069087e-07 9.999999993848242008e-01
3.796610169491525522e+00 3.731705825441020884e-07 -1.491040520569412204e-06 9.999999996820461146e-01
3.847457627118644474e+00 1.602244235229569370e-06 -3.294671086966591988e-06 9.999999998333647389e-01
3.898305084745762983e+00 1.371227758595496135e-06 2.166412857154887461e-07 9.999999999219012503e-01
3.949152542372881491e+00 8.255216194224502110e-08 -1.699533281687814380e-06 9.999999999653539362e-01
4.000000000000000000e+00 3.507427215995386338e-06 9.935494698656855449e-07 9.999999999816494567e-01
