1.000000000000000000e+00 3.656694166476839314e-01 -3.739710170133025979e-01 7.642048955508858876e-01
1.051724137931034475e+00 2.664969926645546217e-01 -3.803710350729990752e-01 8.097344031423392430e-01
1.103448275862068950e+00 1.745821677584061538e-01 -3.693004203371793581e-01 8.481596836712348431e-01
1.155172413793103425e+00 9.345392350875500465e-02 -3.434417849334754913e-01 8.801849271176583889e-01
1.206896551724137900e+00 2.562730750273765901e-02 -3.062127100863452633e-01 9.065430632116204812e-01
1.258620689655172376e+00 -2.750629629991202182e-02 -2.614288493203162367e-01 9.279604381499251264e-01
1.310344827586206851e+00 -6.567931030385570912e-02 -2.129633033639541928e-01 9.451336977891637847e-01
1.362068965517241326e+00 -8.966599549497528132e-02 -1.643944437800971548e-01 9.587215477387160956e-01
1.413793103448275801e+00 -1.010980992461724820e-01 -1.187511324939383023e-01 9.693264862608604870e-01
1.465517241379310276e+00 -1.021796769986305919e-01 -7.832797055625323468e-02 9.774911348213600748e-01
1.517241379310344751e+00 -9.546115878422778422e-02 -4.460025019055683521e-02 9.836891650353061234e-01
1.568965517241379448e+00 -8.351123793548609342e-02 -1.822267664123273373e-02 9.883304510895400963e-01
1.620689655172413701e+00 -6.873769340167676378e-02 8.515088117745789331e-04 9.917568411518286053e-01
1.672413793103448398e+00 -5.316353029476273556e-02 1.327282595207917096e-02 9.942520013893632047e-01
1.724137931034482651e+00 -3.837213545175797297e-02 2.005761412689316056e-02 9.960430387841270328e-01
1.775862068965517349e+00 -2.541669775695940686e-02 2.243650464228075930e-02 9.973112382914097740e-01
1.827586206896551602e+00 -1.489523873171259317e-02 2.169142993860377275e-02 9.981963421525110736e-01
1.879310344827586299e+00 -6.965536202282716222e-03 1.899857473908354855e-02 9.988057133438147384e-01
1.931034482758620552e+00 -1.495237495661490973e-03 1.534896034604900719e-02 9.992193425095162729e-01
1.982758620689655249e+00 1.866303433520392040e-03 1.148588957033140102e-02 9.994963853382844432e-01
2.034482758620689502e+00 3.573857413171452509e-03 7.932980287595269714e-03 9.996792638924837382e-01
2.086206896551724199e+00 4.099849720491914422e-03 4.970490247778491452e-03 9.997983732165629522e-01
2.137931034482758896e+00 3.861073212391437359e-03 2.711847896805633096e-03 9.998749197307816861e-01
2.189655172413793149e+00 3.227431478007147976e-03 1.140156634176735673e-03 9.999233986458860857e-01
2.241379310344827402e+00 2.448701747812209902e-03 1.536259920452323190e-04 9.999537066950912045e-01
2.293103448275862100e+00 1.699980342058685871e-03 -3.729312206030926079e-04 9.999723847712247427e-01
2.344827586206896797e+00 1.073847602854321754e-03 -5.846575259026279064e-04 9.999837390362390499e-01
2.396551724137931050e+00 5.995041355956183364e-04 -6.004935741966208182e-04 9.999905509270456960e-01
2.448275862068965303e+00 2.797704225398491788e-04 -5.081896089611042354e-04 9.999945823355126384e-01
2.500000000000000000e+00 7.860707505664705618e-05 -3.885961843380465676e-04 9.999969325602555692e-01
