1.000000000000000056e-01 9.920718068599798656e-01 0.000000000000000000e+00 7.928193140016611198e-03 0.000000000000000000e+00 0.000000000000000000e+00 0.000000000000000000e+00 7.424532051697761703e-02 -4.850741304432348855e-02 0.000000000000000000e+00 0.000000000000000000e+00 0.000000000000000000e+00 0.000000000000000000e+00 0.000000000000000000e+00 0.000000000000000000e+00 0.000000000000000000e+00 0.000000000000000000e+00
2.000000000000000111e-01 9.686740818323263946e-01 0.000000000000000000e+00 3.132591816767466009e-02 0.000000000000000000e+00 0.000000000000000000e+00 0.000000000000000000e+00 1.465437378012531544e-01 -9.417822379639373409e-02 0.000000000000000000e+00 0.000000000000000000e+00 0.000000000000000000e+00 0.000000000000000000e+00 0.000000000000000000e+00 0.000000000000000000e+00 0.000000000000000000e+00 0.000000000000000000e+00
2.999999999999999889e-01 9.309317914185312182e-01 0.000000000000000000e+00 6.906820858146762998e-02 0.000000000000000000e+00 0.000000000000000000e+00 0.000000000000000000e+00 2.150129902243194946e-01 -1.344143020087738005e-01 0.000000000000000000e+00 0.000000000000000000e+00 0.000000000000000000e+00 0.000000000000000000e+00 0.000000000000000000e+00 0.000000000000000000e+00 0.000000000000000000e+00 0.000000000000000000e+00
4.000000000000000222e-01 8.806195797195788266e-01 0.000000000000000000e+00 1.193804202804211456e-01 0.000000000000000000e+00 0.000000000000000000e+00 0.000000000000000000e+00 2.778900826968874194e-01 -1.670504082288748471e-01 0.000000000000000000e+00 0.000000000000000000e+00 0.000000000000000000e+00 0.000000000000000000e+00 0.000000000000000000e+00 0.000000000000000000e+00 0.000000000000000000e+00 0.000000000000000000e+00
5.000000000000000000e-01 8.200184823958385216e-01 0.000000000000000000e+00 1.799815176041617282e-01 0.000000000000000000e+00 0.000000000000000000e+00 0.000000000000000000e+00 3.336076411722830870e-01 -1.905101362362714434e-01 0.000000000000000000e+00 0.000000000000000000e+00 0.000000000000000000e+00 0.000000000000000000e+00 0.000000000000000000e+00 0.000000000000000000e+00 0.000000000000000000e+00 0.000000000000000000e+00
5.999999999999999778e-01 7.517327880704144372e-01 0.000000000000000000e+00 2.482672119295824265e-01 0.000000000000000000e+00 0.000000000000000000e+00 0.000000000000000000e+00 3.808417907131777524e-01 -2.039365947582844618e-01 0.000000000000000000e+00 0.000000000000000000e+00 0.000000000000000000e+00 0.000000000000000000e+00 0.000000000000000000e+00 0.000000000000000000e+00 0.000000000000000000e+00 0.000000000000000000e+00
6.999999999999999556e-01 6.785207449816186287e-01 0.000000000000000000e+00 3.214792550183836473e-01 0.000000000000000000e+00 0.000000000000000000e+00 0.000000000000000000e+00 4.185753263184563422e-01 -2.071835893204895807e-01 0.000000000000000000e+00 0.000000000000000000e+00 0.000000000000000000e+00 0.000000000000000000e+00 0.000000000000000000e+00 0.000000000000000000e+00 0.000000000000000000e+00 0.000000000000000000e+00
7.999999999999999334e-01 6.030987357638956103e-01 0.000000000000000000e+00 3.969012642361091081e-01 0.000000000000000000e+00 0.000000000000000000e+00 0.000000000000000000e+00 4.461483363737514529e-01 -2.008041568547142552e-01 0.000000000000000000e+00 0.000000000000000000e+00 0.000000000000000000e+00 0.000000000000000000e+00 0.000000000000000000e+00 0.000000000000000000e+00 0.000000000000000000e+00 0.000000000000000000e+00
8.999999999999999112e-01 5.279641211256278499e-01 0.000000000000000000e+00 4.720358788743668765e-01 0.000000000000000000e+00 0.000000000000000000e+00 0.000000000000000000e+00 4.633005617774495488e-01 -1.859316979935246583e-01 0.000000000000000000e+00 0.000000000000000000e+00 0.000000000000000000e+00 0.000000000000000000e+00 0.000000000000000000e+00 0.000000000000000000e+00 0.000000000000000000e+00 0.000000000000000000e+00
9.999999999999998890e-01 4.553059636137918864e-01 0.000000000000000000e+00 5.446940363862098344e-01 0.000000000000000000e+00 0.000000000000000000e+00 0.000000000000000000e+00 4.701612669791215282e-01 -1.641670647962083507e-01 0.000000000000000000e+00 0.000000000000000000e+00 0.000000000000000000e+00 0.000000000000000000e+00 0.000000000000000000e+00 0.000000000000000000e+00 0.000000000000000000e+00 0.000000000000000000e+00
1.099999999999999867e+00 3.868596335246836104e-01 0.000000000000000000e+00 6.131403664753226623e-01 0.000000000000000000e+00 0.000000000000000000e+00 0.000000000000000000e+00 4.672516949590102553e-01 -1.373867181616764133e-01 0.000000000000000000e+00 0.000000000000000000e+00 0.000000000000000000e+00 0.000000000000000000e+00 0.000000000000000000e+00 0.000000000000000000e+00 0.000000000000000000e+00 0.000000000000000000e+00
1.199999999999999956e+00 3.239487107352703177e-01 0.000000000000000000e+00 6.760512892647279060e-01 0.000000000000000000e+00 0.000000000000000000e+00 0.000000000000000000e+00 4.554479774026200523e-01 -1.075782638556236209e-01 0.000000000000000000e+00 0.000000000000000000e+00 0.000000000000000000e+00 0.000000000000000000e+00 0.000000000000000000e+00 0.000000000000000000e+00 0.000000000000000000e+00 0.000000000000000000e+00
1.300000000000000044e+00 2.673986103917782575e-01 0.000000000000000000e+00 7.326013896082262944e-01 0.000000000000000000e+00 0.000000000000000000e+00 0.000000000000000000e+00 4.359102544250556543e-01 -7.667362321203330389e-02 0.000000000000000000e+00 0.000000000000000000e+00 0.000000000000000000e+00 0.000000000000000000e+00 0.000000000000000000e+00 0.000000000000000000e+00 0.000000000000000000e+00 0.000000000000000000e+00
1.399999999999999911e+00 2.176371438877578446e-01 0.000000000000000000e+00 7.823628561122449865e-01 0.000000000000000000e+00 0.000000000000000000e+00 0.000000000000000000e+00 4.100200817602269177e-01 -4.641930499684177036e-02 0.000000000000000000e+00 0.000000000000000000e+00 0.000000000000000000e+00 0.000000000000000000e+00 0.000000000000000000e+00 0.000000000000000000e+00 0.000000000000000000e+00 0.000000000000000000e+00
1.500000000000000000e+00 1.747079402653111679e-01 0.000000000000000000e+00 8.252920597346875553e-01 0.000000000000000000e+00 0.000000000000000000e+00 0.000000000000000000e+00 3.792780549474902840e-01 -1.825466924299701948e-02 0.000000000000000000e+00 0.000000000000000000e+00 0.000000000000000000e+00 0.000000000000000000e+00 0.000000000000000000e+00 0.000000000000000000e+00 0.000000000000000000e+00 0.000000000000000000e+00
1.599999999999999867e+00 1.383627709260420724e-01 0.000000000000000000e+00 8.616372290739555684e-01 0.000000000000000000e+00 0.000000000000000000e+00 0.000000000000000000e+00 3.452151667511072497e-01 6.708394539097583750e-03 0.000000000000000000e+00 0.000000000000000000e+00 0.000000000000000000e+00 0.000000000000000000e+00 0.000000000000000000e+00 0.000000000000000000e+00 0.000000000000000000e+00 0.000000000000000000e+00
1.699999999999999956e+00 1.081439354825500243e-01 0.000000000000000000e+00 8.918560645174499202e-01 0.000000000000000000e+00 0.000000000000000000e+00 0.000000000000000000e+00 3.093180722342959710e-01 2.776968362966100723e-02 0.000000000000000000e+00 0.000000000000000000e+00 0.000000000000000000e+00 0.000000000000000000e+00 0.000000000000000000e+00 0.000000000000000000e+00 0.000000000000000000e+00 0.000000000000000000e+00
1.800000000000000044e+00 8.344804078169780481e-02 0.000000000000000000e+00 9.165519592183047903e-01 0.000000000000000000e+00 0.000000000000000000e+00 0.000000000000000000e+00 2.729456410564924385e-01 4.455494417276918695e-02 0.000000000000000000e+00 0.000000000000000000e+00 0.000000000000000000e+00 0.000000000000000000e+00 0.000000000000000000e+00 0.000000000000000000e+00 0.000000000000000000e+00 0.000000000000000000e+00
1.899999999999999911e+00 6.358610223824819052e-02 0.000000000000000000e+00 9.364138977617503246e-01 0.000000000000000000e+00 0.000000000000000000e+00 0.000000000000000000e+00 2.372599450294201606e-01 5.701429870676506806e-02 0.000000000000000000e+00 0.000000000000000000e+00 0.000000000000000000e+00 0.000000000000000000e+00 0.000000000000000000e+00 0.000000000000000000e+00 0.000000000000000000e+00 0.000000000000000000e+00
2.000000000000000000e+00 4.787007912910838658e-02 0.000000000000000000e+00 9.521299208708836614e-01 0.000000000000000000e+00 0.000000000000000000e+00 0.000000000000000000e+00 2.032346577487628980e-01 6.537742989768328961e-02 0.000000000000000000e+00 0.000000000000000000e+00 0.000000000000000000e+00 0.000000000000000000e+00 0.000000000000000000e+00 0.000000000000000000e+00 0.000000000000000000e+00 0.000000000000000000e+00
2.099999999999999645e+00 3.561316001252325114e-02 0.000000000000000000e+00 9.643868399874726549e-01 0.000000000000000000e+00 0.000000000000000000e+00 0.000000000000000000e+00 1.715841542597482672e-01 7.002671381699644704e-02 0.000000000000000000e+00 0.000000000000000000e+00 0.000000000000000000e+00 0.000000000000000000e+00 0.000000000000000000e+00 0.000000000000000000e+00 0.000000000000000000e+00 0.000000000000000000e+00
2.199999999999999734e+00 2.619665104050388979e-02 0.000000000000000000e+00 9.738033489594941639e-01 0.000000000000000000e+00 0.000000000000000000e+00 0.000000000000000000e+00 1.428153142196109116e-01 7.151344247195466630e-02 0.000000000000000000e+00 0.000000000000000000e+00 0.000000000000000000e+00 0.000000000000000000e+00 0.000000000000000000e+00 0.000000000000000000e+00 0.000000000000000000e+00 0.000000000000000000e+00
2.299999999999999822e+00 1.905607236068568994e-02 0.000000000000000000e+00 9.809439276393134843e-01 0.000000000000000000e+00 0.000000000000000000e+00 0.000000000000000000e+00 1.171951766059333155e-01 7.041469419406484742e-02 0.000000000000000000e+00 0.000000000000000000e+00 0.000000000000000000e+00 0.000000000000000000e+00 0.000000000000000000e+00 0.000000000000000000e+00 0.000000000000000000e+00 0.000000000000000000e+00
2.399999999999999911e+00 1.371749288080216685e-02 0.000000000000000000e+00 9.862825071191969606e-01 0.000000000000000000e+00 0.000000000000000000e+00 0.000000000000000000e+00 9.483857145976537506e-02 6.734217741361098186e-02 0.000000000000000000e+00 0.000000000000000000e+00 0.000000000000000000e+00 0.000000000000000000e+00 0.000000000000000000e+00 0.000000000000000000e+00 0.000000000000000000e+00 0.000000000000000000e+00
2.500000000000000000e+00 9.776897922368105176e-03 0.000000000000000000e+00 9.902231020776340875e-01 0.000000000000000000e+00 0.000000000000000000e+00 0.000000000000000000e+00 7.568521021630321421e-02 6.287335597367173234e-02 0.000000000000000000e+00 0.000000000000000000e+00 0.000000000000000000e+00 0.000000000000000000e+00 0.000000000000000000e+00 0.000000000000000000e+00 0.000000000000000000e+00 0.000000000000000000e+00
2.600000000000000089e+00 6.899716852161163864e-03 0.000000000000000000e+00 9.931002831478494830e-01 0.000000000000000000e+00 0.000000000000000000e+00 0.000000000000000000e+00 5.954767287985133356e-02 5.749943859877786750e-02 0.000000000000000000e+00 0.000000000000000000e+00 0.000000000000000000e+00 0.000000000000000000e+00 0.000000000000000000e+00 0.000000000000000000e+00 0.000000000000000000e+00 0.000000000000000000e+00
2.699999999999999734e+00 4.823113837338915619e-03 0.000000000000000000e+00 9.951768861626565377e-01 0.000000000000000000e+00 0.000000000000000000e+00 0.000000000000000000e+00 4.617363268119631381e-02 5.165120438857389445e-02 0.000000000000000000e+00 0.000000000000000000e+00 0.000000000000000000e+00 0.000000000000000000e+00 0.000000000000000000e+00 0.000000000000000000e+00 0.000000000000000000e+00 0.000000000000000000e+00
2.799999999999999822e+00 3.341094604968910219e-03 0.000000000000000000e+00 9.966589053950314359e-01 0.000000000000000000e+00 0.000000000000000000e+00 0.000000000000000000e+00 3.528136544429534560e-02 4.566351868277562787e-02 0.000000000000000000e+00 0.000000000000000000e+00 0.000000000000000000e+00 0.000000000000000000e+00 0.000000000000000000e+00 0.000000000000000000e+00 0.000000000000000000e+00 0.000000000000000000e+00
2.899999999999999911e+00 2.294028541434244266e-03 0.000000000000000000e+00 9.977059714585602146e-01 0.000000000000000000e+00 0.000000000000000000e+00 0.000000000000000000e+00 2.655567820744301338e-02 3.979399626947217883e-02 0.000000000000000000e+00 0.000000000000000000e+00 0.000000000000000000e+00 0.000000000000000000e+00 0.000000000000000000e+00 0.000000000000000000e+00 0.000000000000000000e+00 0.000000000000000000e+00
3.000000000000000000e+00 1.563085524054839102e-03 0.000000000000000000e+00 9.984369144759464021e-01 0.000000000000000000e+00 0.000000000000000000e+00 0.000000000000000000e+00 1.968215998671086001e-02 3.425280851810955790e-02 0.000000000000000000e+00 0.000000000000000000e+00 0.000000000000000000e+00 0.000000000000000000e+00 0.000000000000000000e+00 0.000000000000000000e+00 0.000000000000000000e+00 0.000000000000000000e+00
