0.000000000000000000e+00 -6.132215768490142985e-12 1.037881686616335897e-11 -1.000000000000000000e+00
1.025641025641025605e-01 -1.650414943932462797e-01 2.541146309159621475e-01 -9.418980366728494369e-01
2.051282051282051211e-01 -3.270814404267663456e-01 4.539668252984704888e-01 -7.799599244726190816e-01
3.076923076923077094e-01 -4.774799853693140195e-01 5.616688902831130648e-01 -5.464086455121368591e-01
4.102564102564102422e-01 -6.010824358410030710e-01 5.652532400819775260e-01 -2.815366274313264583e-01
5.128205128205127750e-01 -6.808112717140009096e-01 4.783359706552747226e-01 -2.143963995521195112e-02
6.153846153846154188e-01 -7.044164825274180641e-01 3.318953935000034106e-01 2.095122519965914309e-01
7.179487179487179516e-01 -6.692153848870373567e-01 1.630211675939902405e-01 4.000698037708927401e-01
8.205128205128204844e-01 -5.829596078958620975e-01 5.247160303503278778e-03 5.491946881536333702e-01
9.230769230769230171e-01 -4.614374419413625472e-01 -1.173572199370897656e-01 6.618321600354639678e-01
1.025641025641025550e+00 -3.245794363059537058e-01 -1.923119145231036997e-01 7.452107682150614920e-01
1.128205128205128194e+00 -1.924119848402228439e-01 -2.182438565936377084e-01 8.065353010295577274e-01
1.230769230769230838e+00 -8.152562157410839228e-02 -2.029070284557702442e-01 8.518820640319715309e-01
1.333333333333333259e+00 -2.356644029876897584e-03 -1.601326524004776097e-01 8.859082862433639294e-01
1.435897435897435903e+00 4.221786766383142653e-02 -1.060796047693435690e-01 9.119470067324203510e-01
1.538461538461538325e+00 5.659038924698714390e-02 -5.524487241071544819e-02 9.322717362928851781e-01
1.641025641025640969e+00 5.023716515538928507e-02 -1.724560527851413255e-02 9.483717127150070869e-01
1.743589743589743613e+00 3.418611668301211465e-02 4.634188967636045098e-03 9.612038380435219409e-01
1.846153846153846034e+00 1.758283976234202572e-02 1.258089314813974277e-02 9.713909922854061518e-01
1.948717948717948678e+00 5.604987454979206730e-03 1.177490903820912344e-02 9.793707215193599991e-01
2.051282051282051100e+00 -5.980373201843695169e-04 7.531585900885017122e-03 9.854909737062275132e-01
2.153846153846153744e+00 -2.429803427427887699e-03 3.415542583420020772e-03 9.900621740336680299e-01
2.256410256410256387e+00 -2.049423597623828766e-03 8.649630064804438457e-04 9.933757857068545860e-01
2.358974358974359031e+00 -1.109955256762686559e-03 -1.836725028430629368e-04 9.957032615129751685e-01
2.461538461538461675e+00 -4.013347896017759346e-04 -3.689330069643293949e-04 9.972867696425946615e-01
2.564102564102563875e+00 -5.875298306512948638e-05 -2.413121221938957452e-04 9.983308813230259426e-01
2.666666666666666519e+00 3.875748132963439534e-05 -1.003244713184699263e-04 9.989987894220279108e-01
2.769230769230769162e+00 3.699578323450450964e-05 -2.581759198727784946e-05 9.994138484919050658e-01
2.871794871794871806e+00 1.522194929161600649e-05 -3.167851490054441970e-07 9.996647737207198237e-01
2.974358974358974450e+00 4.988733442559539969e-06 4.290008834952694455e-06 9.998125530816598383e-01
3.076923076923076650e+00 3.424806159812160406e-06 4.755816314957364019e-06 9.998974438809399290e-01
3.179487179487179294e+00 -6.455175292222736834e-07 5.990475216860112362e-06 9.999450615681603205e-01
3.282051282051281937e+00 6.648912380163214358e-07 3.019477260623296549e-06 9.999711681512152284e-01
3.384615384615384581e+00 -2.238869895617550995e-06 -9.045141056801549688e-07 9.999851691553035549e-01
3.487179487179487225e+00 1.162871944452676212e-07 2.603042043818179240e-06 9.999925191981612338e-01
3.589743589743589425e+00 -3.011772002363927691e-06 -1.789307818792687471e-07 9.999962983888853740e-01
3.692307692307692069e+00 3.047353187388259945e-08 1.681115204542493661e-06 9.999982025956781762e-01
3.794871794871794712e+00 -5.905744374028743090e-07 2.597049545734179699e-06 9.999991432297259397e-01
3.897435897435897356e+00 -2.099883494139058725e-06 6.274985523776989419e-07 9.999995989672479935e-01
4.000000000000000000e+00 -5.159587830545259477e-07 -2.226758743637221148e-06 9.999998156138579786e-01
