1.000000000000000056e-01 2.437865912483758689e-03 1.069528025964297481e-03 -8.890751218014646406e-01
2.000000000000000111e-01 4.779973337296667020e-03 2.128931212752837622e-03 -8.536577904008900708e-01
2.999999999999999889e-01 6.936666328361255907e-03 3.167197047166501675e-03 -7.965235920247639712e-01
4.000000000000000222e-01 8.830323716970034723e-03 4.171408432507952777e-03 -7.203600887729743052e-01
5.000000000000000000e-01 1.039958684661313089e-02 5.126444390390615634e-03 -6.286282473642670343e-01
5.999999999999999778e-01 1.160325917277760244e-02 6.015315329000371462e-03 -5.253032966611094201e-01
6.999999999999999556e-01 1.242073180186407076e-02 6.819956230762426810e-03 -4.146018635885218573e-01
7.999999999999999334e-01 1.285255535686904808e-02 7.521929061143354384e-03 -3.006935244986453926e-01
8.999999999999999112e-01 1.291852248972322897e-02 8.104363125505404525e-03 -1.874612547390578920e-01
9.999999999999998890e-01 1.265425598846146339e-02 8.553259779902466081e-03 -7.830828965078616422e-02
1.099999999999999867e+00 1.210767051843743974e-02 8.858900595618345725e-03 2.398468720316445507e-02
1.199999999999999956e+00 1.133448503559583882e-02 9.016902151253091899e-03 1.173353136842696653e-01
1.300000000000000044e+00 1.039387259799508245e-02 9.028470344642209114e-03 2.003607204589759605e-01
1.399999999999999911e+00 9.344445455355100683e-03 8.900727974768398582e-03 2.723366467468909535e-01
1.500000000000000000e+00 8.240700704975678637e-03 8.646105132880948715e-03 3.331295789855710510e-01
1.599999999999999867e+00 7.130740303489270168e-03 8.281101431586727207e-03 3.830804317511158907e-01
1.699999999999999956e+00 6.054248191375895954e-03 7.825515722595061813e-03 4.228933663698057899e-01
1.800000000000000044e+00 5.042620822071483197e-03 7.300698291571402002e-03 4.535148628140341920e-01
1.899999999999999911e+00 4.117487088685007658e-03 6.728275743565000078e-03 4.760401220935209232e-01
2.000000000000000000e+00 3.292598286056228497e-03 6.129117163260996634e-03 4.916140298814753451e-01
2.099999999999999645e+00 2.574073746513300901e-03 5.522242761106918064e-03 5.013659606903786425e-01
2.199999999999999734e+00 1.961931244385025329e-03 4.923947846534776872e-03 5.063538317691992363e-01
2.299999999999999822e+00 1.452123744315859423e-03 4.347874742814171987e-03 5.075337041343523925e-01
2.399999999999999911e+00 1.036321983283947958e-03 3.804179465370705060e-03 5.057450248307819862e-01
2.500000000000000000e+00 7.050652632989429236e-04 3.300319014972558258e-03 5.017009933777711872e-01
2.600000000000000089e+00 4.472176450809549862e-04 2.840692311646633977e-03 4.959922247416344576e-01
2.699999999999999734e+00 2.515609931025251933e-04 2.427410475534524589e-03 4.890979712014401626e-01
2.799999999999999822e+00 1.073877148054817529e-04 2.060578000793538388e-03 4.813981627606386260e-01
2.899999999999999911e+00 5.072862565810940666e-06 1.738776993930231558e-03 4.731878008421578352e-01
3.000000000000000000e+00 -6.419129912443334845e-05 1.459414641107385519e-03 4.646912894133587435e-01
