1.000000000000000056e-01 -1.553295233086252015e-03 1.938536202645504362e-03 -8.628766464020002358e-01
2.000000000000000111e-01 -3.072446884992127702e-03 3.578692835405849169e-03 -7.536948528917376544e-01
2.999999999999999889e-01 -4.499700588719597084e-03 4.677831563805003902e-03 -5.885618266445328262e-01
4.000000000000000222e-01 -5.743249305993169788e-03 5.093947716120468192e-03 -3.888684200666701618e-01
5.000000000000000000e-01 -6.686756137830472159e-03 4.810276711470112473e-03 -1.780036582126123534e-01
5.999999999999999778e-01 -7.217189090026859821e-03 3.933962034121129582e-03 2.289049345084695486e-02
6.999999999999999556e-01 -7.260518841034064967e-03 2.667887052736059306e-03 1.980478184499850081e-01
7.999999999999999334e-01 -6.810943119197958653e-03 1.262733727488841995e-03 3.384996117507634850e-01
8.999999999999999112e-01 -5.941571540851742390e-03 -3.947360375345081857e-05 4.418422839050442641e-01
9.999999999999998890e-01 -4.791400441400072222e-03 -1.054165574976694865e-03 5.107899831663528234e-01
1.099999999999999867e+00 -3.533456769233644587e-03 -1.685045145349511539e-03 5.511659022079348214e-01
1.199999999999999956e+00 -2.335610489701338624e-03 -1.927526235401439379e-03 5.699626674794235903e-01
1.300000000000000044e+00 -1.325236014567088673e-03 -1.850823052751073396e-03 5.738872779961810000e-01
1.399999999999999911e+00 -5.711213935916193210e-04 -1.564861372048405178e-03 5.684928900391965634e-01
1.500000000000000000e+00 -8.177647941068474577e-05 -1.185069937922470125e-03 5.578862291923384342e-01
1.599999999999999867e+00 1.799938990721596942e-04 -8.061409140296488468e-04 5.448073748048900544e-01
1.699999999999999956e+00 2.750919054131234758e-04 -4.881001866386412745e-04 5.309107839365641013e-01
1.800000000000000044e+00 2.683768386149970185e-04 -2.558165344843191268e-04 5.170909083385495375e-01
1.899999999999999911e+00 2.139064579214249896e-04 -1.070629761135978000e-04 5.037667071438077793e-01
2.000000000000000000e+00 1.484172511083029053e-04 -2.505209730831272393e-05 4.910908563083719036e-01
2.099999999999999645e+00 9.164223692804746772e-05 1.157301944052252128e-05 4.790840920606260767e-01
2.199999999999999734e+00 5.058737161476360115e-05 2.218141524368041337e-05 4.677118626682212343e-01
2.299999999999999822e+00 2.467454791660734676e-05 2.064726494160433796e-05 4.569224793369067728e-01
2.399999999999999911e+00 1.033511532054839204e-05 1.509097932285011887e-05 4.466641049927528306e-01
2.500000000000000000e+00 3.310660853062073643e-06 9.521962887538505647e-06 4.368903986112935844e-01
2.600000000000000089e+00 4.632285300354280140e-07 5.418654439052953007e-06 4.275612439544109189e-01
2.699999999999999734e+00 -4.216358683611975088e-07 2.882040178109903321e-06 4.186423467548683330e-01
2.799999999999999822e+00 -5.928927057994948932e-07 1.372705839967755797e-06 4.101038692731985291e-01
2.899999999999999911e+00 -3.764271675568972000e-07 5.634958359576172435e-07 4.019198316783447744e-01
3.000000000000000000e+00 -3.014151964428611699e-07 2.497456443187234607e-07 3.940670348388996547e-01
