1.000000000000000056e-01 4.562763702974681783e-04 -7.556108660256895130e-04 -8.740187505195352591e-01
2.000000000000000111e-01 9.694170460729798280e-04 -1.403406754936737093e-03 -7.956366841009324675e-01
2.999999999999999889e-01 1.568803676839139113e-03 -1.837875038831507119e-03 -6.738331174828063874e-01
4.000000000000000222e-01 2.234886768404303892e-03 -1.965018513485329577e-03 -5.203495379453304537e-01
5.000000000000000000e-01 2.888170508042544899e-03 -1.720697397691751257e-03 -3.489626974149359073e-01
5.999999999999999778e-01 3.397391164876163976e-03 -1.097307664052486666e-03 -1.735209216428748313e-01
6.999999999999999556e-01 3.608493668823794902e-03 -1.682362966981387070e-04 -6.215331758692450165e-03
7.999999999999999334e-01 3.394342295334446848e-03 9.032474496210073436e-04 1.436369140780106302e-01
8.999999999999999112e-01 2.711136807277629568e-03 1.884301024265347228e-03 2.701678866393298351e-01
9.999999999999998890e-01 1.641000479232064936e-03 2.527869553681065268e-03 3.709000137075708081e-01
1.099999999999999867e+00 3.961638528170723268e-04 2.651458416752290430e-03 4.462315525647906900e-01
1.199999999999999956e+00 -7.298365476778566081e-04 2.213907411124971941e-03 4.986130245048182585e-01
1.300000000000000044e+00 -1.457250205158535337e-03 1.349579683203449383e-03 5.316989681239344678e-01
1.399999999999999911e+00 -1.627412909529399234e-03 3.369344779875172932e-04 5.495683356715052037e-01
1.500000000000000000e+00 -1.272543135881563491e-03 -5.016141910395561891e-04 5.561456501813286657e-01
1.599999999999999867e+00 -6.078115728728724970e-04 -9.278052991356938338e-04 5.548427137030538248e-01
1.699999999999999956e+00 6.231238066897531406e-05 -8.849601994311204461e-04 5.483949608015966648e-01
1.800000000000000044e+00 4.797829619992407873e-04 -5.105089511843421317e-04 5.388502136972702639e-01
1.899999999999999911e+00 5.440483121598848476e-04 -5.420201422891236711e-05 5.276454718230949581e-01
2.000000000000000000e+00 3.358340618655524727e-04 2.554169825056728030e-04 5.157278448427493611e-01
2.099999999999999645e+00 4.491369602624395961e-05 3.189828602534882794e-04 5.036818512508605128e-01
2.199999999999999734e+00 -1.516427822941171088e-04 1.905820165887274205e-04 4.918418680269865950e-01
2.299999999999999822e+00 -1.821128675016689771e-04 1.020947947128370437e-05 4.803802581533823668e-01
2.399999999999999911e+00 -9.273635766593120216e-05 -9.854472818386858794e-05 4.693712841387436829e-01
2.500000000000000000e+00 1.461043527780193170e-05 -9.859354019400165471e-05 4.588337547859511756e-01
2.600000000000000089e+00 6.412041717126273346e-05 -3.439240141009162718e-05 4.487580871341598776e-01
2.699999999999999734e+00 4.704858617148317254e-05 2.378917281598955829e-05 4.391216601914110784e-01
2.799999999999999822e+00 4.301230324393704189e-06 3.777991485992106063e-05 4.298975431369393974e-01
2.899999999999999911e+00 -2.136354689788700514e-05 1.694723308457790970e-05 4.210585440778999433e-01
3.000000000000000000e+00 -1.807082675335537671e-05 -7.125666883058490652e-06 4.125791359111986023e-01
