0.000000000000000000e+00 3.379275199916917212e-09 2.414530237512095250e-09 -1.000000000000000000e+00
1.230769230769230699e-01 1.650982776576321309e-01 -1.866378707447162444e-02 -9.860990148432484670e-01
2.461538461538461398e-01 3.184057520030413868e-01 -1.776613036931749823e-02 -9.477849006827920864e-01
3.692307692307691958e-01 4.471237319053352754e-01 1.754507081560985338e-02 -8.942951296096778302e-01
4.923076923076922795e-01 5.372760550272025482e-01 9.368926150606360359e-02 -8.381799480582001749e-01
6.153846153846153078e-01 5.747781880327937909e-01 2.063894680729955744e-01 -7.918463147923816559e-01
7.384615384615383915e-01 5.478765184160466761e-01 3.404996963257627129e-01 -7.641187851493242977e-01
8.615384615384614753e-01 4.504959187984408087e-01 4.720626868512736718e-01 -7.577573969207556104e-01
9.846153846153845590e-01 2.856148882939804068e-01 5.723730777263841274e-01 -7.686348757415364386e-01
1.107692307692307532e+00 6.758578214372633342e-02 6.134595938257011438e-01 -7.868204883864701182e-01
1.230769230769230616e+00 -1.775939331126945853e-01 5.740457016244924215e-01 -7.993243100430630355e-01
1.353846153846153699e+00 -4.146848257125743675e-01 4.448836199072450093e-01 -7.937898264773709522e-01
1.476923076923076783e+00 -6.042582766504618341e-01 2.323310042395890229e-01 -7.621551115380306163e-01
1.599999999999999867e+00 -7.097324939577178693e-01 -4.075783733900556483e-02 -7.032801583553378588e-01
1.723076923076922951e+00 -7.050374948305559997e-01 -3.373146290855382756e-01 -6.237974885977383144e-01
1.846153846153846034e+00 -5.812758785428296937e-01 -6.114489595939880395e-01 -5.368695906107994187e-01
1.969230769230769118e+00 -3.506877519123751119e-01 -8.162182610822892315e-01 -4.591131232878831736e-01
2.092307692307691980e+00 -4.669258702168088693e-02 -9.124782962007805809e-01 -4.064250928959095566e-01
2.215384615384615064e+00 2.804865747460710823e-01 -8.771524335829770092e-01 -3.897548616586064552e-01
2.338461538461538147e+00 5.721582216531075904e-01 -7.091657064403051880e-01 -4.119432439700169701e-01
2.461538461538461231e+00 7.720682204506238433e-01 -4.315939203216317965e-01 -4.664938173885052608e-01
2.584615384615384315e+00 8.377649413886860685e-01 -8.922920191789505961e-02 -5.386729224364577018e-01
2.707692307692307399e+00 7.500547976924699656e-01 2.584156519495319770e-01 -6.087865972690935656e-01
2.830769230769230482e+00 5.183811212067913621e-01 5.475778844254121092e-01 -6.568276867860204371e-01
2.953846153846153566e+00 1.806737293566994529e-01 7.223949909341853548e-01 -6.674473097482080952e-01
3.076923076923076650e+00 -2.026693195536412584e-01 7.463451488952050905e-01 -6.339374066994527546e-01
3.199999999999999734e+00 -5.597761976242912052e-01 6.105419530393385585e-01 -5.602410574770984031e-01
3.323076923076922817e+00 -8.212721106767529866e-01 3.369784087460256927e-01 -4.603658465152931645e-01
3.446153846153845901e+00 -9.344211895325112982e-01 -2.433961449915861275e-02 -3.553056922074733226e-01
3.569230769230768985e+00 -8.744969607160864022e-01 -4.041534075376813639e-01 -2.681261829021218124e-01
3.692307692307692069e+00 -6.508392130217237614e-01 -7.271164620787010646e-01 -2.183714593841219187e-01
3.815384615384615152e+00 -3.060804899273669166e-01 -9.268884048769958639e-01 -2.171836535452862926e-01
3.938461538461538236e+00 9.158321001931910010e-02 -9.600618194707934983e-01 -2.643299776477689433e-01
4.061538461538461320e+00 4.617043117426951060e-01 -8.159297972355431527e-01 -3.479441125031296211e-01
4.184615384615383959e+00 7.279074617145642190e-01 -5.198364269397884874e-01 -4.471013501062613416e-01
4.307692307692307487e+00 8.338440605102973580e-01 -1.290783962649684480e-01 -5.366779982798161042e-01
4.430769230769230127e+00 7.553823932170327105e-01 2.780503073368543743e-01 -5.933523972780745392e-01
4.553846153846153655e+00 5.063595884565121885e-01 6.180724985955432516e-01 -6.013053564053942868e-01
4.676923076923076295e+00 1.364376443421221885e-01 8.197499646407859775e-01 -5.562153909060575385e-01
4.799999999999999822e+00 -2.786489123392807410e-01 8.394444712919232332e-01 -4.665478483774785357e-01
