0.000000000000000000e+00 1.355282284441189082e-09 4.099558541573532823e-09 -1.000000000000000000e+00
1.230769230769230699e-01 -1.372227219308336417e-03 1.085954508800392009e-02 -9.999400067890059640e-01
2.461538461538461398e-01 -3.550478085546551754e-03 2.161732512037075130e-02 -9.997598554272290050e-01
3.692307692307691958e-01 -7.283536464503959779e-03 3.206624151327075456e-02 -9.994589777033465738e-01
4.923076923076922795e-01 -1.328621107572903678e-02 4.182185506134884073e-02 -9.990364423310394981e-01
6.153846153846153078e-01 -2.215867563282145417e-02 5.024150602123995252e-02 -9.984908845989910464e-01
7.384615384615383915e-01 -3.427829071642721215e-02 5.637123998129429936e-02 -9.978208311156104848e-01
8.615384615384614753e-01 -4.966132221298888427e-02 5.895403530761141042e-02 -9.970241549885270338e-01
9.846153846153845590e-01 -6.779168690114785456e-02 5.648618840659706819e-02 -9.960986138153719027e-01
1.107692307692307532e+00 -8.742565017672038197e-02 4.740194773545632068e-02 -9.950419703481334643e-01
1.230769230769230616e+00 -1.064721534183983298e-01 3.035901048049662043e-02 -9.938513849298101777e-01
1.353846153846153699e+00 -1.219478194949809996e-01 4.648119694620807957e-03 -9.925248343968544606e-01
1.476923076923076783e+00 -1.301464112030186471e-01 -2.931537729124279040e-02 -9.910604436604188994e-01
1.599999999999999867e+00 -1.270641664780365609e-01 -6.949847095509627259e-02 -9.894558074187764785e-01
1.723076923076922951e+00 -1.091056054670974801e-01 -1.119078800188716555e-01 -9.877097632783706782e-01
1.846153846153846034e+00 -7.407436990010057842e-02 -1.505591836909396242e-01 -9.858208464423239281e-01
1.969230769230769118e+00 -2.226568677432051724e-02 -1.779306056448169693e-01 -9.837899315764413455e-01
2.092307692307691980e+00 4.254231861161263117e-02 -1.860580432439615794e-01 -9.816160566676862542e-01
2.215384615384615064e+00 1.125987257298723954e-01 -1.681961451767937654e-01 -9.793002352125738108e-01
2.338461538461538147e+00 1.765080713011355218e-01 -1.208994220523678664e-01 -9.768446321891197659e-01
2.461538461538461231e+00 2.207077980250003457e-01 -4.605416618962300535e-02 -9.742505495748345901e-01
2.584615384615384315e+00 2.320806031805234815e-01 4.777686996827673616e-02 -9.715208954319257684e-01
2.707692307692307399e+00 2.014299810674980151e-01 1.453361305246559931e-01 -9.686589213089714656e-01
2.830769230769230482e+00 1.270645874763855765e-01 2.265814282620475517e-01 -9.656666194443415119e-01
2.953846153846153566e+00 1.742327390063036496e-02 2.705401676783874554e-01 -9.625491415672717821e-01
3.076923076923076650e+00 -1.083930783374113388e-01 2.607119656644069083e-01 -9.593104002693727539e-01
3.199999999999999734e+00 -2.230760017630052106e-01 1.907490711686195550e-01 -9.559539477212875003e-01
3.323076923076922817e+00 -2.967159053703229965e-01 6.871621087522353233e-02 -9.524881387584334114e-01
3.446153846153845901e+00 -3.047340945628204678e-01 -8.182511002232989439e-02 -9.489138578590833317e-01
3.569230769230768985e+00 -2.361537545995018028e-01 -2.252768804592651386e-01 -9.452392906088837865e-01
3.692307692307692069e+00 -9.971882163297565715e-02 -3.220118443495246230e-01 -9.414669056240554390e-01
3.815384615384615152e+00 7.489476583276605259e-02 -3.395394199054486140e-01 -9.376028001490985808e-01
3.938461538461538236e+00 2.422744515622909656e-01 -2.638086859887323610e-01 -9.336504318956146964e-01
4.061538461538461320e+00 3.526883455068448581e-01 -1.068562374705806228e-01 -9.296169126095248370e-01
4.184615384615383959e+00 3.672124119019063992e-01 9.266333868177537014e-02 -9.255070696468830072e-01
4.307692307692307487e+00 2.720255081027868616e-01 2.777738414780401843e-01 -9.213242821499864066e-01
4.430769230769230127e+00 8.672896440585753375e-02 3.891560862972380797e-01 -9.170769125573055014e-01
4.553846153846153655e+00 -1.373995128399983223e-01 3.846666551129669376e-01 -9.127689875191532520e-01
4.676923076923076295e+00 -3.305547620846542300e-01 2.559929627038555200e-01 -9.084026029748580866e-01
4.799999999999999822e+00 -4.260494791806218040e-01 3.589258370734549342e-02 -9.039842517072558259e-01
