0.000000000000000000e+00 2.399623841039083788e-09 6.022344471416096365e-10 -1.000000000000000000e+00
1.230769230769230699e-01 -5.980995151128237070e-02 -5.596660714915783347e-02 -9.966393245401956591e-01
2.461538461538461398e-01 -1.121044127164957660e-01 -1.182064430313179287e-01 -9.866401170163887624e-01
3.692307692307691958e-01 -1.484335359191792381e-01 -1.912873527906281401e-01 -9.702447894983499133e-01
4.923076923076922795e-01 -1.589657306641170664e-01 -2.762721146654434912e-01 -9.478403471829921489e-01
6.153846153846153078e-01 -1.330719608848768276e-01 -3.687973621311376182e-01 -9.199334184729563990e-01
7.384615384615383915e-01 -6.135133194690701314e-02 -4.574383640853284527e-01 -8.871204344108435391e-01
8.615384615384614753e-01 6.079986761293988684e-02 -5.231643295134302818e-01 -8.500578589458891443e-01
9.846153846153845590e-01 2.284529956033278242e-01 -5.409599006470062754e-01 -8.094237676657445313e-01
1.107692307692307532e+00 4.225360251782118715e-01 -4.846066091452290170e-01 -7.659076084733124068e-01
1.230769230769230616e+00 6.075401218523805991e-01 -3.350446771348344344e-01 -7.201626350783342234e-01
1.353846153846153699e+00 7.341925028577849233e-01 -9.102784400203867143e-02 -6.728067608959700241e-01
1.476923076923076783e+00 7.492063208204551295e-01 2.209273887349382792e-01 -6.243989966077182485e-01
1.599999999999999867e+00 6.121692050647052907e-01 5.423123528909146174e-01 -5.754466773336684993e-01
1.723076923076922951e+00 3.160732479802989547e-01 7.893144734888285496e-01 -5.263769164010027035e-01
1.846153846153846034e+00 -9.597716265750377840e-02 8.733290321784017429e-01 -4.775738770468208605e-01
1.969230769230769118e+00 -5.276149800308881366e-01 7.329921236304459686e-01 -4.293445171790586934e-01
2.092307692307691980e+00 -8.477374821402227090e-01 3.680513789718442008e-01 -3.819303413019401461e-01
2.215384615384615064e+00 -9.315334186001250627e-01 -1.401624520404128327e-01 -3.355460698372070838e-01
2.338461538461538147e+00 -7.138272403940145727e-01 -6.372937541323930866e-01 -2.903418347645498332e-01
2.461538461538461231e+00 -2.332808705061660826e-01 -9.406574673672768450e-01 -2.464434071291705108e-01
2.584615384615384315e+00 3.578450565909461201e-01 -9.112349631581819764e-01 -2.039325104959616719e-01
2.707692307692307399e+00 8.349575158410029729e-01 -5.256593509257860841e-01 -1.628459464309895965e-01
2.830769230769230482e+00 9.884132404790211268e-01 8.856074292126142611e-02 -1.232348059267317358e-01
2.953846153846153566e+00 7.247757958032492454e-01 6.837016275350535910e-01 -8.510371044983053301e-02
3.076923076923076650e+00 1.322828311895957176e-01 9.900229285070627494e-01 -4.843835039675337822e-02
3.199999999999999734e+00 -5.336445984738606985e-01 8.455996749129224277e-01 -1.323084029127100970e-02
3.323076923076922817e+00 -9.555184641181921901e-01 2.941992388931056190e-01 2.053482265530346546e-02
3.446153846153845901e+00 -9.105161188307764331e-01 -4.100602907135263431e-01 5.292824788709327849e-02
3.569230769230768985e+00 -4.006301398622850729e-01 -9.123799186718932752e-01 8.395728682137031107e-02
3.692307692307692069e+00 3.234299770002994068e-01 -9.393954987739433493e-01 1.136646223531084521e-01
3.815384615384615152e+00 8.766278870780975785e-01 -4.596903061041854310e-01 1.421228669170978287e-01
3.938461538461538236e+00 9.461647805503470288e-01 2.758278879163151842e-01 1.693571372433648192e-01
4.061538461538461320e+00 4.792931237004425249e-01 8.556138180559962336e-01 1.954323180493041656e-01
4.184615384615383959e+00 -2.651607405303121334e-01 9.386759265850500578e-01 2.203814649905967427e-01
4.307692307692307487e+00 -8.507351539715806155e-01 4.653706695524686410e-01 2.442759024157577230e-01
4.430769230769230127e+00 -9.197635305253387683e-01 -2.875067800614702351e-01 2.671438986746041411e-01
4.553846153846153655e+00 -4.216648159605693169e-01 -8.594462632239797673e-01 2.890361472966571643e-01
4.676923076923076295e+00 3.379796350492926260e-01 -8.886282349471246178e-01 3.100010524825445590e-01
4.799999999999999822e+00 8.765053170901524471e-01 -3.503882274075313386e-01 3.300874956734404786e-01
