0.000000000000000000e+00 1.497966449336441972e-09 -1.924366031229345425e-09 -1.000000000000000000e+00
1.230769230769230699e-01 1.973829112797670926e-01 -2.742500585403087054e-01 -9.411825139416913899e-01
2.461538461538461398e-01 4.144463607868700272e-01 -4.750350750627312379e-01 -7.762544050541421159e-01
3.692307692307691958e-01 6.478547644437870900e-01 -5.412960592036744067e-01 -5.359808109270040033e-01
4.923076923076922795e-01 8.594745953049468534e-01 -4.397095682903043312e-01 -2.606723619918945856e-01
6.153846153846153078e-01 9.834167668358992920e-01 -1.809856359912115908e-01 1.124322833906861267e-02
7.384615384615383915e-01 9.524616540252685004e-01 1.712604373807513625e-01 2.519480440326734572e-01
8.615384615384614753e-01 7.347538439860443749e-01 5.096675711877725057e-01 4.476246096159816057e-01
9.846153846153845590e-01 3.633808003652898022e-01 7.153932659517527881e-01 5.967913956771322415e-01
1.107692307692307532e+00 -6.000738983600401033e-02 7.060012004233157112e-01 7.056597099245074389e-01
1.230769230769230616e+00 -3.970957019648861386e-01 4.783030081447192106e-01 7.832855700342092886e-01
1.353846153846153699e+00 -5.316399518555936510e-01 1.210307448770522876e-01 8.382758164600461193e-01
1.476923076923076783e+00 -4.278766388885256733e-01 -2.170911123927663500e-01 8.773764888910976500e-01
1.599999999999999867e+00 -1.552280006364041010e-01 -3.951093774022127469e-01 9.054224250456428535e-01
1.723076923076922951e+00 1.406218605005463418e-01 -3.509103871986626322e-01 9.257886886237823854e-01
1.846153846153846034e+00 3.108569548479261924e-01 -1.350490047177553832e-01 9.408120715961852953e-01
1.969230769230769118e+00 2.827245217931584342e-01 1.165619888310489849e-01 9.520914058830917126e-01
2.092307692307691980e+00 9.786675264943067720e-02 2.597888296000189223e-01 9.606924379113592760e-01
2.215384615384615064e+00 -1.160960446773736249e-01 2.253649742220141805e-01 9.673317020922022058e-01
2.338461538461538147e+00 -2.258874841720736604e-01 5.640125553956530646e-02 9.725184697063322670e-01
2.461538461538461231e+00 -1.751184507753071329e-01 -1.245963499130020996e-01 9.766308601692850200e-01
2.584615384615384315e+00 -1.550976305196224980e-02 -1.986690405387626090e-01 9.799432316490314099e-01
2.707692307692307399e+00 1.340041597345845714e-01 -1.282762014824144203e-01 9.826428003481373352e-01
2.830769230769230482e+00 1.718731506312807522e-01 2.272494944145274365e-02 9.848563612082831265e-01
2.953846153846153566e+00 8.300444561956085709e-02 1.398933888239042855e-01 9.866808127638962977e-01
3.076923076923076650e+00 -5.624293735692018070e-02 1.424504181649219603e-01 9.882022081340485764e-01
3.199999999999999734e+00 -1.391231524619347126e-01 3.941335788298474391e-02 9.894899603204099225e-01
3.323076923076922817e+00 -1.089814629392146517e-01 -8.278074845193507392e-02 9.905904732923189737e-01
3.446153846153845901e+00 1.465124209104586017e-03 -1.298509089784820325e-01 9.915320166746758312e-01
3.569230769230768985e+00 1.004983758102094699e-01 -7.189015299752100907e-02 9.923361662478391576e-01
3.692307692307692069e+00 1.117813590661877188e-01 3.740350498656402900e-02 9.930282598392055071e-01
3.815384615384615152e+00 3.321471245876009282e-02 1.076465444320973130e-01 9.936338676653391211e-01
3.938461538461538236e+00 -6.561849687213616722e-02 8.555549372185873580e-02 9.941698841664196040e-01
4.061538461538461320e+00 -1.032694069246390262e-01 -4.343846316946379030e-03 9.946435949283495281e-01
4.184615384615383959e+00 -5.319622434879126005e-02 -8.383424620459993537e-02 9.950584524109524764e-01
4.307692307692307487e+00 3.737682906735968064e-02 -8.795876747674827301e-02 9.954223209844806908e-01
4.430769230769230127e+00 9.031501282541996856e-02 -1.816113881902247165e-02 9.957473373092898816e-01
4.553846153846153655e+00 6.345645941685945646e-02 6.223119550000320854e-02 9.960421506889609589e-01
4.676923076923076295e+00 -1.560340878887171018e-02 8.439102442286738892e-02 9.963102528575300543e-01
4.799999999999999822e+00 -7.624121643639841794e-02 3.277956999664653759e-02 9.965501608023303870e-01
