0.000000000000000000e+00 2.172242239442469501e-09 -9.350772432063792706e-10 -1.000000000000000000e+00
1.230769230769230699e-01 6.986084182767487993e-02 4.276741840239556280e-02 -9.966393102667925330e-01
2.461538461538461398e-01 1.390011943193377175e-01 8.496622229669130444e-02 -9.866399695602449116e-01
3.692307692307691958e-01 2.067339270794162076e-01 1.260346214486428029e-01 -9.702447485220523360e-01
4.923076923076922795e-01 2.724280756554167127e-01 1.654677505772715607e-01 -9.478403648889823785e-01
6.153846153846153078e-01 3.355336972727708811e-01 2.028249120903788394e-01 -9.199329561610178896e-01
7.384615384615383915e-01 3.955946802793972594e-01 2.377379572178202061e-01 -8.871202936946165352e-01
8.615384615384614753e-01 4.522578313774248127e-01 2.699293918054780916e-01 -8.500572592290279728e-01
9.846153846153845590e-01 5.052750618826223894e-01 2.992079477713579516e-01 -8.094242082550826556e-01
1.107692307692307532e+00 5.544924582259079804e-01 3.254534485099838115e-01 -7.659069750438964874e-01
1.230769230769230616e+00 5.998470520246156346e-01 3.486294086786708712e-01 -7.201637978195291057e-01
1.353846153846153699e+00 6.413597960119260533e-01 3.687597270728363852e-01 -6.728062647086751058e-01
1.476923076923076783e+00 6.791044767549975214e-01 3.859239961465807944e-01 -6.243987142585188943e-01
1.599999999999999867e+00 7.132082776518512413e-01 4.002366808461338965e-01 -5.754460456411562008e-01
1.723076923076922951e+00 7.438358164327012467e-01 4.118549079768684673e-01 -5.263811092619062881e-01
1.846153846153846034e+00 7.711799336134850247e-01 4.209468540309743156e-01 -4.775753430357441709e-01
1.969230769230769118e+00 7.954474159073988693e-01 4.276963267207266606e-01 -4.293389578003472540e-01
2.092307692307691980e+00 8.168497974522368477e-01 4.322953764242729591e-01 -3.819287319928513225e-01
2.215384615384615064e+00 8.356020194902932241e-01 4.349379853587990730e-01 -3.355450072578861076e-01
2.338461538461538147e+00 8.519182966635460152e-01 4.358069267017842252e-01 -2.903439417702563530e-01
2.461538461538461231e+00 8.660011634847313289e-01 4.350862000236846994e-01 -2.464425153862446760e-01
2.584615384615384315e+00 8.780480011224210957e-01 4.329417136744324601e-01 -2.039239982508172233e-01
2.707692307692307399e+00 8.882401981959896498e-01 4.295378125473580111e-01 -1.628445409213662431e-01
2.830769230769230482e+00 8.967511295929361248e-01 4.250216882001480179e-01 -1.232300139855530691e-01
2.953846153846153566e+00 9.037382769551887129e-01 4.195321113269495639e-01 -8.509729153583393824e-02
3.076923076923076650e+00 9.093511003449256114e-01 4.131901687999747774e-01 -4.843598477162033844e-02
3.199999999999999734e+00 9.137224674878584585e-01 4.061129504620422104e-01 -1.323239084330021971e-02
3.323076923076922817e+00 9.169746777212586242e-01 3.984055826572211467e-01 2.054278044625216723e-02
3.446153846153845901e+00 9.192208893070163978e-01 3.901578354764501100e-01 5.292834475574555164e-02
3.569230769230768985e+00 9.205622915961573227e-01 3.814553656066816401e-01 8.395528826452081095e-02
3.692307692307692069e+00 9.210925118426768199e-01 3.723697451465559083e-01 1.136706219511987026e-01
3.815384615384615152e+00 9.208928659535523531e-01 3.629722413051652552e-01 1.421238101486115846e-01
3.938461538461538236e+00 9.200406407855232782e-01 3.533186985238888633e-01 1.693601474407199492e-01
4.061538461538461320e+00 9.186022181294658528e-01 3.434642095478210866e-01 1.954331066983515386e-01
4.184615384615383959e+00 9.166395336561982132e-01 3.334572096949791620e-01 2.203862826423404198e-01
4.307692307692307487e+00 9.142092877393915851e-01 3.233318108950763436e-01 2.442741175934221853e-01
4.430769230769230127e+00 9.113594659321545555e-01 3.131293952692617011e-01 2.671439745398390131e-01
4.553846153846153655e+00 9.081360424415710897e-01 3.028840319011408266e-01 2.890367897176070455e-01
4.676923076923076295e+00 9.045798971100320607e-01 2.926170012828597233e-01 3.100042605828979281e-01
4.799999999999999822e+00 9.007266155339666014e-01 2.823597325514016765e-01 3.300859938007909555e-01
