0.000000000000000000e+00 2.125597412780488657e-09 1.140557452147197970e-09 -1.000000000000000000e+00
1.230769230769230699e-01 7.768990096193578720e-02 4.368887728529129988e-01 -8.961525159260407269e-01
2.461538461538461398e-01 1.100260659990100198e-01 7.823188478991963679e-01 -6.130782851747478279e-01
3.692307692307691958e-01 7.728961516578802815e-02 9.713687087156388511e-01 -2.246340947139678079e-01
4.923076923076922795e-01 -4.219684112047983326e-03 9.838910154719345824e-01 1.786949485480695821e-01
6.153846153846153078e-01 -9.272939602145216509e-02 8.481024044478866486e-01 5.216477460799489041e-01
7.384615384615383915e-01 -1.454173292541444396e-01 6.276842189611215872e-01 7.647622776418816493e-01
8.615384615384614753e-01 -1.415395343627068869e-01 3.968593827386631689e-01 9.068992393455787004e-01
9.846153846153845590e-01 -9.088167236678243444e-02 2.135707320072245952e-01 9.726903679612078912e-01
1.107692307692307532e+00 -2.399673849507427681e-02 1.024069163845298808e-01 9.944527670341988257e-01
1.230769230769230616e+00 2.776744225832648155e-02 5.423438623242173018e-02 9.981418746131518471e-01
1.353846153846153699e+00 4.910169584250132641e-02 4.076749057974886348e-02 9.979612308580251279e-01
1.476923076923076783e+00 4.481066502734176726e-02 3.429728854889881051e-02 9.984063947026595720e-01
1.599999999999999867e+00 3.100630850659177873e-02 2.128542130216154807e-02 9.992923923044280121e-01
1.723076923076922951e+00 2.171478154934547780e-02 3.574192852609494632e-03 9.997577394806105300e-01
1.846153846153846034e+00 2.070433961193802672e-02 -1.017687403551636657e-02 9.997337641133871022e-01
1.969230769230769118e+00 2.274327496247015648e-02 -1.465969546124605734e-02 9.996337572608919864e-01
2.092307692307691980e+00 2.108678912770407463e-02 -1.207442739616207059e-02 9.997046487938179293e-01
2.215384615384615064e+00 1.398417277091161884e-02 -8.913670688903909886e-03 9.998624250447224471e-01
2.338461538461538147e+00 5.297527923797269375e-03 -9.684729370610430793e-03 9.999390275200782385e-01
2.461538461538461231e+00 3.678025494888333136e-05 -1.358936604028580797e-02 9.999076093985637126e-01
2.584615384615384315e+00 -3.843772021969484032e-04 -1.641447475865105698e-02 9.998651399079750979e-01
2.707692307692307399e+00 1.154393579960399235e-03 -1.513563327862026825e-02 9.998847277732372252e-01
2.830769230769230482e+00 7.445426364764071159e-04 -1.069400175301284117e-02 9.999424996929821008e-01
2.953846153846153566e+00 -2.771505490223464315e-03 -6.701188215730549159e-03 9.999736774831798902e-01
3.076923076923076650e+00 -7.089409631983253565e-03 -5.783534026415530251e-03 9.999581093425966571e-01
3.199999999999999734e+00 -9.059364863161742040e-03 -7.249470203532407120e-03 9.999326406861944738e-01
3.323076923076922817e+00 -7.833006205409481087e-03 -8.160420091787953800e-03 9.999359810749529620e-01
3.446153846153845901e+00 -5.488022058251132602e-03 -6.410124719569386398e-03 9.999643625706545746e-01
3.569230769230768985e+00 -4.791183089439592091e-03 -2.713704421126428377e-03 9.999848177691095241e-01
3.692307692307692069e+00 -6.483515577099164921e-03 3.007258624073588012e-04 9.999789107231281671e-01
3.815384615384615152e+00 -8.742082274026985109e-03 8.070846089462888062e-04 9.999614276000267088e-01
3.938461538461538236e+00 -9.188851640171661825e-03 -5.054114274356258374e-04 9.999576184366428810e-01
4.061538461538461320e+00 -7.285971768989525296e-03 -1.285455789740124876e-03 9.999726016231964554e-01
4.184615384615383959e+00 -4.775325106651569056e-03 4.087367048239299444e-05 9.999885776262376069e-01
4.307692307692307487e+00 -3.823623295775113555e-03 2.765260216454903767e-03 9.999888471586340088e-01
4.430769230769230127e+00 -4.867644695682805597e-03 4.733955020076798491e-03 9.999769206463225979e-01
4.553846153846153655e+00 -6.269835041662624384e-03 4.577680267366612127e-03 9.999698361585895867e-01
4.676923076923076295e+00 -6.106380936035360994e-03 3.051924121875102154e-03 9.999766716023753554e-01
4.799999999999999822e+00 -4.091966060711227544e-03 2.160347310430020627e-03 9.999892752435275423e-01
