0.000000000000000000e+00 -2.284969554537941048e-09 1.239980689021224132e-09 -1.000000000000000000e+00
1.230769230769230699e-01 -2.777028146232037309e-01 2.703831375809208071e-01 -9.218298919224940935e-01
2.461538461538461398e-01 -5.062628522809922149e-01 4.958714837927396535e-01 -7.055504905168850094e-01
3.692307692307691958e-01 -6.501218955075278583e-01 6.464081294154331303e-01 -3.993581108900693954e-01
4.923076923076922795e-01 -6.961863005394968162e-01 7.149184655103348884e-01 -6.483591440101801884e-02
6.153846153846153078e-01 -6.549908652078184623e-01 7.156733054482125045e-01 2.424595706234591586e-01
7.384615384615383915e-01 -5.542961038178333411e-01 6.746801106559049410e-01 4.873932243935361619e-01
8.615384615384614753e-01 -4.280521379616415434e-01 6.176078544945564630e-01 6.597903997205480930e-01
9.846153846153845590e-01 -3.052898404349266848e-01 5.611286452389799839e-01 7.693671823501538887e-01
1.107692307692307532e+00 -2.030446344706626494e-01 5.108764257719841106e-01 8.353277349926145900e-01
1.230769230769230616e+00 -1.253069137396785049e-01 4.651526140374320217e-01 8.763140748327469254e-01
1.353846153846153699e+00 -6.714542076914575830e-02 4.207309803880747712e-01 9.046948304060623558e-01
1.476923076923076783e+00 -2.097055716735621300e-02 3.768409415130990481e-01 9.260386031234243420e-01
1.599999999999999867e+00 1.844120952983482886e-02 3.355634372566765888e-01 9.418353958658471914e-01
1.723076923076922951e+00 5.228845066731037383e-02 2.995457885530489195e-01 9.526465142881809234e-01
1.846153846153846034e+00 7.925901104350169257e-02 2.695030282458678594e-01 9.597309606363471080e-01
1.969230769230769118e+00 9.832548552035708100e-02 2.435969832662408241e-01 9.648783253961934481e-01
2.092307692307691980e+00 1.105804980149077688e-01 2.189078050863047797e-01 9.694581343539822038e-01
2.215384615384615064e+00 1.189697106177716179e-01 1.936617564277864911e-01 9.738271179194235572e-01
2.338461538461538147e+00 1.264658841778040499e-01 1.683852363618130732e-01 9.775739772138515304e-01
2.461538461538461231e+00 1.342578002664987780e-01 1.451623464711289113e-01 9.802555499148082330e-01
2.584615384615384315e+00 1.413708933068198448e-01 1.257572402982770066e-01 9.819356784094814827e-01
2.707692307692307399e+00 1.458709698006430411e-01 1.101165650636251603e-01 9.831553029911577202e-01
2.830769230769230482e+00 1.467028355283841456e-01 9.639067412444352057e-02 9.844722091383748541e-01
2.953846153846153566e+00 1.446625608570080712e-01 8.237135775472255450e-02 9.860457404674131121e-01
3.076923076923076650e+00 1.418928421284783026e-01 6.716199973642161813e-02 9.876002598130798615e-01
3.199999999999999734e+00 1.402831407462602764e-01 5.175709185221247927e-02 9.887570474543797561e-01
3.323076923076922817e+00 1.401482793253699399e-01 3.811008730586139259e-02 9.893961671645140621e-01
3.446153846153845901e+00 1.401211913181800717e-01 2.753233929527174745e-02 9.897508464453447230e-01
3.569230769230768985e+00 1.383634706422350036e-01 1.959759642631565130e-02 9.901869659018188718e-01
3.692307692307692069e+00 1.340757010869470245e-01 1.249206891123715718e-02 9.908917419838716434e-01
3.815384615384615152e+00 1.281705752913405993e-01 4.408860372457832494e-03 9.917417570582386377e-01
3.938461538461538236e+00 1.225678316016711317e-01 -5.066499963191563316e-03 9.924466503115838556e-01
4.061538461538461320e+00 1.187153699230977522e-01 -1.471126634602883815e-02 9.928187975632342122e-01
4.184615384615383959e+00 1.165123548501866557e-01 -2.269790027351206371e-02 9.929293073813311166e-01
4.307692307692307487e+00 1.144384095055611117e-01 -2.805567221959754179e-02 9.930335696812595536e-01
4.430769230769230127e+00 1.108015171699457957e-01 -3.147202844354623358e-02 9.933435956326517324e-01
4.553846153846153655e+00 1.050888219546209368e-01 -3.473613861826128912e-02 9.938554948234573638e-01
4.676923076923076295e+00 9.838168881513158215e-02 -3.935179308566768425e-02 9.943699141047188661e-01
4.799999999999999822e+00 9.248717031480538364e-02 -4.538536121478591728e-02 9.946785226807236535e-01
