0.000000000000000000e+00 -2.516397807767638961e-09 -3.137600274813253312e-09 -1.000000000000000000e+00
1.230769230769230699e-01 -2.837705297903911697e-02 7.682344822258799222e-02 -9.966404575339501415e-01
2.461538461538461398e-01 -6.543618586238450496e-02 1.490708900067539977e-01 -9.866583057173198279e-01
3.692307692307691958e-01 -1.185951802782207742e-01 2.106806721167837348e-01 -9.703333222192834784e-01
4.923076923076922795e-01 -1.925155361113214114e-01 2.530332821391985121e-01 -9.481081571844153233e-01
6.153846153846153078e-01 -2.871243444483755347e-01 2.648262199662877459e-01 -9.205558758565579591e-01
7.384615384615383915e-01 -3.954726794142283119e-01 2.333535521912480648e-01 -8.883373059639270153e-01
8.615384615384614753e-01 -5.020385974162343556e-01 1.475627533724773177e-01 -8.521604411050914818e-01
9.846153846153845590e-01 -5.825946469824000440e-01 2.815020201945142575e-03 -8.127544780161800597e-01
1.107692307692307532e+00 -6.069638351097559337e-01 -1.934719965057752900e-01 -7.708157926039390651e-01
1.230769230769230616e+00 -5.454458437521021441e-01 -4.170486315537114130e-01 -7.270159125321327132e-01
1.353846153846153699e+00 -3.788846456082729519e-01 -6.256031594444512178e-01 -6.819525693786925302e-01
1.476923076923076783e+00 -1.102479040860677439e-01 -7.636312435947055777e-01 -6.361638390667527787e-01
1.599999999999999867e+00 2.261901068353280864e-01 -7.749802212863059481e-01 -5.901142920222057775e-01
1.723076923076922951e+00 5.632486745542455431e-01 -6.217676682591641857e-01 -5.441935590123578859e-01
1.846153846153846034e+00 8.113903306891098177e-01 -3.048084132774932509e-01 -4.987263088258502286e-01
1.969230769230769118e+00 8.825409971748987559e-01 1.225558586269975825e-01 -4.539729400947127291e-01
2.092307692307691980e+00 7.227182701902266082e-01 5.562862206421845812e-01 -4.101385043253809037e-01
2.215384615384615064e+00 3.426709711671181435e-01 8.646347240158392955e-01 -3.673863231015849773e-01
2.338461538461538147e+00 -1.678254235528483518e-01 9.304078440367206104e-01 -3.258294437971721580e-01
2.461538461538461231e+00 -6.542968435859500831e-01 7.002465423441750492e-01 -2.855508888226371833e-01
2.584615384615384315e+00 -9.435826843463519520e-01 2.209657440365138670e-01 -2.466061538928687180e-01
2.707692307692307399e+00 -9.101138580912596643e-01 -3.577656317106125972e-01 -2.090097735936058965e-01
2.830769230769230482e+00 -5.375106733910549606e-01 -8.253581044697586577e-01 -1.727851365328373356e-01
2.953846153846153566e+00 5.480556330404762200e-02 -9.889194391694055009e-01 -1.379239379028430190e-01
3.076923076923076650e+00 6.413186934301569053e-01 -7.601299102744463188e-01 -1.044084849216180971e-01
3.199999999999999734e+00 9.749746715035101374e-01 -2.102323382991621581e-01 -7.221488399129068203e-02
3.323076923076922817e+00 8.967439477088551270e-01 4.406046270107112361e-01 -4.130447952254208410e-02
3.446153846153845901e+00 4.206310465470167181e-01 9.071505978941485360e-01 -1.164086147115766905e-02
3.569230769230768985e+00 -2.532055969102749993e-01 9.672602093390607614e-01 1.681632899637415177e-02
3.692307692307692069e+00 -8.160807853799256772e-01 5.762412594863594029e-01 4.411755948836659780e-02
3.815384615384615152e+00 -9.930803729952484282e-01 -9.400981748690723228e-02 7.029776799510605023e-02
3.938461538461538236e+00 -6.846497649656413387e-01 -7.225923147977342254e-01 9.541131346577261252e-02
4.061538461538461320e+00 -3.189715653839342302e-02 -9.923168598700395915e-01 1.194911244757123070e-01
4.184615384615383959e+00 6.392227433252368751e-01 -7.556769873291395712e-01 1.426006888775432357e-01
4.307692307692307487e+00 9.783958974156224953e-01 -1.248330762756236223e-01 1.647622251443879304e-01
4.430769230769230127e+00 7.984805323272329280e-01 5.725443025338847747e-01 1.860385260830706988e-01
4.553846153846153655e+00 1.875668112213782490e-01 9.603025012620416412e-01 2.064614810119969335e-01
4.676923076923076295e+00 -5.252320281246334321e-01 8.203726955931661680e-01 2.260720101243215152e-01
4.799999999999999822e+00 -9.434095604987847716e-01 2.235772517298630913e-01 2.449088121990326272e-01
