0.000000000000000000e+00 -2.310178530459530517e-09 2.884787211191891268e-10 -1.000000000000000000e+00
1.230769230769230699e-01 8.001266505855919586e-03 3.875401774993660897e-01 -9.218148214204634483e-01
2.461538461538461398e-01 2.465629376567088360e-02 7.083631981469201699e-01 -7.054083860187321253e-01
3.692307692307691958e-01 5.726246755091840557e-02 9.149955796332693847e-01 -3.993572906949887091e-01
4.923076923076922795e-01 1.100985020895038913e-01 9.916314623717741306e-01 -6.727036049549173224e-02
6.153846153846153078e-01 1.828121678881502454e-01 9.555169109571763908e-01 2.314039268683244777e-01
7.384615384615383915e-01 2.694455747360607334e-01 8.474313367564667576e-01 4.574298862050746872e-01
8.615384615384614753e-01 3.589311829378439844e-01 7.154585037499643363e-01 5.993936023099420973e-01
9.846153846153845590e-01 4.375555133777231376e-01 5.985110210041255652e-01 6.710561091484934515e-01
1.107692307692307532e+00 4.929602876902748898e-01 5.156833741144137839e-01 7.007482065423880080e-01
1.230769230769230616e+00 5.184112552916877448e-01 4.647248682777712636e-01 7.178218481341359647e-01
1.353846153846153699e+00 5.155080555866804470e-01 4.289951272123907478e-01 7.417565964459083006e-01
1.476923076923076783e+00 4.939496468623716385e-01 3.889214884101991343e-01 7.776522241775855049e-01
1.599999999999999867e+00 4.680772385547489201e-01 3.325624307057237772e-01 8.187162294348446778e-01
1.723076923076922951e+00 4.513679173360236052e-01 2.608312259561985647e-01 8.533612869804881873e-01
1.846153846153846034e+00 4.511385912107988561e-01 1.857052350775230953e-01 8.729144367537231552e-01
1.969230769230769118e+00 4.657983255949037504e-01 1.231118612963295333e-01 8.762805423142975281e-01
2.092307692307691980e+00 4.859745168192586284e-01 8.433399715801007113e-02 8.698899488761472343e-01
2.215384615384615064e+00 4.991083074121838159e-01 7.026565379277957546e-02 8.636813035090216140e-01
2.338461538461538147e+00 4.954865523993627896e-01 7.108884301860957100e-02 8.656969895790822545e-01
2.461538461538461231e+00 4.729514006187157671e-01 7.127710799909489636e-02 8.781963400979263534e-01
2.584615384615384315e+00 4.380355249620163094e-01 5.726306386119081604e-02 8.971280797359761916e-01
2.707692307692307399e+00 4.029562500810697223e-01 2.390580869033262501e-02 9.149035219769212635e-01
2.830769230769230482e+00 3.798427671192401989e-01 -2.329659386125715326e-02 9.247544730561754189e-01
2.953846153846153566e+00 3.749609769097260736e-01 -7.125736657069206559e-02 9.242947194527683097e-01
3.076923076923076650e+00 3.856853363550919456e-01 -1.059296314109965942e-01 9.165257674866259530e-01
3.199999999999999734e+00 4.017581828294503610e-01 -1.192762318063384508e-01 9.079410407443702091e-01
3.323076923076922817e+00 4.102427222378116078e-01 -1.131472593868586146e-01 9.049264518261633805e-01
3.446153846153845901e+00 4.018339056516518903e-01 -9.829183680895031694e-02 9.104184320064636626e-01
3.569230769230768985e+00 3.754237011297795745e-01 -8.902133805747858286e-02 9.225650394684076216e-01
3.692307692307692069e+00 3.387144149183316522e-01 -9.622099498978772814e-02 9.359533467765279724e-01
3.815384615384615152e+00 3.044974970475776699e-01 -1.221423195525696281e-01 9.446467843529933184e-01
3.938461538461538236e+00 2.844349095519540516e-01 -1.594247318703561345e-01 9.453441623651848147e-01
4.061538461538461320e+00 2.833389128525545808e-01 -1.948398659513264353e-01 9.390160996709393526e-01
4.184615384615383959e+00 2.967778596547199776e-01 -2.158399902513292168e-01 9.302313397645175508e-01
4.307692307692307487e+00 3.132190536812713422e-01 -2.166921376217129103e-01 9.246255634252164013e-01
4.430769230769230127e+00 3.196690031500217799e-01 -2.012500868759458383e-01 9.259072731894815167e-01
4.553846153846153655e+00 3.080811525012202567e-01 -1.810106128230121736e-01 9.339784120658970457e-01
4.676923076923076295e+00 2.793409253394687486e-01 -1.694539533593952818e-01 9.451185364531092814e-01
4.799999999999999822e+00 2.428626529934073408e-01 -1.754562352895746025e-01 9.540588768220703564e-01
