0.000000000000000000e+00 5.647047718957938577e-09 1.675993969277723491e-10 -1.000000000000000000e+00
1.230769230769230699e-01 -1.215208470295830664e-02 -1.520657539085198962e-02 -9.998104409742029075e-01
2.461538461538461398e-01 -2.304486096894687100e-02 -3.136703827239041564e-02 -9.992420754376403202e-01
3.692307692307691958e-01 -3.131649232131303306e-02 -4.923844099473133340e-02 -9.982957445048420420e-01
4.923076923076922795e-01 -3.540697611460483230e-02 -6.921883324305340424e-02 -9.969726655783116565e-01
6.153846153846153078e-01 -3.355199880250535338e-02 -9.111317545207693602e-02 -9.952747859369629468e-01
7.384615384615383915e-01 -2.389733182689130625e-02 -1.138940264370484345e-01 -9.932050016000263382e-01
8.615384615384614753e-01 -4.764167166878885418e-03 -1.354948394631222408e-01 -9.907660728276057593e-01
9.846153846153845590e-01 2.491529117709359586e-02 -1.526783467916644765e-01 -9.879612120006200371e-01
1.107692307692307532e+00 6.499498296983784174e-02 -1.610990962648094216e-01 -9.847950977104349413e-01
1.230769230769230616e+00 1.133914368181727222e-01 -1.557078102146576826e-01 -9.812726347982292374e-01
1.353846153846153699e+00 1.654791976161547606e-01 -1.315508346571094000e-01 -9.773992900580222853e-01
1.476923076923076783e+00 2.137301466292799157e-01 -8.507107433897595494e-02 -9.731806200831718545e-01
1.599999999999999867e+00 2.480304561642753258e-01 -1.574556856130331084e-02 -9.686232595532608958e-01
1.723076923076922951e+00 2.569053160028835769e-01 7.219265050979623011e-02 -9.637353150392052870e-01
1.846153846153846034e+00 2.298627498809857062e-01 1.685075948369445242e-01 -9.585228417284485936e-01
1.969230769230769118e+00 1.606587719657405489e-01 2.568740324793556962e-01 -9.529963584567289203e-01
2.092307692307691980e+00 5.098206416057504686e-02 3.166706888576826806e-01 -9.471630854427356416e-01
2.215384615384615064e+00 -8.665677265257812345e-02 3.270241929841476436e-01 -9.410329581071398275e-01
2.338461538461538147e+00 -2.281360064073255089e-01 2.728441055575737129e-01 -9.346160510843551927e-01
2.461538461538461231e+00 -3.405272561611272231e-01 1.516467302275636697e-01 -9.279231520203621297e-01
2.584615384615384315e+00 -3.890750370379156831e-01 -2.099047910193181654e-02 -9.209651269317724598e-01
2.707692307692307399e+00 -3.477128750441333405e-01 -2.101233343803163844e-01 -9.137507973222579460e-01
2.830769230769230482e+00 -2.104942979916859525e-01 -3.664947579585531856e-01 -9.062947440881297112e-01
2.953846153846153566e+00 6.804704233774605537e-05 -4.387455231076505258e-01 -8.986092638109108854e-01
3.076923076923076650e+00 2.324208872045239460e-01 -3.906695342377990432e-01 -8.907041867897359522e-01
3.199999999999999734e+00 4.163338086337415866e-01 -2.183930067661694063e-01 -8.825908482996045468e-01
3.323076923076922817e+00 4.837908198789173109e-01 3.967639529054842185e-02 -8.742814252983404089e-01
3.446153846153845901e+00 3.952610050756573679e-01 3.068779552076053019e-01 -8.657887942818442983e-01
3.569230769230768985e+00 1.617308061599917468e-01 4.890545623976783607e-01 -8.571255523041699798e-01
3.692307692307692069e+00 -1.485102520535401538e-01 5.082476283772346948e-01 -8.483067608321137598e-01
3.815384615384615152e+00 -4.257859837862383312e-01 3.379638208012883949e-01 -8.393342193576315280e-01
3.938461538461538236e+00 -5.568825048125084498e-01 2.441956143846463201e-02 -8.302292114835144732e-01
4.061538461538461320e+00 -4.730290740750267009e-01 -3.196920301597677705e-01 -8.209966028995423493e-01
4.184615384615383959e+00 -1.879994202269364700e-01 -5.530661416494841998e-01 -8.116457214200135661e-01
4.307692307692307487e+00 1.942423630297395176e-01 -5.645731658191713853e-01 -8.021979639435029563e-01
4.430769230769230127e+00 5.131048343486345198e-01 -3.292700256381863588e-01 -7.926532007035638205e-01
4.553846153846153655e+00 6.183691703731077904e-01 6.695785350771188416e-02 -7.830264780426976490e-01
4.676923076923076295e+00 4.438110727468535521e-01 4.527679093466421278e-01 -7.733220558516523679e-01
4.799999999999999822e+00 5.099939382665652499e-02 6.437159488223297421e-01 -7.635593158755495935e-01
