0.000000000000000000e+00 -1.924491466513476083e-10 4.883878068729538858e-09 -1.000000000000000000e+00
1.230769230769230699e-01 -3.788618718393889362e-02 3.857464400217940348e-01 -9.218238711854086498e-01
2.461538461538461398e-01 -6.238816599469422519e-02 7.059384798600395472e-01 -7.055125268766321289e-01
3.692307692307691958e-01 -6.271358992213205141e-02 9.145612351797393069e-01 -3.995368907480457143e-01
4.923076923076922795e-01 -3.317716688877153652e-02 9.972172160815114816e-01 -6.663489194475614996e-02
6.153846153846153078e-01 2.503228463740048149e-02 9.715189400483560389e-01 2.356014556356234579e-01
7.384615384615383915e-01 1.035202969738002188e-01 8.764892540448190328e-01 4.701445130816115925e-01
8.615384615384614753e-01 1.885012862694502023e-01 7.561258768147358644e-01 6.266808195806671256e-01
9.846153846153845590e-01 2.646655460969069007e-01 6.441964046886688999e-01 7.176020636895431570e-01
1.107692307692307532e+00 3.200058058655054771e-01 5.560582979998878184e-01 7.670632763893788786e-01
1.230769230769230616e+00 3.497227637016882551e-01 4.895988138880327245e-01 7.987354657278915582e-01
1.353846153846153699e+00 3.574225617037949387e-01 4.331574372924339444e-01 8.274151440670112212e-01
1.476923076923076783e+00 3.528924321047874901e-01 3.754780575401482356e-01 8.570157744975108738e-01
1.599999999999999867e+00 3.473375677264859407e-01 3.126390283017225769e-01 8.840854742925342569e-01
1.723076923076922951e+00 3.482940941171216442e-01 2.491457507332819898e-01 9.036658210874979336e-01
1.846153846153846034e+00 3.566570255114585031e-01 1.937440873630230098e-01 9.139221192833522078e-01
1.969230769230769118e+00 3.672245404196480822e-01 1.531758597309095804e-01 9.174301429148693510e-01
2.092307692307691980e+00 3.723682784331557305e-01 1.277352938558554418e-01 9.192499089590076000e-01
2.215384615384615064e+00 3.667608410660944118e-01 1.110669685226915171e-01 9.236588182309571904e-01
2.338461538461538147e+00 3.505661982875463711e-01 9.394646703064449267e-02 9.318115160578919198e-01
2.461538461538461231e+00 3.293957117858399841e-01 6.962539175854015605e-02 9.416190611132019272e-01
2.584615384615384315e+00 3.111101241423243069e-01 3.747791097052333154e-02 9.496325173207640358e-01
2.707692307692307399e+00 3.013786845918229873e-01 2.971183772419505598e-03 9.534979012511430874e-01
2.830769230769230482e+00 3.005270962183082539e-01 -2.591688582841128463e-02 9.534190906701728307e-01
2.953846153846153566e+00 3.034984177966162378e-01 -4.359406696393658409e-02 9.518321212549073485e-01
3.076923076923076650e+00 3.029188004471916607e-01 -5.017655565378659199e-02 9.516925034396775951e-01
3.199999999999999734e+00 2.934567357606611693e-01 -5.138163446831220393e-02 9.545885565969675080e-01
3.323076923076922817e+00 2.749610563015312259e-01 -5.514191768202304778e-02 9.598709642184943824e-01
3.446153846153845901e+00 2.525434658261974663e-01 -6.698251856271117410e-02 9.652625967460900513e-01
3.569230769230768985e+00 2.335728645731365294e-01 -8.691790019139014611e-02 9.684450948366148948e-01
3.692307692307692069e+00 2.233758925919603622e-01 -1.095974262021042200e-01 9.685497014649752101e-01
3.815384615384615152e+00 2.221352929654920871e-01 -1.275694919156911689e-01 9.666326854338380681e-01
3.938461538461538236e+00 2.248182738786830837e-01 -1.357326100330468466e-01 9.648990260345299275e-01
4.061538461538461320e+00 2.241708015511574281e-01 -1.343261721863743541e-01 9.652464310497201883e-01
4.184615384615383959e+00 2.150053876289675647e-01 -1.287516839798778789e-01 9.680870694901044793e-01
4.307692307692307487e+00 1.972544376147806477e-01 -1.263929038285372952e-01 9.721690305755602557e-01
4.430769230769230127e+00 1.760010102570287449e-01 -1.322946055550943689e-01 9.754583906581570929e-01
4.553846153846153655e+00 1.584689695960685984e-01 -1.462508746107440971e-01 9.764710006586883040e-01
4.676923076923076295e+00 1.497592926387913137e-01 -1.630054936817901257e-01 9.751915893047384820e-01
4.799999999999999822e+00 1.498457381518442100e-01 -1.754088327566925010e-01 9.730237135155932471e-01
