0.000000000000000000e+00 -7.496363563400876046e-10 1.868164575856960872e-09 -1.000000000000000000e+00
1.230769230769230699e-01 -4.922303685904580450e-02 -2.027546568178442699e-02 -9.985816676147792892e-01
2.461538461538461398e-01 -9.804987832049633090e-02 -4.055876050915565439e-02 -9.943540383171013408e-01
3.692307692307691958e-01 -1.461060110665496070e-01 -6.081121647107941286e-02 -9.873971650189796723e-01
4.923076923076922795e-01 -1.930508840520199776e-01 -8.099227025751519482e-02 -9.778390019152440882e-01
6.153846153846153078e-01 -2.385832292315022973e-01 -1.010396082233446235e-01 -9.658498363879018944e-01
7.384615384615383915e-01 -2.824560334592659538e-01 -1.208722096063509777e-01 -9.516326587701985362e-01
8.615384615384614753e-01 -3.244721407819323722e-01 -1.403934792344013471e-01 -9.354159875689236348e-01
9.846153846153845590e-01 -3.644879142302593911e-01 -1.595125426352513309e-01 -9.174416777531977374e-01
1.107692307692307532e+00 -4.024079719472615779e-01 -1.781318959396880341e-01 -8.979594282891891766e-01
1.230769230769230616e+00 -4.381875834766529865e-01 -1.961725099944439943e-01 -8.772124274350924233e-01
1.353846153846153699e+00 -4.718215805864530155e-01 -2.135633097302236383e-01 -8.554344785002555573e-01
1.476923076923076783e+00 -5.033469173413708253e-01 -2.302440854164472250e-01 -8.328397131472276005e-01
1.599999999999999867e+00 -5.328168183029642346e-01 -2.461667952951069049e-01 -8.096295553045881332e-01
1.723076923076922951e+00 -5.603093577896494093e-01 -2.612922048663606778e-01 -7.859841763997084119e-01
1.846153846153846034e+00 -5.859124424477724080e-01 -2.755969949459354251e-01 -7.620654160952743394e-01
1.969230769230769118e+00 -6.097152141523329849e-01 -2.890727720598449402e-01 -7.380207203550515072e-01
2.092307692307691980e+00 -6.318196183969182478e-01 -3.017264915083264221e-01 -7.139712276032513794e-01
2.215384615384615064e+00 -6.523288221755475513e-01 -3.135848234047112770e-01 -6.900152389281035692e-01
2.338461538461538147e+00 -6.713523772658107625e-01 -3.246629458856842843e-01 -6.662348680850437299e-01
2.461538461538461231e+00 -6.890029920999471980e-01 -3.349839664861826161e-01 -6.426890091305810238e-01
2.584615384615384315e+00 -7.053843698483341917e-01 -3.445633763171723762e-01 -6.194329163928409265e-01
2.707692307692307399e+00 -7.205922472077298524e-01 -3.534125666613399108e-01 -5.965183842750055865e-01
2.830769230769230482e+00 -7.347085910022299604e-01 -3.615546729826630834e-01 -5.739938866281302232e-01
2.953846153846153566e+00 -7.478036351927829228e-01 -3.690251510580524474e-01 -5.519033687196180926e-01
3.076923076923076650e+00 -7.599465446388545820e-01 -3.758743952105956243e-01 -5.302702809438647469e-01
3.199999999999999734e+00 -7.712084909817088496e-01 -3.821495635372293420e-01 -5.091029178130984656e-01
3.323076923076922817e+00 -7.816608915908455080e-01 -3.878926626472436467e-01 -4.883972737995090907e-01
3.446153846153845901e+00 -7.913804369721226806e-01 -3.931295287678374661e-01 -4.681370575957711222e-01
3.569230769230768985e+00 -8.004352431095952403e-01 -3.978733138018875626e-01 -4.483147933604355595e-01
3.692307692307692069e+00 -8.088819781637202055e-01 -4.021219124135002598e-01 -4.289447692090659348e-01
3.815384615384615152e+00 -8.167600669528610746e-01 -4.058955831432897732e-01 -4.100454643203958471e-01
3.938461538461538236e+00 -8.241016194500148107e-01 -4.092225737998891333e-01 -3.916359843311076894e-01
4.061538461538461320e+00 -8.309291086224648293e-01 -4.121614470540643227e-01 -3.737177188254572902e-01
4.184615384615383959e+00 -8.372743356554490646e-01 -4.147577027150093354e-01 -3.562762380042455157e-01
4.307692307692307487e+00 -8.431778647192580411e-01 -4.170553378303653025e-01 -3.392651195362750838e-01
4.430769230769230127e+00 -8.486877337281457656e-01 -4.190640527787293790e-01 -3.226440860611068384e-01
4.553846153846153655e+00 -8.538490401160583332e-01 -4.207705978635093436e-01 -3.063960832856682526e-01
4.676923076923076295e+00 -8.586983961910005236e-01 -4.221583168241302420e-01 -2.905235749839400472e-01
4.799999999999999822e+00 -8.632532698911207225e-01 -4.232308060279589279e-01 -2.750525441373333768e-01
