0.000000000000000000e+00 -4.425146131888290066e-09 4.123328019822581275e-09 -1.000000000000000000e+00
1.230769230769230699e-01 1.914039006328744491e-02 -3.534166699124936806e-03 -9.998103317492659237e-01
2.461538461538461398e-01 3.864513744512268478e-02 -4.956804374735942348e-03 -9.992402761313462500e-01
3.692307692307691958e-01 5.849717636179545266e-02 -2.266069856756289073e-03 -9.982843790204932732e-01
4.923076923076922795e-01 7.804780010388419342e-02 6.397578461437763986e-03 -9.969282701616990483e-01
6.153846153846153078e-01 9.578861668700762444e-02 2.250543920665854652e-02 -9.951462256745244872e-01
7.384615384615383915e-01 1.092833296891772693e-01 4.681491876397435997e-02 -9.929063746555015779e-01
8.615384615384614753e-01 1.153191753553950427e-01 7.896069687371930212e-02 -9.901837298676093857e-01
9.846153846153845590e-01 1.102935533061846912e-01 1.170605146344806391e-01 -9.869796635395442497e-01
1.107692307692307532e+00 9.087822182492910628e-02 1.574309053718128681e-01 -9.833376354298248856e-01
1.230769230769230616e+00 5.488083472588902584e-02 1.945796079800112821e-01 -9.793480883255849534e-01
1.353846153846153699e+00 2.188829411183521034e-03 2.215926663578018652e-01 -9.751344945008934006e-01
1.476923076923076783e+00 -6.439367177761445848e-02 2.309925054459499860e-01 -9.708197020284330403e-01
1.599999999999999867e+00 -1.386757494926163792e-01 2.160253486621855068e-01 -9.664867695629134614e-01
1.723076923076922951e+00 -2.111992629164302082e-01 1.722646224351736810e-01 -9.621403241965051922e-01
1.846153846153846034e+00 -2.701401396019723067e-01 9.920501965907262132e-02 -9.576933478809445122e-01
1.969230769230769118e+00 -3.029905653275372646e-01 1.494711534429649102e-03 -9.529889883371580606e-01
2.092307692307691980e+00 -2.989120273072752298e-01 -1.105817188241136617e-01 -9.478483133284605344e-01
2.215384615384615064e+00 -2.513325062118756392e-01 -2.217626140564286918e-01 -9.421496987955511049e-01
2.338461538461538147e+00 -1.603129284837057633e-01 -3.136797497750931640e-01 -9.358937444663628646e-01
2.461538461538461231e+00 -3.403143702734288956e-02 -3.678947268352798505e-01 -9.292401351540831023e-01
2.584615384615384315e+00 1.111863830534486897e-01 -3.696354595935171794e-01 -9.224959015228773040e-01
2.707692307692307399e+00 2.525896784284910046e-01 -3.115291941835466316e-01 -9.160453550046849802e-01
2.830769230769230482e+00 3.644832355913819599e-01 -1.964870451344279956e-01 -9.102392888000491178e-01
2.953846153846153566e+00 4.230450926188458749e-01 -3.889641657897030536e-02 -9.052681265027580082e-01
3.076923076923076650e+00 4.115820714389952784e-01 1.365315160055388388e-01 -9.010824407815897219e-01
3.199999999999999734e+00 3.251208486883482296e-01 2.983552680242383959e-01 -8.973687044959398618e-01
3.323076923076922817e+00 1.731440414480668599e-01 4.140800858401050277e-01 -8.936154849560782321e-01
3.446153846153845901e+00 -2.048925266776113752e-02 4.569320650158527064e-01 -8.892597358592929657e-01
3.569230769230768985e+00 -2.208285834389239477e-01 4.123301497280663086e-01 -8.838596500713811199e-01
3.692307692307692069e+00 -3.880817669192450636e-01 2.824806832182049088e-01 -8.772606102055953148e-01
3.815384615384615152e+00 -4.857322885248304134e-01 8.777929590662295056e-02 -8.696824232789177600e-01
3.938461538461538236e+00 -4.889153413319729524e-01 -1.357608377953236078e-01 -8.616954080883447720e-01
4.061538461538461320e+00 -3.910835834063691174e-01 -3.429226591627783649e-01 -8.540758232942377015e-01
4.184615384615383959e+00 -2.071999368516920514e-01 -4.885281813877960233e-01 -8.475824112226874041e-01
4.307692307692307487e+00 2.775176810506693736e-02 -5.376319473444824970e-01 -8.427152720413063625e-01
4.430769230769230127e+00 2.649954452007030059e-01 -4.742909008828283257e-01 -8.395312430218797584e-01
4.553846153846153655e+00 4.520539705101883632e-01 -3.067437462969661577e-01 -8.375813696137316411e-01
4.676923076923076295e+00 5.445479040211298472e-01 -6.732923323924377978e-02 -8.360151797951113073e-01
4.799999999999999822e+00 5.171109192722277426e-01 1.932864977699481068e-01 -8.338006458353894867e-01
