0.000000000000000000e+00 2.328721468203522871e-09 9.218843368349856261e-10 -1.000000000000000000e+00
1.230769230769230699e-01 -7.265824745417968911e-02 9.496771542100285179e-02 -9.928241446484492583e-01
2.461538461538461398e-01 -1.545252865546319909e-01 1.759547465294901969e-01 -9.721921726647344553e-01
3.692307692307691958e-01 -2.512120444777826145e-01 2.287041260478533400e-01 -9.405214279544182876e-01
4.923076923076922795e-01 -3.617819182854544735e-01 2.391849708830535159e-01 -9.010526682974114854e-01
6.153846153846153078e-01 -4.767981601231430222e-01 1.955024218158344929e-01 -8.569900246202348804e-01
7.384615384615383915e-01 -5.781868890862559285e-01 9.110818612877520650e-02 -8.107940689358804631e-01
8.615384615384614753e-01 -6.413817699757928814e-01 -7.131701270267115644e-02 -7.638910372443378227e-01
9.846153846153845590e-01 -6.400449682778822647e-01 -2.765815382905033037e-01 -7.168192393219644520e-01
1.107692307692307532e+00 -5.528451470569799575e-01 -4.958076666377611019e-01 -6.697166698809076113e-01
1.230769230769230616e+00 -3.710915330134433310e-01 -6.887095798499385246e-01 -6.228582923992742604e-01
1.353846153846153699e+00 -1.052390718035354222e-01 -8.099402103495213501e-01 -5.769773351018822050e-01
1.476923076923076783e+00 2.120461099435442809e-01 -8.189545640630728762e-01 -5.332261924525136809e-01
1.599999999999999867e+00 5.281576775847574012e-01 -6.915075642448341720e-01 -4.927943933669400867e-01
1.723076923076922951e+00 7.790757909570044104e-01 -4.298154217165388036e-01 -4.563754283209249252e-01
1.846153846153846034e+00 9.031933963964018375e-01 -6.795728709644846544e-02 -4.237946275295967902e-01
1.969230769230769118e+00 8.577296515172517788e-01 3.302628566023109169e-01 -3.939596848949274421e-01
2.092307692307691980e+00 6.334245319861653289e-01 6.821570553734813691e-01 -3.652570476913885034e-01
2.215384615384615064e+00 2.628521015613665135e-01 9.043573480322677494e-01 -3.361900778546290103e-01
2.338461538461538147e+00 -1.814066164949108273e-01 9.345586102091538727e-01 -3.060534832208632317e-01
2.461538461538461231e+00 -6.000929570670900937e-01 7.510586923647391000e-01 -2.752741237171765221e-01
2.584615384615384315e+00 -8.901696312047296944e-01 3.839314517760575307e-01 -2.452977882836803181e-01
2.707692307692307399e+00 -9.720792177334545148e-01 -8.678087846079207690e-02 -2.179613166342434794e-01
2.830769230769230482e+00 -8.139557899757224879e-01 -5.472938652552856720e-01 -1.947339262366167278e-01
2.953846153846153566e+00 -4.452051739346443715e-01 -8.779553291299219131e-01 -1.759618477673449422e-01
3.076923076923076650e+00 4.602010374902404388e-02 -9.859305870503267677e-01 -1.606197784216986668e-01
3.199999999999999734e+00 5.326212786072961336e-01 -8.335382298344254925e-01 -1.466430947435147514e-01
3.323076923076922817e+00 8.816053614649901338e-01 -4.532207981186385792e-01 -1.316755258862055966e-01
3.446153846153845901e+00 9.918386925297443257e-01 5.679167656265421416e-02 -1.140445327523384317e-01
3.569230769230768985e+00 8.254433939374170581e-01 5.566668879711090812e-01 -9.349110040345709471e-02
3.692307692307692069e+00 4.227106891166156899e-01 9.034435133969695997e-01 -7.127975389117989502e-02
3.815384615384615152e+00 -1.054774350440340069e-01 9.931624915120482733e-01 -4.978003075453924647e-02
3.938461538461538236e+00 -6.071582444342967788e-01 7.939424257113585348e-01 -3.145714457070698800e-02
4.061538461538461320e+00 -9.331460079250299966e-01 3.590204772644064457e-01 -1.783463649620350977e-02
4.184615384615383959e+00 -9.825586263966634704e-01 -1.856773185586452768e-01 -8.816347922851432845e-03
4.307692307692307487e+00 -7.357601409309416640e-01 -6.772188150494931058e-01 -2.633795693328893402e-03
4.430769230769230127e+00 -2.635516637060008049e-01 -9.646261212519730011e-01 3.494168421347533006e-03
4.553846153846153655e+00 2.916909108280715812e-01 -9.564213617169383674e-01 1.224111759050603571e-02
4.676923076923076295e+00 7.583639270276389954e-01 -6.513294529813076217e-01 2.508683607338985447e-02
4.799999999999999822e+00 9.890495488542399016e-01 -1.414888008163424638e-01 4.167952053723757155e-02
