0.000000000000000000e+00 -6.379228915918383506e-13 -3.270735356946596946e-13 -1.000000000000000000e+00
1.230769230769230699e-01 1.063089525194923779e-01 5.293634758371243421e-02 -9.929230330917571123e-01
2.461538461538461398e-01 2.072560865381018469e-01 9.430567109382340107e-02 -9.737306377111941691e-01
3.692307692307691958e-01 2.968017271965444071e-01 1.150449391731986071e-01 -9.479838586894816510e-01
4.923076923076922795e-01 3.679442748455988843e-01 1.106391664721428081e-01 -9.232421054254912329e-01
6.153846153846153078e-01 4.131054345384233550e-01 8.230788812816085265e-02 -9.069560691075441161e-01
7.384615384615383915e-01 4.252429175633453684e-01 3.709440122478319113e-02 -9.043187857125782880e-01
8.615384615384614753e-01 3.995152640993063775e-01 -1.317850073388276977e-02 -9.166318130024709854e-01
9.846153846153845590e-01 3.350983092855507883e-01 -5.397321698865521766e-02 -9.406359630867878741e-01
1.107692307692307532e+00 2.366402165850051420e-01 -7.074141927217306169e-02 -9.690186064269220578e-01
1.230769230769230616e+00 1.148394272294319951e-01 -5.183646310479692043e-02 -9.920306885882455017e-01
1.353846153846153699e+00 -1.421278588678034568e-02 8.916690055218633171e-03 -9.998592347173707040e-01
1.476923076923076783e+00 -1.310161257307937421e-01 1.104932082865718312e-01 -9.852035451546169442e-01
1.599999999999999867e+00 -2.157760071734803609e-01 2.441491002411701472e-01 -9.454268514839624382e-01
1.723076923076922951e+00 -2.521051958632498646e-01 3.943036005871674576e-01 -8.837237352170058680e-01
1.846153846153846034e+00 -2.305957178342102343e-01 5.407541686509229617e-01 -8.089564535550762825e-01
1.969230769230769118e+00 -1.514521924519553475e-01 6.619291782954298542e-01 -7.341062552965658128e-01
2.092307692307691980e+00 -2.551030068815945961e-02 7.386254865753479892e-01 -6.736331451257878689e-01
2.215384615384615064e+00 1.267396643331358819e-01 7.576269643069496462e-01 -6.402643512695261885e-01
2.338461538461538147e+00 2.781974439423666734e-01 7.144834015633778623e-01 -6.419654589445922266e-01
2.461538461538461231e+00 3.997466779894353062e-01 6.149189558571325209e-01 -6.797626573389535798e-01
2.584615384615384315e+00 4.656731271866764721e-01 4.744928723236285784e-01 -7.469973571883888885e-01
2.707692307692307399e+00 4.588395717675720076e-01 3.164589024685773855e-01 -8.302529793606303610e-01
2.830769230769230482e+00 3.745575945434227449e-01 1.681073881043580465e-01 -9.118368893240340611e-01
2.953846153846153566e+00 2.222748408048862978e-01 5.614271966649245910e-02 -9.733662673612691885e-01
3.076923076923076650e+00 2.461520769935032424e-02 1.904527478212368619e-03 -9.996951853502507035e-01
3.199999999999999734e+00 -1.862245765327615044e-01 1.730554076453243162e-02 -9.823547850775448120e-01
3.323076923076922817e+00 -3.741475920236323471e-01 1.022520557506656075e-01 -9.217147590695006221e-01
3.446153846153845901e+00 -5.058718816430718412e-01 2.441449445603154911e-01 -8.273372274896894085e-01
3.569230769230768985e+00 -5.574285344816439780e-01 4.196407332224040276e-01 -7.163623964236890407e-01
3.692307692307692069e+00 -5.191125348464435962e-01 5.984731093164766813e-01 -6.102066157874417307e-01
3.815384615384615152e+00 -3.978862772949964266e-01 7.487275884767242706e-01 -5.301825238480482039e-01
3.938461538461538236e+00 -2.165951972999775044e-01 8.426433382250037019e-01 -4.929895804710121565e-01
4.061538461538461320e+00 -1.007388054102684172e-02 8.618858728747773590e-01 -5.070022360110417736e-01
4.184615384615383959e+00 1.812153024714648619e-01 8.012700852966894161e-01 -5.701993207706658184e-01
4.307692307692307487e+00 3.188591866430480204e-01 6.701624133261492311e-01 -6.702321673481553832e-01
4.430769230769230127e+00 3.739669821843832898e-01 4.912021028435233361e-01 -7.866823975284398252e-01
4.553846153846153655e+00 3.330064939908594646e-01 2.964727190996521711e-01 -8.951036788520049248e-01
4.676923076923076295e+00 2.007571112823033910e-01 1.217610998274198109e-01 -9.720446567158724793e-01
4.799999999999999822e+00 -2.176568433201151202e-04 -8.430801498220062674e-05 -9.999999726828774360e-01
