0.000000000000000000e+00 -8.460091897880606807e-10 -2.232754793249476264e-09 -1.000000000000000000e+00
1.230769230769230699e-01 -8.810673155570916681e-02 2.665842001058245647e-01 -9.597751130292460076e-01
2.461538461538461398e-01 -1.646752998236139243e-01 5.082674494010871458e-01 -8.453061147467411107e-01
3.692307692307691958e-01 -2.207053553672113089e-01 7.055066540375084516e-01 -6.734565564556359574e-01
4.923076923076922795e-01 -2.514807203948553616e-01 8.476337046962819644e-01 -4.671907603905771644e-01
6.153846153846153078e-01 -2.569537778651438398e-01 9.335206488263481095e-01 -2.500112708184917820e-01
7.384615384615383915e-01 -2.408777878197566336e-01 9.696726370525035055e-01 -4.128177762007591983e-02
8.615384615384614753e-01 -2.091469542805731996e-01 9.668832036232839489e-01 1.462390325985456208e-01
9.846153846153845590e-01 -1.680663215570556979e-01 9.369019245412275598e-01 3.065295581066194708e-01
1.107692307692307532e+00 -1.230665361063269514e-01 8.901069774373749910e-01 4.388128142676490095e-01
1.230769230769230616e+00 -7.811522144279738067e-02 8.344522245754588674e-01 5.455095577246821259e-01
1.353846153846153699e+00 -3.569902138761332777e-02 7.754278149981740365e-01 6.304213886000600287e-01
1.476923076923076783e+00 2.848844629259272843e-03 7.164923436387524713e-01 6.975851712267527871e-01
1.599999999999999867e+00 3.698873780208894457e-02 6.596626924630909494e-01 7.506477094654860904e-01
1.723076923076922951e+00 6.666795266949021581e-02 6.059761208772870278e-01 7.926814149453516034e-01
1.846153846153846034e+00 9.211624458749612110e-02 5.558658928617967732e-01 8.261498835941324392e-01
1.969230769230769118e+00 1.137058964410451178e-01 5.094147088534103363e-01 8.529735703299353711e-01
2.092307692307691980e+00 1.318488722449165096e-01 4.665202275903317930e-01 8.746264110005327330e-01
2.215384615384615064e+00 1.469526894317350896e-01 4.269893975470699932e-01 8.922341887827661688e-01
2.338461538461538147e+00 1.593865744719963340e-01 3.905677950183102931e-01 9.066696438401885549e-01
2.461538461538461231e+00 1.694882158197058009e-01 3.569965404553446797e-01 9.185992354969854112e-01
2.584615384615384315e+00 1.775800744352943328e-01 3.260185508242219310e-01 9.285336541711149971e-01
2.707692307692307399e+00 1.839364547109027526e-01 2.974008550814248308e-01 9.368659453515010282e-01
2.830769230769230482e+00 1.887872489855844105e-01 2.709385391858591952e-01 9.439012269083877360e-01
2.953846153846153566e+00 1.923331024841037629e-01 2.464481346506477988e-01 9.498785507885653123e-01
3.076923076923076650e+00 1.947379305047174936e-01 2.237470876174401380e-01 9.549934359760260394e-01
3.199999999999999734e+00 1.961577590941276372e-01 2.026686431754420592e-01 9.593986363940885109e-01
3.323076923076922817e+00 1.967334664826231316e-01 1.830730087656491922e-01 9.632125947774045072e-01
3.446153846153845901e+00 1.965872602945867298e-01 1.648444558570705543e-01 9.665289034715464078e-01
3.569230769230768985e+00 1.958103630008790064e-01 1.478779559972370206e-01 9.694270772846542705e-01
3.692307692307692069e+00 1.944783421254406008e-01 1.320737464089621616e-01 9.719738761882228406e-01
3.815384615384615152e+00 1.926629893756559575e-01 1.173363944967674849e-01 9.742236509809051315e-01
3.938461538461538236e+00 1.904429769567868025e-01 1.035730539717737986e-01 9.762185897907326160e-01
4.061538461538461320e+00 1.878734839796021572e-01 9.071371934134696280e-02 9.779945139577830293e-01
4.184615384615383959e+00 1.850182636645733569e-01 7.870111399439723432e-02 9.795780316746547367e-01
4.307692307692307487e+00 1.819061194481511601e-01 6.748452055916802361e-02 9.809968360655159092e-01
4.430769230769230127e+00 1.785665503764234663e-01 5.700530464095712735e-02 9.822745102019131425e-01
4.553846153846153655e+00 1.750361806968236955e-01 4.720044915822552145e-02 9.834293689810905681e-01
4.676923076923076295e+00 1.713535526095981143e-01 3.801895832722225477e-02 9.844752029370382740e-01
4.799999999999999822e+00 1.675562616047843179e-01 2.942880416352422479e-02 9.854226437301454311e-01
