0.000000000000000000e+00 2.497296740695518693e-09 4.399949855100434787e-09 -1.000000000000000000e+00
1.230769230769230699e-01 8.664008847269621602e-03 -6.692060879028785200e-03 -9.999400256783474994e-01
2.461538461538461398e-01 1.733821560040332832e-02 -1.337772712540575420e-02 -9.997600925807291761e-01
3.692307692307691958e-01 2.600910019512602325e-02 -2.006052997800059426e-02 -9.994602748655105895e-01
4.923076923076922795e-01 3.468182141624062687e-02 -2.673694512900979398e-02 -9.990405233854385836e-01
6.153846153846153078e-01 4.335051859590346307e-02 -3.340764435133116578e-02 -9.985009984144417317e-01
7.384615384615383915e-01 5.201775253707775770e-02 -4.007056520293026530e-02 -9.978416742896651925e-01
8.615384615384614753e-01 6.068507601012540498e-02 -4.672457510044340789e-02 -9.970624659692858271e-01
9.846153846153845590e-01 6.934765452892892312e-02 -5.336645788045302208e-02 -9.961637773308518184e-01
1.107692307692307532e+00 7.800946788672510901e-02 -5.999482613513506396e-02 -9.951454229355467529e-01
1.230769230769230616e+00 8.666721251381032110e-02 -6.660788485333646314e-02 -9.940077335268825420e-01
1.353846153846153699e+00 9.532318739934610152e-02 -7.320415435618984890e-02 -9.927505992348002462e-01
1.476923076923076783e+00 1.039753546079112689e-01 -7.978114342025197092e-02 -9.913743619715208455e-01
1.599999999999999867e+00 1.126260209706450299e-01 -8.633672815141212042e-02 -9.898789312785150063e-01
1.723076923076922951e+00 1.212750363047480906e-01 -9.286959862591670500e-02 -9.882643733886576909e-01
1.846153846153846034e+00 1.299193824420171173e-01 -9.937576918688650895e-02 -9.865313968761572072e-01
1.969230769230769118e+00 1.385627717611049858e-01 -1.058499008439674760e-01 -9.846800804672882768e-01
2.092307692307691980e+00 1.472009314264159097e-01 -1.122935571166186475e-01 -9.827108752733295649e-01
2.215384615384615064e+00 1.558381971920968778e-01 -1.186983190673918803e-01 -9.806241398226929196e-01
2.338461538461538147e+00 1.644677150629079709e-01 -1.250679654155365528e-01 -9.784205790681412829e-01
2.461538461538461231e+00 1.730976483886551565e-01 -1.313920118732283537e-01 -9.761002577597278629e-01
2.584615384615384315e+00 1.817199447249469579e-01 -1.376744693375598350e-01 -9.736641549732805156e-01
2.707692307692307399e+00 1.903352803812072003e-01 -1.439047798672593026e-01 -9.711138418434341890e-01
2.830769230769230482e+00 1.989440872381740832e-01 -1.500811072707158300e-01 -9.684498042447939881e-01
2.953846153846153566e+00 2.075421114513446019e-01 -1.562016724406535828e-01 -9.656735135018237326e-01
3.076923076923076650e+00 2.161310079983660148e-01 -1.622606684506713859e-01 -9.627859577679445113e-01
3.199999999999999734e+00 2.247040509862448243e-01 -1.682585069366885899e-01 -9.597890463575622366e-01
3.323076923076922817e+00 2.332635120300027565e-01 -1.741868655284902201e-01 -9.566842896357711235e-01
3.446153846153845901e+00 2.418049266451296753e-01 -1.800443319998183966e-01 -9.534736950928790478e-01
3.569230769230768985e+00 2.503273818865119904e-01 -1.858311051384359536e-01 -9.501581890872454750e-01
3.692307692307692069e+00 2.588272751417854955e-01 -1.915384441485755151e-01 -9.467412313234619958e-01
3.815384615384615152e+00 2.673048860376662783e-01 -1.971690086250524332e-01 -9.432231348148525374e-01
3.938461538461538236e+00 2.757500144987784507e-01 -2.027163229037820535e-01 -9.396091393804545389e-01
4.061538461538461320e+00 2.841664567624505588e-01 -2.081822150885844214e-01 -9.358989327315765383e-01
4.184615384615383959e+00 2.925504498852746771e-01 -2.135637195146290468e-01 -9.320954372443376323e-01
4.307692307692307487e+00 3.008955097725392047e-01 -2.188542521460247747e-01 -9.282035073995139607e-01
4.430769230769230127e+00 3.092040572360131856e-01 -2.240580158041590719e-01 -9.242228135761205721e-01
4.553846153846153655e+00 3.174665371227445299e-01 -2.291714624293502700e-01 -9.201588460399423575e-01
4.676923076923076295e+00 3.256844443925143162e-01 -2.341947502388740388e-01 -9.160126824822704128e-01
4.799999999999999822e+00 3.338575985682824543e-01 -2.391234724157793312e-01 -9.117871203407249547e-01
