0.000000000000000000e+00 -1.171526837385566605e-09 -2.093266445937481770e-09 -1.000000000000000000e+00
1.230769230769230699e-01 -1.834821191610415403e-01 -3.826824934919589860e-01 -9.054745421987869802e-01
2.461538461538461398e-01 -2.826447741854319351e-01 -7.091563349648898340e-01 -6.459104515539393354e-01
3.692307692307691958e-01 -2.480637600929255504e-01 -9.260407179297257541e-01 -2.844306981888574115e-01
4.923076923076922795e-01 -8.616156054337570369e-02 -9.913050253562818437e-01 9.938693834697484575e-02
6.153846153846153078e-01 1.424676299732499929e-01 -8.886720244148428316e-01 4.358370147501795522e-01
7.384615384615383915e-01 3.475762134277690651e-01 -6.412343757966940672e-01 6.841058973905350671e-01
8.615384615384614753e-01 4.472161784833446063e-01 -3.140711115074252824e-01 8.374671502967809822e-01
9.846153846153845590e-01 4.032155076380490311e-01 9.730085820804021401e-04 9.151023318469242440e-01
1.107692307692307532e+00 2.381322737590593208e-01 2.161100595969564497e-01 9.468824398975325130e-01
1.230769230769230616e+00 2.499154656041036038e-02 2.817179815849191749e-01 9.591703253049479461e-01
1.353846153846153699e+00 -1.464457449813568179e-01 2.069855371577097591e-01 9.673201352789945195e-01
1.476923076923076783e+00 -2.113286885294759498e-01 5.499389186074499225e-02 9.758656761509311162e-01
1.599999999999999867e+00 -1.589074550915693385e-01 -8.741783965128865908e-02 9.834149014810018574e-01
1.723076923076922951e+00 -3.441092420344675495e-02 -1.510106196462628059e-01 9.879323144170066850e-01
1.846153846153846034e+00 8.735085186975244387e-02 -1.157291358869879244e-01 9.894317891998357650e-01
1.969230769230769118e+00 1.424456779381679805e-01 -1.596867700543731089e-02 9.896731334297981242e-01
2.092307692307691980e+00 1.104584952162653150e-01 8.290760050405782122e-02 9.904160645932170715e-01
2.215384615384615064e+00 2.158893686580218296e-02 1.232967012583487953e-01 9.921344118903078213e-01
2.338461538461538147e+00 -6.482901358352649579e-02 8.721410910740702571e-02 9.940774103619138824e-01
2.461538461538461231e+00 -9.703457830138395579e-02 3.395963220428899199e-03 9.952747674662901778e-01
2.584615384615384315e+00 -6.077084003325226857e-02 -7.337031425471196577e-02 9.954510639652957016e-01
2.707692307692307399e+00 1.502419193368478845e-02 -9.720173412475378860e-02 9.951508369532076070e-01
2.830769230769230482e+00 7.907539325864658408e-02 -5.858898228361570509e-02 9.951449668736209730e-01
2.953846153846153566e+00 9.121914115088258779e-02 1.214092891311081834e-02 9.957564033478086829e-01
3.076923076923076650e+00 4.707641447083558278e-02 6.650765014287902954e-02 9.966743633856397500e-01
3.199999999999999734e+00 -2.129046692720054645e-02 6.990495597828451368e-02 9.973260902535271422e-01
3.323076923076922817e+00 -6.811236357533519137e-02 2.314151810149613075e-02 9.974088949813221250e-01
3.446153846153845901e+00 -6.447708052368342213e-02 -3.999943311596885348e-02 9.971168657960173265e-01
3.569230769230768985e+00 -1.646873228833971997e-02 -7.669390783247685695e-02 9.969182988113141075e-01
3.692307692307692069e+00 4.057376580488722406e-02 -6.392726939911033690e-02 9.971290623308680656e-01
3.815384615384615152e+00 6.706428339008725648e-02 -1.299460227480863164e-02 9.976637121624103433e-01
3.938461538461538236e+00 4.601241974853088890e-02 3.963089368540614887e-02 9.981541349160475418e-01
4.061538461538461320e+00 -6.407004618497996740e-03 5.805994910767626332e-02 9.982922621963390419e-01
4.184615384615383959e+00 -5.321669130629404221e-02 3.142581977439776880e-02 9.980880821467987829e-01
4.307692307692307487e+00 -6.279178676243644952e-02 -1.961892543350151480e-02 9.978334890148815584e-01
4.430769230769230127e+00 -3.049208803591545863e-02 -5.832807734397480598e-02 9.978313732027770389e-01
4.553846153846153655e+00 1.909231919458911214e-02 -5.791102705138530954e-02 9.981388785741974745e-01
4.676923076923076295e+00 5.025223030337136465e-02 -1.986501999269903868e-02 9.985387229976159240e-01
4.799999999999999822e+00 4.152054950091870617e-02 2.799682813728691239e-02 9.987450843819885016e-01
