0.000000000000000000e+00 3.309299829973000003e-09 -1.654373186961845319e-10 -1.000000000000000000e+00
1.230769230769230699e-01 1.575102251148379276e-02 -1.143543110185667525e-02 -9.998103354637948303e-01
2.461538461538461398e-01 3.186664998921595604e-02 -2.241846940478941369e-02 -9.992402733472194321e-01
3.692307692307691958e-01 4.862560207816193913e-02 -3.259915034093197050e-02 -9.982843650868853391e-01
4.923076923076922795e-01 6.626329023725452405e-02 -4.173368309312758956e-02 -9.969282492490720848e-01
6.153846153846153078e-01 8.490788808907183405e-02 -4.972642677736040934e-02 -9.951462275259453927e-01
7.384615384615383915e-01 1.045437553109784673e-01 -5.661486045789327487e-02 -9.929063667400243043e-01
8.615384615384614753e-01 1.249975237857776228e-01 -6.252232301697463468e-02 -9.901837549801726368e-01
9.846153846153845590e-01 1.459442545783413980e-01 -6.758922505566744565e-02 -9.869796599248665814e-01
1.107692307692307532e+00 1.669583110649855984e-01 -7.189276716715925497e-02 -9.833375889890492161e-01
1.230769230769230616e+00 1.875874422077743187e-01 -7.539370068175252348e-02 -9.793481452198603554e-01
1.353846153846153699e+00 2.074566795170524336e-01 -7.791358498333635085e-02 -9.751342709850738810e-01
1.476923076923076783e+00 2.263545966431257384e-01 -7.916893728234994376e-02 -9.708198294550061114e-01
1.599999999999999867e+00 2.442957604395083748e-01 -7.885031086866270411e-02 -9.664869966504543441e-01
1.723076923076922951e+00 2.615204516687920644e-01 -7.673392290342778699e-02 -9.621400729011184705e-01
1.846153846153846034e+00 2.784225877163629681e-01 -7.278916590764721029e-02 -9.576934932576552928e-01
1.969230769230769118e+00 2.954394224900260268e-01 -6.724919320700853409e-02 -9.529884481506152305e-01
2.092307692307691980e+00 3.128941586626203808e-01 -6.061710706799935955e-02 -9.478482716755313175e-01
2.215384615384615064e+00 3.308695278985542276e-01 -5.358591805723968149e-02 -9.421502330927500335e-01
2.338461538461538147e+00 3.491395139591381147e-01 -4.687941551753312813e-02 -9.358935184641190563e-01
2.461538461538461231e+00 3.671775405022655869e-01 -4.107007272019055910e-02 -9.292396110743685878e-01
2.584615384615384315e+00 3.842769580859514700e-01 -3.639979444054720903e-02 -9.224956530918733133e-01
2.707692307692307399e+00 3.997293591429117998e-01 -3.268328726579264321e-02 -9.160457581610564892e-01
2.830769230769230482e+00 4.130332536085072337e-01 -2.931480079833956309e-02 -9.102392229737861218e-01
2.953846153846153566e+00 4.240683638926985299e-01 -2.541918110335178449e-02 -9.052684074361294631e-01
3.076923076923076650e+00 4.331723538181750932e-01 -2.008581151839830548e-02 -9.010821564122093452e-01
3.199999999999999734e+00 4.410906111104358485e-01 -1.264899565355342981e-02 -8.973681875025785182e-01
3.323076923076922817e+00 4.488128412513376908e-01 -2.925668494315969426e-03 -8.936156169831612761e-01
3.446153846153845901e+00 4.573090687126579734e-01 8.667945253304165654e-03 -8.892600625912545631e-01
3.569230769230768985e+00 4.672630162756314931e-01 2.116403160259508476e-02 -8.838593029175370042e-01
3.692307692307692069e+00 4.788492967438492398e-01 3.327817143772138220e-02 -8.772602267485659633e-01
3.815384615384615152e+00 4.916578871234613124e-01 4.374441615295382446e-02 -8.696828049805336303e-01
3.938461538461538236e+00 5.047769777240969091e-01 5.167996712773188783e-02 -8.616949860793927662e-01
4.061538461538461320e+00 5.170184986466858090e-01 5.688571638106001971e-02 -8.540751790260050491e-01
4.184615384615383959e+00 5.272570567755687776e-01 5.994217259872372527e-02 -8.475819546901527390e-01
4.307692307692307487e+00 5.347540692123354811e-01 6.209953240760834881e-02 -8.427157062564852863e-01
4.430769230769230127e+00 5.394046276780893878e-01 6.494463587518081726e-02 -8.395312582982303873e-01
4.553846153846153655e+00 5.418036160984722738e-01 6.994807433817434861e-02 -8.375821856641852969e-01
4.676923076923076295e+00 5.431211285096956276e-01 7.802531957380792749e-02 -8.360138940438993638e-01
4.799999999999999822e+00 5.447963502274938419e-01 8.922076336701062482e-02 -8.338010812104670322e-01
