0.000000000000000000e+00 8.812489306584279062e-12 9.247711248846536114e-12 -1.000000000000000000e+00
1.025641025641025605e-01 2.312299244387861219e-01 2.234038057552417134e-01 -9.432496490645784215e-01
2.051282051282051211e-01 4.523173617503802868e-01 3.845021356152831249e-01 -7.859052325838513653e-01
3.076923076923077094e-01 6.458829424475031056e-01 4.394833085719751509e-01 -5.620307871325128657e-01
4.102564102564102422e-01 7.862780066704518900e-01 3.755871403304971157e-01 -3.152373381264365615e-01
5.128205128205127750e-01 8.466478680568979565e-01 2.137731888177948625e-01 -8.551051233463087542e-02
6.153846153846154188e-01 8.104033922622133623e-01 8.363721030190118810e-04 1.001184675284210457e-01
7.179487179487179516e-01 6.807509923250983919e-01 -2.059790058879940600e-01 2.307866777650981194e-01
8.205128205128204844e-01 4.830492019145958826e-01 -3.564237687803633037e-01 3.094624020990637270e-01
9.230769230769230171e-01 2.586594406361023557e-01 -4.209674636611407950e-01 3.478548200390483291e-01
1.025641025641025550e+00 5.293109231304812812e-02 -3.968796054902830606e-01 3.609597153646799117e-01
1.128205128205128194e+00 -9.796592906005804902e-02 -3.054644711801289825e-01 3.630588427877609048e-01
1.230769230769230838e+00 -1.765020606023032790e-01 -1.823461926059777027e-01 3.654219600077769914e-01
1.333333333333333259e+00 -1.864477237804240128e-01 -6.446476046119634096e-02 3.755642079609085582e-01
1.435897435897435903e+00 -1.482475791522754049e-01 2.138298217082197639e-02 3.974125901704902986e-01
1.538461538461538325e+00 -8.948065616865485961e-02 6.473717638368967076e-02 4.319438209725539601e-01
1.641025641025640969e+00 -3.450433869825445671e-02 7.075908151520685085e-02 4.779503751432592207e-01
1.743589743589743613e+00 2.479386830046587109e-03 5.398263481707167577e-02 5.327827789611497833e-01
1.846153846153846034e+00 1.878513440457110079e-02 3.027392115386237301e-02 5.930129395243746160e-01
1.948717948717948678e+00 1.979968841458257939e-02 1.069803534221621180e-02 6.550167271272340219e-01
2.051282051282051100e+00 1.358866659880966950e-02 -4.950670031216557881e-04 7.154409961300389753e-01
2.153846153846153744e+00 6.563293157264503061e-03 -4.295026222539421318e-03 7.715524798917725580e-01
2.256410256410256387e+00 1.814934635723284163e-03 -3.914763270868983416e-03 8.214345784572011366e-01
2.358974358974359031e+00 -2.977819638651346256e-04 -2.241468891089005468e-03 8.640371118983178889e-01
2.461538461538461675e+00 -7.359758294452937392e-04 -8.528955723605632401e-04 8.990946724179881278e-01
2.564102564102563875e+00 -5.175563562663509096e-04 -1.394213831750592603e-04 9.269599648495531197e-01
2.666666666666666519e+00 -2.243121537765560265e-04 8.048144943127622951e-05 9.484000452258688485e-01
2.769230769230769162e+00 -6.062503286790978590e-05 8.144533795083844653e-05 9.643992069118966226e-01
2.871794871794871806e+00 1.726691214640134584e-06 3.958508059633708033e-05 9.759977809176139107e-01
2.974358974358974450e+00 1.134440181347124750e-05 9.227727036091942038e-06 9.841780621843446708e-01
3.076923076923076650e+00 1.120614733689943584e-06 1.688979280505644639e-06 9.897978589125563387e-01
3.179487179487179294e+00 3.928041601818169398e-06 -8.428913001840320988e-07 9.935624093536474799e-01
3.282051282051281937e+00 1.480428578854355500e-07 1.799192846062464610e-06 9.960234063486740341e-01
3.384615384615384581e+00 -4.041069570978207212e-07 8.152123680192430194e-07 9.975946078270974127e-01
3.487179487179487225e+00 7.695609548659303945e-07 -1.075262245943444407e-06 9.985748408478117844e-01
3.589743589743589425e+00 1.547997298940226460e-06 -1.544489618556672831e-06 9.991727394363880688e-01
3.692307692307692069e+00 9.381407592161758400e-07 -5.627001031632709798e-07 9.995294396978231521e-01
3.794871794871794712e+00 1.123966752461867845e-06 -3.548869929045553956e-07 9.997376599896085070e-01
3.897435897435897356e+00 -3.524222766783851770e-06 -4.536526685183490865e-06 9.998566269536217632e-01
4.000000000000000000e+00 1.024820031256256948e-06 -9.781268640357721509e-07 9.999231752799714323e-01
