1.500000000000000000e+00 9.623907172720430614e-02 -5.922201224194315050e-02 9.913573578318684021e-01
1.551724137931034475e+00 8.700498088289783383e-02 -2.944546909028705403e-02 9.940535924943287860e-01
1.603448275862068950e+00 7.369074411187154228e-02 -7.110125765133833153e-03 9.959431498759492296e-01
1.655172413793103425e+00 5.859535903845138755e-02 8.163444717557463703e-03 9.972523387743178480e-01
1.706896551724137900e+00 4.356839362070455413e-02 1.727989532324814698e-02 9.981498975103204607e-01
1.758620689655172376e+00 2.994159004793948628e-02 2.141197804896683571e-02 9.987595638764259487e-01
1.810344827586206851e+00 1.851434829420323808e-02 2.186715465597439609e-02 9.991705837600982631e-01
1.862068965517241326e+00 9.636923052702443468e-03 1.989036095311515207e-02 9.994459886338802335e-01
1.913793103448275801e+00 3.291743517657047188e-03 1.657314991991742231e-02 9.996297015773755179e-01
1.965517241379310276e+00 -8.064663064349230498e-04 1.276477020103658835e-02 9.997521524884082078e-01
2.017241379310344751e+00 -3.071539481480387544e-03 9.089159609725710326e-03 9.998335992836319130e-01
2.068965517241379448e+00 -3.972374098105308469e-03 5.913239764404999189e-03 9.998879398124568274e-01
2.120689655172413701e+00 -3.971098098914620581e-03 3.414476231789601024e-03 9.999242749604351221e-01
2.172413793103448398e+00 -3.453258970671189976e-03 1.612162592689439945e-03 9.999486741543831547e-01
2.224137931034482651e+00 -2.706947530001313149e-03 4.410689570026316269e-04 9.999651366650905704e-01
2.275862068965517349e+00 -1.944709631563076987e-03 -2.285033630042290157e-04 9.999762760315419330e-01
2.327586206896551602e+00 -1.268010609915515849e-03 -5.366114982019201370e-04 9.999838645021333905e-01
2.379310344827586299e+00 -7.433214471129282993e-04 -6.086800341377476484e-04 9.999890315958652742e-01
2.431034482758620552e+00 -3.745195250717490705e-04 -5.471934919655599416e-04 9.999925599203043358e-01
2.482758620689655249e+00 -1.363467578888786342e-04 -4.293807246109584063e-04 9.999949699312392637e-01
2.534482758620689502e+00 -5.014598675165583700e-06 -3.001632206514993429e-04 9.999966130749582405e-01
2.586206896551724199e+00 5.395587207678214715e-05 -1.907496966030048659e-04 9.999977294670355787e-01
2.637931034482758896e+00 7.678396843636613406e-05 -1.067628928069816300e-04 9.999984853694731113e-01
2.689655172413793149e+00 6.640641231312075312e-05 -5.336725924796964846e-05 9.999989954622567900e-01
2.741379310344827402e+00 5.078336261005010491e-05 -1.637548135500868673e-05 9.999993377641940295e-01
2.793103448275862100e+00 3.445101912544512341e-05 -2.307787274200112757e-06 9.999995660141872689e-01
2.844827586206896797e+00 1.975533528185845260e-05 3.470162240450102792e-06 9.999997174420598434e-01
2.896551724137931050e+00 1.242883865857029771e-05 6.743877646099370033e-06 9.999998171522784807e-01
2.948275862068965303e+00 6.635879139979272678e-06 6.486224214353739384e-06 9.999998824596870728e-01
3.000000000000000000e+00 1.915737543208958431e-06 6.374871758565129357e-06 9.999999249263530343e-01
