1.000000000000000000e+00 3.939233660964521211e-01 -3.683571224028769353e-01 8.115723293547842943e-01
1.051724137931034475e+00 2.899786605556128882e-01 -3.786163041642672256e-01 8.519134486461350519e-01
1.103448275862068950e+00 1.933083873298214739e-01 -3.702965962136924860e-01 8.846013467055507951e-01
1.155172413793103425e+00 1.077418533777082243e-01 -3.461419020272546998e-01 9.107358833652092756e-01
1.206896551724137900e+00 3.601098393791478391e-02 -3.097320662493556198e-01 9.313722526148643377e-01
1.258620689655172376e+00 -2.035085293419977570e-02 -2.650947865276777060e-01 9.474818083758125287e-01
1.310344827586206851e+00 -6.105434680904629069e-02 -2.163107023658511485e-01 9.599321367068706090e-01
1.362068965517241326e+00 -8.690109630824953413e-02 -1.671640240920948539e-01 9.694719345379125830e-01
1.413793103448275801e+00 -9.960048821513667328e-02 -1.208455247386268777e-01 9.767322627442821537e-01
1.465517241379310276e+00 -1.014828033853355793e-01 -7.977421686098361275e-02 9.822307968598819050e-01
1.517241379310344751e+00 -9.520669102004980511e-02 -4.549192438301032093e-02 9.863847524042015369e-01
1.568965517241379448e+00 -8.345525535075690171e-02 -1.870043307988909081e-02 9.895233990501203225e-01
1.620689655172413701e+00 -6.873756013318405023e-02 6.609272275963848364e-04 9.918993598658695232e-01
1.672413793103448398e+00 -5.314757555200669281e-02 1.325062463600018212e-02 9.937066868105345341e-01
1.724137931034482651e+00 -3.831711198812785824e-02 2.010721007724434323e-02 9.950893511904866928e-01
1.775862068965517349e+00 -2.532402945121683957e-02 2.250718993342829682e-02 9.961551329057538595e-01
1.827586206896551602e+00 -1.478095504506391281e-02 2.174985489276065956e-02 9.969823433213602648e-01
1.879310344827586299e+00 -6.851411681578524482e-03 1.902823412168568387e-02 9.976291723252348476e-01
1.931034482758620552e+00 -1.392660275599987701e-03 1.534788578610958229e-02 9.981378407160532706e-01
1.982758620689655249e+00 1.947435135728805763e-03 1.146825654262654398e-02 9.985396077229461431e-01
2.034482758620689502e+00 3.631102429958104477e-03 7.903137807059045644e-03 9.988577151566465639e-01
2.086206896551724199e+00 4.130858938140526473e-03 4.937370828224054396e-03 9.991097833287811980e-01
2.137931034482758896e+00 3.880729683295717179e-03 2.679753919592060916e-03 9.993093060434382613e-01
2.189655172413793149e+00 3.236297982296822834e-03 1.115949837966055246e-03 9.994668171041413141e-01
2.241379310344827402e+00 2.448699758115626193e-03 1.372610709918498356e-04 9.995907314140042299e-01
2.293103448275862100e+00 1.698180967828841897e-03 -3.860723579293128156e-04 9.996877154194496740e-01
2.344827586206896797e+00 1.069264075636461395e-03 -5.916853294369792127e-04 9.997632140817039881e-01
2.396551724137931050e+00 5.962623599851316200e-04 -6.040922056610949003e-04 9.998216235275408925e-01
2.448275862068965303e+00 2.746560540040788993e-04 -5.093776134854134966e-04 9.998665185711300696e-01
2.500000000000000000e+00 7.780940361630213700e-05 -3.842277376715133976e-04 9.999007848935120846e-01
