0.000000000000000000e+00 -6.790105103701243109e-12 9.880844963829295571e-12 -1.000000000000000000e+00
1.025641025641025605e-01 -1.816491019322888367e-01 2.422116191020286524e-01 -9.441740709495013428e-01
2.051282051282051211e-01 -3.609374805276375775e-01 4.339033442809982488e-01 -7.871376614976112185e-01
3.076923076923077094e-01 -5.291525868849691339e-01 5.374905817832278387e-01 -5.567953801210512310e-01
4.102564102564102422e-01 -6.693768790334322372e-01 5.374889478472485438e-01 -2.898706344198765938e-01
5.128205128205127750e-01 -7.607043718198475135e-01 4.432017058671738896e-01 -2.188764870786330877e-02
6.153846153846154188e-01 -7.862169718720803946e-01 2.843481307610232212e-01 2.203629512068570606e-01
7.179487179487179516e-01 -7.404047940782986226e-01 1.013776456883879601e-01 4.220001969569386335e-01
8.205128205128204844e-01 -6.323243677337406776e-01 -6.604267748787649717e-02 5.790697454376346753e-01
9.230769230769230171e-01 -4.833906216682971602e-01 -1.886200417890627479e-01 6.952272256868778921e-01
1.025641025641025550e+00 -3.211988449682346980e-01 -2.526031783023405253e-01 7.779856459534284507e-01
1.128205128205128194e+00 -1.720917563388337790e-01 -2.599109342742603190e-01 8.357332873978841059e-01
1.230769230769230838e+00 -5.519597615956593761e-02 -2.242270504743221204e-01 8.759172490520609200e-01
1.333333333333333259e+00 2.076146891085491747e-02 -1.650330373859617006e-01 9.043296765790794778e-01
1.435897435897435903e+00 5.727098891808719838e-02 -1.014798915554001729e-01 9.250619516247069463e-01
1.538461538461538325e+00 6.331874029113723767e-02 -4.782969798412421009e-02 9.407907513303055413e-01
1.641025641025640969e+00 5.125349627644755490e-02 -1.125138500525763724e-02 9.531653777362969482e-01
1.743589743589743613e+00 3.271304352665838772e-02 7.821437184564405953e-03 9.631572654375025744e-01
1.846153846153846034e+00 1.589360606026552283e-02 1.351803533775139399e-02 9.713265710947198706e-01
1.948717948717948678e+00 4.609743560556106221e-03 1.161526906568401130e-02 9.780074833576410942e-01
2.051282051282051100e+00 -9.161440557438295038e-04 7.155738341187401277e-03 9.834207142451856232e-01
2.153846153846153744e+00 -2.418301378577191602e-03 3.187593209949407969e-03 9.877379731436602972e-01
2.256410256410256387e+00 -1.968954183626377748e-03 7.971468376706063695e-04 9.911127666607476572e-01
2.358974358974359031e+00 -1.065978022254723649e-03 -1.780705667260091196e-04 9.936918432225132491e-01
2.461538461538461675e+00 -3.921714368048999995e-04 -3.466384757259433633e-04 9.956161001944016098e-01
2.564102564102563875e+00 -6.407094296373555260e-05 -2.339983011842730425e-04 9.970169069366874304e-01
2.666666666666666519e+00 3.215378689643047766e-05 -1.016029576131620329e-04 9.980118739054326671e-01
2.769230769230769162e+00 3.585460901065410765e-05 -2.561982180585545258e-05 9.987016601783288428e-01
2.871794871794871806e+00 1.843800177706577412e-05 -1.252030114301534212e-06 9.991687273710671002e-01
2.974358974358974450e+00 6.241815083415850695e-06 5.076450448808369542e-06 9.994778681846091528e-01
3.076923076923076650e+00 2.622522456547643245e-06 2.037701920397746944e-07 9.996780576253661010e-01
3.179487179487179294e+00 -1.031046435029027339e-06 2.453646604451594525e-06 9.998050095821018335e-01
3.282051282051281937e+00 -3.210814736445031445e-06 -1.529968455963134260e-06 9.998839216147906717e-01
3.384615384615384581e+00 1.025893345892001180e-06 -2.541802703211125207e-06 9.999320424105438976e-01
3.487179487179487225e+00 -2.029221766697343970e-06 1.418450586855934159e-06 9.999608527090922960e-01
3.589743589743589425e+00 -4.137182997720881801e-06 5.930749685093070657e-07 9.999778001769092928e-01
3.692307692307692069e+00 -3.130511942502012971e-06 5.682971725931221540e-07 9.999876013480023529e-01
3.794871794871794712e+00 -9.247969601862950564e-07 -1.146601134173573192e-06 9.999931773848278471e-01
3.897435897435897356e+00 -3.345417316751027593e-06 -9.343573777419445056e-07 9.999962996172424567e-01
4.000000000000000000e+00 -9.496720642454852649e-07 -3.343355680344152234e-06 9.999980211506361849e-01
