0.000000000000000000e+00 9.048024484070935107e-12 9.368647945407587446e-12 -1.000000000000000000e+00
1.025641025641025605e-01 2.368937143727845029e-01 2.256442556585227521e-01 -9.402497223779422431e-01
2.051282051282051211e-01 4.617857991535291862e-01 3.854284069478058905e-01 -7.755524342498137935e-01
3.076923076923077094e-01 6.551271738522352894e-01 4.338424705629722600e-01 -5.442248046520304916e-01
4.102564102564102422e-01 7.892026599831707401e-01 3.594179864276711989e-01 -2.949982018840230369e-01
5.128205128205127750e-01 8.363622527648596483e-01 1.872273050679507944e-01 -7.192968976690229665e-02
6.153846153846154188e-01 7.817617623224332180e-01 -3.068027405182829903e-02 9.626114118091493033e-02
7.179487179487179516e-01 6.330770483200724996e-01 -2.331784835619653828e-01 1.995332564987103152e-01
8.205128205128204844e-01 4.214872797684391381e-01 -3.696386741574606560e-01 2.434756675522687930e-01
9.230769230769230171e-01 1.930776622382632257e-01 -4.141415857816760360e-01 2.430081123556874778e-01
1.025641025641025550e+00 -5.354452206078816334e-03 -3.700082332403208385e-01 2.159757204674798425e-01
1.128205128205128194e+00 -1.400825955302025527e-01 -2.643748618708752218e-01 1.786355314879247702e-01
1.230769230769230838e+00 -1.986460620262302523e-01 -1.360560557854658126e-01 1.434393440453442525e-01
1.333333333333333259e+00 -1.901932416206787435e-01 -2.173683711693941145e-02 1.186212425692216854e-01
1.435897435897435903e+00 -1.388366308702720653e-01 5.465392761619067286e-02 1.087754672065398137e-01
1.538461538461538325e+00 -7.330964777047477288e-02 8.638567563085992884e-02 1.157945604690149843e-01
1.641025641025640969e+00 -1.709817264664460074e-02 8.166228123813801254e-02 1.397240397918684540e-01
1.743589743589743613e+00 1.744535772878066590e-02 5.675624306769663785e-02 1.793696352505438629e-01
1.846153846153846034e+00 2.953666820972375082e-02 2.803686822895283537e-02 2.326775488048977436e-01
1.948717948717948678e+00 2.611215893019140644e-02 6.285764070492989158e-03 2.969730780232194833e-01
2.051282051282051100e+00 1.624298013575684388e-02 -4.977394212618625399e-03 3.691355723517618648e-01
2.153846153846153744e+00 6.851200817329851367e-03 -7.672174178418385455e-03 4.457876830622233277e-01
2.256410256410256387e+00 1.026770081088777820e-03 -5.860307957710699303e-03 5.235338501256718846e-01
2.358974358974359031e+00 -1.257977549669389615e-03 -3.030230152441472716e-03 5.992209429804001841e-01
2.461538461538461675e+00 -1.420265644066339306e-03 -9.708144629212087096e-04 6.701827781847076171e-01
2.564102564102563875e+00 -8.576917898955741318e-04 -6.004932740498870707e-06 7.344205374999014380e-01
2.666666666666666519e+00 -3.349705784403264261e-04 2.244593426243413742e-04 7.906869431742672427e-01
2.769230769230769162e+00 -6.410100791184808542e-05 1.659915184668276202e-04 8.384661524218235407e-01
2.871794871794871806e+00 2.185189129808932760e-05 7.579591221798971927e-05 8.778707228634506921e-01
2.974358974358974450e+00 2.305295844978767767e-05 1.717862318533940936e-05 9.094873821924196466e-01
3.076923076923076650e+00 1.173380495179214782e-05 -2.340457460300175909e-06 9.342069627930460474e-01
3.179487179487179294e+00 3.121394658041097810e-06 9.848101209850329850e-08 9.530673914547309611e-01
3.282051282051281937e+00 -3.395266072540796318e-06 -2.335398782346302370e-06 9.671286015277832382e-01
3.384615384615384581e+00 1.959428727511602770e-06 1.267208122732387190e-06 9.773840056947802335e-01
3.487179487179487225e+00 2.749170664732551541e-06 3.009149550839159436e-06 9.847085271796532924e-01
3.589743589743589425e+00 1.869931763401332475e-06 -1.516125731166228770e-06 9.898356743662884982e-01
3.692307692307692069e+00 1.394266003805504150e-06 4.213870190018583136e-06 9.933558049547099866e-01
3.794871794871794712e+00 2.983893704624599934e-06 -9.103882538415711236e-07 9.957276933090943860e-01
3.897435897435897356e+00 2.910022076540241552e-06 3.517264410779729874e-06 9.972970094814271880e-01
4.000000000000000000e+00 2.678839978722443875e-07 -2.785208196493754680e-07 9.983169938742262328e-01
