0.000000000000000000e+00 -1.821692997034474236e-09 1.781447202669715317e-09 -1.000000000000000000e+00
9.025641025641026327e-02 2.498358758440604246e-02 -1.403220875525398696e-02 -9.995892709488219952e-01
1.805128205128205265e-01 4.993640292817195375e-02 -2.803607781985606451e-02 -9.983586236561833305e-01
2.707692307692307621e-01 7.481247320618056307e-02 -4.200035680280629624e-02 -9.963124444792275103e-01
3.610256410256410531e-01 9.957492578450072296e-02 -5.590626504535932406e-02 -9.934578815536601049e-01
4.512820512820513441e-01 1.241851236481158749e-01 -6.973013637755226535e-02 -9.898054422572263311e-01
5.415384615384615241e-01 1.486101406936862768e-01 -8.345687493158918113e-02 -9.853673608333450851e-01
6.317948717948718151e-01 1.728110625824749447e-01 -9.706734511037581892e-02 -9.801596465759444543e-01
7.220512820512821062e-01 1.967570926990557245e-01 -1.105418993081094953e-01 -9.741999815960249443e-01
8.123076923076923972e-01 2.204139868616277753e-01 -1.238679769149606674e-01 -9.675084855086939495e-01
9.025641025641026882e-01 2.437492567445264657e-01 -1.370303158865889270e-01 -9.601078386068708781e-01
9.928205128205128682e-01 2.667381518910203475e-01 -1.500110954051845358e-01 -9.520216888822699008e-01
1.083076923076923048e+00 2.893487916429412499e-01 -1.628006637366408993e-01 -9.432766726396785151e-01
1.173333333333333339e+00 3.115603437642382456e-01 -1.753868420115657911e-01 -9.338988498085584178e-01
1.263589743589743630e+00 3.333425066712742968e-01 -1.877562967719755282e-01 -9.239196897174193346e-01
1.353846153846153921e+00 3.546811502848421505e-01 -1.999023067361556105e-01 -9.133659661451679623e-01
1.444102564102564212e+00 3.755537856344920988e-01 -2.118165532576592736e-01 -9.022693241589576640e-01
1.534358974358974503e+00 3.959412828427230080e-01 -2.234911646972168597e-01 -8.906620144564679764e-01
1.624615384615384794e+00 4.158325097141006843e-01 -2.349204977992825349e-01 -8.785739021823854022e-01
1.714871794871795085e+00 4.352110304629502879e-01 -2.461014225735802807e-01 -8.660379097396854187e-01
1.805128205128205376e+00 4.540687259161333977e-01 -2.570293011101409952e-01 -8.530847211156843413e-01
1.895384615384615445e+00 4.723929307066132566e-01 -2.677022832387706552e-01 -8.397477104259278846e-01
1.985641025641025736e+00 4.901818166537439403e-01 -2.781179831423929993e-01 -8.260555589057421155e-01
2.075897435897436250e+00 5.074269338302541676e-01 -2.882775778465062055e-01 -8.120402462405463817e-01
2.166153846153846096e+00 5.241245470580375709e-01 -2.981789867150084206e-01 -7.977330218881214519e-01
2.256410256410256387e+00 5.402755698247897476e-01 -3.078250133019183599e-01 -7.831609703466730910e-01
2.346666666666666679e+00 5.558776547923889311e-01 -3.172165169919911598e-01 -7.683544522943911437e-01
2.436923076923076970e+00 5.709329684216075673e-01 -3.263571088584611979e-01 -7.533400628456664583e-01
2.527179487179487261e+00 5.854454059097835561e-01 -3.352489649905048275e-01 -7.381438176735850565e-01
2.617435897435897552e+00 5.994159853816638517e-01 -3.438948901963271854e-01 -7.227939515540958704e-01
2.707692307692307843e+00 6.128532962737807122e-01 -3.523008623811058615e-01 -7.073111631641645358e-01
2.797948717948718134e+00 6.257629625532207251e-01 -3.604706593807117665e-01 -6.917193018419527384e-01
2.888205128205128425e+00 6.381514072269075522e-01 -3.684056881748732359e-01 -6.760427816060066153e-01
2.978461538461538716e+00 6.500268487556246644e-01 -3.761144582276493287e-01 -6.603004368325027240e-01
3.068717948717949007e+00 6.613979220222145905e-01 -3.836009675835536092e-01 -6.445126761282772287e-01
3.158974358974359298e+00 6.722703752679206612e-01 -3.908716935013470395e-01 -6.287012165110889006e-01
3.249230769230769589e+00 6.826612413605805951e-01 -3.979285356839679100e-01 -6.128782291309239350e-01
3.339487179487179880e+00 6.925735554789762549e-01 -4.047821313818444899e-01 -5.970647984595860436e-01
3.429743589743590171e+00 7.020245292687561367e-01 -4.114307045973142341e-01 -5.812738434730861936e-01
3.520000000000000462e+00 7.110206576749031893e-01 -4.178892310509115249e-01 -5.655183758664747984e-01
