0.000000000000000000e+00 6.379228916012065346e-13 -3.270735356879043190e-13 -1.000000000000000000e+00
9.025641025641026327e-02 -5.750305404558112010e-02 2.923581573665763947e-02 -9.979171638206177919e-01
1.805128205128205265e-01 -1.141931105288810089e-01 5.660049271688080003e-02 -9.918449060691479913e-01
2.707692307692307621e-01 -1.692233081984394205e-01 8.034126483843212485e-02 -9.822976906329601299e-01
3.610256410256410531e-01 -2.216798695073209646e-01 9.893328305359502806e-02 -9.700877490625831046e-01
4.512820512820513441e-01 -2.705696696752127317e-01 1.111827178714732967e-01 -9.562585721777654424e-01
5.415384615384615241e-01 -3.148082714654947822e-01 1.163021010706356828e-01 -9.420029581752737968e-01
6.317948717948718151e-01 -3.532433672377596756e-01 1.139759831057182288e-01 -9.285626518404102026e-01
7.220512820512821062e-01 -3.846791561613364108e-01 1.043860382253036095e-01 -9.171289447943772322e-01
8.123076923076923972e-01 -4.079333632050471947e-01 8.822420198239509792e-02 -9.087391600566346872e-01
9.025641025641026882e-01 -4.219013201426672910e-01 6.666038749887143178e-02 -9.041878501400840706e-01
9.928205128205128682e-01 -4.256372385231045330e-01 4.129864092215641824e-02 -9.039509737217946705e-01
1.083076923076923048e+00 -4.184346263279656863e-01 1.409311196056324544e-02 -9.081375706537173631e-01
1.173333333333333339e+00 -3.999174656868852984e-01 -1.275173346933598795e-02 -9.164624452682860190e-01
1.263589743589743630e+00 -3.701114531080892389e-01 -3.689372634317074351e-02 -9.282544720074998867e-01
1.353846153846153921e+00 -3.295089464254155609e-01 -5.598966086219107907e-02 -9.424908550043277211e-01
1.444102564102564212e+00 -2.791054299416476647e-01 -6.782253459522860628e-02 -9.578623402018096034e-01
1.534358974358974503e+00 -2.204199896549781101e-01 -7.044222839670101488e-02 -9.728581193868793831e-01
1.624615384615384794e+00 -1.554669595915473823e-01 -6.227712233133890496e-02 -9.858760491753389976e-01
1.714871794871795085e+00 -8.671150500099857050e-02 -4.225467796362966655e-02 -9.953369565294379884e-01
1.805128205128205376e+00 -1.698033166171867767e-02 -9.873905522628470544e-03 -9.998070685972400007e-01
1.895384615384615445e+00 5.065418689939728963e-02 3.472712942351705023e-02 -9.981123082452779682e-01
1.985641025641025736e+00 1.130190484859716071e-01 9.075342992338453207e-02 -9.894394923959560773e-01
2.075897435897436250e+00 1.669951492948056337e-01 1.567588736641543912e-01 -9.734162912704454884e-01
2.166153846153846096e+00 2.097033882842002372e-01 2.306939220972978322e-01 -9.501604088654093117e-01
2.256410256410256387e+00 2.386575894176799773e-01 3.099735503925252766e-01 -9.203037287956475909e-01
2.346666666666666679e+00 2.519502345488551232e-01 3.916018289718340983e-01 -8.849684096999991256e-01
2.436923076923076970e+00 2.483719856265299564e-01 4.722953476137995432e-01 -8.457236315896110579e-01
2.527179487179487261e+00 2.275367657333400850e-01 5.486474262256721968e-01 -8.044955075557189694e-01
2.617435897435897552e+00 1.899448489781569993e-01 6.172921274667022562e-01 -7.634601390187586434e-01
2.707692307692307843e+00 1.370046265790725859e-01 6.750896419483037869e-01 -7.249025494118820356e-01
2.797948717948718134e+00 7.100913124708430058e-02 7.192801240300699117e-01 -6.910816200070980519e-01
2.888205128205128425e+00 -4.948933147264328314e-03 7.476552922901279485e-01 -6.640685740172146412e-01
2.978461538461538716e+00 -8.709852027047682022e-02 7.586853951427705578e-01 -6.456084864616681296e-01
3.068717948717949007e+00 -1.711782872628557217e-01 7.516241282897218046e-01 -6.369922780882609770e-01
3.158974358974359298e+00 -2.526353122006451679e-01 7.265755577221401085e-01 -6.389548956309524241e-01
3.249230769230769589e+00 -3.268720600504940732e-01 6.845235602622622428e-01 -6.515996863022418539e-01
3.339487179487179880e+00 -3.894927728889737706e-01 6.273058386308356660e-01 -6.743758329915975347e-01
3.429743589743590171e+00 -4.365557850821769614e-01 5.575526648242259409e-01 -7.060836139456707627e-01
3.520000000000000462e+00 -4.648069415636243429e-01 4.785825800551770648e-01 -7.449249758153753120e-01
