0.000000000000000000e+00 1.573911455332457914e-09 2.308900285854806467e-09 -1.000000000000000000e+00
9.025641025641026327e-02 -8.798097000797749923e-02 -2.076505858328891313e-02 -9.959052039587201755e-01
1.805128205128205265e-01 -1.738263955109204395e-01 -4.512126762926850498e-02 -9.837410766924782335e-01
2.707692307692307621e-01 -2.552166924904515910e-01 -7.637768776188372244e-02 -9.638609444521862857e-01
3.610256410256410531e-01 -3.295173339097826615e-01 -1.173573442256265059e-01 -9.368252566303227891e-01
4.512820512820513441e-01 -3.936813177021624699e-01 -1.701213764885474711e-01 -9.033651730436277338e-01
5.415384615384615241e-01 -4.442422688003724307e-01 -2.357163600629298139e-01 -8.643381519270456614e-01
6.317948717948718151e-01 -4.774173835066866656e-01 -3.139518273058333753e-01 -8.206702696638652483e-01
7.220512820512821062e-01 -4.893007942595516968e-01 -4.031890614674893403e-01 -7.733143662434659449e-01
8.123076923076923972e-01 -4.761872889674225728e-01 -5.002206146856277291e-01 -7.231983217960521459e-01
9.025641025641026882e-01 -4.349797830613735261e-01 -6.002368540674529740e-01 -6.711916381041720392e-01
9.928205128205128682e-01 -3.636643020793476344e-01 -6.969333505236381399e-01 -6.180787241954399658e-01
1.083076923076923048e+00 -2.618078826995757225e-01 -7.827766471603857523e-01 -5.645402883997558963e-01
1.173333333333333339e+00 -1.310335044395579684e-01 -8.494359280628070996e-01 -5.111521740891951104e-01
1.263589743589743630e+00 2.461850119501096668e-02 -8.884050202597152390e-01 -4.583859409873358159e-01
1.353846153846153921e+00 1.984936342202435200e-01 -8.917676218470601546e-01 -4.066170809091946281e-01
1.444102564102564212e+00 3.813550529029026137e-01 -8.530674618252644947e-01 -3.561325382500961645e-01
1.534358974358974503e+00 5.616955444069603454e-01 -7.682047172205979102e-01 -3.071571342626134848e-01
1.624615384615384794e+00 7.263689700935523907e-01 -6.362786543014481433e-01 -2.598522381571873874e-01
1.714871794871795085e+00 8.615319049115004457e-01 -4.602393484204215235e-01 -2.143079064928210820e-01
1.805128205128205376e+00 9.538014896798013842e-01 -2.472672517804739845e-01 -1.706072021537691774e-01
1.895384615384615445e+00 9.916277996085538504e-01 -8.781577811336038764e-03 -1.287719958827913125e-01
1.985641025641025736e+00 9.666864114463040725e-01 2.400339134118611439e-01 -8.880353135223710559e-02
2.075897435897436250e+00 8.751600511242263458e-01 4.811573236784231766e-01 -5.066970367828736721e-02
2.166153846153846096e+00 7.187430095114931694e-01 6.951174890798517136e-01 -1.431951840661641051e-02
2.256410256410256387e+00 5.051917014264134531e-01 8.627596663023148205e-01 2.029763966366320005e-02
2.346666666666666679e+00 2.483120848061504127e-01 9.672069542564585287e-01 5.326087563301601380e-02
2.436923076923076970e+00 -3.275691121638146797e-02 9.958644953894925100e-01 8.465135282142516315e-02
2.527179487179487261e+00 -3.148834335749919888e-01 9.421862997306459375e-01 1.145355570380328786e-01
2.617435897435897552e+00 -5.729631391151978059e-01 8.070026354014795400e-01 1.429861780730670717e-01
2.707692307692307843e+00 -7.823482004100187348e-01 5.991577056516014244e-01 1.700779589074480069e-01
2.797948717948718134e+00 -9.215085432523363318e-01 3.353316991919329526e-01 1.958568336453353764e-01
2.888205128205128425e+00 -9.746271027158531775e-01 3.892555626139718172e-02 2.203910544896298118e-01
2.978461538461538716e+00 -9.337923948286334097e-01 -2.619346807306785485e-01 2.437366273703659436e-01
3.068717948717949007e+00 -8.004849890334633233e-01 -5.371084890141810675e-01 2.659396743593004930e-01
3.158974358974359298e+00 -5.860782300911118181e-01 -7.576857334174039726e-01 2.870720248713843903e-01
3.249230769230769589e+00 -3.112454468314186373e-01 -8.993000122004279895e-01 3.071997222897768220e-01
3.339487179487179880e+00 -4.181923878528448490e-03 -9.452228888389446748e-01 3.263773768257857699e-01
3.429743589743590171e+00 3.022060766009311839e-01 -8.887366508977790902e-01 3.446807731165069111e-01
3.520000000000000462e+00 5.738853436585753531e-01 -7.344906349394575429e-01 3.621676831079829739e-01
