0.000000000000000000e+00 -1.822920634088463285e-10 2.209808370555917298e-09 -1.000000000000000000e+00
9.025641025641026327e-02 -2.837398383713667267e-03 -5.152264460127500487e-03 -9.999826487087997151e-01
1.805128205128205265e-01 -5.663227561703477846e-03 -1.032609632199349946e-02 -9.999305493300201242e-01
2.707692307692307621e-01 -8.491675589632369583e-03 -1.550635201144562499e-02 -9.998435689598176301e-01
3.610256410256410531e-01 -1.132483354119693218e-02 -2.069717894371073119e-02 -9.997214657918749303e-01
4.512820512820513441e-01 -1.416282568803407978e-02 -2.590261512516228715e-02 -9.995639151932558253e-01
5.415384615384615241e-01 -1.700685878872100140e-02 -3.112552990708992648e-02 -9.993705210327281652e-01
6.317948717948718151e-01 -1.985661038296934397e-02 -3.636963334230506467e-02 -9.991408077593741943e-01
7.220512820512821062e-01 -2.271097403210841498e-02 -4.163920032498147350e-02 -9.988742144737898787e-01
8.123076923076923972e-01 -2.556968189017619006e-02 -4.693687197746053419e-02 -9.985701518283518485e-01
9.025641025641026882e-01 -2.843161103481267257e-02 -5.226669654629867434e-02 -9.982279205307392766e-01
9.928205128205128682e-01 -3.129446700144200566e-02 -5.763100459928427455e-02 -9.978468757121142785e-01
1.083076923076923048e+00 -3.415579638655713568e-02 -6.303494949591700869e-02 -9.974261667950496957e-01
1.173333333333333339e+00 -3.701259114115024174e-02 -6.847899792953865417e-02 -9.969651918744752983e-01
1.263589743589743630e+00 -3.986264082660210400e-02 -7.396851818013155944e-02 -9.964629666129882768e-01
1.353846153846153921e+00 -4.270158595480138403e-02 -7.950343890996333651e-02 -9.959189271486403872e-01
1.444102564102564212e+00 -4.552672292331622073e-02 -8.508455422229185827e-02 -9.953323985270341456e-01
1.534358974358974503e+00 -4.833314505646007370e-02 -9.071706381409903874e-02 -9.947024092092681125e-01
1.624615384615384794e+00 -5.112033390618407613e-02 -9.639959364915919038e-02 -9.940283220776854334e-01
1.714871794871795085e+00 -5.387810392355947553e-02 -1.021309750406306921e-01 -9.933100231949559822e-01
1.805128205128205376e+00 -5.660744053280280380e-02 -1.079160806325563937e-01 -9.925462297166189884e-01
1.895384615384615445e+00 -5.930404173454188049e-02 -1.137495933914662027e-01 -9.917369978066465919e-01
1.985641025641025736e+00 -6.196110956636320666e-02 -1.196316191723551525e-01 -9.908820411536068962e-01
2.075897435897436250e+00 -6.457621563661264386e-02 -1.255607929792552646e-01 -9.899810264033988005e-01
2.166153846153846096e+00 -6.714334289244730525e-02 -1.315362894749522171e-01 -9.890338306054633488e-01
2.256410256410256387e+00 -6.965971880568033736e-02 -1.375583822207999962e-01 -9.880400118524521602e-01
2.346666666666666679e+00 -7.212415952683197407e-02 -1.436197134011401311e-01 -9.870001221571210737e-01
2.436923076923076970e+00 -7.452514417215665155e-02 -1.497237134673221337e-01 -9.859140312035650222e-01
2.527179487179487261e+00 -7.686738593208702897e-02 -1.558630729008851912e-01 -9.847820462175466139e-01
2.617435897435897552e+00 -7.914314002626188227e-02 -1.620391763305578658e-01 -9.836041607964773892e-01
2.707692307692307843e+00 -8.135112705581853954e-02 -1.682477964561052419e-01 -9.823808097473906153e-01
2.797948717948718134e+00 -8.348993646116739664e-02 -1.744882948144066970e-01 -9.811118960235479802e-01
2.888205128205128425e+00 -8.555638241350595197e-02 -1.807544221375834703e-01 -9.797985176772290306e-01
2.978461538461538716e+00 -8.755055626173428862e-02 -1.870464685300450847e-01 -9.784403984953559119e-01
3.068717948717949007e+00 -8.947206212312903972e-02 -1.933597715326934585e-01 -9.770382522816469795e-01
3.158974358974359298e+00 -9.131693967513934695e-02 -1.996895230705923729e-01 -9.755932612697666428e-01
3.249230769230769589e+00 -9.308854163430846373e-02 -2.060337110730243726e-01 -9.741054541002789335e-01
3.339487179487179880e+00 -9.478400884242255131e-02 -2.123854416615467422e-01 -9.725765368182783810e-01
3.429743589743590171e+00 -9.640241323442774735e-02 -2.187424044326063133e-01 -9.710071789881415949e-01
3.520000000000000462e+00 -9.794646244030894011e-02 -2.250997725489731760e-01 -9.693983138733933691e-01
