0.000000000000000000e+00 -4.829958560051906341e-09 1.505791985213313833e-09 -1.000000000000000000e+00
9.025641025641026327e-02 4.654381744491888247e-03 -3.601555066941649914e-03 -9.999826549610265625e-01
1.805128205128205265e-01 9.319174556830341766e-03 -7.197690222026911257e-03 -9.999306193065298221e-01
2.707692307692307621e-01 1.398316904490173873e-02 -1.079258907757655629e-02 -9.998439091432060888e-01
3.610256410256410531e-01 1.864781177878490834e-02 -1.438771013822916223e-02 -9.997224917929667942e-01
4.512820512820513441e-01 2.331162680380748087e-02 -1.798138183462988718e-02 -9.995664070471377283e-01
5.415384615384615241e-01 2.797620135582950043e-02 -2.157340939620926851e-02 -9.993756257229371442e-01
6.317948717948718151e-01 3.263873775366298025e-02 -2.516423100080172198e-02 -9.991502154301679095e-01
7.220512820512821062e-01 3.730168360635567615e-02 -2.875427527893454835e-02 -9.988900904191366781e-01
8.123076923076923972e-01 4.196458866783741443e-02 -3.234038070095673206e-02 -9.985953472526384322e-01
9.025641025641026882e-01 4.662587543744839413e-02 -3.592533902355003750e-02 -9.982659716947808182e-01
9.928205128205128682e-01 5.128638766554884793e-02 -3.950795144980007861e-02 -9.979019684278975788e-01
1.083076923076923048e+00 5.594700719143578388e-02 -4.308843066806169325e-02 -9.975032770869494136e-01
1.173333333333333339e+00 6.060737999157692069e-02 -4.666502496629044289e-02 -9.970699810107981342e-01
1.263589743589743630e+00 6.526722465045570187e-02 -5.023806194438402983e-02 -9.966020823752363977e-01
1.353846153846153921e+00 6.992529406648892443e-02 -5.380823813725828936e-02 -9.960996279219933580e-01
1.444102564102564212e+00 7.458303118721806846e-02 -5.737454818996874650e-02 -9.955625709308277838e-01
1.534358974358974503e+00 7.924029438251689594e-02 -6.093578697990748028e-02 -9.949909865855541824e-01
1.624615384615384794e+00 8.389667164425998469e-02 -6.449375893298062157e-02 -9.943847942810987162e-01
1.714871794871795085e+00 8.855276084971092088e-02 -6.804506684515335135e-02 -9.937441572874797791e-01
1.805128205128205376e+00 9.320843447246882074e-02 -7.159374470807852719e-02 -9.930688060837019604e-01
1.895384615384615445e+00 9.786266368016216521e-02 -7.513505896469344081e-02 -9.923591634925800209e-01
1.985641025641025736e+00 1.025153672675391814e-01 -7.867185984353730621e-02 -9.916150373046793698e-01
2.075897435897436250e+00 1.071683686478345221e-01 -8.220188346915396904e-02 -9.908364102216408176e-01
2.166153846153846096e+00 1.118188385846239780e-01 -8.572688568491756977e-02 -9.900234369209169882e-01
2.256410256410256387e+00 1.164701887586249845e-01 -8.924294189620048112e-02 -9.891760743964644886e-01
2.346666666666666679e+00 1.211221538570099177e-01 -9.275267133259239294e-02 -9.882941039091108770e-01
2.436923076923076970e+00 1.257685312895657215e-01 -9.625525360357860272e-02 -9.873783614012932031e-01
2.527179487179487261e+00 1.304189721436501692e-01 -9.974762774732395809e-02 -9.864279417830477126e-01
2.617435897435897552e+00 1.350687622599567317e-01 -1.032341989287442613e-01 -9.854429801549891010e-01
2.707692307692307843e+00 1.397125203301478324e-01 -1.067105901628213893e-01 -9.844246820754026794e-01
2.797948717948718134e+00 1.443607687914820747e-01 -1.101775221704878183e-01 -9.833715121661813496e-01
2.888205128205128425e+00 1.490070961530454707e-01 -1.136324556155968446e-01 -9.822846606226420807e-01
2.978461538461538716e+00 1.536503158602877117e-01 -1.170821561537476185e-01 -9.811635481811461501e-01
3.068717948717949007e+00 1.582940491574938435e-01 -1.205141693047899892e-01 -9.800091037138788375e-01
3.158974358974359298e+00 1.629360847727620021e-01 -1.239387410079270113e-01 -9.788204585888872211e-01
3.249230769230769589e+00 1.675766651892639791e-01 -1.273494730872170577e-01 -9.775983823662657279e-01
3.339487179487179880e+00 1.722159743578441371e-01 -1.307479793013414104e-01 -9.763426665889888278e-01
3.429743589743590171e+00 1.768556714403866081e-01 -1.341344201866305208e-01 -9.750530043838334660e-01
3.520000000000000462e+00 1.814886045246407731e-01 -1.375084880165963197e-01 -9.737307579275300551e-01
