0.000000000000000000e+00 1.651593422049121401e-09 2.945203988192580494e-09 -1.000000000000000000e+00
9.025641025641026327e-02 5.136789394383020277e-03 -2.863904444211082864e-03 -9.999826478463427204e-01
1.805128205128205265e-01 1.035540558699314488e-02 -5.607713723666266081e-03 -9.999305499948641929e-01
2.707692307692307621e-01 1.569588330939306747e-02 -8.134129843459575113e-03 -9.998435713746479658e-01
3.610256410256410531e-01 2.120896698915604797e-02 -1.033350409151890560e-02 -9.997214605454031178e-01
4.512820512820513441e-01 2.693422933525689220e-02 -1.208485640376100352e-02 -9.995639116442931460e-01
5.415384615384615241e-01 3.289539394644924730e-02 -1.326293884164948464e-02 -9.993705065508250440e-01
6.317948717948718151e-01 3.909309502802764402e-02 -1.373679786765116817e-02 -9.991408126763803299e-01
7.220512820512821062e-01 4.550721941998469439e-02 -1.336679527510165402e-02 -9.988741985411742075e-01
8.123076923076923972e-01 5.208130712360686809e-02 -1.201401818667648114e-02 -9.985701557776177628e-01
9.025641025641026882e-01 5.872941613862358440e-02 -9.537476667554320442e-03 -9.982279096338866342e-01
9.928205128205128682e-01 6.532217764449405051e-02 -5.801050700880178851e-03 -9.978468517352819811e-01
1.083076923076923048e+00 7.169016294318608651e-02 -6.853551165675111911e-04 -9.974261571013217642e-01
1.173333333333333339e+00 7.761654995589507833e-02 5.909421155290202343e-03 -9.969651688831207004e-01
1.263589743589743630e+00 8.284017614086026937e-02 1.405025524214972843e-02 -9.964631470464550000e-01
1.353846153846153921e+00 8.706215119026353144e-02 2.375386833334341280e-02 -9.959189471424189088e-01
1.444102564102564212e+00 8.993445440689246118e-02 3.498355727460129849e-02 -9.953323396148326951e-01
1.534358974358974503e+00 9.109092420610324925e-02 4.762487521041111616e-02 -9.947023391617664245e-01
1.624615384615384794e+00 9.014443880596423320e-02 6.147956088937737984e-02 -9.940284620779639146e-01
1.714871794871795085e+00 8.671424269201841173e-02 7.625192315508318164e-02 -9.933098838969913746e-01
1.805128205128205376e+00 8.044183720285755235e-02 9.153866791201639708e-02 -9.925461838368052625e-01
1.895384615384615445e+00 7.102088653243839034e-02 1.068261347927827593e-01 -9.917369908739898099e-01
1.985641025641025736e+00 5.822539344917006254e-02 1.214935504075774358e-01 -9.908819690641891276e-01
2.075897435897436250e+00 4.194868322526369708e-02 1.348168501976394762e-01 -9.899811006413795633e-01
2.166153846153846096e+00 2.222578491803960457e-02 1.460017524843549019e-01 -9.890334978346401185e-01
2.256410256410256387e+00 -7.254960349672712194e-04 1.541881941396712474e-01 -9.880400468217568344e-01
2.346666666666666679e+00 -2.649048818829366492e-02 1.585137169537663704e-01 -9.870001076786275584e-01
2.436923076923076970e+00 -5.441770217193493686e-02 1.581445207247435536e-01 -9.859140308019262999e-01
2.527179487179487261e+00 -8.363390194880628015e-02 1.523389047784424188e-01 -9.847819966148694260e-01
2.617435897435897552e+00 -1.130336152166547120e-01 1.405089972930118891e-01 -9.836045327830336138e-01
2.707692307692307843e+00 -1.413111065086329887e-01 1.222971526351484817e-01 -9.823806412126063758e-01
2.797948717948718134e+00 -1.669992228807549717e-01 9.761149684001953208e-02 -9.811117640016689956e-01
2.888205128205128425e+00 -1.885207190668873323e-01 6.672362353944834290e-02 -9.797983639212249907e-01
2.978461538461538716e+00 -2.042902779498038390e-01 3.028441367259523259e-02 -9.784401688428887578e-01
3.068717948717949007e+00 -2.127883045575343912e-01 -1.063483800052479611e-02 -9.770387767983778060e-01
3.158974358974359298e+00 -2.126949281908349920e-01 -5.454777530187940315e-02 -9.755931671040042330e-01
3.249230769230769589e+00 -2.029785947971504689e-01 -9.956440997708085328e-02 -9.741063315403972744e-01
3.339487179487179880e+00 -1.830479733505158135e-01 -1.434720772972485070e-01 -9.725767946016639076e-01
3.429743589743590171e+00 -1.528200974565822046e-01 -1.838128084943124185e-01 -9.710072965816667345e-01
3.520000000000000462e+00 -1.128392510971910623e-01 -2.180129337171680393e-01 -9.693987128012490073e-01
