0.000000000000000000e+00 3.024470433642501049e-09 1.766902385276990263e-10 -1.000000000000000000e+00
9.025641025641026327e-02 -1.058460941792258025e-02 2.452328025124799749e-01 -9.694041898188746620e-01
1.805128205128205265e-01 -2.029190421087662122e-02 4.753390697700920486e-01 -8.795633950645460608e-01
2.707692307692307621e-01 -2.815213720848118439e-02 6.761808863488880661e-01 -7.361878369143801670e-01
3.610256410256410531e-01 -3.315232470245704777e-02 8.355719008498854183e-01 -5.483626317675186490e-01
4.512820512820513441e-01 -3.419700746282594572e-02 9.440661513980196373e-01 -3.279440617955809989e-01
5.415384615384615241e-01 -3.011844839518610512e-02 9.955863711096700763e-01 -8.875019625826932601e-02
6.317948717948718151e-01 -1.970903843207186951e-02 9.878073775191639205e-01 1.543513793137308576e-01
7.220512820512821062e-01 -1.784172309500897668e-03 9.222980605899873119e-01 3.864472352271813294e-01
8.123076923076923972e-01 2.473250132084381381e-02 8.043950678514545372e-01 5.935645542767111760e-01
9.025641025641026882e-01 6.070810048938336811e-02 6.428213854015619733e-01 7.635978619755079411e-01
9.928205128205128682e-01 1.066861399946552325e-01 4.490829488580867501e-01 8.870928149616945646e-01
1.083076923076923048e+00 1.627752079541794628e-01 2.366750409506262753e-01 9.578538449887381567e-01
1.173333333333333339e+00 2.285487411461077922e-01 2.016839320594650264e-02 9.733214562124077318e-01
1.263589743589743630e+00 3.030153894581076868e-01 -1.857813083907201013e-01 9.346980335445461696e-01
1.353846153846153921e+00 3.845275962256982094e-01 -3.674632523746007573e-01 8.468168047514723629e-01
1.444102564102564212e+00 4.707959619628562797e-01 -5.129844098766300764e-01 7.177626908440027931e-01
1.534358974358974503e+00 5.589649250074930631e-01 -6.130809627835283049e-01 5.582751995221161279e-01
1.624615384615384794e+00 6.457203653121135201e-01 -6.617291695267200069e-01 3.809698155820210874e-01
1.714871794871795085e+00 7.274377201920189107e-01 -6.565313910168811828e-01 1.994426302862607470e-01
1.805128205128205376e+00 8.003795085952573052e-01 -5.988507777626557171e-01 2.731658200393765126e-02
1.895384615384615445e+00 8.609241557035478554e-01 -4.936876932825435271e-01 -1.227114966299055338e-01
1.985641025641025736e+00 9.058070028355287295e-01 -3.493058949524870949e-01 -2.397412026837879573e-01
2.075897435897436250e+00 9.323578052027285956e-01 -1.766436959275194951e-01 -3.154099382005803309e-01
2.166153846153846096e+00 9.387240789345689951e-01 1.146303463839271064e-02 -3.444467088335745331e-01
2.256410256410256387e+00 9.240539226219750546e-01 2.011803917048864965e-01 -3.250052336800024477e-01
2.346666666666666679e+00 8.886246518930673854e-01 3.786412619411828051e-01 -2.587546280036517321e-01
2.436923076923076970e+00 8.339068814515061545e-01 5.309045922302745302e-01 -1.507176328265556753e-01
2.527179487179487261e+00 7.625489215953140665e-01 6.468509002105242711e-01 -8.879611516792952977e-03
2.617435897435897552e+00 6.782842243421491890e-01 7.179421168464520386e-01 1.564155846638943526e-01
2.707692307692307843e+00 5.857554218418862257e-01 7.388046582081159164e-01 3.332205769532334827e-01
2.797948717948718134e+00 4.902720905860496470e-01 7.075861467329842558e-01 5.088569778725688941e-01
2.888205128205128425e+00 3.975032890853568146e-01 6.260701621668929295e-01 6.708286928634988877e-01
2.978461538461538716e+00 3.131381007863304200e-01 4.995384324660558373e-01 8.077090158998052605e-01
3.068717948717949007e+00 2.425187556751876861e-01 3.363874428221413915e-01 9.099562044809111905e-01
3.158974358974359298e+00 1.902848340134139504e-01 1.475386656879009717e-01 9.705770232897291683e-01
3.249230769230769589e+00 1.600412339670259643e-01 -5.432131899148123083e-02 9.856130335292416778e-01
3.339487179487179880e+00 1.541448014806693911e-01 -2.556376793217508547e-01 9.544020975158405973e-01
3.429743589743590171e+00 1.734196867329643732e-01 -4.429582730019478443e-01 8.796046500426055736e-01
3.520000000000000462e+00 2.170913019605192895e-01 -6.038037494784284087e-01 7.669934844700792009e-01
