0.000000000000000000e+00 4.232396793610407167e-09 3.132730685310739752e-10 -1.000000000000000000e+00
9.025641025641026327e-02 1.203076670967085510e-01 -2.348926236209400442e-04 -9.927355538898843257e-01
1.805128205128205265e-01 2.376221265042927910e-01 4.731252580731454271e-03 -9.713439474193583667e-01
2.707692307692307621e-01 3.487851769308163985e-01 1.963698835259386488e-02 -9.369934621864292046e-01
3.610256410256410531e-01 4.503868811792015037e-01 4.844756274511025085e-02 -8.915131034481288408e-01
4.512820512820513441e-01 5.387020157021538136e-01 9.396829040236226449e-02 -8.372329235055947505e-01
5.415384615384615241e-01 6.097419393637757423e-01 1.575608164660403099e-01 -7.767728440867465167e-01
6.317948717948718151e-01 6.593757110406218702e-01 2.389110305574669302e-01 -7.128323133512994847e-01
7.220512820512821062e-01 6.835846965943601639e-01 3.359227951576325699e-01 -6.479589712846377525e-01
8.123076923076923972e-01 6.787801708025027470e-01 4.446983512361547541e-01 -5.843649116561556722e-01
9.025641025641026882e-01 6.421941947510446669e-01 5.596635049416514018e-01 -5.237782320023434135e-01
9.928205128205128682e-01 5.722914595162087448e-01 6.738311558409606494e-01 -4.673470524207554710e-01
1.083076923076923048e+00 4.691653378889462100e-01 7.791793355658318543e-01 -4.156222430486622432e-01
1.173333333333333339e+00 3.348607724701729849e-01 8.671690907009426130e-01 -3.685970430914757290e-01
1.263589743589743630e+00 1.735890569009810036e-01 9.293580984259469657e-01 -3.257876725172930144e-01
1.353846153846153921e+00 -8.217668052042881310e-03 9.580654223725892926e-01 -2.863911926375125039e-01
1.444102564102564212e+00 -2.020405309596206289e-01 9.470680620800762117e-01 -2.494357095177237305e-01
1.534358974358974503e+00 -3.975971012955519246e-01 8.922571534461473108e-01 -2.139389586888889860e-01
1.624615384615384794e+00 -5.833878289108870296e-01 7.921917360533754504e-01 -1.790720939160266589e-01
1.714871794871795085e+00 -7.473961740295782530e-01 6.485092952746545070e-01 -1.442580409814274434e-01
1.805128205128205376e+00 -8.779328400283455958e-01 4.661252476991569749e-01 -1.092555044150868571e-01
1.895384615384615445e+00 -9.645585922907167209e-01 2.531836714621348294e-01 -7.416348738622985381e-02
1.985641025641025736e+00 -9.989952367836448799e-01 2.075269928550987908e-02 -3.941137346274437014e-02
2.075897435897436250e+00 -9.759704619824290939e-01 -2.177730138516580649e-01 -5.653445775975095809e-03
2.166153846153846096e+00 -8.938852690132540468e-01 -4.474946974375960118e-01 2.632523961845508603e-02
2.256410256410256387e+00 -7.552503594422063093e-01 -6.530435955229070277e-01 5.573500213473928794e-02
2.346666666666666679e+00 -5.668206837129257103e-01 -8.197444524878795269e-01 8.190756215728180190e-02
2.436923076923076970e+00 -3.393768824962126729e-01 -9.348252012667245259e-01 1.044066044062656740e-01
2.527179487179487261e+00 -8.718814808401220695e-02 -9.885437534594343489e-01 1.231061241336017381e-01
2.617435897435897552e+00 1.729033933239729481e-01 -9.751803638944396280e-01 1.382150095956399261e-01
2.707692307692307843e+00 4.226339194108644781e-01 -8.937411707171273312e-01 1.502765627693652684e-01
2.797948717948718134e+00 6.436979431704902277e-01 -7.483291857126295188e-01 1.601006027356849659e-01
2.888205128205128425e+00 8.192094543555735742e-01 -5.481066887768497597e-01 1.686736481345971761e-01
2.978461538461538716e+00 9.351432862995239237e-01 -3.068218294564237780e-01 1.770405505564980608e-01
3.068717948717949007e+00 9.816092470844489659e-01 -4.192900924195180901e-02 1.861752782460759925e-01
3.158974358974359298e+00 9.538535782179713429e-01 2.266693136292320387e-01 1.968766908160297646e-01
3.249230769230769589e+00 8.528788265936790847e-01 4.781443820837447678e-01 2.096468467838475125e-01
3.339487179487179880e+00 6.855967192840981550e-01 6.924350825770724249e-01 2.246487150991593462e-01
3.429743589743590171e+00 4.644796351791218303e-01 8.519532203993864794e-01 2.416832118318119060e-01
3.520000000000000462e+00 2.067189813087282335e-01 9.431535335723429947e-01 2.602022526539031211e-01
