0.000000000000000000e+00 6.989848164597244317e-10 -2.259290014420057186e-09 -1.000000000000000000e+00
9.025641025641026327e-02 3.761742537227583810e-02 2.303291938621749788e-02 -9.990265951045038673e-01
1.805128205128205265e-01 7.511912579527015021e-02 4.598345564436204236e-02 -9.961135009852352118e-01
2.707692307692307621e-01 1.123967822840307301e-01 6.875345992003839557e-02 -9.912815623584115832e-01
3.610256410256410531e-01 1.493432491119996708e-01 9.125708090128069327e-02 -9.845647184329207047e-01
4.512820512820513441e-01 1.858518834408800224e-01 1.134109629149970266e-01 -9.760100946235727992e-01
5.415384615384615241e-01 2.218244369975077568e-01 1.351329068735395988e-01 -9.656766612864023935e-01
6.317948717948718151e-01 2.571678544459368165e-01 1.563513605395684958e-01 -9.536336096038646737e-01
7.220512820512821062e-01 2.917977179901702356e-01 1.769953273933604909e-01 -9.399598783563168913e-01
8.123076923076923972e-01 3.256310930669818471e-01 1.970017654423306952e-01 -9.247444145515144598e-01
9.025641025641026882e-01 3.586034227727374346e-01 2.163171929087082113e-01 -9.080791279273883188e-01
9.928205128205128682e-01 3.906498085354688232e-01 2.348915750919365886e-01 -8.900649564772207256e-01
1.083076923076923048e+00 4.217205623146285109e-01 2.526833083762619614e-01 -8.708039795000397376e-01
1.173333333333333339e+00 4.517696505579998911e-01 2.696583776447126768e-01 -8.504027927212396420e-01
1.263589743589743630e+00 4.807634894927534930e-01 2.857880439206485490e-01 -8.289678799959719901e-01
1.353846153846153921e+00 5.086752922143906730e-01 3.010514985037684443e-01 -8.066060042604051850e-01
1.444102564102564212e+00 5.354823176873375612e-01 3.154378105002640376e-01 -7.834240266118107643e-01
1.534358974358974503e+00 5.611775080186187648e-01 3.289366488185972437e-01 -7.595233683570455918e-01
1.624615384615384794e+00 5.857536029663641397e-01 3.415469211564907681e-01 -7.350057282683705173e-01
1.714871794871795085e+00 6.092144212881909215e-01 3.532696202093919546e-01 -7.099669805759104557e-01
1.805128205128205376e+00 6.315649898087636327e-01 3.641155962727595785e-01 -6.844998148185926778e-01
1.895384615384615445e+00 6.528174797555713615e-01 3.740967404167458432e-01 -6.586920692208904082e-01
1.985641025641025736e+00 6.729875791598732837e-01 3.832293136783812004e-01 -6.326271064150635892e-01
2.075897435897436250e+00 6.920974508207102804e-01 3.915277029433941736e-01 -6.063835554205845302e-01
2.166153846153846096e+00 7.101741051585158671e-01 3.990171174554951183e-01 -5.800273410664386065e-01
2.256410256410256387e+00 7.272376562373210618e-01 4.057241501786400528e-01 -5.536305112907842219e-01
2.346666666666666679e+00 7.433218076469088054e-01 4.116711044552032739e-01 -5.272502718599929583e-01
2.436923076923076970e+00 7.584517723084871488e-01 4.168861219815355179e-01 -5.009490613709690621e-01
2.527179487179487261e+00 7.726653175490356684e-01 4.213982264483207008e-01 -4.747681261314231627e-01
2.617435897435897552e+00 7.859904911174703246e-01 4.252368385543484619e-01 -4.487597967275209765e-01
2.707692307692307843e+00 7.984613528344479683e-01 4.284294181958071546e-01 -4.229661283593826315e-01
2.797948717948718134e+00 8.101124906080350296e-01 4.310095187722934318e-01 -3.974179880234608442e-01
2.888205128205128425e+00 8.209781874891337594e-01 4.330027803613373250e-01 -3.721502503078052970e-01
2.978461538461538716e+00 8.310903365589893399e-01 4.344427961029924123e-01 -3.471895739851099671e-01
3.068717948717949007e+00 8.404816524953824253e-01 4.353589205897159253e-01 -3.225606773878744171e-01
3.158974358974359298e+00 8.491864906527487600e-01 4.357737798417111175e-01 -2.982877975108079172e-01
3.249230769230769589e+00 8.572352769529144600e-01 4.357215925357534325e-01 -2.743836542663413147e-01
3.339487179487179880e+00 8.646584183150772818e-01 4.352275242419739731e-01 -2.508680245020694644e-01
3.429743589743590171e+00 8.714882481313297458e-01 4.343156724390674350e-01 -2.277498887824969120e-01
3.520000000000000462e+00 8.777510914740929149e-01 4.330174028003382913e-01 -2.050384592443843523e-01
