0.000000000000000000e+00 3.764504583677245175e-09 9.612455461045876987e-10 -1.000000000000000000e+00
9.025641025641026327e-02 1.756217380003986112e-02 -2.461182599586308681e-03 -9.998425612671119067e-01
1.805128205128205265e-01 3.519307136052199358e-02 -4.374766672695797054e-03 -9.993706147227079395e-01
2.707692307692307621e-01 5.290528440151785750e-02 -5.244961209868358176e-03 -9.985852638400407599e-01
3.610256410256410531e-01 7.067786967303833767e-02 -4.559556804535657912e-03 -9.974881207807332339e-01
4.512820512820513441e-01 8.841233427154640556e-02 -1.820294809021093252e-03 -9.960814938763369319e-01
5.415384615384615241e-01 1.059152989074251816e-01 3.445511087605997169e-03 -9.943682266526183700e-01
6.317948717948718151e-01 1.228847002789355825e-01 1.166927899829679760e-02 -9.923512281436310811e-01
7.220512820512821062e-01 1.388895334707543339e-01 2.321289965825972662e-02 -9.900345102650803808e-01
8.123076923076923972e-01 1.533710615321806914e-01 3.835114473502021504e-02 -9.874227413527358888e-01
9.025641025641026882e-01 1.656491127109858408e-01 5.723361944730756545e-02 -9.845209644811908634e-01
9.928205128205128682e-01 1.749248114004955945e-01 7.985027517552463483e-02 -9.813367289235080948e-01
1.083076923076923048e+00 1.803174106091700313e-01 1.059964216617271249e-01 -9.778786222595928779e-01
1.173333333333333339e+00 1.808951303185814541e-01 1.352396536740183564e-01 -9.741576231361793736e-01
1.263589743589743630e+00 1.757267508599506534e-01 1.668915997659402572e-01 -9.701870298754998734e-01
1.353846153846153921e+00 1.639492534400279200e-01 1.999875828761921159e-01 -9.659818155233821368e-01
1.444102564102564212e+00 1.448275981517911093e-01 2.332907308581996242e-01 -9.615587991848130178e-01
1.534358974358974503e+00 1.178516192267637513e-01 2.652883974231038389e-01 -9.569366033058973597e-01
1.624615384615384794e+00 8.279868648026800226e-02 2.942409250504052776e-01 -9.521349381656124544e-01
1.714871794871795085e+00 3.983645002536659319e-02 3.182359113377233317e-01 -9.471710182943486878e-01
1.805128205128205376e+00 -1.042936240727557196e-02 3.352677560940178769e-01 -9.420617914687661187e-01
1.895384615384615445e+00 -6.688154456714465179e-02 3.433454118371005448e-01 -9.368212967186384521e-01
1.985641025641025736e+00 -1.278842082165350946e-01 3.406160864365134766e-01 -9.314608755396192041e-01
2.075897435897436250e+00 -1.912620470645196025e-01 3.255109691084069889e-01 -9.259882174551231637e-01
2.166153846153846096e+00 -2.543555392366275147e-01 2.968911634023185808e-01 -9.204082406840234931e-01
2.256410256410256387e+00 -3.140981146763668908e-01 2.541933772578808259e-01 -9.147241413190643211e-01
2.346666666666666679e+00 -3.671483565052839904e-01 1.975696004354109137e-01 -9.089335373158650144e-01
2.436923076923076970e+00 -4.100353729446715723e-01 1.279856004516196077e-01 -9.030405529449464508e-01
2.527179487179487261e+00 -4.393917889023101209e-01 4.729247809274847447e-02 -8.970448999010496305e-01
2.617435897435897552e+00 -4.521590944273030654e-01 -4.176798484452481919e-02 -8.909537599110063377e-01
2.707692307692307843e+00 -4.458523717540226472e-01 -1.355888212041742313e-01 -8.847723107179058522e-01
2.797948717948718134e+00 -4.187738739195262516e-01 -2.298311308640812456e-01 -8.785195049912379872e-01
2.888205128205128425e+00 -3.702641036740569880e-01 -3.195964948959394425e-01 -8.722113999649557803e-01
2.978461538461538716e+00 -3.008649364286863914e-01 -3.996713656236890455e-01 -8.658712226837930181e-01
3.068717948717949007e+00 -2.124342629842485008e-01 -4.648407651303056998e-01 -8.595256707482316072e-01
3.158974358974359298e+00 -1.081967271863559232e-01 -5.102319461403352907e-01 -8.531976104787567516e-01
3.249230769230769589e+00 7.318072741815052212e-03 -5.316644240943066979e-01 -8.469170444743656656e-01
3.339487179487179880e+00 1.284245058578998289e-01 -5.260410677839261195e-01 -8.407001709864819761e-01
3.429743589743590171e+00 2.485449875956546872e-01 -4.916559682690526123e-01 -8.345587927263579120e-01
3.520000000000000462e+00 3.605523350001235139e-01 -4.284557815868593189e-01 -8.285022833195636593e-01
