0.000000000000000000e+00 7.164122501231908754e-10 1.942428108985244126e-09 -1.000000000000000000e+00
9.025641025641026327e-02 -3.323578691453298040e-02 2.898970235015479319e-02 -9.990267955392818644e-01
1.805128205128205265e-01 -6.735333610249344405e-02 5.670287314330355738e-02 -9.961161901914235006e-01
2.707692307692307621e-01 -1.031256858976475899e-01 8.184021158459539591e-02 -9.912951226271107252e-01
3.610256410256410531e-01 -1.411775772602544554e-01 1.030349924240410719e-01 -9.846070295414923734e-01
4.512820512820513441e-01 -1.818789150015211464e-01 1.188422568167128296e-01 -9.761119179810544555e-01
5.415384615384615241e-01 -2.252743096144520507e-01 1.277423345947451827e-01 -9.658834573473333851e-01
6.317948717948718151e-01 -2.709893548155974385e-01 1.281821073863197435e-01 -9.540079365258515853e-01
7.220512820512821062e-01 -3.181650387985049400e-01 1.186303682473820453e-01 -9.405819573148660462e-01
8.123076923076923972e-01 -3.653933507811936710e-01 9.768499438538325030e-02 -9.257113381679544784e-01
9.025641025641026882e-01 -4.107049887003892952e-01 6.418779280974609702e-02 -9.095037084708633701e-01
9.928205128205128682e-01 -4.515406851246904774e-01 1.740280121198314878e-02 -8.920781174580965089e-01
1.083076923076923048e+00 -4.848431905518607032e-01 -4.281134734099290018e-02 -8.735496810471301554e-01
1.173333333333333339e+00 -5.071557113054510069e-01 -1.158146376223200269e-01 -8.540341740646832935e-01
1.263589743589743630e+00 -5.148029809145580060e-01 -1.999981639545541645e-01 -8.336501383134305998e-01
1.353846153846153921e+00 -5.041640227922550288e-01 -2.926508033112751872e-01 -8.125069979478670712e-01
1.444102564102564212e+00 -4.719811896546531882e-01 -3.898655731766356158e-01 -7.907159014915110529e-01
1.534358974358974503e+00 -4.157526182238699408e-01 -4.865542093029318060e-01 -7.683797383336968823e-01
1.624615384615384794e+00 -3.341300535354664314e-01 -5.765685674570918406e-01 -7.455991358534350688e-01
1.714871794871795085e+00 -2.273393128479207492e-01 -6.529546656406008953e-01 -7.224672336488228153e-01
1.805128205128205376e+00 -9.752511186620627104e-02 -7.083666186640470430e-01 -6.990687800509033378e-01
1.895384615384615445e+00 5.100013809175249491e-02 -7.356052761102496174e-01 -6.754813508694825774e-01
1.985641025641025736e+00 2.116256438149416996e-01 -7.282739042313016720e-01 -6.517841267528501348e-01
2.075897435897436250e+00 3.755841676256879147e-01 -6.815382983644227011e-01 -6.280386926828753769e-01
2.166153846153846096e+00 5.322881151964832247e-01 -5.928510257122454608e-01 -6.043072134647400340e-01
2.256410256410256387e+00 6.699147685855133538e-01 -4.626603244203948417e-01 -5.806457911759447255e-01
2.346666666666666679e+00 7.763083072406046226e-01 -2.949029884626145903e-01 -5.571063146813828304e-01
2.436923076923076970e+00 8.400389010596704953e-01 -9.728719326420409708e-02 -5.337220891799009381e-01
2.527179487179487261e+00 8.516021624549232616e-01 1.187971715309796839e-01 -5.105391231848639411e-01
2.617435897435897552e+00 8.046720872241667211e-01 3.387495563263295262e-01 -4.875864544225148034e-01
2.707692307692307843e+00 6.972169643780083970e-01 5.456640956341408666e-01 -4.648956457547052112e-01
2.797948717948718134e+00 5.323644549677757354e-01 7.216512370580846492e-01 -4.424884979673457952e-01
2.888205128205128425e+00 3.188392808819986435e-01 8.494722602280680990e-01 -4.203888402969538363e-01
2.978461538461538716e+00 7.088751970357465293e-02 9.143683998818440406e-01 -3.986145344318947625e-01
3.068717948717949007e+00 -1.924540116785840582e-01 9.059154462905517624e-01 -3.771825969434736692e-01
3.158974358974359298e+00 -4.487065359704373591e-01 8.196635229696662694e-01 -3.560927176966658947e-01
3.249230769230769589e+00 -6.738826058991864709e-01 6.583295257888759355e-01 -3.353687293226177979e-01
3.339487179487179880e+00 -8.448777345245974679e-01 4.323631919577003435e-01 -3.150099447204416925e-01
3.429743589743590171e+00 -9.420460106921868526e-01 1.596793712182618674e-01 -2.950242591625050759e-01
3.520000000000000462e+00 -9.517239714173898468e-01 -1.354816621316788927e-01 -2.754153394613580996e-01
