0.000000000000000000e+00 1.993440627982931459e-09 -6.912595359521173994e-10 -1.000000000000000000e+00
9.025641025641026327e-02 -9.982445114896959515e-03 -3.139019983102240945e-03 -9.999451586430401218e-01
1.805128205128205265e-01 -1.996988447111527204e-02 -6.309061472047376370e-03 -9.997805107642094846e-01
2.707692307692307621e-01 -2.996180042803513188e-02 -9.497598958375406270e-03 -9.995056827425123913e-01
3.610256410256410531e-01 -3.996075044228072221e-02 -1.271303400567432712e-02 -9.991200614107385025e-01
4.512820512820513441e-01 -4.996692113760305143e-02 -1.596394695050667306e-02 -9.986229000962696389e-01
5.415384615384615241e-01 -5.998043831142510496e-02 -1.925855461511129241e-02 -9.980133016515746469e-01
6.317948717948718151e-01 -7.000090971190395250e-02 -2.260751254160622836e-02 -9.972901912496421328e-01
7.220512820512821062e-01 -8.002452197427785408e-02 -2.601203454920488628e-02 -9.964528386586823938e-01
8.123076923076923972e-01 -9.004824545770534483e-02 -2.948592545169314780e-02 -9.955001555963728377e-01
9.025641025641026882e-01 -1.000687074627854972e-01 -3.303188526591561286e-02 -9.944313296213554976e-01
9.928205128205128682e-01 -1.100772508528535115e-01 -3.665793473838848543e-02 -9.932459764362936427e-01
1.083076923076923048e+00 -1.200688803866108573e-01 -4.036759563640959780e-02 -9.919436221009517718e-01
1.173333333333333339e+00 -1.300365846957749760e-01 -4.416813016118463497e-02 -9.905239736555830898e-01
1.263589743589743630e+00 -1.399724314660903968e-01 -4.806209162920176137e-02 -9.889872011420253184e-01
1.353846153846153921e+00 -1.498682853689087269e-01 -5.205384423990969123e-02 -9.873336181422456281e-01
1.444102564102564212e+00 -1.597161409753811712e-01 -5.614592166034693133e-02 -9.855638064520654273e-01
1.534358974358974503e+00 -1.695080481026757513e-01 -6.033738551106876402e-02 -9.836787560898397897e-01
1.624615384615384794e+00 -1.792362534797164730e-01 -6.463201196623671874e-02 -9.816793713502858232e-01
1.714871794871795085e+00 -1.888953979380760262e-01 -6.902905711186502202e-02 -9.795665785991843899e-01
1.805128205128205376e+00 -1.984718874701984215e-01 -7.352538722784193737e-02 -9.773433048067022844e-01
1.895384615384615445e+00 -2.079620045539806727e-01 -7.812150343678911368e-02 -9.750106081579245076e-01
1.985641025641025736e+00 -2.173590221916304188e-01 -8.281070572910161076e-02 -9.725708894076871003e-01
2.075897435897436250e+00 -2.266541005150480292e-01 -8.759187861186601420e-02 -9.700268629991097846e-01
2.166153846153846096e+00 -2.358407417234625603e-01 -9.245957498721010803e-02 -9.673813860275587428e-01
2.256410256410256387e+00 -2.449118685509980575e-01 -9.740765224359833330e-02 -9.646378287590106071e-01
2.346666666666666679e+00 -2.538604084958055451e-01 -1.024371044778237538e-01 -9.617991411326471951e-01
2.436923076923076970e+00 -2.626802112672660394e-01 -1.075391005237114617e-01 -9.588693053447125969e-01
2.527179487179487261e+00 -2.713662547389601998e-01 -1.127087153508751216e-01 -9.558518906559395623e-01
2.617435897435897552e+00 -2.799127190303808965e-01 -1.179458073293264686e-01 -9.527503513079783604e-01
2.707692307692307843e+00 -2.883163167365084822e-01 -1.232416553953072647e-01 -9.495686450893788821e-01
2.797948717948718134e+00 -2.965725742190150616e-01 -1.285960589525739772e-01 -9.463102124833252526e-01
2.888205128205128425e+00 -3.046820030935619150e-01 -1.340033662225632582e-01 -9.429777688309141093e-01
2.978461538461538716e+00 -3.126421623416253959e-01 -1.394626737208476130e-01 -9.395743608400397573e-01
3.068717948717949007e+00 -3.204505769711877838e-01 -1.449660917060482945e-01 -9.361041825323228593e-01
3.158974358974359298e+00 -3.281128124486014097e-01 -1.505094521058161217e-01 -9.325682334736403734e-01
3.249230769230769589e+00 -3.356253189162975992e-01 -1.560871764926718419e-01 -9.289708844631221485e-01
3.339487179487179880e+00 -3.429920233599642043e-01 -1.616936893472969983e-01 -9.253139636802389933e-01
3.429743589743590171e+00 -3.502144004074327355e-01 -1.673214751534544131e-01 -9.216005376243759928e-01
3.520000000000000462e+00 -3.572913846657597148e-01 -1.729611063385610437e-01 -9.178351268775295502e-01
