0.000000000000000000e+00 6.293809814644432181e-10 -5.548668647519467337e-09 -1.000000000000000000e+00
9.025641025641026327e-02 1.572639876343902851e-03 5.671179626724750372e-03 -9.999826530991140494e-01
1.805128205128205265e-01 3.016336138192902971e-03 1.138294570267400253e-02 -9.999306086359363022e-01
2.707692307692307621e-01 4.220563288389887584e-03 1.715305984427713606e-02 -9.998438894832530899e-01
3.610256410256410531e-01 5.063990540887998437e-03 2.300183579027067354e-02 -9.997224959981318992e-01
4.512820512820513441e-01 5.421315919658272614e-03 2.893595742808921512e-02 -9.995664417383429701e-01
5.415384615384615241e-01 5.165291184201357966e-03 3.494576580349065958e-02 -9.993757155707418960e-01
6.317948717948718151e-01 4.172967009381854317e-03 4.099769028505385882e-02 -9.991503576626468153e-01
7.220512820512821062e-01 2.318388537013413991e-03 4.703336415901918782e-02 -9.988904383682972732e-01
8.123076923076923972e-01 -5.200764276064272218e-04 5.296773833268360321e-02 -9.985958771703723480e-01
9.025641025641026882e-01 -4.448793755077277978e-03 5.868051420725534095e-02 -9.982666670315699653e-01
9.928205128205128682e-01 -9.566399073362041872e-03 6.401367884097555749e-02 -9.979029110294442839e-01
1.083076923076923048e+00 -1.593834158392401501e-02 6.877327747960787496e-02 -9.975047106606260705e-01
1.173333333333333339e+00 -2.360399426653086302e-02 7.273063981237089248e-02 -9.970719649240683546e-01
1.263589743589743630e+00 -3.255566766448718397e-02 7.561786773689770091e-02 -9.966049514337211868e-01
1.353846153846153921e+00 -4.273265532336945755e-02 7.714431466010468474e-02 -9.961034001627749879e-01
1.444102564102564212e+00 -5.400937571402468496e-02 7.699224773757244733e-02 -9.955674008366671712e-01
1.534358974358974503e+00 -6.617538829222219254e-02 7.483775357729931244e-02 -9.949971633382732605e-01
1.624615384615384794e+00 -7.894210136082702167e-02 7.035880146182300898e-02 -9.943927597082331538e-01
1.714871794871795085e+00 -9.191879508339895199e-02 6.327556940241713113e-02 -9.937536256967905990e-01
1.805128205128205376e+00 -1.046169566337523948e-01 5.333859442433010883e-02 -9.930807503677869796e-01
1.895384615384615445e+00 -1.164544892183476954e-01 4.039498523447174888e-02 -9.923737417130524818e-01
1.985641025641025736e+00 -1.267618960411213413e-01 2.439786249078305935e-02 -9.916325808078187976e-01
2.075897435897436250e+00 -1.348019096586327292e-01 5.435130464054915844e-03 -9.908571338236712434e-01
2.166153846153846096e+00 -1.397879158682998613e-01 -1.622116331641541842e-02 -9.900480382940960444e-01
2.256410256410256387e+00 -1.409348120969951823e-01 -4.011611590989413306e-02 -9.892052081935747143e-01
2.346666666666666679e+00 -1.375051187029131539e-01 -6.556187808180279075e-02 -9.883282846331380433e-01
2.436923076923076970e+00 -1.288542300764055071e-01 -9.165861894326064740e-02 -9.874178725419864300e-01
2.527179487179487261e+00 -1.145106706292998711e-01 -1.172856868825097876e-01 -9.864735712493283293e-01
2.617435897435897552e+00 -9.423245013361332412e-02 -1.411278091247921973e-01 -9.854957518832822005e-01
2.707692307692307843e+00 -6.808855153936177462e-02 -1.617181143934363907e-01 -9.844845575968360629e-01
2.797948717948718134e+00 -3.650329053334950419e-02 -1.775169551020570891e-01 -9.834397960614775780e-01
2.888205128205128425e+00 -3.259985827713876572e-04 -1.869877720872746563e-01 -9.823614400682523229e-01
2.978461538461538716e+00 3.915897452693583441e-02 -1.887112171589363785e-01 -9.812508142035391012e-01
3.068717948717949007e+00 8.023610584731499795e-02 -1.815251630807238337e-01 -9.801067449774258922e-01
3.158974358974359298e+00 1.207732544630365501e-01 -1.646492659466832764e-01 -9.789294394447782821e-01
3.249230769230769589e+00 1.583411535358489053e-01 -1.378083594565987224e-01 -9.777194367491077731e-01
3.339487179487179880e+00 1.903045658398580531e-01 -1.013769355813891881e-01 -9.764759000917917486e-01
3.429743589743590171e+00 2.139986088148366772e-01 -5.644293833630663337e-02 -9.752010360289304902e-01
3.520000000000000462e+00 2.269493201586050279e-01 -4.868461790268271971e-03 -9.738934797087559492e-01
