0.000000000000000000e+00 2.330487850013275857e-09 -3.439949156118621112e-09 -1.000000000000000000e+00
9.025641025641026327e-02 -3.288614258611287366e-02 1.158307498183128587e-01 -9.927238993083249419e-01
1.805128205128205265e-01 -7.076404153257428997e-02 2.276868596039749171e-01 -9.711586514278316429e-01
2.707692307692307621e-01 -1.181148855310806822e-01 3.313814333564112924e-01 -9.360727071262640031e-01
3.610256410256410531e-01 -1.784588113505507501e-01 4.223611972565225470e-01 -8.886839943858725333e-01
4.512820512820513441e-01 -2.538914823110248187e-01 4.956649320449386109e-01 -8.305721029945362099e-01
5.415384615384615241e-01 -3.446704492652566953e-01 5.460354534967493123e-01 -7.635712804825690592e-01
6.317948717948718151e-01 -4.489133494000794311e-01 5.682011950501442143e-01 -6.896496724803454770e-01
7.220512820512821062e-01 -5.623939616903587124e-01 5.573428423251149955e-01 -6.107974549388351937e-01
8.123076923076923972e-01 -6.785550264535853415e-01 5.097054545623831423e-01 -5.289179217426590585e-01
9.025641025641026882e-01 -7.887401824148622120e-01 4.233054954996910979e-01 -4.457481408584251792e-01
9.928205128205128682e-01 -8.827068979809576943e-01 2.986437533248038068e-01 -3.628083710151537855e-01
1.083076923076923048e+00 -9.494302207550476824e-01 1.393399981623666406e-01 -2.813461520902467150e-01
1.173333333333333339e+00 -9.781559749453225816e-01 -4.747878408301486886e-02 -2.023496128221398405e-01
1.263589743589743630e+00 -9.596524435194578873e-01 -2.510747038398769559e-01 -1.265590673726604276e-01
1.353846153846153921e+00 -8.875531868347065201e-01 -4.574603655206280761e-01 -5.447707956265682161e-02
1.444102564102564212e+00 -7.596126979222991293e-01 -6.502248748175727400e-01 1.358465733935347759e-02
1.534358974358974503e+00 -5.787145414229180052e-01 -8.118338244081610977e-01 7.748382880821695629e-02
1.624615384615384794e+00 -3.534364671742437070e-01 -9.253365089910607910e-01 1.371989931077307601e-01
1.714871794871795085e+00 -9.802026093210364222e-02 -9.763275603206698072e-01 1.927827901990933068e-01
1.805128205128205376e+00 1.683906912524832378e-01 -9.549395937606529605e-01 2.443844850836215943e-01
1.895384615384615445e+00 4.232304319893053779e-01 -8.576085825342381064e-01 2.921858809872562301e-01
1.985641025641025736e+00 6.426795933111862924e-01 -6.883293207794418667e-01 3.363850345179759116e-01
2.075897435897436250e+00 8.043045950494862595e-01 -4.591147061435287835e-01 3.772231614305037728e-01
2.166153846153846096e+00 8.898910709002089137e-01 -1.895075771503124673e-01 4.149343461568766878e-01
2.256410256410256387e+00 8.880947626245186965e-01 9.491882370756782317e-02 4.497423445981383883e-01
2.346666666666666679e+00 7.965294846434638476e-01 3.651295189269309072e-01 4.818833027541546410e-01
2.436923076923076970e+00 6.229055580196188879e-01 5.918424143208377286e-01 5.115679573498964627e-01
2.527179487179487261e+00 3.849429230115752887e-01 7.491947662884217429e-01 5.389962598338065014e-01
2.617435897435897552e+00 1.089041690910767524e-01 8.183091180432421341e-01 5.643590734642512929e-01
2.707692307692307843e+00 -1.731547798454955989e-01 7.902328206938040722e-01 5.878271745649864544e-01
2.797948717948718134e+00 -4.271984961036371375e-01 6.677816847020636715e-01 6.095577421729808654e-01
2.888205128205128425e+00 -6.216421974256198801e-01 4.658651600417145766e-01 6.297002944188926365e-01
2.978461538461538716e+00 -7.317263788064314323e-01 2.101648086877758448e-01 6.483820695455307925e-01
3.068717948717949007e+00 -7.432758141372008964e-01 -6.586033683014244633e-02 6.657294126235987486e-01
3.158974358974359298e+00 -6.551595108639933773e-01 -3.253111102239210073e-01 6.818584840164131355e-01
3.249230769230769589e+00 -4.799881174118507676e-01 -5.328859936486629589e-01 6.968762651965971777e-01
3.339487179487179880e+00 -2.428183937299893680e-01 -6.600697638231506348e-01 7.108726817730893766e-01
3.429743589743590171e+00 2.211458483402382880e-02 -6.895061398125246210e-01 7.239373530593320449e-01
3.520000000000000462e+00 2.761665180227199090e-01 -6.179156835541180781e-01 7.361422488263161812e-01
