0.000000000000000000e+00 -1.673804871041110955e-09 -1.974678063582977585e-09 -1.000000000000000000e+00
9.025641025641026327e-02 1.515420308617612122e-01 -1.951675960016016620e-02 -9.882575836780981282e-01
1.805128205128205265e-01 2.985896254664923144e-01 -3.906027047116707868e-02 -9.535808082078345294e-01
2.707692307692307621e-01 4.369420087201704717e-01 -5.866448262562468097e-02 -8.975727194322572489e-01
3.610256410256410531e-01 5.629702209638154375e-01 -7.834197175644286304e-02 -8.227529801739644766e-01
4.512820512820513441e-01 6.738298390777178737e-01 -9.808464446130267522e-02 -7.323434726305853015e-01
5.415384615384615241e-01 7.675856919846559823e-01 -1.178507124129891670e-01 -6.300131275227914829e-01
6.317948717948718151e-01 8.432542510842995220e-01 -1.375699914156277015e-01 -5.196046030814716055e-01
7.220512820512821062e-01 9.007652931541926256e-01 -1.571424805424451732e-01 -4.048697962782155102e-01
8.123076923076923972e-01 9.408517963192156719e-01 -1.764307093015230476e-01 -2.892420562392890582e-01
9.025641025641026882e-01 9.648801226227156080e-01 -1.952817853993186192e-01 -1.756755215170041351e-01
9.928205128205128682e-01 9.746652372864872405e-01 -2.135234054841934070e-01 -6.652637912810401011e-02
1.083076923076923048e+00 9.722697641138905444e-01 -2.309830957456835421e-01 3.645030310138053925e-02
1.173333333333333339e+00 9.598330033034387920e-01 -2.475004905468968230e-01 1.321155904876850917e-01
1.263589743589743630e+00 9.394245725294698701e-01 -2.629356247126705681e-01 2.198566809546114720e-01
1.353846153846153921e+00 9.129431731346822065e-01 -2.771819009457052729e-01 2.994926802720476733e-01
1.444102564102564212e+00 8.820503730827433664e-01 -2.901653550541276605e-01 3.711905916127126170e-01
1.534358974358974503e+00 8.481452045049866495e-01 -3.018555540429157524e-01 4.353441776277291453e-01
1.624615384615384794e+00 8.123719241128953827e-01 -3.122551940003317483e-01 4.924840541557811702e-01
1.714871794871795085e+00 7.756337804609348963e-01 -3.213959298858620750e-01 5.432212046465855204e-01
1.805128205128205376e+00 7.386334440270020396e-01 -3.293312049088408244e-01 5.881788209395338862e-01
1.895384615384615445e+00 7.018955211011163042e-01 -3.361268437049919067e-01 6.279765444682805509e-01
1.985641025641025736e+00 6.658137599807504303e-01 -3.418557873854979334e-01 6.631893403254679464e-01
2.075897435897436250e+00 6.306658551254165079e-01 -3.465889302792649618e-01 6.943561569561625957e-01
2.166153846153846096e+00 5.966420221445241090e-01 -3.504056657860863400e-01 7.219613977705827690e-01
2.256410256410256387e+00 5.638599503057626361e-01 -3.533752064830868456e-01 7.464464543710807032e-01
2.346666666666666679e+00 5.323932471469967620e-01 -3.555615283877661126e-01 7.681979405123744442e-01
2.436923076923076970e+00 5.022631319673213079e-01 -3.570350918434288534e-01 7.875611693393275159e-01
2.527179487179487261e+00 4.734682870603907356e-01 -3.578594197664243248e-01 8.048351132287703269e-01
2.617435897435897552e+00 4.459808568662624317e-01 -3.581010522736578494e-01 8.202804823173232007e-01
2.707692307692307843e+00 4.197695199495242724e-01 -3.578187755787807234e-01 8.341192088201883070e-01
2.797948717948718134e+00 3.947940941600892595e-01 -3.570673035178327237e-01 8.465437547001440910e-01
2.888205128205128425e+00 3.710072900094828485e-01 -3.558954300023076112e-01 8.577225441035465359e-01
2.978461538461538716e+00 3.483668522714016280e-01 -3.543484341424419370e-01 8.677982609723070562e-01
3.068717948717949007e+00 3.268211871744718389e-01 -3.524607479757078665e-01 8.769011307570970803e-01
3.158974358974359298e+00 3.063204006320209283e-01 -3.502621210252068185e-01 8.851444325744949326e-01
3.249230769230769589e+00 2.868133991020139217e-01 -3.477806688360416398e-01 8.926271455913316055e-01
3.339487179487179880e+00 2.682428955523011305e-01 -3.450440695597819518e-01 8.994370483838319830e-01
3.429743589743590171e+00 2.505598818527583482e-01 -3.420763406605623613e-01 9.056491044796582957e-01
3.520000000000000462e+00 2.337052360064259260e-01 -3.389046431663038095e-01 9.113300173410108229e-01
