0.000000000000000000e+00 -3.711944903755530899e-09 6.052047444586562407e-09 -1.000000000000000000e+00
9.025641025641026327e-02 -4.978258659897295824e-03 1.526789198809675729e-01 -9.882625127575691559e-01
1.805128205128205265e-01 -8.781540855978431370e-03 3.007570658565296151e-01 -9.536586674752658421e-01
2.707692307692307621e-01 -1.030706215317357677e-02 4.399539687672700539e-01 -8.979583991660833320e-01
3.610256410256410531e-01 -8.665352291645722627e-03 5.666190049733034195e-01 -8.239302367083283229e-01
4.512820512820513441e-01 -3.238661152339228355e-03 6.779533145448777276e-01 -7.350920349203642346e-01
5.415384615384615241e-01 6.283432442554665043e-03 7.721397067598286812e-01 -6.354138010275266479e-01
6.317948717948718151e-01 1.988315064370224650e-02 8.483911737007937548e-01 -5.289854731036703894e-01
7.220512820512821062e-01 3.724419450007043775e-02 9.068848506145410493e-01 -4.197144163187288002e-01
8.123076923076923972e-01 5.780234131842987289e-02 9.486196305526259920e-01 -3.110728474341052374e-01
9.025641025641026882e-01 8.081423399398746099e-02 9.752215610735981421e-01 -2.059078507359662913e-01
9.928205128205128682e-01 1.054433225136353625e-01 9.887160620609872774e-01 -1.063391802655791196e-01
1.083076923076923048e+00 1.308434109929590416e-01 9.913004625904364708e-01 -1.374962918381705118e-02
1.173333333333333339e+00 1.562369175012396361e-01 9.851452838390296618e-01 7.116530640977337951e-02
1.263589743589743630e+00 1.809725405833859657e-01 9.722405074984633577e-01 1.482673709911343229e-01
1.353846153846153921e+00 2.045630941449716467e-01 9.542989186091415110e-01 2.178385818349332370e-01
1.444102564102564212e+00 2.266978230132498662e-01 9.327131768772307652e-01 2.804294350689213733e-01
1.534358974358974503e+00 2.472333777633404228e-01 9.085646917657111965e-01 3.367085625802547777e-01
1.624615384615384794e+00 2.661608257027998636e-01 8.826625947115450677e-01 3.873658959692243275e-01
1.714871794871795085e+00 2.835656738781285324e-01 8.556118060668327363e-01 4.330202189571236149e-01
1.805128205128205376e+00 2.995901802442626494e-01 8.278655010833022576e-01 4.742071226992500277e-01
1.895384615384615445e+00 3.143783063046796666e-01 7.997903085570831072e-01 5.113610164774592404e-01
1.985641025641025736e+00 3.280528380425111190e-01 7.716965707021481435e-01 5.448435183533169024e-01
2.075897435897436250e+00 3.406962211945315788e-01 7.438588305248438060e-01 5.749688872687942487e-01
2.166153846153846096e+00 3.523433757901958119e-01 7.165149339297620656e-01 6.020381559975926944e-01
2.256410256410256387e+00 3.629911037433441456e-01 6.898544164437604431e-01 6.263610169433008190e-01
2.346666666666666679e+00 3.726200013630893704e-01 6.640142283182517424e-01 6.482511356970841465e-01
2.436923076923076970e+00 3.812085053894426201e-01 6.390560261219995208e-01 6.680403137705447358e-01
2.527179487179487261e+00 3.887633282090439124e-01 6.149754964636884313e-01 6.860458321774787205e-01
2.617435897435897552e+00 3.953273529414055298e-01 5.917177243240384632e-01 7.025506018064795466e-01
2.707692307692307843e+00 4.009871229052838215e-01 5.691838593369751287e-01 7.177954072010461761e-01
2.797948717948718134e+00 4.058607600871276255e-01 5.472767229564763358e-01 7.319540069040099128e-01
2.888205128205128425e+00 4.100960271316538286e-01 5.259101588581815978e-01 7.451385281343598788e-01
2.978461538461538716e+00 4.138367149654754718e-01 5.050424071759767042e-01 7.574055896946155775e-01
3.068717948717949007e+00 4.172083667880679414e-01 4.846735452906425490e-01 7.687787892684886382e-01
3.158974358974359298e+00 4.203018886390981201e-01 4.648448350445409383e-01 7.792675456086897157e-01
3.249230769230769589e+00 4.231546158142208691e-01 4.456382981709742785e-01 7.888847643052651071e-01
3.339487179487179880e+00 4.257653817742362845e-01 4.271304339549393259e-01 7.976691675426423878e-01
3.429743589743590171e+00 4.280859945650029585e-01 4.093921636600870162e-01 8.056880693877641608e-01
3.520000000000000462e+00 4.300459983286487597e-01 3.924426688926183626e-01 8.130450034911385071e-01
