0.000000000000000000e+00 9.710563865129171458e-10 -5.599506846961959647e-09 -1.000000000000000000e+00
9.025641025641026327e-02 -2.186241965942537779e-01 8.378813600053805488e-02 -9.722030878516177976e-01
1.805128205128205265e-01 -4.264068355200092419e-01 1.581498787386516613e-01 -8.905936329764835291e-01
2.707692307692307621e-01 -6.130160397297830244e-01 2.144833063941430640e-01 -7.603910596542208244e-01
3.610256410256410531e-01 -7.691857301867386365e-01 2.456585669934099325e-01 -5.899042232075253356e-01
4.512820512820513441e-01 -8.871709389101826160e-01 2.466517322861377925e-01 -3.899601564941093113e-01
5.415384615384615241e-01 -9.611282834461010172e-01 2.149846646848955489e-01 -1.731767402325723459e-01
6.317948717948718151e-01 -9.874115084664698561e-01 1.509819906549068336e-01 4.688969666284500959e-02
7.220512820512821062e-01 -9.647571431191420688e-01 5.779783524638337777e-02 2.566706902548221980e-01
8.123076923076923972e-01 -8.943485006099014534e-01 -5.875644935481394437e-02 4.434721051127205604e-01
9.025641025641026882e-01 -7.797565263652446177e-01 -1.906187665538664477e-01 5.963440349297622900e-01
9.928205128205128682e-01 -6.267649865236697426e-01 -3.280336560945491531e-01 7.067844767782505144e-01
1.083076923076923048e+00 -4.430765439926316329e-01 -4.602774556775040549e-01 7.692947695920205886e-01
1.173333333333333339e+00 -2.379186444666486488e-01 -5.764510407956960902e-01 7.817198504734839126e-01
1.263589743589743630e+00 -2.157719415088868442e-02 -6.663128004546430283e-01 7.453506089187820205e-01
1.353846153846153921e+00 1.951328883842692874e-01 -7.210797413920833066e-01 6.647937737448095241e-01
1.444102564102564212e+00 4.014214412275256549e-01 -7.341385032069791539e-01 5.476152058561161162e-01
1.534358974358974503e+00 5.870991289904324839e-01 -7.016126506513196137e-01 4.037731721370511617e-01
1.624615384615384794e+00 7.430983751412788552e-01 -6.227398192958671919e-01 2.449012121873007652e-01
1.714871794871795085e+00 8.619627830950784553e-01 -5.000287593711087997e-01 8.346959265963109498e-02
1.805128205128205376e+00 9.382397223430505306e-01 -3.391844275903993511e-01 -6.808731934278326736e-02
1.895384615384615445e+00 9.687765843788578302e-01 -1.488009212381081192e-01 -1.982587761963836293e-01
1.985641025641025736e+00 9.528932878116036509e-01 6.015625565921095541e-02 -2.972419442172307691e-01
2.075897435897436250e+00 8.924236543545001066e-01 2.750642628532641298e-01 -3.576276488226468597e-01
2.166153846153846096e+00 7.916200355899379870e-01 4.824642115841887846e-01 -3.748920960586942797e-01
2.256410256410256387e+00 6.569269362131392453e-01 6.689809492419788173e-01 -3.476912731626832231e-01
2.346666666666666679e+00 4.966269023222646406e-01 8.222517053058583381e-01 -2.779223413932254139e-01
2.436923076923076970e+00 3.203896317228244750e-01 9.317918706745196289e-01 -1.705595115922410865e-01
2.527179487179487261e+00 1.387373131869557574e-01 9.897579555002690155e-01 -3.326893417853598461e-02
2.617435897435897552e+00 -3.755632968737854238e-02 9.915389601678450404e-01 1.241609067299904307e-01
2.707692307692307843e+00 -1.980640081450422973e-01 9.361294898579987089e-01 2.905328404372792273e-01
2.797948717948718134e+00 -3.333031475689569034e-01 8.262654741053701013e-01 4.540634552703247673e-01
2.888205128205128425e+00 -4.352832602493681424e-01 6.683020515726856292e-01 6.032271302823385417e-01
2.978461538461538716e+00 -4.979721632229414108e-01 4.718443179487046280e-01 7.275795379777850735e-01
3.068717948717949007e+00 -5.176521625360398504e-01 2.491483094065015946e-01 8.185045166866944388e-01
3.158974358974359298e+00 -4.931452248426004825e-01 1.433105380221899594e-02 8.698233707485627519e-01
3.249230769230769589e+00 -4.258910495649299577e-01 -2.175557462789082241e-01 8.782237515939904648e-01
3.339487179487179880e+00 -3.198652080357663463e-01 -4.315172174500608304e-01 8.434858384262636788e-01
3.429743589743590171e+00 -1.813731217244778093e-01 -6.136183212992877278e-01 7.684809195036270690e-01
3.520000000000000462e+00 -1.867570841086568789e-02 -7.519384044129301392e-01 6.589562200783729562e-01
