0.000000000000000000e+00 -7.504001110708830010e-10 5.211158182602515951e-09 -1.000000000000000000e+00
9.025641025641026327e-02 3.744662049311717200e-03 2.129044355181012871e-01 -9.770642606443604716e-01
1.805128205128205265e-01 8.853643133852118208e-03 4.148630935954846777e-01 -9.098371816975414639e-01
2.707692307692307621e-01 1.667461411688347939e-02 5.958652460749742641e-01 -8.029049891669052252e-01
3.610256410256410531e-01 2.841282926258362207e-02 7.476943108681527450e-01 -6.634247070811044589e-01
4.512820512820513441e-01 4.507350780259294920e-02 8.645900692630373863e-01 -5.004356911190418478e-01
5.415384615384615241e-01 6.739448807365211458e-02 9.436312329173143221e-01 -3.240361702330721294e-01
6.317948717948718151e-01 9.576176032833183527e-02 9.848564906669915464e-01 -1.444560563247309637e-01
7.220512820512821062e-01 1.301393666201053900e-01 9.910667626662037488e-01 2.881496693052874175e-02
8.123076923076923972e-01 1.700200272330901763e-01 9.673706714998654421e-01 1.877965542424583634e-01
9.025641025641026882e-01 2.144065968734193417e-01 9.205228680436303712e-01 3.265713480487521525e-01
9.928205128205128682e-01 2.618369437041992431e-01 8.581347055691902481e-01 4.416207833968032737e-01
1.083076923076923048e+00 3.104607302743873087e-01 7.878537181135257805e-01 5.318689922019241845e-01
1.173333333333333339e+00 3.581623947422057919e-01 7.166109174858763531e-01 5.984760809170219797e-01
1.263589743589743630e+00 4.027358109435417166e-01 6.499932259332263929e-01 6.444367328104079196e-01
1.353846153846153921e+00 4.420824955861436534e-01 5.918452307728945261e-01 6.739947583853181934e-01
1.444102564102564212e+00 4.744191106941462732e-01 5.440823047611321739e-01 6.920173330169065995e-01
1.534358974358974503e+00 4.984655466801795054e-01 5.067716431168688418e-01 7.033504829373500300e-01
1.624615384615384794e+00 5.136079690928299080e-01 4.784047359231920482e-01 7.122662931431950062e-01
1.714871794871795085e+00 5.199683260525799211e-01 4.563614810521858800e-01 7.220490850336841460e-01
1.805128205128205376e+00 5.184263264375439384e-01 4.374425728315352035e-01 7.347558692826623439e-01
1.895384615384615445e+00 5.105215711324685435e-01 4.184422852088213185e-01 7.511739044683204414e-01
1.985641025641025736e+00 4.983072523308575419e-01 3.966568025144627807e-01 7.709359509063236082e-01
2.075897435897436250e+00 4.841120171709727416e-01 3.702708620870545086e-01 7.927954425280866468e-01
2.166153846153846096e+00 4.702803335572338650e-01 3.385853237203784727e-01 8.149764426812463602e-01
2.256410256410256387e+00 4.588948104913814774e-01 3.020615738694236718e-01 8.355628052677309681e-01
2.346666666666666679e+00 4.515301585893823910e-01 2.621810515928332808e-01 8.528616592797807483e-01
2.436923076923076970e+00 4.490768555382035343e-01 2.211682816640652416e-01 8.656826235684363935e-01
2.527179487179487261e+00 4.516392779978598560e-01 1.816017857110733547e-01 8.735186629991817941e-01
2.617435897435897552e+00 4.585426412311949251e-01 1.460008848960949457e-01 8.765926067490681373e-01
2.707692307692307843e+00 4.684378627261479577e-01 1.164259272568460568e-01 8.757871638955996296e-01
2.797948717948718134e+00 4.795027774197936354e-01 9.416437590965071047e-02 8.724690364718125091e-01
2.888205128205128425e+00 4.897063444677170474e-01 7.954142780303491422e-02 8.682469530341376807e-01
2.978461538461538716e+00 4.970863797224197578e-01 7.188147643083961369e-02 8.647138142906330982e-01
3.068717948717949007e+00 5.000447107214650577e-01 6.961543233240899409e-02 8.631921695694461105e-01
3.158974358974359298e+00 4.975703068273622520e-01 7.052322128359303499e-02 8.645473143054521747e-01
3.249230769230769589e+00 4.893861154412467718e-01 7.205749129672106568e-02 8.690804896154248338e-01
3.339487179487179880e+00 4.759957027322075929e-01 7.173060615223506020e-02 8.765129905473516558e-01
3.429743589743590171e+00 4.586202321178594055e-01 6.746514449639276489e-02 8.860634821663926353e-01
3.520000000000000462e+00 4.390294982513019417e-01 5.788794776244832185e-02 8.966019405666820763e-01
