0.000000000000000000e+00 -2.619495109097572250e-10 -4.597816796641502333e-09 -1.000000000000000000e+00
9.025641025641026327e-02 1.448952004027392604e-01 4.832801307751112552e-02 -9.882650829088931443e-01
1.805128205128205265e-01 2.829073507373309204e-01 1.020744442072836211e-01 -9.536982368504961505e-01
2.707692307692307621e-01 4.071804896913103766e-01 1.658765984125346038e-01 -8.981552997093892321e-01
3.610256410256410531e-01 5.109800992258135555e-01 2.429638115641958862e-01 -8.245360504751813036e-01
4.512820512820513441e-01 5.878667335953601247e-01 3.345749612501918158e-01 -7.365201853311349467e-01
5.415384615384615241e-01 6.319973723519713982e-01 4.395610755507586287e-01 -6.382422367857816248e-01
6.317948717948718151e-01 6.385303540230946595e-01 5.542194696112023866e-01 -5.339531248644255879e-01
7.220512820512821062e-01 6.041573778197062428e-01 6.723653193919509885e-01 -4.276722284090200277e-01
8.123076923076923972e-01 5.276283148866189876e-01 7.856924958530114855e-01 -3.229232969114794738e-01
9.025641025641026882e-01 4.102800618525980214e-01 8.843807726921947276e-01 -2.225401213368673192e-01
9.928205128205128682e-01 2.564202820295599095e-01 9.579742776688436878e-01 -1.285172182670724916e-01
1.083076923076923048e+00 7.351966011900679110e-02 9.963978413566613179e-01 -4.205694973098197953e-02
1.173333333333333339e+00 -1.279005828116844823e-01 9.911099485535778131e-01 3.640170802992046678e-02
1.263589743589743630e+00 -3.347004755228549233e-01 9.362169571270002599e-01 1.070332348160509817e-01
1.353846153846153921e+00 -5.319096568969804428e-01 8.294633114012071040e-01 1.704278810595672156e-01
1.444102564102564212e+00 -7.038385671897223750e-01 6.729563832521854305e-01 2.274294684729320226e-01
1.534358974358974503e+00 -8.354425622786774142e-01 4.735098899777143711e-01 2.789401653774853940e-01
1.624615384615384794e+00 -9.137935221295238053e-01 2.425450344946969983e-01 3.257869623081737220e-01
1.714871794871795085e+00 -9.295530005251244621e-01 -4.552816945071480603e-03 3.686389712860235202e-01
1.805128205128205376e+00 -8.782235049984171704e-01 -2.495409854380881143e-01 4.079673994575195306e-01
1.895384615384615445e+00 -7.610527904431773072e-01 -4.728663317649451914e-01 4.440507469878107738e-01
1.985641025641025736e+00 -5.853987128243385296e-01 -6.555397948439898315e-01 4.770338722450234159e-01
2.075897435897436250e+00 -3.645099398216651299e-01 -7.810810977067748073e-01 5.069818155972647400e-01
2.166153846153846096e+00 -1.166122500736730405e-01 -8.374142407199761662e-01 5.339710950115164056e-01
2.256410256410256387e+00 1.365953014762463780e-01 -8.184300812476505982e-01 5.581222650243737871e-01
2.346666666666666679e+00 3.719542758460619991e-01 -7.250162367846990641e-01 5.796449452201503094e-01
2.436923076923076970e+00 5.671814083056078148e-01 -5.653852972875171856e-01 5.988587711671882197e-01
2.527179487179487261e+00 7.032751063827733518e-01 -3.546292698777531172e-01 6.161408826627899904e-01
2.617435897435897552e+00 7.666749619282224870e-01 -1.134638071103694079e-01 6.319201971814939478e-01
2.707692307692307843e+00 7.510111917612014576e-01 1.337510295441229347e-01 6.465916578197442588e-01
2.797948717948718134e+00 6.580680232771554117e-01 3.614991332880195807e-01 6.604945322790805040e-01
2.888205128205128425e+00 4.979085595826386323e-01 5.458829885028405604e-01 6.738599598159740189e-01
2.978461538461538716e+00 2.880304602862876484e-01 6.673343038341108535e-01 6.867983908682991911e-01
3.068717948717949007e+00 5.163021740856027497e-02 7.129580882903154837e-01 6.992953683363741790e-01
3.158974358974359298e+00 -1.848877155419328400e-01 6.781835345235935897e-01 7.112473522131860237e-01
3.249230769230769589e+00 -3.948787160817388564e-01 5.675074312163249646e-01 7.224925672973204760e-01
3.339487179487179880e+00 -5.545458441557137297e-01 3.941661560763864980e-01 7.328721071731912895e-01
3.429743589743590171e+00 -6.458180122257343170e-01 1.787650636173873098e-01 7.422613807531083241e-01
3.520000000000000462e+00 -6.585982885723933311e-01 -5.304945613144063099e-02 7.506157801108569450e-01
