0.000000000000000000e+00 3.575802127788397155e-09 -2.659984774880201937e-09 -1.000000000000000000e+00
9.025641025641026327e-02 4.386375618975701940e-02 -4.508658863578473078e-03 -9.990270534314238393e-01
1.805128205128205265e-01 8.767550246615284093e-02 -7.439918685667686049e-03 -9.961207383096217782e-01
2.707692307692307621e-01 1.312806830044364603e-01 -7.272032328365284071e-03 -9.913177222101807740e-01
3.610256410256410531e-01 1.743612718653716476e-01 -2.528674286075366373e-03 -9.846773743860484096e-01
4.512820512820513441e-01 2.163556648126944426e-01 8.167099327487950533e-03 -9.762790264635258231e-01
5.415384615384615241e-01 2.563964515439238201e-01 2.603569985252207619e-02 -9.662192556426624224e-01
6.317948717948718151e-01 2.932740694671207016e-01 5.206078990985284899e-02 -9.546078121967772612e-01
7.220512820512821062e-01 3.254254206371728353e-01 8.690756192366012878e-02 -9.415629897601440756e-01
8.123076923076923972e-01 3.509458746403448792e-01 1.308111417688777312e-01 -9.272110542633038577e-01
9.025641025641026882e-01 3.676575786023331682e-01 1.834685317718833253e-01 -9.116806035477516001e-01
9.928205128205128682e-01 3.732148895634141983e-01 2.439278117728546080e-01 -8.950997829247315796e-01
1.083076923076923048e+00 3.652423310214084617e-01 3.105104346213312660e-01 -8.775958666302019484e-01
1.173333333333333339e+00 3.415380033851724284e-01 3.807342529812185461e-01 -8.592938000930088194e-01
1.263589743589743630e+00 3.003020579846966687e-01 4.513159099125572671e-01 -8.403122607217672346e-01
1.353846153846153921e+00 2.403940952607638293e-01 5.182167778055473129e-01 -8.207640430515485974e-01
1.444102564102564212e+00 1.615892514032087890e-01 5.767735659947937910e-01 -8.007572752977728525e-01
1.534358974358974503e+00 6.483259226170667855e-02 6.219148760084144412e-01 -7.803903882744855913e-01
1.624615384615384794e+00 -4.755961786858509122e-02 6.484587338076879259e-01 -7.597561414989327799e-01
1.714871794871795085e+00 -1.717832447072568658e-01 6.514984602445578199e-01 -7.389383212572080417e-01
1.805128205128205376e+00 -3.025051371216953555e-01 6.268486212793831225e-01 -7.180115439203622607e-01
1.895384615384615445e+00 -4.330066984920128981e-01 5.715180661672094597e-01 -6.970372830462800984e-01
1.985641025641025736e+00 -5.553949440110677038e-01 4.841831418329586856e-01 -6.760853759679696928e-01
2.075897435897436250e+00 -6.610875112979031076e-01 3.656087664704085194e-01 -6.551957539350016235e-01
2.166153846153846096e+00 -7.413263787295143459e-01 2.189604225347632216e-01 -6.344123744821441591e-01
2.256410256410256387e+00 -7.878866247678848467e-01 4.994994514002021324e-02 -6.137807517965810922e-01
2.346666666666666679e+00 -7.938560597364758831e-01 -1.331954807818925279e-01 -5.933281595918656892e-01
2.436923076923076970e+00 -7.544049043867784299e-01 -3.200448004422524195e-01 -5.730890410723334938e-01
2.527179487179487261e+00 -6.675235859463519716e-01 -4.984896716795111371e-01 -5.530881723802518746e-01
2.617435897435897552e+00 -5.346095730315114647e-01 -6.555266776185952882e-01 -5.333510100610223681e-01
2.707692307692307843e+00 -3.608056780871823910e-01 -7.782775512722017730e-01 -5.138958630871123257e-01
2.797948717948718134e+00 -1.550949340209202831e-01 -8.550770470629538433e-01 -4.947465763058415678e-01
2.888205128205128425e+00 7.001507316693302008e-02 -8.766908289223311890e-01 -4.759162152981722960e-01
2.978461538461538716e+00 2.991490620814691859e-01 -8.374148480973625519e-01 -4.574179526948494168e-01
3.068717948717949007e+00 5.151032355141409447e-01 -7.360136985362719653e-01 -4.392461690102440475e-01
3.158974358974359298e+00 7.001784151777155074e-01 -5.763172290567304401e-01 -4.214180130184440043e-01
3.249230769230769589e+00 8.377383362363198804e-01 -3.674543393930281288e-01 -4.039259040779282217e-01
3.339487179487179880e+00 9.138594287382719727e-01 -1.235373709674127962e-01 -3.867604096433920891e-01
3.429743589743590171e+00 9.188753278449166562e-01 1.371418029882735257e-01 -3.699246222127940964e-01
3.520000000000000462e+00 8.487011279089892168e-01 3.934394075855383033e-01 -3.534058062217211305e-01
