0.000000000000000000e+00 -1.444396654371517461e-09 -2.045433961336322996e-09 -1.000000000000000000e+00
9.025641025641026327e-02 2.773663179484242135e-03 -5.190623106525640851e-03 -9.999826557362736512e-01
1.805128205128205265e-01 5.668137604183967788e-03 -1.032150956802459565e-02 -9.999306180153645363e-01
2.707692307692307621e-01 8.777025346399826289e-03 -1.532963740931434990e-02 -9.998439003074005571e-01
3.610256410256410531e-01 1.220094708055092375e-02 -2.014620132986643525e-02 -9.997225035991498254e-01
4.512820512820513441e-01 1.603563630199406412e-02 -2.468808850538491140e-02 -9.995664720219286092e-01
5.415384615384615241e-01 2.036507288203293076e-02 -2.886284729030660565e-02 -9.993757724522579489e-01
6.317948717948718151e-01 2.525701250132228806e-02 -3.255783553122977569e-02 -9.991505214533913382e-01
7.220512820512821062e-01 3.076416369261033429e-02 -3.564938942959983842e-02 -9.988905556905308680e-01
8.123076923076923972e-01 3.691254491504074309e-02 -3.798650109932918961e-02 -9.985960672862916887e-01
9.025641025641026882e-01 4.369863337854865137e-02 -3.940832528353672981e-02 -9.982669932222559828e-01
9.928205128205128682e-01 5.107905818698223882e-02 -3.973462120962444055e-02 -9.979036175949979048e-01
1.083076923076923048e+00 5.897748780667494417e-02 -3.877819358659165966e-02 -9.975055915578109333e-01
1.173333333333333339e+00 6.725846893348860767e-02 -3.634491699639458284e-02 -9.970731166586559446e-01
1.263589743589743630e+00 7.573022921995026246e-02 -3.224866498457872738e-02 -9.966064283597501072e-01
1.353846153846153921e+00 8.415122968875542175e-02 -2.631367805266431742e-02 -9.961051797319840917e-01
1.444102564102564212e+00 9.220304069991216989e-02 -1.840248916999497400e-02 -9.955698278303506399e-01
1.534358974358974503e+00 9.951320675780579716e-02 -8.419005512071219000e-03 -9.950002685946447434e-01
1.624615384615384794e+00 1.056452593863881351e-01 3.662803332777055110e-03 -9.943967647937594911e-01
1.714871794871795085e+00 1.101188918153055279e-01 1.778565089497632229e-02 -9.937588811149226098e-01
1.805128205128205376e+00 1.124131980378673956e-01 3.378372051819125005e-02 -9.930866562802257436e-01
1.895384615384615445e+00 1.119843314254339722e-01 5.136392413577814398e-02 -9.923811699285535193e-01
1.985641025641025736e+00 1.083163560039506756e-01 7.009660850300988844e-02 -9.916416334829425416e-01
2.075897435897436250e+00 1.009369407302698196e-01 8.939653254176752051e-02 -9.908678201237675065e-01
2.166153846153846096e+00 8.945508563213211417e-02 1.085196519589664704e-01 -9.900607468739818229e-01
2.256410256410256387e+00 7.362686969433993034e-02 1.265766636148062951e-01 -9.892201019901303294e-01
2.346666666666666679e+00 5.338008586385774301e-02 1.425554983596993286e-01 -9.883458054551803595e-01
2.436923076923076970e+00 2.889606481515405445e-02 1.553372530623342851e-01 -9.874382243198924769e-01
2.527179487179487261e+00 6.121712315105363317e-04 1.637732569071342070e-01 -9.864972322434161223e-01
2.617435897435897552e+00 -3.071470258311803300e-02 1.667347263843986238e-01 -9.855226745733361993e-01
2.707692307692307843e+00 -6.399813246405813838e-02 1.631953112393684791e-01 -9.845152583717340367e-01
2.797948717948718134e+00 -9.782545511344138689e-02 1.523360886490166266e-01 -9.834747653634959841e-01
2.888205128205128425e+00 -1.304890992467045707e-01 1.336382350924082696e-01 -9.824011886319514719e-01
2.978461538461538716e+00 -1.600399959124640392e-01 1.069844860185549529e-01 -9.812951374646047276e-01
3.068717948717949007e+00 -1.843819581837243815e-01 7.276706285620666848e-02 -9.801565423799617482e-01
3.158974358974359298e+00 -2.014127826564451051e-01 3.193356462215802410e-02 -9.789850255156045122e-01
3.249230769230769589e+00 -2.091593028914512098e-01 -1.395112523666787452e-02 -9.777812921340861552e-01
3.339487179487179880e+00 -2.059704544376448898e-01 -6.271067744754638129e-02 -9.765459563458159797e-01
3.429743589743590171e+00 -1.907153614267632358e-01 -1.116199578346441929e-01 -9.752779412694321248e-01
3.520000000000000462e+00 -1.629526059082349598e-01 -1.575216931261456954e-01 -9.739772740963781317e-01
