0.000000000000000000e+00 8.921504380497090802e-10 -2.315473279331518330e-09 -1.000000000000000000e+00
9.025641025641026327e-02 2.275194665130057803e-02 1.742031548221294190e-02 -9.995892495061893257e-01
1.805128205128205265e-01 4.493827316537012118e-02 3.550355125383516941e-02 -9.983584740150873715e-01
2.707692307692307621e-01 6.597485473171396664e-02 5.485997922021039475e-02 -9.963117510692024448e-01
3.610256410256410531e-01 8.521337806737512566e-02 7.604660817284987495e-02 -9.934559899015426021e-01
4.512820512820513441e-01 1.019274307223872883e-01 9.952199899782157577e-02 -9.898005805531414625e-01
5.415384615384615241e-01 1.152973121693360165e-01 1.256004744578951560e-01 -9.853577392701917681e-01
6.317948717948718151e-01 1.244055631097062409e-01 1.544139983691056317e-01 -9.801419289155945958e-01
7.220512820512821062e-01 1.282484745274978521e-01 1.858599047108536184e-01 -9.741698190359656673e-01
8.123076923076923972e-01 1.257620774531930663e-01 2.195473288221422292e-01 -9.674611579074877676e-01
9.025641025641026882e-01 1.158715932803355830e-01 2.547589771623253174e-01 -9.600362727449792688e-01
9.928205128205128682e-01 9.755691640766608885e-02 2.903995681023018860e-01 -9.519183485096239794e-01
1.083076923076923048e+00 6.995089499524345666e-02 3.249713059491877720e-01 -9.431320847063288104e-01
1.173333333333333339e+00 3.244841107530591073e-02 3.565713705141767553e-01 -9.337030233148225777e-01
1.263589743589743630e+00 -1.516628276527179353e-02 3.829141898157123469e-01 -9.236578780515519727e-01
1.353846153846153921e+00 -7.256576380227799938e-02 4.013846619007247485e-01 -9.130287557176302027e-01
1.444102564102564212e+00 -1.387508295085764787e-01 4.091802009106417226e-01 -9.018406037648515339e-01
1.534358974358974503e+00 -2.119071812170327529e-01 4.034450235309308130e-01 -8.901258157245917069e-01
1.624615384615384794e+00 -2.893383721717033841e-01 3.815064503376889293e-01 -8.779136871695888411e-01
1.714871794871795085e+00 -3.673960693385184273e-01 3.411503075750062508e-01 -8.652356055983245753e-01
1.805128205128205376e+00 -4.415523452838786000e-01 2.809170695172154564e-01 -8.521226617780058854e-01
1.895384615384615445e+00 -5.065195876881660730e-01 2.004419926154853426e-01 -8.386039872948529705e-01
1.985641025641025736e+00 -5.564972992277996688e-01 1.007728855247650435e-01 -8.247126783500237091e-01
2.075897435897436250e+00 -5.855647982533561668e-01 -1.537160946746937706e-02 -8.104769162072240629e-01
2.166153846153846096e+00 -5.881517202216938189e-01 -1.434242288286510514e-01 -7.959284351481611397e-01
2.256410256410256387e+00 -5.596370417767326799e-01 -2.769390257829202340e-01 -7.810928496659724773e-01
2.346666666666666679e+00 -4.969712134323290842e-01 -4.077408053800290477e-01 -7.660037608968971456e-01
2.436923076923076970e+00 -3.993347595031621067e-01 -5.263089412393970878e-01 -7.506831264007319815e-01
2.527179487179487261e+00 -2.686694479182313855e-01 -6.223733266101625361e-01 -7.351615379032526709e-01
2.617435897435897552e+00 -1.101182363046268597e-01 -6.857409868647876827e-01 -7.194632871081436676e-01
2.707692307692307843e+00 6.787475805762877012e-02 -7.073266447587626127e-01 -7.036163660333181191e-01
2.797948717948718134e+00 2.537231001086973081e-01 -6.802759332963819183e-01 -6.876358114011826839e-01
2.888205128205128425e+00 4.332959276088980127e-01 -6.010518031222743529e-01 -6.715541142764872573e-01
2.978461538461538716e+00 5.908671049778696505e-01 -4.704621995239655075e-01 -6.553890235050965352e-01
3.068717948717949007e+00 7.105253658223216195e-01 -2.943100992388418824e-01 -6.391623169456023268e-01
3.158974358974359298e+00 7.778185626443527845e-01 -8.365107244553815491e-02 -6.228916713077414791e-01
3.249230769230769589e+00 7.815667926895383255e-01 1.455633248396034918e-01 -6.065951148353657674e-01
3.339487179487179880e+00 7.156118386958764122e-01 3.734280569391088545e-01 -5.902914246260643205e-01
3.429743589743590171e+00 5.802883064428154825e-01 5.777393184813749416e-01 -5.739994946624956684e-01
3.520000000000000462e+00 3.833469325433160324e-01 7.361907821487994052e-01 -5.577282270954829757e-01
