0.000000000000000000e+00 1.167347416564144223e-09 -1.624973915222252048e-09 -1.000000000000000000e+00
9.025641025641026327e-02 5.876395608083145872e-03 -8.659182381132408263e-03 -9.999451679384696590e-01
1.805128205128205265e-01 1.177438908152748237e-02 -1.731367318340987227e-02 -9.997806386968982606e-01
2.707692307692307621e-01 1.767880931976500286e-02 -2.596611203616496638e-02 -9.995062898206545920e-01
3.610256410256410531e-01 2.359380070629810144e-02 -3.461434947937424428e-02 -9.991219456045935532e-01
4.512820512820513441e-01 2.952061559696452647e-02 -4.325720955635063009e-02 -9.986274134984831630e-01
5.415384615384615241e-01 3.546604964771625512e-02 -5.189166477714431125e-02 -9.980223746564866882e-01
6.317948717948718151e-01 4.142980152807233807e-02 -6.051665192934165688e-02 -9.973065896566706279e-01
7.220512820512821062e-01 4.741702256841148072e-02 -6.912938851714879596e-02 -9.964796849723598360e-01
8.123076923076923972e-01 5.342968200301088932e-02 -7.772540982186511294e-02 -9.955415209837839008e-01
9.025641025641026882e-01 5.947056639225729163e-02 -8.630367645489972483e-02 -9.944916780811395851e-01
9.928205128205128682e-01 6.554377434446793937e-02 -9.485862169687737933e-02 -9.933300083864693431e-01
1.083076923076923048e+00 7.164843438725171376e-02 -1.033865178252595662e-01 -9.920565803733933929e-01
1.173333333333333339e+00 7.778881064725387540e-02 -1.118833560267135790e-01 -9.906711979362005094e-01
1.263589743589743630e+00 8.396521651991756263e-02 -1.203449272938766634e-01 -9.891740113671519952e-01
1.353846153846153921e+00 9.018048442104523166e-02 -1.287660668065562786e-01 -9.875651577062176667e-01
1.444102564102564212e+00 9.643324674345693515e-02 -1.371405381073824425e-01 -9.858453922876935227e-01
1.534358974358974503e+00 1.027267031357910892e-01 -1.454634285482178935e-01 -9.840150026237783898e-01
1.624615384615384794e+00 1.090561186771129842e-01 -1.537323880715344426e-01 -9.820747929124949982e-01
1.714871794871795085e+00 1.154258415117028758e-01 -1.619375447741263074e-01 -9.800258987066717831e-01
1.805128205128205376e+00 1.218349068236379840e-01 -1.700774179317263435e-01 -9.778688331460063665e-01
1.895384615384615445e+00 1.282779168846193696e-01 -1.781457802604808904e-01 -9.756055836823405158e-01
1.985641025641025736e+00 1.347570298712604253e-01 -1.861368151957985551e-01 -9.732373286950903868e-01
2.075897435897436250e+00 1.412703584015916614e-01 -1.940471606466172005e-01 -9.707654321307778167e-01
2.166153846153846096e+00 1.478127474380136752e-01 -2.018711380555632540e-01 -9.681923588488101640e-01
2.256410256410256387e+00 1.543867544012628990e-01 -2.096040962589589274e-01 -9.655194092992073207e-01
2.346666666666666679e+00 1.609845693326845129e-01 -2.172433893554134854e-01 -9.627492004582913765e-01
2.436923076923076970e+00 1.676046661270206295e-01 -2.247833720324801110e-01 -9.598842239064053761e-01
2.527179487179487261e+00 1.742484412182808140e-01 -2.322195575889421937e-01 -9.569263490799345684e-01
2.617435897435897552e+00 1.809089481904120056e-01 -2.395542198107557252e-01 -9.538773900610199030e-01
2.707692307692307843e+00 1.875831679913174677e-01 -2.467789654812176381e-01 -9.507412428048483966e-01
2.797948717948718134e+00 1.942682874198843890e-01 -2.538946669886266161e-01 -9.475196093701396816e-01
2.888205128205128425e+00 2.009580546277927593e-01 -2.608962607419671453e-01 -9.442165787341855188e-01
2.978461538461538716e+00 2.076531340740245257e-01 -2.677846036539666130e-01 -9.408333514684140697e-01
3.068717948717949007e+00 2.143477867144154558e-01 -2.745534432988421258e-01 -9.373745859757365295e-01
3.158974358974359298e+00 2.210404910291800806e-01 -2.812087776294530661e-01 -9.338406032647459387e-01
3.249230769230769589e+00 2.277230710466705277e-01 -2.877459797722929924e-01 -9.302364582211787303e-01
3.339487179487179880e+00 2.343955920093838408e-01 -2.941608382626299534e-01 -9.265653727550978713e-01
3.429743589743590171e+00 2.410567826300648309e-01 -3.004560107175683892e-01 -9.228287832200002816e-01
3.520000000000000462e+00 2.476984991852127227e-01 -3.066303059694509003e-01 -9.190311900368950404e-01
