0.000000000000000000e+00 -2.589186696054245093e-09 4.601980428954784005e-10 -1.000000000000000000e+00
9.025641025641026327e-02 2.398596225944785998e-01 5.130046895271151569e-02 -9.694502698737358370e-01
1.805128205128205265e-01 4.623539963465593816e-01 1.064450713007468741e-01 -8.802808687940153476e-01
2.707692307692307621e-01 6.516806338022316236e-01 1.680714380366126748e-01 -7.396339960743800734e-01
3.610256410256410531e-01 7.950373036332607501e-01 2.367055663919949149e-01 -5.584607243347372574e-01
4.512820512820513441e-01 8.837786389519340924e-01 3.102414062625828972e-01 -3.502519021782360409e-01
5.415384615384615241e-01 9.142037476815171315e-01 3.839867137396621999e-01 -1.295213395037202453e-01
6.317948717948718151e-01 8.878563263476109135e-01 4.512762060389551300e-01 8.972701031572886954e-02
7.220512820512821062e-01 8.113033817994612651e-01 5.045227403294205715e-01 2.953543318650855287e-01
8.123076923076923972e-01 6.953738463376355483e-01 5.365586870262980534e-01 4.780706918499828539e-01
9.025641025641026882e-01 5.539351025556678021e-01 5.419785807733797922e-01 6.319873464798124729e-01
9.928205128205128682e-01 4.023072745694396546e-01 5.182511302488478355e-01 7.546912665337556225e-01
1.083076923076923048e+00 2.555163119208642142e-01 4.663893513959058712e-01 8.468695295163994885e-01
1.173333333333333339e+00 1.266072285702063982e-01 3.909994992311585094e-01 9.116396064229683738e-01
1.263589743589743630e+00 2.521916947811238263e-02 2.997468515671234957e-01 9.536842057696349739e-01
1.353846153846153921e+00 -4.336054098829646153e-02 2.022542078920946673e-01 9.783719139537956355e-01
1.444102564102564212e+00 -7.850037718250885144e-02 1.086698289341692103e-01 9.909730570949191186e-01
1.534358974358974503e+00 -8.390689197044488845e-02 2.814025111960229142e-02 9.960758612293566516e-01
1.624615384615384794e+00 -6.666277714004403832e-02 -3.254184746974842640e-02 9.972444852046420394e-01
1.714871794871795085e+00 -3.586217468280882698e-02 -6.985250437458355444e-02 9.969122147098880005e-01
1.805128205128205376e+00 -9.979501659379830247e-04 -8.388289084087549585e-02 9.964748156218643516e-01
1.895384615384615445e+00 2.954549320582542521e-02 -7.805767739003870165e-02 9.965106417668455618e-01
1.985641025641025736e+00 4.974855236910676742e-02 -5.829725534806935727e-02 9.970586517086943434e-01
2.075897435897436250e+00 5.665970419784382289e-02 -3.177177381452239713e-02 9.978876475423756887e-01
2.166153846153846096e+00 5.050343487422088301e-02 -5.551062992634660936e-03 9.987082715398694077e-01
2.256410256410256387e+00 3.421378922911447185e-02 1.464630491687533842e-02 9.993070697037167438e-01
2.346666666666666679e+00 1.248975058024020916e-02 2.534717613208383943e-02 9.996005737905485633e-01
2.436923076923076970e+00 -9.385078838029191003e-03 2.569273752055623722e-02 9.996257250105153869e-01
2.527179487179487261e+00 -2.672815690838149794e-02 1.726368950428253807e-02 9.994935344572599689e-01
2.617435897435897552e+00 -3.637049217699615811e-02 3.444760145263053158e-03 9.993322988233396265e-01
2.707692307692307843e+00 -3.722266000755369841e-02 -1.152725872772563873e-02 9.992403621762468990e-01
2.797948717948718134e+00 -3.028978731122628637e-02 -2.363456335670739705e-02 9.992615499033093984e-01
2.888205128205128425e+00 -1.823616977594032240e-02 -2.994772910103909308e-02 9.993849648068661162e-01
2.978461538461538716e+00 -4.624931421893338501e-03 -2.922608069114917412e-02 9.995620126399413774e-01
3.068717948717949007e+00 6.991112124672853485e-03 -2.204411900644908870e-02 9.997324633786468517e-01
3.158974358974359298e+00 1.390325504673152468e-02 -1.051149200823423349e-02 9.998480216983044455e-01
3.249230769230769589e+00 1.481985854829989159e-02 2.365288217577988725e-03 9.998873204401867998e-01
3.339487179487179880e+00 1.004881521886411000e-02 1.348578747237843233e-02 9.998584989416190449e-01
3.429743589743590171e+00 1.311159507583600260e-03 2.039146189277891985e-02 9.997911311003321311e-01
3.520000000000000462e+00 -8.791829477449119440e-03 2.184040570903123327e-02 9.997227187914775604e-01
