0.000000000000000000e+00 -4.498642879021299023e-09 -1.152527348104663209e-09 -1.000000000000000000e+00
9.025641025641026327e-02 1.290439881499862163e-01 -1.321702592704896428e-01 -9.827900890157249547e-01
1.805128205128205265e-01 2.588470750663295905e-01 -2.528177910228333047e-01 -9.322427549612029019e-01
2.707692307692307621e-01 3.893971515068150313e-01 -3.511624012983489695e-01 -8.514971426666857468e-01
3.610256410256410531e-01 5.193298207227682317e-01 -4.178524912976002703e-01 -7.454433173220967879e-01
4.512820512820513441e-01 6.455022195339081836e-01 -4.456436437493199731e-01 -6.202548873382903727e-01
5.415384615384615241e-01 7.628697430197288742e-01 -4.300091443493380128e-01 -4.828120239017442139e-01
6.317948717948718151e-01 8.647005394677879098e-01 -3.696242994382319957e-01 -3.400807012956665876e-01
7.220512820512821062e-01 9.430955841588537503e-01 -2.667035395954514554e-01 -1.985524083795864869e-01
8.123076923076923972e-01 9.898331859180979908e-01 -1.270929770185799945e-01 -6.372063306758571355e-02
9.025641025641026882e-01 9.973779633850770043e-01 3.989758197830051145e-02 6.023334851804882512e-02
9.928205128205128682e-01 9.599963092347577609e-01 2.219861789481374914e-01 1.706229078554209466e-01
1.083076923076923048e+00 8.748060823099204075e-01 4.047152348246286224e-01 2.662768862774755330e-01
1.173333333333333339e+00 7.426312034794038119e-01 5.725692121097248899e-01 3.473435207418913429e-01
1.263589743589743630e+00 5.685137937374696859e-01 7.102964190877720796e-01 4.150371467769251588e-01
1.353846153846153921e+00 3.618023345274857250e-01 8.043570355600264676e-01 4.712687489109544381e-01
1.444102564102564212e+00 1.357114054143662152e-01 8.443587327591963732e-01 5.182921370000738159e-01
1.534358974358974503e+00 -9.359186624194448800e-02 8.243086451229676426e-01 5.583389579061757146e-01
1.624615384615384794e+00 -3.083622188207607584e-01 7.435252164084157345e-01 5.933549487632060471e-01
1.714871794871795085e+00 -4.909597514865352563e-01 6.070667900804370687e-01 6.248328232585894648e-01
1.805128205128205376e+00 -6.256982332225380361e-01 4.256011639480036246e-01 6.537227591868907117e-01
1.895384615384615445e+00 -7.006164366034509650e-01 2.146245792835524968e-01 6.804862181493033235e-01
1.985641025641025736e+00 -7.089880090716969008e-01 -6.864410466292991675e-03 7.051793531187089403e-01
2.075897435897436250e+00 -6.503361748396889741e-01 -2.182148327461228554e-01 7.276226298380912283e-01
2.166153846153846096e+00 -5.308253375853688727e-01 -3.992367040065326611e-01 7.475456247407685773e-01
2.256410256410256387e+00 -3.628925638354941752e-01 -5.323982872178529835e-01 7.647557736178474119e-01
2.346666666666666679e+00 -1.641692680881241539e-01 -6.048577989131201926e-01 7.792215232529243751e-01
2.436923076923076970e+00 4.428179838530992007e-02 -6.100273343875917131e-01 7.911363448396420139e-01
2.527179487179487261e+00 2.401888099102902907e-01 -5.485023505051082049e-01 8.009030700349801801e-01
2.617435897435897552e+00 4.025478179491551178e-01 -4.281938336472499440e-01 8.090715158205018520e-01
2.707692307692307843e+00 5.140458406977960193e-01 -2.635722784238236360e-01 8.162586071685832279e-01
2.797948717948718134e+00 5.631131725576267177e-01 -7.414956053325769125e-02 8.230414080892642925e-01
2.888205128205128425e+00 5.453907273745565165e-01 1.177435063017633621e-01 8.298658638485257866e-01
2.978461538461538716e+00 4.643151831755937264e-01 2.895512178009608806e-01 8.369968027118187548e-01
3.068717948717949007e+00 3.308203860416218944e-01 4.211950343805472841e-01 8.444791084129059655e-01
3.158974358974359298e+00 1.620609107303939700e-01 4.975368507661195316e-01 8.521654228693311683e-01
3.249230769230769589e+00 -2.063196226021279944e-02 5.102628641660845732e-01 8.597667723930847439e-01
3.339487179487179880e+00 -1.943701951847749410e-01 4.589607717005981247e-01 8.669303541150720216e-01
3.429743589743590171e+00 -3.375828378250275708e-01 3.512131041346440163e-01 8.733157332338770118e-01
3.520000000000000462e+00 -4.327238665549717478e-01 2.016527465522094109e-01 8.786805934829040599e-01
