0.000000000000000000e+00 1.215644591703589429e-15 3.652388689005617096e-14 -1.000000000000000000e+00
9.025641025641026327e-02 3.464736576607865132e-03 1.201790862083959299e-01 -9.927461824802259471e-01
1.805128205128205265e-01 3.663401076381675447e-03 2.369650892630597583e-01 -9.715112587549771250e-01
2.707692307692307621e-01 -2.385927537299124823e-03 3.470667491574810359e-01 -9.378373946820384166e-01
3.610256410256410531e-01 -1.711775234389377454e-02 4.473915870723049748e-01 -8.941743399606206788e-01
4.512820512820513441e-01 -4.218892124000041266e-02 5.351458441065489735e-01 -8.437055292675127438e-01
5.415384615384615241e-01 -7.831559860416315022e-02 6.079236951071094186e-01 -7.901236913219158442e-01
6.317948717948718151e-01 -1.251626611889250507e-01 6.637955895934227746e-01 -7.373667494185102145e-01
7.220512820512821062e-01 -1.813225018325486659e-01 7.013811744222766542e-01 -6.893377968648889409e-01
8.123076923076923972e-01 -2.443627530267988290e-01 7.199141229609096193e-01 -6.496233525048720203e-01
9.025641025641026882e-01 -3.109581067391072873e-01 7.192912642680319157e-01 -6.212287280225112784e-01
9.928205128205128682e-01 -3.770808007266100437e-01 7.000995841497169581e-01 -6.063585086855772799e-01
1.083076923076923048e+00 -4.382631890759906002e-01 6.636228996165804972e-01 -6.062425452136798176e-01
1.173333333333333339e+00 -4.898917064952067468e-01 6.118225541531174816e-01 -6.210308184651449626e-01
1.263589743589743630e+00 -5.275166222091556278e-01 5.472930574555752159e-01 -6.497665133152202843e-01
1.353846153846153921e+00 -5.471797101154167731e-01 4.731858114709591723e-01 -6.904270796762165263e-01
1.444102564102564212e+00 -5.457099406597192282e-01 3.931073082879698588e-01 -7.400454745436593207e-01
1.534358974358974503e+00 -5.209798574324330245e-01 3.109861121890581392e-01 -7.949010162432874615e-01
1.624615384615384794e+00 -4.721079472739024840e-01 2.309280480973731065e-01 -8.507563238372407577e-01
1.714871794871795085e+00 -3.995829459728148514e-01 1.570380126141987520e-01 -9.031459083439321578e-01
1.805128205128205376e+00 -3.053071082500843914e-01 9.324021223763512278e-02 -9.476781268427308946e-01
1.895384615384615445e+00 -1.925468043568444310e-01 4.309612837253730400e-02 -9.803409874565790494e-01
1.985641025641025736e+00 -6.581106728769871295e-02 9.617754915854708972e-03 -9.977857497128930220e-01
2.075897435897436250e+00 6.937939601524654998e-02 -4.890501964290873069e-03 -9.975783590627391728e-01
2.166153846153846096e+00 2.067748434963090909e-01 1.021211102683917959e-03 -9.783880217543967639e-01
2.256410256410256387e+00 3.397355675088918336e-01 2.784838132138298117e-02 -9.401086169859954600e-01
2.346666666666666679e+00 4.616088607254235088e-01 7.506468724727820285e-02 -8.839018907157044636e-01
2.436923076923076970e+00 5.661181927608253117e-01 1.410969699610378214e-01 -8.121587510075252148e-01
2.527179487179487261e+00 6.477484891025309111e-01 2.233809678684602895e-01 -7.283699868873431127e-01
2.617435897435897552e+00 7.020797822114696052e-01 3.184267966330172062e-01 -6.369366962773351792e-01
2.707692307692307843e+00 7.260837024294000130e-01 4.219711339809082418e-01 -5.429022188957322026e-01
2.797948717948718134e+00 7.183302161769981042e-01 5.291706188260091315e-01 -4.516416243021081911e-01
2.888205128205128425e+00 6.791142378255119461e-01 6.348140082566806619e-01 -3.685309043625586978e-01
2.978461538461538716e+00 6.104817003340715642e-01 7.335897786441077928e-01 -2.985935866495788016e-01
3.068717948717949007e+00 5.161423866712596675e-01 8.203638251914662227e-01 -2.461711406926002377e-01
3.158974358974359298e+00 4.013092399731531534e-01 8.904387284994734753e-01 -2.146386842989417287e-01
3.249230769230769589e+00 2.724129987006893017e-01 9.398356306803995475e-01 -2.061556325439320436e-01
3.339487179487179880e+00 1.367679708581882314e-01 9.655198648540530559e-01 -2.215082643444358512e-01
3.429743589743590171e+00 2.168616666714390240e-03 9.655965025819306380e-01 -2.600359483771829683e-01
3.520000000000000462e+00 -1.235596077600319143e-01 9.394537364468122931e-01 -3.196243110509057739e-01
