0.000000000000000000e+00 -4.431104991121042139e-09 2.817816548802418902e-10 -1.000000000000000000e+00
9.025641025641026327e-02 -5.624478564627372057e-02 -1.759253797919632656e-01 -9.827937336282011049e-01
1.805128205128205265e-01 -1.027849095040229699e-01 -3.467642388801540076e-01 -9.322998727388096540e-01
2.707692307692307621e-01 -1.308213656626085464e-01 -5.072706592274253135e-01 -8.517932545344004680e-01
3.610256410256410531e-01 -1.331951339480976215e-01 -6.520167321710289565e-01 -7.464040734959647150e-01
4.512820512820513441e-01 -1.050762152502805469e-01 -7.753889049329607541e-01 -6.226664444889097316e-01
5.415384615384615241e-01 -4.446700794423574798e-02 -8.717313090928289210e-01 -4.879415019452058022e-01
6.317948717948718151e-01 4.752190185579763249e-02 -9.356094943836753552e-01 -3.497916094965368705e-01
7.220512820512821062e-01 1.666354125310205436e-01 -9.622001779474962380e-01 -2.153596244611543364e-01
8.123076923076923972e-01 3.057055138439609965e-01 -9.477747297831585760e-01 -9.079022363057806522e-02
9.025641025641026882e-01 4.551210189467469469e-01 -8.902087697512248710e-01 1.920256666871014012e-02
9.928205128205128682e-01 6.035215419011377147e-01 -7.894790086290747189e-01 1.116260579686388504e-01
1.083076923076923048e+00 7.386810665635805684e-01 -6.480601060920707646e-01 1.853226996973786900e-01
1.173333333333333339e+00 8.485027362887140878e-01 -4.711660755614110463e-01 2.408779093752398126e-01
1.263589743589743630e+00 9.220517185063549226e-01 -2.667704084552317001e-01 2.804122798687959106e-01
1.353846153846153921e+00 9.505562601137058643e-01 -4.538207498152041497e-02 3.071813884367458058e-01
1.444102564102564212e+00 9.282814434756119226e-01 1.804595418955786401e-01 3.251234488516377974e-01
1.534358974358974503e+00 8.531932331295393190e-01 3.969212989841811590e-01 3.383670930180677217e-01
1.624615384615384794e+00 7.273544215479152975e-01 5.898378802109542907e-01 3.507484309897716535e-01
1.714871794871795085e+00 5.569874011294705385e-01 7.457994223979813597e-01 3.654122343550036400e-01
1.805128205128205376e+00 3.521964495878180945e-01 8.532802601196809444e-01 3.845107630906957064e-01
1.895384615384615445e+00 1.263291084168638168e-01 9.037075329723871508e-01 4.090624262949878465e-01
1.985641025641025736e+00 -1.049597571347515024e-01 8.923626958304116119e-01 4.389204330095050066e-01
2.075897435897436250e+00 -3.248983991397386695e-01 8.190080693487997721e-01 4.729125032469424506e-01
2.166153846153846096e+00 -5.169572234663244448e-01 6.881631508803067732e-01 5.090842662519898809e-01
2.256410256410256387e+00 -6.662341810679772713e-01 5.089862134539068217e-01 5.450191064191319823e-01
2.346666666666666679e+00 -7.607870834678995831e-01 2.947259122383422136e-01 5.782050817718444868e-01
2.436923076923076970e+00 -7.927578427522550264e-01 6.178623035558045151e-02 6.063823371439199805e-01
2.527179487179487261e+00 -7.591761374836288878e-01 -1.715307355675206868e-01 6.278625702459903479e-01
2.617435897435897552e+00 -6.624073039488485026e-01 -3.865186205318339452e-01 6.417186691103500262e-01
2.707692307692307843e+00 -5.100903756192781691e-01 -5.656726298267775732e-01 6.479239097725350005e-01
2.797948717948718134e+00 -3.146571269382288372e-01 -6.942288763814983277e-01 6.473177051309959573e-01
2.888205128205128425e+00 -9.237679962464889760e-02 -7.615263418149648134e-01 6.415037550872126904e-01
2.978461538461538716e+00 1.379793149469371594e-01 -7.620591142435226839e-01 6.326217878162597730e-01
3.068717948717949007e+00 3.567212399672410328e-01 -6.960639956897000102e-01 6.230789263944719325e-01
3.158974358974359298e+00 5.449676889204535524e-01 -5.696245637116652549e-01 6.152400919359880538e-01
3.249230769230769589e+00 6.863526249530822465e-01 -3.942325469284713724e-01 6.111325332611329264e-01
3.339487179487179880e+00 7.685386270547401866e-01 -1.858398491958688781e-01 6.122043080626411449e-01
3.429743589743590171e+00 7.844005332589640833e-01 3.653252037374671302e-02 6.191635934849625267e-01
3.520000000000000462e+00 7.327568156787181985e-01 2.524939550911371455e-01 6.318994782687926692e-01
