0.000000000000000000e+00 -6.379228915918383506e-13 -3.270735356946596946e-13 -1.000000000000000000e+00
9.025641025641026327e-02 5.750317445372503389e-02 2.923591427408168270e-02 -9.979171539811758640e-01
1.805128205128205265e-01 1.141930932621794126e-01 5.660054862297625444e-02 -9.918449048883909436e-01
2.707692307692307621e-01 1.692229354505863093e-01 8.034130669379965783e-02 -9.822977514313295799e-01
3.610256410256410531e-01 2.216800949051802028e-01 9.893333616485178172e-02 -9.700876920863303887e-01
4.512820512820513441e-01 2.705687152929150407e-01 1.111826163561172587e-01 -9.562588541147665211e-01
5.415384615384615241e-01 3.148087939971223603e-01 1.163024574250244858e-01 -9.420027395914046808e-01
6.317948717948718151e-01 3.532425051308830111e-01 1.139757458629666320e-01 -9.285630090249948898e-01
7.220512820512821062e-01 3.846790861955650120e-01 1.043858785901746605e-01 -9.171289923572557568e-01
8.123076923076923972e-01 4.079332587930999399e-01 8.822409133991360175e-02 -9.087392175679992468e-01
9.025641025641026882e-01 4.219010212288110129e-01 6.666094063876930320e-02 -9.041879489542373749e-01
9.928205128205128682e-01 4.256360604193977215e-01 4.129852031097694387e-02 -9.039515340971467916e-01
1.083076923076923048e+00 4.184346450302662279e-01 1.409296117925339098e-02 -9.081375645190328250e-01
1.173333333333333339e+00 3.999169971544409563e-01 -1.275084213545851775e-02 -9.164626622541145462e-01
1.263589743589743630e+00 3.701109725254781435e-01 -3.689299461922662671e-02 -9.282546928288316623e-01
1.353846153846153921e+00 3.295070056795424973e-01 -5.598991596934406456e-02 -9.424915184443904970e-01
1.444102564102564212e+00 2.791063097882797162e-01 -6.782345336923015222e-02 -9.578620187251651874e-01
1.534358974358974503e+00 2.204199637678324608e-01 -7.044106848350514816e-02 -9.728582094114577306e-01
1.624615384615384794e+00 1.554672333731193790e-01 -6.227770963354429395e-02 -9.858759688291799383e-01
1.714871794871795085e+00 8.671197592675394805e-02 -4.225466086541623811e-02 -9.953369161739930027e-01
1.805128205128205376e+00 1.697992678332516103e-02 -9.874452966091670780e-03 -9.998070700498612462e-01
1.895384615384615445e+00 -5.065470780186159122e-02 3.472758138749074130e-02 -9.981122661924628492e-01
1.985641025641025736e+00 -1.130184299530483660e-01 9.075278839268650921e-02 -9.894396221025621996e-01
2.075897435897436250e+00 -1.669956361463101058e-01 1.567601996134565800e-01 -9.734159940840049208e-01
2.166153846153846096e+00 -2.097022602754579634e-01 2.306935709865109985e-01 -9.501607435984990024e-01
2.256410256410256387e+00 -2.386579825380785169e-01 3.099740624436707059e-01 -9.203034539504014733e-01
2.346666666666666679e+00 -2.519510081211148722e-01 3.916013123563947818e-01 -8.849684181046443276e-01
2.436923076923076970e+00 -2.483717722809614115e-01 4.722956358914679464e-01 -8.457235326163783373e-01
2.527179487179487261e+00 -2.275370402763199351e-01 5.486461537668264610e-01 -8.044962981999203011e-01
2.617435897435897552e+00 -1.899452116529483925e-01 6.172925025998124982e-01 -7.634597456890980238e-01
2.707692307692307843e+00 -1.370049217014120690e-01 6.750885089043693332e-01 -7.249035492204510822e-01
2.797948717948718134e+00 -7.100849096272443539e-02 7.192798115436151996e-01 -6.910820108647403037e-01
2.888205128205128425e+00 4.947997505445111965e-03 7.476545347775357397e-01 -6.640694344025451779e-01
2.978461538461538716e+00 8.709851941053275981e-02 7.586848200013373011e-01 -6.456091630611467957e-01
3.068717948717949007e+00 1.711789548571272523e-01 7.516237488878498851e-01 -6.369925468827755122e-01
3.158974358974359298e+00 2.526355540275643241e-01 7.265761423804842911e-01 -6.389541347160148099e-01
3.249230769230769589e+00 3.268721584461074525e-01 6.845238923360386085e-01 -6.515992877562303276e-01
3.339487179487179880e+00 3.894928394757019019e-01 6.273047045552077039e-01 -6.743768502801258391e-01
3.429743589743590171e+00 4.365554743281861994e-01 5.575537992870472914e-01 -7.060829122649951994e-01
3.520000000000000462e+00 4.648067126092303436e-01 4.785835207757023757e-01 -7.449245157065270684e-01
