1.000000000000000056e-01 2.545603109335521919e-01 -1.759649475724787970e-01 -9.458534565898293334e-01
2.000000000000000111e-01 4.616769307451341064e-01 -3.471463574124979412e-01 -7.937660568219351287e-01
2.999999999999999889e-01 5.850175363083758295e-01 -5.043625828013801327e-01 -5.719102534945860183e-01
4.000000000000000222e-01 6.076979841171641361e-01 -6.326460129685413936e-01 -3.186932634647496876e-01
5.000000000000000000e-01 5.356291789568756734e-01 -7.141996398462640006e-01 -7.319013956892438111e-02
5.999999999999999778e-01 3.948435150109659286e-01 -7.346093901884729327e-01 1.332574895896359857e-01
6.999999999999999556e-01 2.234812308168531436e-01 -6.893255967637339499e-01 2.819566611922945665e-01
7.999999999999999334e-01 6.088054157341104417e-02 -5.871296783499577732e-01 3.675910059098002058e-01
8.999999999999999112e-01 -6.272064770964468072e-02 -4.487126547067228910e-01 3.955733752498992728e-01
9.999999999999998890e-01 -1.326098759803599758e-01 -3.008488385380358454e-01 3.777159196247907857e-01
1.099999999999999867e+00 -1.504633640171585685e-01 -1.686587046363438314e-01 3.279214071497339456e-01
1.199999999999999956e+00 -1.301588609189522072e-01 -6.911491485924031730e-02 2.590157895377522279e-01
1.300000000000000044e+00 -9.083176605423100292e-02 -8.047438007460692294e-03 1.810864031246539052e-01
1.399999999999999911e+00 -5.005374819560524241e-02 1.885816196213628212e-02 1.010972595612391334e-01
1.500000000000000000e+00 -1.932947116207343191e-02 2.223541247514186289e-02 2.329516532505007329e-02
1.599999999999999867e+00 -2.732454244869699216e-03 1.429857217527039093e-02 -5.007247507541657400e-02
1.699999999999999956e+00 1.784061027396420616e-03 4.928510085107608990e-03 -1.180490057463572523e-01
1.800000000000000044e+00 -4.455968857271656370e-04 -4.505520316784949564e-04 -1.804160958664610681e-01
1.899999999999999911e+00 -3.878574654567548251e-03 -1.000323520340924005e-03 -2.373255720955648740e-01
2.000000000000000000e+00 -5.072765042411468348e-03 9.797368797654511761e-04 -2.890829768122826771e-01
2.099999999999999645e+00 -3.588128959382026403e-03 2.328064904290702564e-03 -3.360390252663535970e-01
2.199999999999999734e+00 -1.323830355928985085e-03 1.139399029783675884e-03 -3.785498606833340718e-01
2.299999999999999822e+00 -7.413166335645772140e-04 -2.199304189403822069e-03 -4.169754388488761676e-01
2.399999999999999911e+00 -2.989717176393085710e-03 -5.514374378758793264e-03 -4.516884930089665184e-01
2.500000000000000000e+00 -7.047174480750228488e-03 -6.536005332408544380e-03 -4.830740985574650814e-01
2.600000000000000089e+00 -1.044818575253756571e-02 -4.642497030113111427e-03 -5.115100937032530659e-01
2.699999999999999734e+00 -1.112920877880053429e-02 -1.411748060205973232e-03 -5.373359796529391108e-01
2.799999999999999822e+00 -9.056118898697671990e-03 5.056808857203169650e-04 -5.608301766135840305e-01
2.899999999999999911e+00 -6.340249487302184773e-03 -5.722693849057525943e-04 -5.822134208904902186e-01
3.000000000000000000e+00 -5.647373035886292872e-03 -3.966267211742392600e-03 -6.016780020572968235e-01
