1.000000000000000056e-01 9.776733940088060404e-01 0.000000000000000000e+00 2.232660599119612108e-02 0.000000000000000000e+00 0.000000000000000000e+00 0.000000000000000000e+00 1.299934271017535725e-01 7.021280222516994296e-02 0.000000000000000000e+00 0.000000000000000000e+00 0.000000000000000000e+00 0.000000000000000000e+00 0.000000000000000000e+00 0.000000000000000000e+00 0.000000000000000000e+00 0.000000000000000000e+00
2.000000000000000111e-01 9.135578205546736053e-01 0.000000000000000000e+00 8.644217944532862907e-02 0.000000000000000000e+00 0.000000000000000000e+00 0.000000000000000000e+00 2.413953894481907225e-01 1.438686729010708598e-01 0.000000000000000000e+00 0.000000000000000000e+00 0.000000000000000000e+00 0.000000000000000000e+00 0.000000000000000000e+00 0.000000000000000000e+00 0.000000000000000000e+00 0.000000000000000000e+00
2.999999999999999889e-01 8.156599872915560878e-01 0.000000000000000000e+00 1.843400127084429130e-01 0.000000000000000000e+00 0.000000000000000000e+00 0.000000000000000000e+00 3.182314701368083587e-01 2.215569992475818761e-01 0.000000000000000000e+00 0.000000000000000000e+00 0.000000000000000000e+00 0.000000000000000000e+00 0.000000000000000000e+00 0.000000000000000000e+00 0.000000000000000000e+00 0.000000000000000000e+00
4.000000000000000222e-01 6.955341668506940245e-01 0.000000000000000000e+00 3.044658331493005354e-01 0.000000000000000000e+00 0.000000000000000000e+00 0.000000000000000000e+00 3.496237675152429891e-01 2.992149908449392437e-01 0.000000000000000000e+00 0.000000000000000000e+00 0.000000000000000000e+00 0.000000000000000000e+00 0.000000000000000000e+00 0.000000000000000000e+00 0.000000000000000000e+00 0.000000000000000000e+00
5.000000000000000000e-01 5.660936664229895277e-01 0.000000000000000000e+00 4.339063335770116381e-01 0.000000000000000000e+00 0.000000000000000000e+00 0.000000000000000000e+00 3.318445173194248810e-01 3.681179751167200087e-01 0.000000000000000000e+00 0.000000000000000000e+00 0.000000000000000000e+00 0.000000000000000000e+00 0.000000000000000000e+00 0.000000000000000000e+00 0.000000000000000000e+00 0.000000000000000000e+00
5.999999999999999778e-01 4.394116558234162362e-01 0.000000000000000000e+00 5.605883441765864283e-01 0.000000000000000000e+00 0.000000000000000000e+00 0.000000000000000000e+00 2.694516274099443276e-01 4.168031586452109472e-01 0.000000000000000000e+00 0.000000000000000000e+00 0.000000000000000000e+00 0.000000000000000000e+00 0.000000000000000000e+00 0.000000000000000000e+00 0.000000000000000000e+00 0.000000000000000000e+00
6.999999999999999556e-01 3.249729375919117036e-01 0.000000000000000000e+00 6.750270624080916271e-01 0.000000000000000000e+00 0.000000000000000000e+00 0.000000000000000000e+00 1.749446907174409815e-01 4.344650532713443258e-01 0.000000000000000000e+00 0.000000000000000000e+00 0.000000000000000000e+00 0.000000000000000000e+00 0.000000000000000000e+00 0.000000000000000000e+00 0.000000000000000000e+00 0.000000000000000000e+00
7.999999999999999334e-01 2.287318900704696789e-01 0.000000000000000000e+00 7.712681099295306542e-01 0.000000000000000000e+00 0.000000000000000000e+00 0.000000000000000000e+00 6.665370489149094468e-02 4.146937377302687966e-01 0.000000000000000000e+00 0.000000000000000000e+00 0.000000000000000000e+00 0.000000000000000000e+00 0.000000000000000000e+00 0.000000000000000000e+00 0.000000000000000000e+00 0.000000000000000000e+00
8.999999999999999112e-01 1.530303360650882016e-01 0.000000000000000000e+00 8.469696639349104661e-01 0.000000000000000000e+00 0.000000000000000000e+00 0.000000000000000000e+00 -3.505788021656637554e-02 3.583057316147010285e-01 0.000000000000000000e+00 0.000000000000000000e+00 0.000000000000000000e+00 0.000000000000000000e+00 0.000000000000000000e+00 0.000000000000000000e+00 0.000000000000000000e+00 0.000000000000000000e+00
9.999999999999998890e-01 9.719722421551289793e-02 0.000000000000000000e+00 9.028027757844835355e-01 0.000000000000000000e+00 0.000000000000000000e+00 0.000000000000000000e+00 -1.123706730416519778e-01 2.740853072714929950e-01 0.000000000000000000e+00 0.000000000000000000e+00 0.000000000000000000e+00 0.000000000000000000e+00 0.000000000000000000e+00 0.000000000000000000e+00 0.000000000000000000e+00 0.000000000000000000e+00
1.099999999999999867e+00 5.854174322982981515e-02 0.000000000000000000e+00 9.414582567701724747e-01 0.000000000000000000e+00 0.000000000000000000e+00 0.000000000000000000e+00 -1.542110928420497296e-01 1.770128423036138599e-01 0.000000000000000000e+00 0.000000000000000000e+00 0.000000000000000000e+00 0.000000000000000000e+00 0.000000000000000000e+00 0.000000000000000000e+00 0.000000000000000000e+00 0.000000000000000000e+00
1.199999999999999956e+00 3.340888447059110061e-02 0.000000000000000000e+00 9.665911155294040213e-01 0.000000000000000000e+00 0.000000000000000000e+00 0.000000000000000000e+00 -1.586547157628866167e-01 8.438845906491324045e-02 0.000000000000000000e+00 0.000000000000000000e+00 0.000000000000000000e+00 0.000000000000000000e+00 0.000000000000000000e+00 0.000000000000000000e+00 0.000000000000000000e+00 0.000000000000000000e+00
1.300000000000000044e+00 1.806397718201904409e-02 0.000000000000000000e+00 9.819360228179835337e-01 0.000000000000000000e+00 0.000000000000000000e+00 0.000000000000000000e+00 -1.327164514674017415e-01 1.113612841672006679e-02 0.000000000000000000e+00 0.000000000000000000e+00 0.000000000000000000e+00 0.000000000000000000e+00 0.000000000000000000e+00 0.000000000000000000e+00 0.000000000000000000e+00 0.000000000000000000e+00
1.399999999999999911e+00 9.267505939334360829e-03 0.000000000000000000e+00 9.907324940606657693e-01 0.000000000000000000e+00 0.000000000000000000e+00 0.000000000000000000e+00 -8.954079677720863661e-02 -3.411839565919909389e-02 0.000000000000000000e+00 0.000000000000000000e+00 0.000000000000000000e+00 0.000000000000000000e+00 0.000000000000000000e+00 0.000000000000000000e+00 0.000000000000000000e+00 0.000000000000000000e+00
1.500000000000000000e+00 4.527202066455320549e-03 0.000000000000000000e+00 9.954727979335484811e-01 0.000000000000000000e+00 0.000000000000000000e+00 0.000000000000000000e+00 -4.390027854432310833e-02 -5.078850270482981877e-02 0.000000000000000000e+00 0.000000000000000000e+00 0.000000000000000000e+00 0.000000000000000000e+00 0.000000000000000000e+00 0.000000000000000000e+00 0.000000000000000000e+00 0.000000000000000000e+00
1.599999999999999867e+00 2.121688495682963905e-03 0.000000000000000000e+00 9.978783115043190488e-01 0.000000000000000000e+00 0.000000000000000000e+00 0.000000000000000000e+00 -7.720151380642696799e-03 -4.536062322377105299e-02 0.000000000000000000e+00 0.000000000000000000e+00 0.000000000000000000e+00 0.000000000000000000e+00 0.000000000000000000e+00 0.000000000000000000e+00 0.000000000000000000e+00 0.000000000000000000e+00
1.699999999999999956e+00 9.657248554542412428e-04 0.000000000000000000e+00 9.990342751445453473e-01 0.000000000000000000e+00 0.000000000000000000e+00 0.000000000000000000e+00 1.292945213789165569e-02 -2.824219268340471059e-02 0.000000000000000000e+00 0.000000000000000000e+00 0.000000000000000000e+00 0.000000000000000000e+00 0.000000000000000000e+00 0.000000000000000000e+00 0.000000000000000000e+00 0.000000000000000000e+00
1.800000000000000044e+00 4.341583519805313363e-04 0.000000000000000000e+00 9.995658416480169839e-01 0.000000000000000000e+00 0.000000000000000000e+00 0.000000000000000000e+00 1.840480575132734040e-02 -9.758734469640581444e-03 0.000000000000000000e+00 0.000000000000000000e+00 0.000000000000000000e+00 0.000000000000000000e+00 0.000000000000000000e+00 0.000000000000000000e+00 0.000000000000000000e+00 0.000000000000000000e+00
1.899999999999999911e+00 1.967549370722128691e-04 0.000000000000000000e+00 9.998032450629240619e-01 0.000000000000000000e+00 0.000000000000000000e+00 0.000000000000000000e+00 1.368576247461618725e-02 3.068554665376288168e-03 0.000000000000000000e+00 0.000000000000000000e+00 0.000000000000000000e+00 0.000000000000000000e+00 0.000000000000000000e+00 0.000000000000000000e+00 0.000000000000000000e+00 0.000000000000000000e+00
2.000000000000000000e+00 9.140504045341758972e-05 0.000000000000000000e+00 9.999085949595468703e-01 0.000000000000000000e+00 0.000000000000000000e+00 0.000000000000000000e+00 5.341306900927616022e-03 7.928875945215973359e-03 0.000000000000000000e+00 0.000000000000000000e+00 0.000000000000000000e+00 0.000000000000000000e+00 0.000000000000000000e+00 0.000000000000000000e+00 0.000000000000000000e+00 0.000000000000000000e+00
2.099999999999999645e+00 4.400516420692839221e-05 0.000000000000000000e+00 9.999559948357944483e-01 0.000000000000000000e+00 0.000000000000000000e+00 0.000000000000000000e+00 -1.358429360096757941e-03 6.492905994589200265e-03 0.000000000000000000e+00 0.000000000000000000e+00 0.000000000000000000e+00 0.000000000000000000e+00 0.000000000000000000e+00 0.000000000000000000e+00 0.000000000000000000e+00 0.000000000000000000e+00
2.199999999999999734e+00 2.208883916982114535e-05 0.000000000000000000e+00 9.999779111608327886e-01 0.000000000000000000e+00 0.000000000000000000e+00 0.000000000000000000e+00 -4.051191288489410305e-03 2.382449302264304757e-03 0.000000000000000000e+00 0.000000000000000000e+00 0.000000000000000000e+00 0.000000000000000000e+00 0.000000000000000000e+00 0.000000000000000000e+00 0.000000000000000000e+00 0.000000000000000000e+00
2.299999999999999822e+00 1.154102244462743861e-05 0.000000000000000000e+00 9.999884589775577259e-01 0.000000000000000000e+00 0.000000000000000000e+00 0.000000000000000000e+00 -3.214014948405385323e-03 -1.100408707888269255e-03 0.000000000000000000e+00 0.000000000000000000e+00 0.000000000000000000e+00 0.000000000000000000e+00 0.000000000000000000e+00 0.000000000000000000e+00 0.000000000000000000e+00 0.000000000000000000e+00
2.399999999999999911e+00 6.301316721497380405e-06 0.000000000000000000e+00 9.999936986832778096e-01 0.000000000000000000e+00 0.000000000000000000e+00 0.000000000000000000e+00 -8.742970370057711769e-04 -2.353025673632126984e-03 0.000000000000000000e+00 0.000000000000000000e+00 0.000000000000000000e+00 0.000000000000000000e+00 0.000000000000000000e+00 0.000000000000000000e+00 0.000000000000000000e+00 0.000000000000000000e+00
2.500000000000000000e+00 3.569290512823395816e-06 0.000000000000000000e+00 9.999964307094850735e-01 0.000000000000000000e+00 0.000000000000000000e+00 0.000000000000000000e+00 9.845927809852357462e-04 -1.612364395793419551e-03 0.000000000000000000e+00 0.000000000000000000e+00 0.000000000000000000e+00 0.000000000000000000e+00 0.000000000000000000e+00 0.000000000000000000e+00 0.000000000000000000e+00 0.000000000000000000e+00
2.600000000000000089e+00 2.087507709125182824e-06 0.000000000000000000e+00 9.999979124922920848e-01 0.000000000000000000e+00 0.000000000000000000e+00 0.000000000000000000e+00 1.436985111511802178e-03 -1.498232871229635259e-04 0.000000000000000000e+00 0.000000000000000000e+00 0.000000000000000000e+00 0.000000000000000000e+00 0.000000000000000000e+00 0.000000000000000000e+00 0.000000000000000000e+00 0.000000000000000000e+00
2.699999999999999734e+00 1.267563628104853078e-06 0.000000000000000000e+00 9.999987324363709407e-01 0.000000000000000000e+00 0.000000000000000000e+00 0.000000000000000000e+00 7.611317109328325295e-04 8.295108412323826813e-04 0.000000000000000000e+00 0.000000000000000000e+00 0.000000000000000000e+00 0.000000000000000000e+00 0.000000000000000000e+00 0.000000000000000000e+00 0.000000000000000000e+00 0.000000000000000000e+00
2.799999999999999822e+00 7.984139008693287334e-07 0.000000000000000000e+00 9.999992015860964534e-01 0.000000000000000000e+00 0.000000000000000000e+00 0.000000000000000000e+00 -1.814641461961136420e-04 8.748087265101458024e-04 0.000000000000000000e+00 0.000000000000000000e+00 0.000000000000000000e+00 0.000000000000000000e+00 0.000000000000000000e+00 0.000000000000000000e+00 0.000000000000000000e+00 0.000000000000000000e+00
2.899999999999999911e+00 5.155057157444158146e-07 0.000000000000000000e+00 9.999994844942857730e-01 0.000000000000000000e+00 0.000000000000000000e+00 0.000000000000000000e+00 -6.579110176244927499e-04 2.873205238284598094e-04 0.000000000000000000e+00 0.000000000000000000e+00 0.000000000000000000e+00 0.000000000000000000e+00 0.000000000000000000e+00 0.000000000000000000e+00 0.000000000000000000e+00 0.000000000000000000e+00
3.000000000000000000e+00 3.380371316907881349e-07 0.000000000000000000e+00 9.999996619628703787e-01 0.000000000000000000e+00 0.000000000000000000e+00 0.000000000000000000e+00 -4.982269626847148731e-04 -2.994207822319216008e-04 0.000000000000000000e+00 0.000000000000000000e+00 0.000000000000000000e+00 0.000000000000000000e+00 0.000000000000000000e+00 0.000000000000000000e+00 0.000000000000000000e+00 0.000000000000000000e+00
