0.000000000000000000e+00 -1.318990289842019113e-09 -1.441362964428385883e-09 -1.000000000000000000e+00
1.230769230769230699e-01 -4.415617670544981777e-01 -6.811788297776460999e-02 -8.946332008822085458e-01
2.461538461538461398e-01 -7.836499932631884047e-01 -1.424878442624865071e-01 -6.046153598250841865e-01
3.692307692307691958e-01 -9.550136179667788605e-01 -2.191717461159251590e-01 -1.996814454505469738e-01
4.923076923076922795e-01 -9.321837474520691114e-01 -2.801857034519457113e-01 2.291064295947978502e-01
6.153846153846153078e-01 -7.443368304457080864e-01 -2.985403180886446739e-01 5.973323048318062156e-01
7.384615384615383915e-01 -4.621089540976737187e-01 -2.506204338690063982e-01 8.506626567835879893e-01
8.615384615384614753e-01 -1.741008886044494441e-01 -1.300560491678820763e-01 9.760982473601280685e-01
9.846153846153845590e-01 4.127577698643758453e-02 4.401235542916186183e-02 9.981770267361619320e-01
1.107692307692307532e+00 1.391109077555713058e-01 2.297306062247917446e-01 9.632568900460034556e-01
1.230769230769230616e+00 1.194515312682047220e-01 3.753734548743662969e-01 9.191373776210756130e-01
1.353846153846153699e+00 2.267216634999083547e-02 4.390153315029109438e-01 8.981854966863744849e-01
1.476923076923076783e+00 -8.866432593893833203e-02 4.055171688676556530e-01 9.097697977291251403e-01
1.599999999999999867e+00 -1.547262031422144968e-01 2.937067037640729850e-01 9.432845994857937955e-01
1.723076923076922951e+00 -1.407934715004025283e-01 1.498648383158761033e-01 9.786273965223496463e-01
1.846153846153846034e+00 -4.880754742440310268e-02 2.970542124642753731e-02 9.983654924561708999e-01
1.969230769230769118e+00 8.585090186537705503e-02 -2.391391453210754692e-02 9.960196162351351301e-01
2.092307692307691980e+00 2.110220882220063265e-01 2.283706916189814917e-03 9.774753997775449399e-01
2.215384615384615064e+00 2.799267497907993452e-01 8.707355719393219950e-02 9.560597298831290392e-01
2.338461538461538147e+00 2.708621911968335239e-01 1.850508627616007096e-01 9.446584833360009981e-01
2.461538461538461231e+00 1.954496619411628666e-01 2.467884702638950267e-01 9.491497051083798153e-01
2.584615384615384315e+00 9.260364577272023334e-02 2.404425425634748592e-01 9.662319239808971894e-01
2.707692307692307399e+00 1.101561676406753731e-02 1.652750971358297183e-01 9.861834926909653909e-01
2.830769230769230482e+00 -1.219141249953236555e-02 5.126342155684626700e-02 9.986099348428554290e-01
2.953846153846153566e+00 3.259932456822978164e-02 -5.492358254982880605e-02 9.979572819977623466e-01
3.076923076923076650e+00 1.243355616392816804e-01 -1.110603184126743581e-01 9.860026995772895875e-01
3.199999999999999734e+00 2.209070551878446476e-01 -9.824024638390202457e-02 9.703306788675352124e-01
3.323076923076922817e+00 2.787714090029553282e-01 -2.892049758620997280e-02 9.599174706402542334e-01
3.446153846153845901e+00 2.724883377361811965e-01 5.931857345692395644e-02 9.603243660588191011e-01
3.569230769230768985e+00 2.059202226163620586e-01 1.213405385948061049e-01 9.710129360817284505e-01
3.692307692307692069e+00 1.100408566141648919e-01 1.251324436067479950e-01 9.860161908911663220e-01
3.815384615384615152e+00 2.845434583764726300e-02 6.624555614517951829e-02 9.973964573960480973e-01
3.938461538461538236e+00 -2.774327722010333508e-03 -3.058990087566319099e-02 9.995276725134297768e-01
4.061538461538461320e+00 2.873749507447870971e-02 -1.234819472769712045e-01 9.919287293515611781e-01
4.184615384615383959e+00 1.059117392224448173e-01 -1.727117840253178938e-01 9.792585398815268904e-01
4.307692307692307487e+00 1.907263744296837649e-01 -1.592995451556907249e-01 9.686276834924794077e-01
4.430769230769230127e+00 2.420147092940603262e-01 -9.348649439679564133e-02 9.657542560204496196e-01
4.553846153846153655e+00 2.346553672526239809e-01 -9.572830787947600450e-03 9.720278491058936821e-01
4.676923076923076295e+00 1.711251476837393481e-01 5.035707841637891702e-02 9.839588606385218927e-01
4.799999999999999822e+00 8.009576639727922220e-02 5.617963089528300868e-02 9.952012847460826039e-01
