0.000000000000000000e+00 -1.594823764115717663e-09 -9.910210083018828929e-10 -1.000000000000000000e+00
1.230769230769230699e-01 -2.206608221658373781e-02 4.259838913061666510e-01 -9.044586984691658227e-01
2.461538461538461398e-01 -9.887559368730980403e-02 7.594092298986487855e-01 -6.430476439077127404e-01
3.692307692307691958e-01 -2.484493364970358775e-01 9.269070282008474715e-01 -2.812497663052582197e-01
4.923076923076922795e-01 -4.359866253993819885e-01 8.943232722001133173e-01 1.004285786215506626e-01
6.153846153846153078e-01 -5.882789346361854133e-01 6.822044231798656266e-01 4.341790649341976671e-01
7.384615384615383915e-01 -6.323929667369154739e-01 3.660755898664088681e-01 6.826840538751152154e-01
8.615384615384614753e-01 -5.377172435132151485e-01 5.351479765145313039e-02 8.414210358614264695e-01
9.846153846153845590e-01 -3.366966096409854670e-01 -1.575287318095145994e-01 9.283402395088292680e-01
1.107692307692307532e+00 -1.102874637246481909e-01 -2.203073692657522842e-01 9.691741352358250738e-01
1.230769230769230616e+00 5.489851009833029982e-02 -1.571448179179290583e-01 9.860475556617374071e-01
1.353846153846153699e+00 1.123767990139759587e-01 -4.119852665568479039e-02 9.928105504944012560e-01
1.476923076923076783e+00 7.627491309224178340e-02 4.813255573531451809e-02 9.959238772010818863e-01
1.599999999999999867e+00 4.341467428275569418e-03 6.894000720472753807e-02 9.976109641050635579e-01
1.723076923076922951e+00 -4.345517022921836781e-02 3.252339393906004961e-02 9.985255349071533448e-01
1.846153846153846034e+00 -4.163793968391587413e-02 -1.632916052672958585e-02 9.989990548566037853e-01
1.969230769230769118e+00 -7.090486151850108887e-03 -3.727928457437926224e-02 9.992795037895008115e-01
2.092307692307691980e+00 2.353412621844046954e-02 -2.183658713013400532e-02 9.994843260273668095e-01
2.215384615384615064e+00 2.605757722570404070e-02 7.840048093860869233e-03 9.996295319622972020e-01
2.338461538461538147e+00 5.036725139028242620e-03 2.326618623590472404e-02 9.997164692532175545e-01
2.461538461538461231e+00 -1.603088639383357800e-02 1.429341054123977293e-02 9.997691921021084616e-01
2.584615384615384315e+00 -1.837455686179309544e-02 -5.931240245400514963e-03 9.998134577160563419e-01
2.707692307692307399e+00 -3.462033538152598650e-03 -1.673407073231434131e-02 9.998538715247884401e-01
2.830769230769230482e+00 1.180761443439523953e-02 -9.713044489535123047e-03 9.998830119018445872e-01
2.953846153846153566e+00 1.302377134303134114e-02 5.568967522003654899e-03 9.998995856175335595e-01
3.076923076923076650e+00 1.290088511595684651e-03 1.322341432152290136e-02 9.999116466472646181e-01
3.199999999999999734e+00 -1.003971603289849704e-02 6.973318616030136675e-03 9.999252040279045239e-01
3.323076923076922817e+00 -9.839321698259373764e-03 -5.108930272269011398e-03 9.999384666090499474e-01
3.446153846153845901e+00 2.254810350437921190e-04 -1.027263822731388013e-02 9.999471396718868643e-01
3.569230769230768985e+00 8.879996300442963286e-03 -4.223173653714247001e-03 9.999515868992815415e-01
3.692307692307692069e+00 7.565926773207966999e-03 5.567773451493422329e-03 9.999558128128432921e-01
3.815384615384615152e+00 -1.236738762716474427e-03 8.648029758818858229e-03 9.999617797837109245e-01
3.938461538461538236e+00 -7.647314041864814241e-03 2.525941600839620542e-03 9.999675122674993588e-01
4.061538461538461320e+00 -5.258599916095342899e-03 -5.554406464544661866e-03 9.999706937159292819e-01
4.184615384615383959e+00 2.589118123381200717e-03 -7.001131511156567441e-03 9.999720873264021925e-01
4.307692307692307487e+00 7.135277980209520955e-03 -9.398853482775358301e-04 9.999740508972472242e-01
4.430769230769230127e+00 3.848482143808897374e-03 5.525279574143628601e-03 9.999772819706087557e-01
4.553846153846153655e+00 -3.121490327317422934e-03 5.455018370567037839e-03 9.999802042986855044e-01
4.676923076923076295e+00 -6.047455703404671506e-03 -5.691317257002065887e-04 9.999815082857589355e-01
4.799999999999999822e+00 -2.112814543334258412e-03 -5.619975176498292688e-03 9.999819324714017688e-01
