0.000000000000000000e+00 3.809783426442907294e-09 -1.094124182895266923e-09 -1.000000000000000000e+00
1.230769230769230699e-01 -7.087702568819376214e-02 -4.291339704389758869e-01 -9.004535165684527387e-01
2.461538461538461398e-01 -9.863599162404534937e-02 -7.709481979830959952e-01 -6.292071619891029810e-01
3.692307692307691958e-01 -6.482457962708715327e-02 -9.642748951761956899e-01 -2.568282125745723898e-01
4.923076923076922795e-01 1.522271485490644949e-02 -9.912115134227298396e-01 1.313644133322266760e-01
6.153846153846153078e-01 1.035288665450829759e-01 -8.789054159375020436e-01 4.656150177563074255e-01
7.384615384615383915e-01 1.624129675819964147e-01 -6.853311889964633918e-01 7.098845547753717122e-01
8.615384615384614753e-01 1.739371255150267692e-01 -4.753212573991561496e-01 8.624446808986678814e-01
9.846153846153845590e-01 1.447874228225054516e-01 -2.977776343956458627e-01 9.435900602651348112e-01
1.107692307692307532e+00 9.663391513980380820e-02 -1.740752134822060315e-01 9.799785976392189069e-01
1.230769230769230616e+00 5.106998779721942661e-02 -1.007167204327368837e-01 9.936030748043633842e-01
1.353846153846153699e+00 1.953582826014937934e-02 -6.147812658339738001e-02 9.979169549713136078e-01
1.476923076923076783e+00 2.507567109062852975e-03 -3.997933915376152697e-02 9.991971848543942381e-01
1.599999999999999867e+00 -5.077203209660766797e-03 -2.624385323291188177e-02 9.996425570458230547e-01
1.723076923076922951e+00 -8.120352317677236031e-03 -1.645786233912166843e-02 9.998314993292899411e-01
1.846153846153846034e+00 -9.101903683254263661e-03 -9.663299994496986692e-03 9.999118202085157670e-01
1.969230769230769118e+00 -8.791936556885407775e-03 -5.193636970071992959e-03 9.999478120984583995e-01
2.092307692307691980e+00 -7.651755335661589337e-03 -2.189303172398265451e-03 9.999682879212499209e-01
2.215384615384615064e+00 -6.235942365434102644e-03 -5.884940044976420120e-05 9.999805221222122231e-01
2.338461538461538147e+00 -4.934466110233457978e-03 1.366565460258446947e-03 9.999868644456126887e-01
2.461538461538461231e+00 -3.776022065387840947e-03 2.136215387537132929e-03 9.999905655684357964e-01
2.584615384615384315e+00 -2.680361683523313499e-03 2.451677512795596980e-03 9.999933823919774367e-01
2.707692307692307399e+00 -1.677824119519264997e-03 2.549556302199436613e-03 9.999953251644799757e-01
2.830769230769230482e+00 -8.768837156860725393e-04 2.528241726596229446e-03 9.999964043029097027e-01
2.953846153846153566e+00 -2.938480899548440118e-04 2.367402889983574038e-03 9.999971407647546551e-01
3.076923076923076650e+00 1.578611877074281855e-04 2.074768117169886478e-03 9.999978230436408211e-01
3.199999999999999734e+00 5.364855975397166653e-04 1.733805623648148470e-03 9.999983422793092824e-01
3.323076923076922817e+00 8.277514811312247558e-04 1.434019371567143942e-03 9.999986192759826586e-01
3.446153846153845901e+00 9.886766737806271764e-04 1.158153828516921609e-03 9.999988313733384482e-01
3.569230769230768985e+00 1.049203070823019395e-03 8.703049097301935417e-04 9.999990625174450809e-01
3.692307692307692069e+00 1.081094709613350611e-03 5.700548341969244965e-04 9.999992455607841224e-01
3.815384615384615152e+00 1.089566248049831905e-03 3.192441096563650377e-04 9.999993483737905642e-01
3.938461538461538236e+00 1.062457429408426943e-03 1.280639510630837393e-04 9.999994206661332319e-01
4.061538461538461320e+00 9.772661506713758387e-04 -3.199493893980316509e-05 9.999995157707662896e-01
4.184615384615383959e+00 8.651014964285971874e-04 -1.912568159517396052e-04 9.999996018474556214e-01
4.307692307692307487e+00 7.678509071930109684e-04 -3.327293694563205500e-04 9.999996444635531612e-01
4.430769230769230127e+00 6.811113978750677226e-04 -4.257387010402736787e-04 9.999996722282377126e-01
4.553846153846153655e+00 5.772264211397418058e-04 -4.747884001333306254e-04 9.999997158237353689e-01
4.676923076923076295e+00 4.493324124027244784e-04 -5.139207008488569893e-04 9.999997625089265263e-01
4.799999999999999822e+00 3.325273474752511510e-04 -5.571427517126654756e-04 9.999997852244405516e-01
