0.000000000000000000e+00 -5.647197287592912507e-10 1.789413807140148910e-09 -1.000000000000000000e+00
1.230769230769230699e-01 3.061072750781255736e-01 3.176998729688236267e-01 -8.974183325748823492e-01
2.461538461538461398e-01 5.074986723899641561e-01 6.004352240915599159e-01 -6.179897564631039453e-01
3.692307692307691958e-01 5.415797623580285158e-01 8.071536329178683467e-01 -2.349028043198267968e-01
4.923076923076922795e-01 4.122608208503630856e-01 8.963870932344615294e-01 1.628369208100539645e-01
6.153846153846153078e-01 1.858150667887100704e-01 8.446617853563994638e-01 5.020024202697688231e-01
7.384615384615383915e-01 -4.067990757919823230e-02 6.660379586732334545e-01 7.448016699924063788e-01
8.615384615384614753e-01 -1.839909713545126724e-01 4.163949260034039423e-01 8.903689846179462242e-01
9.846153846153845590e-01 -2.104608221228903842e-01 1.744087813816473931e-01 9.619171779132481559e-01
1.107692307692307532e+00 -1.445731476071249744e-01 7.165010327273221846e-03 9.894673566321920966e-01
1.230769230769230616e+00 -4.691323261882622553e-02 -5.950549797072893915e-02 9.971245580690693000e-01
1.353846153846153699e+00 2.407581639131479295e-02 -4.740575279564279709e-02 9.985852148740289591e-01
1.476923076923076783e+00 4.269574414054765760e-02 -5.625695201252197200e-03 9.990720263234860177e-01
1.599999999999999867e+00 2.168091012856902464e-02 2.198942078360545047e-02 9.995229005278485346e-01
1.723076923076922951e+00 -6.764569636081569151e-03 1.976458257953185235e-02 9.997816454577560519e-01
1.846153846153846034e+00 -1.779226939077538719e-02 2.111066126214838912e-04 9.998415689031883158e-01
1.969230769230769118e+00 -8.817725808488321645e-03 -1.458538645514973961e-02 9.998546371476249028e-01
2.092307692307691980e+00 5.571235317603506765e-03 -1.312552424102207682e-02 9.998982423047727552e-01
2.215384615384615064e+00 1.047282772145607596e-02 -1.022769580656449767e-03 9.999445642901064746e-01
2.338461538461538147e+00 3.486503068285644671e-03 8.189350039382061602e-03 9.999603273467367881e-01
2.461538461538461231e+00 -6.198862877299984690e-03 6.846915484677858037e-03 9.999572827157544586e-01
2.584615384615384315e+00 -8.747272124884663755e-03 -1.175934183996934883e-03 9.999609895970575923e-01
2.707692307692307399e+00 -3.031017840060766175e-03 -6.451724608683056909e-03 9.999745435313669439e-01
2.830769230769230482e+00 3.891739624919334124e-03 -4.037684094878944696e-03 9.999842350677887737e-01
2.953846153846153566e+00 5.037687536596467675e-03 2.516042414280386056e-03 9.999841047889760359e-01
3.076923076923076650e+00 3.239333016618325478e-04 6.033122870230991572e-03 9.999817047012399263e-01
3.199999999999999734e+00 -4.379799072582338769e-03 3.421244310452377282e-03 9.999845158886565555e-01
3.323076923076922817e+00 -4.047691066074576328e-03 -1.735641970032403801e-03 9.999902691276582045e-01
3.446153846153845901e+00 4.660259288482482189e-04 -3.751002362001582598e-03 9.999928278151233307e-01
3.569230769230768985e+00 4.049872133586755740e-03 -9.403867737665500513e-04 9.999913259964445800e-01
3.692307692307692069e+00 3.129204932486096165e-03 3.106134753621946510e-03 9.999902472133314069e-01
3.815384615384615152e+00 -7.276647984285897815e-04 3.858097578947624652e-03 9.999922632133028122e-01
3.938461538461538236e+00 -3.006863443427462961e-03 7.667716814904600598e-04 9.999951614826747548e-01
4.061538461538461320e+00 -1.366254494046215085e-03 -2.546134735114541098e-03 9.999958028063594684e-01
4.184615384615383959e+00 2.082776069748776791e-03 -2.569477111690693285e-03 9.999945045994925730e-01
4.307692307692307487e+00 3.426701570204649869e-03 3.448869022189078506e-04 9.999940430928316859e-01
4.430769230769230127e+00 1.371688510035172547e-03 2.658797100936242507e-03 9.999955014437597045e-01
4.553846153846153655e+00 -1.560322021088342065e-03 1.802190871081151610e-03 9.999971398063086658e-01
4.676923076923076295e+00 -2.091925707328422951e-03 -1.104281173287216099e-03 9.999971834055820796e-01
4.799999999999999822e+00 1.504368237038060038e-04 -2.748460244884892191e-03 9.999961901529011987e-01
