0.000000000000000000e+00 3.719629330930734133e-10 2.321764187858676210e-09 -1.000000000000000000e+00
1.230769230769230699e-01 1.897644453064891157e-01 -4.035146681110780009e-01 -8.950673565533153742e-01
2.461538461538461398e-01 3.449114119298396508e-01 -7.183507884319867420e-01 -6.041251358196514376e-01
3.692307692307691958e-01 4.352270493868283241e-01 -8.794874039676072730e-01 -1.924183015403528318e-01
4.923076923076922795e-01 4.394869729203820796e-01 -8.625555350379661146e-01 2.505905681551636732e-01
6.153846153846153078e-01 3.492936553578813164e-01 -6.895169396082267976e-01 6.344453120157917958e-01
7.384615384615383915e-01 1.717451699732370773e-01 -4.214848629116588752e-01 8.904121586591504656e-01
8.615384615384614753e-01 -7.002893377734668856e-02 -1.408048310316727392e-01 9.875543526764221092e-01
9.846153846153845590e-01 -3.393433375809350450e-01 7.221096092512177544e-02 9.378789291307486620e-01
1.107692307692307532e+00 -5.919067752083569944e-01 1.617994882925047062e-01 7.895809147927830285e-01
1.230769230769230616e+00 -7.838753421743397398e-01 1.114866487687979357e-01 6.107941036456320250e-01
1.353846153846153699e+00 -8.816689271469820843e-01 -5.260803340261199779e-02 4.688764273603849286e-01
1.476923076923076783e+00 -8.703151865983927982e-01 -2.706976231152932733e-01 4.113696834739531960e-01
1.599999999999999867e+00 -7.582914795227568838e-01 -4.677895919230325994e-01 4.540035068255765527e-01
1.723076923076922951e+00 -5.770022623811144058e-01 -5.761494081517614108e-01 5.788591133127435340e-01
1.846153846153846034e+00 -3.743490935935933628e-01 -5.552416368268872082e-01 7.426552091017376567e-01
1.969230769230769118e+00 -2.035281226453299341e-01 -4.033656129882071673e-01 8.921055877080031893e-01
2.092307692307691980e+00 -1.096248427518164564e-01 -1.577399392915887488e-01 9.813728714043102874e-01
2.215384615384615064e+00 -1.175175359705569189e-01 1.167747223696457282e-01 9.861777735053525173e-01
2.338461538461538147e+00 -2.249821038974021137e-01 3.471205481020876449e-01 9.104242213602038447e-01
2.461538461538461231e+00 -4.021111313763129358e-01 4.734702988939412105e-01 7.836470932378434284e-01
2.584615384615384315e+00 -5.992092988680213228e-01 4.666642262518490014e-01 6.504876262033315593e-01
2.707692307692307399e+00 -7.601124791640075928e-01 3.364949992644635790e-01 5.558386973175345469e-01
2.830769230769230482e+00 -8.378912571147792976e-01 1.284400536326158471e-01 5.304684455138346522e-01
2.953846153846153566e+00 -8.084037613799681665e-01 -9.004468867991520520e-02 5.816640690942700420e-01
3.076923076923076650e+00 -6.777027714751893139e-01 -2.495605396740627480e-01 6.916663976050788643e-01
3.199999999999999734e+00 -4.809173105706705531e-01 -2.991707329696663975e-01 8.241291971185725762e-01
3.323076923076922817e+00 -2.726312125642661455e-01 -2.211802978179142898e-01 9.363420899125011188e-01
3.446153846153845901e+00 -1.113411183167812984e-01 -3.597438988594015008e-02 9.931285255506941967e-01
3.569230769230768985e+00 -4.246522412648021105e-02 2.043133267702246514e-01 9.779796864744918494e-01
3.692307692307692069e+00 -8.490337326649968763e-02 4.318357449775926948e-01 8.979364207443676360e-01
3.815384615384615152e+00 -2.248297961162441516e-01 5.828926108006856621e-01 7.808058751258462049e-01
3.938461538461538236e+00 -4.195449143962945993e-01 6.169835239392664761e-01 6.657895506650935991e-01
4.061538461538461320e+00 -6.096868330293854221e-01 5.285602912281435195e-01 5.906472601232539699e-01
4.184615384615383959e+00 -7.366834620676770973e-01 3.483447152717499828e-01 5.795783723419212219e-01
4.307692307692307487e+00 -7.602300800513288603e-01 1.338877114393520196e-01 6.356767348559109188e-01
4.430769230769230127e+00 -6.705530876078305003e-01 -4.778345796139944757e-02 7.402988679930336824e-01
4.553846153846153655e+00 -4.916667444612400351e-01 -1.401716215401057619e-01 8.594139795105922852e-01
4.676923076923076295e+00 -2.745182835467582794e-01 -1.140462642797116233e-01 9.547883115600240833e-01
4.799999999999999822e+00 -8.188892495080790646e-02 2.406342196760243024e-02 9.963491683227517770e-01
