0.000000000000000000e+00 -2.940817190277727005e-09 4.162740163540452476e-09 -1.000000000000000000e+00
1.230769230769230699e-01 -4.005092849836880409e-01 -1.705824577291706612e-01 -9.002686314415705437e-01
2.461538461538461398e-01 -6.985142279124892939e-01 -3.455702743094717366e-01 -6.266080787761022508e-01
3.692307692307691958e-01 -8.219299500479495535e-01 -5.135218988587677558e-01 -2.463689280100585799e-01
4.923076923076922795e-01 -7.506097914761395984e-01 -6.422852719918474840e-01 1.550001181409279560e-01
6.153846153846153078e-01 -5.221362738144056381e-01 -6.894450316467064521e-01 5.020105988037991684e-01
7.384615384615383915e-01 -2.191464279966642559e-01 -6.238597052804837340e-01 7.501710819491140825e-01
8.615384615384614753e-01 5.874957876538369761e-02 -4.468095245925846615e-01 8.926919896278550093e-01
9.846153846153845590e-01 2.294794116211084922e-01 -2.002593116526425743e-01 9.524854676949110477e-01
1.107692307692307532e+00 2.569070722552386776e-01 4.436800193758554806e-02 9.654141413002672589e-01
1.230769230769230616e+00 1.616247141149593225e-01 2.134991351516957458e-01 9.634778871456417537e-01
1.353846153846153699e+00 9.107046421834699701e-03 2.625038318014518701e-01 9.648849576058158295e-01
1.476923076923076783e+00 -1.204887187917957903e-01 1.952521856659313326e-01 9.733211306533268159e-01
1.599999999999999867e+00 -1.678056475994393892e-01 6.172047140421539624e-02 9.838841285008599336e-01
1.723076923076922951e+00 -1.190099222689960240e-01 -6.603395504133827143e-02 9.906933012108656289e-01
1.846153846153846034e+00 -8.286084142211727621e-03 -1.279837522180347353e-01 9.917402514103511590e-01
1.969230769230769118e+00 1.026767327672743202e-01 -1.034077619102875545e-01 9.893235946301577322e-01
2.092307692307691980e+00 1.575699040809453444e-01 -1.772108415898282496e-02 9.873470851837828910e-01
2.215384615384615064e+00 1.339132524464303475e-01 7.425041820121014435e-02 9.882058530310763311e-01
2.338461538461538147e+00 5.241307253259228777e-02 1.192638288867998164e-01 9.914767738318093215e-01
2.461538461538461231e+00 -3.700024876087833203e-02 9.409000392836498750e-02 9.948747951476077933e-01
2.584615384615384315e+00 -8.413830937656831266e-02 1.619964524440621612e-02 9.963214563453361983e-01
2.707692307692307399e+00 -6.621332211262920264e-02 -6.839491235908437550e-02 9.954576145044796709e-01
2.830769230769230482e+00 1.036533486582735114e-03 -1.125673210840504174e-01 9.936423344233316080e-01
2.953846153846153566e+00 7.437543912608815533e-02 -9.492336684933991298e-02 9.927009825912224139e-01
3.076923076923076650e+00 1.093812899229481828e-01 -3.079677203572179361e-02 9.935214300265626797e-01
3.199999999999999734e+00 8.629713586904673439e-02 3.838602701227163821e-02 9.955286344666195442e-01
3.323076923076922817e+00 2.052800380204355957e-02 7.053399180403768787e-02 9.972973180142493677e-01
3.446153846153845901e+00 -4.794126560727227093e-02 4.770973109444102273e-02 9.977093360249384979e-01
3.569230769230768985e+00 -7.925462518925219246e-02 -1.422272489718059973e-02 9.967520522141269934e-01
3.692307692307692069e+00 -5.751795517841216954e-02 -7.636179485115540677e-02 9.954187499734852285e-01
3.815384615384615152e+00 4.650995180439515542e-04 -1.010712435035783785e-01 9.948779796101875350e-01
3.938461538461538236e+00 5.654238441380406155e-02 -7.477104951966841162e-02 9.955954044812029835e-01
4.061538461538461320e+00 7.516950091714388882e-02 -1.542909701738043315e-02 9.970505517752960012e-01
4.184615384615383959e+00 4.510465535047179786e-02 3.941425151802630672e-02 9.982037624427588796e-01
4.307692307692307487e+00 -1.441933783271067554e-02 5.632908127758616545e-02 9.983074771857999297e-01
4.430769230769230127e+00 -6.643819619846251523e-02 2.648171374282132576e-02 9.974382731682250869e-01
4.553846153846153655e+00 -7.965945461498773195e-02 -2.952306592254239775e-02 9.963839133253422631e-01
4.676923076923076295e+00 -4.785961362957966841e-02 -7.526670714008515395e-02 9.960132704028495931e-01
4.799999999999999822e+00 6.873520796401522137e-03 -8.171929280833825637e-02 9.966307831634944048e-01
