0.000000000000000000e+00 2.029309068942709413e-09 1.370110301017244828e-09 -1.000000000000000000e+00
1.230769230769230699e-01 4.389027465973831532e-01 4.306965067321183449e-02 -8.974999747332641498e-01
2.461538461538461398e-01 7.768596117621564545e-01 1.147932448589705501e-01 -6.191163686531150345e-01
3.692307692307691958e-01 9.457606992064857554e-01 2.195621870468684733e-01 -2.394167791359564090e-01
4.923076923076922795e-01 9.311713315017878800e-01 3.310674572531354665e-01 1.526606782433278242e-01
6.153846153846153078e-01 7.728288939161160886e-01 4.079516063953927962e-01 4.861105231517309777e-01
7.384615384615383915e-01 5.444208172799132051e-01 4.198479211708041059e-01 7.261736958238896866e-01
8.615384615384614753e-01 3.218555984433604245e-01 3.652228897451397227e-01 8.735087971805226559e-01
9.846153846153845590e-01 1.555295320110018087e-01 2.698450694029433383e-01 9.502589473862861347e-01
1.107692307692307532e+00 5.929423065547761995e-02 1.695328447663093652e-01 9.837385972061303274e-01
1.230769230769230616e+00 1.844282759327238452e-02 9.090261824306811178e-02 9.956886912182407734e-01
1.353846153846153699e+00 7.753703922941885054e-03 4.243746390918189809e-02 9.990688906088467380e-01
1.476923076923076783e+00 7.014952211170821794e-03 1.824792469674138551e-02 9.998088121751651514e-01
1.599999999999999867e+00 6.721289400610684465e-03 7.749560730272159539e-03 9.999473431085169617e-01
1.723076923076922951e+00 5.244573152836655427e-03 3.040479805840645526e-03 9.999815999789968268e-01
1.846153846153846034e+00 3.596100752188336434e-03 5.879901010364171204e-04 9.999933454117164722e-01
1.969230769230769118e+00 2.366362590998447556e-03 -6.059316451846789939e-04 9.999970055631719479e-01
2.092307692307691980e+00 1.459054803855934501e-03 -9.860884465176483586e-04 9.999984411810944884e-01
2.215384615384615064e+00 7.337601833617693123e-04 -9.949414627606620928e-04 9.999992298888727982e-01
2.338461538461538147e+00 2.188021012098620346e-04 -8.976355430134986754e-04 9.999995685958049663e-01
2.461538461538461231e+00 -6.364064552297774360e-05 -7.406213339154490115e-04 9.999997199337586906e-01
2.584615384615384315e+00 -2.162066306786323481e-04 -5.340108049986247440e-04 9.999998310332441909e-01
2.707692307692307399e+00 -2.998324815817266301e-04 -3.325665028262931493e-04 9.999998973542685299e-01
2.830769230769230482e+00 -3.360043355004722291e-04 -1.874245341352719823e-04 9.999999239065432421e-01
2.953846153846153566e+00 -3.110257155724736010e-04 -7.882821965057483992e-05 9.999999467568773115e-01
3.076923076923076650e+00 -2.596736209656415155e-04 1.339921136679677119e-05 9.999999647320251261e-01
3.199999999999999734e+00 -2.088324397954918494e-04 8.340089333029173323e-05 9.999999734319954259e-01
3.323076923076922817e+00 -1.637332510208392052e-04 1.207346580961752376e-04 9.999999781352002515e-01
3.446153846153845901e+00 -1.116463846104557694e-04 1.270559509977083935e-04 9.999999847015542676e-01
3.569230769230768985e+00 -5.421832909545591206e-05 1.313455674844785949e-04 9.999999890483249887e-01
3.692307692307692069e+00 -1.933836370199528885e-05 1.298561560996983782e-04 9.999999905875418538e-01
3.815384615384615152e+00 8.031106235925782369e-06 1.190363993314174241e-04 9.999999921560900340e-01
3.938461538461538236e+00 3.041288822981159413e-05 9.557027526975591801e-05 9.999999943463163676e-01
4.061538461538461320e+00 5.045818462224799461e-05 7.762113040709711599e-05 9.999999951378408802e-01
4.184615384615383959e+00 6.267834305790696381e-05 5.965476206821605543e-05 9.999999957110966564e-01
4.307692307692307487e+00 6.120126008392606093e-05 4.334107801621008688e-05 9.999999967142533253e-01
4.430769230769230127e+00 6.271241616136799936e-05 1.848383526792029207e-05 9.999999974433148031e-01
4.553846153846153655e+00 6.333250930789232431e-05 6.672988135067442613e-06 9.999999975657433149e-01
4.676923076923076295e+00 5.970315953006276506e-05 -7.062615201200154227e-06 9.999999978007941825e-01
4.799999999999999822e+00 5.057799672363877820e-05 -1.323226703523479021e-05 9.999999982927531006e-01
