0.000000000000000000e+00 1.371426072275789508e-09 -1.399458535031027785e-09 -1.000000000000000000e+00
1.230769230769230699e-01 -3.230288834844584622e-01 -3.013307443244418460e-01 -8.971274702202514106e-01
2.461538461538461398e-01 -5.541802385902536709e-01 -5.621742375078619958e-01 -6.138521604905179396e-01
3.692307692307691958e-01 -6.317854351740294083e-01 -7.438475125530943366e-01 -2.179407306358617513e-01
4.923076923076922795e-01 -5.441767715597545241e-01 -8.142378306978506064e-01 2.021096040048490916e-01
6.153846153846153078e-01 -3.324485195268015447e-01 -7.557295158004962987e-01 5.641978220687665635e-01
7.384615384615383915e-01 -7.523582262402939147e-02 -5.739948694472177815e-01 8.153829866398615289e-01
8.615384615384614753e-01 1.391530625346419081e-01 -3.029256731605198816e-01 9.427948085190548388e-01
9.846153846153845590e-01 2.433545976018218759e-01 -1.207732266996913717e-03 9.699328409189320599e-01
1.107692307692307532e+00 2.134605924021242551e-01 2.610024793630434936e-01 9.414359988481794117e-01
1.230769230769230616e+00 7.560613572527394299e-02 4.221845474666733877e-01 9.033437824688506090e-01
1.353846153846153699e+00 -1.056991351920157085e-01 4.499134613838421948e-01 8.867865277713552485e-01
1.476923076923076783e+00 -2.531065351360979876e-01 3.530431385424466217e-01 9.007127703680686270e-01
1.599999999999999867e+00 -3.060377200707015688e-01 1.798576514446261210e-01 9.348694845117144769e-01
1.723076923076922951e+00 -2.432079337445763323e-01 1.473718300949777849e-03 9.699692616287155511e-01
1.846153846153846034e+00 -8.952287613647820497e-02 -1.140116328559652170e-01 9.894355463216748525e-01
1.969230769230769118e+00 9.523554081703723695e-02 -1.267982028671825190e-01 9.873437564884371964e-01
2.092307692307691980e+00 2.410983248370522081e-01 -3.979277663569011358e-02 9.696807410550343231e-01
2.215384615384615064e+00 2.961713574419593265e-01 1.036007926237583893e-01 9.494944334809940489e-01
2.338461538461538147e+00 2.471361312150393008e-01 2.382401018645096957e-01 9.392308723193906195e-01
2.461538461538461231e+00 1.234859812532050627e-01 3.046474128734219522e-01 9.444209457986282308e-01
2.584615384615384315e+00 -1.591092217230707928e-02 2.737614103129514809e-01 9.616616643847216706e-01
2.707692307692307399e+00 -1.082419167449706343e-01 1.585860110021585778e-01 9.813910668828644823e-01
2.830769230769230482e+00 -1.133232808210259124e-01 7.786186019072809800e-03 9.935259561868035050e-01
2.953846153846153566e+00 -3.010933994128774799e-02 -1.159447552983424723e-01 9.927973995303240873e-01
3.076923076923076650e+00 1.038968673344670690e-01 -1.631689210730281614e-01 9.811093552043530508e-01
3.199999999999999734e+00 2.296093644773474773e-01 -1.190388616260819460e-01 9.659717534873061284e-01
3.323076923076922817e+00 2.927198170535224575e-01 -9.170122513458389690e-03 9.561495781443921649e-01
3.446153846153845901e+00 2.674748154869274197e-01 1.124356444883969353e-01 9.569778130791305459e-01
3.569230769230768985e+00 1.675526697243613361e-01 1.878634880980685762e-01 9.677942835742880945e-01
3.692307692307692069e+00 3.936238514231905905e-02 1.811586824596407019e-01 9.826630174978837617e-01
3.815384615384615152e+00 -5.915170428672815450e-02 9.407944139728190158e-02 9.938042181891022508e-01
3.938461538461538236e+00 -8.466027267247532018e-02 -3.529911031837463381e-02 9.957830396907543236e-01
4.061538461538461320e+00 -2.760124322645848838e-02 -1.503515722427454238e-01 9.882449257494089201e-01
4.184615384615383959e+00 8.383955862425318539e-02 -2.016854825954660924e-01 9.758521079712979551e-01
4.307692307692307487e+00 1.970405705564338417e-01 -1.696495752669821833e-01 9.656014325586501634e-01
4.430769230769230127e+00 2.592582825671570501e-01 -7.283194805599572941e-02 9.630537039807374189e-01
4.553846153846153655e+00 2.417399579691050793e-01 4.092471327716364071e-02 9.694738475625547247e-01
4.676923076923076295e+00 1.526437757498054493e-01 1.168467394048923469e-01 9.813465104062789601e-01
4.799999999999999822e+00 3.289742650796126378e-02 1.185005458402081380e-01 9.924070329190055606e-01
