0.000000000000000000e+00 1.521872062301231677e-09 -1.678371546769267388e-09 -1.000000000000000000e+00
1.230769230769230699e-01 -1.515722390696427335e-01 -3.994706640593124747e-01 -9.041185006023236825e-01
2.461538461538461398e-01 -2.821061010126097446e-01 -7.162499576514437249e-01 -6.382499324607159297e-01
3.692307692307691958e-01 -3.780407273969882409e-01 -8.879354053580230666e-01 -2.619212681433435441e-01
4.923076923076922795e-01 -4.378430406204146808e-01 -8.875180784611347296e-01 1.433529546611913286e-01
6.153846153846153078e-01 -4.723440426143367676e-01 -7.290385168108076686e-01 4.953260482432167988e-01
7.384615384615383915e-01 -5.004335225055800418e-01 -4.626005758376131594e-01 7.318015995686913966e-01
8.615384615384614753e-01 -5.416141762849977503e-01 -1.602240746237443836e-01 8.252005756276404869e-01
9.846153846153845590e-01 -6.080543621633780482e-01 1.035574626368913620e-01 7.870935966833052522e-01
1.107692307692307532e+00 -6.989553454182765302e-01 2.710328861703723002e-01 6.617890730385156406e-01
1.230769230769230616e+00 -7.994314204894232834e-01 3.153687902967602374e-01 5.112793209886087320e-01
1.353846153846153699e+00 -8.846170792192883381e-01 2.457929167933374237e-01 3.962181292123805321e-01
1.476923076923076783e+00 -9.277863832819236434e-01 1.027996549469119003e-01 3.585998671219579603e-01
1.599999999999999867e+00 -9.099243108898751320e-01 -5.501290978201101023e-02 4.110500722939539608e-01
1.723076923076922951e+00 -8.274959403420778514e-01 -1.685302684452183453e-01 5.355405684774710018e-01
1.846153846153846034e+00 -6.956289012287882878e-01 -1.951018038923400255e-01 6.913751996529267085e-01
1.969230769230769118e+00 -5.453036768774068843e-01 -1.201545040294567102e-01 8.295666554405479731e-01
2.092307692307691980e+00 -4.150630951937251956e-01 3.963228329693072038e-02 9.089189481109876123e-01
2.215384615384615064e+00 -3.396886728084635432e-01 2.422781122740155224e-01 9.087874651831471251e-01
2.338461538461538147e+00 -3.392741091954308841e-01 4.336231809286094085e-01 8.347685311922902196e-01
2.461538461538461231e+00 -4.122280210678612722e-01 5.635598767189622382e-01 7.158448470668042907e-01
2.584615384615384315e+00 -5.348006031832213125e-01 6.006891113672045979e-01 5.942384811195695615e-01
2.707692307692307399e+00 -6.674407300996596515e-01 5.412082899694579119e-01 5.114401970985587020e-01
2.830769230769230482e+00 -7.663468313353729577e-01 4.095026882685881553e-01 4.949484975208749971e-01
2.953846153846153566e+00 -7.967596402791257137e-01 2.504545798835351444e-01 5.499117252208257645e-01
3.076923076923076650e+00 -7.439155976791109737e-01 1.159073141326663614e-01 6.581162701819018856e-01
3.199999999999999734e+00 -6.181396510355415819e-01 4.925719204655057415e-02 7.845046146052168101e-01
3.323076923076922817e+00 -4.523181572208039292e-01 7.282823711233168962e-02 8.888666546065591145e-01
3.446153846153845901e+00 -2.923167902241180505e-01 1.816139880201518286e-01 9.389103380324774761e-01
3.569230769230768985e+00 -1.831958674375620821e-01 3.451811525737947806e-01 9.204739644336673576e-01
3.692307692307692069e+00 -1.552899360823986052e-01 5.170893570532836270e-01 8.417117806488593201e-01
3.815384615384615152e+00 -2.145906030271298448e-01 6.488119896722660540e-01 7.300413267338219381e-01
3.938461538461538236e+00 -3.405126301043013837e-01 7.042248798384846964e-01 6.229594238050921717e-01
4.061538461538461320e+00 -4.917933967323073752e-01 6.701945389368750838e-01 5.558193385802486786e-01
4.184615384615383959e+00 -6.189042307940658683e-01 5.602442763592667685e-01 5.504909237708012215e-01
4.307692307692307487e+00 -6.792039937601512811e-01 4.102518894711365549e-01 6.085511862507108072e-01
4.430769230769230127e+00 -6.501890329038148009e-01 2.675494648474044945e-01 7.110813742287311889e-01
4.553846153846153655e+00 -5.366800775625273356e-01 1.766924402230738433e-01 8.250623698863731592e-01
4.676923076923076295e+00 -3.696434056779961397e-01 1.661963872531881381e-01 9.141798756162378137e-01
4.799999999999999822e+00 -1.969085130529195371e-01 2.401405487596313115e-01 9.505506411162797376e-01
