0.000000000000000000e+00 9.354485840466593665e-10 2.860063135452231379e-09 -1.000000000000000000e+00
1.230769230769230699e-01 -2.444323640837989253e-01 -3.734680405870935971e-01 -8.948554389355640737e-01
2.461538461538461398e-01 -4.070589589163950972e-01 -6.818068366053992024e-01 -6.078038968018941723e-01
3.692307692307691958e-01 -4.410357398087814684e-01 -8.718566420919904303e-01 -2.129110738864332941e-01
4.923076923076922795e-01 -3.528383337362061556e-01 -9.144912918047995998e-01 1.979603551440740905e-01
6.153846153846153078e-01 -1.958291655144754340e-01 -8.139942051389199573e-01 5.468512165712778872e-01
7.384615384615383915e-01 -4.286752249480554888e-02 -6.096712020571426471e-01 7.914868196654453181e-01
8.615384615384614753e-01 4.788889736638000938e-02 -3.655884164534070613e-01 9.295403502985132294e-01
9.846153846153845590e-01 5.699597009985647722e-02 -1.495159714740625923e-01 9.871138623571087400e-01
1.107692307692307532e+00 6.483979944036324765e-03 -8.959298104837904939e-03 9.999387320897514808e-01
1.230769230769230616e+00 -5.810698114056950941e-02 4.450502638890167090e-02 9.973172233039346857e-01
1.353846153846153699e+00 -9.523691806560927176e-02 3.432557159631952071e-02 9.948617967065990220e-01
1.476923076923076783e+00 -8.817091358898837550e-02 2.184549809313311719e-03 9.961022241595703930e-01
1.599999999999999867e+00 -4.925674587429011708e-02 -1.560013395735181455e-02 9.986638652788804027e-01
1.723076923076922951e+00 -6.838935552119761348e-03 -5.145367572990867944e-03 9.999632884007900735e-01
1.846153846153846034e+00 1.498215013536018797e-02 2.313417846899368940e-02 9.996198493612501457e-01
1.969230769230769118e+00 1.046051772593286147e-02 4.727584261211145722e-02 9.988266778701595516e-01
2.092307692307691980e+00 -7.464846802233554568e-03 5.091097277753064282e-02 9.986748524868342969e-01
2.215384615384615064e+00 -1.926260675283934104e-02 3.408177965394241365e-02 9.992330524155134119e-01
2.338461538461538147e+00 -1.351630303089564056e-02 1.100074205563917468e-02 9.998479690528366826e-01
2.461538461538461231e+00 6.042100244798677758e-03 -1.912080641119608387e-03 9.999798509328573504e-01
2.584615384615384315e+00 2.535859268781216411e-02 2.033720995185089864e-03 9.996761168806580500e-01
2.707692307692307399e+00 3.149339294387234339e-02 1.591430192984206321e-02 9.993769421806685260e-01
2.830769230769230482e+00 2.240279133102567044e-02 2.599136777885937416e-02 9.994108023116845541e-01
2.953846153846153566e+00 7.463458500488032166e-03 2.277915294728723866e-02 9.997124411642878128e-01
3.076923076923076650e+00 -6.368439548696436421e-04 7.948151533054175974e-03 9.999681275060151586e-01
3.199999999999999734e+00 4.091668443081872969e-03 -7.835162330385208457e-03 9.999608428971167307e-01
3.323076923076922817e+00 1.701307398096770646e-02 -1.386013597031609743e-02 9.997589925887980788e-01
3.446153846153845901e+00 2.707346999273427951e-02 -7.677243220556635717e-03 9.996037091280561837e-01
3.569230769230768985e+00 2.608638206026282422e-02 3.496860664238436028e-03 9.996533354372497682e-01
3.692307692307692069e+00 1.501086123862994948e-02 9.096905331678657378e-03 9.998457811670165007e-01
3.815384615384615152e+00 2.670409788975485095e-03 3.778946160393042205e-03 9.999892432019942268e-01
3.938461538461538236e+00 -1.710778755117890997e-03 -8.588551133736570253e-03 9.999615645115912388e-01
4.061538461538461320e+00 4.228433426526689159e-03 -1.860525458463710771e-02 9.998177857774502852e-01
4.184615384615383959e+00 1.429325532224901343e-02 -1.902456012536161978e-02 9.997166243990130985e-01
4.307692307692307487e+00 1.924377613537917378e-02 -1.061303197145926393e-02 9.997582865820097142e-01
4.430769230769230127e+00 1.439809269456736318e-02 -1.160047159980356207e-03 9.998955288442116229e-01
4.553846153846153655e+00 3.251584887829078990e-03 1.150980638745746415e-03 9.999940119312668019e-01
4.676923076923076295e+00 -5.693916665286735679e-03 -5.541448226276142822e-03 9.999683529101300872e-01
4.799999999999999822e+00 -6.050427335037949356e-03 -1.567219953951847627e-02 9.998587166254664371e-01
