0.000000000000000000e+00 1.160811634756248475e-09 1.409321052928803950e-09 -1.000000000000000000e+00
1.230769230769230699e-01 2.645594793333069239e-01 3.576078308279199147e-01 -8.956116447270053849e-01
2.461538461538461398e-01 4.302371897292359137e-01 6.636734742712369073e-01 -6.119017727120436012e-01
3.692307692307691958e-01 4.419048350505390133e-01 8.684647204227129436e-01 -2.246691300652382539e-01
4.923076923076922795e-01 3.109619736103012011e-01 9.341951255799224585e-01 1.748401259202727598e-01
6.153846153846153078e-01 1.062597542505248072e-01 8.518737562918461403e-01 5.128442701443035601e-01
7.384615384615383915e-01 -8.199318140697819945e-02 6.531999880625783961e-01 7.527278232181653372e-01
8.615384615384614753e-01 -1.861682948495376189e-01 4.046228427603449918e-01 8.953306824611043657e-01
9.846153846153845590e-01 -1.895143346039534216e-01 1.816861141597855833e-01 9.649206724412561220e-01
1.107692307692307532e+00 -1.244888086715686681e-01 3.665358679739594283e-02 9.915431473893627778e-01
1.230769230769230616e+00 -4.525982072576347631e-02 -2.093751708305250508e-02 9.987555620597912132e-01
1.353846153846153699e+00 6.213969794915681633e-03 -1.910914234690712019e-02 9.997979851741126689e-01
1.476923076923076783e+00 1.908560045725840593e-02 1.093482204283461462e-03 9.998171519252699868e-01
1.599999999999999867e+00 8.749927037682743436e-03 1.138364881439504761e-02 9.998968403677429562e-01
1.723076923076922951e+00 -2.856324238707868939e-03 6.706454520795711825e-03 9.999733885403827571e-01
1.846153846153846034e+00 -4.622027098537122812e-03 -2.595050460772191890e-03 9.999859184497612574e-01
1.969230769230769118e+00 4.695443913184742767e-04 -6.200900095196127532e-03 9.999806261530266305e-01
2.092307692307691980e+00 4.086888409037434458e-03 -2.947727120202042143e-03 9.999872727404793826e-01
2.215384615384615064e+00 2.455794163400363411e-03 1.363591321152149514e-03 9.999960362348575549e-01
2.338461538461538147e+00 -1.443486604748756832e-03 1.934521947516908277e-03 9.999970707270816606e-01
2.461538461538461231e+00 -3.017760060086139597e-03 -6.011853520651319963e-04 9.999952456567794412e-01
2.584615384615384315e+00 -1.293025238142551415e-03 -2.388678808725239102e-03 9.999962930542521944e-01
2.707692307692307399e+00 9.112767488581613885e-04 -1.363573046180909442e-03 9.999986436164743919e-01
2.830769230769230482e+00 9.847742196512484711e-04 8.818712367815772016e-04 9.999991167563997418e-01
2.953846153846153566e+00 -6.789685415701312513e-04 1.694256107679860792e-03 9.999983215926893099e-01
3.076923076923076650e+00 -1.726051034122170732e-03 5.275149640467143974e-04 9.999983587051173295e-01
3.199999999999999734e+00 -9.303811926210594921e-04 -7.785016330607171485e-04 9.999992553569788667e-01
3.323076923076922817e+00 5.543921684677731660e-04 -5.993931601429246768e-04 9.999996605145294870e-01
3.446153846153845901e+00 9.565571008057934237e-04 6.538078087836809342e-04 9.999993203168306977e-01
3.569230769230768985e+00 5.016541839466680426e-05 1.317077833005289795e-03 9.999991219123733899e-01
3.692307692307692069e+00 -7.889632962280223108e-04 6.480957172759749512e-04 9.999994712102157068e-01
3.815384615384615152e+00 -4.710478614542301526e-04 -3.826488747147790970e-04 9.999998111153138858e-01
3.938461538461538236e+00 5.315821901000185789e-04 -5.177778264743845621e-04 9.999997189998210967e-01
4.061538461538461320e+00 9.489558645362863344e-04 2.631080092836726421e-04 9.999995078295513817e-01
4.184615384615383959e+00 3.618076603877357208e-04 8.251379839719585841e-04 9.999995873804868873e-01
4.307692307692307487e+00 -3.630912589124565349e-04 4.360008905696265884e-04 9.999998345792275867e-01
4.430769230769230127e+00 -2.997561745923602982e-04 -3.666694330541295254e-04 9.999998840530420763e-01
4.553846153846153655e+00 4.005524053957695623e-04 -5.958301684227377713e-04 9.999997367742124998e-01
4.676923076923076295e+00 7.823008249324457999e-04 -5.017165068195873073e-05 9.999996867919203059e-01
4.799999999999999822e+00 3.712030067823298687e-04 4.537169944932864995e-04 9.999998235862482820e-01
