0.000000000000000000e+00 6.482576608549626227e-10 1.710946597795333218e-09 -1.000000000000000000e+00
1.230769230769230699e-01 -5.487414941118504141e-02 4.315091405098033794e-01 -9.004354997646640824e-01
2.461538461538461398e-01 -1.557469706045158109e-01 7.616728243695933820e-01 -6.289577461969506622e-01
3.692307692307691958e-01 -3.126930448005867391e-01 9.147453859523989594e-01 -2.558341738191178827e-01
4.923076923076922795e-01 -4.865600166069375399e-01 8.633652702020753189e-01 1.335907927886271496e-01
6.153846153846153078e-01 -6.075049037398041474e-01 6.410258830635635618e-01 4.690546146128176108e-01
7.384615384615383915e-01 -6.153899426552109642e-01 3.342274355072629710e-01 7.138481182203945119e-01
8.615384615384614753e-01 -4.975930731686456499e-01 5.080205831354342449e-02 8.659185273865178667e-01
9.846153846153845590e-01 -2.997245312150582097e-01 -1.247356061641060748e-01 9.458345343238429015e-01
1.107692307692307532e+00 -1.013881588933626399e-01 -1.660691201510470227e-01 9.808871511830328238e-01
1.230769230769230616e+00 2.814719015724875817e-02 -1.094577902959436438e-01 9.935922958617636747e-01
1.353846153846153699e+00 6.558705889929483668e-02 -2.451545359228991805e-02 9.975453085638111839e-01
1.476923076923076783e+00 3.800194442869862799e-02 2.961053927385011442e-02 9.988386185092963387e-01
1.599999999999999867e+00 -4.086804241648742120e-03 3.407218379626154869e-02 9.994108421131712161e-01
1.723076923076922951e+00 -2.309257402952022420e-02 8.904634208848351620e-03 9.996935419614240148e-01
1.846153846153846034e+00 -1.376123642328726943e-02 -1.325545534754107337e-02 9.998173400677344835e-01
1.969230769230769118e+00 4.780657251568056973e-03 -1.489096081701054425e-02 9.998776082361776618e-01
2.092307692307691980e+00 1.250283143630449498e-02 -2.028776328580886822e-03 9.999197065800794482e-01
2.215384615384615064e+00 5.643527489716345345e-03 8.481668381231599607e-03 9.999480455069178486e-01
2.338461538461538147e+00 -4.841773517566783439e-03 7.185061660278097354e-03 9.999624142540638472e-01
2.461538461538461231e+00 -7.582933881744500365e-03 -1.302637936018431752e-03 9.999703546290469314e-01
2.584615384615384315e+00 -1.818257455825075374e-03 -6.413933552055803115e-03 9.999777369812971051e-01
2.707692307692307399e+00 4.380615691882768989e-03 -3.568157107108068694e-03 9.999840042348998592e-01
2.830769230769230482e+00 4.340351018226725789e-03 2.503063540575617939e-03 9.999874166300891654e-01
2.953846153846153566e+00 -5.919601263125310632e-04 4.621532158077516599e-03 9.999891160994004435e-01
3.076923076923076650e+00 -4.040869684431450636e-03 1.271528572627860995e-03 9.999910002776437601e-01
3.199999999999999734e+00 -2.412310634426153080e-03 -2.813114267325585085e-03 9.999931096098986227e-01
3.323076923076922817e+00 1.628074416760050269e-03 -2.903202252147097599e-03 9.999944386029041565e-01
3.446153846153845901e+00 3.139402194018189006e-03 4.615219628308607231e-04 9.999949447004139458e-01
3.569230769230768985e+00 8.007873256919509092e-04 2.890962383766273493e-03 9.999954806834174814e-01
3.692307692307692069e+00 -2.101140541894965137e-03 1.697607121857908161e-03 9.999963335855114321e-01
3.815384615384615152e+00 -2.081508117326127255e-03 -1.249679577367641178e-03 9.999970363809360663e-01
3.938461538461538236e+00 4.691490518829002964e-04 -2.273892123476239664e-03 9.999972888628432255e-01
4.061538461538461320e+00 2.225537008661532517e-03 -4.205569724078792515e-04 9.999974196284756589e-01
4.184615384615383959e+00 1.187709298580374735e-03 1.744507402156605502e-03 9.999977585400783298e-01
4.307692307692307487e+00 -1.085912539233339479e-03 1.559133909895346875e-03 9.999981817538811102e-01
4.430769230769230127e+00 -1.718816916149705758e-03 -5.118694533544159396e-04 9.999983793029072476e-01
4.553846153846153655e+00 -1.184471361404826079e-04 -1.777461592644444298e-03 9.999984008444946504e-01
4.676923076923076295e+00 1.532983182668489408e-03 -7.801476733956591364e-04 9.999985086068576834e-01
4.799999999999999822e+00 1.188975432644024006e-03 1.030503373849489882e-03 9.999987510523259404e-01
