0.000000000000000000e+00 5.046846010618089216e-09 7.820768642954466856e-10 -1.000000000000000000e+00
1.230769230769230699e-01 -4.405553984676958135e-01 -2.906740502295046547e-02 -8.972488776264745391e-01
2.461538461538461398e-01 -7.827865698844767017e-01 -9.093688137647459868e-02 -6.155923793931690202e-01
3.692307692307691958e-01 -9.544772950601420058e-01 -1.955966038388571859e-01 -2.251357198250349134e-01
4.923076923076922795e-01 -9.290664612443939596e-01 -3.201136807968112952e-01 1.852929369661358849e-01
6.153846153846153078e-01 -7.329354248542390149e-01 -4.169946560117530621e-01 5.374917314881060282e-01
7.384615384615383915e-01 -4.372254293959906835e-01 -4.373947583325337174e-01 7.858141659377161359e-01
8.615384615384614753e-01 -1.352621241464234680e-01 -3.574575331469433959e-01 9.240776070995179170e-01
9.846153846153845590e-01 8.807361361995376392e-02 -1.938868674281401527e-01 9.770600184552875600e-01
1.107692307692307532e+00 1.844403531005312236e-01 3.740128357394845171e-05 9.828416750574124894e-01
1.230769230769230616e+00 1.565436140654900277e-01 1.569105221486164492e-01 9.751247824041285872e-01
1.353846153846153699e+00 5.265436573009725507e-02 2.254140986632753307e-01 9.728365380519962136e-01
1.476923076923076783e+00 -5.721350851526573605e-02 1.934861442552202881e-01 9.794311303533110857e-01
1.599999999999999867e+00 -1.132418816983345455e-01 9.252213744827558761e-02 9.892485908858105192e-01
1.723076923076922951e+00 -9.128959426840813074e-02 -1.950062207793021307e-02 9.956324140986536619e-01
1.846153846153846034e+00 -1.015534091073818160e-02 -8.730056966851633404e-02 9.961292906252157131e-01
1.969230769230769118e+00 8.231373787017021160e-02 -8.479891060355672361e-02 9.929909584565200786e-01
2.092307692307691980e+00 1.364924457431929417e-01 -2.550916899868667376e-02 9.903111160943899316e-01
2.215384615384615064e+00 1.273925281497852724e-01 4.814317087807744311e-02 9.906818056397631578e-01
2.338461538461538147e+00 6.623831841477098581e-02 9.006730250569282281e-02 9.937293138955802796e-01
2.461538461538461231e+00 -8.264024314807744132e-03 7.609509471503002331e-02 9.970654756769510296e-01
2.584615384615384315e+00 -5.326684733288473278e-02 1.590662733159674616e-02 9.984529925005418693e-01
2.707692307692307399e+00 -4.613135591651287143e-02 -5.472472056899029685e-02 9.974344716552537848e-01
2.830769230769230482e+00 3.941555237237263920e-03 -9.592351161570097928e-02 9.953798570059270157e-01
2.953846153846153566e+00 6.302443888289632756e-02 -8.712714918711685075e-02 9.942004086474630631e-01
3.076923076923076650e+00 9.372709868181869353e-02 -3.811329963908881985e-02 9.948670332716589293e-01
3.199999999999999734e+00 7.747736921537876076e-02 1.827335223662985425e-02 9.968257618662135222e-01
3.323076923076922817e+00 2.475610235855656149e-02 4.670380319993135132e-02 9.986013731578611274e-01
3.446153846153845901e+00 -3.246873683318077242e-02 3.064161614765192887e-02 9.990024309048095574e-01
3.569230769230768985e+00 -6.086867333703730593e-02 -1.854574386278860440e-02 9.979727696670003256e-01
3.692307692307692069e+00 -4.600899935355810821e-02 -6.952378061477663962e-02 9.965178338025956206e-01
3.815384615384615152e+00 -5.235809904799160197e-04 -9.091049635283626751e-02 9.958579347031922824e-01
3.938461538461538236e+00 4.461567550043557540e-02 -7.059817760422719413e-02 9.965056511385951277e-01
4.061538461538461320e+00 5.985892351359627106e-02 -2.259389802852746626e-02 9.979504034959172376e-01
4.184615384615383959e+00 3.535926411923778767e-02 2.247596948818761375e-02 9.991214117720436105e-01
4.307692307692307487e+00 -1.351799665799241143e-02 3.693804437852222372e-02 9.992256702300389426e-01
4.430769230769230127e+00 -5.651020301082908953e-02 1.319679259272537458e-02 9.983141520328417950e-01
4.553846153846153655e+00 -6.781674377406532450e-02 -3.197977552864286060e-02 9.971843045060738708e-01
4.676923076923076295e+00 -4.228980930546863415e-02 -6.869001696801560475e-02 9.967404320162438491e-01
4.799999999999999822e+00 1.830208569905261706e-03 -7.314763117400392700e-02 9.973186376067058045e-01
