0.000000000000000000e+00 3.825734605147770359e-09 -2.391965256234798281e-10 -1.000000000000000000e+00
1.230769230769230699e-01 4.348062753126116231e-01 -1.101959542008495996e-02 -9.004543763529821998e-01
2.461538461538461398e-01 7.761417740139610055e-01 4.112948001306021562e-02 -6.292091185364223627e-01
3.692307692307691958e-01 9.498708026143104499e-01 1.782544154335718445e-01 -2.568260820040880188e-01
4.923076923076922795e-01 9.222469350482025430e-01 3.635853541612493744e-01 1.313568975528384697e-01
6.153846153846153078e-01 7.163495726344355496e-01 5.196470325856368255e-01 4.656183380296981533e-01
7.384615384615383915e-01 4.109019851133213219e-01 5.720316684628377057e-01 7.098816946216827128e-01
8.615384615384614753e-01 1.131684738525768064e-01 4.933306303881516142e-01 8.624459305165839140e-01
9.846153846153845590e-01 -8.603243298136019346e-02 3.197413201131999450e-01 9.435894161553293191e-01
1.107692307692307532e+00 -1.515342855792167764e-01 1.291398300085220829e-01 9.799788702963356801e-01
1.230769230769230616e+00 -1.128122774557607788e-01 -5.005949804796558378e-03 9.936032337225875199e-01
1.353846153846153699e+00 -3.673143731202696549e-02 -5.302595630153780770e-02 9.979170782358542935e-01
1.476923076923076783e+00 1.693310374417590289e-02 -3.630313187453532153e-02 9.991971763379027260e-01
1.599999999999999867e+00 2.669384591206578478e-02 -1.375510348781007475e-03 9.996425871428353815e-01
1.723076923076922951e+00 8.770526686437709468e-03 1.612215286888502366e-02 9.998314757270908570e-01
1.846153846153846034e+00 -8.342880074124850789e-03 1.032290255510866575e-02 9.999118480789271901e-01
1.969230769230769118e+00 -9.772802695654650776e-03 -2.954006337526992806e-03 9.999478303546434077e-01
2.092307692307691980e+00 -7.950701950032294275e-04 -7.918437236599833867e-03 9.999682914951633084e-01
2.215384615384615064e+00 5.585357886501818997e-03 -2.775179378886855064e-03 9.999805178299130404e-01
2.338461538461538147e+00 3.658195761281538179e-03 3.578897493688933638e-03 9.999868767778486989e-01
2.461538461538461231e+00 -1.768852427982627647e-03 3.962767613963462388e-03 9.999905598442915267e-01
2.584615384615384315e+00 -3.625757383236303220e-03 -2.194277263341528825e-04 9.999933824214398692e-01
2.707692307692307399e+00 -7.954418119927547486e-04 -2.943069854524199211e-03 9.999953353481724205e-01
2.830769230769230482e+00 2.243912685502899053e-03 -1.453159457893652123e-03 9.999964110715048315e-01
2.953846153846153566e+00 1.888204135103662513e-03 1.460566113152362861e-03 9.999971366844325749e-01
3.076923076923076650e+00 -6.497895075881464366e-04 1.972471288845082348e-03 9.999978311708799250e-01
3.199999999999999734e+00 -1.817163047752059796e-03 -2.978786568162824708e-05 9.999983375261487506e-01
3.323076923076922817e+00 -4.530984086882909774e-04 -1.592541374998154543e-03 9.999986191375669353e-01
3.446153846153845901e+00 1.252960603367036683e-03 -8.662537418111274871e-04 9.999988304466954636e-01
3.569230769230768985e+00 1.093723541510604590e-03 8.126098073202600667e-04 9.999990632077764285e-01
3.692307692307692069e+00 -4.187492787131381249e-04 1.145624383655415631e-03 9.999992483833548551e-01
3.815384615384615152e+00 -1.132235714740064542e-03 -7.767452708932521838e-05 9.999993487759887278e-01
3.938461538461538236e+00 -2.610892767495498652e-04 -1.039151919072698682e-03 9.999994191386843978e-01
4.061538461538461320e+00 8.269359773005891933e-04 -5.177750901826003692e-04 9.999995177356455489e-01
4.184615384615383959e+00 6.615473783879671863e-04 5.877736412534108161e-04 9.999996026655489922e-01
4.307692307692307487e+00 -3.716977659144058885e-04 7.461183567429879480e-04 9.999996471065097925e-01
4.430769230769230127e+00 -7.955591774849333705e-04 -1.284722230010557173e-04 9.999996699913744624e-01
4.553846153846153655e+00 -1.172572115645657310e-04 -7.413655052091070938e-04 9.999997133354912027e-01
4.676923076923076295e+00 6.176943312347566491e-04 -2.851981635440243678e-04 9.999997640028186474e-01
4.799999999999999822e+00 4.087790458771314774e-04 5.000985963944147919e-04 9.999997870595063176e-01
