0.000000000000000000e+00 8.690048030842478393e-10 2.881421105392547269e-09 -1.000000000000000000e+00
1.230769230769230699e-01 2.016978595484730796e-02 -4.408947685142652340e-01 -8.973276454658408730e-01
2.461538461538461398e-01 7.985702000645281129e-02 -7.831213674061062724e-01 -6.167066275560934008e-01
3.692307692307691958e-01 1.912126385327854172e-01 -9.542806034914703694e-01 -2.297040297460190006e-01
4.923076923076922795e-01 3.276566674064501639e-01 -9.284870197952266313e-01 1.747292517148892887e-01
6.153846153846153078e-01 4.353247423528896487e-01 -7.343706824424020008e-01 5.207430907078691718e-01
7.384615384615383915e-01 4.615652698703210377e-01 -4.463498592478264970e-01 7.666267013538932140e-01
8.615384615384614753e-01 3.848159648435217628e-01 -1.595043500537011438e-01 9.091025676851272053e-01
9.846153846153845590e-01 2.287697751335323881e-01 4.430647649337647598e-02 9.724697356111533519e-01
1.107692307692307532e+00 5.242786417661134818e-02 1.256350609399382035e-01 9.906890947474612519e-01
1.230769230769230616e+00 -7.906695213474254635e-02 9.846153265252209630e-02 9.919937714555152608e-01
1.353846153846153699e+00 -1.265867169015485183e-01 1.721700886304264322e-02 9.918050489000624914e-01
1.476923076923076783e+00 -9.436130746274576375e-02 -5.381599277555167149e-02 9.940814703238326500e-01
1.599999999999999867e+00 -2.316335756843446170e-02 -7.297537490134607674e-02 9.970640689016764258e-01
1.723076923076922951e+00 3.583624081847216342e-02 -3.830281765483290607e-02 9.986229273306016507e-01
1.846153846153846034e+00 5.031482966950377722e-02 1.900042741346634478e-02 9.985521878597287682e-01
1.969230769230769118e+00 2.190443863074833727e-02 5.889913531803692842e-02 9.980230515775618816e-01
2.092307692307691980e+00 -2.062724403880020554e-02 5.876044733991359764e-02 9.980584453527291400e-01
2.215384615384615064e+00 -4.397573241454705295e-02 2.536260366870344424e-02 9.987101645231014624e-01
2.338461538461538147e+00 -3.291752761077178929e-02 -1.348138555945894990e-02 9.993668259899415318e-01
2.461538461538461231e+00 1.722912326276165862e-03 -3.024674670957395659e-02 9.995407030756311428e-01
2.584615384615384315e+00 3.362107735450485524e-02 -1.646023676438443731e-02 9.992987634092634908e-01
2.707692307692307399e+00 4.104083475715425422e-02 1.350793603050156992e-02 9.990657768603283806e-01
2.830769230769230482e+00 2.191950750039554224e-02 3.501555174001344528e-02 9.991459949971558396e-01
2.953846153846153566e+00 -6.475652812593799684e-03 3.195665218063049873e-02 9.994679841434099821e-01
3.076923076923076650e+00 -2.180773428052990015e-02 7.818902396714400016e-03 9.997313925702406845e-01
3.199999999999999734e+00 -1.352796628235445643e-02 -1.849309221460352162e-02 9.997372521071191676e-01
3.323076923076922817e+00 1.022604564012579396e-02 -2.783839232601034372e-02 9.995598601265202054e-01
3.446153846153845901e+00 3.005154818137107525e-02 -1.524994915704695406e-02 9.994317081691467264e-01
3.569230769230768985e+00 3.077293028744812475e-02 7.260449406779541023e-03 9.994997462180040815e-01
3.692307692307692069e+00 1.278860869162416411e-02 2.094365873454522020e-02 9.996986351302549201e-01
3.815384615384615152e+00 -9.171325503415537692e-03 1.512606953164441666e-02 9.998433633717513924e-01
3.938461538461538236e+00 -1.821911928124356900e-02 -5.038139880625503580e-03 9.998211452305442171e-01
4.061538461538461320e+00 -8.483191994541210840e-03 -2.340742196475367742e-02 9.996897864147438195e-01
4.184615384615383959e+00 1.084634480787737866e-02 -2.598596898881225248e-02 9.996032077381200587e-01
4.307692307692307487e+00 2.345308128677090279e-02 -1.185415649396972908e-02 9.996544152073688627e-01
4.430769230769230127e+00 1.913612527587042408e-02 6.719772833592736229e-03 9.997941147694968667e-01
4.553846153846153655e+00 1.600582999921570590e-03 1.459242790346467096e-02 9.998921009193093568e-01
4.676923076923076295e+00 -1.508189678533027218e-02 5.859043817573485885e-03 9.998689396205914237e-01
4.799999999999999822e+00 -1.807846100500491368e-02 -1.180843118694201339e-02 9.997666357355704525e-01
