0.000000000000000000e+00 -4.397315609183156619e-10 -2.415843057013758654e-09 -1.000000000000000000e+00
1.230769230769230699e-01 3.849459829403870104e-01 2.251511543077637234e-01 -8.950532475688596223e-01
2.461538461538461398e-01 6.569057787414728233e-01 4.423544604381320355e-01 -6.105658613602409357e-01
3.692307692307691958e-01 7.459580462934874978e-01 6.271586673283415792e-01 -2.240752247811964304e-01
4.923076923076922795e-01 6.504579778200412221e-01 7.397026932231802743e-01 1.724393693462457633e-01
6.153846153846153078e-01 4.330734965299840034e-01 7.456494892898900551e-01 5.064056180962969167e-01
7.384615384615383915e-01 1.889368146072459287e-01 6.415234864988740293e-01 7.434683681393007282e-01
8.615384615384614753e-01 1.579803969364468319e-03 4.637717774959108086e-01 8.859513792266456855e-01
9.846153846153845590e-01 -9.027192190120741921e-02 2.726971056337042509e-01 9.578545321060293327e-01
1.107692307692307532e+00 -9.824827448429211685e-02 1.219708780560930100e-01 9.876585198687365397e-01
1.230769230769230616e+00 -6.329130660688514487e-02 3.494582778842714871e-02 9.973828343552637588e-01
1.353846153846153699e+00 -2.533961475395950930e-02 2.332597864813145197e-03 9.996760875974575189e-01
1.476923076923076783e+00 -3.998395617933686932e-03 -1.413547280799799886e-03 9.999909891846243681e-01
1.599999999999999867e+00 1.592552892851585317e-03 1.604008600822967633e-03 9.999974351134365280e-01
1.723076923076922951e+00 6.950672757790995939e-04 2.123580949374389779e-03 9.999974933837150193e-01
1.846153846153846034e+00 -9.193050192499467241e-05 5.861291691639292957e-04 9.999998208856278881e-01
1.969230769230769118e+00 2.869066066709605048e-04 -3.854558972061363593e-04 9.999998819869081457e-01
2.092307692307691980e+00 5.701449471775678996e-04 -2.582353712154526336e-04 9.999998008567776431e-01
2.215384615384615064e+00 2.514124851580652091e-04 1.752292878202650703e-05 9.999999668122959706e-01
2.338461538461538147e+00 -1.025136634255293148e-04 -6.429336591601922141e-05 9.999999919338961041e-01
2.461538461538461231e+00 -1.117819116111811611e-04 -2.331838156151298845e-04 9.999999650996205247e-01
2.584615384615384315e+00 1.164752480709160213e-05 -1.596969627346623330e-04 9.999999862263289074e-01
2.707692307692307399e+00 -9.990907977097884776e-07 5.999368320571676897e-06 9.999999999172838328e-01
2.830769230769230482e+00 -1.045098592203064068e-04 4.559281958141378293e-05 9.999999927951239709e-01
2.953846153846153566e+00 -1.045690524811408468e-04 -1.690875259301809186e-05 9.999999937268139183e-01
3.076923076923076650e+00 -2.174197421082608560e-05 -1.314267312440990030e-05 9.999999994875082843e-01
3.199999999999999734e+00 1.596683842366092488e-05 4.300080703382599224e-05 9.999999986371828076e-01
3.323076923076922817e+00 -1.623255797147824192e-05 7.128721759058276927e-05 9.999999968576771536e-01
3.446153846153845901e+00 -3.038730450090151603e-05 2.914562456709864118e-05 9.999999988228379655e-01
3.569230769230768985e+00 2.180845058121694398e-09 1.127244912834666152e-09 9.999999999877154933e-01
3.692307692307692069e+00 3.627712314186861482e-05 1.500820366961677828e-05 9.999999989548604695e-01
3.815384615384615152e+00 2.215381211220786471e-05 3.079982868604935444e-05 9.999999990164669672e-01
3.938461538461538236e+00 2.998884188175018205e-06 9.343565962019828808e-06 9.999999998568076531e-01
4.061538461538461320e+00 3.442664393140227143e-06 -1.204446747386246134e-05 9.999999998121885669e-01
4.184615384615383959e+00 2.863763812526809796e-05 -1.015044371284555361e-05 9.999999993177175472e-01
4.307692307692307487e+00 1.831855990010324321e-05 3.316591503444206869e-06 9.999999996854196382e-01
4.430769230769230127e+00 8.738453753142781858e-10 -2.293711421997436918e-09 1.000000000003546496e+00
4.553846153846153655e+00 -4.519909682706538018e-06 -1.411337597405578785e-05 9.999999997675874663e-01
4.676923076923076295e+00 6.952380646612863082e-06 -1.984079238009906870e-05 9.999999996199510077e-01
4.799999999999999822e+00 6.139176744890087573e-06 -4.949998623111944532e-06 9.999999998885369390e-01
