1.000000000000000056e-01 -2.453460486197749091e-02 5.646980488742273097e-02 -9.979315755083322248e-01
4.222222222222221655e-01 -1.394540296022678816e-01 2.152201024821113751e-01 -9.634901611918961217e-01
7.444444444444443532e-01 -3.550715024141671283e-01 2.576026219368823256e-01 -8.889885223269777814e-01
1.066666666666666652e+00 -5.989640577216588380e-01 3.443317445643101493e-02 -7.796803019997461393e-01
1.388888888888888840e+00 -5.552101643362035155e-01 -4.801110574894243421e-01 -6.428929107172142166e-01
1.711111111111111027e+00 9.224124126426397341e-02 -8.318665848104642713e-01 -4.871943700207049255e-01
2.033333333333333215e+00 8.677788887850507171e-01 -2.657921984658228598e-01 -3.213391699003280699e-01
2.355555555555555625e+00 4.650421225386501267e-01 8.247985016791750112e-01 -1.534901571032453726e-01
2.677777777777777590e+00 -8.204942824386831646e-01 4.940387024576897157e-01 9.385480577895495211e-03
2.999999999999999556e+00 -3.566381520317514209e-01 -8.744739885139692914e-01 1.620001747047056795e-01
