1.000000000000000056e-01 9.756000646475448956e-01 0.000000000000000000e+00 2.424735007514744467e-02 1.525852773051794738e-04 0.000000000000000000e+00 0.000000000000000000e+00 -3.485053038882460403e-04 1.538037543230297288e-01 0.000000000000000000e+00 0.000000000000000000e+00 0.000000000000000000e+00 0.000000000000000000e+00 -1.078310485508320472e-03 1.592807311130967464e-03 -1.008786306720563762e-02 -6.862741798735906736e-03
2.000000000000000111e-01 9.056011156923261529e-01 0.000000000000000000e+00 9.203008663977432779e-02 2.368797667899068260e-03 0.000000000000000000e+00 0.000000000000000000e+00 -2.621487791129002622e-03 2.886791937888160686e-01 0.000000000000000000e+00 0.000000000000000000e+00 0.000000000000000000e+00 0.000000000000000000e+00 -8.358270055196922663e-03 1.217127668349529505e-02 -3.794067096071056938e-02 -2.656485071482764249e-02
3.000000000000000444e-01 7.989763149169362144e-01 0.000000000000000000e+00 1.896187407722670359e-01 1.140494431079615983e-02 0.000000000000000000e+00 0.000000000000000000e+00 -7.982182565439597047e-03 3.891492868988856713e-01 0.000000000000000000e+00 0.000000000000000000e+00 0.000000000000000000e+00 0.000000000000000000e+00 -2.675049489537268191e-02 3.803948212810788487e-02 -7.694128727868437823e-02 -5.650060777415379792e-02
4.000000000000000222e-01 6.687424506737422725e-01 0.000000000000000000e+00 2.976521525706528615e-01 3.360539675560478973e-02 0.000000000000000000e+00 0.000000000000000000e+00 -1.635048825744585960e-02 4.458534417134620287e-01 0.000000000000000000e+00 0.000000000000000000e+00 0.000000000000000000e+00 0.000000000000000000e+00 -5.880887231109782620e-02 8.089644749751249975e-02 -1.179444040923777470e-01 -9.253363126213402789e-02
5.000000000000000000e-01 5.295441846684174614e-01 0.000000000000000000e+00 3.954533945228837499e-01 7.500242080869629069e-02 0.000000000000000000e+00 0.000000000000000000e+00 -2.637693045928820104e-02 4.568526052890393152e-01 0.000000000000000000e+00 0.000000000000000000e+00 0.000000000000000000e+00 0.000000000000000000e+00 -1.040871438580724395e-01 1.372072460403756522e-01 -1.515677682538135451e-01 -1.293997965656293880e-01
5.999999999999999778e-01 3.951475285722119701e-01 0.000000000000000000e+00 4.654038212671731678e-01 1.394486501606141959e-01 0.000000000000000000e+00 0.000000000000000000e+00 -3.587495544556955351e-02 4.273361175011691215e-01 0.000000000000000000e+00 0.000000000000000000e+00 0.000000000000000000e+00 0.000000000000000000e+00 -1.590403810495828463e-01 1.990127931692654284e-01 -1.704751532891592147e-01 -1.613722763278612193e-01
7.000000000000000666e-01 2.763509766036039705e-01 0.000000000000000000e+00 4.963487272294961894e-01 2.273002961669010336e-01 0.000000000000000000e+00 0.000000000000000000e+00 -4.255944369814371880e-02 3.679064409171598493e-01 0.000000000000000000e+00 0.000000000000000000e+00 0.000000000000000000e+00 0.000000000000000000e+00 -2.175304330950158238e-01 2.559310910121491145e-01 -1.710505496017661609e-01 -1.831839738679632568e-01
8.000000000000000444e-01 1.797814560754248669e-01 0.000000000000000000e+00 4.852580430226003383e-01 3.349605009019754331e-01 0.000000000000000000e+00 0.000000000000000000e+00 -4.479356293100457409e-02 2.919485130426608954e-01 0.000000000000000000e+00 0.000000000000000000e+00 0.000000000000000000e+00 0.000000000000000000e+00 -2.718285874954182169e-01 2.977440111715834448e-01 -1.540412394155906972e-01 -1.910261321089396502e-01
9.000000000000000222e-01 1.076571481029390542e-01 0.000000000000000000e+00 4.369511282310777900e-01 4.553917236659832946e-01 0.000000000000000000e+00 0.000000000000000000e+00 -4.211404942287660935e-02 2.127611786430690932e-01 0.000000000000000000e+00 0.000000000000000000e+00 0.000000000000000000e+00 0.000000000000000000e+00 -3.139739896060782520e-01 3.168663146215663917e-01 -1.240279081828462998e-01 -1.834209698939560651e-01
1.000000000000000000e+00 5.845083554322100944e-02 0.000000000000000000e+00 3.621456975904661646e-01 5.794034668663144982e-01 0.000000000000000000e+00 0.000000000000000000e+00 -3.533039561268432743e-02 1.411363942120802129e-01 0.000000000000000000e+00 0.000000000000000000e+00 0.000000000000000000e+00 0.000000000000000000e+00 -3.371947723102787786e-01 3.100454131611560804e-01 -8.793551097747273615e-02 -1.616600219727712673e-01
1.100000000000000089e+00 2.813151222100009757e-02 0.000000000000000000e+00 2.745247873597024824e-01 6.973437004193006050e-01 0.000000000000000000e+00 0.000000000000000000e+00 -2.620130951970060448e-02 8.388258944701998399e-02 0.000000000000000000e+00 0.000000000000000000e+00 0.000000000000000000e+00 0.000000000000000000e+00 -3.371072198108926998e-01 2.789208728939636672e-01 -5.305151007573363081e-02 -1.296258855191270987e-01
1.200000000000000178e+00 1.158079569220928084e-02 0.000000000000000000e+00 1.876333786373552692e-01 8.007858256704318833e-01 0.000000000000000000e+00 0.000000000000000000e+00 -1.683139258352461809e-02 4.347008230927857514e-02 0.000000000000000000e+00 0.000000000000000000e+00 0.000000000000000000e+00 0.000000000000000000e+00 -3.124699336557297258e-01 2.293832829528031081e-01 -2.511283491884023361e-02 -9.296818072176007974e-02
1.300000000000000266e+00 3.835021357877825554e-03 0.000000000000000000e+00 1.123656295972791652e-01 8.837993490448444733e-01 0.000000000000000000e+00 0.000000000000000000e+00 -9.007157061830750600e-03 1.870282632420832564e-02 0.000000000000000000e+00 0.000000000000000000e+00 0.000000000000000000e+00 0.000000000000000000e+00 -2.653171165578047663e-01 1.700455757007694468e-01 -7.035780861820536101e-03 -5.779175699257748516e-02
1.400000000000000133e+00 9.063438120112422012e-04 0.000000000000000000e+00 5.548648249777472091e-02 9.436071736902146290e-01 0.000000000000000000e+00 0.000000000000000000e+00 -3.714777871189278106e-03 6.040716736217389797e-03 0.000000000000000000e+00 0.000000000000000000e+00 0.000000000000000000e+00 0.000000000000000000e+00 -2.004774678383469955e-01 1.103006243297136035e-01 1.413576866214756979e-03 -2.921017657709470972e-02
1.500000000000000222e+00 1.151446757634549397e-04 0.000000000000000000e+00 1.933892093392146350e-02 9.805459343903155656e-01 0.000000000000000000e+00 0.000000000000000000e+00 -9.890356098128786667e-04 1.117399990714910323e-03 0.000000000000000000e+00 0.000000000000000000e+00 0.000000000000000000e+00 0.000000000000000000e+00 -1.246663893152272357e-01 5.848924335316282169e-02 2.996217906439699145e-03 -1.019447658464335202e-02
1.600000000000000089e+00 3.946169773182445763e-06 0.000000000000000000e+00 2.482023277192500158e-03 9.975140305530357798e-01 0.000000000000000000e+00 0.000000000000000000e+00 -9.825282662337758385e-05 1.186872392399331388e-05 0.000000000000000000e+00 0.000000000000000000e+00 0.000000000000000000e+00 0.000000000000000000e+00 -4.530456631561028541e-02 2.057545264582486336e-02 1.695028885383327967e-03 -1.031135133513849580e-03
1.700000000000000178e+00 1.642374359689645747e-06 0.000000000000000000e+00 9.351357823181511483e-04 9.990632218433224132e-01 0.000000000000000000e+00 0.000000000000000000e+00 3.682668312974799639e-05 1.340322155432794056e-05 0.000000000000000000e+00 0.000000000000000000e+00 0.000000000000000000e+00 0.000000000000000000e+00 3.056255026479624479e-02 -4.362221699044125864e-04 1.209840617409332865e-03 4.208721449383390862e-04
1.800000000000000266e+00 1.913529259254570416e-05 0.000000000000000000e+00 9.544656709312026102e-03 9.904362079980963962e-01 0.000000000000000000e+00 0.000000000000000000e+00 3.783140840544913777e-04 -1.987919313130565144e-04 0.000000000000000000e+00 0.000000000000000000e+00 0.000000000000000000e+00 0.000000000000000000e+00 9.712763952360196906e-02 -4.426649909905438704e-03 3.757575174116606961e-03 -2.198386359384432026e-03
1.900000000000000133e+00 1.192119760753949828e-04 0.000000000000000000e+00 2.316003241010744507e-02 9.767207556138178814e-01 0.000000000000000000e+00 0.000000000000000000e+00 1.434526403230370305e-03 -8.385032454482727006e-04 0.000000000000000000e+00 0.000000000000000000e+00 0.000000000000000000e+00 0.000000000000000000e+00 1.502655380313589750e-01 6.415020599227497927e-03 9.539662641126038511e-03 -5.042982931014763220e-03
2.000000000000000000e+00 3.289845302571362613e-04 0.000000000000000000e+00 3.743313063098228227e-02 9.622378848387620476e-01 0.000000000000000000e+00 0.000000000000000000e+00 3.157478812959691340e-03 -1.531420640812270568e-03 0.000000000000000000e+00 0.000000000000000000e+00 0.000000000000000000e+00 0.000000000000000000e+00 1.876581906640820141e-01 2.835454055936344198e-02 1.698894760614405239e-02 -5.285552800053342805e-03
2.100000000000000089e+00 5.911077262048936411e-04 0.000000000000000000e+00 4.919819341108803284e-02 9.502106988627095907e-01 0.000000000000000000e+00 0.000000000000000000e+00 5.074779409716917260e-03 -1.824294165638692608e-03 0.000000000000000000e+00 0.000000000000000000e+00 0.000000000000000000e+00 0.000000000000000000e+00 2.085871657166566417e-01 5.692138475051178315e-02 2.362638074463108834e-02 -1.863094932074147933e-03
2.200000000000000178e+00 8.033423187998149639e-04 0.000000000000000000e+00 5.654720016331039878e-02 9.426494575178919755e-01 0.000000000000000000e+00 0.000000000000000000e+00 6.567938503349393144e-03 -1.512926564250476362e-03 0.000000000000000000e+00 0.000000000000000000e+00 0.000000000000000000e+00 0.000000000000000000e+00 2.136648011915289191e-01 8.747308292819140629e-02 2.715744863676752135e-02 4.443343836325027232e-03
2.300000000000000266e+00 8.830184098971198894e-04 0.000000000000000000e+00 5.870584112556828660e-02 9.404111404645317807e-01 0.000000000000000000e+00 0.000000000000000000e+00 7.163314415071987684e-03 -7.247552898838866388e-04 0.000000000000000000e+00 0.000000000000000000e+00 0.000000000000000000e+00 0.000000000000000000e+00 2.045394291068926285e-01 1.156341160027130055e-01 2.638556461505818518e-02 1.158457897848363082e-02
2.400000000000000355e+00 8.087828510142671627e-04 0.000000000000000000e+00 5.582382300000164610e-02 9.433673941489847392e-01 0.000000000000000000e+00 0.000000000000000000e+00 6.716443161784963790e-03 1.968443914503630651e-04 0.000000000000000000e+00 0.000000000000000000e+00 0.000000000000000000e+00 0.000000000000000000e+00 1.836649545920881754e-01 1.375847327006429477e-01 2.161250325598770838e-02 1.720114071768781214e-02
2.500000000000000444e+00 6.224713449627171206e-04 0.000000000000000000e+00 4.876814341262335900e-02 9.506093852424161161e-01 0.000000000000000000e+00 0.000000000000000000e+00 5.436741480241102237e-03 8.936537245534019805e-04 0.000000000000000000e+00 0.000000000000000000e+00 0.000000000000000000e+00 0.000000000000000000e+00 1.541764667160535618e-01 1.502966124646444579e-01 1.443369450372557206e-02 1.958049193612987349e-02
2.600000000000000089e+00 3.986024237782719308e-04 0.000000000000000000e+00 3.888886054715146728e-02 9.607125370290716670e-01 0.000000000000000000e+00 0.000000000000000000e+00 3.761327214539096631e-03 1.163449247798449939e-03 0.000000000000000000e+00 0.000000000000000000e+00 0.000000000000000000e+00 0.000000000000000000e+00 1.197094657498936204e-01 1.517585574457006314e-01 7.038084833534534804e-03 1.825945843002312052e-02
2.700000000000000178e+00 2.057342871800070213e-04 0.000000000000000000e+00 2.780374496671798867e-02 9.719905207461013719e-01 0.000000000000000000e+00 0.000000000000000000e+00 2.161988726721051062e-03 1.022736702695456511e-03 0.000000000000000000e+00 0.000000000000000000e+00 0.000000000000000000e+00 0.000000000000000000e+00 8.422634752952935788e-02 1.411768357998907097e-01 1.356280431716976476e-03 1.407595143905218324e-02
2.800000000000000266e+00 7.987200484910039332e-05 0.000000000000000000e+00 1.716103732345762231e-02 9.827590906716930919e-01 0.000000000000000000e+00 0.000000000000000000e+00 9.705464114204588729e-04 6.547728352968189888e-04 0.000000000000000000e+00 0.000000000000000000e+00 0.000000000000000000e+00 0.000000000000000000e+00 5.168803708102381878e-02 1.191365266673449219e-01 -1.622379544812750434e-03 8.709934248167270493e-03
2.900000000000000355e+00 1.997148059426963752e-05 0.000000000000000000e+00 8.397207219274789580e-03 9.915828213001318669e-01 0.000000000000000000e+00 0.000000000000000000e+00 2.929925515339916573e-04 2.861124977279682572e-04 0.000000000000000000e+00 0.000000000000000000e+00 0.000000000000000000e+00 0.000000000000000000e+00 2.565208206509088026e-02 8.756995489861343906e-02 -2.088672481373816427e-03 3.929490012365884251e-03
3.000000000000000444e+00 2.133508136421657514e-06 0.000000000000000000e+00 2.543036247454435236e-03 9.974548302444098402e-01 0.000000000000000000e+00 0.000000000000000000e+00 3.384935935412606011e-05 6.542088907014016134e-05 0.000000000000000000e+00 0.000000000000000000e+00 0.000000000000000000e+00 0.000000000000000000e+00 8.848782106461214325e-03 4.958087071571522925e-02 -1.157713386521100601e-03 8.875965952130606329e-04
3.100000000000000089e+00 1.350676233120317022e-07 0.000000000000000000e+00 8.992889526856847758e-05 9.999099360371085377e-01 0.000000000000000000e+00 0.000000000000000000e+00 -3.081933489654750877e-06 1.627974853605111087e-06 0.000000000000000000e+00 0.000000000000000000e+00 0.000000000000000000e+00 0.000000000000000000e+00 2.839838513774627354e-03 9.047433572720536485e-03 -2.611132556599413969e-04 -2.586372196353505263e-04
3.200000000000000178e+00 2.956419233566791749e-07 0.000000000000000000e+00 9.559765553879742001e-04 9.990437278026870205e-01 0.000000000000000000e+00 0.000000000000000000e+00 4.426629805185472807e-06 -1.621881845863414168e-05 0.000000000000000000e+00 0.000000000000000000e+00 0.000000000000000000e+00 0.000000000000000000e+00 7.800688992559632641e-03 -2.990337026662976197e-02 -4.712039136701123951e-04 -2.708204597983816190e-04
3.300000000000000266e+00 4.331958951767884548e-06 0.000000000000000000e+00 4.554159485130498605e-03 9.954415085559231713e-01 0.000000000000000000e+00 0.000000000000000000e+00 -2.325039252119035844e-05 -1.385202422590366654e-04 0.000000000000000000e+00 0.000000000000000000e+00 0.000000000000000000e+00 0.000000000000000000e+00 2.255709679370236295e-02 -6.343955188116090493e-02 -2.044748356524912769e-03 -3.622245077028849619e-04
3.400000000000000355e+00 2.175976769988143800e-05 0.000000000000000000e+00 9.938667899175499670e-03 9.900395723331256725e-01 0.000000000000000000e+00 0.000000000000000000e+00 -5.698888757805897342e-05 -4.615354795688189063e-04 0.000000000000000000e+00 0.000000000000000000e+00 0.000000000000000000e+00 0.000000000000000000e+00 4.477026776128700120e-02 -8.851721717547783586e-02 -4.367303882261406624e-03 -1.571492097957963860e-03
3.500000000000000444e+00 5.871283749669860838e-05 0.000000000000000000e+00 1.599432124921807905e-02 9.839469659132835666e-01 0.000000000000000000e+00 0.000000000000000000e+00 -9.558825712662670252e-06 -9.690098270662661191e-04 0.000000000000000000e+00 0.000000000000000000e+00 0.000000000000000000e+00 0.000000000000000000e+00 7.130330805956967832e-02 -1.032153202956691274e-01 -6.295871002447574888e-03 -4.258196403047895956e-03
3.600000000000000089e+00 1.106272938539604753e-04 0.000000000000000000e+00 2.162742581765481065e-02 9.782619468884939939e-01 0.000000000000000000e+00 0.000000000000000000e+00 1.888381997059208374e-04 -1.535227445750518647e-03 0.000000000000000000e+00 0.000000000000000000e+00 0.000000000000000000e+00 0.000000000000000000e+00 9.865356645432546423e-02 -1.068866762365709988e-01 -6.725984754611055022e-03 -7.936216473799414042e-03
3.700000000000000178e+00 1.627237299741716926e-04 0.000000000000000000e+00 2.592638956581963874e-02 9.739108867042094442e-01 0.000000000000000000e+00 0.000000000000000000e+00 5.336830143441668789e-04 -1.983436806794597589e-03 0.000000000000000000e+00 0.000000000000000000e+00 0.000000000000000000e+00 0.000000000000000000e+00 1.233803452589865846e-01 -1.001363246971423010e-01 -5.120963160890490244e-03 -1.150018069246683435e-02
3.800000000000000266e+00 1.970501230464844519e-04 0.000000000000000000e+00 2.826667644847566385e-02 9.715362734284791468e-01 0.000000000000000000e+00 0.000000000000000000e+00 9.360451139127105771e-04 -2.166511199314885647e-03 0.000000000000000000e+00 0.000000000000000000e+00 0.000000000000000000e+00 0.000000000000000000e+00 1.424545203534091919e-01 -8.466883336704253415e-02 -1.772126483742014497e-03 -1.372227524206940351e-02
3.900000000000000355e+00 2.014941989656363985e-04 0.000000000000000000e+00 2.836864549286323423e-02 9.714298603081714667e-01 0.000000000000000000e+00 0.000000000000000000e+00 1.261521950173250016e-03 -2.030930718103861766e-03 0.000000000000000000e+00 0.000000000000000000e+00 0.000000000000000000e+00 0.000000000000000000e+00 1.535691271943050995e-01 -6.304500240865795746e-02 2.315612460963235343e-03 -1.379765885208618023e-02
4.000000000000000000e+00 1.754462271755006879e-04 0.000000000000000000e+00 2.630168830546118428e-02 9.735228654673653281e-01 0.000000000000000000e+00 0.000000000000000000e+00 1.394139552284407411e-03 -1.634291674189236945e-03 0.000000000000000000e+00 0.000000000000000000e+00 0.000000000000000000e+00 0.000000000000000000e+00 1.553474784919464668e-01 -3.837258672723956043e-02 5.849969684056308128e-03 -1.168669811344196473e-02
4.099999999999999645e+00 1.293349410910229732e-04 0.000000000000000000e+00 2.244457088211430917e-02 9.774260941767930477e-01 0.000000000000000000e+00 0.000000000000000000e+00 1.290229490448059711e-03 -1.112733199313509572e-03 0.000000000000000000e+00 0.000000000000000000e+00 0.000000000000000000e+00 0.000000000000000000e+00 1.474521206911944826e-01 -1.399218351856548574e-02 7.782617191679321207e-03 -8.114567989301607262e-03
4.200000000000000178e+00 7.899161733838310732e-05 0.000000000000000000e+00 1.741864421706574781e-02 9.825023641655941109e-01 0.000000000000000000e+00 0.000000000000000000e+00 9.966270905393773572e-04 -6.185978204396074464e-04 0.000000000000000000e+00 0.000000000000000000e+00 0.000000000000000000e+00 0.000000000000000000e+00 1.306391199442075435e-01 6.875990754160034996e-03 7.718856005940644312e-03 -4.246044662285477361e-03
4.299999999999999822e+00 3.814541787531389562e-05 0.000000000000000000e+00 1.198644570619223672e-02 9.879754088759318265e-01 0.000000000000000000e+00 0.000000000000000000e+00 6.245934040057045432e-04 -2.590584032114304973e-04 0.000000000000000000e+00 0.000000000000000000e+00 0.000000000000000000e+00 0.000000000000000000e+00 1.066812958767699993e-01 2.148055815305843080e-02 6.023232712149081784e-03 -1.186346850532178122e-03
4.399999999999999467e+00 1.321002868921709109e-05 0.000000000000000000e+00 6.936269910449906553e-03 9.930505200608606975e-01 0.000000000000000000e+00 0.000000000000000000e+00 2.956942125253298999e-04 -6.475725689149072219e-05 0.000000000000000000e+00 0.000000000000000000e+00 0.000000000000000000e+00 0.000000000000000000e+00 7.818281466158301385e-02 2.784804628734228668e-02 3.592937052142401982e-03 4.572466251686886467e-04
4.500000000000000000e+00 2.611749040695302595e-06 0.000000000000000000e+00 2.968307708044547362e-03 9.970290805429122827e-01 0.000000000000000000e+00 0.000000000000000000e+00 8.803604405541207796e-05 1.471621894844159633e-06 0.000000000000000000e+00 0.000000000000000000e+00 0.000000000000000000e+00 0.000000000000000000e+00 4.829343321256970162e-02 2.504462641893647618e-02 1.419903784452856543e-03 7.667311661006141537e-04
4.599999999999999645e+00 1.665796839290149517e-07 0.000000000000000000e+00 5.896370571768097882e-04 9.994101963631421004e-01 0.000000000000000000e+00 0.000000000000000000e+00 8.005061264488110261e-06 5.843431348881404308e-06 0.000000000000000000e+00 0.000000000000000000e+00 0.000000000000000000e+00 0.000000000000000000e+00 2.032317576214582103e-02 1.327622161104062386e-02 1.443420448471105847e-04 3.816560363049697926e-04
4.700000000000000178e+00 5.435186305207110749e-08 0.000000000000000000e+00 4.438963948716214238e-05 9.999555560086496042e-01 0.000000000000000000e+00 0.000000000000000000e+00 -2.612572029264988913e-07 -1.531320420368833315e-06 0.000000000000000000e+00 0.000000000000000000e+00 0.000000000000000000e+00 0.000000000000000000e+00 -2.682631795094753049e-03 -6.098423873879901987e-03 -1.946095209744278160e-04 1.284184123515992528e-04
4.799999999999999822e+00 3.562930902074127544e-07 0.000000000000000000e+00 1.286094855801593433e-03 9.987135488511064141e-01 0.000000000000000000e+00 0.000000000000000000e+00 -1.607853685499809317e-05 -1.413240269599304505e-05 0.000000000000000000e+00 0.000000000000000000e+00 0.000000000000000000e+00 0.000000000000000000e+00 -1.833945511406065432e-02 -3.079131301391186890e-02 -1.090759054718225973e-04 5.864684464479969894e-04
4.900000000000000355e+00 3.382645563887467571e-06 0.000000000000000000e+00 4.000020618854436411e-03 9.959965967355817185e-01 0.000000000000000000e+00 0.000000000000000000e+00 -9.577275589644093049e-05 -6.601706512971251080e-05 0.000000000000000000e+00 0.000000000000000000e+00 0.000000000000000000e+00 0.000000000000000000e+00 -2.522100833735384240e-02 -5.786110463993821007e-02 -3.510788815310331222e-04 1.801619274149810889e-03
5.000000000000000000e+00 1.304641270469498848e-05 0.000000000000000000e+00 7.666567662112560959e-03 9.923203859251841230e-01 0.000000000000000000e+00 0.000000000000000000e+00 -2.426785598751667863e-04 -2.028014613288585356e-04 0.000000000000000000e+00 0.000000000000000000e+00 0.000000000000000000e+00 0.000000000000000000e+00 -2.302930405969536368e-02 -8.412694301228149096e-02 -1.496411710738410842e-03 3.272153312135162202e-03
5.099999999999999645e+00 3.121472856969159318e-05 0.000000000000000000e+00 1.165430916858136746e-02 9.883144761028515024e-01 0.000000000000000000e+00 0.000000000000000000e+00 -4.076068682630430338e-04 -4.445705374491950462e-04 0.000000000000000000e+00 0.000000000000000000e+00 0.000000000000000000e+00 0.000000000000000000e+00 -1.259797393302688161e-02 -1.065805492492072765e-01 -3.625057059361745659e-03 4.208200042808325075e-03
5.200000000000000178e+00 5.537177357305836861e-05 0.000000000000000000e+00 1.532148606945436808e-02 9.846231421569723308e-01 0.000000000000000000e+00 0.000000000000000000e+00 -5.172324350422162920e-04 -7.621343530716462788e-04 0.000000000000000000e+00 0.000000000000000000e+00 0.000000000000000000e+00 0.000000000000000000e+00 4.274580200049626216e-03 -1.227502247590686324e-01 -6.250249738359674873e-03 3.931250450559590354e-03
5.299999999999999822e+00 7.897282115676473922e-05 0.000000000000000000e+00 1.810897498441608328e-02 9.818120521944256884e-01 0.000000000000000000e+00 0.000000000000000000e+00 -5.141759790335512399e-04 -1.079694532449225084e-03 0.000000000000000000e+00 0.000000000000000000e+00 0.000000000000000000e+00 0.000000000000000000e+00 2.506205894509481308e-02 -1.309637457566443786e-01 -8.519926237632237387e-03 2.224260668521628286e-03
5.400000000000000355e+00 9.430201364175027896e-05 0.000000000000000000e+00 1.961904163079335531e-02 9.802866563555645563e-01 0.000000000000000000e+00 0.000000000000000000e+00 -3.879349606023483059e-04 -1.303695436162786124e-03 0.000000000000000000e+00 0.000000000000000000e+00 0.000000000000000000e+00 0.000000000000000000e+00 4.683215621591681199e-02 -1.305336506989305256e-01 -9.600058520750723648e-03 -5.309260319666120071e-04
5.500000000000000000e+00 9.605771471354276230e-05 0.000000000000000000e+00 1.965420590173337992e-02 9.802497363835555033e-01 0.000000000000000000e+00 0.000000000000000000e+00 -1.802664893898223391e-04 -1.362146123542086343e-03 0.000000000000000000e+00 0.000000000000000000e+00 0.000000000000000000e+00 0.000000000000000000e+00 6.661716844545424732e-02 -1.217710269061235140e-01 -9.050416733870992117e-03 -3.500067515062704662e-03
5.599999999999999645e+00 8.388259560493446646e-05 0.000000000000000000e+00 1.824177479346175343e-02 9.816743426109326709e-01 0.000000000000000000e+00 0.000000000000000000e+00 3.467792411264226428e-05 -1.236513605203674133e-03 0.000000000000000000e+00 0.000000000000000000e+00 0.000000000000000000e+00 0.000000000000000000e+00 8.172580135231495568e-02 -1.059640293500493102e-01 -7.027382123314362614e-03 -5.741197613342007358e-03
5.700000000000000178e+00 6.230751500660906643e-05 0.000000000000000000e+00 1.561346283041444016e-02 9.843242296545813286e-01 0.000000000000000000e+00 0.000000000000000000e+00 1.861510166950207054e-04 -9.685988034908273514e-04 0.000000000000000000e+00 0.000000000000000000e+00 0.000000000000000000e+00 0.000000000000000000e+00 9.007071661483868896e-02 -8.518201506340412898e-02 -4.210495735891332976e-03 -6.603216205710249476e-03
5.799999999999999822e+00 3.846903826990187607e-05 0.000000000000000000e+00 1.216950920352418905e-02 9.877920217582054629e-01 0.000000000000000000e+00 0.000000000000000000e+00 2.378166701687940904e-04 -6.415553099644385896e-04 0.000000000000000000e+00 0.000000000000000000e+00 0.000000000000000000e+00 0.000000000000000000e+00 9.038587629299175974e-02 -6.205914580601648578e-02 -1.505330435408077034e-03 -5.977747724371811934e-03
5.900000000000000355e+00 1.882857682477677604e-05 0.000000000000000000e+00 8.419403067944225549e-03 9.915617683552323536e-01 0.000000000000000000e+00 0.000000000000000000e+00 2.000136293793932448e-04 -3.442672312415384931e-04 0.000000000000000000e+00 0.000000000000000000e+00 0.000000000000000000e+00 0.000000000000000000e+00 8.238713477395574747e-02 -3.950592107703636280e-02 3.418223058535356756e-04 -4.307301327337524632e-03
6.000000000000000000e+00 6.619898872893425858e-06 0.000000000000000000e+00 4.900724245086801080e-03 9.950926558560414525e-01 0.000000000000000000e+00 0.000000000000000000e+00 1.179019873375992061e-04 -1.361671351704077436e-04 0.000000000000000000e+00 0.000000000000000000e+00 0.000000000000000000e+00 0.000000000000000000e+00 6.681202041446386575e-02 -2.031818763148843243e-02 1.042825915512503093e-03 -2.345195219023485551e-03
