0.000000000000000000e+00 -7.733952235982627091e-12 9.905133415271660264e-12 -1.000000000000000000e+00
1.025641025641025605e-01 -2.051439463278184883e-01 2.426285533205482237e-01 -9.478337228673320292e-01
2.051282051282051211e-01 -4.068544503416975378e-01 4.355381122576408304e-01 -8.001859416465088026e-01
3.076923076923077094e-01 -5.963751487840597276e-01 5.409615653212571651e-01 -5.806800510247294156e-01
4.102564102564102422e-01 -7.574248496702258304e-01 5.412282415733945529e-01 -3.205774732865733778e-01
5.128205128205127750e-01 -8.684985204759108068e-01 4.414857854965950068e-01 -5.092270474276868603e-02
6.153846153846154188e-01 -9.089361651104512774e-01 2.673923457608541332e-01 2.030482451768191587e-01
7.179487179487179516e-01 -8.666639267039565331e-01 5.899060740961653559e-02 4.244259899840271411e-01
8.205128205128204844e-01 -7.447660520416308216e-01 -1.383806460269758065e-01 6.046658892237330996e-01
9.230769230769230171e-01 -5.638848545966045345e-01 -2.850324988810737925e-01 7.422781624758124641e-01
1.025641025641025550e+00 -3.584232863129680480e-01 -3.571431753626624350e-01 8.408760194766258245e-01
1.128205128205128194e+00 -1.669031953710681526e-01 -3.525491604803807077e-01 9.071483311086674384e-01
1.230769230769230838e+00 -2.023146044634435703e-02 -2.893287920096883625e-01 9.488774314671170051e-01
1.333333333333333259e+00 6.700751075343398810e-02 -1.972222818581831627e-01 9.734763260904473192e-01
1.435897435897435903e+00 9.831171292821555552e-02 -1.060537160973772652e-01 9.870435499594749640e-01
1.538461538461538325e+00 9.007358272300253210e-02 -3.625789378682497260e-02 9.940444402440040683e-01
1.641025641025640969e+00 6.285870416744954170e-02 4.825627239176587258e-03 9.974252690947648103e-01
1.743589743589743613e+00 3.366822600297590673e-02 2.078563502619230549e-02 9.989532298565031443e-01
1.846153846153846034e+00 1.202307877395525186e-02 2.074925823769302458e-02 9.995999413173161097e-01
1.948717948717948678e+00 2.507006491758601713e-04 1.401870505013085889e-02 9.998562168592464161e-01
2.051282051282051100e+00 -3.811582252967873202e-03 6.921968051457735339e-03 9.999513290687731537e-01
2.153846153846153744e+00 -3.686101880481030754e-03 2.172638685470231531e-03 9.999844924239112975e-01
2.256410256410256387e+00 -2.223153014032989896e-03 -3.450988238689993437e-05 9.999953314741978350e-01
2.358974358974359031e+00 -9.276665189731265766e-04 -5.994736590996755515e-04 9.999986686228897748e-01
2.461538461538461675e+00 -2.164031046117197263e-04 -4.797358625123958288e-04 9.999996364073173716e-01
2.564102564102563875e+00 3.747696885687988783e-05 -2.345936287431853726e-04 9.999999050266606959e-01
2.666666666666666519e+00 6.797504352900024093e-05 -7.210724240282793236e-05 9.999999762738129849e-01
2.769230769230769162e+00 4.365302280352834964e-05 -1.044682012849574280e-05 9.999999939503405599e-01
2.871794871794871806e+00 1.347944334771246384e-05 6.065109876259383934e-06 9.999999986092286131e-01
2.974358974358974450e+00 2.210850745481287327e-07 8.054691632761876776e-06 9.999999996610465791e-01
3.076923076923076650e+00 2.597387437681887741e-06 2.335412671740595661e-06 9.999999999284139296e-01
3.179487179487179294e+00 -3.531722259011697377e-07 6.802824977301468535e-07 9.999999999899159553e-01
3.282051282051281937e+00 3.802201598465848077e-06 -3.960147329662229470e-07 9.999999999954447549e-01
3.384615384615384581e+00 2.881780224646105647e-06 -1.668299356677838298e-06 1.000000000001477929e+00
3.487179487179487225e+00 5.232228158066368773e-08 2.767922836477338260e-06 1.000000000004535261e+00
3.589743589743589425e+00 -2.391030934641969914e-06 -4.815329374967358126e-07 1.000000000004573009e+00
3.692307692307692069e+00 2.371549682428874475e-06 6.418060050896292296e-08 1.000000000004479972e+00
3.794871794871794712e+00 1.943355905024322525e-07 2.807060040018016262e-07 1.000000000010296430e+00
3.897435897435897356e+00 -2.982998186693432046e-06 1.811958268242381228e-06 1.000000000005545342e+00
4.000000000000000000e+00 1.349579017062159274e-06 6.006831714809253669e-07 1.000000000011430634e+00
