1.000000000000000056e-01 -2.510248194919177389e-01 -7.737772909080681272e-02 -9.648820651246352575e-01
2.000000000000000111e-01 -4.795678689146707918e-01 -1.584006289315077198e-01 -8.630873228993481971e-01
2.999999999999999889e-01 -6.652744721546627327e-01 -2.459183199644852380e-01 -7.049318920690386125e-01
4.000000000000000222e-01 -7.918356053906273617e-01 -3.413223498634251341e-01 -5.064485492138671718e-01
5.000000000000000000e-01 -8.485232955398676058e-01 -4.440589174904203129e-01 -2.877757419680356255e-01
5.999999999999999778e-01 -8.312029942246321745e-01 -5.513970211929537513e-01 -7.112347595910517573e-02
6.999999999999999556e-01 -7.427164611260148597e-01 -6.584936818409575787e-01 1.214693576776696565e-01
7.999999999999999334e-01 -5.926013588744576399e-01 -7.587654292658885247e-01 2.703625951415272177e-01
8.999999999999999112e-01 -3.961818778511393968e-01 -8.445203515861519072e-01 3.603098899318942228e-01
9.999999999999998890e-01 -1.731110838048721956e-01 -9.077960239878133386e-01 3.820174101397533772e-01
1.099999999999999867e+00 5.450463253040389866e-02 -9.413130549535821956e-01 3.331030886797166080e-01
1.199999999999999956e+00 2.641908400663033341e-01 -9.394216603590834769e-01 2.183784242068802228e-01
1.300000000000000044e+00 4.352479560456580798e-01 -8.989547005285964953e-01 4.938660461606261126e-02
1.399999999999999911e+00 5.507009014347901132e-01 -8.198590470498244853e-01 -1.567147830983590395e-01
1.500000000000000000e+00 5.989063417743283324e-01 -7.055368502621068849e-01 -3.788526733095445298e-01
1.599999999999999867e+00 5.746436411128714727e-01 -5.628308810302319332e-01 -5.941438687230614635e-01
1.699999999999999956e+00 4.795995357169098861e-01 -4.016495857093242972e-01 -7.801685398270987726e-01
1.800000000000000044e+00 3.221951095152029154e-01 -2.342254611984605217e-01 -9.172402270761370602e-01
1.899999999999999911e+00 1.167756407344543862e-01 -7.410831510195686755e-02 -9.903896877815501210e-01
2.000000000000000000e+00 -1.177636644673936694e-01 6.506618697439764398e-02 -9.909074426107892242e-01
2.099999999999999645e+00 -3.597760713040111247e-01 1.708648980188645639e-01 -9.172593995545964551e-01
2.199999999999999734e+00 -5.869205870390254987e-01 2.333105051162214783e-01 -7.752986262709246068e-01
2.299999999999999822e+00 -7.782808384573137728e-01 2.459515845732089534e-01 -5.777401337913701251e-01
2.399999999999999911e+00 -9.163432504663083789e-01 2.066273221403643612e-01 -3.429531964490269980e-01
2.500000000000000000e+00 -9.886475370931566697e-01 1.178569810156394754e-01 -9.318084398045582695e-02
2.600000000000000089e+00 -9.889530959681079869e-01 -1.321659859103929691e-02 1.476295154691134037e-01
2.699999999999999734e+00 -9.178140782638073425e-01 -1.753410987291981749e-01 3.561892797166703595e-01
2.799999999999999822e+00 -7.825045440325513191e-01 -3.540736053343599976e-01 5.121689811795450131e-01
2.899999999999999911e+00 -5.963102180571573374e-01 -5.330491935010730487e-01 6.002263097491852273e-01
3.000000000000000000e+00 -3.772497455423573509e-01 -6.954750813115916364e-01 6.115522871598590982e-01
