1.000000000000000056e-01 -1.154520715848010026e-01 -2.909194855628323140e-01 -9.497056543499802217e-01
2.000000000000000111e-01 -1.974647627550247808e-01 -5.539724625263862112e-01 -8.071141623935070841e-01
2.999999999999999889e-01 -2.222770711784837205e-01 -7.651759213982147756e-01 -5.943848275007880266e-01
4.000000000000000222e-01 -1.817440324446387701e-01 -9.070537033519838754e-01 -3.409054067338898042e-01
5.000000000000000000e-01 -8.409525791383565263e-02 -9.697792325796175117e-01 -7.603158577537472151e-02
5.999999999999999778e-01 4.947701850420405112e-02 -9.516133811255368391e-01 1.761081051315056267e-01
6.999999999999999556e-01 1.905045330639632550e-01 -8.593852530555043945e-01 3.988594646348405104e-01
7.999999999999999334e-01 3.099434286165595465e-01 -7.089179303062755899e-01 5.830615848626578002e-01
8.999999999999999112e-01 3.849109489926351713e-01 -5.241328595565658555e-01 7.260538923790904597e-01
9.999999999999998890e-01 4.042096381138973182e-01 -3.336810988752178520e-01 8.301457884209069160e-01
1.099999999999999867e+00 3.707916354819404958e-01 -1.649924365870196197e-01 9.010101476112253316e-01
1.199999999999999956e+00 2.997782963298019632e-01 -3.776335686859572105e-02 9.459732975795487331e-01
1.300000000000000044e+00 2.125357972216788127e-01 4.031050338134500866e-02 9.724834982081397294e-01
1.399999999999999911e+00 1.293953370902036770e-01 7.361436716857783225e-02 9.869658338897234762e-01
1.500000000000000000e+00 6.401458524592187893e-02 7.465160034866345773e-02 9.942787944041552306e-01
1.599999999999999867e+00 2.138600128615192331e-02 5.841699898984459294e-02 9.976827859193677650e-01
1.699999999999999956e+00 -7.007710152336765058e-04 3.754812197346935748e-02 9.991381912411314570e-01
1.800000000000000044e+00 -8.364686992244759964e-03 1.983986538692079915e-02 9.997072530115155287e-01
1.899999999999999911e+00 -8.265181046104321666e-03 8.200009476716677709e-03 9.999096723810657616e-01
2.000000000000000000e+00 -5.453846977800977380e-03 2.188205879596660190e-03 9.999747911978054127e-01
2.099999999999999645e+00 -2.734296992415443869e-03 -7.242454000859835372e-05 9.999935934837267393e-01
2.199999999999999734e+00 -1.034956734312734604e-03 -4.913605754926409939e-04 9.999984905361131160e-01
2.299999999999999822e+00 -2.671000433110801327e-04 -3.155046404417461651e-04 9.999996540666141742e-01
2.399999999999999911e+00 -3.259246166687883452e-05 -1.134659920309796463e-04 9.999999171301116041e-01
2.500000000000000000e+00 4.126585111113908463e-06 -1.905877308655826369e-05 9.999999786997738616e-01
2.600000000000000089e+00 -1.326016353795272051e-06 1.360314716558592332e-06 9.999999943896578092e-01
2.699999999999999734e+00 -3.199178065217680644e-07 7.005228306106764742e-07 9.999999985788553536e-01
2.799999999999999822e+00 -2.379561603139047869e-08 1.614962106753040844e-06 9.999999996573356587e-01
2.899999999999999911e+00 1.580587135622866502e-06 5.179245697724826383e-07 9.999999999219909563e-01
3.000000000000000000e+00 -8.642187261970189931e-07 -2.003742695467329203e-06 9.999999999846970189e-01
