1.000000000000000056e-01 1.629092654957714492e-02 3.527098928874741225e-03 -9.990299454559209424e-01
2.000000000000000111e-01 1.817399400795365787e-03 4.005041040567722450e-04 -9.958951999114108444e-01
2.999999999999999889e-01 2.218600826074552257e-05 5.031243580256837657e-06 -9.899560108693635785e-01
4.000000000000000222e-01 3.509100328167149982e-08 8.269833621317050378e-09 -9.802558508282249727e-01
5.000000000000000000e-01 7.570419053071251159e-12 1.862578359171070382e-12 -9.656691250169839869e-01
5.999999999999999778e-01 -1.127223530201891750e-15 -2.694170487638382834e-15 -9.450788403921895897e-01
6.999999999999999556e-01 -1.361952061925015060e-15 -8.856227255928984338e-15 -9.175572307244628245e-01
7.999999999999999334e-01 -1.884099968824614994e-15 -6.694349285866658896e-15 -8.825246162301930708e-01
8.999999999999999112e-01 3.295106559289616005e-16 -2.812335849231992847e-15 -8.398656803586033170e-01
9.999999999999998890e-01 -6.450818630937424535e-16 -5.682387217433821407e-15 -7.899817149020221807e-01
1.099999999999999867e+00 -2.693933690818649970e-15 -2.683030199595544406e-15 -7.337816090981601480e-01
1.199999999999999956e+00 -3.982695717019980103e-16 -9.993673993498119486e-16 -6.726083708454946297e-01
1.300000000000000044e+00 1.977814605535380614e-15 -1.636083715122699499e-15 -6.081171629406684209e-01
1.399999999999999911e+00 1.314634175120065580e-16 -2.490657743925357803e-16 -5.421273903038602571e-01
1.500000000000000000e+00 -7.479626515238787460e-16 -2.300922544319426287e-15 -4.764648962128013587e-01
1.599999999999999867e+00 -6.776188319150778492e-16 -1.558418807195860995e-15 -4.128196480936448531e-01
1.699999999999999956e+00 -1.154540812812900320e-16 -1.490107869851509614e-15 -3.526327955524298230e-01
1.800000000000000044e+00 -3.079310649258188355e-16 -1.183951250943688477e-15 -2.970233419847907452e-01
1.899999999999999911e+00 -2.196645897959299207e-17 -9.249530481123158222e-16 -2.467561523844911953e-01
2.000000000000000000e+00 -3.989397610555622037e-17 -1.138507245904278295e-15 -2.022458470597378322e-01
2.099999999999999645e+00 5.049994508036975765e-17 -5.716190970003810321e-16 -1.635926621961169281e-01
2.199999999999999734e+00 5.650308096442369305e-17 -3.413358921582467607e-16 -1.306365636114880102e-01
2.299999999999999822e+00 1.238468320390515724e-17 -4.844175932653030832e-16 -1.030204784122378675e-01
2.399999999999999911e+00 5.251906585238155976e-17 -3.597648434056761856e-16 -8.025461433478903173e-02
2.500000000000000000e+00 7.386964154570370498e-17 -1.905900534615692032e-16 -6.177569471409367907e-02
2.600000000000000089e+00 -7.765952981194070584e-18 -1.621647414650392086e-16 -4.699537074917822105e-02
2.699999999999999734e+00 4.981528980173458925e-17 -1.423385433919907401e-16 -3.533801890220582276e-02
2.799999999999999822e+00 5.209511119122208232e-18 -8.361576704948766425e-17 -2.626615182487884725e-02
2.899999999999999911e+00 -5.685429291637462716e-18 -8.681636343870574941e-17 -1.929677094633831455e-02
3.000000000000000000e+00 3.922812416452910663e-18 -5.108535296034460706e-17 -1.400956390528704243e-02
