1.000000000000000056e-01 9.351700048605871007e-02 9.141117203961289517e-03 -9.697828408821548285e-01
2.000000000000000111e-01 1.026854837441530492e-02 1.169325747094330115e-03 -8.827416682836177753e-01
2.999999999999999889e-01 1.220483171068482205e-04 1.734466396848347443e-05 -7.491221071836228207e-01
4.000000000000000222e-01 1.858300786568125700e-07 3.434133075446615159e-08 -5.841719264657974087e-01
5.000000000000000000e-01 3.814140313219415621e-11 9.382561940776272036e-12 -4.057829737655679891e-01
5.999999999999999778e-01 -4.418875179763456912e-16 -3.477117018193595431e-16 -2.318615298838639371e-01
6.999999999999999556e-01 -1.152527215846942279e-17 -3.873008984059245487e-16 -7.791853057832148766e-02
7.999999999999999334e-01 1.559774430479737370e-16 2.940889804181231982e-16 4.473295089060609631e-02
8.999999999999999112e-01 6.012865304377938290e-16 -9.563655789349939023e-17 1.299357575481251970e-01
9.999999999999998890e-01 -5.579017945682983602e-16 9.714439869013454262e-16 1.767278676323222886e-01
1.099999999999999867e+00 1.988609545879284399e-16 6.037078991024714204e-16 1.886252435203471245e-01
1.199999999999999956e+00 3.588266875171789351e-16 1.496564786449721370e-16 1.723610242760608147e-01
1.300000000000000044e+00 2.697488350316751890e-16 -1.604721677525500980e-16 1.363990795416799295e-01
1.399999999999999911e+00 9.952539335391397799e-17 9.991969550856388154e-17 8.950495542780563529e-02
1.500000000000000000e+00 -6.060787526166092289e-17 2.491487345514443676e-16 3.958620871438080918e-02
1.599999999999999867e+00 8.387683155662380910e-19 -4.423395020132148487e-17 -7.086022912353019503e-03
1.699999999999999956e+00 -1.221593201277091196e-17 -1.832665357160932452e-16 -4.622853514850013695e-02
1.800000000000000044e+00 -1.168607865059729354e-16 -1.882288877957708061e-16 -7.554455608667649813e-02
1.899999999999999911e+00 -1.907585294555545360e-17 -4.072909594184947162e-16 -9.445403260539901591e-02
2.000000000000000000e+00 -5.734167077197216335e-17 -5.382965102594401088e-16 -1.036758688117662974e-01
2.099999999999999645e+00 -3.563797201644794323e-17 -3.762864017172462130e-16 -1.047603967908973255e-01
2.199999999999999734e+00 4.695026277970390234e-17 -2.000238493824585726e-16 -9.965889804408298303e-02
2.299999999999999822e+00 -2.632587112728238020e-17 -3.086912170218574726e-16 -9.037730925078386879e-02
2.399999999999999911e+00 -2.884782018632482371e-17 -2.655707258445845722e-16 -7.873393278262021122e-02
2.500000000000000000e+00 -2.549876091298183594e-17 -2.340790892580517806e-16 -6.622112670769433884e-02
2.600000000000000089e+00 -1.743806783682207554e-17 -1.707074974996950796e-16 -5.395099418698126592e-02
2.699999999999999734e+00 -5.947088423408143434e-18 -1.976971086085701975e-16 -4.266704273106861761e-02
2.799999999999999822e+00 -1.800306184935168226e-17 -4.959757843818555660e-17 -3.279290418791935141e-02
2.899999999999999911e+00 -5.184067190865792681e-18 -9.198391875698907562e-17 -2.450062037739490425e-02
3.000000000000000000e+00 -2.852605976252346146e-18 -5.657999414976423752e-17 -1.778057691105550120e-02
