0.000000000000000000e+00 -7.888995530940134885e-12 9.697165630283461739e-12 -1.000000000000000000e+00
1.025641025641025605e-01 -2.090793135458425267e-01 2.376315591321440934e-01 -9.484781304168707905e-01
2.051282051282051211e-01 -4.150897215266917128e-01 4.269838177969870752e-01 -8.022028191824428500e-01
3.076923076923077094e-01 -6.100166672476868834e-01 5.308192196730062706e-01 -5.832146860004253641e-01
4.102564102564102422e-01 -7.776701982749891773e-01 5.302976155654682833e-01 -3.209717339974747508e-01
5.128205128205127750e-01 -8.946839211732637853e-01 4.283818610051213227e-01 -4.603317210311223123e-02
6.153846153846154188e-01 -9.371367636734930784e-01 2.498306637402964991e-01 2.147709251860109303e-01
7.179487179487179516e-01 -8.907949231384253430e-01 3.651659085360528523e-02 4.418434516965226710e-01
8.205128205128204844e-01 -7.597708902590025737e-01 -1.629828868034468858e-01 6.245994517888411313e-01
9.230769230769230171e-01 -5.684661662279756333e-01 -3.070503514979547877e-01 7.611548959261108527e-01
1.025641025641025550e+00 -3.552266509416136531e-01 -3.727277047399546461e-01 8.561531991485453741e-01
1.128205128205128194e+00 -1.604790582655514219e-01 -3.606437565009145696e-01 9.177905099338555805e-01
1.230769230769230838e+00 -1.442425922193172477e-02 -2.915728849286566282e-01 9.551253886232995427e-01
1.333333333333333259e+00 7.041979292029502957e-02 -1.964344438028796658e-01 9.762586520973277615e-01
1.435897435897435903e+00 9.945647427599695056e-02 -1.046013565104671333e-01 9.874683644250653591e-01
1.538461538461538325e+00 8.995821809782855727e-02 -3.533972042937529034e-02 9.930832736625923030e-01
1.641025641025640969e+00 6.243572356057000561e-02 5.051386934034410303e-03 9.957988303516090989e-01
1.743589743589743613e+00 3.342465632727529418e-02 2.062822271028480828e-02 9.971334776711562320e-01
1.846153846153846034e+00 1.201674216509296227e-02 2.054108765480022747e-02 9.978632568162024707e-01
1.948717948717948678e+00 3.615077455781136317e-04 1.391300022771670836e-02 9.983416275526048045e-01
2.051282051282051100e+00 -3.705412287152740763e-03 6.915784234864009658e-03 9.987097275226867188e-01
2.153846153846153744e+00 -3.631032169769414421e-03 2.211848285434278409e-03 9.990143184831916656e-01
2.256410256410256387e+00 -2.212936658318538988e-03 9.521808495999714919e-06 9.992672142622285314e-01
2.358974358974359031e+00 -9.361573877801876963e-04 -5.802995686590840634e-04 9.994714172686024467e-01
2.461538461538461675e+00 -2.288371168538803771e-04 -4.724023880312684881e-04 9.996301588221579992e-01
2.564102564102563875e+00 3.020304348691005888e-05 -2.350581608037844708e-04 9.997488197489721173e-01
2.666666666666666519e+00 6.529652047826975609e-05 -7.697282171991893661e-05 9.998342454707662696e-01
2.769230769230769162e+00 4.117062350991303269e-05 -1.137168536936994384e-05 9.998936069755128830e-01
2.871794871794871806e+00 1.107316401034645407e-05 6.450814303096261943e-06 9.999335100016336630e-01
2.974358974358974450e+00 2.648341644610949186e-06 6.616826444234716757e-06 9.999595058696114647e-01
3.076923076923076650e+00 1.500516039261766768e-06 4.139874362355212497e-06 9.999759465823798710e-01
3.179487179487179294e+00 -3.481612356747991690e-07 2.726644519742119126e-06 9.999860544164054232e-01
3.282051282051281937e+00 2.122246423856516046e-06 -6.379442715764504314e-08 9.999921028524902944e-01
3.384615384615384581e+00 -1.300523312041558558e-06 -2.285381903053121951e-06 9.999956292793285018e-01
3.487179487179487225e+00 2.206783080624260973e-06 2.608084385759670885e-06 9.999976344329342126e-01
3.589743589743589425e+00 -1.267823734432497431e-06 -9.184303272343290916e-07 9.999987472715908821e-01
3.692307692307692069e+00 1.891508472059916825e-06 2.836185775649004493e-06 9.999993505537914107e-01
3.794871794871794712e+00 2.799116828039770389e-06 1.149229398292242528e-06 9.999996702406880322e-01
3.897435897435897356e+00 5.245371113017152132e-07 -5.973527668380617702e-07 9.999998359353674537e-01
4.000000000000000000e+00 1.157495380477962380e-06 5.351607037120377510e-08 9.999999199819223916e-01
