0.000000000000000000e+00 -7.863817275965387580e-12 9.736760381224202932e-12 -1.000000000000000000e+00
1.025641025641025605e-01 -2.083926373753080541e-01 2.385753165638434259e-01 -9.482912977835703527e-01
2.051282051282051211e-01 -4.134129756036025172e-01 4.284812884680725409e-01 -8.016471709906518583e-01
3.076923076923077094e-01 -6.066982562636538123e-01 5.323976260573435315e-01 -5.826521409418181641e-01
4.102564102564102422e-01 -7.722153073172191018e-01 5.319771416176631851e-01 -3.212678125286146380e-01
5.128205128205127750e-01 -8.876070642699946944e-01 4.307908442397072046e-01 -4.790144865196563351e-02
6.153846153846154188e-01 -9.300888070461711399e-01 2.534667803389578644e-01 2.114605347310626049e-01
7.179487179487179516e-01 -8.855389266874095222e-01 4.094901362027408842e-02 4.380285784981155506e-01
8.205128205128204844e-01 -7.569606672297984895e-01 -1.588771347579943372e-01 6.213365527015864975e-01
9.230769230769230171e-01 -5.674789093020359276e-01 -3.041453398636777550e-01 7.589702015840721350e-01
1.025641025641025550e+00 -3.550129751850550353e-01 -3.710769408390949264e-01 8.549296167602534746e-01
1.128205128205128194e+00 -1.603641421840255044e-01 -3.597170625209138439e-01 9.170986557155720309e-01
1.230769230769230838e+00 -1.431892938502984242e-02 -2.908781748565820169e-01 9.545280999219200035e-01
1.333333333333333259e+00 7.036514064077850628e-02 -1.958163209312479558e-01 9.754973569304712377e-01
1.435897435897435903e+00 9.918651677219471330e-02 -1.041528680053236261e-01 9.864711574876177114e-01
1.538461538461538325e+00 8.958953115708133408e-02 -3.515779855525736491e-02 9.919013215737835232e-01
1.641025641025640969e+00 6.214239141929836507e-02 4.989585919762326571e-03 9.945345033678753000e-01
1.743589743589743613e+00 3.328900156766791130e-02 2.046251227890468621e-02 9.958918598044312898e-01
1.846153846153846034e+00 1.202377193458797379e-02 2.038778870195631643e-02 9.967249960948008081e-01
1.948717948717948678e+00 4.321167082666395320e-04 1.383815183390231865e-02 9.973558101702674206e-01
2.051282051282051100e+00 -3.636100482499505376e-03 6.907669266365243192e-03 9.978965856412993496e-01
2.153846153846153744e+00 -3.596349331669202939e-03 2.234443121929208936e-03 9.983718176037021941e-01
2.256410256410256387e+00 -2.202619228578521406e-03 3.367148938051450248e-05 9.987789521725353170e-01
2.358974358974359031e+00 -9.449520171461000661e-04 -5.628632750551846101e-04 9.991134709876727804e-01
2.461538461538461675e+00 -2.315143815663392272e-04 -4.718045727260997114e-04 9.993764496709491851e-01
2.564102564102563875e+00 2.793818108418240093e-05 -2.351257126389764312e-04 9.995746359562558414e-01
2.666666666666666519e+00 6.466398153122017987e-05 -7.639221414363764676e-05 9.997182342931467680e-01
2.769230769230769162e+00 3.892773234158157145e-05 -1.252769232374030905e-05 9.998185506776297027e-01
2.871794871794871806e+00 1.174340470441856662e-05 4.584690210572290374e-06 9.998862835091826273e-01
2.974358974358974450e+00 5.476171112911599308e-07 4.021951809678767930e-06 9.999305752805088821e-01
3.076923076923076650e+00 6.749216370043775922e-07 3.648243784399105909e-06 9.999586754977882741e-01
3.179487179487179294e+00 -2.113042226360640797e-06 2.483781080175577883e-06 9.999759976634096104e-01
3.282051282051281937e+00 3.062294151880790549e-06 2.568336325139120917e-06 9.999863865081658476e-01
3.384615384615384581e+00 -3.332897171423331080e-07 1.246058358278804655e-06 9.999924552012496859e-01
3.487179487179487225e+00 -2.339233140367843881e-07 7.505314243749758893e-08 9.999959115700711720e-01
3.589743589743589425e+00 -3.475859597115281096e-06 -2.262972519464015368e-06 9.999978325689680148e-01
3.692307692307692069e+00 -1.456207776692470789e-06 2.490928167971802118e-06 9.999988752773589784e-01
3.794871794871794712e+00 1.254390810292822385e-06 2.196399631626350886e-07 9.999994284213703510e-01
3.897435897435897356e+00 -1.676825737840711178e-06 -2.388606838565706111e-06 9.999997153888898760e-01
4.000000000000000000e+00 -9.435973603757233918e-07 -2.253048294807340904e-06 9.999998610842124602e-01
