0.000000000000000000e+00 8.127072092351219227e-12 9.292130718233545382e-12 -1.000000000000000000e+00
1.025641025641025605e-01 2.142412058114092077e-01 2.256558250563614199e-01 -9.483297693683002683e-01
2.051282051282051211e-01 4.198721952513046474e-01 3.954545964550810200e-01 -8.043539751273633964e-01
3.076923076923077094e-01 6.042429436832820189e-01 4.721564692252239182e-01 -5.958187727821920854e-01
4.102564102564102422e-01 7.501670861421626535e-01 4.460471845555417092e-01 -3.553625887319766807e-01
5.128205128205127750e-01 8.393994255155762252e-01 3.325179931863326832e-01 -1.103997858599180953e-01
6.153846153846154188e-01 8.580244786952476721e-01 1.634878360089148941e-01 1.207053716003586991e-01
7.179487179487179516e-01 8.015551842315917774e-01 -2.202232195410563920e-02 3.272009101903862183e-01
8.205128205128204844e-01 6.781833913839782069e-01 -1.862350838004849796e-01 5.026664093848430825e-01
9.230769230769230171e-01 5.088593577772720922e-01 -2.998854060227585383e-01 6.426753721138757092e-01
1.025641025641025550e+00 3.234321224940730488e-01 -3.478887628320423975e-01 7.443720675283118648e-01
1.128205128205128194e+00 1.533597051924388555e-01 -3.318954036863576151e-01 8.075157616933833493e-01
1.230769230769230838e+00 2.337867160171552480e-02 -2.683413739499807549e-01 8.355555442522861753e-01
1.333333333333333259e+00 -5.476437738867533100e-02 -1.821058573057350860e-01 8.356329387042673584e-01
1.435897435897435903e+00 -8.378793740869293349e-02 -9.803531457359659917e-02 8.172162560612059590e-01
1.538461538461538325e+00 -7.731867490452680458e-02 -3.361532346485138212e-02 7.901186378960232126e-01
1.641025641025640969e+00 -5.319199564792023716e-02 4.428485666106735108e-03 7.627787298569821406e-01
1.743589743589743613e+00 -2.684940871739399659e-02 1.899382054451666246e-02 7.413136895308408691e-01
1.846153846153846034e+00 -7.450767345062543276e-03 1.837063940005402227e-02 7.293244904207962787e-01
1.948717948717948678e+00 2.526616339464929015e-03 1.145515381577437430e-02 7.281846652113393992e-01
2.051282051282051100e+00 5.112249682126895900e-03 4.531764066521776560e-03 7.375317111073774745e-01
2.153846153846153744e+00 3.901720450577479855e-03 2.997462617562751154e-04 7.557922343837119028e-01
2.256410256410256387e+00 1.827796978957508395e-03 -1.207098716824656689e-03 7.806697068201398082e-01
2.358974358974359031e+00 3.766833082478427764e-04 -1.134529837339639038e-03 8.095741443034157880e-01
2.461538461538461675e+00 -2.157623072043636037e-04 -5.931831641316905003e-04 8.399838860373062266e-01
2.564102564102563875e+00 -2.725728372371871364e-04 -1.644089775332301725e-04 8.697226010843490673e-01
2.666666666666666519e+00 -1.495323454148212480e-04 2.068918579588607299e-05 8.971351463519843250e-01
2.769230769230769162e+00 -4.750462090008698520e-05 5.302545879464191393e-05 9.211559065206191832e-01
2.871794871794871806e+00 -2.874843108317427375e-06 3.212387014534387805e-05 9.412808683947117006e-01
2.974358974358974450e+00 4.357019042114159924e-06 9.902386862042061364e-06 9.574702181165973824e-01
3.076923076923076650e+00 7.794523381341018515e-06 3.547739549868951759e-06 9.700160583891497268e-01
3.179487179487179294e+00 1.571486426195060257e-06 -8.276798843210282531e-07 9.794068457902104230e-01
3.282051282051281937e+00 -4.396402823429161661e-06 5.624351172050460510e-07 9.862112742215499717e-01
3.384615384615384581e+00 -7.395850525654806430e-07 1.172376875719200071e-06 9.909927813703195421e-01
3.487179487179487225e+00 4.491018639805945314e-06 1.780186584783719303e-06 9.942563372851797032e-01
3.589743589743589425e+00 2.386284883994508195e-07 1.016370155157246976e-06 9.964226857945247540e-01
3.692307692307692069e+00 9.225458418210010970e-07 2.057157946989077930e-06 9.978227756677990890e-01
3.794871794871794712e+00 1.730273437160219321e-06 -1.304555592809838064e-06 9.987045577365336602e-01
3.897435897435897356e+00 2.195153665035639460e-06 -1.547395846390497824e-06 9.992461788499786834e-01
4.000000000000000000e+00 -4.197420818305590598e-07 1.574279760977279683e-06 9.995708504770661751e-01
