1.000000000000000056e-01 2.297176790798946544e-01 1.338871205595079661e-01 -9.630353124623771688e-01
2.000000000000000111e-01 4.485943385048203336e-01 2.288884080144251709e-01 -8.580007250859242873e-01
2.999999999999999889e-01 6.432308393995794793e-01 2.564589918553263903e-01 -7.002006630776128615e-01
4.000000000000000222e-01 7.970438547849483246e-01 2.048008322717509988e-01 -5.090156039133718613e-01
5.000000000000000000e-01 8.920457677112838546e-01 8.001770325873841516e-02 -3.026213631161736028e-01
5.999999999999999778e-01 9.124274337855539097e-01 -9.659234332315042026e-02 -9.504244383292166642e-02
6.999999999999999556e-01 8.489148818650746886e-01 -2.929648198811745652e-01 1.040505581239160732e-01
7.999999999999999334e-01 7.032430275849461676e-01 -4.714961023036770560e-01 2.881505374493262828e-01
8.999999999999999112e-01 4.916244478467242107e-01 -5.955127407692089037e-01 4.525973011601677753e-01
9.999999999999998890e-01 2.453548991584034722e-01 -6.373059038991653047e-01 5.940048004028847251e-01
1.099999999999999867e+00 6.458705393529051708e-03 -5.863731016892409498e-01 7.104536650057413638e-01
1.199999999999999956e+00 -1.819704591513359171e-01 -4.546274345772194914e-01 8.018252146787143708e-01
1.300000000000000044e+00 -2.883487946830916027e-01 -2.750173728214804214e-01 8.699165650262317140e-01
1.399999999999999911e+00 -3.029848182790250144e-01 -9.233167889662745320e-02 9.180653711681312501e-01
1.500000000000000000e+00 -2.413402791149691917e-01 5.103841507761899821e-02 9.503948082137612108e-01
1.599999999999999867e+00 -1.380002739943881340e-01 1.288664649854175670e-01 9.710582294646381563e-01
1.699999999999999956e+00 -3.365011840819137623e-02 1.384874094079653895e-01 9.836679655506445075e-01
1.800000000000000044e+00 3.956702369017200960e-02 9.878229627545950797e-02 9.910483326498258361e-01
1.899999999999999911e+00 6.790199663095590477e-02 4.006420104141460159e-02 9.952101416735534833e-01
2.000000000000000000e+00 5.738909507937702686e-02 -9.258827076675517354e-03 9.974834015272804333e-01
2.099999999999999645e+00 2.698594559153447842e-02 -3.318373158011080071e-02 9.986932615822029513e-01
2.199999999999999734e+00 -2.475179084179345013e-03 -3.138752857494339632e-02 9.993246575400853704e-01
2.299999999999999822e+00 -1.778741719128828017e-02 -1.495091948014875063e-02 9.996501693616691719e-01
2.399999999999999911e+00 -1.709217319173244806e-02 2.128025141188098074e-03 9.998171317565012206e-01
2.500000000000000000e+00 -7.216177829627484601e-03 1.062151795966951272e-02 9.999029864769228837e-01
2.600000000000000089e+00 2.655959058425452247e-03 9.274349300716572611e-03 9.999474502180187852e-01
2.699999999999999734e+00 6.745862034885372407e-03 2.792885438025393460e-03 9.999709072241083074e-01
2.799999999999999822e+00 4.816172008093970447e-03 -2.804499845225499628e-03 9.999834949796609918e-01
2.899999999999999911e+00 4.441757371735329321e-04 -4.268768313609388500e-03 9.999904049413191887e-01
3.000000000000000000e+00 -2.509624367740165805e-03 -2.190579873397258820e-03 9.999943001183723146e-01
