1.000000000000000056e-01 -1.296974948698183527e-01 -2.366495057794117396e-01 -9.614067182014829349e-01
2.000000000000000111e-01 -2.741330588575549565e-01 -4.308218994191789775e-01 -8.517962708507275105e-01
2.999999999999999889e-01 -4.376662636866937572e-01 -5.459646552420732712e-01 -6.878852008656662909e-01
4.000000000000000222e-01 -6.081586274011825388e-01 -5.576820652044609528e-01 -4.923279563205649745e-01
5.000000000000000000e-01 -7.576863588937383653e-01 -4.596409242804388451e-01 -2.881619412875328079e-01
5.999999999999999778e-01 -8.501371471355445575e-01 -2.674039643990506199e-01 -9.422030757056469585e-02
6.999999999999999556e-01 -8.532306140651126913e-01 -1.808298527813534395e-02 7.730987432710759166e-02
7.999999999999999334e-01 -7.511129624698319462e-01 2.357225119355409459e-01 2.211383618653759708e-01
8.999999999999999112e-01 -5.531747817225711739e-01 4.374896849445217839e-01 3.375572928221384217e-01
9.999999999999998890e-01 -2.954915425893768210e-01 5.417569947570181066e-01 4.304444163089748421e-01
1.099999999999999867e+00 -3.307302706282475024e-02 5.281335152455942650e-01 5.053126713146847138e-01
1.199999999999999956e+00 1.759137607247146240e-01 4.091613666389982140e-01 5.677182503992582729e-01
1.300000000000000044e+00 2.891935818434741012e-01 2.274968468986363623e-01 6.222752892070453345e-01
1.399999999999999911e+00 2.952404112250954782e-01 4.167458441863530760e-02 6.721593984434798275e-01
1.500000000000000000e+00 2.167692494296047101e-01 -9.511489258792371615e-02 7.190775956998632923e-01
1.599999999999999867e+00 1.002343385046460672e-01 -1.542302160287841173e-01 7.634973161436223732e-01
1.699999999999999956e+00 -4.525197017102952635e-03 -1.397145667301725735e-01 8.050713744142156125e-01
1.800000000000000044e+00 -6.446644428853390285e-02 -8.145398401175232839e-02 8.430678748537755451e-01
1.899999999999999911e+00 -7.342358385178575364e-02 -1.756767836190869375e-02 8.767471588788604553e-01
2.000000000000000000e+00 -4.807827340158778162e-02 2.394024270285126724e-02 9.056098253947618693e-01
2.099999999999999645e+00 -1.390550851713672278e-02 3.475477497478364486e-02 9.295076470905341282e-01
2.199999999999999734e+00 9.496488581205480423e-03 2.377822200126940982e-02 9.486364115370128358e-01
2.299999999999999822e+00 1.586912314710417146e-02 6.649630745681404768e-03 9.634583370697940019e-01
2.399999999999999911e+00 1.034749372249364752e-02 -4.754412681517116573e-03 9.745942196066814667e-01
2.500000000000000000e+00 2.030903583604800038e-03 -7.147555256835134638e-03 9.827218910920346717e-01
2.600000000000000089e+00 -2.789706198752099284e-03 -3.890541081055199843e-03 9.884941097263499898e-01
2.699999999999999734e+00 -3.057658079146530899e-03 -4.617264112634746412e-05 9.924901074835152937e-01
2.799999999999999822e+00 -1.115929352980647195e-03 1.580309866370415957e-03 9.951908780542112476e-01
2.899999999999999911e+00 4.654317347985139014e-04 1.127131449954802767e-03 9.969756745758427963e-01
3.000000000000000000e+00 7.576451014284237527e-04 1.051426007347167632e-04 9.981304147026531792e-01
