0.000000000000000000e+00 -7.879035468357181629e-12 9.707545284783283480e-12 -1.000000000000000000e+00
1.025641025641025605e-01 -2.088877455241712755e-01 2.378946509669218057e-01 -9.485291713268642066e-01
2.051282051282051211e-01 -4.150297242189233682e-01 4.276045831821145837e-01 -8.023045199740488354e-01
3.076923076923077094e-01 -6.106473435118970894e-01 5.318226040700413382e-01 -5.830951002148474505e-01
4.102564102564102422e-01 -7.791953533780709984e-01 5.313563074447207324e-01 -3.202620957175741911e-01
5.128205128205127750e-01 -8.962889853395339390e-01 4.290778368893407579e-01 -4.491139556674891842e-02
6.153846153846154188e-01 -9.375234273822975473e-01 2.504757848232543882e-01 2.153102119152615346e-01
7.179487179487179516e-01 -8.897313453510495851e-01 3.817134598308052906e-02 4.406990375533247906e-01
8.205128205128204844e-01 -7.585923960496635532e-01 -1.598111797633477160e-01 6.216663320731454778e-01
9.230769230769230171e-01 -5.686759431353628491e-01 -3.033164755431981829e-01 7.574349961999015113e-01
1.025641025641025550e+00 -3.570105409715115252e-01 -3.700346542925027071e-01 8.529486324771060612e-01
1.128205128205128194e+00 -1.627223605100911741e-01 -3.598161117443275936e-01 9.159489000905356448e-01
1.230769230769230838e+00 -1.596955959039320777e-02 -2.922075752294657214e-01 9.547976467855289195e-01
1.333333333333333259e+00 6.998633058920275540e-02 -1.975526582823748101e-01 9.771529680667786488e-01
1.435897435897435903e+00 9.983091289308446137e-02 -1.054174058576705514e-01 9.891543569003801162e-01
1.538461538461538325e+00 9.059681196693954164e-02 -3.558394973980359005e-02 9.951656513935684956e-01
1.641025641025640969e+00 6.291099344502518176e-02 5.233088775584177066e-03 9.979792736451630342e-01
1.743589743589743613e+00 3.359641405797007124e-02 2.095690372439988625e-02 9.992087002109933946e-01
1.846153846153846034e+00 1.196335159199458584e-02 2.079747127965038064e-02 9.997104466372710441e-01
1.948717948717948678e+00 2.216140120428946453e-04 1.402689462860124726e-02 9.999012346412714525e-01
2.051282051282051100e+00 -3.824199954292458771e-03 6.913876403232719139e-03 9.999687179795323511e-01
2.153846153846153744e+00 -3.687648574052086650e-03 2.167899335841389028e-03 9.999908390044534023e-01
2.256410256410256387e+00 -2.225611141643428926e-03 -3.570849964396874063e-05 9.999975209043120428e-01
2.358974358974359031e+00 -9.269811066257005721e-04 -6.011372251905590857e-04 9.999993894285659213e-01
2.461538461538461675e+00 -2.138910994633997720e-04 -4.822735923941013519e-04 9.999998608064285532e-01
2.564102564102563875e+00 3.731816701472640062e-05 -2.355030817989419399e-04 9.999999715753591367e-01
2.666666666666666519e+00 7.012645568910556219e-05 -7.780387915657020303e-05 9.999999945191653250e-01
2.769230769230769162e+00 4.111197124968387555e-05 -1.365504055675865932e-05 9.999999990684791396e-01
2.871794871794871806e+00 1.716781554516019949e-05 7.905463596987877194e-06 9.999999998275665991e-01
2.974358974358974450e+00 4.299941738569009318e-06 3.359262378926219803e-06 9.999999999910976767e-01
3.076923076923076650e+00 2.058908809928235427e-06 2.076894345037470299e-06 1.000000000002841505e+00
3.179487179487179294e+00 5.191316985617495332e-07 3.411918722111524002e-06 1.000000000000412559e+00
3.282051282051281937e+00 -1.201276161046508744e-06 2.928638034739821777e-06 1.000000000000762279e+00
3.384615384615384581e+00 -3.262170668427042019e-07 -1.595531704053798061e-06 1.000000000006173284e+00
3.487179487179487225e+00 3.105298588527866386e-06 2.239089906881920432e-06 9.999999999999035216e-01
3.589743589743589425e+00 -2.894594842880015480e-06 -2.128471165309953011e-06 1.000000000002564393e+00
3.692307692307692069e+00 5.033091046337493139e-07 1.858310338008117835e-06 1.000000000006409318e+00
3.794871794871794712e+00 -1.178587301490519980e-06 -3.798537149591818856e-07 1.000000000008365753e+00
3.897435897435897356e+00 -3.233039850868273287e-06 -2.235661359423439978e-06 1.000000000003915090e+00
4.000000000000000000e+00 -6.263959654691805740e-08 -2.421881483103286256e-06 1.000000000009320100e+00
