0.000000000000000000e+00 -2.840272375080333803e-09 -2.796084955826601972e-09 -1.000000000000000000e+00
1.333333333333333315e-01 -1.225147794394540468e-01 -4.783185108234280225e-01 -8.695958445486147159e-01
2.666666666666666630e-01 -1.771611663995917296e-01 -8.321549228846240043e-01 -5.254739630925369109e-01
4.000000000000000222e-01 -1.423588368194084741e-01 -9.863450486164585529e-01 -8.274036933403750016e-02
5.333333333333333259e-01 -5.224911226524781016e-02 -9.407048967368351056e-01 3.351622224804807204e-01
6.666666666666666297e-01 3.456206587882593162e-02 -7.597827252560346301e-01 6.492516980660236747e-01
8.000000000000000444e-01 7.731621212961786727e-02 -5.340309890306322860e-01 8.419192206641514797e-01
9.333333333333333481e-01 7.268816199153918522e-02 -3.362809407769891124e-01 9.389507717007105070e-01
1.066666666666666652e+00 4.333680521996206847e-02 -1.983773694925860254e-01 9.791663089281361643e-01
1.199999999999999956e+00 1.361571496166713580e-02 -1.160727055430019888e-01 9.931469070179264058e-01
1.333333333333333259e+00 -5.193557772996761773e-03 -6.980791262089164340e-02 9.975466392300763596e-01
1.466666666666666563e+00 -1.370998962246864142e-02 -4.251299418668847557e-02 9.990016502966094780e-01
1.600000000000000089e+00 -1.632781615316594714e-02 -2.516302093738586806e-02 9.995498778204735535e-01
1.733333333333333393e+00 -1.605502101000048920e-02 -1.393212990556751303e-02 9.997739430295707885e-01
1.866666666666666696e+00 -1.426671928349971391e-02 -6.700636118120678435e-03 9.998756989863002431e-01
2.000000000000000000e+00 -1.183426912493196204e-02 -1.986153183449062415e-03 9.999279418372850614e-01
2.133333333333333304e+00 -9.379737333006503419e-03 1.024309659745228224e-03 9.999554377368485847e-01
2.266666666666666607e+00 -7.129279123729586123e-03 2.769493141038264009e-03 9.999707123315960677e-01
2.399999999999999911e+00 -5.097236992871752477e-03 3.652964646101421360e-03 9.999803043199254615e-01
2.533333333333333215e+00 -3.355950678494378642e-03 4.016606322253530106e-03 9.999862744524563585e-01
2.666666666666666519e+00 -1.962327683064338853e-03 4.024101633752952441e-03 9.999899537989859200e-01
2.799999999999999822e+00 -8.646841027440308435e-04 3.751698013384433244e-03 9.999925674746981130e-01
2.933333333333333126e+00 6.755113261944526923e-06 3.332671536051496318e-03 9.999944280836725596e-01
3.066666666666666430e+00 6.640533256815718327e-04 2.868407904841292939e-03 9.999956490753637572e-01
3.200000000000000178e+00 1.103842018809129879e-03 2.382593852164646697e-03 9.999965374460976220e-01
3.333333333333333481e+00 1.387402389092908320e-03 1.870915332975687725e-03 9.999972739673749222e-01
3.466666666666666785e+00 1.569897786729032184e-03 1.390006039935866083e-03 9.999977894423369706e-01
3.600000000000000089e+00 1.649083069148830731e-03 9.703070780742101883e-04 9.999981582573616024e-01
3.733333333333333393e+00 1.637094924185810308e-03 5.911495105742797015e-04 9.999984748790642364e-01
3.866666666666666696e+00 1.562793727553711109e-03 2.505500896537648722e-04 9.999987379461195980e-01
4.000000000000000000e+00 1.463924482925677440e-03 -4.135405549964151460e-05 9.999989187367849253e-01
4.133333333333332860e+00 1.337586422897356873e-03 -2.638890636513209834e-04 9.999990622857402034e-01
4.266666666666666607e+00 1.172684479125519000e-03 -4.419690575439381031e-04 9.999992070125475196e-01
4.400000000000000355e+00 1.000105076869859050e-03 -5.956959742563186673e-04 9.999993152447431699e-01
4.533333333333333215e+00 8.425932635277534263e-04 -7.091240437679282964e-04 9.999993867162401129e-01
4.666666666666666963e+00 6.805004648205110812e-04 -7.727625426354349297e-04 9.999994634072372213e-01
4.799999999999999822e+00 5.113620032654918410e-04 -8.108301428802010659e-04 9.999995344685321808e-01
4.933333333333333570e+00 3.561777247410519501e-04 -8.355825565967828477e-04 9.999995816957271133e-01
5.066666666666666430e+00 2.261432890737022242e-04 -8.338302208908656343e-04 9.999996212685186014e-01
5.200000000000000178e+00 1.049088385140560742e-04 -8.057331381613296994e-04 9.999996646664798261e-01
