0.000000000000000000e+00 -1.906774380312207424e-09 3.375287632701875274e-09 -1.000000000000000000e+00
1.333333333333333315e-01 3.552714582058533743e-01 -3.719073124547621068e-01 -8.575909371594958586e-01
2.666666666666666630e-01 6.583129670698912861e-01 -5.755803267166448300e-01 -4.850996369647813666e-01
4.000000000000000222e-01 8.438690732777998083e-01 -5.363312567684195287e-01 -1.490338067851183952e-02
5.333333333333333259e-01 8.554216322960999097e-01 -3.101586170935283215e-01 4.147833813115247570e-01
6.666666666666666297e-01 6.913362285350980185e-01 -4.082859376158473608e-02 7.213738109691609779e-01
8.000000000000000444e-01 4.265536716083657143e-01 1.348549197850327785e-01 8.943500481386081891e-01
9.333333333333333481e-01 1.762437700990964751e-01 1.671658279124684232e-01 9.700472430458135786e-01
1.066666666666666652e+00 2.462972270890121523e-02 1.030123067384781654e-01 9.943746572886934532e-01
1.199999999999999956e+00 -2.010243522155602883e-02 2.683952154415784885e-02 9.994374579224637456e-01
1.333333333333333259e+00 -8.430886129376650301e-03 -9.227580666489100872e-03 9.999218216581677865e-01
1.466666666666666563e+00 6.100268454607763596e-03 -8.103325321596775016e-03 9.999485093287683313e-01
1.600000000000000089e+00 4.896334362809009848e-03 1.435879122632693645e-03 9.999869545531943071e-01
1.733333333333333393e+00 -1.805645852234855422e-03 2.483267041974327165e-03 9.999952690414358747e-01
1.866666666666666696e+00 -2.881674579964466944e-03 -1.323705405880422261e-03 9.999949538661262460e-01
2.000000000000000000e+00 1.474320813712422847e-04 -1.937890444808685166e-03 9.999980998345719962e-01
2.133333333333333304e+00 1.132591004397921763e-03 4.914777078512543203e-04 9.999992300973320480e-01
2.266666666666666607e+00 -4.553553027002990236e-04 1.409229208295663394e-03 9.999988942483717391e-01
2.399999999999999911e+00 -1.094739233507544202e-03 9.280400657690128334e-05 9.999993894881772372e-01
2.533333333333333215e+00 6.868162205936952525e-05 -6.314704336580886836e-04 9.999997940025560084e-01
2.666666666666666519e+00 7.898400806596984165e-04 1.919664988190415309e-04 9.999996643340159919e-01
2.799999999999999822e+00 1.223196253303696990e-04 7.391360538412466118e-04 9.999997144174543884e-01
2.933333333333333126e+00 -4.149507302877023570e-04 1.071117732164861844e-04 9.999999051629402391e-01
3.066666666666666430e+00 6.502703491066539514e-05 -4.573984493464655003e-04 9.999998900694673232e-01
3.200000000000000178e+00 5.355031991244929351e-04 -9.128335692320485887e-05 9.999998487437696815e-01
3.333333333333333481e+00 1.762238592700404391e-04 3.292351694309589966e-04 9.999999276167915729e-01
3.466666666666666785e+00 -2.678292655976580432e-04 3.097141239797606446e-05 9.999999616721904072e-01
3.600000000000000089e+00 -5.398101226259061167e-05 -3.761082018890487709e-04 9.999999251151883151e-01
3.733333333333333393e+00 2.934317774281520498e-04 -1.755942956885309786e-04 9.999999390770848429e-01
3.866666666666666696e+00 9.900803672815153755e-05 1.698091855380526544e-04 9.999999791897957735e-01
4.000000000000000000e+00 -2.448214543088734997e-04 3.537700423912039057e-05 9.999999675738474592e-01
4.133333333333332860e+00 -1.331209848107663281e-04 -2.602722287303315275e-04 9.999999551438744083e-01
4.266666666666666607e+00 1.455775042630696743e-04 -1.464007368716567720e-04 9.999999771331390397e-01
4.400000000000000355e+00 5.376362617884440588e-05 1.367625674060648036e-04 9.999999880540940689e-01
4.533333333333333215e+00 -2.100046457778430016e-04 8.104776871236874154e-05 9.999999729844561980e-01
4.666666666666666963e+00 -1.473624094724270241e-04 -1.529535865189230262e-04 9.999999758515707438e-01
4.799999999999999822e+00 8.587633818994455702e-05 -9.248204320150709595e-05 9.999999910295898076e-01
4.933333333333333570e+00 4.998508470978582012e-05 1.368329022666209618e-04 9.999999882486879654e-01
5.066666666666666430e+00 -1.561149202875775381e-04 1.129294032548631250e-04 9.999999799778065412e-01
5.200000000000000178e+00 -1.226847986298100089e-04 -8.085609927862144272e-05 9.999999880556620369e-01
