0.000000000000000000e+00 9.395008506885940046e-13 -3.235820179076779378e-12 -1.000000000000000000e+00
1.333333333333333315e-01 1.456892783732791075e-01 -4.956176914479284989e-01 -8.562346279878583211e-01
2.666666666666666630e-01 2.590095978312237368e-01 -8.457225566123549587e-01 -4.665483742538826251e-01
4.000000000000000222e-01 3.159028966659463977e-01 -9.471219156347758794e-01 5.626221554078334602e-02
5.333333333333333259e-01 3.067140080188734963e-01 -7.689979810800682269e-01 5.608641746869720279e-01
6.666666666666666297e-01 2.384386318553363415e-01 -3.619407851161147160e-01 9.011913709376350168e-01
8.000000000000000444e-01 1.325608971109332179e-01 1.566516785505828735e-01 9.787174570274325136e-01
9.333333333333333481e-01 1.910685848377025042e-02 6.365734984041055977e-01 7.709793179006139141e-01
1.066666666666666652e+00 -7.144948105126672222e-02 9.383963432623895207e-01 3.380935894928284724e-01
1.199999999999999956e+00 -1.162170608785909054e-01 9.739668854808934961e-01 -1.946332456839002523e-01
1.333333333333333259e+00 -1.056968605386813254e-01 7.320902341144930325e-01 -6.729576967982398017e-01
1.466666666666666563e+00 -4.584169214543176024e-02 2.819289892825788679e-01 -9.583394931797363236e-01
1.600000000000000089e+00 4.411240842967972808e-02 -2.468932301903365989e-01 -9.680381330083406288e-01
1.733333333333333393e+00 1.373649424760841897e-01 -7.017333103452612075e-01 -6.990716943151964458e-01
1.866666666666666696e+00 2.071766125184048568e-01 -9.511010019688791450e-01 -2.290954810038315914e-01
2.000000000000000000e+00 2.342663914040425399e-01 -9.227461068154603208e-01 3.060373776609955354e-01
2.133333333333333304e+00 2.119539262370471189e-01 -6.246603008194184792e-01 7.515816936270522941e-01
2.266666666666666607e+00 1.476698579367883013e-01 -1.428558650140893949e-01 9.786653218965090106e-01
2.399999999999999911e+00 6.050116659932636837e-02 3.834363384751861559e-01 9.215835178869499211e-01
2.533333333333333215e+00 -2.446345672291052806e-02 8.020031370002408400e-01 5.968186560814211505e-01
2.666666666666666519e+00 -8.333611423889086822e-02 9.916626378011994536e-01 9.828683145114330832e-02
2.799999999999999822e+00 -1.001409026882493364e-01 8.973502071617953657e-01 -4.298074032040854475e-01
2.933333333333333126e+00 -7.115811942051841754e-02 5.460998479352896506e-01 -8.346924448731941615e-01
3.066666666666666430e+00 -5.724230306884463444e-03 3.927825553262755814e-02 -9.992119152728143883e-01
3.200000000000000178e+00 7.666524401508272024e-02 -4.766777161046069078e-01 -8.757287239461236661e-01
3.333333333333333481e+00 1.520762565100278185e-01 -8.526236170505332446e-01 -4.999057714756926507e-01
3.466666666666666785e+00 1.990015854895300085e-01 -9.798034298631195238e-01 1.958586609946009680e-02
3.600000000000000089e+00 2.044285603998524659e-01 -8.213658409663204818e-01 5.325102045738938639e-01
3.733333333333333393e+00 1.673902354912144286e-01 -4.230367314116930677e-01 8.905169447876959410e-01
3.866666666666666696e+00 9.904480790373219878e-02 1.000430972558670473e-01 9.900411622187964555e-01
4.000000000000000000e+00 1.930490293078362951e-02 5.966269134030426358e-01 8.022865144172761642e-01
4.133333333333332860e+00 -4.896466159854240968e-02 9.230507447594482606e-01 3.815491882418839409e-01
4.266666666666666607e+00 -8.650757113509661977e-02 9.848216872528041677e-01 -1.504748829905542262e-01
4.400000000000000355e+00 -8.311370419707206358e-02 7.639583648559987727e-01 -6.398904019127941156e-01
4.533333333333333215e+00 -4.040344048343504774e-02 3.242123831905233122e-01 -9.451210582975181351e-01
4.666666666666666963e+00 2.879263188959931344e-02 -2.073253584835699770e-01 -9.778482362978222486e-01
4.799999999999999822e+00 1.042480245933029570e-01 -6.769793000462878130e-01 -7.285817533802031454e-01
4.933333333333333570e+00 1.642102091368658201e-01 -9.489256479967964619e-01 -2.693976711212386355e-01
5.066666666666666430e+00 1.916326116005402369e-01 -9.444792568365891761e-01 2.669004119936773667e-01
5.200000000000000178e+00 1.789900059950638167e-01 -6.648784436452439550e-01 7.251890953009126894e-01
