0.000000000000000000e+00 3.510517907633274127e-09 7.331943739689236855e-10 -1.000000000000000000e+00
1.333333333333333315e-01 4.307637863828568947e-01 2.159128625915133215e-01 -8.762517057356190575e-01
2.666666666666666630e-01 7.412055452093473384e-01 3.884294169940668007e-01 -5.474691456452295268e-01
4.000000000000000222e-01 8.669997103334169397e-01 4.838861183497054075e-01 -1.189429624128189589e-01
5.333333333333333259e-01 8.218916793966819512e-01 4.885829714094508947e-01 2.928538377834535300e-01
6.666666666666666297e-01 6.759357653662784182e-01 4.149904865593665448e-01 6.089994249075034727e-01
8.000000000000000444e-01 5.091968509654685171e-01 2.974653926816990257e-01 8.076036788507946484e-01
9.333333333333333481e-01 3.729792074360014920e-01 1.767181190024589010e-01 9.108519389263630694e-01
1.066666666666666652e+00 2.793135319650987269e-01 8.163597702786268284e-02 9.567212306831162083e-01
1.199999999999999956e+00 2.158798717238383236e-01 2.030556289055888974e-02 9.762072802882315603e-01
1.333333333333333259e+00 1.675066741679168969e-01 -1.517083248207275192e-02 9.857530771165459171e-01
1.466666666666666563e+00 1.273958950326492257e-01 -3.649486641717386570e-02 9.911794244884105654e-01
1.600000000000000089e+00 9.527349804405041422e-02 -5.034195211015058541e-02 9.941766542279604213e-01
1.733333333333333393e+00 7.095615794227314033e-02 -5.802510978221536025e-02 9.957896794901340831e-01
1.866666666666666696e+00 5.187807983779228055e-02 -5.994760029809326207e-02 9.968519873631903616e-01
2.000000000000000000e+00 3.536129840267066005e-02 -5.827828077715326016e-02 9.976734423532452878e-01
2.133333333333333304e+00 2.096090714052455117e-02 -5.564890901815773561e-02 9.982299475847716819e-01
2.266666666666666607e+00 9.651033195971187029e-03 -5.291787752117996929e-02 9.985518593633038176e-01
2.399999999999999911e+00 1.547826601550870290e-03 -4.925589318891718943e-02 9.987846511384934622e-01
2.533333333333333215e+00 -4.711233236599653498e-03 -4.418346202450017246e-02 9.990120150305332736e-01
2.666666666666666519e+00 -1.039716190472325663e-02 -3.861447087288442936e-02 9.991998098517332894e-01
2.799999999999999822e+00 -1.538502700081292862e-02 -3.378709194799984356e-02 9.993103662270540477e-01
2.933333333333333126e+00 -1.880749525301534525e-02 -2.975945937398108074e-02 9.993798836566124555e-01
3.066666666666666430e+00 -2.057436695770568230e-02 -2.563143459350002845e-02 9.994594814914118386e-01
3.200000000000000178e+00 -2.167444739645400797e-02 -2.094048687133572006e-02 9.995455367604745289e-01
3.333333333333333481e+00 -2.291106789995936768e-02 -1.634729397482951457e-02 9.996036419603039347e-01
3.466666666666666785e+00 -2.400916834446163717e-02 -1.268253953618350520e-02 9.996310908325738431e-01
3.600000000000000089e+00 -2.419728066338792602e-02 -9.833761442085963214e-03 9.996586454489884144e-01
3.733333333333333393e+00 -2.342328263203581271e-02 -6.963760907137335129e-03 9.997012037365813342e-01
3.866666666666666696e+00 -2.248014308471107947e-02 -3.712524599141961770e-03 9.997402280226000970e-01
4.000000000000000000e+00 -2.196943588450256044e-02 -6.563294167319967676e-04 9.997582642161612076e-01
4.133333333333332860e+00 -2.154352099923546870e-02 1.543368908825547628e-03 9.997665595036556718e-01
4.266666666666666607e+00 -2.051247294338362503e-02 3.075495785723234010e-03 9.997847117800573447e-01
4.400000000000000355e+00 -1.884698265911545143e-02 4.689286719290845611e-03 9.998112372381633417e-01
4.533333333333333215e+00 -1.725737672628423897e-02 6.658191484414483288e-03 9.998287713746174532e-01
4.666666666666666963e+00 -1.620563658612507452e-02 8.447256081509292580e-03 9.998328584420542731e-01
4.799999999999999822e+00 -1.532169952062358356e-02 9.494025931175827104e-03 9.998374046470698273e-01
4.933333333333333570e+00 -1.396332137164065131e-02 1.001250900326239660e-02 9.998522460059017236e-01
5.066666666666666430e+00 -1.215087359517185231e-02 1.069505518666262131e-02 9.998688534266688688e-01
5.200000000000000178e+00 -1.053215973342883430e-02 1.174786556355180908e-02 9.998754017853401788e-01
