0.000000000000000000e+00 9.176374448353224431e-10 2.865139867386708487e-09 -1.000000000000000000e+00
1.333333333333333315e-01 -4.862091778505659434e-01 -1.313876474463840371e-01 -8.639030732047688899e-01
2.666666666666666630e-01 -8.272584106057498943e-01 -2.480245344397913332e-01 -5.040917733706510306e-01
4.000000000000000222e-01 -9.440883032117941553e-01 -3.271128615472441714e-01 -4.088383738749951091e-02
5.333333333333333259e-01 -8.530478536744419138e-01 -3.433686643126228066e-01 3.929208696693733405e-01
6.666666666666666297e-01 -6.442474010400759399e-01 -2.866254091728713815e-01 7.090675527078554863e-01
8.000000000000000444e-01 -4.256616625092912720e-01 -1.757272255440683328e-01 8.876506565109243407e-01
9.333333333333333481e-01 -2.686263909650053461e-01 -5.329350519056132163e-02 9.617666067857648660e-01
1.066666666666666652e+00 -1.855513228595626618e-01 3.786522643608310895e-02 9.819031467016784420e-01
1.199999999999999956e+00 -1.465059211225024360e-01 7.912881299042109906e-02 9.860384837225423249e-01
1.333333333333333259e+00 -1.152683548414324827e-01 8.220454835586199493e-02 9.899258967519186658e-01
1.466666666666666563e+00 -7.643963233361536491e-02 7.360393652438587675e-02 9.943528988568582916e-01
1.600000000000000089e+00 -3.745182342438545253e-02 7.204049798225518886e-02 9.966976320063611894e-01
1.733333333333333393e+00 -1.166773442873653838e-02 7.763683056831917340e-02 9.969127704297403580e-01
1.866666666666666696e+00 -1.828615770873030788e-03 7.929325005742565713e-02 9.968489895396912548e-01
2.000000000000000000e+00 1.631442590251164226e-03 6.989984120902939524e-02 9.975520898682117554e-01
2.133333333333333304e+00 9.429533475542581367e-03 5.390903075260825017e-02 9.985008573862237391e-01
2.266666666666666607e+00 2.287130786378309411e-02 4.148736792479702784e-02 9.988768098441382914e-01
2.399999999999999911e+00 3.449781541040547461e-02 3.749860321241388350e-02 9.987005944284204073e-01
2.533333333333333215e+00 3.758206139421645803e-02 3.728057382658424290e-02 9.985974356885731762e-01
2.666666666666666519e+00 3.363174121330087668e-02 3.291451123542196711e-02 9.988917489499796742e-01
2.799999999999999822e+00 3.024608830873120463e-02 2.219598349526746145e-02 9.992956775492144450e-01
2.933333333333333126e+00 3.258801352159763215e-02 1.056383586755776580e-02 9.994127368823607638e-01
3.066666666666666430e+00 3.820239689759086926e-02 4.567952580580077193e-03 9.992592423954342884e-01
3.200000000000000178e+00 4.045809273584258930e-02 4.634925627601407284e-03 9.991701292386783173e-01
3.333333333333333481e+00 3.627345671789053427e-02 5.018548778605615157e-03 9.993289766498759663e-01
3.466666666666666785e+00 2.941868094388033414e-02 5.255609979749973487e-04 9.995667734979609698e-01
3.600000000000000089e+00 2.603331643190855832e-02 -7.800234085303659609e-03 9.996303962290636891e-01
3.733333333333333393e+00 2.777990580362422676e-02 -1.419953269792744756e-02 9.995129267096437564e-01
3.866666666666666696e+00 3.028929883355627184e-02 -1.489432585652429933e-02 9.994298957591343235e-01
4.000000000000000000e+00 2.838299582861102816e-02 -1.223235922905742401e-02 9.995219959755514694e-01
4.133333333333332860e+00 2.196807034075456966e-02 -1.181538054675932564e-02 9.996886235593639425e-01
4.266666666666666607e+00 1.596431845026846652e-02 -1.611774893600302627e-02 9.997424366089745496e-01
4.400000000000000355e+00 1.461575439408431890e-02 -2.184788481611538158e-02 9.996542256098495116e-01
4.533333333333333215e+00 1.675340622705564358e-02 -2.390545790379173391e-02 9.995735722095191456e-01
4.666666666666666963e+00 1.732811281321175456e-02 -2.122769280339135978e-02 9.996242415069520604e-01
4.799999999999999822e+00 1.327826011996304997e-02 -1.789056006832970974e-02 9.997515709213793400e-01
4.933333333333333570e+00 6.948651860933399357e-03 -1.834930377036388463e-02 9.998073071086746033e-01
5.066666666666666430e+00 3.286757978256516985e-03 -2.239363904765302379e-02 9.997436187485333470e-01
5.200000000000000178e+00 4.142269065186152122e-03 -2.553104305052131262e-02 9.996652119573633533e-01
