0.000000000000000000e+00 -5.923669491026258667e-09 5.532661910549601783e-10 -1.000000000000000000e+00
1.333333333333333315e-01 -3.332139161101603242e-01 -3.862389767891165615e-01 -8.601067790559222548e-01
2.666666666666666630e-01 -5.249188772522319635e-01 -6.932344651520603307e-01 -4.938397415679128266e-01
4.000000000000000222e-01 -5.157650993634952385e-01 -8.561882309509110112e-01 -3.029617997659219547e-02
5.333333333333333259e-01 -3.539376247607529669e-01 -8.474266143969475529e-01 3.957110817949631154e-01
6.666666666666666297e-01 -1.504162683073346218e-01 -6.948649657382974798e-01 7.032290723691043688e-01
8.000000000000000444e-01 -2.825070837854617989e-03 -4.735217954658609840e-01 8.807753543435316024e-01
9.333333333333333481e-01 5.488652285988776525e-02 -2.670337835574737584e-01 9.621218184742300616e-01
1.066666666666666652e+00 4.814982311242282931e-02 -1.258060321928019532e-01 9.908851890977985466e-01
1.199999999999999956e+00 2.140891666039274749e-02 -5.312610103709893006e-02 9.983580743529477664e-01
1.333333333333333259e+00 2.615961235390864767e-03 -2.382869598471895611e-02 9.997125372468815829e-01
1.466666666666666563e+00 -3.936648352180285859e-03 -1.223762166056055825e-02 9.999173134497508775e-01
1.600000000000000089e+00 -4.597397648098073067e-03 -5.830042278475417762e-03 9.999724034108595783e-01
1.733333333333333393e+00 -4.073685283474628820e-03 -1.923847860017667121e-03 9.999898304965593177e-01
1.866666666666666696e+00 -3.251481887432018138e-03 -8.289170293985636401e-05 9.999946944700672802e-01
2.000000000000000000e+00 -2.139428899634806397e-03 6.980870805245180562e-04 9.999974562634826869e-01
2.133333333333333304e+00 -1.176781492112658140e-03 1.117246199092300279e-03 9.999986748933699099e-01
2.266666666666666607e+00 -5.830374026092004355e-04 1.204506902429424960e-03 9.999990973905009684e-01
2.399999999999999911e+00 -1.543526251970553289e-04 1.003869787940136213e-03 9.999994785578293355e-01
2.533333333333333215e+00 1.968812541719828189e-04 7.702506432332367411e-04 9.999996794403013256e-01
2.666666666666666519e+00 3.837328124848572437e-04 5.915823986461826896e-04 9.999997473269189863e-01
2.799999999999999822e+00 4.209677496501300136e-04 3.911025951224019305e-04 9.999998315314101438e-01
2.933333333333333126e+00 4.292586934057237517e-04 1.750329137745496120e-04 9.999998897623422200e-01
3.066666666666666430e+00 4.281409590281073929e-04 3.001478670412981989e-05 9.999999052972983193e-01
3.200000000000000178e+00 3.672758265681091202e-04 -5.014566667274134634e-05 9.999999290104002458e-01
3.333333333333333481e+00 2.719309272546198549e-04 -1.290924264930506233e-04 9.999999528011983552e-01
3.466666666666666785e+00 2.067649884637227529e-04 -1.969331775212248181e-04 9.999999574225202359e-01
3.600000000000000089e+00 1.533302485602673908e-04 -2.125077887930259765e-04 9.999999639921701711e-01
3.733333333333333393e+00 7.904526569737859473e-05 -2.025915363163195465e-04 9.999999749347739941e-01
3.866666666666666696e+00 9.003702639388372038e-06 -2.004714959913573321e-04 9.999999785495983229e-01
4.000000000000000000e+00 -2.574550576406927499e-05 -1.925229091079395201e-04 9.999999798616068247e-01
4.133333333333332860e+00 -5.101615789216009484e-05 -1.583398018215693623e-04 9.999999850582138583e-01
4.266666666666666607e+00 -8.885358125482745715e-05 -1.158490819144959602e-04 9.999999883577653792e-01
4.400000000000000355e+00 -1.105341064247557497e-04 -1.020686005355154530e-04 9.999999876735333748e-01
4.533333333333333215e+00 -1.094825006057924353e-04 -7.731481867888942254e-05 9.999999901103557853e-01
4.666666666666666963e+00 -1.083887979563505382e-04 -3.873717588013507343e-05 9.999999925835870718e-01
4.799999999999999822e+00 -1.188676796359038285e-04 -1.252181254405243715e-05 9.999999920368997097e-01
4.933333333333333570e+00 -1.100552387575936408e-04 1.830941733590334738e-07 9.999999931828517097e-01
5.066666666666666430e+00 -8.872821796921038411e-05 1.918103853256177623e-05 9.999999952385858482e-01
5.200000000000000178e+00 -8.180506357859909823e-05 4.370479805772060271e-05 9.999999950472852062e-01
