0.000000000000000000e+00 -1.111678006010514790e-09 1.509954698660368167e-09 -1.000000000000000000e+00
1.333333333333333315e-01 5.115223334662581944e-01 -5.525287671751066831e-02 -8.574878944970479866e-01
2.666666666666666630e-01 8.742198254158511928e-01 -4.162446430346428139e-02 -4.837294052203092165e-01
4.000000000000000222e-01 9.985454947649747837e-01 5.285732052991365393e-02 -9.872093709360754352e-03
5.333333333333333259e-01 8.884303510776384583e-01 1.739166252121873701e-01 4.247716531823194641e-01
6.666666666666666297e-01 6.327769459737041524e-01 2.454124908822300222e-01 7.344091487938344542e-01
8.000000000000000444e-01 3.559232648711618818e-01 2.281819669976521692e-01 9.062265012435199996e-01
9.333333333333333481e-01 1.538817827512067304e-01 1.443448520627583498e-01 9.774878892735257008e-01
1.066666666666666652e+00 5.526547008638472980e-02 5.148140552754745802e-02 9.971431866107143271e-01
1.199999999999999956e+00 2.911126730900334691e-02 -5.032233610478376723e-03 9.995633312958244199e-01
1.333333333333333259e+00 2.640358922926628812e-02 -1.902194243961562170e-02 9.994701723126820925e-01
1.466666666666666563e+00 1.840144903575105170e-02 -1.288052382978249581e-02 9.997475682439865841e-01
1.600000000000000089e+00 4.843892690619978555e-03 -8.459057618274560750e-03 9.999524234477094042e-01
1.733333333333333393e+00 -3.691550648940306045e-03 -1.020007592943994457e-02 9.999410911434521987e-01
1.866666666666666696e+00 -4.128604205463706940e-03 -1.113761043699247610e-02 9.999293728839758755e-01
2.000000000000000000e+00 -2.414078040716154030e-03 -7.217520403509585826e-03 9.999709865214259086e-01
2.133333333333333304e+00 -3.615746118811281537e-03 -2.023478080759871008e-03 9.999913851459238945e-01
2.266666666666666607e+00 -6.231344625408658661e-03 -1.236414890109288275e-04 9.999805330693254390e-01
2.399999999999999911e+00 -6.380783060791148271e-03 -8.810049022202103355e-04 9.999792089657463245e-01
2.533333333333333215e+00 -3.923014599819721511e-03 -6.432152107429792067e-04 9.999920684398169168e-01
2.666666666666666519e+00 -2.055032490629224787e-03 1.617560497880862931e-03 9.999965597547952889e-01
2.799999999999999822e+00 -2.370267668007666230e-03 3.446138489997467580e-03 9.999912219145083991e-01
2.933333333333333126e+00 -3.002910211537387561e-03 3.058360030771852933e-03 9.999907827079703715e-01
3.066666666666666430e+00 -1.940739320502236215e-03 1.809396226464989564e-03 9.999964591224960175e-01
3.200000000000000178e+00 1.609098676495497419e-05 1.846750547666605943e-03 9.999982796282508302e-01
3.333333333333333481e+00 7.768138986531728223e-04 2.958417070666930718e-03 9.999952986751250439e-01
3.466666666666666785e+00 1.605646885768018898e-04 3.214888945529804573e-03 9.999947947663978542e-01
3.600000000000000089e+00 -8.428385604112935935e-05 2.064827509566604605e-03 9.999978481100896266e-01
3.733333333333333393e+00 9.252728616339300988e-04 1.009245514785497193e-03 9.999990511709083707e-01
3.866666666666666696e+00 2.004139127034626142e-03 1.221492336693189408e-03 9.999972271408131830e-01
4.000000000000000000e+00 1.865266260988484703e-03 1.817246207480428897e-03 9.999965888471820108e-01
4.133333333333332860e+00 1.069797489565544940e-03 1.411588491110926961e-03 9.999984170274869300e-01
4.266666666666666607e+00 1.024973019437102522e-03 2.592085387581017459e-04 9.999994320118947844e-01
4.400000000000000355e+00 1.822922934240923378e-03 -2.636527971213739694e-04 9.999982887585930902e-01
4.533333333333333215e+00 2.189382093293428238e-03 1.803574023590346753e-04 9.999975695452576474e-01
4.666666666666666963e+00 1.550882255166241173e-03 4.680494851716828896e-04 9.999986745184550330e-01
4.799999999999999822e+00 8.547756882957694476e-04 -1.740639206063901824e-04 9.999996118407288304e-01
4.933333333333333570e+00 1.043638740887316936e-03 -1.005051630018032613e-03 9.999989382726238718e-01
5.066666666666666430e+00 1.607496004022662336e-03 -1.006512321169884729e-03 9.999981860980271531e-01
5.200000000000000178e+00 1.466953382110152771e-03 -4.517213772635940970e-04 9.999988093005295342e-01
