0.000000000000000000e+00 -1.422640509093331630e-09 1.326079173920081569e-09 -1.000000000000000000e+00
1.333333333333333315e-01 -2.196784975654945682e-01 4.293118929550689411e-01 -8.760232474864525498e-01
2.666666666666666630e-01 -3.751059745185558181e-01 7.501724781489077509e-01 -5.445223025603451728e-01
4.000000000000000222e-01 -4.223964124644112861e-01 8.998135806142668613e-01 -1.089776963273419441e-01
5.333333333333333259e-01 -3.520644226732528859e-01 8.836721929737200165e-01 3.084409956102929229e-01
6.666666666666666297e-01 -1.914201798574629576e-01 7.644042526721784858e-01 6.156417650290612054e-01
8.000000000000000444e-01 5.954903336877719403e-03 6.250191796125025290e-01 7.805726213588810580e-01
9.333333333333333481e-01 1.805242722142462730e-01 5.271218264868280379e-01 8.303821860287696754e-01
1.066666666666666652e+00 2.893865573994208740e-01 4.863520846533754272e-01 8.244378181800602334e-01
1.199999999999999956e+00 3.215792031542956675e-01 4.760214753631123452e-01 8.185173492521198302e-01
1.333333333333333259e+00 2.991350639932510158e-01 4.534207413389050312e-01 8.395888421584837280e-01
1.466666666666666563e+00 2.630865524505721087e-01 3.910326168493033494e-01 8.819656869256865539e-01
1.600000000000000089e+00 2.512137424425615051e-01 2.938233691510474532e-01 9.222511761180558487e-01
1.733333333333333393e+00 2.789373677045243749e-01 1.936937753654864036e-01 9.405669034304964260e-01
1.866666666666666696e+00 3.333611549335983026e-01 1.267581563736180639e-01 9.342331273286843540e-01
2.000000000000000000e+00 3.834419831366979725e-01 1.091720076016321067e-01 9.170828841085799654e-01
2.133333333333333304e+00 4.000872422136116935e-01 1.270186498427714472e-01 9.076249035459562631e-01
2.266666666666666607e+00 3.742806770217556034e-01 1.460800415394724328e-01 9.157301906616225340e-01
2.399999999999999911e+00 3.224257718548984575e-01 1.343714391415837262e-01 9.370032164245067907e-01
2.533333333333333215e+00 2.758303881661238188e-01 8.251223956170217200e-02 9.576536642131795452e-01
2.666666666666666519e+00 2.610349102784451092e-01 8.953568385977661581e-03 9.652837460689462912e-01
2.799999999999999822e+00 2.833060478609524813e-01 -5.286167441791066179e-02 9.575669854501459577e-01
2.933333333333333126e+00 3.236774967936941749e-01 -7.664318183482302094e-02 9.430526925838916830e-01
3.066666666666666430e+00 3.513988385320298558e-01 -6.022584260488457464e-02 9.342807581189319643e-01
3.200000000000000178e+00 3.438421661665381768e-01 -2.656556054889151752e-02 9.386458780374860034e-01
3.333333333333333481e+00 3.010597862851959183e-01 -8.442404982576867667e-03 9.535630533100525330e-01
3.466666666666666785e+00 2.457041932753128433e-01 -2.709093036622992057e-02 9.689623801689883908e-01
3.600000000000000089e+00 2.082852132268462053e-01 -7.868146544712048551e-02 9.748947839563989470e-01
3.733333333333333393e+00 2.073747415388321191e-01 -1.372798644301270743e-01 9.685775450218452320e-01
3.866666666666666696e+00 2.375945696935633789e-01 -1.721211659649927728e-01 9.559885711921570772e-01
4.000000000000000000e+00 2.732029055847973176e-01 -1.677781417352037785e-01 9.472068228872848605e-01
4.133333333333332860e+00 2.850298329090790728e-01 -1.340535539175430058e-01 9.490932156113734974e-01
4.266666666666666607e+00 2.596008676564260376e-01 -9.932354504142276719e-02 9.605903254033310024e-01
4.400000000000000355e+00 2.079617965650506772e-01 -9.179931333468038801e-02 9.738161895548153035e-01
4.533333333333333215e+00 1.583834421538241055e-01 -1.211148715489493849e-01 9.799183361883659904e-01
4.666666666666666963e+00 1.377510868280360234e-01 -1.722419919229593310e-01 9.753721056319550886e-01
4.799999999999999822e+00 1.538332496186192166e-01 -2.156034341597217185e-01 9.642834006854710260e-01
4.933333333333333570e+00 1.902055661336365389e-01 -2.266405730251294659e-01 9.552208352415040293e-01
5.066666666666666430e+00 2.171552731435380801e-01 -2.019172247093642680e-01 9.550203881072362178e-01
5.200000000000000178e+00 2.113490143583206526e-01 -1.612609604103271144e-01 9.640116408344261423e-01
