0.000000000000000000e+00 -1.873398743185207774e-09 -6.368029390793434077e-11 -1.000000000000000000e+00
1.333333333333333315e-01 4.386465015117765320e-01 -2.469990590986951284e-01 -8.640453539084388401e-01
2.666666666666666630e-01 7.681041753297072061e-01 -3.923958250224949817e-01 -5.059929163465385349e-01
4.000000000000000222e-01 9.173885819937590558e-01 -3.950858823179636548e-01 -4.785278068498720339e-02
5.333333333333333259e-01 8.781384370419256236e-01 -2.915200801335944281e-01 3.793086330220862279e-01
6.666666666666666297e-01 7.034737760453896316e-01 -1.609014382831787104e-01 6.922610462208722559e-01
8.000000000000000444e-01 4.793825467943417795e-01 -6.953265979669370767e-02 8.748437377242243018e-01
9.333333333333333481e-01 2.828690722180827732e-01 -3.670071918357742380e-02 9.584544112583778253e-01
1.066666666666666652e+00 1.513012786815751132e-01 -4.093894314573939819e-02 9.876386937629685336e-01
1.199999999999999956e+00 8.007385918499111688e-02 -5.096628783485949304e-02 9.954845842013855250e-01
1.333333333333333259e+00 4.402186434421274941e-02 -5.082786730244057832e-02 9.977363587399652456e-01
1.466666666666666563e+00 2.179928631472042438e-02 -4.262050819551519570e-02 9.988532070400888419e-01
1.600000000000000089e+00 5.575029456083482188e-03 -3.396709746668642033e-02 9.994071974574849637e-01
1.733333333333333393e+00 -4.528887897781571845e-03 -2.768864647237318649e-02 9.996061665104711835e-01
1.866666666666666696e+00 -8.970222416321562212e-03 -2.194378132931922021e-02 9.997188173609076189e-01
2.000000000000000000e+00 -1.075204771581039775e-02 -1.545626906616590253e-02 9.998226144628794554e-01
2.133333333333333304e+00 -1.219392385710013106e-02 -9.516280847289004807e-03 9.998802677085997237e-01
2.266666666666666607e+00 -1.304788974541662254e-02 -5.526959058705769971e-03 9.998995058470639963e-01
2.399999999999999911e+00 -1.235771589083310695e-02 -2.943718979263376667e-03 9.999192242213733595e-01
2.533333333333333215e+00 -1.057593948373287095e-02 -4.242382132609414172e-04 9.999439125564750785e-01
2.666666666666666519e+00 -9.035224242108317455e-03 2.169251670845676397e-03 9.999567656537614591e-01
2.799999999999999822e+00 -8.089788374143230820e-03 3.925637936037447255e-03 9.999595104638325793e-01
2.933333333333333126e+00 -6.969643205495526170e-03 4.550910312312235126e-03 9.999652990490346394e-01
3.066666666666666430e+00 -5.234282552122800428e-03 4.832507549923837145e-03 9.999745746274193436e-01
3.200000000000000178e+00 -3.490356283160570960e-03 5.424605465843361160e-03 9.999791499201977629e-01
3.333333333333333481e+00 -2.404020184238559940e-03 5.980455148456769419e-03 9.999791818568249946e-01
3.466666666666666785e+00 -1.722773911871937694e-03 5.871298612870320954e-03 9.999812364737651338e-01
3.600000000000000089e+00 -7.772391175433625114e-04 5.272015789142279855e-03 9.999857624828444314e-01
3.733333333333333393e+00 4.331192141327697143e-04 4.857447372167125223e-03 9.999880733493288210e-01
3.866666666666666696e+00 1.311746226763387067e-03 4.785291821931619664e-03 9.999876541165735322e-01
4.000000000000000000e+00 1.629960957180275755e-03 4.551037290926113026e-03 9.999882804135383774e-01
4.133333333333332860e+00 1.864347577788059507e-03 3.839536715333905989e-03 9.999908596016832130e-01
4.266666666666666607e+00 2.410985589779485704e-03 3.059907555618832792e-03 9.999923830362271726e-01
4.400000000000000355e+00 2.997357892522352005e-03 2.655176732598713441e-03 9.999919531883311175e-01
4.533333333333333215e+00 3.158956399260231737e-03 2.453568286569828352e-03 9.999919707692601634e-01
4.666666666666666963e+00 2.998850571658961874e-03 1.978001878413303532e-03 9.999935202215395336e-01
4.799999999999999822e+00 2.998626980083012473e-03 1.232963492740475923e-03 9.999947194015862406e-01
4.933333333333333570e+00 3.259633801827625191e-03 6.744116328762548521e-04 9.999944347822661284e-01
5.066666666666666430e+00 3.382797483283735834e-03 4.824985047357140946e-04 9.999941361624067326e-01
5.200000000000000178e+00 3.119098498752453236e-03 2.912196850793783223e-04 9.999950693399850543e-01
