1.000000000000000056e-01 9.755860558115542203e-01 0.000000000000000000e+00 2.441394418844547443e-02 0.000000000000000000e+00 0.000000000000000000e+00 0.000000000000000000e+00 -1.260830936848170714e-01 -8.899975836807877405e-02 0.000000000000000000e+00 0.000000000000000000e+00 0.000000000000000000e+00 0.000000000000000000e+00 0.000000000000000000e+00 0.000000000000000000e+00 0.000000000000000000e+00 0.000000000000000000e+00
2.000000000000000111e-01 9.058355946779804713e-01 0.000000000000000000e+00 9.416440532201902913e-02 0.000000000000000000e+00 0.000000000000000000e+00 0.000000000000000000e+00 -2.277949965262355547e-01 -1.827755716838443401e-01 0.000000000000000000e+00 0.000000000000000000e+00 0.000000000000000000e+00 0.000000000000000000e+00 0.000000000000000000e+00 0.000000000000000000e+00 0.000000000000000000e+00 0.000000000000000000e+00
2.999999999999999889e-01 8.004159483848534151e-01 0.000000000000000000e+00 1.995840516151491106e-01 0.000000000000000000e+00 0.000000000000000000e+00 0.000000000000000000e+00 -2.844689994543906364e-01 -2.807626157092976138e-01 0.000000000000000000e+00 0.000000000000000000e+00 0.000000000000000000e+00 0.000000000000000000e+00 0.000000000000000000e+00 0.000000000000000000e+00 0.000000000000000000e+00 0.000000000000000000e+00
4.000000000000000222e-01 6.729754902080185008e-01 0.000000000000000000e+00 3.270245097919816102e-01 0.000000000000000000e+00 0.000000000000000000e+00 0.000000000000000000e+00 -2.831790651626589495e-01 -3.740175087512209728e-01 0.000000000000000000e+00 0.000000000000000000e+00 0.000000000000000000e+00 0.000000000000000000e+00 0.000000000000000000e+00 0.000000000000000000e+00 0.000000000000000000e+00 0.000000000000000000e+00
5.000000000000000000e-01 5.382890028552808070e-01 0.000000000000000000e+00 4.617109971447218575e-01 0.000000000000000000e+00 0.000000000000000000e+00 0.000000000000000000e+00 -2.225572952579047969e-01 -4.460966292418548917e-01 0.000000000000000000e+00 0.000000000000000000e+00 0.000000000000000000e+00 0.000000000000000000e+00 0.000000000000000000e+00 0.000000000000000000e+00 0.000000000000000000e+00 0.000000000000000000e+00
5.999999999999999778e-01 4.095016233581684206e-01 0.000000000000000000e+00 5.904983766418298030e-01 0.000000000000000000e+00 0.000000000000000000e+00 0.000000000000000000e+00 -1.149924548682546011e-01 -4.781074974784068066e-01 0.000000000000000000e+00 0.000000000000000000e+00 0.000000000000000000e+00 0.000000000000000000e+00 0.000000000000000000e+00 0.000000000000000000e+00 0.000000000000000000e+00 0.000000000000000000e+00
6.999999999999999556e-01 2.961937014346160413e-01 0.000000000000000000e+00 7.038062985653855685e-01 0.000000000000000000e+00 0.000000000000000000e+00 0.000000000000000000e+00 1.463139736201068963e-02 -4.563429792779681859e-01 0.000000000000000000e+00 0.000000000000000000e+00 0.000000000000000000e+00 0.000000000000000000e+00 0.000000000000000000e+00 0.000000000000000000e+00 0.000000000000000000e+00 0.000000000000000000e+00
7.999999999999999334e-01 2.036194911416977504e-01 0.000000000000000000e+00 7.963805088583034708e-01 0.000000000000000000e+00 0.000000000000000000e+00 0.000000000000000000e+00 1.347598312751658312e-01 -3.794711867280859408e-01 0.000000000000000000e+00 0.000000000000000000e+00 0.000000000000000000e+00 0.000000000000000000e+00 0.000000000000000000e+00 0.000000000000000000e+00 0.000000000000000000e+00 0.000000000000000000e+00
8.999999999999999112e-01 1.329821947087978518e-01 0.000000000000000000e+00 8.670178052912034250e-01 0.000000000000000000e+00 0.000000000000000000e+00 0.000000000000000000e+00 2.164018200308711892e-01 -2.616642555156117322e-01 0.000000000000000000e+00 0.000000000000000000e+00 0.000000000000000000e+00 0.000000000000000000e+00 0.000000000000000000e+00 0.000000000000000000e+00 0.000000000000000000e+00 0.000000000000000000e+00
9.999999999999998890e-01 8.246696909798474640e-02 0.000000000000000000e+00 9.175330309020174324e-01 0.000000000000000000e+00 0.000000000000000000e+00 0.000000000000000000e+00 2.426693913700350702e-01 -1.295288933556519861e-01 0.000000000000000000e+00 0.000000000000000000e+00 0.000000000000000000e+00 0.000000000000000000e+00 0.000000000000000000e+00 0.000000000000000000e+00 0.000000000000000000e+00 0.000000000000000000e+00
1.099999999999999867e+00 4.853555916059057451e-02 0.000000000000000000e+00 9.514644408394093977e-01 0.000000000000000000e+00 0.000000000000000000e+00 0.000000000000000000e+00 2.144805519987144360e-01 -1.333982963209175490e-02 0.000000000000000000e+00 0.000000000000000000e+00 0.000000000000000000e+00 0.000000000000000000e+00 0.000000000000000000e+00 0.000000000000000000e+00 0.000000000000000000e+00 0.000000000000000000e+00
1.199999999999999956e+00 2.708982605752310868e-02 0.000000000000000000e+00 9.729101739424809159e-01 0.000000000000000000e+00 0.000000000000000000e+00 0.000000000000000000e+00 1.493128535780052779e-01 6.373098988258742159e-02 0.000000000000000000e+00 0.000000000000000000e+00 0.000000000000000000e+00 0.000000000000000000e+00 0.000000000000000000e+00 0.000000000000000000e+00 0.000000000000000000e+00 0.000000000000000000e+00
1.300000000000000044e+00 1.433224875351094690e-02 0.000000000000000000e+00 9.856677512464900870e-01 0.000000000000000000e+00 0.000000000000000000e+00 0.000000000000000000e+00 7.341580520331214554e-02 9.347167908485119747e-02 0.000000000000000000e+00 0.000000000000000000e+00 0.000000000000000000e+00 0.000000000000000000e+00 0.000000000000000000e+00 0.000000000000000000e+00 0.000000000000000000e+00 0.000000000000000000e+00
1.399999999999999911e+00 7.182362480479844574e-03 0.000000000000000000e+00 9.928176375195246761e-01 0.000000000000000000e+00 0.000000000000000000e+00 0.000000000000000000e+00 1.090801221282815953e-02 8.373643950410263048e-02 0.000000000000000000e+00 0.000000000000000000e+00 0.000000000000000000e+00 0.000000000000000000e+00 0.000000000000000000e+00 0.000000000000000000e+00 0.000000000000000000e+00 0.000000000000000000e+00
1.500000000000000000e+00 3.405879874692490858e-03 0.000000000000000000e+00 9.965941201253095683e-01 0.000000000000000000e+00 0.000000000000000000e+00 0.000000000000000000e+00 -2.483759526049502883e-02 5.270079381680646546e-02 0.000000000000000000e+00 0.000000000000000000e+00 0.000000000000000000e+00 0.000000000000000000e+00 0.000000000000000000e+00 0.000000000000000000e+00 0.000000000000000000e+00 0.000000000000000000e+00
1.599999999999999867e+00 1.527839992241156230e-03 0.000000000000000000e+00 9.984721600077567372e-01 0.000000000000000000e+00 0.000000000000000000e+00 0.000000000000000000e+00 -3.374215226630929848e-02 1.967162335539275608e-02 0.000000000000000000e+00 0.000000000000000000e+00 0.000000000000000000e+00 0.000000000000000000e+00 0.000000000000000000e+00 0.000000000000000000e+00 0.000000000000000000e+00 0.000000000000000000e+00
1.699999999999999956e+00 6.474746879297487443e-04 0.000000000000000000e+00 9.993525253120725260e-01 0.000000000000000000e+00 0.000000000000000000e+00 0.000000000000000000e+00 -2.529287110730762955e-02 -2.706653218100193558e-03 0.000000000000000000e+00 0.000000000000000000e+00 0.000000000000000000e+00 0.000000000000000000e+00 0.000000000000000000e+00 0.000000000000000000e+00 0.000000000000000000e+00 0.000000000000000000e+00
1.800000000000000044e+00 2.589785640480391643e-04 0.000000000000000000e+00 9.997410214359478964e-01 0.000000000000000000e+00 0.000000000000000000e+00 0.000000000000000000e+00 -1.151325101648007637e-02 -1.124083814406381422e-02 0.000000000000000000e+00 0.000000000000000000e+00 0.000000000000000000e+00 0.000000000000000000e+00 0.000000000000000000e+00 0.000000000000000000e+00 0.000000000000000000e+00 0.000000000000000000e+00
1.899999999999999911e+00 9.780946581703916858e-05 0.000000000000000000e+00 9.999021905341812788e-01 0.000000000000000000e+00 0.000000000000000000e+00 0.000000000000000000e+00 -9.752847201151269071e-04 -9.841165841943052411e-03 0.000000000000000000e+00 0.000000000000000000e+00 0.000000000000000000e+00 0.000000000000000000e+00 0.000000000000000000e+00 0.000000000000000000e+00 0.000000000000000000e+00 0.000000000000000000e+00
2.000000000000000000e+00 3.481884229458837677e-05 0.000000000000000000e+00 9.999651811577038307e-01 0.000000000000000000e+00 0.000000000000000000e+00 0.000000000000000000e+00 3.484832933793618592e-03 -4.761661771639439343e-03 0.000000000000000000e+00 0.000000000000000000e+00 0.000000000000000000e+00 0.000000000000000000e+00 0.000000000000000000e+00 0.000000000000000000e+00 0.000000000000000000e+00 0.000000000000000000e+00
2.099999999999999645e+00 1.164620277380249954e-05 0.000000000000000000e+00 9.999883537972219516e-01 0.000000000000000000e+00 0.000000000000000000e+00 0.000000000000000000e+00 3.360921755173134316e-03 -5.917209089897957665e-04 0.000000000000000000e+00 0.000000000000000000e+00 0.000000000000000000e+00 0.000000000000000000e+00 0.000000000000000000e+00 0.000000000000000000e+00 0.000000000000000000e+00 0.000000000000000000e+00
2.199999999999999734e+00 3.673081546568838749e-06 0.000000000000000000e+00 9.999963269184549697e-01 0.000000000000000000e+00 0.000000000000000000e+00 0.000000000000000000e+00 1.553335988277987963e-03 1.122538850262248594e-03 0.000000000000000000e+00 0.000000000000000000e+00 0.000000000000000000e+00 0.000000000000000000e+00 0.000000000000000000e+00 0.000000000000000000e+00 0.000000000000000000e+00 0.000000000000000000e+00
2.299999999999999822e+00 1.088276700634585856e-06 0.000000000000000000e+00 9.999989117233021307e-01 0.000000000000000000e+00 0.000000000000000000e+00 0.000000000000000000e+00 1.124338037468832299e-04 1.037051097443407064e-03 0.000000000000000000e+00 0.000000000000000000e+00 0.000000000000000000e+00 0.000000000000000000e+00 0.000000000000000000e+00 0.000000000000000000e+00 0.000000000000000000e+00 0.000000000000000000e+00
2.399999999999999911e+00 3.070155728426972870e-07 0.000000000000000000e+00 9.999996929844301441e-01 0.000000000000000000e+00 0.000000000000000000e+00 0.000000000000000000e+00 -3.811797999028421419e-04 4.019475126456412075e-04 0.000000000000000000e+00 0.000000000000000000e+00 0.000000000000000000e+00 0.000000000000000000e+00 0.000000000000000000e+00 0.000000000000000000e+00 0.000000000000000000e+00 0.000000000000000000e+00
2.500000000000000000e+00 7.709052046891516760e-08 0.000000000000000000e+00 9.999999229094701514e-01 0.000000000000000000e+00 0.000000000000000000e+00 0.000000000000000000e+00 -2.755765969330929406e-04 -3.154466626988256943e-05 0.000000000000000000e+00 0.000000000000000000e+00 0.000000000000000000e+00 0.000000000000000000e+00 0.000000000000000000e+00 0.000000000000000000e+00 0.000000000000000000e+00 0.000000000000000000e+00
2.600000000000000089e+00 2.054430839110012977e-08 0.000000000000000000e+00 9.999999794556942989e-01 0.000000000000000000e+00 0.000000000000000000e+00 0.000000000000000000e+00 -6.993597845681855216e-05 -1.244030263604849022e-04 0.000000000000000000e+00 0.000000000000000000e+00 0.000000000000000000e+00 0.000000000000000000e+00 0.000000000000000000e+00 0.000000000000000000e+00 0.000000000000000000e+00 0.000000000000000000e+00
2.699999999999999734e+00 5.470589420842810322e-09 0.000000000000000000e+00 9.999999945294153481e-01 0.000000000000000000e+00 0.000000000000000000e+00 0.000000000000000000e+00 3.548821924877976550e-05 -6.384256597138826170e-05 0.000000000000000000e+00 0.000000000000000000e+00 0.000000000000000000e+00 0.000000000000000000e+00 0.000000000000000000e+00 0.000000000000000000e+00 0.000000000000000000e+00 0.000000000000000000e+00
2.799999999999999822e+00 1.142463140822972259e-09 0.000000000000000000e+00 9.999999988575386523e-01 0.000000000000000000e+00 0.000000000000000000e+00 0.000000000000000000e+00 3.054156754340454341e-05 3.230233546045914625e-06 0.000000000000000000e+00 0.000000000000000000e+00 0.000000000000000000e+00 0.000000000000000000e+00 0.000000000000000000e+00 0.000000000000000000e+00 0.000000000000000000e+00 0.000000000000000000e+00
2.899999999999999911e+00 3.779748252252681396e-10 0.000000000000000000e+00 9.999999996220243492e-01 0.000000000000000000e+00 0.000000000000000000e+00 0.000000000000000000e+00 6.201759058174321067e-06 1.306340788661924224e-05 0.000000000000000000e+00 0.000000000000000000e+00 0.000000000000000000e+00 0.000000000000000000e+00 0.000000000000000000e+00 0.000000000000000000e+00 0.000000000000000000e+00 0.000000000000000000e+00
3.000000000000000000e+00 2.610983170149890164e-10 0.000000000000000000e+00 9.999999997389041884e-01 0.000000000000000000e+00 0.000000000000000000e+00 0.000000000000000000e+00 -2.102672007119765372e-06 8.784211188264456427e-06 0.000000000000000000e+00 0.000000000000000000e+00 0.000000000000000000e+00 0.000000000000000000e+00 0.000000000000000000e+00 0.000000000000000000e+00 0.000000000000000000e+00 0.000000000000000000e+00
