1.000000000000000056e-01 9.755838429146027613e-01 0.000000000000000000e+00 2.441615708539817201e-02 0.000000000000000000e+00 0.000000000000000000e+00 0.000000000000000000e+00 -1.356548404002253794e-01 7.360552036235730455e-02 0.000000000000000000e+00 0.000000000000000000e+00 0.000000000000000000e+00 0.000000000000000000e+00 0.000000000000000000e+00 0.000000000000000000e+00 0.000000000000000000e+00 0.000000000000000000e+00
2.000000000000000111e-01 9.058018973181326539e-01 0.000000000000000000e+00 9.419810268186717961e-02 0.000000000000000000e+00 0.000000000000000000e+00 0.000000000000000000e+00 -2.638142636686003351e-01 1.254067559342937899e-01 0.000000000000000000e+00 0.000000000000000000e+00 0.000000000000000000e+00 0.000000000000000000e+00 0.000000000000000000e+00 0.000000000000000000e+00 0.000000000000000000e+00 0.000000000000000000e+00
2.999999999999999889e-01 8.002593259874061227e-01 0.000000000000000000e+00 1.997406740125949598e-01 0.000000000000000000e+00 0.000000000000000000e+00 0.000000000000000000e+00 -3.749393285355238081e-01 1.387978283163542326e-01 0.000000000000000000e+00 0.000000000000000000e+00 0.000000000000000000e+00 0.000000000000000000e+00 0.000000000000000000e+00 0.000000000000000000e+00 0.000000000000000000e+00 0.000000000000000000e+00
4.000000000000000222e-01 6.725650345002937014e-01 0.000000000000000000e+00 3.274349654997056325e-01 0.000000000000000000e+00 0.000000000000000000e+00 0.000000000000000000e+00 -4.569991947972228408e-01 1.066444788017128220e-01 0.000000000000000000e+00 0.000000000000000000e+00 0.000000000000000000e+00 0.000000000000000000e+00 0.000000000000000000e+00 0.000000000000000000e+00 0.000000000000000000e+00 0.000000000000000000e+00
5.000000000000000000e-01 5.374934350893628698e-01 0.000000000000000000e+00 4.625065649106370747e-01 0.000000000000000000e+00 0.000000000000000000e+00 0.000000000000000000e+00 -4.974554291622143021e-01 3.365023602545821890e-02 0.000000000000000000e+00 0.000000000000000000e+00 0.000000000000000000e+00 0.000000000000000000e+00 0.000000000000000000e+00 0.000000000000000000e+00 0.000000000000000000e+00 0.000000000000000000e+00
5.999999999999999778e-01 4.082373669559026808e-01 0.000000000000000000e+00 5.917626330440975968e-01 0.000000000000000000e+00 0.000000000000000000e+00 0.000000000000000000e+00 -4.872985799528827267e-01 -6.418499141816791376e-02 0.000000000000000000e+00 0.000000000000000000e+00 0.000000000000000000e+00 0.000000000000000000e+00 0.000000000000000000e+00 0.000000000000000000e+00 0.000000000000000000e+00 0.000000000000000000e+00
6.999999999999999556e-01 2.944966549975328030e-01 0.000000000000000000e+00 7.055033450024670305e-01 0.000000000000000000e+00 0.000000000000000000e+00 0.000000000000000000e+00 -4.255382013553395959e-01 -1.633573211068309050e-01 0.000000000000000000e+00 0.000000000000000000e+00 0.000000000000000000e+00 0.000000000000000000e+00 0.000000000000000000e+00 0.000000000000000000e+00 0.000000000000000000e+00 0.000000000000000000e+00
7.999999999999999334e-01 2.016257257057190722e-01 0.000000000000000000e+00 7.983742742942845361e-01 0.000000000000000000e+00 0.000000000000000000e+00 0.000000000000000000e+00 -3.219628305245025857e-01 -2.394007687907683812e-01 0.000000000000000000e+00 0.000000000000000000e+00 0.000000000000000000e+00 0.000000000000000000e+00 0.000000000000000000e+00 0.000000000000000000e+00 0.000000000000000000e+00 0.000000000000000000e+00
8.999999999999999112e-01 1.309041956252893213e-01 0.000000000000000000e+00 8.690958043747104567e-01 0.000000000000000000e+00 0.000000000000000000e+00 0.000000000000000000e+00 -1.963502522681703499e-01 -2.742532869558521047e-01 0.000000000000000000e+00 0.000000000000000000e+00 0.000000000000000000e+00 0.000000000000000000e+00 0.000000000000000000e+00 0.000000000000000000e+00 0.000000000000000000e+00 0.000000000000000000e+00
9.999999999999998890e-01 8.051229588359400113e-02 0.000000000000000000e+00 9.194877041164115639e-01 0.000000000000000000e+00 0.000000000000000000e+00 0.000000000000000000e+00 -7.368339725818356944e-02 -2.619175882170745040e-01 0.000000000000000000e+00 0.000000000000000000e+00 0.000000000000000000e+00 0.000000000000000000e+00 0.000000000000000000e+00 0.000000000000000000e+00 0.000000000000000000e+00 0.000000000000000000e+00
1.099999999999999867e+00 4.685974168281589053e-02 0.000000000000000000e+00 9.531402583171846299e-01 0.000000000000000000e+00 0.000000000000000000e+00 0.000000000000000000e+00 2.311432968173310343e-02 -2.100705451915856892e-01 0.000000000000000000e+00 0.000000000000000000e+00 0.000000000000000000e+00 0.000000000000000000e+00 0.000000000000000000e+00 0.000000000000000000e+00 0.000000000000000000e+00 0.000000000000000000e+00
1.199999999999999956e+00 2.578133356628746486e-02 0.000000000000000000e+00 9.742186664337121327e-01 0.000000000000000000e+00 0.000000000000000000e+00 0.000000000000000000e+00 8.007393070729085238e-02 -1.367655729461831893e-01 0.000000000000000000e+00 0.000000000000000000e+00 0.000000000000000000e+00 0.000000000000000000e+00 0.000000000000000000e+00 0.000000000000000000e+00 0.000000000000000000e+00 0.000000000000000000e+00
1.300000000000000044e+00 1.339119387525562234e-02 0.000000000000000000e+00 9.866088061247492158e-01 0.000000000000000000e+00 0.000000000000000000e+00 0.000000000000000000e+00 9.581556880149197375e-02 -6.349209749345073595e-02 0.000000000000000000e+00 0.000000000000000000e+00 0.000000000000000000e+00 0.000000000000000000e+00 0.000000000000000000e+00 0.000000000000000000e+00 0.000000000000000000e+00 0.000000000000000000e+00
1.399999999999999911e+00 6.560660593553074155e-03 0.000000000000000000e+00 9.934393394064462424e-01 0.000000000000000000e+00 0.000000000000000000e+00 0.000000000000000000e+00 8.037953340303707894e-02 -7.533176791593019367e-03 0.000000000000000000e+00 0.000000000000000000e+00 0.000000000000000000e+00 0.000000000000000000e+00 0.000000000000000000e+00 0.000000000000000000e+00 0.000000000000000000e+00 0.000000000000000000e+00
1.500000000000000000e+00 3.028004171467693281e-03 0.000000000000000000e+00 9.969719958285342409e-01 0.000000000000000000e+00 0.000000000000000000e+00 0.000000000000000000e+00 4.984212702303196518e-02 2.312136764079526785e-02 0.000000000000000000e+00 0.000000000000000000e+00 0.000000000000000000e+00 0.000000000000000000e+00 0.000000000000000000e+00 0.000000000000000000e+00 0.000000000000000000e+00 0.000000000000000000e+00
1.599999999999999867e+00 1.315384541758893343e-03 0.000000000000000000e+00 9.986846154582412760e-01 0.000000000000000000e+00 0.000000000000000000e+00 0.000000000000000000e+00 1.961582796241467461e-02 3.047742645878271164e-02 0.000000000000000000e+00 0.000000000000000000e+00 0.000000000000000000e+00 0.000000000000000000e+00 0.000000000000000000e+00 0.000000000000000000e+00 0.000000000000000000e+00 0.000000000000000000e+00
1.699999999999999956e+00 5.378108843811743069e-04 0.000000000000000000e+00 9.994621891156172389e-01 0.000000000000000000e+00 0.000000000000000000e+00 0.000000000000000000e+00 -7.261603628792043328e-04 2.317313620948448921e-02 0.000000000000000000e+00 0.000000000000000000e+00 0.000000000000000000e+00 0.000000000000000000e+00 0.000000000000000000e+00 0.000000000000000000e+00 0.000000000000000000e+00 0.000000000000000000e+00
1.800000000000000044e+00 2.067589650441621510e-04 0.000000000000000000e+00 9.997932410349575916e-01 0.000000000000000000e+00 0.000000000000000000e+00 0.000000000000000000e+00 -8.983852538301103849e-03 1.122526325523063966e-02 0.000000000000000000e+00 0.000000000000000000e+00 0.000000000000000000e+00 0.000000000000000000e+00 0.000000000000000000e+00 0.000000000000000000e+00 0.000000000000000000e+00 0.000000000000000000e+00
1.899999999999999911e+00 7.503618173396745189e-05 0.000000000000000000e+00 9.999249638182660105e-01 0.000000000000000000e+00 0.000000000000000000e+00 0.000000000000000000e+00 -8.472811020864407655e-03 1.800533429096459531e-03 0.000000000000000000e+00 0.000000000000000000e+00 0.000000000000000000e+00 0.000000000000000000e+00 0.000000000000000000e+00 0.000000000000000000e+00 0.000000000000000000e+00 0.000000000000000000e+00
2.000000000000000000e+00 2.577601423710835422e-05 0.000000000000000000e+00 9.999742239857596360e-01 0.000000000000000000e+00 0.000000000000000000e+00 0.000000000000000000e+00 -4.392052031664727720e-03 -2.546595279163469706e-03 0.000000000000000000e+00 0.000000000000000000e+00 0.000000000000000000e+00 0.000000000000000000e+00 0.000000000000000000e+00 0.000000000000000000e+00 0.000000000000000000e+00 0.000000000000000000e+00
2.099999999999999645e+00 8.398907650988951382e-06 0.000000000000000000e+00 9.999916010923487475e-01 0.000000000000000000e+00 0.000000000000000000e+00 0.000000000000000000e+00 -7.463152390877186978e-04 -2.800309700501318368e-03 0.000000000000000000e+00 0.000000000000000000e+00 0.000000000000000000e+00 0.000000000000000000e+00 0.000000000000000000e+00 0.000000000000000000e+00 0.000000000000000000e+00 0.000000000000000000e+00
2.199999999999999734e+00 2.639854509087760199e-06 0.000000000000000000e+00 9.999973601454869021e-01 0.000000000000000000e+00 0.000000000000000000e+00 0.000000000000000000e+00 8.897343823763280727e-04 -1.359450569636215913e-03 0.000000000000000000e+00 0.000000000000000000e+00 0.000000000000000000e+00 0.000000000000000000e+00 0.000000000000000000e+00 0.000000000000000000e+00 0.000000000000000000e+00 0.000000000000000000e+00
2.299999999999999822e+00 7.983950398376990206e-07 0.000000000000000000e+00 9.999992016049592536e-01 0.000000000000000000e+00 0.000000000000000000e+00 0.000000000000000000e+00 8.890979311698713958e-04 -8.842361436379791648e-05 0.000000000000000000e+00 0.000000000000000000e+00 0.000000000000000000e+00 0.000000000000000000e+00 0.000000000000000000e+00 0.000000000000000000e+00 0.000000000000000000e+00 0.000000000000000000e+00
2.399999999999999911e+00 2.357527258135028984e-07 0.000000000000000000e+00 9.999997642472756576e-01 0.000000000000000000e+00 0.000000000000000000e+00 0.000000000000000000e+00 3.156657428008756254e-04 3.687652774903738971e-04 0.000000000000000000e+00 0.000000000000000000e+00 0.000000000000000000e+00 0.000000000000000000e+00 0.000000000000000000e+00 0.000000000000000000e+00 0.000000000000000000e+00 0.000000000000000000e+00
2.500000000000000000e+00 7.000319763238952581e-08 0.000000000000000000e+00 9.999999299967999855e-01 0.000000000000000000e+00 0.000000000000000000e+00 0.000000000000000000e+00 -8.215164244225814437e-05 2.513360606267948786e-04 0.000000000000000000e+00 0.000000000000000000e+00 0.000000000000000000e+00 0.000000000000000000e+00 0.000000000000000000e+00 0.000000000000000000e+00 0.000000000000000000e+00 0.000000000000000000e+00
2.600000000000000089e+00 2.207672851775583641e-08 0.000000000000000000e+00 9.999999779232721098e-01 0.000000000000000000e+00 0.000000000000000000e+00 0.000000000000000000e+00 -1.459055035503111419e-04 2.590739871948610250e-05 0.000000000000000000e+00 0.000000000000000000e+00 0.000000000000000000e+00 0.000000000000000000e+00 0.000000000000000000e+00 0.000000000000000000e+00 0.000000000000000000e+00 0.000000000000000000e+00
2.699999999999999734e+00 6.663690746368569581e-09 0.000000000000000000e+00 9.999999933363056259e-01 0.000000000000000000e+00 0.000000000000000000e+00 0.000000000000000000e+00 -4.887592885255057475e-05 -6.472258071029690098e-05 0.000000000000000000e+00 0.000000000000000000e+00 0.000000000000000000e+00 0.000000000000000000e+00 0.000000000000000000e+00 0.000000000000000000e+00 0.000000000000000000e+00 0.000000000000000000e+00
2.799999999999999822e+00 2.244406206851823359e-09 0.000000000000000000e+00 9.999999977555921182e-01 0.000000000000000000e+00 0.000000000000000000e+00 0.000000000000000000e+00 2.601855912320692873e-05 -3.838601127535606395e-05 0.000000000000000000e+00 0.000000000000000000e+00 0.000000000000000000e+00 0.000000000000000000e+00 0.000000000000000000e+00 0.000000000000000000e+00 0.000000000000000000e+00 0.000000000000000000e+00
2.899999999999999911e+00 9.274332859022895679e-10 0.000000000000000000e+00 9.999999990725672028e-01 0.000000000000000000e+00 0.000000000000000000e+00 0.000000000000000000e+00 2.668910091358787158e-05 1.006450662162316990e-05 0.000000000000000000e+00 0.000000000000000000e+00 0.000000000000000000e+00 0.000000000000000000e+00 0.000000000000000000e+00 0.000000000000000000e+00 0.000000000000000000e+00 0.000000000000000000e+00
3.000000000000000000e+00 3.225380096299646627e-10 0.000000000000000000e+00 9.999999996774625588e-01 0.000000000000000000e+00 0.000000000000000000e+00 0.000000000000000000e+00 2.896127746108427585e-06 1.302586562992728405e-05 0.000000000000000000e+00 0.000000000000000000e+00 0.000000000000000000e+00 0.000000000000000000e+00 0.000000000000000000e+00 0.000000000000000000e+00 0.000000000000000000e+00 0.000000000000000000e+00
