0.000000000000000000e+00 -7.246563841968809298e-12 1.030523565662418728e-11 -1.000000000000000000e+00
1.025641025641025605e-01 -1.926453276893906608e-01 2.521528023788782158e-01 -9.458696062608675792e-01
2.051282051282051211e-01 -3.805925632895382771e-01 4.512783991999130828e-01 -7.940226874980946814e-01
3.076923076923077094e-01 -5.548341459705942169e-01 5.593010113422499652e-01 -5.719153214223017256e-01
4.102564102564102422e-01 -7.006783152532900516e-01 5.615811438950544243e-01 -3.141052019966729114e-01
5.128205128205127750e-01 -8.001540507089438536e-01 4.670764393899081712e-01 -5.243449682561120151e-02
6.153846153846154188e-01 -8.369100862858320777e-01 3.028405918722323342e-01 1.897616528153662774e-01
7.179487179487179516e-01 -8.017412882911630900e-01 1.064435366668372573e-01 3.989021741715387814e-01
8.205128205128204844e-01 -6.971372825956568819e-01 -8.190913584799797142e-02 5.695917927080830223e-01
9.230769230769230171e-01 -5.392490580926935229e-01 -2.272945271142215451e-01 7.021886931736781579e-01
1.025641025641025550e+00 -3.557940638584302095e-01 -3.074307247254957076e-01 8.005742154902433239e-01
1.128205128205128194e+00 -1.795137780107416703e-01 -3.175951768881458692e-01 8.704391615885548328e-01
1.230769230769230838e+00 -3.890477910855130728e-02 -2.707542137682620864e-01 9.180148145197546405e-01
1.333333333333333259e+00 4.997753119170457448e-02 -1.918615445283083087e-01 9.491869995074954103e-01
1.435897435897435903e+00 8.691267157755704076e-02 -1.083692139925881565e-01 9.689489387633272166e-01
1.538461538461538325e+00 8.460267555063774592e-02 -4.111020204859698601e-02 9.811671639400448841e-01
1.641025641025640969e+00 6.152623639577473741e-02 6.003733406939257278e-04 9.886036715412627185e-01
1.743589743589743613e+00 3.428815425694413388e-02 1.827450671760466258e-02 9.931021860999365014e-01
1.846153846153846034e+00 1.306611713900459118e-02 1.973314954371475916e-02 9.958255318904069009e-01
1.948717948717948678e+00 1.020614450267355935e-03 1.385660682735735498e-02 9.974806149424697566e-01
2.051282051282051100e+00 -3.429466918972149184e-03 7.062684423326007557e-03 9.984893234750730207e-01
2.153846153846153744e+00 -3.562208580664075284e-03 2.332295985227016578e-03 9.991033713851800169e-01
2.256410256410256387e+00 -2.214432588735881779e-03 6.730215804738527881e-05 9.994747919912067013e-01
2.358974358974359031e+00 -9.522747838244902552e-04 -5.610146462276047186e-04 9.996970406419229960e-01
2.461538461538461675e+00 -2.348550425985177176e-04 -4.713767473292863126e-04 9.998281420238600559e-01
2.564102564102563875e+00 2.949728038938791521e-05 -2.358520434257530560e-04 9.999042039252761249e-01
2.666666666666666519e+00 6.722730997144972444e-05 -7.691876093562085377e-05 9.999475486813427239e-01
2.769230769230769162e+00 4.269613631003823422e-05 -9.405833939662929687e-06 9.999717949076900592e-01
2.871794871794871806e+00 1.539587647417840912e-05 6.759569038288398799e-06 9.999851047239625146e-01
2.974358974358974450e+00 -6.725337500396171589e-07 5.002028127780998887e-06 9.999922742192807190e-01
3.076923076923076650e+00 3.802237524320439291e-06 2.363713398767863768e-06 9.999960640253715560e-01
3.179487179487179294e+00 7.782975290706515054e-07 3.075175794260501887e-06 9.999980302039116475e-01
3.282051282051281937e+00 2.702273439114453048e-06 -1.216404974833141770e-06 9.999990314826376903e-01
3.384615384615384581e+00 5.892484392198763737e-07 -1.433210400458352956e-06 9.999995320824431877e-01
3.487179487179487225e+00 -6.013481528714377016e-07 1.860947430988522541e-06 9.999997778329101639e-01
3.589743589743589425e+00 -1.339738222418340692e-06 3.367447017772832146e-07 9.999998963182902267e-01
3.692307692307692069e+00 -8.224222348768861264e-07 2.673339066155156883e-06 9.999999524308620380e-01
3.794871794871794712e+00 -6.186205789893257959e-07 -3.120218713443436796e-06 9.999999785416290310e-01
3.897435897435897356e+00 -1.410622290409142387e-06 1.253216121657846079e-07 9.999999904863220435e-01
4.000000000000000000e+00 5.026266292971470946e-07 -1.147509927317775775e-06 9.999999958541202494e-01
