1.000000000000000056e-01 9.756029077888325185e-01 0.000000000000000000e+00 2.424149722386355343e-02 1.555949873064664014e-04 0.000000000000000000e+00 0.000000000000000000e+00 -3.881471102528084383e-04 1.537853196390629451e-01 0.000000000000000000e+00 0.000000000000000000e+00 0.000000000000000000e+00 0.000000000000000000e+00 -1.111683555588294367e-03 1.592487092130648015e-03 -1.008475829639741451e-02 -7.077893291806492196e-03
2.000000000000000111e-01 9.056416227437302791e-01 0.000000000000000000e+00 9.194496133437433938e-02 2.413415921896830494e-03 0.000000000000000000e+00 0.000000000000000000e+00 -2.921157951929264762e-03 2.885492173644430003e-01 0.000000000000000000e+00 0.000000000000000000e+00 0.000000000000000000e+00 0.000000000000000000e+00 -8.614937826788689190e-03 1.215254212077125466e-02 -3.786440142584216600e-02 -2.742219940639761822e-02
2.999999999999999889e-01 7.991593606882473333e-01 0.000000000000000000e+00 1.892374864090149988e-01 1.160315290273975647e-02 0.000000000000000000e+00 0.000000000000000000e+00 -8.893477190455464226e-03 3.887824773931212730e-01 0.000000000000000000e+00 0.000000000000000000e+00 0.000000000000000000e+00 0.000000000000000000e+00 -2.756099965788289322e-02 3.789647461097091913e-02 -7.656185060608459991e-02 -5.840420611048453142e-02
4.000000000000000222e-01 6.692385705102655846e-01 0.000000000000000000e+00 2.966382362633348535e-01 3.412319322639954799e-02 0.000000000000000000e+00 0.000000000000000000e+00 -1.821074802828232669e-02 4.451854870257889174e-01 0.000000000000000000e+00 0.000000000000000000e+00 0.000000000000000000e+00 0.000000000000000000e+00 -6.055625738453538492e-02 8.034415689196902632e-02 -1.168604503215567164e-01 -9.581331959458833092e-02
5.000000000000000000e-01 5.305422467472520331e-01 0.000000000000000000e+00 3.934829037007808172e-01 7.597484955196702472e-02 0.000000000000000000e+00 0.000000000000000000e+00 -2.937913869880332679e-02 4.559563246461173502e-01 0.000000000000000000e+00 0.000000000000000000e+00 0.000000000000000000e+00 0.000000000000000000e+00 -1.071010155971549166e-01 1.357356875317635436e-01 -1.492898651135202703e-01 -1.342400966657982531e-01
5.999999999999999778e-01 3.967648693767003576e-01 0.000000000000000000e+00 4.623673034408821159e-01 1.408678271824184702e-01 0.000000000000000000e+00 0.000000000000000000e+00 -3.998726671307594599e-02 4.264412283739607012e-01 0.000000000000000000e+00 0.000000000000000000e+00 0.000000000000000000e+00 0.000000000000000000e+00 -1.635078926273862698e-01 1.959536844539158384e-01 -1.665872470259006088e-01 -1.677500944639654656e-01
6.999999999999999556e-01 2.785765406373104658e-01 0.000000000000000000e+00 4.925039108219478878e-01 2.289195485407427844e-01 0.000000000000000000e+00 0.000000000000000000e+00 -4.752410114979033207e-02 3.673438383121468420e-01 0.000000000000000000e+00 0.000000000000000000e+00 0.000000000000000000e+00 0.000000000000000000e+00 -2.234403905191146289e-01 2.506355218766435078e-01 -1.653806378469798166e-01 -1.908425020139942752e-01
7.999999999999999334e-01 1.824386791419540244e-01 0.000000000000000000e+00 4.812733775498372335e-01 3.362879433082078817e-01 0.000000000000000000e+00 0.000000000000000000e+00 -5.020667403261971917e-02 2.920311099824891010e-01 0.000000000000000000e+00 0.000000000000000000e+00 0.000000000000000000e+00 0.000000000000000000e+00 -2.789949786189391823e-01 2.898417433737318638e-01 -1.467677195181416594e-01 -1.995273532678679684e-01
8.999999999999999112e-01 1.104481816111961417e-01 0.000000000000000000e+00 4.337775563465976481e-01 4.557742620422061686e-01 0.000000000000000000e+00 0.000000000000000000e+00 -4.752749250678240528e-02 2.136611330442327039e-01 0.000000000000000000e+00 0.000000000000000000e+00 0.000000000000000000e+00 0.000000000000000000e+00 -3.221162632778112322e-01 3.065057235948596692e-01 -1.156790644398475870e-01 -1.922440962047046453e-01
9.999999999999998890e-01 6.103571725404132592e-02 0.000000000000000000e+00 3.607525888390337165e-01 5.782116939069252837e-01 0.000000000000000000e+00 0.000000000000000000e+00 -4.034716456302830240e-02 1.427967062633399842e-01 0.000000000000000000e+00 0.000000000000000000e+00 0.000000000000000000e+00 0.000000000000000000e+00 -3.460790547475172119e-01 2.980279405558233785e-01 -7.926235483861321374e-02 -1.703204173389416820e-01
1.099999999999999867e+00 3.022928814385295732e-02 0.000000000000000000e+00 2.755776052863623815e-01 6.941931065697842795e-01 0.000000000000000000e+00 0.000000000000000000e+00 -3.053028682823130321e-02 8.601404780943122663e-02 0.000000000000000000e+00 0.000000000000000000e+00 0.000000000000000000e+00 0.000000000000000000e+00 -3.467002924758642024e-01 2.666514225075144462e-01 -4.481826021911234498e-02 -1.377544445453827704e-01
1.199999999999999956e+00 1.304814837526782276e-02 0.000000000000000000e+00 1.912329479765301210e-01 7.957189036482017475e-01 0.000000000000000000e+00 0.000000000000000000e+00 -2.029638255321822640e-02 4.564310168757447495e-02 0.000000000000000000e+00 0.000000000000000000e+00 0.000000000000000000e+00 0.000000000000000000e+00 -3.230521681769242259e-01 2.186434731122718078e-01 -1.789846331999874265e-02 -1.003110328152242575e-01
1.300000000000000044e+00 4.689720688380426966e-03 0.000000000000000000e+00 1.179287111694403006e-01 8.773815681421821555e-01 0.000000000000000000e+00 0.000000000000000000e+00 -1.153320470392683005e-02 2.049482636221518564e-02 0.000000000000000000e+00 0.000000000000000000e+00 0.000000000000000000e+00 0.000000000000000000e+00 -2.775159477408043474e-01 1.626449392547561767e-01 -1.125523680716940950e-03 -6.413585355787232434e-02
1.399999999999999911e+00 1.293686564611199429e-03 0.000000000000000000e+00 6.182490452843525386e-02 9.368814089069529283e-01 0.000000000000000000e+00 0.000000000000000000e+00 -5.321104368445105266e-03 7.188038410512494550e-03 0.000000000000000000e+00 0.000000000000000000e+00 0.000000000000000000e+00 0.000000000000000000e+00 -2.152366676826419356e-01 1.076837061237280596e-01 6.005058075963395914e-03 -3.429242113474673809e-02
1.500000000000000000e+00 2.323790843167494974e-04 0.000000000000000000e+00 2.487362845210779744e-02 9.748939924635768861e-01 0.000000000000000000e+00 0.000000000000000000e+00 -1.792716324782098105e-03 1.601961004976104217e-03 0.000000000000000000e+00 0.000000000000000000e+00 0.000000000000000000e+00 0.000000000000000000e+00 -1.430941673876129638e-01 6.142646190234456877e-02 6.357112225474370777e-03 -1.364302325884427305e-02
1.599999999999999867e+00 2.046661313942989735e-05 0.000000000000000000e+00 5.567546305367090595e-03 9.944119870814930318e-01 0.000000000000000000e+00 0.000000000000000000e+00 -3.327757511637418285e-04 5.664907212228455707e-05 0.000000000000000000e+00 0.000000000000000000e+00 0.000000000000000000e+00 0.000000000000000000e+00 -6.852523146897079864e-02 2.899530046639461553e-02 3.800772013896247005e-03 -2.430302211915055452e-03
1.699999999999999956e+00 4.945975554109567736e-06 0.000000000000000000e+00 1.598151777125848014e-04 9.998352388467348639e-01 0.000000000000000000e+00 0.000000000000000000e+00 1.982579211986743785e-05 -1.993439591537444848e-05 0.000000000000000000e+00 0.000000000000000000e+00 0.000000000000000000e+00 0.000000000000000000e+00 1.589575623646950894e-03 1.254041951752920062e-02 1.761411817451384847e-03 1.357421386889486959e-03
1.800000000000000044e+00 5.758432953921094331e-06 0.000000000000000000e+00 3.958269998774021324e-03 9.960359715682733928e-01 0.000000000000000000e+00 0.000000000000000000e+00 1.464322668640434468e-04 3.675655012407460208e-05 0.000000000000000000e+00 0.000000000000000000e+00 0.000000000000000000e+00 0.000000000000000000e+00 6.173714787801841408e-02 1.145006071308445235e-02 2.177580010230688399e-03 9.968760544434469850e-04
1.899999999999999911e+00 2.702930284904226629e-05 0.000000000000000000e+00 1.239105923548150003e-02 9.875819114616695149e-01 0.000000000000000000e+00 0.000000000000000000e+00 5.606943193719032001e-04 -1.433307234254212908e-04 0.000000000000000000e+00 0.000000000000000000e+00 0.000000000000000000e+00 0.000000000000000000e+00 1.082032459290020038e-01 2.300529441406094083e-02 5.162296258288368370e-03 -2.106285999428715897e-04
2.000000000000000000e+00 9.008524314756272816e-05 0.000000000000000000e+00 2.169706353601170631e-02 9.782128512208404514e-01 0.000000000000000000e+00 0.000000000000000000e+00 1.335605106191016175e-03 -4.132122927859678205e-04 0.000000000000000000e+00 0.000000000000000000e+00 0.000000000000000000e+00 0.000000000000000000e+00 1.391381753804903088e-01 4.318465655360100020e-02 9.387357568425357818e-03 8.482667175395700916e-06
2.099999999999999645e+00 1.783964934862755159e-04 0.000000000000000000e+00 2.923631624197787354e-02 9.705852872645378548e-01 0.000000000000000000e+00 0.000000000000000000e+00 2.223520404998138422e-03 -5.211658726100810643e-04 0.000000000000000000e+00 0.000000000000000000e+00 0.000000000000000000e+00 0.000000000000000000e+00 1.543601476805699646e-01 6.744837454823651712e-02 1.294194312858955309e-02 2.378056111245235599e-03
2.199999999999999734e+00 2.506140777830615906e-04 0.000000000000000000e+00 3.352834377261522392e-02 9.662210421496019164e-01 0.000000000000000000e+00 0.000000000000000000e+00 2.876768788633036512e-03 -3.561978130236411865e-04 0.000000000000000000e+00 0.000000000000000000e+00 0.000000000000000000e+00 0.000000000000000000e+00 1.550891700633729997e-01 9.134079352471782820e-02 1.427720655908883141e-02 6.189507147467934907e-03
2.299999999999999822e+00 2.730997886060026656e-04 0.000000000000000000e+00 3.410073474691964479e-02 9.656261654644721082e-01 0.000000000000000000e+00 0.000000000000000000e+00 3.051704640343551322e-03 1.727325296003207111e-06 0.000000000000000000e+00 0.000000000000000000e+00 0.000000000000000000e+00 0.000000000000000000e+00 1.436076426172714637e-01 1.109297376493980636e-01 1.284595521205499080e-02 9.934474055165133308e-03
2.399999999999999911e+00 2.401054717957838160e-04 0.000000000000000000e+00 3.127164068752111281e-02 9.684882538406841546e-01 0.000000000000000000e+00 0.000000000000000000e+00 2.715404463749116187e-03 3.675211706970908957e-04 0.000000000000000000e+00 0.000000000000000000e+00 0.000000000000000000e+00 0.000000000000000000e+00 1.229785302779252132e-01 1.231360943301578748e-01 9.231410539909156235e-03 1.213756359123269006e-02
2.500000000000000000e+00 1.719390134235533065e-04 0.000000000000000000e+00 2.590599229708111240e-02 9.739220686894943801e-01 0.000000000000000000e+00 0.000000000000000000e+00 2.030088426727209329e-03 5.770549933972343943e-04 0.000000000000000000e+00 0.000000000000000000e+00 0.000000000000000000e+00 0.000000000000000000e+00 9.679933249867657408e-02 1.259377100486880063e-01 4.780292950771149532e-03 1.202514224225171603e-02
2.600000000000000089e+00 9.870188230006376800e-05 0.000000000000000000e+00 1.916707800301312853e-02 9.807342201146884708e-01 0.000000000000000000e+00 0.000000000000000000e+00 1.250408647335606287e-03 5.729792470780671436e-04 0.000000000000000000e+00 0.000000000000000000e+00 0.000000000000000000e+00 0.000000000000000000e+00 6.887950933238264073e-02 1.185471317380025341e-01 9.496748904066690386e-04 9.792775932573457784e-03
2.699999999999999734e+00 4.325560211716978146e-05 0.000000000000000000e+00 1.229125622406418428e-02 9.876654881738152758e-01 0.000000000000000000e+00 0.000000000000000000e+00 6.015417163322810687e-04 4.120842051909959290e-04 0.000000000000000000e+00 0.000000000000000000e+00 0.000000000000000000e+00 0.000000000000000000e+00 4.294425246533853380e-02 1.014664514203299228e-01 -1.300108465962709296e-03 6.405607290569925553e-03
2.799999999999999822e+00 1.295533046927364729e-05 0.000000000000000000e+00 6.377583468862572935e-03 9.936094612006686200e-01 0.000000000000000000e+00 0.000000000000000000e+00 1.965908675759591123e-04 2.097043736103463652e-04 0.000000000000000000e+00 0.000000000000000000e+00 0.000000000000000000e+00 0.000000000000000000e+00 2.223263859861492400e-02 7.643649025074300551e-02 -1.828018601076559667e-03 3.087221847622242162e-03
2.899999999999999911e+00 2.084631767472296734e-06 0.000000000000000000e+00 2.223306281766829467e-03 9.977746090864645367e-01 0.000000000000000000e+00 0.000000000000000000e+00 2.384348136899330605e-05 6.376756623350745721e-05 0.000000000000000000e+00 0.000000000000000000e+00 0.000000000000000000e+00 0.000000000000000000e+00 9.141752868751483463e-03 4.620375398503472758e-02 -1.227151495059273199e-03 7.577063540460014183e-04
3.000000000000000000e+00 2.805516371839461911e-07 0.000000000000000000e+00 2.243488593212843781e-04 9.997753705890388698e-01 0.000000000000000000e+00 0.000000000000000000e+00 -6.575542172926781167e-06 4.439185444134202125e-06 0.000000000000000000e+00 0.000000000000000000e+00 0.000000000000000000e+00 0.000000000000000000e+00 4.943172250855107537e-03 1.413730819883976184e-02 -4.246204049221328895e-04 -3.165381835065343469e-04
3.099999999999999645e+00 3.116144958107027737e-07 0.000000000000000000e+00 3.564188004640544711e-04 9.996432695850393513e-01 0.000000000000000000e+00 0.000000000000000000e+00 6.771606886809224241e-06 -8.075520083257760724e-06 0.000000000000000000e+00 0.000000000000000000e+00 0.000000000000000000e+00 0.000000000000000000e+00 9.640666411811396608e-03 -1.622803863874769381e-02 -1.845150584394796868e-04 -5.267466848277549711e-04
3.199999999999999734e+00 9.480277114154892560e-07 0.000000000000000000e+00 2.229509290424446389e-03 9.977695426818624647e-01 0.000000000000000000e+00 0.000000000000000000e+00 9.175987156202331077e-06 -4.504924372082423162e-05 0.000000000000000000e+00 0.000000000000000000e+00 0.000000000000000000e+00 0.000000000000000000e+00 2.202264579304467201e-02 -4.170778705090706640e-02 -7.521025660579681209e-04 -6.166434947339402822e-04
3.299999999999999822e+00 4.791099558286247213e-06 0.000000000000000000e+00 5.203049425787474244e-03 9.947921594746571561e-01 0.000000000000000000e+00 0.000000000000000000e+00 2.864130712183259231e-06 -1.578611773149385280e-04 0.000000000000000000e+00 0.000000000000000000e+00 0.000000000000000000e+00 0.000000000000000000e+00 3.988741122268660289e-02 -5.987442854720892438e-02 -1.794640375158860048e-03 -1.243148146986280912e-03
3.399999999999999911e+00 1.398285835697004978e-05 0.000000000000000000e+00 8.531345682609816836e-03 9.914546714590327658e-01 0.000000000000000000e+00 0.000000000000000000e+00 2.312913740638233514e-05 -3.446122838493527137e-04 0.000000000000000000e+00 0.000000000000000000e+00 0.000000000000000000e+00 0.000000000000000000e+00 6.039491231122407627e-02 -6.936063049535717839e-02 -2.637993800705649722e-03 -2.627613062913337731e-03
3.500000000000000000e+00 2.723539390416307085e-05 0.000000000000000000e+00 1.150244163470731489e-02 9.884703229713888151e-01 0.000000000000000000e+00 0.000000000000000000e+00 9.933332455857265034e-05 -5.508233303251995746e-04 0.000000000000000000e+00 0.000000000000000000e+00 0.000000000000000000e+00 0.000000000000000000e+00 8.047565002788788224e-02 -6.995349847543776145e-02 -2.654922775700307470e-03 -4.457885261658412791e-03
3.599999999999999645e+00 3.998002113049713239e-05 0.000000000000000000e+00 1.355680189349221798e-02 9.864032180853766762e-01 0.000000000000000000e+00 0.000000000000000000e+00 2.266052669541434726e-04 -7.004650204920002910e-04 0.000000000000000000e+00 0.000000000000000000e+00 0.000000000000000000e+00 0.000000000000000000e+00 9.725046238408154020e-02 -6.256852692324260667e-02 -1.607281024191716673e-03 -6.070672128714848723e-03
3.699999999999999734e+00 4.701370739356733271e-05 0.000000000000000000e+00 1.436027001922399009e-02 9.855927162733871816e-01 0.000000000000000000e+00 0.000000000000000000e+00 3.638596090767248878e-04 -7.367059769658331446e-04 0.000000000000000000e+00 0.000000000000000000e+00 0.000000000000000000e+00 0.000000000000000000e+00 1.083828169881466269e-01 -4.905652382851548310e-02 2.295156798001525176e-04 -6.803211132668999031e-03
3.799999999999999822e+00 4.551137065712144243e-05 0.000000000000000000e+00 1.382871541334072286e-02 9.861257732160065848e-01 0.000000000000000000e+00 0.000000000000000000e+00 4.557922760562530006e-04 -6.493205816369819559e-04 0.000000000000000000e+00 0.000000000000000000e+00 0.000000000000000000e+00 0.000000000000000000e+00 1.123287748967742861e-01 -3.192333034298527883e-02 2.203394931555987743e-03 -6.326529975453731684e-03
3.899999999999999911e+00 3.649554024881277651e-05 0.000000000000000000e+00 1.212005304985946420e-02 9.878434514098922703e-01 0.000000000000000000e+00 0.000000000000000000e+00 4.638477493409050062e-04 -4.766269750055148694e-04 0.000000000000000000e+00 0.000000000000000000e+00 0.000000000000000000e+00 0.000000000000000000e+00 1.085197575158102778e-01 -1.400633117483359065e-02 3.602365001624978098e-03 -4.803630071962167701e-03
3.999999999999999556e+00 2.392170205844225842e-05 0.000000000000000000e+00 9.580225677907932419e-03 9.903958526200324908e-01 0.000000000000000000e+00 0.000000000000000000e+00 3.864878060407355960e-04 -2.824935199923651733e-04 0.000000000000000000e+00 0.000000000000000000e+00 0.000000000000000000e+00 0.000000000000000000e+00 9.738914017795294309e-02 1.889759108971524916e-03 3.984620600765439481e-03 -2.795490789512565001e-03
