1.000000000000000056e-01 9.755984536320355671e-01 0.000000000000000000e+00 2.424668395496376236e-02 1.548624129990920607e-04 0.000000000000000000e+00 0.000000000000000000e+00 -3.308546253237015116e-04 1.538015537095028529e-01 0.000000000000000000e+00 0.000000000000000000e+00 0.000000000000000000e+00 0.000000000000000000e+00 -1.105418552444518672e-03 1.591524371796460783e-03 -1.008027280670349690e-02 -7.033607356937746601e-03
2.000000000000000111e-01 9.055739039611482299e-01 0.000000000000000000e+00 9.202120969434884890e-02 2.404886344503197413e-03 0.000000000000000000e+00 0.000000000000000000e+00 -2.494333587205920660e-03 2.886620592027903665e-01 0.000000000000000000e+00 0.000000000000000000e+00 0.000000000000000000e+00 0.000000000000000000e+00 -8.560095051430571811e-03 1.216656580006903951e-02 -3.793336576572120533e-02 -2.718201756815636153e-02
2.999999999999999889e-01 7.988505469045509289e-01 0.000000000000000000e+00 1.895652259999595635e-01 1.158422709548958922e-02 0.000000000000000000e+00 0.000000000000000000e+00 -7.600494023761237075e-03 3.890713520207122467e-01 0.000000000000000000e+00 0.000000000000000000e+00 0.000000000000000000e+00 0.000000000000000000e+00 -2.735182260059345130e-02 3.805055095546788085e-02 -7.699983931666552761e-02 -5.766360115928240160e-02
4.000000000000000222e-01 6.683986070477975217e-01 0.000000000000000000e+00 2.974466875760858331e-01 3.415470537611465379e-02 0.000000000000000000e+00 0.000000000000000000e+00 -1.558346623892181183e-02 4.456120591145708021e-01 0.000000000000000000e+00 0.000000000000000000e+00 0.000000000000000000e+00 0.000000000000000000e+00 -5.999367653457304828e-02 8.099359699644856359e-02 -1.181953458120050954e-01 -9.412129261320893725e-02
5.000000000000000000e-01 5.288570800569823982e-01 0.000000000000000000e+00 3.948626324874372484e-01 7.628028745558064483e-02 0.000000000000000000e+00 0.000000000000000000e+00 -2.516650215747195593e-02 4.562812137300470416e-01 0.000000000000000000e+00 0.000000000000000000e+00 0.000000000000000000e+00 0.000000000000000000e+00 -1.058687264138574585e-01 1.375210815821356625e-01 -1.521641592356726691e-01 -1.311008723543314325e-01
5.999999999999999778e-01 3.940289515981281743e-01 0.000000000000000000e+00 4.640436741713289126e-01 1.419273742305411923e-01 0.000000000000000000e+00 0.000000000000000000e+00 -3.426694471107624013e-02 4.262304763149252218e-01 0.000000000000000000e+00 0.000000000000000000e+00 0.000000000000000000e+00 0.000000000000000000e+00 -1.611679981654709770e-01 1.997132358258132956e-01 -1.715380193331308978e-01 -1.627826845466232575e-01
6.999999999999999556e-01 2.748137701105324293e-01 0.000000000000000000e+00 4.936956921882272864e-01 2.314905377012387577e-01 0.000000000000000000e+00 0.000000000000000000e+00 -4.068682868123117691e-02 3.660859959376784323e-01 0.000000000000000000e+00 0.000000000000000000e+00 0.000000000000000000e+00 0.000000000000000000e+00 -2.194422405573384638e-01 2.571594530927510114e-01 -1.726044342811481613e-01 -1.839143732321320557e-01
7.999999999999999334e-01 1.779475922721019399e-01 0.000000000000000000e+00 4.807510878806710020e-01 3.413013198472272247e-01 0.000000000000000000e+00 0.000000000000000000e+00 -4.283817293107847202e-02 2.893326623583985513e-01 0.000000000000000000e+00 0.000000000000000000e+00 0.000000000000000000e+00 0.000000000000000000e+00 -2.726869233904011813e-01 2.995376814745768224e-01 -1.559739065873023411e-01 -1.908032718950385398e-01
8.999999999999999112e-01 1.057376333354906051e-01 0.000000000000000000e+00 4.301541293270929045e-01 4.641082373374170178e-01 0.000000000000000000e+00 0.000000000000000000e+00 -4.025125434619054171e-02 2.094357088479100182e-01 0.000000000000000000e+00 0.000000000000000000e+00 0.000000000000000000e+00 0.000000000000000000e+00 -3.127531750299351043e-01 3.190979884287505897e-01 -1.260985356391021994e-01 -1.821341976327487122e-01
9.999999999999998890e-01 5.668856989072348224e-02 0.000000000000000000e+00 3.529455326717714225e-01 5.903658974375030066e-01 0.000000000000000000e+00 0.000000000000000000e+00 -3.369076395275188984e-02 1.373787098455469535e-01 0.000000000000000000e+00 0.000000000000000000e+00 0.000000000000000000e+00 0.000000000000000000e+00 -3.328093753352264761e-01 3.124178705452977378e-01 -8.983528319622881286e-02 -1.593631711758233815e-01
1.099999999999999867e+00 2.672245438950571553e-02 0.000000000000000000e+00 2.632812136860271379e-01 7.099963319244697590e-01 0.000000000000000000e+00 0.000000000000000000e+00 -2.486026842391502595e-02 8.010922095161536471e-02 0.000000000000000000e+00 0.000000000000000000e+00 0.000000000000000000e+00 0.000000000000000000e+00 -3.285644866756169957e-01 2.810232625035565812e-01 -5.448301116737662431e-02 -1.265086799573964527e-01
1.199999999999999956e+00 1.062256444136897189e-02 0.000000000000000000e+00 1.752472674898082061e-01 8.141301680688215470e-01 0.000000000000000000e+00 0.000000000000000000e+00 -1.581747603141955491e-02 4.014203337757767803e-02 0.000000000000000000e+00 0.000000000000000000e+00 0.000000000000000000e+00 0.000000000000000000e+00 -2.989961482395577241e-01 2.308146240515690784e-01 -2.588345030461384685e-02 -8.932075441610740074e-02
1.300000000000000044e+00 3.306713436254341866e-03 0.000000000000000000e+00 1.002026025772385781e-01 8.964906839865068866e-01 0.000000000000000000e+00 0.000000000000000000e+00 -8.318857633663686441e-03 1.619067325810569571e-02 0.000000000000000000e+00 0.000000000000000000e+00 0.000000000000000000e+00 0.000000000000000000e+00 -2.464594661866811587e-01 1.705533089914726130e-01 -7.096738810942360143e-03 -5.398216457865832874e-02
1.399999999999999911e+00 6.951432821397128059e-04 0.000000000000000000e+00 4.518801165033640294e-02 9.541168450675258095e-01 0.000000000000000000e+00 0.000000000000000000e+00 -3.326031249090698715e-03 4.511059805147884551e-03 0.000000000000000000e+00 0.000000000000000000e+00 0.000000000000000000e+00 0.000000000000000000e+00 -1.761738863682646150e-01 1.098972466891794536e-01 1.996254538549238448e-03 -2.567611608284729730e-02
1.500000000000000000e+00 7.294925326446224066e-05 0.000000000000000000e+00 1.253513167210114874e-02 9.873919190746315300e-01 0.000000000000000000e+00 0.000000000000000000e+00 -8.305146587957877493e-04 4.739979074805381791e-04 0.000000000000000000e+00 0.000000000000000000e+00 0.000000000000000000e+00 0.000000000000000000e+00 -9.524196544678138754e-02 5.749831066352611292e-02 4.136036295764793785e-03 -7.410985604975587129e-03
1.599999999999999867e+00 1.193869347172775321e-05 0.000000000000000000e+00 5.152428662890863207e-04 9.994728184402362769e-01 0.000000000000000000e+00 0.000000000000000000e+00 -2.814510911635860382e-05 -7.320643815827314934e-05 0.000000000000000000e+00 0.000000000000000000e+00 0.000000000000000000e+00 0.000000000000000000e+00 -1.142841072433260600e-02 1.960516959694910688e-02 3.409805687988925939e-03 5.528341334676991183e-04
1.699999999999999956e+00 1.413154699114088956e-05 0.000000000000000000e+00 4.641896187971540633e-03 9.953439722650354593e-01 0.000000000000000000e+00 0.000000000000000000e+00 2.535305351729610348e-04 3.632427978947956880e-05 0.000000000000000000e+00 0.000000000000000000e+00 0.000000000000000000e+00 0.000000000000000000e+00 6.796993543911827862e-02 -6.093527534663196804e-04 3.717143431707863044e-03 4.986038792461481347e-04
1.800000000000000044e+00 7.063491011137871796e-05 0.000000000000000000e+00 1.915596719861799649e-02 9.807733978912679396e-01 0.000000000000000000e+00 0.000000000000000000e+00 1.056165405571239104e-03 -4.874369641703689784e-04 0.000000000000000000e+00 0.000000000000000000e+00 0.000000000000000000e+00 0.000000000000000000e+00 1.370357512185038651e-01 -2.977570646781686065e-03 7.479708421600396798e-03 -3.651139099854936679e-03
1.899999999999999911e+00 2.947209293868453665e-04 0.000000000000000000e+00 3.832025766780697285e-02 9.613850214028033525e-01 0.000000000000000000e+00 0.000000000000000000e+00 2.907177231149166152e-03 -1.685853668558746736e-03 0.000000000000000000e+00 0.000000000000000000e+00 0.000000000000000000e+00 0.000000000000000000e+00 1.916656937751919088e-01 1.023638544781294187e-02 1.499110981952860716e-02 -7.655515486858592393e-03
2.000000000000000000e+00 7.131438828768389779e-04 0.000000000000000000e+00 5.730324274515426891e-02 9.419836133719690086e-01 0.000000000000000000e+00 0.000000000000000000e+00 5.679924859726361540e-03 -2.933242533685351955e-03 0.000000000000000000e+00 0.000000000000000000e+00 0.000000000000000000e+00 0.000000000000000000e+00 2.296549868442298581e-01 3.517531318647256627e-02 2.456406898782209983e-02 -8.269002322692840454e-03
2.099999999999999645e+00 1.220279988066489416e-03 0.000000000000000000e+00 7.261618712156990563e-02 9.261635328903613518e-01 0.000000000000000000e+00 0.000000000000000000e+00 8.722502941197130683e-03 -3.539777380795399581e-03 0.000000000000000000e+00 0.000000000000000000e+00 0.000000000000000000e+00 0.000000000000000000e+00 2.504747909775691395e-01 6.720746602102606326e-02 3.336262450281420044e-02 -4.136924498118208296e-03
2.199999999999999734e+00 1.640828725161686333e-03 0.000000000000000000e+00 8.216388905790608654e-02 9.161952822169334709e-01 0.000000000000000000e+00 0.000000000000000000e+00 1.117184287421839686e-02 -3.163352123555407576e-03 0.000000000000000000e+00 0.000000000000000000e+00 0.000000000000000000e+00 0.000000000000000000e+00 2.548778979232676489e-01 1.015648793647474235e-01 3.856610664539210365e-02 3.996869397496050948e-03
2.299999999999999822e+00 1.826870381147676541e-03 0.000000000000000000e+00 8.509792414392068627e-02 9.130752054749283753e-01 0.000000000000000000e+00 0.000000000000000000e+00 1.231676987514115917e-02 -1.939087226468619828e-03 0.000000000000000000e+00 0.000000000000000000e+00 0.000000000000000000e+00 0.000000000000000000e+00 2.445634731610733803e-01 1.337516808929919421e-01 3.844498260892750818e-02 1.378598590303931753e-02
2.399999999999999911e+00 1.726666135876185485e-03 0.000000000000000000e+00 8.158299524595849506e-02 9.166903386181640689e-01 0.000000000000000000e+00 0.000000000000000000e+00 1.186347903983989323e-02 -3.527953827038281948e-04 0.000000000000000000e+00 0.000000000000000000e+00 0.000000000000000000e+00 0.000000000000000000e+00 2.219285195138344657e-01 1.597938537451577545e-01 3.296298341092854939e-02 2.227689334579722666e-02
2.500000000000000000e+00 1.396224639126357036e-03 0.000000000000000000e+00 7.256715688464586422e-02 9.260366184762269803e-01 0.000000000000000000e+00 0.000000000000000000e+00 1.001369806693218865e-02 1.022695565681124236e-03 0.000000000000000000e+00 0.000000000000000000e+00 0.000000000000000000e+00 0.000000000000000000e+00 1.899465788877981176e-01 1.764090183422594438e-01 2.372498889454378868e-02 2.701999467189624207e-02
2.600000000000000089e+00 9.597324618405785089e-04 0.000000000000000000e+00 5.957213856522957512e-02 9.394681289729327478e-01 0.000000000000000000e+00 0.000000000000000000e+00 7.347560894343504144e-03 1.785123583832727611e-03 0.000000000000000000e+00 0.000000000000000000e+00 0.000000000000000000e+00 0.000000000000000000e+00 1.520859162953409893e-01 1.812070628303515674e-01 1.332810213307508533e-02 2.690724468229389529e-02
2.699999999999999734e+00 5.481273387471503715e-04 0.000000000000000000e+00 4.449460337243727609e-02 9.549572692888141923e-01 0.000000000000000000e+00 0.000000000000000000e+00 4.582579436411460608e-03 1.840835487476161518e-03 0.000000000000000000e+00 0.000000000000000000e+00 0.000000000000000000e+00 0.000000000000000000e+00 1.122200886625745048e-01 1.729077689184366773e-01 4.404190683706133910e-03 2.245086484718015335e-02
2.799999999999999822e+00 2.477705648386791600e-04 0.000000000000000000e+00 2.937653365265434011e-02 9.703756957825077079e-01 0.000000000000000000e+00 0.000000000000000000e+00 2.314916831103062868e-03 1.385568759728588849e-03 0.000000000000000000e+00 0.000000000000000000e+00 0.000000000000000000e+00 0.000000000000000000e+00 7.440285068657002954e-02 1.515601865057671360e-01 -1.285401607725313033e-03 1.545245288331843249e-02
2.899999999999999911e+00 8.021904888439015989e-05 0.000000000000000000e+00 1.614801769601293888e-02 9.837717632551004066e-01 0.000000000000000000e+00 0.000000000000000000e+00 8.466204481100589015e-04 7.606659884161260689e-04 0.000000000000000000e+00 0.000000000000000000e+00 0.000000000000000000e+00 0.000000000000000000e+00 4.252114874752796481e-02 1.186503926157453231e-01 -3.359796295826789677e-03 8.223687663054589023e-03
3.000000000000000000e+00 1.501660671320702633e-05 0.000000000000000000e+00 6.370185758438285696e-03 9.936147976348493893e-01 0.000000000000000000e+00 0.000000000000000000e+00 1.531168263908639585e-04 2.687265995540161364e-04 0.000000000000000000e+00 0.000000000000000000e+00 0.000000000000000000e+00 0.000000000000000000e+00 1.985438505735217726e-02 7.704099067824413116e-02 -2.772750291814226036e-03 2.689354576395134016e-03
3.099999999999999645e+00 1.678354849717854180e-06 0.000000000000000000e+00 1.015706008942973866e-03 9.989826156362071607e-01 0.000000000000000000e+00 0.000000000000000000e+00 -1.965922587072847861e-05 3.630762407894756706e-05 0.000000000000000000e+00 0.000000000000000000e+00 0.000000000000000000e+00 0.000000000000000000e+00 8.637219561564483949e-03 3.066057779712843059e-02 -1.263175521538985454e-03 -2.846912557336520847e-04
3.199999999999999734e+00 1.484529095673080880e-06 0.000000000000000000e+00 3.508002047286743505e-04 9.996477152661767951e-01 0.000000000000000000e+00 0.000000000000000000e+00 1.201799132770025691e-05 -1.939961606332102557e-05 0.000000000000000000e+00 0.000000000000000000e+00 0.000000000000000000e+00 0.000000000000000000e+00 9.751457430161052445e-03 -1.598704872989872849e-02 -5.500192162630817769e-04 -1.086962883955946979e-03
3.299999999999999822e+00 3.673327514309828254e-06 0.000000000000000000e+00 3.938724015948671421e-03 9.960576026565377550e-01 0.000000000000000000e+00 0.000000000000000000e+00 2.461370467853426068e-05 -1.177386294679763222e-04 0.000000000000000000e+00 0.000000000000000000e+00 0.000000000000000000e+00 0.000000000000000000e+00 2.259412664985079727e-02 -5.841833111286180713e-02 -1.605077275747102128e-03 -1.040461966870478766e-03
3.399999999999999911e+00 2.157558921852983203e-05 0.000000000000000000e+00 1.076323127592865823e-02 9.892151931348507343e-01 0.000000000000000000e+00 0.000000000000000000e+00 -3.415607266601634813e-05 -4.806832345745107814e-04 0.000000000000000000e+00 0.000000000000000000e+00 0.000000000000000000e+00 0.000000000000000000e+00 4.519075903923502890e-02 -9.276285404900765086e-02 -4.286173538141934553e-03 -1.723833360523825556e-03
3.500000000000000000e+00 7.504545690559038607e-05 0.000000000000000000e+00 1.944055352115467775e-02 9.804844010219416761e-01 0.000000000000000000e+00 0.000000000000000000e+00 -6.567178323985292763e-05 -1.206073050030207405e-03 0.000000000000000000e+00 0.000000000000000000e+00 0.000000000000000000e+00 0.000000000000000000e+00 7.451032939080856621e-02 -1.162298162386887490e-01 -7.462486031812532589e-03 -4.229914421635200261e-03
3.599999999999999645e+00 1.713116882873630582e-04 0.000000000000000000e+00 2.846267702793791460e-02 9.713660112837736449e-01 0.000000000000000000e+00 0.000000000000000000e+00 8.517405372707301031e-05 -2.206520780208686729e-03 0.000000000000000000e+00 0.000000000000000000e+00 0.000000000000000000e+00 0.000000000000000000e+00 1.068990664233120808e-01 -1.273588106404457965e-01 -9.553381348825055325e-03 -8.668287334867989455e-03
3.699999999999999734e+00 2.951996545876499844e-04 0.000000000000000000e+00 3.642720008094662426e-02 9.632776002644678481e-01 0.000000000000000000e+00 0.000000000000000000e+00 5.163597106977718806e-04 -3.238312720140672056e-03 0.000000000000000000e+00 0.000000000000000000e+00 0.000000000000000000e+00 0.000000000000000000e+00 1.385294375382795928e-01 -1.260916358539390103e-01 -9.245649565754743282e-03 -1.410238142448564519e-02
3.799999999999999822e+00 4.132608913944053755e-04 0.000000000000000000e+00 4.221638571852891902e-02 9.573703533900734808e-01 0.000000000000000000e+00 0.000000000000000000e+00 1.194140623136364125e-03 -4.002550270150114636e-03 0.000000000000000000e+00 0.000000000000000000e+00 0.000000000000000000e+00 0.000000000000000000e+00 1.658305526582705691e-01 -1.136527335833045077e-01 -6.084740997434344260e-03 -1.893725476758761558e-02
3.899999999999999911e+00 4.882963236870631980e-04 0.000000000000000000e+00 4.510175627077265409e-02 9.544099474055419696e-01 0.000000000000000000e+00 0.000000000000000000e+00 1.951049232584827972e-03 -4.268070858561810732e-03 0.000000000000000000e+00 0.000000000000000000e+00 0.000000000000000000e+00 0.000000000000000000e+00 1.858093806178580665e-01 -9.230622373846232576e-02 -6.972292146674664761e-04 -2.157657852931713777e-02
3.999999999999999556e+00 4.962706201291073975e-04 0.000000000000000000e+00 4.479805235418302112e-02 9.547056770256887592e-01 0.000000000000000000e+00 0.000000000000000000e+00 2.553697321412086354e-03 -3.963658276579399252e-03 0.000000000000000000e+00 0.000000000000000000e+00 0.000000000000000000e+00 0.000000000000000000e+00 1.962985248930508575e-01 -6.508336139329691516e-02 5.431459240024608288e-03 -2.107822595942673155e-02
