1.000000000000000056e-01 9.755954485817347477e-01 0.000000000000000000e+00 2.425009094790583214e-02 1.544604703600056729e-04 0.000000000000000000e+00 0.000000000000000000e+00 -2.978860423639334608e-04 1.538121895360174962e-01 0.000000000000000000e+00 0.000000000000000000e+00 0.000000000000000000e+00 0.000000000000000000e+00 -1.102081912082332601e-03 1.590941836533919188e-03 -1.007740356655129413e-02 -7.009769665364520320e-03
2.000000000000000111e-01 9.055326245568789956e-01 0.000000000000000000e+00 9.206708250767914326e-02 2.400292935439403506e-03 0.000000000000000000e+00 0.000000000000000000e+00 -2.250508209222104507e-03 2.887294271078532093e-01 0.000000000000000000e+00 0.000000000000000000e+00 0.000000000000000000e+00 0.000000000000000000e+00 -8.530744515140546366e-03 1.217433225002273987e-02 -3.797111160881870562e-02 -2.705066070948508941e-02
2.999999999999999889e-01 7.986641277899162450e-01 0.000000000000000000e+00 1.897606885413041788e-01 1.157518366878106976e-02 0.000000000000000000e+00 0.000000000000000000e+00 -6.863883970974760107e-03 3.892402110522412695e-01 0.000000000000000000e+00 0.000000000000000000e+00 0.000000000000000000e+00 0.000000000000000000e+00 -2.723949759119796699e-02 3.813823008631663652e-02 -7.724447086631333614e-02 -5.725360853998881505e-02
4.000000000000000222e-01 6.678892867037850012e-01 0.000000000000000000e+00 2.979300619936190997e-01 3.418065130259573259e-02 0.000000000000000000e+00 0.000000000000000000e+00 -1.408389780793796973e-02 4.458541694624073570e-01 0.000000000000000000e+00 0.000000000000000000e+00 0.000000000000000000e+00 0.000000000000000000e+00 -5.968977185445952655e-02 8.136691401834623971e-02 -1.189444025456996568e-01 -9.317252771213943574e-02
5.000000000000000000e-01 5.278324712534038232e-01 0.000000000000000000e+00 3.956868292689557642e-01 7.648069947764379872e-02 0.000000000000000000e+00 0.000000000000000000e+00 -2.276126704220410996e-02 4.564408851650487708e-01 0.000000000000000000e+00 0.000000000000000000e+00 0.000000000000000000e+00 0.000000000000000000e+00 -1.051962666834268673e-01 1.385501748625160845e-01 -1.537720228113697851e-01 -1.293180637481379514e-01
5.999999999999999778e-01 3.923633549680357047e-01 0.000000000000000000e+00 4.650372066461930798e-01 1.425994383857698555e-01 0.000000000000000000e+00 0.000000000000000000e+00 -3.100334448229286749e-02 4.260309275305957377e-01 0.000000000000000000e+00 0.000000000000000000e+00 0.000000000000000000e+00 0.000000000000000000e+00 -1.598717095883825379e-01 2.018788769648028336e-01 -1.742873180049933912e-01 -1.599209955990498200e-01
6.999999999999999556e-01 2.725244274674669676e-01 0.000000000000000000e+00 4.943725493779235203e-01 2.331030231546114273e-01 0.000000000000000000e+00 0.000000000000000000e+00 -3.679596484070253581e-02 3.652049464986611982e-01 0.000000000000000000e+00 0.000000000000000000e+00 0.000000000000000000e+00 0.000000000000000000e+00 -2.171845791638621903e-01 2.609034196638704839e-01 -1.765706922737521334e-01 -1.798584403070085935e-01
7.999999999999999334e-01 1.752204565803469061e-01 0.000000000000000000e+00 4.803446078746107517e-01 3.444349355450425643e-01 0.000000000000000000e+00 0.000000000000000000e+00 -3.866936597017813643e-02 2.875254452277470341e-01 0.000000000000000000e+00 0.000000000000000000e+00 0.000000000000000000e+00 0.000000000000000000e+00 -2.690498064343042617e-01 3.050568237295973595e-01 -1.609419828402592068e-01 -1.856063706814649050e-01
8.999999999999999112e-01 1.028962001956201383e-01 0.000000000000000000e+00 4.277978076447049860e-01 4.693059921596764994e-01 0.000000000000000000e+00 0.000000000000000000e+00 -3.617756424537988541e-02 2.066638640500221835e-01 0.000000000000000000e+00 0.000000000000000000e+00 0.000000000000000000e+00 0.000000000000000000e+00 -3.072355905174750657e-01 3.261508339611692842e-01 -1.315774772458747632e-01 -1.760033261339736255e-01
9.999999999999998890e-01 5.409839959691191413e-02 0.000000000000000000e+00 3.479665738228913119e-01 5.979350265801985920e-01 0.000000000000000000e+00 0.000000000000000000e+00 -3.002654394967292639e-02 1.338762167706770423e-01 0.000000000000000000e+00 0.000000000000000000e+00 0.000000000000000000e+00 0.000000000000000000e+00 -3.248278393603024616e-01 3.202315995155344819e-01 -9.517562930121335751e-02 -1.526071020263450040e-01
1.099999999999999867e+00 2.468316712086217335e-02 0.000000000000000000e+00 2.555269658708083647e-01 7.197898670083248129e-01 0.000000000000000000e+00 0.000000000000000000e+00 -2.181906199180080538e-02 7.636192336748731657e-02 0.000000000000000000e+00 0.000000000000000000e+00 0.000000000000000000e+00 0.000000000000000000e+00 -3.174593554172416288e-01 2.883492300050293777e-01 -5.906318497304395565e-02 -1.194915636540144765e-01
1.199999999999999956e+00 9.274615876460565525e-03 0.000000000000000000e+00 1.653155183174596365e-01 8.254098658060804450e-01 0.000000000000000000e+00 0.000000000000000000e+00 -1.350828145755731714e-02 3.675274501764466684e-02 0.000000000000000000e+00 0.000000000000000000e+00 0.000000000000000000e+00 0.000000000000000000e+00 -2.840605108608641460e-01 2.361412415543613919e-01 -2.928744731065869439e-02 -8.244758883196226518e-02
1.300000000000000044e+00 2.602931525953415971e-03 0.000000000000000000e+00 8.950155954664568148e-02 9.078955089274012291e-01 0.000000000000000000e+00 0.000000000000000000e+00 -6.761653275009764374e-03 1.368380344494547762e-02 0.000000000000000000e+00 0.000000000000000000e+00 0.000000000000000000e+00 0.000000000000000000e+00 -2.269879917386910528e-01 1.724369902019559919e-01 -9.215255937681654866e-03 -4.773121532885832297e-02
1.399999999999999911e+00 4.435461024511555897e-04 0.000000000000000000e+00 3.577170840362280807e-02 9.637847454939260095e-01 0.000000000000000000e+00 0.000000000000000000e+00 -2.458751895393236891e-03 3.133837999830709539e-03 0.000000000000000000e+00 0.000000000000000000e+00 0.000000000000000000e+00 0.000000000000000000e+00 -1.515462824593439284e-01 1.072844404751910202e-01 1.017638065026409567e-03 -2.065060193150530798e-02
1.500000000000000000e+00 3.582023619372636040e-05 0.000000000000000000e+00 6.770360763428628047e-03 9.931938190003791744e-01 0.000000000000000000e+00 0.000000000000000000e+00 -4.859759373509388736e-04 7.964490438677622778e-05 0.000000000000000000e+00 0.000000000000000000e+00 0.000000000000000000e+00 0.000000000000000000e+00 -6.500303009440852597e-02 4.998886453712259731e-02 4.077855022807802543e-03 -4.352876307688284888e-03
1.599999999999999867e+00 1.873223890686044008e-05 0.000000000000000000e+00 6.641518202641276489e-04 9.993171159408257287e-01 0.000000000000000000e+00 0.000000000000000000e+00 1.109654273227951153e-04 -1.130125781368265506e-05 0.000000000000000000e+00 0.000000000000000000e+00 0.000000000000000000e+00 0.000000000000000000e+00 2.463002742691091165e-02 7.553810858793363892e-03 4.243683156189352081e-03 8.429719402441324203e-04
1.699999999999999956e+00 4.147653530168394787e-05 0.000000000000000000e+00 1.247322455404165260e-02 9.874852989106549517e-01 0.000000000000000000e+00 0.000000000000000000e+00 6.917071562698851169e-04 -1.971988238437067059e-04 0.000000000000000000e+00 0.000000000000000000e+00 0.000000000000000000e+00 0.000000000000000000e+00 1.098035524782877970e-01 -1.613399378758319236e-02 5.834120879439163784e-03 -2.630685473612513585e-03
1.800000000000000044e+00 2.559669333015438994e-04 0.000000000000000000e+00 3.568994707905275010e-02 9.640540859876460811e-01 0.000000000000000000e+00 0.000000000000000000e+00 2.470172808693317686e-03 -1.741749949076075877e-03 0.000000000000000000e+00 0.000000000000000000e+00 0.000000000000000000e+00 0.000000000000000000e+00 1.843679948466500906e-01 -2.038337181076698562e-02 1.176572431741232556e-02 -1.040834826086990683e-02
1.899999999999999911e+00 8.775632637390043097e-04 0.000000000000000000e+00 6.374733810817029278e-02 9.353750986280927604e-01 0.000000000000000000e+00 0.000000000000000000e+00 6.049509080141747194e-03 -4.398381779161100909e-03 0.000000000000000000e+00 0.000000000000000000e+00 0.000000000000000000e+00 0.000000000000000000e+00 2.440834226663855522e-01 -7.138309984472631688e-03 2.267056025437423628e-02 -1.751846251956261022e-02
2.000000000000000000e+00 1.928494382918214496e-03 0.000000000000000000e+00 9.105889131257663416e-02 9.070126143045077471e-01 0.000000000000000000e+00 0.000000000000000000e+00 1.120349584100991877e-02 -7.077304820447378846e-03 0.000000000000000000e+00 0.000000000000000000e+00 0.000000000000000000e+00 0.000000000000000000e+00 2.866993294969037431e-01 1.987605354625464338e-02 3.681906964930174719e-02 -1.983746162124948309e-02
2.099999999999999645e+00 3.187830122758060665e-03 0.000000000000000000e+00 1.135321155048107794e-01 8.832800543724295128e-01 0.000000000000000000e+00 0.000000000000000000e+00 1.696879914316944127e-02 -8.601218260969410029e-03 0.000000000000000000e+00 0.000000000000000000e+00 0.000000000000000000e+00 0.000000000000000000e+00 3.116705222135022768e-01 5.605478288569611112e-02 5.082979293753470823e-02 -1.523413739676756674e-02
2.199999999999999734e+00 4.295472201876791157e-03 0.000000000000000000e+00 1.286392748294464816e-01 8.670652529686750931e-01 0.000000000000000000e+00 0.000000000000000000e+00 2.199741003052041455e-02 -8.287363051369562097e-03 0.000000000000000000e+00 0.000000000000000000e+00 0.000000000000000000e+00 0.000000000000000000e+00 3.197013946696554143e-01 9.659018377370856556e-02 6.089182817045245971e-02 -4.079218086998457823e-03
2.299999999999999822e+00 4.918367466348740752e-03 0.000000000000000000e+00 1.352233068940484062e-01 8.598583256396014063e-01 0.000000000000000000e+00 0.000000000000000000e+00 2.503342077661433948e-02 -6.197238173739782856e-03 0.000000000000000000e+00 0.000000000000000000e+00 0.000000000000000000e+00 0.000000000000000000e+00 3.122972547751189376e-01 1.369062121161302159e-01 6.408887054672367245e-02 1.103249418099537006e-02
2.399999999999999911e+00 4.886923396551817039e-03 0.000000000000000000e+00 1.332024026284115148e-01 8.619106739750358459e-01 0.000000000000000000e+00 0.000000000000000000e+00 2.533237081387764572e-02 -3.036598878100203389e-03 0.000000000000000000e+00 0.000000000000000000e+00 0.000000000000000000e+00 0.000000000000000000e+00 2.914449672449881401e-01 1.728247775674716102e-01 5.936673358611554985e-02 2.622370029447931850e-02
2.500000000000000000e+00 4.248364382861749382e-03 0.000000000000000000e+00 1.233400428132676308e-01 8.724115928038700396e-01 0.000000000000000000e+00 0.000000000000000000e+00 2.289015785895557459e-02 1.847164417463623338e-04 0.000000000000000000e+00 0.000000000000000000e+00 0.000000000000000000e+00 0.000000000000000000e+00 2.595241464339291815e-01 2.006252739730991219e-01 4.786353060044186425e-02 3.762186595114582616e-02
2.600000000000000089e+00 3.223860767922585597e-03 0.000000000000000000e+00 1.070570458405314396e-01 8.897190933915475330e-01 0.000000000000000000e+00 0.000000000000000000e+00 1.839950217012922482e-02 2.568138287707380681e-03 0.000000000000000000e+00 0.000000000000000000e+00 0.000000000000000000e+00 0.000000000000000000e+00 2.193156642300933545e-01 2.171435867368128603e-01 3.248403014194787414e-02 4.258072731283291806e-02
2.699999999999999734e+00 2.107997049865323151e-03 0.000000000000000000e+00 8.634305127438467176e-02 9.115489516757511179e-01 0.000000000000000000e+00 0.000000000000000000e+00 1.299171032793415906e-02 3.636806570600083482e-03 0.000000000000000000e+00 0.000000000000000000e+00 0.000000000000000000e+00 0.000000000000000000e+00 1.741241381569608171e-01 2.199697760699122207e-01 1.693457469567165308e-02 4.043219902366315677e-02
2.799999999999999822e+00 1.154541673112633804e-03 0.000000000000000000e+00 6.359510373123730687e-02 9.352503545956490916e-01 0.000000000000000000e+00 0.000000000000000000e+00 7.846952266561190575e-03 3.442170935717248081e-03 0.000000000000000000e+00 0.000000000000000000e+00 0.000000000000000000e+00 0.000000000000000000e+00 1.277524634042506158e-01 2.077417902101916236e-01 4.518975694542518712e-03 3.254787945421386969e-02
2.899999999999999911e+00 5.016315096541013605e-04 0.000000000000000000e+00 4.142726812495549360e-02 9.580711003653908930e-01 0.000000000000000000e+00 0.000000000000000000e+00 3.843911033776832228e-03 2.450626965266166062e-03 0.000000000000000000e+00 0.000000000000000000e+00 0.000000000000000000e+00 0.000000000000000000e+00 8.435002503358579595e-02 1.804864027093488477e-01 -2.850075887472936810e-03 2.173650811528906809e-02
3.000000000000000000e+00 1.550027395671060198e-04 0.000000000000000000e+00 2.235834837596590782e-02 9.774866488844639045e-01 0.000000000000000000e+00 0.000000000000000000e+00 1.349374605927394603e-03 1.282495153453790289e-03 0.000000000000000000e+00 0.000000000000000000e+00 0.000000000000000000e+00 0.000000000000000000e+00 4.802652137190071419e-02 1.398157365382082518e-01 -5.121452965066773319e-03 1.119302709014597524e-02
3.099999999999999645e+00 2.705081421823883191e-05 0.000000000000000000e+00 8.479781260678163554e-03 9.914931679251061114e-01 0.000000000000000000e+00 0.000000000000000000e+00 2.170073208279515986e-04 4.269576976957363611e-04 0.000000000000000000e+00 0.000000000000000000e+00 0.000000000000000000e+00 0.000000000000000000e+00 2.237016998851498392e-02 8.892255468738435864e-02 -3.904779831707697220e-03 3.401970652256893282e-03
3.199999999999999734e+00 3.347191213351724611e-06 0.000000000000000000e+00 1.141024816671572847e-03 9.988556279921172454e-01 0.000000000000000000e+00 0.000000000000000000e+00 -3.765063416175847282e-05 4.900682743162983662e-05 0.000000000000000000e+00 0.000000000000000000e+00 0.000000000000000000e+00 0.000000000000000000e+00 9.900623774900491753e-03 3.227532554942870446e-02 -1.712912650636032276e-03 -6.397637701822386303e-04
3.299999999999999822e+00 3.461544546501205315e-06 0.000000000000000000e+00 7.585497405027560825e-04 9.992379887149512863e-01 0.000000000000000000e+00 0.000000000000000000e+00 2.930263984182031968e-05 -4.203713702230107540e-05 0.000000000000000000e+00 0.000000000000000000e+00 0.000000000000000000e+00 0.000000000000000000e+00 1.170261885164687078e-02 -2.492027715919030093e-02 -9.289483520277403697e-04 -1.611199692344048419e-03
3.399999999999999911e+00 1.047877297003388337e-05 0.000000000000000000e+00 6.781750257853212324e-03 9.932077709691768952e-01 0.000000000000000000e+00 0.000000000000000000e+00 3.292371965690001371e-05 -2.645381815251988782e-04 0.000000000000000000e+00 0.000000000000000000e+00 0.000000000000000000e+00 0.000000000000000000e+00 2.722086979566153489e-02 -7.742552044137357425e-02 -2.888014577292900061e-03 -1.437696614968635069e-03
3.500000000000000000e+00 6.168476103973210244e-05 0.000000000000000000e+00 1.783826025342840835e-02 9.821000549855327666e-01 0.000000000000000000e+00 0.000000000000000000e+00 -1.125255747396590472e-04 -1.042922164228516366e-03 0.000000000000000000e+00 0.000000000000000000e+00 0.000000000000000000e+00 0.000000000000000000e+00 5.439399188119579953e-02 -1.206658611370522854e-01 -7.397907524072941735e-03 -2.418996675533966953e-03
3.599999999999999645e+00 2.112403128798639887e-04 0.000000000000000000e+00 3.200266875297393815e-02 9.677860909341428064e-01 0.000000000000000000e+00 0.000000000000000000e+00 -2.180677251627112490e-04 -2.590887872694860872e-03 0.000000000000000000e+00 0.000000000000000000e+00 0.000000000000000000e+00 0.000000000000000000e+00 8.994353827015427738e-02 -1.512676355264684080e-01 -1.285927934551147830e-02 -6.250948282783614328e-03
3.699999999999999734e+00 4.869192193302127286e-04 0.000000000000000000e+00 4.712889412730195127e-02 9.523841866533702127e-01 0.000000000000000000e+00 0.000000000000000000e+00 3.142479691879147802e-05 -4.790300200436360158e-03 0.000000000000000000e+00 0.000000000000000000e+00 0.000000000000000000e+00 0.000000000000000000e+00 1.298941276420621516e-01 -1.673688415166954824e-01 -1.692518164072449871e-02 -1.331436652229296691e-02
3.799999999999999822e+00 8.629198341740476228e-04 0.000000000000000000e+00 6.116485155546153019e-02 9.379722286103612250e-01 0.000000000000000000e+00 0.000000000000000000e+00 8.798251464968616115e-04 -7.211537166118737324e-03 0.000000000000000000e+00 0.000000000000000000e+00 0.000000000000000000e+00 0.000000000000000000e+00 1.700518930552359365e-01 -1.686810178652067838e-01 -1.744193672051676594e-02 -2.247606687929112543e-02
3.899999999999999911e+00 1.260809770790075968e-03 0.000000000000000000e+00 7.239078832693705834e-02 9.263484019022713012e-01 0.000000000000000000e+00 0.000000000000000000e+00 2.344448619826428309e-03 -9.261456257926988303e-03 0.000000000000000000e+00 0.000000000000000000e+00 0.000000000000000000e+00 0.000000000000000000e+00 2.064537091433710225e-01 -1.563200466026896662e-01 -1.331289813265753089e-02 -3.147563816418657429e-02
3.999999999999999556e+00 1.577183918132692283e-03 0.000000000000000000e+00 7.957619537454127534e-02 9.188466207073262559e-01 0.000000000000000000e+00 0.000000000000000000e+00 4.168426401279142976e-03 -1.039858243221432332e-02 0.000000000000000000e+00 0.000000000000000000e+00 0.000000000000000000e+00 0.000000000000000000e+00 2.356909052018395512e-01 -1.325447673518304059e-01 -4.974069293581059002e-03 -3.774186976640214047e-02
