1.000000000000000056e-01 9.764637240765616788e-01 1.835675139613970192e-02 5.179524527299094599e-03 0.000000000000000000e+00 1.338348526524611171e-01 -3.596391043959468441e-03 7.710343585369755851e-06 7.111693008404466887e-02 -2.608723415140567180e-04 9.747368348393153914e-03 0.000000000000000000e+00 0.000000000000000000e+00 0.000000000000000000e+00 0.000000000000000000e+00 0.000000000000000000e+00 0.000000000000000000e+00
2.000000000000000111e-01 9.080712281168602518e-01 7.169837590318185738e-02 2.023039597995656899e-02 0.000000000000000000e+00 2.550657928241860661e-01 -6.976650601140024950e-03 6.091020560518565938e-05 1.355383223679372806e-01 -1.024222967316947008e-03 3.807147886482694504e-02 0.000000000000000000e+00 0.000000000000000000e+00 0.000000000000000000e+00 0.000000000000000000e+00 0.000000000000000000e+00 0.000000000000000000e+00
2.999999999999999889e-01 8.012634858103611091e-01 1.550012323169876194e-01 4.373528187265089684e-02 0.000000000000000000e+00 3.522755109195067624e-01 -9.939421566946073788e-03 2.012918579276315055e-04 1.871989419924718068e-01 -2.233646037407100143e-03 8.230451634858587662e-02 0.000000000000000000e+00 0.000000000000000000e+00 0.000000000000000000e+00 0.000000000000000000e+00 0.000000000000000000e+00 0.000000000000000000e+00
4.000000000000000222e-01 6.660944336421328327e-01 2.604237499864212046e-01 7.348181637144653167e-02 0.000000000000000000e+00 4.163114403869748736e-01 -1.231238771996165556e-02 4.632794952811915821e-04 2.212365571977572554e-01 -3.799884202829062474e-03 1.382822152531262005e-01 0.000000000000000000e+00 0.000000000000000000e+00 0.000000000000000000e+00 0.000000000000000000e+00 0.000000000000000000e+00 0.000000000000000000e+00
5.000000000000000000e-01 5.152932997219669131e-01 3.780377713690743491e-01 1.066689289089587656e-01 0.000000000000000000e+00 4.411409663736113873e-01 -1.396346687194369163e-02 8.711179392443797829e-04 2.344462102626894973e-01 -5.607284400424779845e-03 2.007322657689061263e-01 0.000000000000000000e+00 0.000000000000000000e+00 0.000000000000000000e+00 0.000000000000000000e+00 0.000000000000000000e+00 0.000000000000000000e+00
5.999999999999999778e-01 3.630578972522877645e-01 4.967697289553656415e-01 1.401723737923458724e-01 0.000000000000000000e+00 4.244253017905442738e-01 -1.481001092954549805e-02 1.436818512681882921e-03 2.255850678513030283e-01 -7.522478400329378999e-03 2.637741542580803733e-01 0.000000000000000000e+00 0.000000000000000000e+00 0.000000000000000000e+00 0.000000000000000000e+00 0.000000000000000000e+00 0.000000000000000000e+00
6.999999999999999556e-01 2.237230656638354298e-01 6.054392007442900292e-01 1.708377335918745410e-01 0.000000000000000000e+00 3.677376359496902780e-01 -1.482380462604644504e-02 2.159083632094462284e-03 1.954883112926192879e-01 -9.404055933396146538e-03 3.214707212404068759e-01 0.000000000000000000e+00 0.000000000000000000e+00 0.000000000000000000e+00 0.000000000000000000e+00 0.000000000000000000e+00 0.000000000000000000e+00
7.999999999999999334e-01 1.104080205695718020e-01 6.938139162592695808e-01 1.957780631711592834e-01 0.000000000000000000e+00 2.764158293675603728e-01 -1.403247477790165419e-02 3.023288407143639393e-03 1.469909117419093414e-01 -1.111297425971339604e-02 3.683884451629070300e-01 0.000000000000000000e+00 0.000000000000000000e+00 0.000000000000000000e+00 0.000000000000000000e+00 0.000000000000000000e+00 0.000000000000000000e+00
8.999999999999999112e-01 3.377972858344368418e-02 7.535742661310438351e-01 2.126460052855144167e-01 0.000000000000000000e+00 1.590561766990694070e-01 -1.251667005486559181e-02 4.002590191592588463e-03 8.465874834032245666e-02 -1.252256729205284205e-02 4.001096633264061841e-01 0.000000000000000000e+00 0.000000000000000000e+00 0.000000000000000000e+00 0.000000000000000000e+00 0.000000000000000000e+00 0.000000000000000000e+00
9.999999999999998890e-01 1.054642373814936637e-03 7.790919031666163619e-01 2.198534544595685258e-01 0.000000000000000000e+00 2.671011430366694236e-02 -1.040351921693031222e-02 5.059807912464687508e-03 1.436193360075387754e-02 -1.352743216343784208e-02 4.136460501826065284e-01 0.000000000000000000e+00 0.000000000000000000e+00 0.000000000000000000e+00 0.000000000000000000e+00 0.000000000000000000e+00 0.000000000000000000e+00
1.099999999999999867e+00 1.531279929931663938e-02 7.679647074577486965e-01 2.167224932429339945e-01 0.000000000000000000e+00 -1.081570829564002245e-01 -7.857152687720084933e-03 6.150343925997983976e-03 -5.727827960493487441e-02 -1.405092986457611402e-02 4.077226968083821901e-01 0.000000000000000000e+00 0.000000000000000000e+00 0.000000000000000000e+00 0.000000000000000000e+00 0.000000000000000000e+00 0.000000000000000000e+00
1.199999999999999956e+00 7.521154233864754679e-02 7.212400675411805295e-01 2.035483901201716739e-01 0.000000000000000000e+00 -2.328516984458370020e-01 -5.066004128189770250e-03 7.225557056714741050e-03 -1.235191470345848308e-01 -1.405016690260567878e-02 3.828966537436528927e-01 0.000000000000000000e+00 0.000000000000000000e+00 0.000000000000000000e+00 0.000000000000000000e+00 0.000000000000000000e+00 0.000000000000000000e+00
1.300000000000000044e+00 1.751089060658177765e-01 6.433186397980550364e-01 1.815724541361275757e-01 0.000000000000000000e+00 -3.356275512889508317e-01 -2.229334926239132618e-03 8.236184385935034491e-03 -1.781210797194633100e-01 -1.351843779395364882e-02 3.415057774901710252e-01 0.000000000000000000e+00 0.000000000000000000e+00 0.000000000000000000e+00 0.000000000000000000e+00 0.000000000000000000e+00 0.000000000000000000e+00
1.399999999999999911e+00 3.055971856889090343e-01 5.415381797614969850e-01 1.528646345495954240e-01 0.000000000000000000e+00 -4.068074908193662353e-01 4.573402883711410755e-04 9.136110004926275771e-03 -2.159433574414358903e-01 -1.248505470924276238e-02 2.874476636759651371e-01 0.000000000000000000e+00 0.000000000000000000e+00 0.000000000000000000e+00 0.000000000000000000e+00 0.000000000000000000e+00 0.000000000000000000e+00
1.500000000000000000e+00 4.543927523161319093e-01 4.254795201245694103e-01 1.201277275592993049e-01 0.000000000000000000e+00 -4.396895265597622338e-01 2.816105017301638591e-03 9.885543717942943051e-03 -2.334254587304109008e-01 -1.101232493962836859e-02 2.258110196047226348e-01 0.000000000000000000e+00 0.000000000000000000e+00 0.000000000000000000e+00 0.000000000000000000e+00 0.000000000000000000e+00 0.000000000000000000e+00
1.599999999999999867e+00 6.074808780197785696e-01 3.060736514521498752e-01 8.644547052807038945e-02 0.000000000000000000e+00 -4.311749208063404559e-01 4.698742368124781202e-03 1.045365120738364108e-02 -2.289207100956550944e-01 -9.190399022287078570e-03 1.624014081889757488e-01 0.000000000000000000e+00 0.000000000000000000e+00 0.000000000000000000e+00 0.000000000000000000e+00 0.000000000000000000e+00 0.000000000000000000e+00
1.699999999999999956e+00 7.504481205979498526e-01 1.945625163139189651e-01 5.498936308813125867e-02 0.000000000000000000e+00 -3.820642789550139917e-01 5.996786428411589667e-03 1.082049691094266394e-02 -2.028535950567103008e-01 -7.129866651760309246e-03 1.031893107562777273e-01 0.000000000000000000e+00 0.000000000000000000e+00 0.000000000000000000e+00 0.000000000000000000e+00 0.000000000000000000e+00 0.000000000000000000e+00
1.800000000000000044e+00 8.698308333399612513e-01 1.014472270595834502e-01 2.872193960045445194e-02 0.000000000000000000e+00 -2.969810257122671437e-01 6.648040050586520242e-03 1.097796351597119836e-02 -1.576791456708587502e-01 -4.953266740834135796e-03 5.375152348354933496e-02 0.000000000000000000e+00 0.000000000000000000e+00 0.000000000000000000e+00 0.000000000000000000e+00 0.000000000000000000e+00 0.000000000000000000e+00
1.899999999999999911e+00 9.543884020229314036e-01 3.549499423730732850e-02 1.011660373976108057e-02 0.000000000000000000e+00 -1.839345677373109555e-01 6.639696385034862119e-03 1.092984496120896591e-02 -9.765094854247863276e-02 -2.785814402398492304e-03 1.874374641137952630e-02 0.000000000000000000e+00 0.000000000000000000e+00 0.000000000000000000e+00 0.000000000000000000e+00 0.000000000000000000e+00 0.000000000000000000e+00
2.000000000000000000e+00 9.961570632126286462e-01 2.917196466022127944e-03 9.257403213491334840e-04 0.000000000000000000e+00 -5.357138564201540526e-02 6.007688484726554645e-03 1.069082122573483846e-02 -2.842338912793476030e-02 -7.463491364310107954e-04 1.464079680081217544e-03 0.000000000000000000e+00 0.000000000000000000e+00 0.000000000000000000e+00 0.000000000000000000e+00 0.000000000000000000e+00 0.000000000000000000e+00
2.099999999999999645e+00 9.912048877977124306e-01 6.780525103355386669e-03 2.014587098931578616e-03 0.000000000000000000e+00 8.183849254273393992e-02 4.832243913587493805e-03 1.028487447462230787e-02 4.348666330305758776e-02 1.061169902968589485e-03 3.540321570231447917e-03 0.000000000000000000e+00 0.000000000000000000e+00 0.000000000000000000e+00 0.000000000000000000e+00 0.000000000000000000e+00 0.000000000000000000e+00
2.199999999999999734e+00 9.399976235839400118e-01 4.672164948679449759e-02 1.328072692926686622e-02 0.000000000000000000e+00 2.095418906913523172e-01 3.230360908541849655e-03 9.742790927499148101e-03 1.113055690112554480e-01 2.554346875642173227e-03 2.477847413640850774e-02 0.000000000000000000e+00 0.000000000000000000e+00 0.000000000000000000e+00 0.000000000000000000e+00 0.000000000000000000e+00 0.000000000000000000e+00
2.299999999999999822e+00 8.473574417919014223e-01 1.189793966738358494e-01 3.366316153426236052e-02 0.000000000000000000e+00 3.175157732833616131e-01 1.345600227429391473e-03 9.099450575029928434e-03 1.686473550458934267e-01 3.677492936816997328e-03 6.317989154128796081e-02 0.000000000000000000e+00 0.000000000000000000e+00 0.000000000000000000e+00 0.000000000000000000e+00 0.000000000000000000e+00 0.000000000000000000e+00
2.399999999999999911e+00 7.220068455490548098e-01 2.167504894748825961e-01 6.124266497606396797e-02 0.000000000000000000e+00 3.955943577981675396e-01 -6.638577263111323417e-04 8.390898104642928804e-03 2.101123890368208624e-01 4.404261864999127474e-03 1.151302744185756788e-01 0.000000000000000000e+00 0.000000000000000000e+00 0.000000000000000000e+00 0.000000000000000000e+00 0.000000000000000000e+00 0.000000000000000000e+00
2.500000000000000000e+00 5.757460611395377459e-01 3.308311510092003527e-01 9.342278785126319207e-02 0.000000000000000000e+00 4.364261356942432113e-01 -2.638212892035675383e-03 7.651598229716321392e-03 2.317957186129309122e-01 4.737906483115684672e-03 1.757404924242573219e-01 0.000000000000000000e+00 0.000000000000000000e+00 0.000000000000000000e+00 0.000000000000000000e+00 0.000000000000000000e+00 0.000000000000000000e+00
2.600000000000000089e+00 4.223499525551842604e-01 4.504774725705888994e-01 1.271725748742268403e-01 0.000000000000000000e+00 4.361645690808357290e-01 -4.428047821608733364e-03 6.911899372887525539e-03 2.316539586195297817e-01 4.709248339171476574e-03 2.393035793503502928e-01 0.000000000000000000e+00 0.000000000000000000e+00 0.000000000000000000e+00 0.000000000000000000e+00 0.000000000000000000e+00 0.000000000000000000e+00
2.699999999999999734e+00 2.762626280309070093e-01 5.644235678481883678e-01 1.593138041209029854e-01 0.000000000000000000e+00 3.948344636487234882e-01 -5.906269857844289976e-03 6.196245478338793453e-03 2.096999204049128374e-01 4.372458765523270716e-03 2.998355338080178067e-01 0.000000000000000000e+00 0.000000000000000000e+00 0.000000000000000000e+00 0.000000000000000000e+00 0.000000000000000000e+00 0.000000000000000000e+00
2.799999999999999822e+00 1.512382147419591427e-01 6.619417157636380278e-01 1.868200694944033569e-01 0.000000000000000000e+00 3.163261013101751340e-01 -6.977135962339094458e-03 5.521970215492535451e-03 1.679995281993286182e-01 3.799223450434832672e-03 3.516383984177630651e-01 0.000000000000000000e+00 0.000000000000000000e+00 0.000000000000000000e+00 0.000000000000000000e+00 0.000000000000000000e+00 0.000000000000000000e+00
2.899999999999999911e+00 5.905137703344705974e-02 7.338481051004461797e-01 2.071005178661064761e-01 0.000000000000000000e+00 2.080318330856725240e-01 -7.582705284321030609e-03 4.898819716544941874e-03 1.104788318601212932e-01 3.071596905835524000e-03 3.898344365163077252e-01 0.000000000000000000e+00 0.000000000000000000e+00 0.000000000000000000e+00 0.000000000000000000e+00 0.000000000000000000e+00 0.000000000000000000e+00
3.000000000000000000e+00 8.383231347533093986e-03 7.733717733681623185e-01 2.182449952843055208e-01 0.000000000000000000e+00 8.014964361446538788e-02 -7.706401226021481789e-03 4.329488585534939371e-03 4.255412638589609747e-02 2.274516631237012178e-03 4.108276349105597358e-01 0.000000000000000000e+00 0.000000000000000000e+00 0.000000000000000000e+00 0.000000000000000000e+00 0.000000000000000000e+00 0.000000000000000000e+00
