1.000000000000000056e-01 2.806029884852524747e-02 3.039739620839798998e-02 -8.992771049447944032e-01
2.000000000000000111e-01 5.596175654460409932e-02 6.066774574269966080e-02 -8.938960259529848962e-01
2.999999999999999889e-01 8.355193195245279314e-02 9.069512481767236234e-02 -8.849678033500679719e-01
4.000000000000000222e-01 1.106735662049496832e-01 1.203509148419931035e-01 -8.725556133094227729e-01
5.000000000000000000e-01 1.371782107234666981e-01 1.495184367519567514e-01 -8.567450881523135386e-01
5.999999999999999778e-01 1.629249209828694256e-01 1.780850360133187371e-01 -8.376437870605051295e-01
6.999999999999999556e-01 1.877839508598781459e-01 2.059413106810905614e-01 -8.153793286489409153e-01
7.999999999999999334e-01 2.116291679067976161e-01 2.329791545984291334e-01 -7.901027356701810778e-01
8.999999999999999112e-01 2.343467264874357636e-01 2.591044246709844345e-01 -7.619793691222963572e-01
9.999999999999998890e-01 2.558368289685970520e-01 2.842284271514245453e-01 -7.311882274736830611e-01
1.099999999999999867e+00 2.760044032742686726e-01 3.082689968863489005e-01 -6.979272663731292958e-01
1.199999999999999956e+00 2.947746146496718067e-01 3.311440717074876083e-01 -6.624084642920856636e-01
1.300000000000000044e+00 3.120861845345249685e-01 3.527928904340260630e-01 -6.248418870185498131e-01
1.399999999999999911e+00 3.278869640635146965e-01 3.731572687429582924e-01 -5.854524360596216059e-01
1.500000000000000000e+00 3.421393208344525316e-01 3.921903633402525902e-01 -5.444663835208878311e-01
1.599999999999999867e+00 3.548221035743864826e-01 4.098499189577108903e-01 -5.021141311921469841e-01
1.699999999999999956e+00 3.659230144356441228e-01 4.261095673219513214e-01 -4.586220952554054819e-01
1.800000000000000044e+00 3.754478946080133661e-01 4.409435139418879102e-01 -4.142199164402675104e-01
1.899999999999999911e+00 3.834038597718296693e-01 4.543449540529867492e-01 -3.691306327821258226e-01
2.000000000000000000e+00 3.898230947698662074e-01 4.663045187152682902e-01 -3.235727017931465666e-01
2.099999999999999645e+00 3.947366170545896225e-01 4.768317803049229586e-01 -2.777530030150575646e-01
2.199999999999999734e+00 3.981943828357958903e-01 4.859374317138216437e-01 -2.318652978167959067e-01
2.299999999999999822e+00 4.002459506505375297e-01 4.936413553684551592e-01 -1.861098577692647527e-01
2.399999999999999911e+00 4.009576852419555748e-01 4.999687986768058812e-01 -1.406542409081441847e-01
2.500000000000000000e+00 4.003924640955324188e-01 5.049545802231659719e-01 -9.567684753091337813e-02
2.600000000000000089e+00 3.986270260145508004e-01 5.086363162051705800e-01 -5.132263317851200324e-02
2.699999999999999734e+00 3.957366975137003307e-01 5.110594045048622025e-01 -7.721681290458319059e-03
2.799999999999999822e+00 3.918031658256264649e-01 5.122710221591397772e-01 3.498167260165870041e-02
2.899999999999999911e+00 3.869057257293129215e-01 5.123269840903734718e-01 7.668335287215206908e-02
3.000000000000000000e+00 3.811326539805054425e-01 5.112786123045045539e-01 1.172951460764258130e-01
