1.000000000000000056e-01 -9.425933019111256903e-03 5.063327394649252966e-02 -8.965289091571542190e-01
2.000000000000000111e-01 -2.244230768665531409e-02 9.992610369120404068e-02 -8.829659116472978742e-01
2.999999999999999889e-01 -4.238852443618271182e-02 1.461286093971195521e-01 -8.606129055885679557e-01
4.000000000000000222e-01 -7.205464357804819420e-02 1.867399075745415360e-01 -8.298421043352108839e-01
5.000000000000000000e-01 -1.132697583113637524e-01 2.182833760844009596e-01 -7.911552628941580512e-01
5.999999999999999778e-01 -1.663732667199676052e-01 2.362730947257243308e-01 -7.451768973585162215e-01
6.999999999999999556e-01 -2.296073812596308716e-01 2.354972985120254991e-01 -6.926274849388225352e-01
7.999999999999999334e-01 -2.985295621008369760e-01 2.106749889642522411e-01 -6.343041215593404614e-01
8.999999999999999112e-01 -3.656302709625013359e-01 1.575329181436829207e-01 -5.710761638471333335e-01
9.999999999999998890e-01 -4.204158420374434768e-01 7.431587467125597146e-02 -5.038357002728297562e-01
1.099999999999999867e+00 -4.502054548619259799e-01 -3.650969680980092891e-02 -4.335049169288893167e-01
1.199999999999999956e+00 -4.419254692516665362e-01 -1.666999476297145732e-01 -3.609813471369422433e-01
1.300000000000000044e+00 -3.849187250486394429e-01 -3.013724563839378368e-01 -2.871363663628881957e-01
1.399999999999999911e+00 -2.744890186131387910e-01 -4.195681127512798092e-01 -2.128389103998256093e-01
1.500000000000000000e+00 -1.155958019651304181e-01 -4.967371209771189733e-01 -1.388327444675797884e-01
1.599999999999999867e+00 7.460274600595406813e-02 -5.094983930864033228e-01 -6.585943397142490774e-02
1.699999999999999956e+00 2.666293829572731200e-01 -4.422067282164453550e-01 5.468935900110753583e-03
1.800000000000000044e+00 4.223611960606672433e-01 -2.939480804227472266e-01 7.458650355398872833e-02
1.899999999999999911e+00 5.029230273615782343e-01 -8.374708474157205318e-02 1.410354004241607950e-01
2.000000000000000000e+00 4.799323031769338055e-01 1.487792298576059713e-01 2.044504646852328966e-01
2.099999999999999645e+00 3.472916299531747519e-01 3.495419622998279241e-01 2.645245700456942961e-01
2.199999999999999734e+00 1.291926073301222222e-01 4.633031600083894475e-01 3.210517828889551395e-01
2.299999999999999822e+00 -1.202983566209891719e-01 4.517447864686731651e-01 3.738990366987595682e-01
2.399999999999999911e+00 -3.290888221203966957e-01 3.106603152012475944e-01 4.230004052362960065e-01
2.500000000000000000e+00 -4.293309812448758978e-01 7.862840564132095311e-02 4.683479880222053415e-01
2.600000000000000089e+00 -3.837840562985942450e-01 -1.693652841454801050e-01 5.099873478828157447e-01
2.699999999999999734e+00 -2.057269448743850870e-01 -3.452211429993684577e-01 5.479995440609288782e-01
2.799999999999999822e+00 3.874565032997934200e-02 -3.818589469761941024e-01 5.825289150868760979e-01
2.899999999999999911e+00 2.518727918732697191e-01 -2.649193818568084113e-01 6.137223599957892795e-01
3.000000000000000000e+00 3.442363507675837986e-01 -4.546586913947844866e-02 6.417521628461426708e-01
