1.000000000000000056e-01 -1.590550083212177446e-01 -2.035384566558645289e-02 -8.632964174226359644e-01
2.000000000000000111e-01 -3.004781649581992342e-01 -5.672048727364894377e-02 -7.546890591809550797e-01
2.999999999999999889e-01 -4.066655746719713971e-01 -1.193576649331532930e-01 -5.884711508183415596e-01
4.000000000000000222e-01 -4.614137140404515058e-01 -2.083415076703388769e-01 -3.837333069258781482e-01
5.000000000000000000e-01 -4.532302984834513659e-01 -3.118038719775128587e-01 -1.618577738090653806e-01
5.999999999999999778e-01 -3.798346862602184904e-01 -4.078790819390619160e-01 5.704696921568346013e-02
6.999999999999999556e-01 -2.519186762518670353e-01 -4.705906434871366950e-01 2.570148708642849278e-01
7.999999999999999334e-01 -9.370824129148241921e-02 -4.784241548979127345e-01 4.276852902375621879e-01
8.999999999999999112e-01 6.138622230862804396e-02 -4.228545062233859952e-01 5.645183383386515041e-01
9.999999999999998890e-01 1.796444566124638931e-01 -3.132215120060123370e-01 6.678749147677064402e-01
1.099999999999999867e+00 2.376923057663913319e-01 -1.752198150368510510e-01 7.415107216777563348e-01
1.199999999999999956e+00 2.304792037843818309e-01 -4.265848641382329054e-02 7.909560534428634604e-01
1.300000000000000044e+00 1.726202810312189306e-01 5.445295922034836672e-02 8.221266678146973428e-01
1.399999999999999911e+00 9.199205099186555379e-02 1.004686044136601231e-01 8.404091872980697930e-01
1.500000000000000000e+00 1.823434977109801222e-02 9.837000994414425714e-02 8.501646291761324470e-01
1.599999999999999867e+00 -2.848737891991401025e-02 6.586825413894628611e-02 8.546221964689681982e-01
1.699999999999999956e+00 -4.319091224367779813e-02 2.579952100320162880e-02 8.559854356031281197e-01
1.800000000000000044e+00 -3.424238649017054270e-02 -4.054858031994238582e-03 8.556560650817810476e-01
1.899999999999999911e+00 -1.600321039287542352e-02 -1.667473601428908977e-02 8.544666818128172636e-01
2.000000000000000000e+00 -6.819084636363170054e-04 -1.513916667269120733e-02 8.528803265904171260e-01
2.099999999999999645e+00 6.313332376832066044e-03 -7.387941152672088813e-03 8.511383920138184678e-01
2.199999999999999734e+00 6.083072863415431297e-03 -4.870206349278718982e-04 8.493574987712022573e-01
2.299999999999999822e+00 2.773336366880741442e-03 2.521357216966983120e-03 8.475902408732787219e-01
2.399999999999999911e+00 -3.869691716610799102e-05 2.256640710183858197e-03 8.458573730223838405e-01
2.500000000000000000e+00 -1.040627997217982584e-03 8.246879131632719410e-04 8.441657045238279977e-01
2.600000000000000089e+00 -7.458050111077178194e-04 -1.909148002844141315e-04 8.425160194763240407e-01
2.699999999999999734e+00 -1.550458443917482310e-04 -4.079099530043868590e-04 8.409070576100480254e-01
2.799999999999999822e+00 1.418206810263898979e-04 -1.949218405087297268e-04 8.393369121807328082e-01
2.899999999999999911e+00 1.304512480453358869e-04 1.199991720361567513e-05 8.378036138044420156e-01
3.000000000000000000e+00 2.930031495529063543e-05 6.642485313608048440e-05 8.363053421557712364e-01
