1.000000000000000056e-01 9.755302635268207068e-01 1.223371968772470585e-02 1.223601678545327594e-02 0.000000000000000000e+00 5.765076506507080950e-02 9.279414351981611631e-02 1.092547692785581920e-01 -7.900360467127803346e-06 6.455861153526636087e-03 -1.039297148142571091e-02 0.000000000000000000e+00 0.000000000000000000e+00 0.000000000000000000e+00 0.000000000000000000e+00 0.000000000000000000e+00 0.000000000000000000e+00
2.000000000000000111e-01 9.045176954354495757e-01 4.773663983743156591e-02 4.774566472712132165e-02 0.000000000000000000e+00 1.097236320469955617e-01 1.764634807641862757e-01 2.078143275964146608e-01 -6.237831828730526257e-05 2.519700324814174233e-02 -4.055032217125313643e-02 0.000000000000000000e+00 0.000000000000000000e+00 0.000000000000000000e+00 0.000000000000000000e+00 0.000000000000000000e+00 0.000000000000000000e+00
2.999999999999999889e-01 7.939119939115999447e-01 1.030341501950139405e-01 1.030538558933872528e-01 0.000000000000000000e+00 1.511844531685097026e-01 2.427824308348077720e-01 2.860343506763590171e-01 -2.059741783931169461e-04 5.440645855546476228e-02 -8.751002076189962064e-02 0.000000000000000000e+00 0.000000000000000000e+00 0.000000000000000000e+00 0.000000000000000000e+00 0.000000000000000000e+00 0.000000000000000000e+00
4.000000000000000222e-01 6.545395111744738426e-01 1.727134538869879166e-01 1.727470349385368809e-01 0.000000000000000000e+00 1.780277257981196792e-01 2.852260656656581683e-01 3.362581383654549283e-01 -4.734934253347076278e-04 9.125227425390119995e-02 -1.466586495794493794e-01 0.000000000000000000e+00 0.000000000000000000e+00 0.000000000000000000e+00 0.000000000000000000e+00 0.000000000000000000e+00 0.000000000000000000e+00
5.000000000000000000e-01 5.000419403328246748e-01 2.499541963741273576e-01 2.500038632930502991e-01 0.000000000000000000e+00 1.876670757625720221e-01 2.996141685995293291e-01 3.535698327416273989e-01 -8.889704444225137586e-04 1.321630509707288903e-01 -2.121849257085595408e-01 0.000000000000000000e+00 0.000000000000000000e+00 0.000000000000000000e+00 0.000000000000000000e+00 0.000000000000000000e+00 0.000000000000000000e+00
5.999999999999999778e-01 3.455468957872561142e-01 3.271931416988096419e-01 3.272599625139330781e-01 0.000000000000000000e+00 1.791858111912541518e-01 2.845224412570710459e-01 3.362759616704362742e-01 -1.463502323715339679e-03 1.731732578490450258e-01 -2.776476869220264043e-01 0.000000000000000000e+00 0.000000000000000000e+00 0.000000000000000000e+00 0.000000000000000000e+00 0.000000000000000000e+00 0.000000000000000000e+00
6.999999999999999556e-01 2.061700428163482368e-01 3.968730652202145937e-01 3.969568919634363646e-01 0.000000000000000000e+00 1.534239777147993200e-01 2.414216642150758263e-01 2.860695799281599561e-01 -2.194286497614350052e-03 2.103127299405177231e-01 -3.366155880211153528e-01 0.000000000000000000e+00 0.000000000000000000e+00 0.000000000000000000e+00 0.000000000000000000e+00 0.000000000000000000e+00 0.000000000000000000e+00
7.999999999999999334e-01 9.555799728362782131e-02 4.521712639828394664e-01 4.522707387335341278e-01 0.000000000000000000e+00 1.128965481220135236e-01 1.745363858968858595e-01 2.078670109086230566e-01 -3.064631101912562543e-03 2.399859658902220860e-01 -3.832891438214645063e-01 0.000000000000000000e+00 0.000000000000000000e+00 0.000000000000000000e+00 0.000000000000000000e+00 0.000000000000000000e+00 0.000000000000000000e+00
8.999999999999999112e-01 2.453430096159449000e-02 4.876765275656824716e-01 4.877891714727237704e-01 0.000000000000000000e+00 6.154477833739714632e-02 9.042700308108697627e-02 1.093215521764481502e-01 -4.045305441878354995e-03 2.593253379187687169e-01 -4.130783199845267650e-01 0.000000000000000000e+00 0.000000000000000000e+00 0.000000000000000000e+00 0.000000000000000000e+00 0.000000000000000000e+00 0.000000000000000000e+00
9.999999999999998890e-01 5.196362786469125200e-05 4.999128289927853852e-01 5.000352073793504770e-01 0.000000000000000000e+00 4.354690959948008706e-03 -2.648357674949213762e-03 7.999517461525077529e-05 -5.096772685578444123e-03 2.664654708737990707e-01 -4.230486590793952062e-01 0.000000000000000000e+00 0.000000000000000000e+00 0.000000000000000000e+00 0.000000000000000000e+00 0.000000000000000000e+00 0.000000000000000000e+00
1.099999999999999867e+00 2.450623918385957944e-02 4.876829089357891944e-01 4.878108518803505045e-01 0.000000000000000000e+00 -5.312898883203627520e-02 -9.554362639741105501e-02 -1.091618648905186700e-01 -6.172248664067419080e-03 2.607245640282138677e-01 -4.122131935875680830e-01 0.000000000000000000e+00 0.000000000000000000e+00 0.000000000000000000e+00 0.000000000000000000e+00 0.000000000000000000e+00 0.000000000000000000e+00
1.199999999999999956e+00 9.550143320660112178e-02 4.521848485453734412e-01 4.523137182480254648e-01 0.000000000000000000e+00 -1.053458286919931874e-01 -1.791272101699271924e-01 -2.077124432328363024e-01 -7.221441246277905505e-03 2.426685688393084850e-01 -3.816298938478335234e-01 0.000000000000000000e+00 0.000000000000000000e+00 0.000000000000000000e+00 0.000000000000000000e+00 0.000000000000000000e+00 0.000000000000000000e+00
1.300000000000000044e+00 2.060879218001371305e-01 3.968935494633694661e-01 3.970185287364950133e-01 0.000000000000000000e+00 -1.472577727947861903e-01 -2.451736426886637066e-01 -2.859258212610552574e-01 -8.194398853747673558e-03 2.140535451559554547e-01 -3.342980300257616388e-01 0.000000000000000000e+00 0.000000000000000000e+00 0.000000000000000000e+00 0.000000000000000000e+00 0.000000000000000000e+00 0.000000000000000000e+00
1.399999999999999911e+00 3.454391187441312461e-01 3.272222522781226828e-01 3.273386289777445168e-01 0.000000000000000000e+00 -1.748381739536956636e-01 -2.871706450017422196e-01 -3.361454352281357250e-01 -9.045101551330519268e-03 1.776537120809913162e-01 -2.748665894856836545e-01 0.000000000000000000e+00 0.000000000000000000e+00 0.000000000000000000e+00 0.000000000000000000e+00 0.000000000000000000e+00 0.000000000000000000e+00
1.500000000000000000e+00 4.999124523963986988e-01 2.499920538148008298e-01 2.500954937888002494e-01 0.000000000000000000e+00 -1.854631073026892785e-01 -3.009610881884596245e-01 -3.534559113293544996e-01 -9.735011626423772241e-03 1.369897687779445261e-01 -2.091786064401287282e-01 0.000000000000000000e+00 0.000000000000000000e+00 0.000000000000000000e+00 0.000000000000000000e+00 0.000000000000000000e+00 0.000000000000000000e+00
1.599999999999999867e+00 6.543857962453721866e-01 1.727637139105618336e-01 1.728504898440660908e-01 0.000000000000000000e+00 -1.781642155697723273e-01 -2.851519470134741274e-01 -3.361638566570595010e-01 -1.023557575449758096e-02 9.598476079500488367e-02 -1.436983586259732992e-01 0.000000000000000000e+00 0.000000000000000000e+00 0.000000000000000000e+00 0.000000000000000000e+00 0.000000000000000000e+00 0.000000000000000000e+00
1.699999999999999956e+00 7.937391242256868207e-01 1.030968511695709577e-01 1.031640246047420967e-01 0.000000000000000000e+00 -1.537193528119296104e-01 -2.412516633728299664e-01 -2.859623067147554765e-01 -1.053004421882939266e-02 5.858137755389831308e-02 -8.487701864802431329e-02 0.000000000000000000e+00 0.000000000000000000e+00 0.000000000000000000e+00 0.000000000000000000e+00 0.000000000000000000e+00 0.000000000000000000e+00
1.800000000000000044e+00 9.043300904262218110e-01 4.781218530332807110e-02 4.785772427045250493e-02 0.000000000000000000e+00 -1.145737258731387431e-01 -1.735248083355261095e-01 -2.077655411106982264e-01 -1.061413932961604266e-02 2.835943308701284471e-02 -3.852174627284352115e-02 0.000000000000000000e+00 0.000000000000000000e+00 0.000000000000000000e+00 0.000000000000000000e+00 0.000000000000000000e+00 0.000000000000000000e+00
1.899999999999999911e+00 9.753305383045213217e-01 1.232331374977829914e-02 1.234614794570074864e-02 0.000000000000000000e+00 -6.459982516562240429e-02 -8.857859044935001425e-02 -1.092310169542986403e-01 -1.049570966636335749e-02 8.187993214428189795e-03 -9.225086545063142587e-03 0.000000000000000000e+00 0.000000000000000000e+00 0.000000000000000000e+00 0.000000000000000000e+00 0.000000000000000000e+00 0.000000000000000000e+00
2.000000000000000000e+00 9.997921487900498505e-01 1.039210305082098466e-04 1.039301794418451069e-04 0.000000000000000000e+00 -8.714042172691347302e-03 5.288181847666741792e-03 -3.864969301499884724e-06 -1.019355337839034613e-02 -5.388287331998343815e-05 8.886593259307168000e-05 0.000000000000000000e+00 0.000000000000000000e+00 0.000000000000000000e+00 0.000000000000000000e+00 0.000000000000000000e+00 0.000000000000000000e+00
2.099999999999999645e+00 9.753189965548377804e-01 1.235152741533488904e-02 1.232947602982591845e-02 0.000000000000000000e+00 4.760491568669324852e-02 9.889616399593141594e-02 1.092263561471584765e-01 -9.735257497674639979e-03 4.344149857953533145e-03 -1.155059406425051026e-02 0.000000000000000000e+00 0.000000000000000000e+00 0.000000000000000000e+00 0.000000000000000000e+00 0.000000000000000000e+00 0.000000000000000000e+00
2.199999999999999734e+00 9.043079600711473320e-01 4.786730945267553966e-02 4.782473047617786382e-02 0.000000000000000000e+00 9.884609578951666919e-02 1.830744060028144937e-01 2.077606368174773899e-01 -9.154346954317568383e-03 2.085617078841680780e-02 -4.306113460250721170e-02 0.000000000000000000e+00 0.000000000000000000e+00 0.000000000000000000e+00 0.000000000000000000e+00 0.000000000000000000e+00 0.000000000000000000e+00
2.299999999999999822e+00 7.937091092802873726e-01 1.031759223867315806e-01 1.031149683329793537e-01 0.000000000000000000e+00 1.400144936789949612e-01 2.495748606410414239e-01 2.859567322785878662e-01 -8.487460224301753009e-03 4.777547581276492955e-02 -9.141381668321486853e-02 0.000000000000000000e+00 0.000000000000000000e+00 0.000000000000000000e+00 0.000000000000000000e+00 0.000000000000000000e+00 0.000000000000000000e+00
2.399999999999999911e+00 6.543498558135071308e-01 1.728634340472037512e-01 1.727867101392881466e-01 0.000000000000000000e+00 1.671109458506243595e-01 2.918682830136581918e-01 3.361585456361574353e-01 -7.771149866945856015e-03 8.238348341748409631e-02 -1.519258560361456400e-01 0.000000000000000000e+00 0.000000000000000000e+00 0.000000000000000000e+00 0.000000000000000000e+00 0.000000000000000000e+00 0.000000000000000000e+00
2.500000000000000000e+00 4.998709784697824010e-01 2.501093141532282349e-01 2.500197073769876432e-01 0.000000000000000000e+00 1.775246944447414488e-01 3.057897487190111563e-01 3.534516196352083250e-01 -7.039056025457985678e-03 1.212191189816441139e-01 -2.187194155311378563e-01 0.000000000000000000e+00 0.000000000000000000e+00 0.000000000000000000e+00 0.000000000000000000e+00 0.000000000000000000e+00 0.000000000000000000e+00
2.600000000000000089e+00 3.453961496895230909e-01 3.273516660873210804e-01 3.272521842231562728e-01 0.000000000000000000e+00 1.702853382882932587e-01 2.899463885485683567e-01 3.361423923549304860e-01 -6.319499786335358062e-03 1.604181317582231980e-01 -2.852938322841545582e-01 0.000000000000000000e+00 0.000000000000000000e+00 0.000000000000000000e+00 0.000000000000000000e+00 0.000000000000000000e+00 0.000000000000000000e+00
2.699999999999999734e+00 2.060463234756460260e-01 3.970300210957609655e-01 3.969236554285934804e-01 0.000000000000000000e+00 1.461558495062866003e-01 2.458557356553621454e-01 2.859246705230775176e-01 -5.633971209382708858e-03 1.960938628681911100e-01 -3.451634456803222561e-01 0.000000000000000000e+00 0.000000000000000000e+00 0.000000000000000000e+00 0.000000000000000000e+00 0.000000000000000000e+00 0.000000000000000000e+00
2.799999999999999822e+00 9.546483871978320157e-02 4.523227717176771523e-01 4.522123895625378420e-01 0.000000000000000000e+00 1.075555946303933252e-01 1.777996466661845576e-01 2.077147583371195538e-01 -4.996183065169895916e-03 2.247169232777151415e-01 -3.924898289700191056e-01 0.000000000000000000e+00 0.000000000000000000e+00 0.000000000000000000e+00 0.000000000000000000e+00 0.000000000000000000e+00 0.000000000000000000e+00
2.899999999999999911e+00 2.447662932867350136e-02 4.878175477425144013e-01 4.877058229288123159e-01 0.000000000000000000e+00 5.832077471746550251e-02 9.240571600195199298e-02 1.091692626666955213e-01 -4.412091961427327437e-03 2.434621805149234375e-01 -4.226554450375680227e-01 0.000000000000000000e+00 0.000000000000000000e+00 0.000000000000000000e+00 0.000000000000000000e+00 0.000000000000000000e+00 0.000000000000000000e+00
3.000000000000000000e+00 3.013102185655606156e-05 5.000402461671569210e-01 4.999296228109864626e-01 0.000000000000000000e+00 3.325500210499053415e-03 -2.002261683435886414e-03 -6.684125152100498445e-05 -3.880747636672563124e-03 2.504843879549247254e-01 -4.327152678696851718e-01 0.000000000000000000e+00 0.000000000000000000e+00 0.000000000000000000e+00 0.000000000000000000e+00 0.000000000000000000e+00 0.000000000000000000e+00
