1.000000000000000056e-01 1.293957313039741930e-01 -2.071726414733751631e-01 -9.697093174541661087e-01
2.000000000000000111e-01 2.732542184928502538e-01 -3.848820967513152946e-01 -8.815881706980562837e-01
2.999999999999999889e-01 4.389000430945340092e-01 -5.045891047176939148e-01 -7.434757893180400368e-01
4.000000000000000222e-01 6.208485927535678517e-01 -5.412013353453237752e-01 -5.671399578158113908e-01
5.000000000000000000e-01 7.982097969052244224e-01 -4.779756696152241413e-01 -3.666058744770699929e-01
5.999999999999999778e-01 9.367419445622349183e-01 -3.131731231433331208e-01 -1.563219083660859487e-01
6.999999999999999556e-01 9.965309940548146006e-01 -6.614161408209057180e-02 5.050472291600580088e-02
7.999999999999999334e-01 9.445437816531251363e-01 2.206404553452518957e-01 2.432165283761298091e-01
8.999999999999999112e-01 7.689255930019778251e-01 4.868643332003554924e-01 4.143863406364386437e-01
9.999999999999998890e-01 4.897258818773418954e-01 6.683238602007897100e-01 5.599208873368679562e-01
1.099999999999999867e+00 1.601103602505351275e-01 7.167276467824237329e-01 6.787236635882510916e-01
1.199999999999999956e+00 -1.454907640658541501e-01 6.186643107091672755e-01 7.720664528033183149e-01
1.300000000000000044e+00 -3.546410650591038660e-01 4.048951000882222706e-01 8.427867200904430867e-01
1.399999999999999911e+00 -4.234448267171971869e-01 1.432293689649046797e-01 8.945276220100278897e-01
1.500000000000000000e+00 -3.546105534291221772e-01 -8.503338869456925075e-02 9.311393716089353401e-01
1.599999999999999867e+00 -1.969950753336894289e-01 -2.164073686999513357e-01 9.562220975972497428e-01
1.699999999999999956e+00 -2.464958386353292841e-02 -2.299757990988249290e-01 9.728840892278669550e-01
1.800000000000000044e+00 9.557436002388891572e-02 -1.528127229674989818e-01 9.836227699527515522e-01
1.899999999999999911e+00 1.318703208012177719e-01 -4.267254577403764570e-02 9.903480348503060915e-01
2.000000000000000000e+00 9.616604201138277686e-02 4.279552332475862475e-02 9.944448754606501906e-01
2.099999999999999645e+00 2.990954620063696057e-02 7.311370908326833562e-02 9.968750119997712433e-01
2.199999999999999734e+00 -2.321604124831038590e-02 5.384103376446851275e-02 9.982795917364906124e-01
2.299999999999999822e+00 -4.064070589766757835e-02 1.423736131096335622e-02 9.990723801233820645e-01
2.399999999999999911e+00 -2.716946073324123107e-02 -1.557644974803513299e-02 9.995094745592271179e-01
2.500000000000000000e+00 -3.643685187016319771e-03 -2.226858164925526323e-02 9.997453831450914263e-01
2.600000000000000089e+00 1.106266760700103796e-02 -1.172600967101903452e-02 9.998700498545782800e-01
2.699999999999999734e+00 1.132435936559202799e-02 1.524464063524067631e-03 9.999347148682761199e-01
2.799999999999999822e+00 3.563649488583373742e-03 7.211050172263264516e-03 9.999676498341820707e-01
2.899999999999999911e+00 -2.927235745586163375e-03 4.796325266780014467e-03 9.999842130772403914e-01
3.000000000000000000e+00 -3.907190775468830264e-03 -5.464816150481952364e-05 9.999923653447451155e-01
