1.000000000000000056e-01 -2.511900670557037918e-01 -2.177811674809557174e-02 -8.618399120893334153e-01
3.071428571428571619e-01 -6.483444460188748648e-01 -1.675103544936479838e-01 -5.652640688131150837e-01
5.142857142857142350e-01 -7.014359021032687824e-01 -4.679700975695232357e-01 -1.180370270746570471e-01
7.214285714285714191e-01 -3.616258737851356653e-01 -6.968523643219577401e-01 2.998773599253409250e-01
9.285714285714284921e-01 1.141709706401638214e-01 -5.913592513411091156e-01 5.925856763773802438e-01
1.135714285714285676e+00 3.413146200717351308e-01 -2.091839822359716494e-01 7.584220379137087686e-01
1.342857142857142971e+00 2.147771276876892788e-01 9.980127374989269939e-02 8.388216918458765159e-01
1.550000000000000044e+00 3.330072872187242461e-04 1.263411225315121400e-01 8.742980617828627343e-01
1.757142857142857117e+00 -5.838578670847994340e-02 1.782638753104854451e-02 8.895595991002327452e-01
1.964285714285714191e+00 -1.158367582085226971e-02 -2.409269935932357998e-02 8.962019643917272793e-01
2.171428571428571264e+00 9.518931008094854221e-03 -4.686741119936210613e-03 8.989924097447375972e-01
2.378571428571428559e+00 1.211084567635706526e-03 3.626745046863957822e-03 8.999611765113855189e-01
2.585714285714285854e+00 -1.252772340458182133e-03 4.510883639362588300e-05 9.001090239409641480e-01
2.792857142857142705e+00 1.492452059998301481e-04 -3.472319565682731421e-04 8.999569778673821574e-01
3.000000000000000000e+00 5.382486531080056389e-05 9.395216399529165519e-05 8.997476131320583104e-01
