0.000000000000000000e+00 2.018249856844495730e-09 3.733359161716337319e-09 -1.000000000000000000e+00
1.394871794871795079e-01 2.817132000070458053e-01 9.102070609021878367e-03 -9.594528015679397726e-01
2.789743589743590158e-01 5.203501184433817484e-01 8.226716370184777860e-02 -8.499748304321479431e-01
4.184615384615385514e-01 6.652355675758253595e-01 2.539494268085898954e-01 -7.021080701598049201e-01
5.579487179487180315e-01 6.625801949830475435e-01 5.080108584206495248e-01 -5.503573509189506607e-01
6.974358974358975116e-01 4.760107363468282782e-01 7.734739282827969298e-01 -4.184857411011535522e-01
8.369230769230771028e-01 1.153816601722346957e-01 9.428947329002733690e-01 -3.124318620676617697e-01
9.764102564102565829e-01 -3.431206705539608937e-01 9.122220845806274792e-01 -2.238198369184903058e-01
1.115897435897436063e+00 -7.632239459695688844e-01 6.306519838685111790e-01 -1.405098317128353202e-01
1.255384615384615543e+00 -9.885655211438523216e-01 1.395756276693947140e-01 -5.685325822896439979e-02
1.394871794871795023e+00 -9.063618255525877077e-01 -4.218605511509054273e-01 2.274444851916210264e-02
1.534358974358974503e+00 -5.081165555319322458e-01 -8.567235468881962968e-01 8.841860564555184543e-02
1.673846153846154206e+00 8.500582419616406482e-02 -9.873882717325551672e-01 1.334694927923777974e-01
1.813333333333333686e+00 6.536016826959232251e-01 -7.395982986035921636e-01 1.605459617447529685e-01
1.952820512820513166e+00 9.644542613893722915e-01 -1.925653729058650898e-01 1.808936484163872482e-01
2.092307692307692424e+00 8.754272517379488860e-01 4.366259187868885561e-01 2.072704325798855884e-01
2.231794871794872126e+00 4.115216068263657379e-01 8.776825673153342278e-01 2.455600048769523425e-01
2.371282051282051828e+00 -2.306042172419063840e-01 9.285209762561974500e-01 2.909421317017928388e-01
2.510769230769231086e+00 -7.615609153835589673e-01 5.569122168588932498e-01 3.314379060720806236e-01
2.650256410256410788e+00 -9.315950351075337199e-01 -7.172250696498913558e-02 3.563202907779278172e-01
2.789743589743590046e+00 -6.546573020988125657e-01 -6.626065105848684134e-01 3.638050470311455786e-01
2.929230769230769749e+00 -5.970773293846098895e-02 -9.300277663843020681e-01 3.625755755814198955e-01
3.068717948717949007e+00 5.635310962661601586e-01 -7.404842736536516590e-01 3.661876697601253450e-01
3.208205128205128709e+00 9.042976000258936553e-01 -1.863485463695942201e-01 3.840546474552767320e-01
3.347692307692308411e+00 7.888199993265919696e-01 4.532301439055410608e-01 4.151190388233407247e-01
3.487179487179487669e+00 2.744268328915474564e-01 8.505512331259592607e-01 4.485882390693392008e-01
3.626666666666667371e+00 -3.737861723922975554e-01 7.988778383716753639e-01 4.712296797701992501e-01
3.766153846153846629e+00 -8.172747083073532703e-01 3.242197297392127586e-01 4.763643874774619036e-01
3.905641025641026332e+00 -8.221557276163211636e-01 -3.233554859183470631e-01 4.684874164701227084e-01
4.045128205128206034e+00 -3.864758579891310886e-01 -7.991719313261047564e-01 4.603691399600390866e-01
4.184615384615384848e+00 2.546337371320961385e-01 -8.481343234998196534e-01 4.645523903489862660e-01
4.324102564102564550e+00 7.530070808153254136e-01 -4.447210892284877426e-01 4.849567012350654016e-01
4.463589743589744252e+00 8.363555195474252635e-01 1.898616816339371016e-01 5.142392816664506094e-01
4.603076923076923954e+00 4.591613712011833881e-01 7.063561484361897680e-01 5.387136318388608958e-01
4.742564102564103656e+00 -1.695401070897218365e-01 8.194143229906917236e-01 5.475372215913695273e-01
4.882051282051282470e+00 -7.000474110080483481e-01 4.671894962290631392e-01 5.400445742321302589e-01
5.021538461538462172e+00 -8.366328570608014825e-01 -1.520051701990153270e-01 5.262320400447432212e-01
5.161025641025641875e+00 -5.044519805748853836e-01 -6.891854239242986013e-01 5.201267677506409282e-01
5.300512820512821577e+00 1.064941108929656211e-01 -8.410274118907954399e-01 5.303887815677922335e-01
5.440000000000000391e+00 6.476504040412704999e-01 -5.225225630496721507e-01 5.545268060809621646e-01
