0.000000000000000000e+00 -1.833240388773450849e-09 -2.404138318357717571e-09 -1.000000000000000000e+00
1.394871794871795079e-01 -3.476713046724409784e-02 -9.736541204454218779e-02 -9.946403670731357449e-01
2.789743589743590158e-01 -6.722357976876970620e-02 -1.832934783159880232e-01 -9.807553990544721767e-01
4.184615384615385514e-01 -9.342751651414406278e-02 -2.497712514205661372e-01 -9.637847108350018344e-01
5.579487179487180315e-01 -1.073786970288465037e-01 -2.946514016840581229e-01 -9.495497898416941362e-01
6.974358974358975116e-01 -1.025899218913006727e-01 -3.221959444375270820e-01 -9.410945889644528606e-01
8.369230769230771028e-01 -7.508255265878102658e-02 -3.415923842492147311e-01 -9.368409470023741914e-01
9.764102564102565829e-01 -2.642706897822863499e-02 -3.638195359711648980e-01 -9.310909472929149722e-01
1.115897435897436063e+00 3.487130092730375552e-02 -3.978054524899604094e-01 -9.168028584711062079e-01
1.255384615384615543e+00 9.478632097594688610e-02 -4.471185482393244537e-01 -8.894335035785715382e-01
1.394871794871795023e+00 1.379737198970475420e-01 -5.083292337950963136e-01 -8.500320175289576285e-01
1.534358974358974503e+00 1.534314023998771259e-01 -5.717237846314229266e-01 -8.059645845309293399e-01
1.673846153846154206e+00 1.393597537670874242e-01 -6.243109627101478543e-01 -7.686362305183408461e-01
1.813333333333333686e+00 1.050408940600641161e-01 -6.542613622058883749e-01 -7.489291387558709712e-01
1.952820512820513166e+00 6.852149631505483063e-02 -6.553565578599028774e-01 -7.521961572752144942e-01
2.092307692307692424e+00 5.052011290088209705e-02 -6.298393971251823320e-01 -7.750724031420620497e-01
2.231794871794872126e+00 6.663090413980013449e-02 -5.885338114568586798e-01 -8.057148755685297203e-01
2.371282051282051828e+00 1.207783804802572136e-01 -5.478994749305033940e-01 -8.277727381556605479e-01
2.510769230769231086e+00 2.026674492394208993e-01 -5.248202391885983253e-01 -8.267276099330199690e-01
2.650256410256410788e+00 2.905885763967768209e-01 -5.307855787752580046e-01 -7.961236144890608823e-01
2.789743589743590046e+00 3.588799545440840011e-01 -5.675172073198012646e-01 -7.410233031531827663e-01
2.929230769230769749e+00 3.874446608615861321e-01 -6.257372554110423035e-01 -6.769962378066178843e-01
3.068717948717949007e+00 3.697374231001668843e-01 -6.877912363891098835e-01 -6.246763710155389671e-01
3.208205128205128709e+00 3.159996391650196079e-01 -7.334445879435920190e-01 -6.018187997751239804e-01
3.347692307692308411e+00 2.502059939430032465e-01 -7.470044894204541652e-01 -6.159254578401982538e-01
3.487179487179487669e+00 2.015915302188578673e-01 -7.232370490214148351e-01 -6.605096483064748503e-01
3.626666666666667371e+00 1.937780072346028115e-01 -6.698320317388910539e-01 -7.167709391569381250e-01
3.766153846153846629e+00 2.355925417538115019e-01 -6.053107103500452446e-01 -7.603169177355045827e-01
3.905641025641026332e+00 3.172123324297009272e-01 -5.528393080792295411e-01 -7.705401139518507359e-01
4.045128205128206034e+00 4.133115291776998101e-01 -5.320284169631007698e-01 -7.389894602139944757e-01
4.184615384615384848e+00 4.922621534143566957e-01 -5.516219707967066066e-01 -6.733316149022765540e-01
4.324102564102564550e+00 5.280140919005050781e-01 -6.058486065194816916e-01 -5.950891036854740745e-01
4.463589743589744252e+00 5.101803641943490897e-01 -6.759666028206002819e-01 -5.317577660444950949e-01
4.603076923076923954e+00 4.483704131168956275e-01 -7.366833160643938561e-01 -5.062038872386419586e-01
4.742564102564103656e+00 3.689512494857419833e-01 -7.652811621987948287e-01 -5.274474525593627616e-01
4.882051282051282470e+00 3.053198476927682647e-01 -7.501368550739552221e-01 -5.865635189293129104e-01
5.021538461538462172e+00 2.852613104713551673e-01 -6.954346234183956810e-01 -6.595306016094802937e-01
5.161025641025641875e+00 3.202170629957293291e-01 -6.201344605976388813e-01 -7.161562040850150135e-01
5.300512820512821577e+00 4.006633456464468446e-01 -5.513606375979167584e-01 -7.317487269910473158e-01
5.440000000000000391e+00 4.994476823346895578e-01 -5.144945169108887661e-01 -6.970167198556466159e-01
