0.000000000000000000e+00 1.771775935694122866e-09 -2.454588401390299330e-09 -1.000000000000000000e+00
1.394871794871795079e-01 4.258404915541925129e-01 2.715901019041033759e-02 -9.043861008632655407e-01
2.789743589743590158e-01 7.577039776469599586e-01 -2.940803757769783200e-03 -6.525791648201754169e-01
4.184615384615385514e-01 9.340054362082780282e-01 -1.214391877490350602e-01 -3.359528119223645914e-01
5.579487179487180315e-01 9.457297025548131453e-01 -3.180423207692955057e-01 -6.648683782047921931e-02
6.974358974358975116e-01 8.369000152018345462e-01 -5.432415099625187427e-01 6.680653370882949638e-02
8.369230769230771028e-01 6.855290721137083931e-01 -7.273229084216685791e-01 3.205170803080079067e-02
9.764102564102565829e-01 5.727446989933401289e-01 -8.086540394571650747e-01 -1.342329040249318761e-01
1.115897435897436063e+00 5.522257187344947749e-01 -7.598047383651178599e-01 -3.431056986756551019e-01
1.255384615384615543e+00 6.317192009592782487e-01 -6.007258712575807014e-01 -4.899381756639062391e-01
1.394871794871795023e+00 7.734293956001014880e-01 -3.932582233372394764e-01 -4.971269441008175916e-01
1.534358974358974503e+00 9.124965195322767286e-01 -2.186606128990167819e-01 -3.457103906334410559e-01
1.673846153846154206e+00 9.856579746401712416e-01 -1.467265639922492593e-01 -8.322140477157953520e-02
1.813333333333333686e+00 9.582885115022539146e-01 -2.085526335886219718e-01 1.953601283715121761e-01
1.952820512820513166e+00 8.388740839311199515e-01 -3.838632771379115738e-01 3.858986879176458107e-01
2.092307692307692424e+00 6.752847537001633871e-01 -6.081361571096322027e-01 4.173007268364405387e-01
2.231794871794872126e+00 5.346215427041104418e-01 -7.971063350548951432e-01 2.806753307531243968e-01
2.371282051282051828e+00 4.751025120455979467e-01 -8.792727370676783893e-01 3.366140360477252319e-02
2.510769230769231086e+00 5.216411287065380042e-01 -8.237850611782613353e-01 -2.219133852872356150e-01
2.650256410256410788e+00 6.551671364554467747e-01 -6.527828251251315272e-01 -3.802750034414767999e-01
2.789743589743590046e+00 8.201104652516726379e-01 -4.331899083696678643e-01 -3.738230999933773724e-01
2.929230769230769749e+00 9.470171098595694392e-01 -2.510130753828711536e-01 -2.003190373297011884e-01
3.068717948717949007e+00 9.810879213393770559e-01 -1.780326622852432816e-01 7.580877724512100069e-02
3.208205128205128709e+00 9.049434421390578631e-01 -2.438602569970060308e-01 3.486941502746553900e-01
3.347692307692308411e+00 7.462595067158448447e-01 -4.242604751631793292e-01 5.129135809989303629e-01
3.487179487179487669e+00 5.670218093266232717e-01 -6.504150713742185008e-01 5.053977751884157765e-01
3.626666666666667371e+00 4.386175953976429454e-01 -8.355922794246899432e-01 3.307234588409100340e-01
3.766153846153846629e+00 4.128167750198499242e-01 -9.088459651095748271e-01 5.964390118856954803e-02
3.905641025641026332e+00 5.004054548576148953e-01 -8.426729439489702989e-01 -1.986790611708308396e-01
4.045128205128206034e+00 6.662583485755959600e-01 -6.637769168615148541e-01 -3.398205178400350857e-01
4.184615384615384848e+00 8.429940476933663884e-01 -4.427231072647349608e-01 -3.055075741905725062e-01
4.324102564102564550e+00 9.578844681353801960e-01 -2.664663850142093837e-01 -1.069074983093071252e-01
4.463589743589744252e+00 9.622465648704394692e-01 -2.044765073443376435e-01 1.795757802026655969e-01
4.603076923076923954e+00 8.514480261591308441e-01 -2.816345348155382400e-01 4.423772172100846056e-01
4.742564102564103656e+00 6.673175998590430424e-01 -4.685437168217926329e-01 5.789091853510764940e-01
4.882051282051282470e+00 4.818391440106722379e-01 -6.930052434666824634e-01 5.362422535907424015e-01
5.021538461538462172e+00 3.684652677363205453e-01 -8.682346505908457024e-01 3.322345808707615755e-01
5.161025641025641875e+00 3.725508031350291960e-01 -9.267226455251590389e-01 4.865274003944899256e-02
5.300512820512821577e+00 4.927658913267618512e-01 -8.465950370613117837e-01 -2.010853619718496466e-01
5.440000000000000391e+00 6.811063789564955062e-01 -6.601082098714338153e-01 -3.167474620552697684e-01
