0.000000000000000000e+00 -3.462932600222785542e-09 2.292922846087974670e-09 -1.000000000000000000e+00
1.394871794871795079e-01 2.104395366991885230e-01 -2.116910344811124417e-02 -9.773757092533387203e-01
2.789743589743590158e-01 3.955225980166915956e-01 -2.539777224136164496e-03 -9.184486072647307653e-01
4.184615384615385514e-01 5.270234925196009002e-01 8.000742657295242810e-02 -8.460698654961135157e-01
5.579487179487180315e-01 5.751093195562806404e-01 2.240565714461007496e-01 -7.867877182538696168e-01
6.974358974358975116e-01 5.154246706942442469e-01 3.979660616240007220e-01 -7.589113856904426969e-01
8.369230769230771028e-01 3.403593460406335036e-01 5.479129940065652349e-01 -7.641551556700283410e-01
9.764102564102565829e-01 6.968959361544686815e-02 6.134247651437987336e-01 -7.866641014542943289e-01
1.115897435897436063e+00 -2.453820225223725116e-01 5.474471153429526504e-01 -8.000479786643819313e-01
1.255384615384615543e+00 -5.292002800216468739e-01 3.350340938211247011e-01 -7.795421475030176461e-01
1.394871794871795023e+00 -7.000722378986807826e-01 4.339587683690859787e-03 -7.140481380526397803e-01
1.534358974358974503e+00 -6.957293025532427233e-01 -3.749253617593724108e-01 -6.126775497739692655e-01
1.673846153846154206e+00 -4.974616841149197555e-01 -7.070072159488739461e-01 -5.026454495152692381e-01
1.813333333333333686e+00 -1.435615901862826449e-01 -8.965916627904778613e-01 -4.189174696592916636e-01
1.952820512820513166e+00 2.748023116823614109e-01 -8.789715611628765579e-01 -3.897058388374567972e-01
2.092307692307692424e+00 6.365262795731669865e-01 -6.443609437708041066e-01 -4.238062235235517949e-01
2.231794871794872126e+00 8.267295010923929599e-01 -2.473513311814203308e-01 -5.052875147031916647e-01
2.371282051282051828e+00 7.749839827022720895e-01 2.035976403036071081e-01 -5.982721449434590388e-01
2.510769230769231086e+00 4.824380029873524545e-01 5.755313104427182136e-01 -6.603033578087854627e-01
2.650256410256410788e+00 2.719280239376759001e-02 7.514361289515072428e-01 -6.592325140340083989e-01
2.789743589743590046e+00 -4.558776901370344969e-01 6.691907603673791227e-01 -5.868055397228917336e-01
2.929230769230769749e+00 -8.160441221843026671e-01 3.456852903508618735e-01 -4.631983959894437342e-01
3.068717948717949007e+00 -9.357712942591093208e-01 -1.235109396102018198e-01 -3.302337642114605010e-01
3.208205128205128709e+00 -7.715418955227969500e-01 -5.909448463269576513e-01 -2.355494887254871716e-01
3.347692307692308411e+00 -3.717814715243192847e-01 -9.033598765567361077e-01 -2.137652237889749729e-01
3.487179487179487669e+00 1.355633210615479478e-01 -9.526488163131482390e-01 -2.721385567864724742e-01
3.626666666666667371e+00 5.831610274191137977e-01 -7.144118252623690157e-01 -3.866741093541534169e-01
3.766153846153846629e+00 8.195930153494179748e-01 -2.599161173664917279e-01 -5.105788916386527765e-01
3.905641025641026332e+00 7.612888298836897327e-01 2.642468488493255330e-01 -5.921102271536413664e-01
4.045128205128206034e+00 4.229833837866448509e-01 6.834681984106570907e-01 -5.949268272464393048e-01
4.184615384615384848e+00 -8.477402591137511711e-02 8.542297294176623979e-01 -5.129180302318305795e-01
4.324102564102564550e+00 -5.913279004476691414e-01 7.147564191624884433e-01 -3.734063496519883785e-01
4.463589743589744252e+00 -9.235146916992580390e-01 3.090190002444051509e-01 -2.271652409684530860e-01
4.603076923076923954e+00 -9.656452749031345650e-01 -2.255944501755183795e-01 -1.288872589666290869e-01
4.742564102564103656e+00 -7.008394663851199580e-01 -7.038661585955219291e-01 -1.156373216004546040e-01
4.882051282051282470e+00 -2.187231716754573230e-01 -9.567312837273488357e-01 -1.918367349309856029e-01
5.021538461538462172e+00 3.141369302037782529e-01 -8.913318166764498951e-01 -3.268374668746851230e-01
5.161025641025641875e+00 7.114935020036770030e-01 -5.256176068739502050e-01 -4.663499166220874681e-01
5.300512820512821577e+00 8.327290208100937008e-01 1.572984193474880055e-02 -5.534398685265788931e-01
5.440000000000000391e+00 6.331649637377300133e-01 5.436360718642551104e-01 -5.509470589895649750e-01
