0.000000000000000000e+00 -2.028813997516069038e-09 1.403126626427559729e-09 -1.000000000000000000e+00
1.394871794871795079e-01 6.549157542938029153e-02 1.391057913834273241e-01 -9.881089961819522483e-01
2.789743589743590158e-01 9.698791083547139702e-02 2.859471044591427868e-01 -9.533233816255175519e-01
4.184615384615385514e-01 6.144726585123727602e-02 4.354021856046251804e-01 -8.981346661801044018e-01
5.579487179487180315e-01 -6.645413408662642629e-02 5.594291710063137302e-01 -8.262072148176582420e-01
6.974358974358975116e-01 -2.889540728146567927e-01 6.051670119671116455e-01 -7.418038496508576607e-01
8.369230769230771028e-01 -5.654180154127783631e-01 5.087220234431915067e-01 -6.492287098485305386e-01
9.764102564102565829e-01 -8.015134988181273901e-01 2.289945073859707136e-01 -5.523858701896104950e-01
1.115897435897436063e+00 -8.664488918910291382e-01 -2.064319116383231401e-01 -4.545812057517212290e-01
1.255384615384615543e+00 -6.504893927167698653e-01 -6.696606490866792161e-01 -3.583427492757699229e-01
1.394871794871795023e+00 -1.487347971574492500e-01 -9.525582859534563740e-01 -2.655214227206110222e-01
1.534358974358974503e+00 4.781106073708074611e-01 -8.602058086780138835e-01 -1.773328095282736550e-01
1.673846153846154206e+00 9.321693461972176964e-01 -3.494597803207569742e-01 -9.449177195900325399e-02
1.813333333333333686e+00 9.264810153552910377e-01 3.759291844651141412e-01 -1.733986421176750628e-02
1.952820512820513166e+00 3.934031473239882337e-01 9.177679765916381127e-01 5.409644498575553323e-02
2.092307692307692424e+00 -3.946355346848607892e-01 9.109763199070884943e-01 1.198978611667495947e-01
2.231794871794872126e+00 -9.344507252321851976e-01 3.070261663138957320e-01 1.803538187217068878e-01
2.371282051282051828e+00 -8.256757432926460361e-01 -5.125062775038906615e-01 2.357705594947444583e-01
2.510769230769231086e+00 -1.109525091283333764e-01 -9.516239041524003905e-01 2.865178127326854507e-01
2.650256410256410788e+00 6.812895507070604317e-01 -6.518988815524895397e-01 3.329619019291193416e-01
2.789743589743590046e+00 9.114168170852234852e-01 1.683493701664581788e-01 3.754587034824934388e-01
2.929230769230769749e+00 3.721366978055259400e-01 8.305380227673240245e-01 4.143821386225389758e-01
3.068717948717949007e+00 -4.781769528111759482e-01 7.541952082282297187e-01 4.500313586211685535e-01
3.208205128205128709e+00 -8.757672067492824342e-01 1.193021139002159448e-03 4.827240134397830507e-01
3.347692307692308411e+00 -4.494365732355523613e-01 -7.315021095901155235e-01 5.127414219168455745e-01
3.487179487179487669e+00 3.930370738723187318e-01 -7.440151535315949749e-01 5.403294388520489822e-01
3.626666666666667371e+00 8.241411992559976030e-01 -2.731521207741771651e-02 5.657188964094165273e-01
3.766153846153846629e+00 4.143859116223099770e-01 6.936934531994349840e-01 5.891236293541208813e-01
3.905641025641026332e+00 -4.070491013989798734e-01 6.792065412677678049e-01 6.107230309844071670e-01
4.045128205128206034e+00 -7.746491963741686249e-01 -4.625987735464437423e-02 6.306916939261359989e-01
4.184615384615384848e+00 -3.026231186478137714e-01 -6.978454921564161140e-01 6.491720080289024031e-01
4.324102564102564550e+00 4.824113677408928824e-01 -5.686011533163188858e-01 6.663074320812130136e-01
4.463589743589744252e+00 7.073728005405736097e-01 1.849225338304668620e-01 6.822178173409187973e-01
4.603076923076923954e+00 1.301877891359478345e-01 7.051381403968698391e-01 6.970117303652373364e-01
4.742564102564103656e+00 -5.758425869377096218e-01 4.039686592215953054e-01 7.107803339519254138e-01
4.882051282051282470e+00 -5.925238740946866534e-01 -3.539502277205962000e-01 7.236221094905538331e-01
5.021538461538462172e+00 8.517928091348192510e-02 -6.720250772876366074e-01 7.356093818895761416e-01
5.161025641025641875e+00 6.393846924811330545e-01 -1.828745838091293263e-01 7.468190328382883214e-01
5.300512820512821577e+00 4.085261321605898610e-01 5.094930716553187633e-01 7.573096254071703948e-01
5.440000000000000391e+00 -3.101693433675950518e-01 5.614949360891260399e-01 7.671461285936201913e-01
