0.000000000000000000e+00 -1.534266900172774622e-09 -1.788958874805612604e-09 -1.000000000000000000e+00
1.394871794871795079e-01 -4.305798442981888935e-02 5.301179747598810943e-02 -9.976646609806917310e-01
2.789743589743590158e-01 -8.599487479824638458e-02 1.049070701465330963e-01 -9.907560131582594520e-01
4.184615384615385514e-01 -1.286091547372390231e-01 1.547380866251174270e-01 -9.795473200230008226e-01
5.579487179487180315e-01 -1.706470829259550404e-01 2.018077068939980179e-01 -9.644425325731371679e-01
6.974358974358975116e-01 -2.117744863470445160e-01 2.456804649485440362e-01 -9.459322803635442645e-01
8.369230769230771028e-01 -2.516105253204463654e-01 2.861275405597381027e-01 -9.245633612311693339e-01
9.764102564102565829e-01 -2.897980830940906638e-01 3.230586027409794170e-01 -9.009125913437397992e-01
1.115897435897436063e+00 -3.260877091310924181e-01 3.564844412465090207e-01 -8.755444112942388779e-01
1.255384615384615543e+00 -3.603585395105821654e-01 3.865284918253238944e-01 -8.489575561109589108e-01
1.394871794871795023e+00 -3.925853751643114120e-01 4.134245664730679115e-01 -8.215518819371946391e-01
1.534358974358974503e+00 -4.227565552363324874e-01 4.375040427921683683e-01 -7.936352782409025197e-01
1.673846153846154206e+00 -4.508250799980059731e-01 4.591141504017637320e-01 -7.654802703911255390e-01
1.813333333333333686e+00 -4.767320671394508769e-01 4.785382429918045855e-01 -7.373710622671943993e-01
1.952820512820513166e+00 -5.004937735442812619e-01 4.959552377445047844e-01 -7.095929336417062805e-01
2.092307692307692424e+00 -5.222721845489117776e-01 5.114726898464351246e-01 -6.823595817333775182e-01
2.231794871794872126e+00 -5.423205326125876136e-01 5.252238648173006563e-01 -6.557552272166301544e-01
2.371282051282051828e+00 -5.608892347775462639e-01 5.374420376025141888e-01 -6.297185029968175307e-01
2.510769230769231086e+00 -5.780733423080888223e-01 5.484538867035737564e-01 -6.041648275214435149e-01
2.650256410256410788e+00 -5.938240206755184269e-01 5.585622735827374674e-01 -5.791082498976295456e-01
2.789743589743590046e+00 -6.080513971476956270e-01 5.679333726625992451e-01 -5.547160674325141150e-01
2.929230769230769749e+00 -6.207971824439392217e-01 5.765456032779232576e-01 -5.312159435308443367e-01
3.068717948717949007e+00 -6.323012578662861038e-01 5.842760329762001215e-01 -5.087245361725490911e-01
3.208205128205128709e+00 -6.429033470586089649e-01 5.910773546822061242e-01 -4.871206699284052477e-01
3.347692307692308411e+00 -6.528414582508526021e-01 5.970872081407184728e-01 -4.661204868243454258e-01
3.487179487179487669e+00 -6.621144863321821727e-01 6.026171094366526981e-01 -4.454662387967633363e-01
3.626666666666667371e+00 -6.705200056180040669e-01 6.079689567994095434e-01 -4.251582768612950369e-01
3.766153846153846629e+00 -6.778764439130942066e-01 6.132425238609718887e-01 -4.054624381931250521e-01
3.905641025641026332e+00 -6.842240966210844100e-01 6.182867580896329596e-01 -3.867057249682532283e-01
4.045128205128206034e+00 -6.898669183257155613e-01 6.228249053895187348e-01 -3.689919072284428836e-01
4.184615384615384848e+00 -6.951810184199374021e-01 6.266940768415492080e-01 -3.520794984112297077e-01
4.324102564102564550e+00 -7.003474261712469007e-01 6.300228712841637879e-01 -3.355094507851162366e-01
4.463589743589744252e+00 -7.052235573916310063e-01 6.331662284777075378e-01 -3.189702667014149284e-01
4.603076923076923954e+00 -7.094832790928258248e-01 6.364650782755070235e-01 -3.025348155701463315e-01
4.742564102564103656e+00 -7.129050107455698893e-01 6.399957744980895313e-01 -2.866240611654251591e-01
4.882051282051282470e+00 -7.155962625083301942e-01 6.435042404145837613e-01 -2.716719729415820739e-01
5.021538461538462172e+00 -7.179499406482507950e-01 6.466042483555749509e-01 -2.577442733800860974e-01
5.161025641025641875e+00 -7.203573930034387063e-01 6.490861267209209196e-01 -2.444455282104257277e-01
5.300512820512821577e+00 -7.229008631062840973e-01 6.511099330556815445e-01 -2.311953774663978167e-01
5.440000000000000391e+00 -7.252887996319725694e-01 6.531096376421157146e-01 -2.176809067077658810e-01
