0.000000000000000000e+00 -2.488048077864092721e-09 -3.468588508759903330e-09 -1.000000000000000000e+00
1.394871794871795079e-01 -2.385024058960052637e-02 -7.545315331469295943e-03 -9.996868745676485979e-01
2.789743589743590158e-01 -4.773425473346708248e-02 -1.523502085613170909e-02 -9.987435126671114771e-01
4.184615384615385514e-01 -7.165758604650901420e-02 -2.316485116681300110e-02 -9.971597209439915233e-01
5.579487179487180315e-01 -9.559699930625567554e-02 -3.144042703671733052e-02 -9.949227604107101497e-01
6.974358974358975116e-01 -1.194909898682543076e-01 -4.015130099565097921e-02 -9.920221837970234491e-01
8.369230769230771028e-01 -1.432485169325421748e-01 -4.937038126794874443e-02 -9.884534931993024243e-01
9.764102564102565829e-01 -1.667633875994506687e-01 -5.914885056764218607e-02 -9.842199464335005255e-01
1.115897435897436063e+00 -1.899263892178645052e-01 -6.950596990312679635e-02 -9.793334641991561229e-01
1.255384615384615543e+00 -2.126340542436482572e-01 -8.043423140690350581e-02 -9.738140816485242324e-01
1.394871794871795023e+00 -2.347848256024645253e-01 -9.189194006569978423e-02 -9.676922807935668391e-01
1.534358974358974503e+00 -2.562778501069666870e-01 -1.038212463650417527e-01 -9.610092738950989366e-01
1.673846153846154206e+00 -2.770319123428136021e-01 -1.161638198900854790e-01 -9.538107340393312539e-01
1.813333333333333686e+00 -2.969780709855877610e-01 -1.288626821631370101e-01 -9.461467558507724585e-01
1.952820512820513166e+00 -3.160800502738265738e-01 -1.418672854651448212e-01 -9.380628680970075628e-01
2.092307692307692424e+00 -3.343306379061113942e-01 -1.551187370437201452e-01 -9.295997496525318926e-01
2.231794871794872126e+00 -3.517482631200209986e-01 -1.685332897202897473e-01 -9.207952049631172864e-01
2.371282051282051828e+00 -3.683357480750053536e-01 -1.820168878844502236e-01 -9.116975273748584296e-01
2.510769230769231086e+00 -3.840900248554226515e-01 -1.954901259173906225e-01 -9.023590493914607213e-01
2.650256410256410788e+00 -3.989984842944752641e-01 -2.088867575481970773e-01 -8.928379295423048978e-01
2.789743589743590046e+00 -4.130495587141563285e-01 -2.221988220517456258e-01 -8.831819943956905616e-01
2.929230769230769749e+00 -4.262764232496643602e-01 -2.354305308830223487e-01 -8.734146935897011410e-01
3.068717948717949007e+00 -4.387478398348954589e-01 -2.485774175695559807e-01 -8.635401667467519360e-01
3.208205128205128709e+00 -4.505473069850043366e-01 -2.615873400626276268e-01 -8.535636361018621443e-01
3.347692307692308411e+00 -4.617371396923287130e-01 -2.743857482122525338e-01 -8.435061649191526456e-01
3.487179487179487669e+00 -4.723287161021371139e-01 -2.868882721947474956e-01 -8.334217243757291449e-01
3.626666666666667371e+00 -4.822991516473080775e-01 -2.990625557301087589e-01 -8.233710483666242252e-01
3.766153846153846629e+00 -4.916187651296017869e-01 -3.109493290022404821e-01 -8.133953408520432360e-01
3.905641025641026332e+00 -5.003072245749231595e-01 -3.226285546441998164e-01 -8.034884522685440400e-01
4.045128205128206034e+00 -5.084534901506512217e-01 -3.341441242051821359e-01 -7.936073816183486507e-01
4.184615384615384848e+00 -5.161684793955005901e-01 -3.454715763828483666e-01 -7.837149657007029813e-01
4.324102564102564550e+00 -5.235405625454667700e-01 -3.565122958404469689e-01 -7.738175871647766657e-01
4.463589743589744252e+00 -5.305715394041639055e-01 -3.671741232369784558e-01 -7.639804622050171412e-01
4.603076923076923954e+00 -5.372029708940083692e-01 -3.774309272824877270e-01 -7.542862584532497028e-01
4.742564102564103656e+00 -5.433630649925529355e-01 -3.873594180188170699e-01 -7.447804533891773104e-01
4.882051282051282470e+00 -5.490477679266092537e-01 -3.970867267434379788e-01 -7.354298858463108601e-01
5.021538461538462172e+00 -5.543438356565688618e-01 -4.066960727198968284e-01 -7.261469786921955771e-01
5.161025641025641875e+00 -5.593902408706725726e-01 -4.161594035196452546e-01 -7.168555738328452609e-01
5.300512820512821577e+00 -5.642924462230510807e-01 -4.253493118622889146e-01 -7.075590373889081297e-01
5.440000000000000391e+00 -5.690421701258800979e-01 -4.341465620649614943e-01 -6.983518876880322468e-01
