0.000000000000000000e+00 -1.352459683902635982e-09 -1.379895120141081792e-09 -1.000000000000000000e+00
1.394871794871795079e-01 -1.253120038984599227e-01 5.179292323776328866e-01 -8.461913716293876231e-01
2.789743589743590158e-01 -2.183940133980430409e-01 8.675578426090203576e-01 -4.468052961137841117e-01
4.184615384615385514e-01 -2.498188105398114756e-01 9.671122120954337431e-01 4.764454960673687040e-02
5.579487179487180315e-01 -2.039114842000344652e-01 8.530394313778304483e-01 4.803453887027089864e-01
6.974358974358975116e-01 -9.266796201835451885e-02 6.407241801414705895e-01 7.621528920124543971e-01
8.369230769230771028e-01 4.257699489462410392e-02 4.465008766065704515e-01 8.937667454492320696e-01
9.764102564102565829e-01 1.505924713222603073e-01 3.258857232020659911e-01 9.333361717492516529e-01
1.115897435897436063e+00 2.003420498236743175e-01 2.647794960069210779e-01 9.432662596665755128e-01
1.255384615384615543e+00 1.983051563822414987e-01 2.180131783709319815e-01 9.555847022784585976e-01
1.394871794871795023e+00 1.780283567205544204e-01 1.568113776072610488e-01 9.714492158110992204e-01
1.534358974358974503e+00 1.705266825594049518e-01 8.777387208625660187e-02 9.814348619118107298e-01
1.673846153846154206e+00 1.810302266396117965e-01 3.559765060666519876e-02 9.828320970478476859e-01
1.813333333333333686e+00 1.912500346157201825e-01 1.307255091743353415e-02 9.814532706780811910e-01
1.952820512820513166e+00 1.822012092072426426e-01 8.263548424184405383e-03 9.832255718993714311e-01
2.092307692307692424e+00 1.543114991589713825e-01 -1.816179718487700989e-03 9.880197629219290567e-01
2.231794871794872126e+00 1.259829317601040000e-01 -2.788290770272184790e-02 9.916398038647317170e-01
2.371282051282051828e+00 1.140273792420049281e-01 -5.945460568465914253e-02 9.916963078397722509e-01
2.510769230769231086e+00 1.170088911442232621e-01 -7.792944392329759218e-02 9.900679046252029991e-01
2.650256410256410788e+00 1.181403060910215519e-01 -7.673261566236352915e-02 9.900270224483160852e-01
2.789743589743590046e+00 1.036830411513858796e-01 -6.775541473907692458e-02 9.922992189291853782e-01
2.929230769230769749e+00 7.717440856644816605e-02 -6.835805794339944175e-02 9.946709049559272486e-01
3.068717948717949007e+00 5.506169801137207609e-02 -8.338730640519140258e-02 9.949943325617993661e-01
3.208205128205128709e+00 4.900809052325978687e-02 -1.009459703980537665e-01 9.936835242162416204e-01
3.347692307692308411e+00 5.389790733507720394e-02 -1.056970140798613594e-01 9.929360102670904409e-01
3.487179487179487669e+00 5.380582758439629576e-02 -9.525173736202137420e-02 9.939974333595369416e-01
3.626666666666667371e+00 3.914148361855669667e-02 -8.238252777267471294e-02 9.958313637832725274e-01
3.766153846153846629e+00 1.657999943008508364e-02 -8.124103100906054920e-02 9.965561324567356882e-01
3.905641025641026332e+00 1.545302560342944054e-03 -9.249789350967145551e-02 9.957111932972615431e-01
4.045128205128206034e+00 1.613447088738201307e-03 -1.030726109308032351e-01 9.946719839218024495e-01
4.184615384615384848e+00 8.649371281737337769e-03 -1.004173878604367187e-01 9.949072732795883889e-01
4.324102564102564550e+00 7.785327389926328945e-03 -8.592136401804605084e-02 9.962710476108498359e-01
4.463589743589744252e+00 -6.604208056716286482e-03 -7.319479827509717262e-02 9.972954062519845397e-01
4.603076923076923954e+00 -2.510093633204963856e-02 -7.338734273281591336e-02 9.969871721525098707e-01
4.742564102564103656e+00 -3.362497944998461136e-02 -8.338177063490799512e-02 9.959497459619115478e-01
4.882051282051282470e+00 -2.859554712239337909e-02 -8.938850920203245121e-02 9.955857596970262291e-01
5.021538461538462172e+00 -2.061229480746642334e-02 -8.194957657037374443e-02 9.964228569565196647e-01
5.161025641025641875e+00 -2.288910312235481470e-02 -6.603535758784924437e-02 9.975543492024130376e-01
5.300512820512821577e+00 -3.702303367930669109e-02 -5.555843037448966043e-02 9.977684328388555235e-01
5.440000000000000391e+00 -5.147198259112738261e-02 -5.828197209160337899e-02 9.969719280289875973e-01
