0.000000000000000000e+00 -2.204314040699399010e-09 -3.467057365780975510e-09 -1.000000000000000000e+00
1.394871794871795079e-01 -4.697953885907736327e-01 -1.346963938255584248e-01 -8.724331160814848829e-01
2.789743589743590158e-01 -7.870960165013162202e-01 -3.058903025513634022e-01 -5.356226370047797447e-01
4.184615384615385514e-01 -8.475600594472142424e-01 -5.192189153981887628e-01 -1.096788410332870528e-01
5.579487179487180315e-01 -6.281240333397108966e-01 -7.344615995114749385e-01 2.569106328806565753e-01
6.974358974358975116e-01 -1.946715189763177922e-01 -8.748211188338483879e-01 4.435876668922333899e-01
8.369230769230771028e-01 3.183293972775584346e-01 -8.582006297080396751e-01 4.026617245921280119e-01
9.764102564102565829e-01 7.500654303836877812e-01 -6.376133838974434864e-01 1.755765761672027359e-01
1.115897435897436063e+00 9.644052847211926904e-01 -2.326898548902721076e-01 -1.255139033127334602e-01
1.255384615384615543e+00 8.936569868415955575e-01 2.633421841664129737e-01 -3.633262334072468458e-01
1.394871794871795023e+00 5.609408694599181677e-01 7.073646483595541490e-01 -4.300690527809991059e-01
1.534358974358974503e+00 7.365629296335378384e-02 9.542872249737143209e-01 -2.896336836882526522e-01
1.673846153846154206e+00 -4.103698438568003093e-01 9.118603880940486794e-01 9.099817712134732756e-03
1.813333333333333686e+00 -7.336340200699602576e-01 5.807963260409589878e-01 3.527527235988867638e-01
1.952820512820513166e+00 -7.903866824049028406e-01 6.280132464915866297e-02 6.093661358208225520e-01
2.092307692307692424e+00 -5.618078485356393648e-01 -4.691955762635737770e-01 6.813306340021506591e-01
2.231794871794872126e+00 -1.229887172163728337e-01 -8.297959888988184485e-01 5.443282067637628119e-01
2.371282051282051828e+00 3.811724773591907978e-01 -8.880772971219701439e-01 2.569104263178479952e-01
2.510769230769231086e+00 7.838344223335064198e-01 -6.177516053732934331e-01 -6.294603308601996738e-02
2.650256410256410788e+00 9.521639870037623687e-01 -1.105578824654712411e-01 -2.848467630848982024e-01
2.789743589743590046e+00 8.325521244984056546e-01 4.536800922375685552e-01 -3.178185784671601066e-01
2.929230769230769749e+00 4.694719369071194692e-01 8.707187172627270932e-01 -1.463590321272481842e-01
3.068717948717949007e+00 -9.054580554162416917e-03 9.864800989450220881e-01 1.635575475376722099e-01
3.208205128205128709e+00 -4.350195917476854524e-01 7.548594296132939974e-01 4.908411142063985877e-01
3.347692307692308411e+00 -6.584793555492198802e-01 2.566426886982813849e-01 7.074773242017886599e-01
3.487179487179487669e+00 -6.000618323783476482e-01 -3.284752182555302769e-01 7.293936906807870768e-01
3.626666666666667371e+00 -2.793832547426270962e-01 -7.871773646194626384e-01 5.497978824853315682e-01
3.766153846153846629e+00 1.910559014717254922e-01 -9.513210862772043530e-01 2.417900100467661462e-01
3.905641025641026332e+00 6.449969386176246378e-01 -7.608899003987623644e-01 -7.071898405656193431e-02
4.045128205128206034e+00 9.212545707807102691e-01 -2.872234204650790934e-01 -2.622393716062092484e-01
4.184615384615384848e+00 9.214335686398836822e-01 2.926858216887494590e-01 -2.554836338379700145e-01
4.324102564102564550e+00 6.458463694850914427e-01 7.616793611891090610e-01 -5.198698665050890955e-02
4.463589743589744252e+00 1.942840146189663275e-01 9.434459280160378825e-01 2.685895256408585285e-01
4.603076923076923954e+00 -2.692358015480742495e-01 7.687270145874441907e-01 5.801313684885661681e-01
4.742564102564103656e+00 -5.754801648508853784e-01 3.016305349281415138e-01 7.601498954572827316e-01
4.882051282051282470e+00 -6.116369268644623602e-01 -2.840865038308855728e-01 7.383635399942751754e-01
5.021538461538462172e+00 -3.630360077223816484e-01 -7.700869829887945217e-01 5.245486526775728908e-01
5.161025641025641875e+00 8.056760804296592138e-02 -9.755127320951029191e-01 2.045972487518277205e-01
5.300512820512821577e+00 5.570774403114606699e-01 -8.251546826557401015e-01 -9.359592243507533493e-02
5.440000000000000391e+00 8.912200186739673846e-01 -3.778285963322031704e-01 -2.508965604990727738e-01
