0.000000000000000000e+00 3.643183440906851182e-09 -6.190146934757255853e-10 -1.000000000000000000e+00
1.394871794871795079e-01 2.287042516318291488e-03 -1.371289396935312585e-02 -9.999032105212047883e-01
2.789743589743590158e-01 7.731490472857359755e-03 -2.590655539041905944e-02 -9.996342014335543036e-01
4.184615384615385514e-01 1.870736145421868918e-02 -3.459030177716994336e-02 -9.992260953065090767e-01
5.579487179487180315e-01 3.616443779314754137e-02 -3.713753989906873332e-02 -9.986550760824521866e-01
6.974358974358975116e-01 5.898105008779166297e-02 -3.053678668665493756e-02 -9.977913164366164489e-01
8.369230769230771028e-01 8.361684063547500378e-02 -1.217856274686244383e-02 -9.964227829718422802e-01
9.764102564102565829e-01 1.042842559734552532e-01 1.897160335536277054e-02 -9.943656021225911745e-01
1.115897435897436063e+00 1.138545475771040871e-01 6.111627133543691415e-02 -9.916146470987478034e-01
1.255384615384615543e+00 1.055241629353633470e-01 1.087654013174279288e-01 -9.884492901022111644e-01
1.394871794871795023e+00 7.502309069136028907e-02 1.527688603099624509e-01 -9.854086123089694782e-01
1.534358974358974503e+00 2.282377273667114681e-02 1.815947664540957518e-01 -9.831068584121159804e-01
1.673846153846154206e+00 -4.440446792997805592e-02 1.838790241048524066e-01 -9.819436397155080209e-01
1.813333333333333686e+00 -1.138194166698114490e-01 1.518355511124899748e-01 -9.818287315585053632e-01
1.952820512820513166e+00 -1.684020683438200439e-01 8.461152856165352065e-02 -9.820785149062881692e-01
2.092307692307692424e+00 -1.908330273413470224e-01 -9.521432729920828453e-03 -9.815745649968036224e-01
2.231794871794872126e+00 -1.685142496841300908e-01 -1.132142499332369767e-01 -9.791740317472901189e-01
2.371282051282051828e+00 -9.838752341933390544e-02 -2.029317295664833654e-01 -9.742353298785478843e-01
2.510769230769231086e+00 1.006847298657356782e-02 -2.544482811132798838e-01 -9.670315358062174793e-01
2.650256410256410788e+00 1.350402113237634261e-01 -2.497604408156530731e-01 -9.588423049058413250e-01
2.789743589743590046e+00 2.464556398710880669e-01 -1.835155524065631427e-01 -9.516175058879079440e-01
2.929230769230769749e+00 3.133628249376314012e-01 -6.676546202431193899e-02 -9.472803454613482055e-01
3.068717948717949007e+00 3.128938597290085166e-01 7.366987940374408739e-02 -9.469234893414757437e-01
3.208205128205128709e+00 2.382697402867126057e-01 2.008032389504161574e-01 -9.502103528195742221e-01
3.347692307692308411e+00 1.030420190217202492e-01 2.770981994665456805e-01 -9.552975361484652428e-01
3.487179487179487669e+00 -6.031061699582129787e-02 2.756479404965909707e-01 -9.593620729850268480e-01
3.626666666666667371e+00 -2.078627235754232916e-01 1.895568223304026911e-01 -9.596124518331206055e-01
3.766153846153846629e+00 -2.962389979433429077e-01 3.627615429271020819e-02 -9.544217582450301718e-01
3.905641025641026332e+00 -2.958836619694283354e-01 -1.451654822609172724e-01 -9.441258313053887408e-01
4.045128205128206034e+00 -2.014858718994806119e-01 -3.040033832827425120e-01 -9.311167330336159731e-01
4.184615384615384848e+00 -3.585402948396158862e-02 -3.923440723392317420e-01 -9.191153028250181878e-01
4.324102564102564550e+00 1.547434610252778897e-01 -3.802631279830974154e-01 -9.118368039216970811e-01
4.463589743589744252e+00 3.131258846875003554e-01 -2.666093966606351007e-01 -9.115171619271835723e-01
4.603076923076923954e+00 3.883517173665912425e-01 -8.156120988837121943e-02 -9.178905050296275459e-01
4.742564102564103656e+00 3.522975938142802188e-01 1.206698219660407162e-01 -9.280721959282339784e-01
4.882051282051282470e+00 2.101697305866807308e-01 2.774305677827194061e-01 -9.374722895803301315e-01
5.021538461538462172e+00 1.002963866937073290e-03 3.371041480844543803e-01 -9.414634109296157183e-01
5.161025641025641875e+00 -2.128045262281460237e-01 2.763677300785069568e-01 -9.371917884956757483e-01
5.300512820512821577e+00 -3.643210653361058093e-01 1.093477796865458818e-01 -9.248274620948004898e-01
5.440000000000000391e+00 -4.035418161101030354e-01 -1.148849646535462787e-01 -9.077153676085587541e-01
