0.000000000000000000e+00 1.258886900843182656e-10 -5.447042368514823526e-09 -1.000000000000000000e+00
1.394871794871795079e-01 -6.909559744975270201e-02 2.019666986098221650e-01 -9.769507008782015722e-01
2.789743589743590158e-01 -1.290170975479037752e-01 3.894491313993040382e-01 -9.119641623777822170e-01
4.184615384615385514e-01 -1.735868894314291921e-01 5.516279353624590209e-01 -8.158223667118262856e-01
5.579487179487180315e-01 -2.010289390743385807e-01 6.833469734575067234e-01 -7.018644697651945652e-01
6.974358974358975116e-01 -2.131376000561815143e-01 7.848300233581412266e-01 -5.818948647568892296e-01
8.369230769230771028e-01 -2.132605200751496177e-01 8.597629581578761782e-01 -4.640188622479644587e-01
9.764102564102565829e-01 -2.045663228750223550e-01 9.130735645882078755e-01 -3.527521674385743489e-01
1.115897435897436063e+00 -1.894567950879962881e-01 9.494396874656665375e-01 -2.503087553021340339e-01
1.255384615384615543e+00 -1.698770691611205530e-01 9.727600824808306790e-01 -1.576807787587496956e-01
1.394871794871795023e+00 -1.476605317846390042e-01 9.861827375410452401e-01 -7.498919030335086944e-02
1.534358974358974503e+00 -1.243940149490234126e-01 9.922234185042099197e-01 -1.467376596194761799e-03
1.673846153846154206e+00 -1.009949054180102612e-01 9.928043163359461243e-01 6.421058949078085887e-02
1.813333333333333686e+00 -7.763005127356453761e-02 9.893217226256435515e-01 1.232867133521313441e-01
1.952820512820513166e+00 -5.414713126375142460e-02 9.828150180216509435e-01 1.764268250756946543e-01
2.092307692307692424e+00 -3.071284792212636283e-02 9.741302471046386913e-01 2.238546429172346142e-01
2.231794871794872126e+00 -7.949590880492962697e-03 9.639580488893234600e-01 2.659056917713900070e-01
2.371282051282051828e+00 1.347706715320023951e-02 9.527395769868702846e-01 3.034634778795928800e-01
2.510769230769231086e+00 3.346161134013064808e-02 9.406575248620390184e-01 3.376809369836006880e-01
2.650256410256410788e+00 5.255115249353264906e-02 9.277842117624204299e-01 3.693775527168556283e-01
2.789743589743590046e+00 7.139991684025981389e-02 9.143232009714464814e-01 3.986230564279349964e-01
2.929230769230769749e+00 9.008814246706525752e-02 9.006664650328761734e-01 4.250523614729925237e-01
3.068717948717949007e+00 1.080286515998697960e-01 8.871858251286741659e-01 4.485720070981175644e-01
3.208205128205128709e+00 1.245295394342676720e-01 8.739522915974169415e-01 4.697720191227568454e-01
3.347692307692308411e+00 1.395246539247192996e-01 8.606951744122797177e-01 4.896150404459740924e-01
3.487179487179487669e+00 1.536989568276599660e-01 8.471161293160250905e-01 5.086819517916126854e-01
3.626666666666667371e+00 1.678812087798774444e-01 8.332498846446048102e-01 5.267800198743208817e-01
3.766153846153846629e+00 1.822498259682037713e-01 8.195304650136229219e-01 5.432694554993684477e-01
3.905641025641026332e+00 1.961597242698904231e-01 8.064226615811016519e-01 5.578449124463535913e-01
4.045128205128206034e+00 2.087835924168442436e-01 7.939637997229040955e-01 5.709800137270230058e-01
4.184615384615384848e+00 2.199482696335054166e-01 7.816938966623014906e-01 5.835793646213669472e-01
4.324102564102564550e+00 2.303636994519498993e-01 7.690874681365735821e-01 5.961750424247832525e-01
4.463589743589744252e+00 2.409814943156515232e-01 7.560897676226056019e-01 6.084768060656865485e-01
4.603076923076923954e+00 2.520947054466537995e-01 7.432236595872828699e-01 6.197216091673746208e-01
4.742564102564103656e+00 2.630556526757502067e-01 7.311151317857567111e-01 6.294923086689419023e-01
4.882051282051282470e+00 2.728981138860623878e-01 7.198701342560177574e-01 6.382021091290350778e-01
5.021538461538462172e+00 2.813086809063322091e-01 7.089257874309482510e-01 6.467442482207856891e-01
5.161025641025641875e+00 2.889574089996262973e-01 6.975699606979688383e-01 6.556587380376872609e-01
5.300512820512821577e+00 2.969055283204566908e-01 6.856367711442578061e-01 6.646338080231419809e-01
5.440000000000000391e+00 3.055820654557750427e-01 6.737180091629260126e-01 6.728391879849875412e-01
