0.000000000000000000e+00 3.344285160690628588e-10 3.947381256561808377e-09 -1.000000000000000000e+00
1.394871794871795079e-01 4.307012336522988982e-03 -6.806390008937532321e-02 -9.976710409992348705e-01
2.789743589743590158e-01 2.111903624006243249e-02 -1.332894614363852870e-01 -9.908508918220870765e-01
4.184615384615385514e-01 6.085165688882779311e-02 -1.896146134449274712e-01 -9.799692762395082468e-01
5.579487179487180315e-01 1.291274838529465618e-01 -2.258586822109125147e-01 -9.655615876940062403e-01
6.974358974358975116e-01 2.231741444912671568e-01 -2.262781675686928451e-01 -9.481484862038859207e-01
8.369230769230771028e-01 3.285230132704050066e-01 -1.745109475663503273e-01 -9.282302748218984600e-01
9.764102564102565829e-01 4.180778056883992511e-01 -6.077932509972733266e-02 -9.063711014632664931e-01
1.115897435897436063e+00 4.559633730816132213e-01 1.094015577198139133e-01 -8.832436674381192176e-01
1.255384615384615543e+00 4.073762098150209288e-01 3.085721705566220607e-01 -8.595449307355508273e-01
1.394871794871795023e+00 2.531872631861267209e-01 4.871759617941604503e-01 -8.357897187038186848e-01
1.534358974358974503e+00 4.668091532824686363e-03 5.834280925100532311e-01 -8.121438615927462079e-01
1.673846153846154206e+00 -2.886612151343851407e-01 5.431694846492728379e-01 -7.884342474779170162e-01
1.813333333333333686e+00 -5.449184067694323730e-01 3.445482068735783443e-01 -7.644191312229715596e-01
1.952820512820513166e+00 -6.722187426023004120e-01 1.776985623909088652e-02 -7.401294300749703403e-01
2.092307692307692424e+00 -6.031448959361517259e-01 -3.513750233302980197e-01 -7.160561952648554218e-01
2.231794871794872126e+00 -3.291820434977804632e-01 -6.414024108390963264e-01 -6.929834849914909833e-01
2.371282051282051828e+00 8.105278943384119916e-02 -7.365185474557881529e-01 -6.715313123399738737e-01
2.510769230769231086e+00 4.931070906268544274e-01 -5.762871124959793034e-01 -6.517065679166612613e-01
2.650256410256410788e+00 7.500112182091831503e-01 -1.924312437278372090e-01 -6.327999975551883427e-01
2.789743589743590046e+00 7.351905988396906233e-01 2.877076695393651073e-01 -6.137597623215789167e-01
2.929230769230769749e+00 4.295743393921742648e-01 6.802441097403786330e-01 -5.938984323587004344e-01
3.068717948717949007e+00 -6.526246683603678655e-02 8.166454189893307403e-01 -5.734214269012506415e-01
3.208205128205128709e+00 -5.555196563540039101e-01 6.205762312969472783e-01 -5.534109621585784344e-01
3.347692307692308411e+00 -8.306112041615786312e-01 1.537387098237352756e-01 -5.351912664238016593e-01
3.487179487179487669e+00 -7.570031272974884207e-01 -3.963516698401121641e-01 -5.194531491323549632e-01
3.626666666666667371e+00 -3.478006249700222874e-01 -7.895006728484746938e-01 -5.056709161407706432e-01
3.766153846153846629e+00 2.292261525594933846e-01 -8.396663533165753535e-01 -4.923364773713906350e-01
3.905641025641026332e+00 7.170080839471407730e-01 -5.074914831127395054e-01 -4.778398631271112418e-01
4.045128205128206034e+00 8.844163380574866506e-01 6.895427306926030231e-02 -4.615538527293339133e-01
4.184615384615384848e+00 6.395991135906244907e-01 6.272885424158330947e-01 -4.442979010500763826e-01
4.324102564102564550e+00 8.442290505274965828e-02 8.998414468682832679e-01 -4.279445019179218268e-01
4.463589743589744252e+00 -5.229979544991902873e-01 7.449088112035651132e-01 -4.142006218812602780e-01
4.603076923076923954e+00 -8.869718598398232956e-01 2.246841228882703601e-01 -4.034549924881440930e-01
4.742564102564103656e+00 -8.201659149911285640e-01 -4.144140835067269268e-01 -3.944194265803547261e-01
4.882051282051282470e+00 -3.439122407129040493e-01 -8.565051186300043362e-01 -3.848390463129537364e-01
5.021538461538462172e+00 3.124221668075589653e-01 -8.736631876347662473e-01 -3.729377623094075611e-01
5.161025641025641875e+00 8.195481684639289721e-01 -4.468972049674136970e-01 -3.586098772196918416e-01
5.300512820512821577e+00 9.141663054050143122e-01 2.150154025429111826e-01 -3.435775011306295701e-01
5.440000000000000391e+00 5.387051463494243464e-01 7.750137168976799495e-01 -3.303445128867543712e-01
