0.000000000000000000e+00 -2.374993284616214601e-09 -5.229349765542209889e-10 -1.000000000000000000e+00
1.394871794871795079e-01 -3.346999234015901603e-01 -3.554658611489551756e-01 -8.727063500423847264e-01
2.789743589743590158e-01 -4.821479434217510462e-01 -6.912144944592705231e-01 -5.382830001848477597e-01
4.184615384615385514e-01 -3.476389453615666980e-01 -9.309688224937497925e-01 -1.115128422501763389e-01
5.579487179487180315e-01 1.074953949399876096e-02 -9.576890667454520667e-01 2.875890494075951098e-01
6.974358974358975116e-01 3.957149149816980294e-01 -7.067287354790553477e-01 5.864616778121322094e-01
8.369230769230771028e-01 5.785749283664294307e-01 -2.589992287430623041e-01 7.734115613126971711e-01
9.764102564102565829e-01 4.530902067920458132e-01 1.669914630985245285e-01 8.756823429801564584e-01
1.115897435897436063e+00 1.223882567992893300e-01 3.508821635304554265e-01 9.283858043276201899e-01
1.255384615384615543e+00 -1.707478950827136521e-01 2.373772626073569481e-01 9.562924228736339183e-01
1.394871794871795023e+00 -2.346138826018175361e-01 -1.676824305149324235e-02 9.719432018280144137e-01
1.534358974358974503e+00 -8.148670683942728366e-02 -1.760268632453110549e-01 9.810062067819470544e-01
1.673846153846154206e+00 1.010578681976665449e-01 -1.289605056477247103e-01 9.864864050641003468e-01
1.813333333333333686e+00 1.372799988084232314e-01 3.017737447152006591e-02 9.900720232853899017e-01
1.952820512820513166e+00 2.505202674455437803e-02 1.194940648452135212e-01 9.925183960488556112e-01
2.092307692307692424e+00 -8.848574104368991944e-02 6.160288297914270211e-02 9.941703341688800100e-01
2.231794871794872126e+00 -8.112868697647813987e-02 -5.238750565643125051e-02 9.953255993911436228e-01
2.371282051282051828e+00 1.686217725085775027e-02 -8.534727130184277533e-02 9.962082805888498038e-01
2.510769230769231086e+00 7.771226161424704681e-02 -1.308890948519240288e-02 9.968896445262549477e-01
2.650256410256410788e+00 3.558259348340579720e-02 6.287569602477974251e-02 9.973866079126377793e-01
2.789743589743590046e+00 -4.372005316855660101e-02 5.060054999374280493e-02 9.977613412975088192e-01
2.929230769230769749e+00 -5.764749480730277376e-02 -2.267698158174202491e-02 9.980792080824720802e-01
3.068717948717949007e+00 2.867663304879874281e-03 -5.740410015343014316e-02 9.983467128470039365e-01
3.208205128205128709e+00 5.198426120962419683e-02 -1.404037908054633563e-02 9.985490178319488264e-01
3.347692307692308411e+00 2.771002910974135897e-02 4.265131253682109824e-02 9.987054997557061053e-01
3.487179487179487669e+00 -3.031500782023872215e-02 3.717466193718402950e-02 9.988486966731694450e-01
3.626666666666667371e+00 -4.187342252504676343e-02 -1.693916891683543147e-02 9.989791652524689924e-01
3.766153846153846629e+00 4.078921501820452489e-03 -4.268635692846091401e-02 9.990800487781397177e-01
3.905641025641026332e+00 4.028346814830465611e-02 -7.905893210855692924e-03 9.991568728842770142e-01
4.045128205128206034e+00 1.825644247850299537e-02 3.470327774270279969e-02 9.992307615624503869e-01
4.184615384615384848e+00 -2.688098655487912089e-02 2.585870040096941574e-02 9.993039988367803383e-01
4.324102564102564550e+00 -3.072076132389243291e-02 -1.817632963781128097e-02 9.993626008437757058e-01
4.463589743589744252e+00 8.998932728602821590e-03 -3.329567643534506877e-02 9.994049113064141787e-01
4.603076923076923954e+00 3.327142050583418997e-02 -3.574476500918105648e-04 9.994461732214041660e-01
4.742564102564103656e+00 8.787474299137842948e-03 3.065447085133957139e-02 9.994913004775514143e-01
4.882051282051282470e+00 -2.637601653838953994e-02 1.564930779019417864e-02 9.995294838883563848e-01
5.021538461538462172e+00 -2.118124584304085373e-02 -2.098478724809998627e-02 9.995552926705307817e-01
5.161025641025641875e+00 1.439686319396199510e-02 -2.517052937246373745e-02 9.995793964959293065e-01
5.300512820512821577e+00 2.701972247319580495e-02 7.224010412084577726e-03 9.996086983259198089e-01
5.440000000000000391e+00 -4.183277121818183147e-04 2.698142968779958586e-02 9.996357514030475011e-01
