0.000000000000000000e+00 -1.778499586626978778e-09 -9.759619638876527738e-10 -1.000000000000000000e+00
1.394871794871795079e-01 3.083009036291814442e-03 -6.828155166221110128e-02 -9.976609923108834543e-01
2.789743589743590158e-01 1.779268017448826233e-02 -1.348908479762613299e-01 -9.907000394772558227e-01
4.184615384615385514e-01 5.468363761681859642e-02 -1.949765498902820970e-01 -9.792813060902779698e-01
5.579487179487180315e-01 1.211205722693121378e-01 -2.380548854558679484e-01 -9.636685407857946695e-01
6.974358974358975116e-01 2.174225280246263048e-01 -2.473872993295040679e-01 -9.442053045208540496e-01
8.369230769230771028e-01 3.318181394263769457e-01 -2.027260642813334957e-01 -9.213006229777260803e-01
9.764102564102565829e-01 4.365126290390350383e-01 -8.781027119109646728e-02 -8.954001208089261699e-01
1.115897435897436063e+00 4.886725406030943408e-01 9.774652976406894567e-02 -8.669713768408309207e-01
1.255384615384615543e+00 4.406149379846729386e-01 3.258340676247033496e-01 -8.364715076429953822e-01
1.394871794871795023e+00 2.605812452247954214e-01 5.339658042363226720e-01 -8.043452068001240018e-01
1.534358974358974503e+00 -4.082306617521791470e-02 6.355130065046700194e-01 -7.710054346462598129e-01
1.673846153846154206e+00 -3.916743168421712440e-01 5.510665020264413627e-01 -7.368235912790280784e-01
1.813333333333333686e+00 -6.648958977883011601e-01 2.547855740857153384e-01 -7.021320274291834584e-01
1.952820512820513166e+00 -7.213505275030204222e-01 -1.856705314014441555e-01 -6.672112879387769313e-01
2.092307692307692424e+00 -4.824492965269343014e-01 -6.061533201987752140e-01 -6.323064092177754780e-01
2.231794871794872126e+00 9.154179676351403838e-04 -8.017724662398775237e-01 -5.976204128771702706e-01
2.371282051282051828e+00 5.319168440679566956e-01 -6.322343615319934162e-01 -5.633239692832273660e-01
2.510769230769231086e+00 8.387698280136749451e-01 -1.266537927388441398e-01 -5.295406708637493409e-01
2.650256410256410788e+00 7.197767810293443924e-01 4.852951724408429146e-01 -4.963859116748703393e-01
2.789743589743590046e+00 1.884273283237059560e-01 8.655918257784718239e-01 -4.639337775343232440e-01
2.929230769230769749e+00 -4.848479341280645394e-01 7.603075067079245741e-01 -4.322539016801080769e-01
3.068717948717949007e+00 -8.970007469627748753e-01 1.851391631238914481e-01 -4.013743309019977556e-01
3.208205128205128709e+00 -7.597338376355025069e-01 -5.337626784856730477e-01 -3.713351957276167514e-01
3.347692307692308411e+00 -1.190116999836542400e-01 -9.320743443626808844e-01 -3.421422635321681449e-01
3.487179487179487669e+00 6.251775647609716380e-01 -7.146082992928558530e-01 -3.138080506988095708e-01
3.626666666666667371e+00 9.580969103278148546e-01 6.902540476621921162e-03 -2.863390281212614963e-01
3.766153846153846629e+00 6.159110853779898864e-01 7.437664099404630580e-01 -2.597158714659040801e-01
3.905641025641026332e+00 -1.857538245630165896e-01 9.543352280719237246e-01 -2.339379868235884341e-01
4.045128205128206034e+00 -8.658500300658034110e-01 4.545584699630547676e-01 -2.089672714872015113e-01
4.184615384615384848e+00 -8.964370986442685707e-01 -4.027830170944310395e-01 -1.848060248601166577e-01
4.324102564102564550e+00 -2.276707689423094760e-01 -9.602567185769598224e-01 -1.614307429972900443e-01
4.463589743589744252e+00 6.321786999618292935e-01 -7.622776418087862105e-01 -1.388153528493031308e-01
4.603076923076923954e+00 9.915939426001590951e-01 5.527176435296915491e-02 -1.169324710037607795e-01
4.742564102564103656e+00 5.392748491747796358e-01 8.366596382272415422e-01 -9.575998794455536922e-02
4.882051282051282470e+00 -3.680659017628259422e-01 9.267404519669556473e-01 -7.527469300571495991e-02
5.021538461538462172e+00 -9.711226524421936457e-01 2.320193829818933406e-01 -5.544742861551781032e-02
5.161025641025641875e+00 -7.440596112034580933e-01 -6.671181117867371890e-01 -3.626703125024079155e-02
5.300512820512821577e+00 1.320555492761345540e-01 -9.910773990624028862e-01 -1.770657181202435482e-02
5.440000000000000391e+00 8.962896738749470682e-01 -4.434538752982336018e-01 2.618958192596951848e-04
