0.000000000000000000e+00 -1.523751502331923992e-09 1.911932336513783321e-09 -1.000000000000000000e+00
1.394871794871795079e-01 5.363855247105231427e-02 -4.162493687311384638e-02 -9.976917941257801292e-01
2.789743589743590158e-01 1.060245402362949840e-01 -7.974444797987173539e-02 -9.911594394742060388e-01
4.184615384615385514e-01 1.565629385376961780e-01 -1.115989202075122061e-01 -9.813408979535616083e-01
5.579487179487180315e-01 2.056404102672658996e-01 -1.357271945656944034e-01 -9.691672975257166200e-01
6.974358974358975116e-01 2.542010513830619822e-01 -1.523074680959009275e-01 -9.550802413720113071e-01
8.369230769230771028e-01 3.029067937403231436e-01 -1.630444804450355556e-01 -9.389658606500109750e-01
9.764102564102565829e-01 3.513663070006216027e-01 -1.705289313854068123e-01 -9.205723246660200143e-01
1.115897435897436063e+00 3.979041741837537893e-01 -1.772047668009943122e-01 -9.001452235507441113e-01
1.255384615384615543e+00 4.401346265771196586e-01 -1.842934199130955575e-01 -8.788100244727021781e-01
1.394871794871795023e+00 4.760836867219416790e-01 -1.912033431915123594e-01 -8.583555562368702097e-01
1.534358974358974503e+00 5.053105254752588982e-01 -1.957784776502192736e-01 -8.404284191394361114e-01
1.673846153846154206e+00 5.293839973689529188e-01 -1.954056697083952909e-01 -8.255643232797001962e-01
1.813333333333333686e+00 5.513868879194727679e-01 -1.885534440896086128e-01 -8.126541830303106728e-01
1.952820512820513166e+00 5.745736414097055711e-01 -1.759907893322344430e-01 -7.992988017578934734e-01
2.092307692307692424e+00 6.008183246872158545e-01 -1.609495029305185732e-01 -7.830058639185478730e-01
2.231794871794872126e+00 6.296270393342190408e-01 -1.479999084801550957e-01 -7.626602564740964096e-01
2.371282051282051828e+00 6.582596925987415082e-01 -1.410169750169010805e-01 -7.394541500378641885e-01
2.510769230769231086e+00 6.829904880690714775e-01 -1.411956425087983746e-01 -7.166387425492710683e-01
2.650256410256410788e+00 7.009498753266916182e-01 -1.461605881938946583e-01 -6.980609392856139683e-01
2.789743589743590046e+00 7.116497490615811827e-01 -1.507938234157589208e-01 -6.861473734436236427e-01
2.929230769230769749e+00 7.174262875490466929e-01 -1.495401340508255017e-01 -6.803818477211370785e-01
3.068717948717949007e+00 7.224927539624834694e-01 -1.392126030258623859e-01 -6.772046708743489907e-01
3.208205128205128709e+00 7.310452515483616409e-01 -1.208384770379798689e-01 -6.715302160078586713e-01
3.347692307692308411e+00 7.452750955901744634e-01 -9.954837661969861973e-02 -6.592698454097833949e-01
3.487179487179487669e+00 7.642821359029855488e-01 -8.235770754829102591e-02 -6.395866288135805267e-01
3.626666666666667371e+00 7.844600469198319548e-01 -7.480219834619200592e-02 -6.156358222162638949e-01
3.766153846153846629e+00 8.011991079352227541e-01 -7.805418454044177334e-02 -5.932683778992646761e-01
3.905641025641026332e+00 8.111147331614038114e-01 -8.804186006160374944e-02 -5.782049734886265391e-01
4.045128205128206034e+00 8.137423427561447653e-01 -9.716165392154352265e-02 -5.730291084495697795e-01
4.184615384615384848e+00 8.118347909041804256e-01 -9.788197664958503408e-02 -5.756064606098892922e-01
4.324102564102564550e+00 8.101007229954553246e-01 -8.654835086020934432e-02 -5.798497302418250676e-01
4.463589743589744252e+00 8.129810707819488114e-01 -6.542507201209857293e-02 -5.785851867472419086e-01
4.603076923076923954e+00 8.225094087598968651e-01 -4.187046477342243334e-02 -5.671898662351282372e-01
4.742564102564103656e+00 8.373243696765096944e-01 -2.486306514217118124e-02 -5.461212840401296065e-01
4.882051282051282470e+00 8.533169914735393435e-01 -2.055371391002230874e-02 -5.209662580624979666e-01
5.021538461538462172e+00 8.656246301574785917e-01 -2.904184631293482699e-02 -4.998282936882292304e-01
5.161025641025641875e+00 8.709937267957820195e-01 -4.405884963756018236e-02 -4.892916214762660920e-01
5.300512820512821577e+00 8.693860808317945832e-01 -5.589668688418614195e-02 -4.909388747680006881e-01
5.440000000000000391e+00 8.640100999774046331e-01 -5.617345325357181451e-02 -5.003087569102384613e-01
