0.000000000000000000e+00 2.920466416925503794e-09 2.955555859852916369e-09 -1.000000000000000000e+00
1.394871794871795079e-01 -8.781202947354616040e-02 2.691754714425582673e-01 -9.590782956446498586e-01
2.789743589743590158e-01 -2.357052158933804487e-01 4.811071067652463173e-01 -8.443777976074539060e-01
4.184615384615385514e-01 -4.671808444136489880e-01 5.688019401898856131e-01 -6.769037756291766961e-01
5.579487179487180315e-01 -7.409312788209080347e-01 4.666874291126917873e-01 -4.829223424290565170e-01
6.974358974358975116e-01 -9.465088188528438806e-01 1.493887827919188060e-01 -2.859948006527570641e-01
8.369230769230771028e-01 -9.419538882386653267e-01 -3.197572707657981295e-01 -1.023066156569720636e-01
9.764102564102565829e-01 -6.345052530558787929e-01 -7.705823709532426680e-01 5.995255540272406702e-02
1.115897435897436063e+00 -6.954508358063504758e-02 -9.776217529149828778e-01 1.985141510147570287e-01
1.255384615384615543e+00 5.379338848518167016e-01 -7.821009765234973043e-01 3.145383737517215006e-01
1.394871794871795023e+00 8.843149614927559021e-01 -2.219929566577238944e-01 4.107261214236372915e-01
1.534358974358974503e+00 7.567456387964878184e-01 4.324551301019776139e-01 4.902132030679691721e-01
1.673846153846154206e+00 2.047955293727662940e-01 8.055600544465757462e-01 5.559881735654537138e-01
1.813333333333333686e+00 -4.384828957400014326e-01 6.594684868840515746e-01 6.105944899688899863e-01
1.952820512820513166e+00 -7.492954252041760244e-01 8.961070033323673134e-02 6.561390113874440155e-01
2.092307692307692424e+00 -5.156798630494526803e-01 -5.019471274589132337e-01 6.943457058142825655e-01
2.231794871794872126e+00 7.895940614362424725e-02 -6.824742584965725056e-01 7.266272971275976600e-01
2.371282051282051828e+00 5.697016895935775871e-01 -3.267574525167062927e-01 7.540974549299706009e-01
2.510769230769231086e+00 5.707591343191745770e-01 2.637549929103766844e-01 7.775995496854164468e-01
2.650256410256410788e+00 1.004109956722887276e-01 5.944830592835462779e-01 7.978104771819216623e-01
2.789743589743590046e+00 -4.227938716478186754e-01 3.956052196914724983e-01 8.153135643512660069e-01
2.929230769230769749e+00 -5.398912030446841870e-01 -1.365665951489798413e-01 8.305791383010374673e-01
3.068717948717949007e+00 -1.637244937777683762e-01 -5.107887678615399274e-01 8.439691980575315666e-01
3.208205128205128709e+00 3.390308935963223802e-01 -3.908295765853460058e-01 8.557484492987630365e-01
3.347692307692308411e+00 4.917635666426662944e-01 8.915825621726497507e-02 8.661493451856071557e-01
3.487179487179487669e+00 1.638652134179884867e-01 4.547777553404415696e-01 8.753975537994781453e-01
3.626666666666667371e+00 -3.047939371700908451e-01 3.552696653183546882e-01 8.836740293402745028e-01
3.766153846153846629e+00 -4.445689007821649885e-01 -9.102799141304063202e-02 8.911050535282923901e-01
3.905641025641026332e+00 -1.289029986175946885e-01 -4.211670691338988415e-01 8.977740601098198603e-01
4.045128205128206034e+00 3.017009701105672903e-01 -3.035654809284818456e-01 9.037812957318067664e-01
4.184615384615384848e+00 3.979613730779434366e-01 1.221535470451300953e-01 9.092312573688686728e-01
4.324102564102564550e+00 7.256914625245788897e-02 3.986836999863589415e-01 9.142107942750847815e-01
4.463589743589744252e+00 -3.139448837654265079e-01 2.394291917467963327e-01 9.187538971752658989e-01
4.603076923076923954e+00 -3.461094824497922273e-01 -1.687540426253596459e-01 9.228905197778564107e-01
4.742564102564103656e+00 -2.440453400991332567e-03 -3.758618959859570952e-01 9.266706570610206972e-01
4.882051282051282470e+00 3.287309135759963752e-01 -1.635030320221864120e-01 9.301610039214124326e-01
5.021538461538462172e+00 2.836594747141025219e-01 2.197857069272580732e-01 9.333961387502338614e-01
5.161025641025641875e+00 -7.453486481765979332e-02 3.429664226306171626e-01 9.363842636778300088e-01
5.300512820512821577e+00 -3.347637509734343042e-01 7.723313914400152524e-02 9.391300519259901947e-01
5.440000000000000391e+00 -2.072429014744566755e-01 -2.651503531967452920e-01 9.416701770651069170e-01
