0.000000000000000000e+00 -1.081378765979819033e-09 3.220040723152927407e-09 -1.000000000000000000e+00
1.394871794871795079e-01 -1.413351748598848379e-01 -4.673910747109294439e-01 -8.726751346970375023e-01
2.789743589743590158e-01 -1.452786059219358106e-01 -8.301063893962994378e-01 -5.383319566076002483e-01
4.184615384615385514e-01 4.427556809470617472e-02 -9.923515781274346859e-01 -1.151422111963592981e-01
5.579487179487180315e-01 3.637037416254858546e-01 -8.922935086158169105e-01 2.674180617930839721e-01
6.974358974358975116e-01 6.562819001056896528e-01 -5.396478681169856184e-01 5.273119058682004257e-01
8.369230769230771028e-01 7.538802039069323335e-01 -3.987320285018525201e-02 6.557902043053613905e-01
9.764102564102565829e-01 5.729929809114584494e-01 4.252700810707940038e-01 7.005793371682708104e-01
1.115897435897436063e+00 1.721870374722645480e-01 6.687691857604092238e-01 7.232474966087415469e-01
1.255384615384615543e+00 -2.662413027192018777e-01 5.920875930629393435e-01 7.606157782927409627e-01
1.394871794871795023e+00 -5.278484918350030419e-01 2.475519464818802251e-01 8.124555165987074057e-01
1.534358974358974503e+00 -4.844492563681901953e-01 -1.764386719085139221e-01 8.568370335162988072e-01
1.673846153846154206e+00 -1.712693153164669135e-01 -4.507893734948045239e-01 8.760409947895363425e-01
1.813333333333333686e+00 2.271674852981542259e-01 -4.330565302956876361e-01 8.722665218399584530e-01
1.952820512820513166e+00 4.807214313822715246e-01 -1.511883084981691105e-01 8.637364381830991977e-01
2.092307692307692424e+00 4.490047933772723932e-01 2.117512958634194531e-01 8.680713315558807874e-01
2.231794871794872126e+00 1.659790799636620129e-01 4.282399588541912494e-01 8.882871028283449988e-01
2.371282051282051828e+00 -1.816145489609403141e-01 3.668299671272279294e-01 9.123844564739501672e-01
2.510769230769231086e+00 -3.721199624298992537e-01 7.393052258624729922e-02 9.252324160584988189e-01
2.650256410256410788e+00 -2.901114615492790816e-01 -2.574495126734518968e-01 9.217097929362294551e-01
2.789743589743590046e+00 4.200664429837575042e-04 -4.140046931627826554e-01 9.102710084441230087e-01
2.929230769230769749e+00 3.000713618059113186e-01 -3.018409074682185667e-01 9.048991102917515184e-01
3.068717948717949007e+00 4.076934755359252760e-01 -7.006995466325188771e-03 9.130883993591829562e-01
3.208205128205128709e+00 2.549720115118754293e-01 2.644576371167286499e-01 9.300783104509701138e-01
3.347692307692308411e+00 -4.908590796570597159e-02 3.272131218818064569e-01 9.436720972829866216e-01
3.487179487179487669e+00 -2.946317275322608564e-01 1.424675538065181823e-01 9.449286123830473727e-01
3.626666666666667371e+00 -3.162908447905021792e-01 -1.573962586891696769e-01 9.355110946958106188e-01
3.766153846153846629e+00 -1.069758058298659331e-01 -3.626015999817647772e-01 9.257809116089024126e-01
3.905641025641026332e+00 1.791937383804468320e-01 -3.330183020784325265e-01 9.257334729122089767e-01
4.045128205128206034e+00 3.369614298426295007e-01 -9.546135819385406784e-02 9.366635828436956634e-01
4.184615384615384848e+00 2.552779031270377974e-01 1.772694665949780535e-01 9.504756482947566143e-01
4.324102564102564550e+00 -5.085024642145594131e-03 2.905508268715403242e-01 9.568437321270659712e-01
4.463589743589744252e+00 -2.568589249274747521e-01 1.667614466415877628e-01 9.519503221759223477e-01
4.603076923076923954e+00 -3.217792949657624635e-01 -1.005489135847524584e-01 9.414577908989095745e-01
4.742564102564103656e+00 -1.586533785829733201e-01 -3.158230060000962736e-01 9.354567930179414903e-01
4.882051282051282470e+00 1.084164498552988853e-01 -3.237902954312487647e-01 9.398938286695274202e-01
5.021538461538462172e+00 2.818055953811671732e-01 -1.215960499099513342e-01 9.517327895764298162e-01
5.161025641025641875e+00 2.349387029354448042e-01 1.407126618070426438e-01 9.617689893991174799e-01
5.300512820512821577e+00 3.955210474173326274e-03 2.712571161068126901e-01 9.624966653062736466e-01
5.440000000000000391e+00 -2.404238999201410432e-01 1.772641406016340349e-01 9.543422922578191914e-01
