0.000000000000000000e+00 -5.028692206112382698e-10 5.338007248746719016e-09 -1.000000000000000000e+00
1.394871794871795079e-01 3.517182468547445928e-02 -2.359943852448996918e-02 -9.991023793630676719e-01
2.789743589743590158e-01 7.028702099432410089e-02 -4.704004201512285155e-02 -9.964166386026331867e-01
4.184615384615385514e-01 1.052568003896434679e-01 -7.018012125220615682e-02 -9.919649669708308082e-01
5.579487179487180315e-01 1.399992821817649113e-01 -9.287719960333765123e-02 -9.857851426946098172e-01
6.974358974358975116e-01 1.744159603948897408e-01 -1.149906096735715255e-01 -9.779336007968317812e-01
8.369230769230771028e-01 2.084068720671188590e-01 -1.364012838124345206e-01 -9.684826923229133966e-01
9.764102564102565829e-01 2.418632790480225170e-01 -1.569996205184038818e-01 -9.575229983652524535e-01
1.115897435897436063e+00 2.746695297372753197e-01 -1.767003512004872712e-01 -9.451614725103971715e-01
1.255384615384615543e+00 3.067244314282281947e-01 -1.954395907435617363e-01 -9.315146899084263410e-01
1.394871794871795023e+00 3.379248974055453769e-01 -2.131788484397542927e-01 -9.167100011783296809e-01
1.534358974358974503e+00 3.681845546094702493e-01 -2.299007514214082837e-01 -9.008779157112019043e-01
1.673846153846154206e+00 3.974326221271610171e-01 -2.455993048434525483e-01 -8.841510604205086166e-01
1.813333333333333686e+00 4.256065744817730812e-01 -2.602956166954508155e-01 -8.666600318217220211e-01
1.952820512820513166e+00 4.526631442286125351e-01 -2.740192127536692501e-01 -8.485302005757433541e-01
2.092307692307692424e+00 4.785736556634077599e-01 -2.868071050570533131e-01 -8.298810052849716623e-01
2.231794871794872126e+00 5.033230542663168494e-01 -2.987094127525888876e-01 -8.108216416478081223e-01
2.371282051282051828e+00 5.269109621723766512e-01 -3.097723429740413259e-01 -7.914535309657126927e-01
2.510769230769231086e+00 5.493412241263408990e-01 -3.200492619807269179e-01 -7.718711537231532915e-01
2.650256410256410788e+00 5.706353506037322720e-01 -3.295977429451391605e-01 -7.521520167996438300e-01
2.789743589743590046e+00 5.908127631596973295e-01 -3.384739577124624699e-01 -7.323710449437620396e-01
2.929230769230769749e+00 6.099045690758413407e-01 -3.467253039320986607e-01 -7.125933902707480838e-01
3.068717948717949007e+00 6.279414501038569352e-01 -3.544060000577712866e-01 -6.928758685327903732e-01
3.208205128205128709e+00 6.449656593262227400e-01 -3.615545079452026633e-01 -6.732669487720081003e-01
3.347692307692308411e+00 6.610171194653849946e-01 -3.682213358909791068e-01 -6.538041582244984440e-01
3.487179487179487669e+00 6.761343018432648400e-01 -3.744498518186307745e-01 -6.345233672672917491e-01
3.626666666666667371e+00 6.903592368296185278e-01 -3.802799801739893404e-01 -6.154520219263547309e-01
3.766153846153846629e+00 7.037272781793340037e-01 -3.857477805745721522e-01 -5.966206929643866896e-01
3.905641025641026332e+00 7.162828010548201174e-01 -3.908787822406471490e-01 -5.780503282169864310e-01
4.045128205128206034e+00 7.280715245417854753e-01 -3.957026779811010919e-01 -5.597503739559009928e-01
4.184615384615384848e+00 7.391264968317649009e-01 -4.002509553149686816e-01 -5.417381472304370060e-01
4.324102564102564550e+00 7.494922281033267186e-01 -4.045469310147468134e-01 -5.240152762568638378e-01
4.463589743589744252e+00 7.591978095994624809e-01 -4.086184190216909373e-01 -5.065948263361266246e-01
4.603076923076923954e+00 7.682764859620314635e-01 -4.124861673439937926e-01 -4.894842901784947631e-01
4.742564102564103656e+00 7.767644849056374312e-01 -4.161592890284853130e-01 -4.726908942679493020e-01
4.882051282051282470e+00 7.846963577242929144e-01 -4.196562475655324365e-01 -4.562109227701472980e-01
5.021538461538462172e+00 7.921072212430918524e-01 -4.229889611107182090e-01 -4.400391878847779714e-01
5.161025641025641875e+00 7.990204757072150166e-01 -4.261842238361959190e-01 -4.241711239410934642e-01
5.300512820512821577e+00 8.054575294565489152e-01 -4.292552806440786961e-01 -4.086144883961634888e-01
5.440000000000000391e+00 8.114473591409863129e-01 -4.322065583519117959e-01 -3.933678666252998779e-01
