8.000000000000000444e-01 -7.892180677219071683e-01 -1.197469677266402022e-01 5.857575756001208722e-01
8.517241379310345195e-01 -7.052605411501595700e-01 -2.082173218304120832e-01 6.653808274209643825e-01
9.034482758620689946e-01 -6.082807557695610878e-01 -2.801434569596445989e-01 7.335931368200048208e-01
9.551724137931034697e-01 -5.033107083757686340e-01 -3.325834270408483673e-01 7.909763692125182377e-01
1.006896551724137945e+00 -3.957566554552892635e-01 -3.641644662889849671e-01 8.383852369998809895e-01
1.058620689655172420e+00 -2.909107881888893243e-01 -3.750825011323619673e-01 8.768813031171693861e-01
1.110344827586206895e+00 -1.935621733934502209e-01 -3.670413182527483831e-01 9.075875995729308920e-01
1.162068965517241370e+00 -1.076010925795863882e-01 -3.429065942998245076e-01 9.316652697947201966e-01
1.213793103448275845e+00 -3.578026267163493535e-02 -3.064088431772700738e-01 9.502210764191071357e-01
1.265517241379310320e+00 2.042729879311932367e-02 -2.616915812582940037e-01 9.642826262612698152e-01
1.317241379310344795e+00 6.079150116870225828e-02 -2.129294379623599687e-01 9.747593164570671487e-01
1.368965517241379271e+00 8.621147453458007093e-02 -1.639496407426471736e-01 9.824351700945047616e-01
1.420689655172413746e+00 9.848487339111693106e-02 -1.179543555964029378e-01 9.879645740915736774e-01
1.472413793103448221e+00 1.000023475395066808e-01 -7.732496195804652861e-02 9.918827074204008554e-01
1.524137931034482696e+00 9.347862907220327866e-02 -4.357871375038207401e-02 9.946109089534069803e-01
1.575862068965517171e+00 8.161904744637729636e-02 -1.733991621245778436e-02 9.964802281311276877e-01
1.627586206896551646e+00 6.692870106940776442e-02 1.490694643663484364e-03 9.977381690424035332e-01
1.679310344827586121e+00 5.148710730048919326e-02 1.360572814342991474e-02 9.985706656520968449e-01
1.731034482758620596e+00 3.688325946442134323e-02 2.009238136528707433e-02 9.991119233453265025e-01
1.782758620689655071e+00 2.417326970616844040e-02 2.222212958879000305e-02 9.994577305517811094e-01
1.834482758620689546e+00 1.391611110242227389e-02 2.130278176589124606e-02 9.996746078856301176e-01
1.886206896551724022e+00 6.257552392129850719e-03 1.850734035997530363e-02 9.998083084533124776e-01
1.937931034482758497e+00 1.035383996695530759e-03 1.482633484055396675e-02 9.998891225208190736e-01
1.989655172413792972e+00 -2.118440417067507346e-03 1.099951008731027413e-02 9.999370463788467278e-01
2.041379310344827225e+00 -3.665523680764413983e-03 7.515945701668520600e-03 9.999649317157852657e-01
2.093103448275861922e+00 -4.083735182262139204e-03 4.645252003362236592e-03 9.999808214180229138e-01
2.144827586206896619e+00 -3.784466515751827749e-03 2.475057643078927040e-03 9.999897517949866144e-01
2.196551724137930872e+00 -3.123220290332439850e-03 9.853961609301966143e-04 9.999946259796168579e-01
2.248275862068965125e+00 -2.344998935323915155e-03 7.008919863944100895e-05 9.999972428690727666e-01
2.299999999999999822e+00 -1.610271436000720695e-03 -4.110487502942800596e-04 9.999986167108342316e-01
