8.000000000000000444e-01 -7.853008589040619825e-01 -1.146761459925160764e-01 5.817287754870156258e-01
8.517241379310345195e-01 -7.024420672995445036e-01 -2.030942271569148305e-01 6.612398515714915659e-01
9.034482758620689946e-01 -6.065986315070812651e-01 -2.752466756840363793e-01 7.295278262206128517e-01
9.551724137931034697e-01 -5.026650122269522569e-01 -3.281714870355887936e-01 7.871583813135634156e-01
1.006896551724137945e+00 -3.959495000774113094e-01 -3.604294736548456779e-01 8.349409589657699193e-01
1.058620689655172420e+00 -2.916986422559982306e-01 -3.721264745602931856e-01 8.738831240123472455e-01
1.110344827586206895e+00 -1.946905471370765084e-01 -3.648703118997976835e-01 9.050645612505766602e-01
1.162068965517241370e+00 -1.088440618447338026e-01 -3.414507053304350892e-01 9.296073767892631956e-01
1.213793103448275845e+00 -3.696480260755335978e-02 -3.055448339355769094e-01 9.485909623337112073e-01
1.265517241379310320e+00 1.940941290996251942e-02 -2.612712061178600886e-01 9.630265851077354222e-01
1.317241379310344795e+00 5.998940119487414235e-02 -2.128129678595991059e-01 9.738150909852723025e-01
1.368965517241379271e+00 8.562908413345639291e-02 -1.640104123479849962e-01 9.817427251685685308e-01
1.420689655172413746e+00 9.809351263206406157e-02 -1.181025687284856518e-01 9.874679218894475419e-01
1.472413793103448221e+00 9.976838048098865541e-02 -7.749111463381033738e-02 9.915340277610419362e-01
1.524137931034482696e+00 9.334838334258846460e-02 -4.373120540190277711e-02 9.943715555940815243e-01
1.575862068965517171e+00 8.156410742543014625e-02 -1.746072721230326058e-02 9.963185453632448230e-01
1.627586206896551646e+00 6.691414455653410531e-02 1.403891402242535280e-03 9.976311939915040172e-01
1.679310344827586121e+00 5.149359460061835730e-02 1.354974387556938734e-02 9.985010701510181885e-01
1.731034482758620596e+00 3.689680996079246905e-02 2.005850591812502817e-02 9.990674725340398243e-01
1.782758620689655071e+00 2.418602513113937008e-02 2.220948777881652514e-02 9.994297071576140334e-01
1.834482758620689546e+00 1.392911495338807447e-02 2.129278142098250601e-02 9.996573540154134463e-01
1.886206896551724022e+00 6.266696814938892829e-03 1.850536628318704552e-02 9.997977791393259928e-01
1.937931034482758497e+00 1.038160556222134101e-03 1.483016816551267249e-02 9.998827713456651667e-01
1.989655172413792972e+00 -2.116061004712526186e-03 1.100181480214365223e-02 9.999333159856390596e-01
2.041379310344827225e+00 -3.666238695928599953e-03 7.515486359170485062e-03 9.999627770784190739e-01
2.093103448275861922e+00 -4.080115436827742859e-03 4.644628056782122878e-03 9.999796052327363238e-01
2.144827586206896619e+00 -3.786570228777750170e-03 2.473669197052111562e-03 9.999890511497857570e-01
2.196551724137930872e+00 -3.123402700580462082e-03 9.853497747252890765e-04 9.999942384114701710e-01
2.248275862068965125e+00 -2.344752904176034686e-03 7.009698970568086808e-05 9.999970313109814990e-01
2.299999999999999822e+00 -1.609548534919078141e-03 -4.110788820427803371e-04 9.999985032333589263e-01
