0.000000000000000000e+00 -1.523751502331923992e-09 1.911932336513783321e-09 -1.000000000000000000e+00
1.025641025641025605e-01 2.907904197867891560e-02 -2.274344381866046094e-02 -9.993179548506160303e-01
2.051282051282051211e-01 5.795947984585284041e-02 -4.489892447126001690e-02 -9.973080412736665679e-01
3.076923076923077094e-01 8.642881384771625153e-02 -6.594415324226821085e-02 -9.940720816730373999e-01
4.102564102564102422e-01 1.143708908628132681e-01 -8.540906260502852121e-02 -9.897584603523983393e-01
5.128205128205127750e-01 1.417549781034615486e-01 -1.029177921784162897e-01 -9.845354387850441258e-01
6.153846153846154188e-01 1.686385263302092596e-01 -1.182193045191334835e-01 -9.785607764061129421e-01
7.179487179487179516e-01 1.951479791880135206e-01 -1.311995585712727452e-01 -9.719564197768384428e-01
8.205128205128204844e-01 2.214456180252158679e-01 -1.418923774613355393e-01 -9.647917566824254498e-01
9.230769230769230171e-01 2.476873173527808225e-01 -1.504739442068625532e-01 -9.570803189740128003e-01
1.025641025641025550e+00 2.739780540708028900e-01 -1.572408862114866301e-01 -9.487912808207300541e-01
1.128205128205128194e+00 3.003338565890473211e-01 -1.625829965006623246e-01 -9.398719686246023164e-01
1.230769230769230838e+00 3.266565807381905939e-01 -1.669341063160582617e-01 -9.302799887687349667e-01
1.333333333333333259e+00 3.527313732373602018e-01 -1.707218252095854261e-01 -9.200143519161315675e-01
1.435897435897435903e+00 3.782390457670681272e-01 -1.743107859014183525e-01 -9.091436296484403101e-01
1.538461538461538325e+00 4.027971902310631958e-01 -1.779570860707986035e-01 -8.978174995393336522e-01
1.641025641025640969e+00 4.260108662619502273e-01 -1.817656741159075495e-01 -8.862651741980247522e-01
1.743589743589743613e+00 4.475330698232812265e-01 -1.856767893511681589e-01 -8.747729418197458529e-01
1.846153846153846034e+00 4.671204775538727039e-01 -1.894704015732577296e-01 -8.636482643316878427e-01
1.948717948717948678e+00 4.846845526125365677e-01 -1.927964631276609109e-01 -8.531698727403328464e-01
2.051282051282051100e+00 5.003139834272467557e-01 -1.952281326771236059e-01 -8.435400976453105715e-01
2.153846153846153744e+00 5.142790747882626246e-01 -1.963301161675279627e-01 -8.348407926659884293e-01
2.256410256410256387e+00 5.270031369605728822e-01 -1.957390930593215783e-01 -8.270073793223837733e-01
2.358974358974359031e+00 5.390077006230211687e-01 -1.932353836738859854e-01 -8.198279063927997878e-01
2.461538461538461675e+00 5.508518403381575945e-01 -1.887954127346773148e-01 -8.129608086595617733e-01
2.564102564102563875e+00 5.630470853144662335e-01 -1.826248975829016241e-01 -8.059854745200081272e-01
2.666666666666666519e+00 5.759821273687779630e-01 -1.751590261004609128e-01 -7.984673276885703164e-01
2.769230769230769162e+00 5.898681207868518017e-01 -1.670144078114840780e-01 -7.900301489227745666e-01
2.871794871794871806e+00 6.046941377403324269e-01 -1.589273690297703379e-01 -7.804310211333838065e-01
2.974358974358974450e+00 6.202337853375003984e-01 -1.516522618746002082e-01 -7.696081714888783898e-01
3.076923076923076650e+00 6.360608775482609056e-01 -1.458588318148493490e-01 -7.577179132279738827e-01
3.179487179487179294e+00 6.516138971568150584e-01 -1.420240455390324175e-01 -7.451259902817926051e-01
3.282051282051281937e+00 6.662798819706108322e-01 -1.403558833662883476e-01 -7.323627241583723357e-01
3.384615384615384581e+00 6.794755099221793104e-01 -1.407462359947816988e-01 -7.200603742689251074e-01
3.487179487179487225e+00 6.907462893051914410e-01 -1.427659532379884078e-01 -7.088515377591909639e-01
3.589743589743589425e+00 6.998361306608669175e-01 -1.457158337001007165e-01 -6.992703646509466076e-01
3.692307692307692069e+00 7.067337976485528195e-01 -1.487101741055751047e-01 -6.916611532541522278e-01
3.794871794871794712e+00 7.116842520154448293e-01 -1.508037361650597374e-01 -6.861094067220372406e-01
3.897435897435897356e+00 7.151642742422915644e-01 -1.511274744682064852e-01 -6.824095517585996307e-01
4.000000000000000000e+00 7.178221811363341143e-01 -1.490271578236022354e-01 -6.800767616309509878e-01
