0.000000000000000000e+00 5.688546994141112852e-10 -2.378451393009120093e-09 -1.000000000000000000e+00
1.025641025641025605e-01 1.491617565660846578e-01 1.281900937438607835e-01 -9.804676182840253995e-01
2.051282051282051211e-01 2.797349957844702528e-01 2.629963823184951477e-01 -9.233517607819642370e-01
3.076923076923077094e-01 3.739269291041195098e-01 4.080175613802334844e-01 -8.328841711661262304e-01
4.102564102564102422e-01 4.158722343048787407e-01 5.613723063987238193e-01 -7.154758553198744542e-01
5.128205128205127750e-01 3.934454451229780769e-01 7.142271921982775718e-01 -5.788550221054987732e-01
6.153846153846154188e-01 3.005879357742846092e-01 8.507293392795395315e-01 -4.311594099295055216e-01
7.179487179487179516e-01 1.398307022517084608e-01 9.497432110247130410e-01 -2.800472124058787093e-01
8.205128205128204844e-01 -7.574095077381709507e-02 9.883443007631208532e-01 -1.320212899480891211e-01
9.230769230769230171e-01 -3.218857095399864088e-01 9.467404092668891824e-01 7.928406624449111165e-03
1.025641025641025550e+00 -5.648243902169997055e-01 8.138366957503462285e-01 1.365065288477421424e-01
1.128205128205128194e+00 -7.653954204197732647e-01 5.921934385997594807e-01 2.519282794163397177e-01
1.230769230769230838e+00 -8.856156187270618485e-01 3.009982790803932828e-01 3.536615862614083117e-01
1.333333333333333259e+00 -8.966289328111379797e-01 -2.428587727194947421e-02 4.421071481262371927e-01
1.435897435897435903e+00 -7.863744939026500180e-01 -3.362270805647546990e-01 5.182267613571653886e-01
1.538461538461538325e+00 -5.649192442169368444e-01 -5.836271791704449319e-01 5.832996953526234929e-01
1.641025641025640969e+00 -2.655368403564777879e-01 -7.221910337264407787e-01 6.386890598296250943e-01
1.743589743589743613e+00 5.967418417073763748e-02 -7.253975240624307430e-01 6.857341714396844035e-01
1.846153846153846034e+00 3.494541346446981001e-01 -5.926864805793511382e-01 7.256713499244340504e-01
1.948717948717948678e+00 5.467046970835902631e-01 -3.523056229894167002e-01 7.595982246407403382e-01
2.051282051282051100e+00 6.124027850092791381e-01 -5.716106717670904613e-02 7.884735642697808800e-01
2.153846153846153744e+00 5.363875605840718874e-01 2.261330344947237725e-01 8.131098839649446575e-01
2.256410256410256387e+00 3.416250396861831851e-01 4.329075377057327589e-01 8.341937086660176082e-01
2.358974358974359031e+00 7.998764732133378796e-02 5.168918183646815656e-01 8.523032688731788653e-01
2.461538461538461675e+00 -1.801021114351796792e-01 4.629247408509428174e-01 8.679056331117779299e-01
2.564102564102563875e+00 -3.714503716101618669e-01 2.918157609974990629e-01 8.813992663650338510e-01
2.666666666666666519e+00 -4.464086869459585327e-01 5.537169307239503402e-02 8.931125041691156952e-01
2.769230769230769162e+00 -3.904294029294912427e-01 -1.776979585929267247e-01 9.033189873003344417e-01
2.871794871794871806e+00 -2.264229762037086036e-01 -3.413717385696953821e-01 9.122472242580973445e-01
2.974358974358974450e+00 -8.073350354711406052e-03 -3.916241831672723217e-01 9.200883058292532723e-01
3.076923076923076650e+00 1.963629881841682523e-01 -3.195488499411087147e-01 9.269991486835900130e-01
3.179487179487179294e+00 3.250355782595131249e-01 -1.537943165347643859e-01 9.331112626158483137e-01
3.282051282051281937e+00 3.417265371615661462e-01 4.875382342749831621e-02 9.385326817504160424e-01
3.384615384615384581e+00 2.470390751866067269e-01 2.214592180358651019e-01 9.433584620970311141e-01
3.487179487179487225e+00 7.763173368115157402e-02 3.096747287787921521e-01 9.476669497413482413e-01
3.589743589743589425e+00 -1.064945448467913697e-01 2.885411674228486878e-01 9.515254908485644147e-01
3.692307692307692069e+00 -2.425442200358145783e-01 1.707504457990504931e-01 9.549945214645251257e-01
3.794871794871794712e+00 -2.863602211229865913e-01 1.484357548214326750e-03 9.581198475867960251e-01
3.897435897435897356e+00 -2.272559121728440767e-01 -1.579030704009777575e-01 9.609471743344543126e-01
4.000000000000000000e+00 -9.106716012762131052e-02 -2.517119049807183262e-01 9.635071652445362789e-01
