0.000000000000000000e+00 2.403662277180305666e-09 -6.162706910028868602e-10 -1.000000000000000000e+00
1.025641025641025605e-01 2.929802692270232559e-02 2.259270628515901505e-02 -9.993152280756304462e-01
2.051282051282051211e-01 5.737477669095582267e-02 4.658852113587826776e-02 -9.972648231714972278e-01
3.076923076923077094e-01 8.291284529128412073e-02 7.325863477666155754e-02 -9.938600857613095751e-01
4.102564102564102422e-01 1.043926281271035650e-01 1.036457437782376950e-01 -9.891201778573741610e-01
5.128205128205127750e-01 1.200452121929063559e-01 1.384187709579668690e-01 -9.830707601994655986e-01
6.153846153846154188e-01 1.278347828649870899e-01 1.777011242896119059e-01 -9.757453902233791387e-01
7.179487179487179516e-01 1.255215981146987625e-01 2.209074088458212459e-01 -9.671827425279198032e-01
8.205128205128204844e-01 1.107962562874253293e-01 2.665596247762201942e-01 -9.574278546053359706e-01
9.230769230769230171e-01 8.152793980882663827e-02 3.121396666874692860e-01 -9.465303332956011007e-01
1.025641025641025550e+00 3.610195191057055664e-02 3.540028079550736617e-01 -9.345459078579829715e-01
1.128205128205128194e+00 -2.613466694303856475e-02 3.874213587665257252e-01 -9.215306650104686526e-01
1.230769230769230838e+00 -1.043782925947815410e-01 4.067635618364155436e-01 -9.075491220869958964e-01
1.333333333333333259e+00 -1.958769701601082991e-01 4.059380863345279367e-01 -8.926606416950660927e-01
1.435897435897435903e+00 -2.954969275613021362e-01 3.790313123804595619e-01 -8.769339120666185261e-01
1.538461538461538325e+00 -3.955453043986466577e-01 3.212342698231843152e-01 -8.604350351243207351e-01
1.641025641025640969e+00 -4.858886821093829633e-01 2.299447380642984373e-01 -8.432279426358532115e-01
1.743589743589743613e+00 -5.545490934036672037e-01 1.059104866454228522e-01 -8.253809634525413053e-01
1.846153846153846034e+00 -5.888347676907291772e-01 -4.571007428653009463e-02 -8.069568599166649925e-01
1.948717948717948678e+00 -5.770004144302599558e-01 -2.146750610762451772e-01 -7.880228935036076576e-01
2.051282051282051100e+00 -5.103682875324098145e-01 -3.856385332071381455e-01 -7.686363255906240033e-01
2.153846153846153744e+00 -3.855929939923021799e-01 -5.389935461836954378e-01 -7.488647616700236931e-01
2.256410256410256387e+00 -2.067728000674723121e-01 -6.528023658134998186e-01 -7.287580223275327285e-01
2.358974358974359031e+00 1.314163259108908077e-02 -7.057095967678664872e-01 -7.083750617449600107e-01
2.461538461538461675e+00 2.521965091079600430e-01 -6.807082930877550453e-01 -6.877695537053004626e-01
2.564102564102563875e+00 4.808296187138072497e-01 -5.691456238881892338e-01 -6.669855106158592006e-01
2.666666666666666519e+00 6.652061267489031149e-01 -3.742646153999379943e-01 -6.460806354681065677e-01
2.769230769230769162e+00 7.722720353058581955e-01 -1.134142533636423589e-01 -6.250810327176415937e-01
2.871794871794871806e+00 7.758973242694965355e-01 1.819818671409343946e-01 -6.040354790059579981e-01
2.974358974358974450e+00 6.632345846987972582e-01 4.693006073183971227e-01 -5.829832963535745982e-01
3.076923076923076650e+00 4.398197540695804042e-01 7.005337981382252499e-01 -5.619640012996111045e-01
3.179487179487179294e+00 1.320278560064380158e-01 8.305898861943797895e-01 -5.410004708752924607e-01
3.282051282051281937e+00 -2.143930158815031128e-01 8.267444884922650061e-01 -5.201167221940242724e-01
3.384615384615384581e+00 -5.401877964035251001e-01 6.773752703981393841e-01 -4.993514729060624657e-01
3.487179487179487225e+00 -7.826431763566719102e-01 3.978506181196109215e-01 -4.787237501588864630e-01
3.589743589743589425e+00 -8.882592175895259734e-01 3.146628012381058603e-02 -4.582545363653697246e-01
3.692307692307692069e+00 -8.256189830100846283e-01 -3.557162614827137914e-01 -4.379622072336428196e-01
3.794871794871794712e+00 -5.953910316151920235e-01 -6.862131715635462204e-01 -4.178666730086877945e-01
3.897435897435897356e+00 -2.344613895175758356e-01 -8.869248051093406859e-01 -3.979744081387421306e-01
4.000000000000000000e+00 1.879141769876294110e-01 -9.063969835006741027e-01 -3.783174944487805447e-01
