0.000000000000000000e+00 1.682621601120716633e-09 -1.833905106421036672e-09 -1.000000000000000000e+00
1.025641025641025605e-01 -1.513566284852426586e-02 -1.719644963776955499e-02 -9.997374744097476951e-01
2.051282051282051211e-01 -2.949181056789870747e-02 -3.503889945609736656e-02 -9.989505386440178381e-01
3.076923076923077094e-01 -4.225674453672528808e-02 -5.409700673213418270e-02 -9.976409150335567855e-01
4.102564102564102422e-01 -5.253251636167669686e-02 -7.482517363132015764e-02 -9.958116732519163294e-01
5.128205128205127750e-01 -5.932660930570311797e-02 -9.748626998040255121e-02 -9.934666521509701864e-01
6.153846153846154188e-01 -6.153979061922446731e-02 -1.220702426190086315e-01 -9.906113104373535094e-01
7.179487179487179516e-01 -5.799820542494524278e-02 -1.482225206253851568e-01 -9.872513248415143439e-01
8.205128205128204844e-01 -4.751524478121670753e-02 -1.751425325536344890e-01 -9.833952078682259845e-01
9.230769230769230171e-01 -2.900299152098810562e-02 -2.015362912901662584e-01 -9.790508295258301130e-01
1.025641025641025550e+00 -1.615500650027773544e-03 -2.255607313950410142e-01 -9.742269478409094630e-01
1.128205128205128194e+00 3.504519728462944517e-02 -2.448143573933829475e-01 -9.689355035475113453e-01
1.230769230769230838e+00 8.071205937975274580e-02 -2.564289350302691450e-01 -9.631862923196479187e-01
1.333333333333333259e+00 1.341860992302194577e-01 -2.572117914932127158e-01 -9.569922108765781532e-01
1.435897435897435903e+00 1.931432657129575348e-01 -2.439201845238171129e-01 -9.503664277525760706e-01
1.538461538461538325e+00 2.539476068847018042e-01 -2.136600380902145824e-01 -9.433226286425827611e-01
1.641025641025640969e+00 3.116458719615469164e-01 -1.643633920611065335e-01 -9.358733488987280857e-01
1.743589743589743613e+00 3.600691377052038233e-01 -9.538954487408576877e-02 -9.280346286897109831e-01
1.846153846153846034e+00 3.922451177277342382e-01 -8.092744392121542507e-03 -9.198235110542548609e-01
1.948717948717948678e+00 4.010440613833737844e-01 9.367025053153971159e-02 -9.112554256023071009e-01
2.051282051282051100e+00 3.800940416478548745e-01 2.032310567406033497e-01 -9.023427115256910103e-01
2.153846153846153744e+00 3.248864242399492896e-01 3.111365175202956967e-01 -8.931066225456401053e-01
2.256410256410256387e+00 2.340317433163970062e-01 4.056422729604268196e-01 -8.835609052671200558e-01
2.358974358974359031e+00 1.103622972708391409e-01 4.737339186258402446e-01 -8.737233637194155023e-01
2.461538461538461675e+00 -3.825320435217914594e-02 5.027051513941751537e-01 -8.636088502049509286e-01
2.564102564102563875e+00 -1.987248839104079068e-01 4.821716284591674451e-01 -8.532378581261917949e-01
2.666666666666666519e+00 -3.533798070010603087e-01 4.063330447134950729e-01 -8.426220167712842324e-01
2.769230769230769162e+00 -4.815899750752907216e-01 2.760450083655707765e-01 -8.317847221117687928e-01
2.871794871794871806e+00 -5.624205697583944952e-01 1.003550776292370383e-01 -8.207358415716357047e-01
2.974358974358974450e+00 -5.780081425134755424e-01 -1.030614747308954415e-01 -8.094937447271848274e-01
3.076923076923076650e+00 -5.173248281152316164e-01 -3.089485882957473395e-01 -7.980731627888557611e-01
3.179487179487179294e+00 -3.795792189595832422e-01 -4.871770618425883548e-01 -7.864941480804186202e-01
3.282051282051281937e+00 -1.765124620639343112e-01 -6.071041359683092553e-01 -7.747661924769557729e-01
3.384615384615384581e+00 6.722660122328094623e-02 -6.430029193513018271e-01 -7.629039047848185096e-01
3.487179487179487225e+00 3.161571059744211487e-01 -5.797869117434163444e-01 -7.509236024394473352e-01
3.589743589743589425e+00 5.286982958067314442e-01 -4.178319000841430597e-01 -7.388429702306260616e-01
3.692307692307692069e+00 6.641542433150963154e-01 -1.756380432229699695e-01 -7.266667136805053939e-01
3.794871794871794712e+00 6.908924216191435486e-01 1.108013019515701192e-01 -7.144121736776155585e-01
3.897435897435897356e+00 5.942006140286194560e-01 3.924147128044626620e-01 -7.020898646248250330e-01
4.000000000000000000e+00 3.819280645449432687e-01 6.151591288510314115e-01 -6.897128706627817518e-01
