0.000000000000000000e+00 2.637792809831412478e-09 1.478970148069569683e-09 -1.000000000000000000e+00
1.025641025641025605e-01 1.302889691263894867e-04 -8.313051809475298370e-02 -9.965379403655503232e-01
2.051282051282051211e-01 -9.835598960650782097e-04 -1.632969694800915639e-01 -9.865750593045906625e-01
3.076923076923077094e-01 -4.344213155852277679e-03 -2.377221439857048479e-01 -9.713213614856638367e-01
4.102564102564102422e-01 -1.039597964079935766e-02 -3.040419387099667636e-01 -9.525990910155492930e-01
5.128205128205127750e-01 -1.888460953279766374e-02 -3.604561441899170049e-01 -9.325814684377814467e-01
6.153846153846154188e-01 -2.880882617171462434e-02 -4.058577683437932793e-01 -9.134779720639816247e-01
7.179487179487179516e-01 -3.848874285454167987e-02 -4.399140034297850943e-01 -8.972101243153599581e-01
8.205128205128204844e-01 -4.575745641195338997e-02 -4.630836640347467670e-01 -8.851276531687091165e-01
9.230769230769230171e-01 -4.824136350102742332e-02 -4.765784003215908227e-01 -8.778021836456844085e-01
1.025641025641025550e+00 -4.369675249080288981e-02 -4.822712947893182944e-01 -8.749261371289404066e-01
1.128205128205128194e+00 -3.036788229784129906e-02 -4.825381525339754729e-01 -8.753430723740656116e-01
1.230769230769230838e+00 -7.290395175497454971e-03 -4.800593263222028839e-01 -8.772005138428302651e-01
1.333333333333333259e+00 2.546754364315706454e-02 -4.775957211017930470e-01 -8.782053418416662094e-01
1.435897435897435903e+00 6.670758824494869843e-02 -4.777410497792103916e-01 -8.759591221540511397e-01
1.538461538461538325e+00 1.141276113665209146e-01 -4.826890688368583593e-01 -8.683182783924290327e-01
1.641025641025640969e+00 1.645115131881302595e-01 -4.940226397894103005e-01 -8.537373670021881633e-01
1.743589743589743613e+00 2.140347912158259425e-01 -5.125575859075319762e-01 -8.315424761685112909e-01
1.846153846153846034e+00 2.586840859782059687e-01 -5.382466676258772509e-01 -8.020979321140622176e-01
1.948717948717948678e+00 2.947172255413283981e-01 -5.701686302550205143e-01 -7.668352939937181922e-01
2.051282051282051100e+00 3.191211434613332454e-01 -6.065944832664894593e-01 -7.281418495596750917e-01
2.153846153846153744e+00 3.300135887421949965e-01 -6.451428644742758234e-01 -6.891054834812766483e-01
2.256410256410256387e+00 3.269239992951571971e-01 -6.829996403479572376e-01 -6.531584265668676226e-01
2.358974358974359031e+00 3.109129044915379114e-01 -7.172012459484472524e-01 -6.236494015367354260e-01
2.461538461538461675e+00 2.845345912465033766e-01 -7.449315160275270520e-01 -6.034067320011120561e-01
2.564102564102563875e+00 2.515911512907891834e-01 -7.638337917318653858e-01 -5.943418325662866986e-01
2.666666666666666519e+00 2.167567861864864998e-01 -7.722749754781309539e-01 -5.971518239230618752e-01
2.769230769230769162e+00 1.850614147336916981e-01 -7.695552723879141022e-01 -6.111625865174952210e-01
2.871794871794871806e+00 1.613283238920169005e-01 -7.560266096241121669e-01 -6.343344702262263546e-01
2.974358974358974450e+00 1.496067758783657942e-01 -7.331078471950607245e-01 -6.634415468241180447e-01
3.076923076923076650e+00 1.526771194268324028e-01 -7.031852815288727188e-01 -6.944097830276918515e-01
3.179487179487179294e+00 1.716963828429142191e-01 -6.694085180751770947e-01 -7.227711648269079525e-01
3.282051282051281937e+00 2.060080972622041484e-01 -6.353987627551088702e-01 -7.441876554579944791e-01
3.384615384615384581e+00 2.531752005214438772e-01 -6.048841111802781834e-01 -7.549861212630776253e-01
3.487179487179487225e+00 3.092036775192992248e-01 -5.813237469717339456e-01 -7.526235644414749348e-01
3.589743589743589425e+00 3.689692960221344076e-01 -5.675305318247073627e-01 -7.360412405184414419e-01
3.692307692307692069e+00 4.267747838303356245e-01 -5.653543133448641900e-01 -7.058490525151063233e-01
3.794871794871794712e+00 4.769926152488030424e-01 -5.754581592218588337e-01 -6.643116504398599576e-01
3.897435897435897356e+00 5.147163913011947312e-01 -5.972086249146137948e-01 -6.151355496468613460e-01
4.000000000000000000e+00 5.363358596442275861e-01 -6.287042485053105922e-01 -5.630777494831014085e-01
