0.000000000000000000e+00 2.296750799891562206e-09 -1.835261827016966488e-09 -1.000000000000000000e+00
1.025641025641025605e-01 1.110813667278108818e-01 -3.449567639277150571e-02 -9.932113017344789130e-01
2.051282051282051211e-01 2.178682739030327609e-01 -6.933796712777640092e-02 -9.735096834269792998e-01
3.076923076923077094e-01 3.165000998667840126e-01 -1.047205701972910297e-01 -9.427907494721485815e-01
4.102564102564102422e-01 4.040131832210092089e-01 -1.404461745457285249e-01 -9.039021140167131652e-01
5.128205128205127750e-01 4.786089873607440870e-01 -1.758704826542811794e-01 -8.602276812360801772e-01
6.153846153846154188e-01 5.397807078111103163e-01 -2.099192728713268896e-01 -8.152039051675101788e-01
7.179487179487179516e-01 5.882735114469437310e-01 -2.412096321275851718e-01 -7.718401697558611163e-01
8.205128205128204844e-01 6.258818226697236975e-01 -2.682489014024756480e-01 -7.323238067021081710e-01
9.230769230769230171e-01 6.551188062126646061e-01 -2.896910906327352375e-01 -6.977685840683928165e-01
1.025641025641025550e+00 6.788095598988319601e-01 -3.045981979467538570e-01 -6.681460985704800182e-01
1.128205128205128194e+00 6.996763227863214141e-01 -3.126550011834689502e-01 -6.424024078926684478e-01
1.230769230769230838e+00 7.199601878779167130e-01 -3.143031448443454612e-01 -6.187496975949502431e-01
1.333333333333333259e+00 7.411574368408450075e-01 -3.107531323699857517e-01 -5.950612273947119002e-01
1.435897435897435903e+00 7.638740849557403845e-01 -3.038766851723516127e-01 -5.693280583882442958e-01
1.538461538461538325e+00 7.878465695389706980e-01 -2.959735316005984718e-01 -5.400702519130256007e-01
1.641025641025640969e+00 8.120870147020385899e-01 -2.894639080184144286e-01 -5.066587048586054243e-01
1.743589743589743613e+00 8.351513429900698782e-01 -2.865248307923036752e-01 -4.694706986263023074e-01
1.846153846153846034e+00 8.554552079609700765e-01 -2.887630324439182106e-01 -4.298704112970245794e-01
1.948717948717948678e+00 8.716071450238975782e-01 -2.969425977731929289e-01 -3.900021904304226128e-01
2.051282051282051100e+00 8.826877526315938249e-01 -3.108468495743267890e-01 -3.524367225057368769e-01
2.153846153846153744e+00 8.884383902050411175e-01 -3.292782177817547562e-01 -3.197307110804794572e-01
2.256410256410256387e+00 8.893268459634641188e-01 -3.502182207002791925e-01 -2.939716023167866510e-01
2.358974358974359031e+00 8.864855398811314346e-01 -3.711164166782033313e-01 -2.763876684361498137e-01
2.461538461538461675e+00 8.815319704661168654e-01 -3.892835326850564992e-01 -2.670838206489158373e-01
2.564102564102563875e+00 8.763058330681221531e-01 -4.023071228312423697e-01 -2.649737639980884185e-01
2.666666666666666519e+00 8.725696976731439625e-01 -4.084530190342854361e-01 -2.678848905295354577e-01
2.769230769230769162e+00 8.717213873608546937e-01 -4.069559370156036193e-01 -2.728787303899526950e-01
2.871794871794871806e+00 8.745691699388304929e-01 -3.981840487098236014e-01 -2.766810129702742538e-01
2.974358974358974450e+00 8.812053086511170141e-01 -3.836192323091165979e-01 -2.762021688685767362e-01
3.076923076923076650e+00 8.910028932331668372e-01 -3.656633348866006883e-01 -2.690320438529398284e-01
3.179487179487179294e+00 9.027279640952567963e-01 -3.473016243488326049e-01 -2.538458617104807913e-01
3.282051282051281937e+00 9.147573918976225071e-01 -3.316551197166092702e-01 -2.306458230960245492e-01
3.384615384615384581e+00 9.253589147578542562e-01 -3.215084296684370679e-01 -2.007900912169321150e-01
3.487179487179487225e+00 9.329892732728690685e-01 -3.188677064636507019e-01 -1.668161152261160574e-01
3.589743589743589425e+00 9.365597389735387246e-01 -3.246361476656349776e-01 -1.320615108111242442e-01
3.692307692307692069e+00 9.356258895665376940e-01 -3.384478203060065082e-01 -1.001506045491415142e-01
3.794871794871794712e+00 9.304707717327851402e-01 -3.586901707519271065e-01 -7.441972546813667433e-02
3.897435897435897356e+00 9.220612514592005926e-01 -3.827305382429089242e-01 -5.738579352774070969e-02
4.000000000000000000e+00 9.118933766929687712e-01 -4.072972417947028356e-01 -5.032055000280379053e-02
