0.000000000000000000e+00 -4.387236250004691648e-09 -2.037254194658599756e-09 -1.000000000000000000e+00
1.025641025641025605e-01 8.563698441954368731e-03 -5.628507384088936305e-02 -9.983777883350692939e-01
2.051282051282051211e-01 1.705709395942189149e-02 -1.122430353241943568e-01 -9.935339418662573197e-01
3.076923076923077094e-01 2.538966971829949293e-02 -1.675578317100287484e-01 -9.855345995610211851e-01
4.102564102564102422e-01 3.348250407650692206e-02 -2.219217224386170195e-01 -9.744885527162635563e-01
5.128205128205127750e-01 4.126662530218813685e-02 -2.750561598066568192e-01 -9.605409873347877658e-01
6.153846153846154188e-01 4.867718732177814256e-02 -3.267091816775528623e-01 -9.438691610740322924e-01
7.179487179487179516e-01 5.565094120457264593e-02 -3.766576235249259330e-01 -9.246777231394344154e-01
8.205128205128204844e-01 6.214279858212934382e-02 -4.247180856410192606e-01 -9.031883713860484608e-01
9.230769230769230171e-01 6.811176423872225549e-02 -4.707415883863691475e-01 -8.796357706948846333e-01
1.025641025641025550e+00 7.352303102804959301e-02 -5.146113596772580179e-01 -8.542628365606161900e-01
1.128205128205128194e+00 7.835215120020368185e-02 -5.562468016806760840e-01 -8.273121907913689732e-01
1.230769230769230838e+00 8.258535760080162880e-02 -5.955986302341473859e-01 -7.990222232620809439e-01
1.333333333333333259e+00 8.621244779608847053e-02 -6.326467137590030543e-01 -7.696230896999294302e-01
1.435897435897435903e+00 8.923362705856122123e-02 -6.673935762489847656e-01 -7.393354534604272832e-01
1.538461538461538325e+00 9.165450312803363753e-02 -6.998671608446275227e-01 -7.083634356855503800e-01
1.641025641025640969e+00 9.348673033014409661e-02 -7.301149652443474913e-01 -6.768938881780760530e-01
1.743589743589743613e+00 9.474500846046912672e-02 -7.581931788605050793e-01 -6.451039441680400666e-01
1.846153846153846034e+00 9.544837335642925025e-02 -7.841757683773881160e-01 -6.131478223380728565e-01
1.948717948717948678e+00 9.562349542606735087e-02 -8.081424480595118531e-01 -5.811659797013852824e-01
2.051282051282051100e+00 9.528807842393555161e-02 -8.301826630348653202e-01 -5.492800770827965806e-01
2.153846153846153744e+00 9.447611222786012064e-02 -8.503863785408956044e-01 -5.175989536284680836e-01
2.256410256410256387e+00 9.321257367699015139e-02 -8.688486911067557772e-01 -4.862144899810087462e-01
2.358974358974359031e+00 9.152226037445265749e-02 -8.856664578385579079e-01 -4.552027374470442589e-01
2.461538461538461675e+00 8.944021472517843518e-02 -9.009303063404680012e-01 -4.246360215059128418e-01
2.564102564102563875e+00 8.698829401698798813e-02 -9.147344872991917120e-01 -3.945686057699158700e-01
2.666666666666666519e+00 8.419838397812001718e-02 -9.271695624197981989e-01 -3.650446475872712315e-01
2.769230769230769162e+00 8.109572250544982985e-02 -9.383234545318324127e-01 -3.360993650828379975e-01
2.871794871794871806e+00 7.770814728593888887e-02 -9.482787800146003088e-01 -3.077643029403467900e-01
2.974358974358974450e+00 7.406006824248129172e-02 -9.571176022976952691e-01 -2.800552567372196489e-01
3.076923076923076650e+00 7.017113502349031640e-02 -9.649137611485636423e-01 -2.529966123666483324e-01
3.179487179487179294e+00 6.607098083270607214e-02 -9.717416198681209094e-01 -2.265890372710467338e-01
3.282051282051281937e+00 6.177498666097530622e-02 -9.776695360357225972e-01 -2.008377235248476056e-01
3.384615384615384581e+00 5.731063244089351638e-02 -9.827604523342715614e-01 -1.757469038655140592e-01
3.487179487179487225e+00 5.268841603839979904e-02 -9.870750659130037574e-01 -1.513151538316485911e-01
3.589743589743589425e+00 4.793195646551828837e-02 -9.906693479332578933e-01 -1.275392189808444432e-01
3.692307692307692069e+00 4.305534668128707665e-02 -9.935967977106824334e-01 -1.044082536870943045e-01
3.794871794871794712e+00 3.807272914056714086e-02 -9.959067517852386864e-01 -8.191227299628481284e-02
3.897435897435897356e+00 3.300292504804858140e-02 -9.976449382017376077e-01 -6.003975104518235323e-02
4.000000000000000000e+00 2.785535785639015049e-02 -9.988539590146554570e-01 -3.878428457933861401e-02
