0.000000000000000000e+00 -4.114147477334874781e-10 2.204517913010494215e-09 -1.000000000000000000e+00
1.025641025641025605e-01 1.090975186107629759e-02 -7.972614468088654038e-03 -9.999085483934776475e-01
2.051282051282051211e-01 2.196026864629938707e-02 -1.578046201231062678e-02 -9.996340061597007720e-01
3.076923076923077094e-01 3.323415902423550866e-02 -2.330190453193964339e-02 -9.991754981999970697e-01
4.102564102564102422e-01 4.483165992526872562e-02 -3.042061067936097790e-02 -9.985307295087531010e-01
5.128205128205127750e-01 5.683388841531124280e-02 -3.705248001084844589e-02 -9.976951821640248630e-01
6.153846153846154188e-01 6.929892786274272076e-02 -4.314585936996370025e-02 -9.966616724045734843e-01
7.179487179487179516e-01 8.225655011432367325e-02 -4.868425073470931258e-02 -9.954204327312389244e-01
8.205128205128204844e-01 9.570153731917592499e-02 -5.368292881983739717e-02 -9.939603743150523529e-01
9.230769230769230171e-01 1.095910400563060300e-01 -5.817782002495330840e-02 -9.922715043943202140e-01
1.025641025641025550e+00 1.238442070803286305e-01 -6.221751977818322510e-02 -9.903478711686236613e-01
1.128205128205128194e+00 1.383486059040831551e-01 -6.584859110460850040e-02 -9.881905959119481331e-01
1.230769230769230838e+00 1.529642086637816867e-01 -6.910750110432350990e-02 -9.858107544134545597e-01
1.333333333333333259e+00 1.675380598048238634e-01 -7.200132012051332908e-02 -9.832310299840342216e-01
1.435897435897435903e+00 1.819200953456225622e-01 -7.450939437065483284e-02 -9.804843655671920954e-01
1.538461538461538325e+00 1.959754794464822480e-01 -7.657620787143772090e-02 -9.776121804505686352e-01
1.641025641025640969e+00 2.096053639548129399e-01 -7.812084542634460671e-02 -9.746580573617784626e-01
1.743589743589743613e+00 2.227584361159304915e-01 -7.903840244349699673e-02 -9.716619515809560292e-01
1.846153846153846034e+00 2.354344316798658576e-01 -7.922363561423990952e-02 -9.686533569656794462e-01
1.948717948717948678e+00 2.476900057878883288e-01 -7.858439100757591556e-02 -9.656443401192290610e-01
2.051282051282051100e+00 2.596289856853184475e-01 -7.706128630729036644e-02 -9.626260682060311380e-01
2.153846153846153744e+00 2.713902749859879449e-01 -7.464569391010592025e-02 -9.595674573630810222e-01
2.256410256410256387e+00 2.831206155171661076e-01 -7.139373915884754396e-02 -9.564202972697312122e-01
2.358974358974359031e+00 2.949616326746076211e-01 -6.742032500515568461e-02 -9.531243534496802727e-01
2.461538461538461675e+00 3.070153110245413264e-01 -6.290862176051736920e-02 -9.496197971233230062e-01
2.564102564102563875e+00 3.193299465580494712e-01 -5.808580059893755920e-02 -9.458582481983655033e-01
2.666666666666666519e+00 3.318813965600321825e-01 -5.319858315680753291e-02 -9.418162159536297429e-01
2.769230769230769162e+00 3.445691665463886943e-01 -4.848992973137233875e-02 -9.375039601381797150e-01
2.871794871794871806e+00 3.572240912587378303e-01 -4.416331682623374916e-02 -9.329700574338890551e-01
2.974358974358974450e+00 3.696259804107351887e-01 -4.035229113188863737e-02 -9.282998560188404635e-01
3.076923076923076650e+00 3.815238596523852221e-01 -3.710090007410093982e-02 -9.236098139156574405e-01
3.179487179487179294e+00 3.926768527384377760e-01 -3.434836555682449499e-02 -9.190303782771606089e-01
3.282051282051281937e+00 4.028828883092361868e-01 -3.193225727323678598e-02 -9.146896867213750726e-01
3.384615384615384581e+00 4.120122929432442072e-01 -2.960217441204321398e-02 -9.106925249917346976e-01
3.487179487179487225e+00 4.200357531876914852e-01 -2.705679860926665792e-02 -9.070992200080626455e-01
3.589743589743589425e+00 4.270274593787450335e-01 -2.397970959707729222e-02 -9.039156222031592414e-01
3.692307692307692069e+00 4.331728957778654410e-01 -2.008498383351980943e-02 -9.010819143409313225e-01
3.794871794871794712e+00 4.387390631952641784e-01 -1.516726118540148716e-02 -8.984812933346530972e-01
3.897435897435897356e+00 4.440604803361175579e-01 -9.129305861209580097e-03 -8.959450098875817448e-01
4.000000000000000000e+00 4.494793831441748488e-01 -2.019740449596019172e-03 -8.932830368827200385e-01
