0.000000000000000000e+00 -2.846596561211136400e-09 -5.572143558793075130e-10 -1.000000000000000000e+00
1.025641025641025605e-01 3.512878150268497479e-02 -4.479766786666282419e-02 -9.983779984973167876e-01
2.051282051282051211e-01 7.003119957263531647e-02 -8.932337675923321396e-02 -9.935371046807532913e-01
3.076923076923077094e-01 1.044654777679806523e-01 -1.333228152926415055e-01 -9.855508687384382238e-01
4.102564102564102422e-01 1.382099419537767548e-01 -1.765511541080793390e-01 -9.745387239640254107e-01
5.128205128205127750e-01 1.710639076805156866e-01 -2.187869358358957572e-01 -9.606596295136647923e-01
6.153846153846154188e-01 2.028441142133903252e-01 -2.598337778692454969e-01 -9.441068020367118230e-01
7.179487179487179516e-01 2.333960879107349895e-01 -2.995242131437461652e-01 -9.250988928083597740e-01
8.205128205128204844e-01 2.625876242145225858e-01 -3.377236436650144502e-01 -9.038729990719892582e-01
9.230769230769230171e-01 2.903141149743760918e-01 -3.743271098450966505e-01 -8.806771934990099693e-01
1.025641025641025550e+00 3.164977845849322180e-01 -4.092593317471063807e-01 -8.557632971658043486e-01
1.128205128205128194e+00 3.410830929791177635e-01 -4.424716468715138573e-01 -8.293826153029785209e-01
1.230769230769230838e+00 3.640425384133718079e-01 -4.739446609480472139e-01 -8.017751246267268428e-01
1.333333333333333259e+00 3.853625662998942936e-01 -5.036770240130797882e-01 -7.731743179672597721e-01
1.435897435897435903e+00 4.050570603610577636e-01 -5.316855692604811612e-01 -7.437957737571527783e-01
1.538461538461538325e+00 4.231437468333956176e-01 -5.580070125650240520e-01 -7.138417328220025837e-01
1.641025641025640969e+00 4.396664292798079243e-01 -5.826887399468591022e-01 -6.834905418508713248e-01
1.743589743589743613e+00 4.546699448407799382e-01 -6.057823437536811184e-01 -6.529124449276390019e-01
1.846153846153846034e+00 4.682075523208220069e-01 -6.273559920019057268e-01 -6.222519127770890224e-01
1.948717948717948678e+00 4.803492745832930733e-01 -6.474750951359602436e-01 -5.916346155773685167e-01
2.051282051282051100e+00 4.911542592198386292e-01 -6.662098928636588369e-01 -5.611795537653158084e-01
2.153846153846153744e+00 5.006924239874057658e-01 -6.836356321700943761e-01 -5.309799823348294590e-01
2.256410256410256387e+00 5.090350372306549076e-01 -6.998231618198815784e-01 -5.011196628583697299e-01
2.358974358974359031e+00 5.162551676587382454e-01 -7.148450951113158869e-01 -4.716639385908530935e-01
2.461538461538461675e+00 5.224209710665927986e-01 -7.287704251127148369e-01 -4.426731744623811915e-01
2.564102564102563875e+00 5.275963670217879153e-01 -7.416701143678838815e-01 -4.141942130455070203e-01
2.666666666666666519e+00 5.318551664993950157e-01 -7.536053572145048340e-01 -3.862618044369682813e-01
2.769230769230769162e+00 5.352557252462866177e-01 -7.646404613058417343e-01 -3.589083926854057527e-01
2.871794871794871806e+00 5.378585415342678200e-01 -7.748388666110030965e-01 -3.321471269259451131e-01
2.974358974358974450e+00 5.397232097888277069e-01 -7.842505570907478685e-01 -3.060042003925163567e-01
3.076923076923076650e+00 5.409047616289166527e-01 -7.929315476793266093e-01 -2.804819438469887127e-01
3.179487179487179294e+00 5.414522365465376241e-01 -8.009314355728507362e-01 -2.555909162990561700e-01
3.282051282051281937e+00 5.414198881740965863e-01 -8.082936677582495122e-01 -2.313312812888612124e-01
3.384615384615384581e+00 5.408507236478884428e-01 -8.150651641953092774e-01 -2.076956708329951162e-01
3.487179487179487225e+00 5.397888978252053382e-01 -8.212839220253173034e-01 -1.846857172082976839e-01
3.589743589743589425e+00 5.382744153423756339e-01 -8.269893028806891699e-01 -1.622880828584858937e-01
3.692307692307692069e+00 5.363436393265128554e-01 -8.322162276439035722e-01 -1.404979462547088220e-01
3.794871794871794712e+00 5.340293683827199711e-01 -8.369993492709342231e-01 -1.193008617071303068e-01
3.897435897435897356e+00 5.313673372977326670e-01 -8.413659768790924254e-01 -9.869133038113921119e-02
4.000000000000000000e+00 5.283851034577672356e-01 -8.453468715801333300e-01 -7.864957782351780780e-02
