0.000000000000000000e+00 3.223597073523493166e-09 -1.028443149034174392e-09 -1.000000000000000000e+00
1.025641025641025605e-01 -4.554439974003948732e-02 1.482525232241631574e-01 -9.878994435147095965e-01
2.051282051282051211e-01 -8.823008408277202563e-02 2.917512165753143316e-01 -9.524145275101528751e-01
3.076923076923077094e-01 -1.255022393234487832e-01 4.261885017563032396e-01 -8.958836598058936840e-01
4.102564102564102422e-01 -1.554227847775066507e-01 5.480831152385142735e-01 -8.218527023233206386e-01
5.128205128205127750e-01 -1.768300229582483452e-01 6.550158240813054311e-01 -7.346270736539817214e-01
6.153846153846154188e-01 -1.893748166353197149e-01 7.457333885707945198e-01 -6.387557430083532495e-01
7.179487179487179516e-01 -1.934436333020518317e-01 8.200706185997238551e-01 -5.385651848784928086e-01
8.205128205128204844e-01 -1.899825282526951264e-01 8.787750119001115356e-01 -4.377771067781984771e-01
9.230769230769230171e-01 -1.802656484091798017e-01 9.232326691845227362e-01 -3.393119872318453578e-01
1.025641025641025550e+00 -1.656834821992431706e-01 9.551994952148818996e-01 -2.452126396335111980e-01
1.128205128205128194e+00 -1.475498307009734389e-01 9.765522382831562931e-01 -1.567186844079556385e-01
1.230769230769230838e+00 -1.269853509999363528e-01 9.891001464041191404e-01 -7.444061674884418223e-02
1.333333333333333259e+00 -1.048740883835136417e-01 9.944772569867479373e-01 1.463986129413859640e-03
1.435897435897435903e+00 -8.188332188240965426e-02 9.940944608321348186e-01 7.111333157491855905e-02
1.538461538461538325e+00 -5.849997444130883295e-02 9.891420736152334303e-01 1.347650825341689396e-01
1.641025641025640969e+00 -3.509979076667041342e-02 9.806122832982693271e-01 1.927528392544422264e-01
1.743589743589743613e+00 -1.199166387706379622e-02 9.693273841459223439e-01 2.454525670489611788e-01
1.846153846153846034e+00 1.056573288314521797e-02 9.559653135328509688e-01 2.932665627083940185e-01
1.948717948717948678e+00 3.235608786395557934e-02 9.410707354887646314e-01 3.366390151519423335e-01
2.051282051282051100e+00 5.322526291533516418e-02 9.250682770165290503e-01 3.760358026390424047e-01
2.153846153846153744e+00 7.309199861500725870e-02 9.082768998854466869e-01 4.119199946780968680e-01
2.256410256410256387e+00 9.195452717579394308e-02 8.909305614406843876e-01 4.447188315131391234e-01
2.358974358974359031e+00 1.098659718492274728e-01 8.732032218131751122e-01 4.747985180505504554e-01
2.461538461538461675e+00 1.269179162484899703e-01 8.552384511200321615e-01 5.024413832416904091e-01
2.564102564102563875e+00 1.431915499144282289e-01 8.371666094424891069e-01 5.278606246428659832e-01
2.666666666666666519e+00 1.587420333962351604e-01 8.191174006126259455e-01 5.512136689752695773e-01
2.769230769230769162e+00 1.735772589033681701e-01 8.012109940278568931e-01 5.726438747093776094e-01
2.871794871794871806e+00 1.876631846508074741e-01 7.835478034983517359e-01 5.923045978693042279e-01
2.974358974358974450e+00 2.009552304248277133e-01 7.661955908570103890e-01 6.103695096254004859e-01
3.076923076923076650e+00 2.134246237386142053e-01 7.491748214250220084e-01 6.270381621349304657e-01
3.179487179487179294e+00 2.250741192819687986e-01 7.324690582113890791e-01 6.425113009022570543e-01
3.282051282051281937e+00 2.359642213422911139e-01 7.160310322382682502e-01 6.569708605107693611e-01
3.384615384615384581e+00 2.461971789385374310e-01 6.998215355253717407e-01 6.705424976851158680e-01
3.487179487179487225e+00 2.558886281387910966e-01 6.838172885025797232e-01 6.833049063242172538e-01
3.589743589743589425e+00 2.651464600426806095e-01 6.680342236185792260e-01 6.952830246260065516e-01
3.692307692307692069e+00 2.740379183190148615e-01 6.525230961957649845e-01 7.064756645272611824e-01
3.794871794871794712e+00 2.825748680317800576e-01 6.373504174067705641e-01 7.168870913220134478e-01
3.897435897435897356e+00 2.907140784224042096e-01 6.225857151668483525e-01 7.265423109682801472e-01
4.000000000000000000e+00 2.983907498642049405e-01 6.082589929598072320e-01 7.355103631734556391e-01
