0.000000000000000000e+00 -2.229176031771188332e-09 3.182170637015169983e-09 -1.000000000000000000e+00
1.025641025641025605e-01 2.269102886670290586e-02 -3.095980517670425536e-03 -9.997375017643473916e-01
2.051282051282051211e-01 4.550273401044161586e-02 -5.042000605956709763e-03 -9.989510576209943427e-01
3.076923076923077094e-01 6.843697904691149747e-02 -4.749328572484202982e-03 -9.976435062230230022e-01
4.102564102564102422e-01 9.132782586451344831e-02 -1.136223959604144851e-03 -9.958194030742294478e-01
5.128205128205127750e-01 1.137538220135295430e-01 6.810614942571568964e-03 -9.934845905742788474e-01
6.153846153846154188e-01 1.349740846281747009e-01 1.997342695221640888e-02 -9.906465629825483843e-01
7.179487179487179516e-01 1.539006469240158381e-01 3.902234425468585621e-02 -9.873140306391604559e-01
8.205128205128204844e-01 1.690889257453489780e-01 6.430293496562421163e-02 -9.834992687201443706e-01
9.230769230769230171e-01 1.787931686797436803e-01 9.571713374316084821e-02 -9.792178344967494841e-01
1.025641025641025550e+00 1.810592247740086258e-01 1.325947721617631858e-01 -9.744906946399723990e-01
1.128205128205128194e+00 1.738825306272656357e-01 1.735797981633422638e-01 -9.693453571881882613e-01
1.230769230769230838e+00 1.554234058119493556e-01 2.165644079935443167e-01 -9.638145620454147133e-01
1.333333333333333259e+00 1.242653893425064160e-01 2.586711210682037798e-01 -9.579363424929958626e-01
1.435897435897435903e+00 7.970637211601197536e-02 2.963283319269431337e-01 -9.517513766769083450e-01
1.538461538461538325e+00 2.204894110724761602e-02 3.254548216636495850e-01 -9.452972312001625133e-01
1.641025641025640969e+00 -4.715113474124363324e-02 3.417311777522333838e-01 -9.386106920764244466e-01
1.743589743589743613e+00 -1.249124856104200654e-01 3.410135367579229526e-01 -9.317186807893406142e-01
1.846153846153846034e+00 -2.067799297200288988e-01 3.198102538590362753e-01 -9.246383824542102614e-01
1.948717948717948678e+00 -2.869521544749615294e-01 2.758016881233114614e-01 -9.173789658548267001e-01
2.051282051282051100e+00 -3.585715560769288657e-01 2.083659649001560199e-01 -9.099461342605380532e-01
2.153846153846153744e+00 -4.142575911051682436e-01 1.190164116983617182e-01 -9.023398845656536160e-01
2.256410256410256387e+00 -4.467783954064872831e-01 1.168439020975400866e-02 -8.945634020091328686e-01
2.358974358974359031e+00 -4.498615908836317012e-01 -1.072272454768347649e-01 -8.866327627208357987e-01
2.461538461538461675e+00 -4.190855364711549291e-01 -2.290651638429437031e-01 -8.785709354105308844e-01
2.564102564102563875e+00 -3.526868117302764949e-01 -3.434751769298687307e-01 -8.704176415366419173e-01
2.666666666666666519e+00 -2.522229101550306773e-01 -4.392511272928795174e-01 -8.622248993027518127e-01
2.769230769230769162e+00 -1.229627751142867154e-01 -5.054448001619067377e-01 -8.540463164999845258e-01
2.871794871794871806e+00 2.612636002480148156e-02 -5.326352748810286863e-01 -8.459350386596862226e-01
2.974358974358974450e+00 1.828215260115890750e-01 -5.142251656227433410e-01 -8.379364576324146441e-01
3.076923076923076650e+00 3.325816457958724603e-01 -4.476162632215792136e-01 -8.300708140065473639e-01
3.179487179487179294e+00 4.598831480235439639e-01 -3.350437226299100013e-01 -8.223389351025967020e-01
3.282051282051281937e+00 5.499004068693610359e-01 -1.839709751296776385e-01 -8.147098117772761938e-01
3.384615384615384581e+00 5.903124206985510547e-01 -6.863868600273076437e-03 -8.071379827739861845e-01
3.487179487179487225e+00 5.730701709675743993e-01 1.796715229564131433e-01 -7.995598754499897431e-01
3.589743589743589425e+00 4.958219527082082245e-01 3.563811137793176376e-01 -7.919218043134655938e-01
3.692307692307692069e+00 3.628381024984752012e-01 5.033932932515138292e-01 -7.841750258100737003e-01
3.794871794871794712e+00 1.851731584580025569e-01 6.025390738176921168e-01 -7.763015325181876758e-01
3.897435897435897356e+00 -2.000946931526759176e-02 6.397419741125117687e-01 -7.683203015177492157e-01
4.000000000000000000e+00 -2.309581231350897046e-01 6.071384623419409099e-01 -7.602810114801453745e-01
