0.000000000000000000e+00 1.398296424240316207e-09 1.173999292431536516e-09 -1.000000000000000000e+00
1.025641025641025605e-01 6.066739348720553981e-03 8.318016219909851738e-02 -9.965154580660335881e-01
2.051282051282051211e-01 1.218447682952585043e-02 1.649704888862364716e-01 -9.862220467998055184e-01
3.076923076923077094e-01 1.842033804527551388e-02 2.440781228831168936e-01 -9.695787834452159748e-01
4.102564102564102422e-01 2.477962868335941565e-02 3.194199744958655662e-01 -9.472866966632261798e-01
5.128205128205127750e-01 3.122576903240228963e-02 3.901748638270192693e-01 -9.202078775668643962e-01
6.153846153846154188e-01 3.768232036921581596e-02 4.558187120306199103e-01 -8.892705708065730130e-01
7.179487179487179516e-01 4.405961623715387576e-02 5.161103653790645174e-01 -8.553832321374764680e-01
8.205128205128204844e-01 5.027408265445559854e-02 5.710479441057458860e-01 -8.193700489024947631e-01
9.230769230769230171e-01 5.627841569472535888e-02 6.208075893911119136e-01 -7.819335872363589734e-01
1.025641025641025550e+00 6.206786078239595605e-02 6.656818076128339090e-01 -7.436422410649976555e-01
1.128205128205128194e+00 6.768936629083510681e-02 7.060100749071037685e-01 -7.049506923950317194e-01
1.230769230769230838e+00 7.322855186179261233e-02 7.421341770196736576e-01 -6.662290536933080931e-01
1.333333333333333259e+00 7.878117037162174485e-02 7.743770417207532786e-01 -6.277895046216261932e-01
1.435897435897435903e+00 8.442952290362770729e-02 8.030343897770330086e-01 -5.899090240392719231e-01
1.538461538461538325e+00 9.022158404192931469e-02 8.283757746178780357e-01 -5.528455829300845670e-01
1.641025641025640969e+00 9.614201953472958917e-02 8.506690650544299626e-01 -5.168199681575691429e-01
1.743589743589743613e+00 1.021342980786489885e-01 8.701852198255933812e-01 -4.820060011773236730e-01
1.846153846153846034e+00 1.080936318382282324e-01 8.872086214252904446e-01 -4.485082987311488911e-01
1.948717948717948678e+00 1.139144674542664215e-01 9.020296468872841533e-01 -4.163516222451709714e-01
2.051282051282051100e+00 1.195120531723524726e-01 9.149329865485579250e-01 -3.854825688124421390e-01
2.153846153846153744e+00 1.248487422599097729e-01 9.261797477649429400e-01 -3.557890748556149507e-01
2.256410256410256387e+00 1.299554545399841943e-01 9.359899045443837995e-01 -3.271333015718599913e-01
2.358974358974359031e+00 1.349197466408638135e-01 9.445375332078369546e-01 -2.993776732245582717e-01
2.461538461538461675e+00 1.398731585390004528e-01 9.519408227379844156e-01 -2.724434564995099617e-01
2.564102564102563875e+00 1.449544090658882456e-01 9.582804389992082283e-01 -2.463085403636614823e-01
2.666666666666666519e+00 1.502726990119678252e-01 9.636092273107254025e-01 -2.210345766811190049e-01
2.769230769230769162e+00 1.558718527328850079e-01 9.679801607330051905e-01 -1.967209772607796114e-01
2.871794871794871806e+00 1.617184760240647501e-01 9.714576879917236063e-01 -1.734870176038436906e-01
2.974358974358974450e+00 1.677033046062274546e-01 9.741278161025327398e-01 -1.514303534333864276e-01
3.076923076923076650e+00 1.736632384103988236e-01 9.760995407653125788e-01 -1.305803818254033244e-01
3.179487179487179294e+00 1.794209210611247274e-01 9.774943220823885115e-01 -1.108755492863193609e-01
3.282051282051281937e+00 1.848342345535124442e-01 9.784278811641904383e-01 -9.217124441189608608e-02
3.384615384615384581e+00 1.898232077300220366e-01 9.789964563396554853e-01 -7.425227251139365769e-02
3.487179487179487225e+00 1.944092305688785993e-01 9.792593945054466342e-01 -5.688910317509559417e-02
3.589743589743589425e+00 1.987009579895946954e-01 9.792386600858145052e-01 -3.987271944048414313e-02
3.692307692307692069e+00 2.028793161401121203e-01 9.789216862322572821e-01 -2.307724807720957366e-02
3.794871794871794712e+00 2.071473041883235555e-01 9.782781915243755622e-01 -6.481638332511041774e-03
3.897435897435897356e+00 2.116850176977803644e-01 9.772783284460555553e-01 9.836674572829448918e-03
4.000000000000000000e+00 2.165960622263890523e-01 9.759127359019057479e-01 2.570453740093771658e-02
