0.000000000000000000e+00 -1.081378765979819033e-09 3.220040723152927407e-09 -1.000000000000000000e+00
1.025641025641025605e-01 -8.625948238115016542e-02 -2.594210001336795246e-01 -9.619022349102134273e-01
2.051282051282051211e-01 -1.482463357179486518e-01 -5.021832037781913671e-01 -8.519543818482439024e-01
3.076923076923077094e-01 -1.660030218146240077e-01 -7.117767102696472836e-01 -6.824979936231386768e-01
4.102564102564102422e-01 -1.274295475882288864e-01 -8.723706232440293640e-01 -4.719258146385096331e-01
5.128205128205127750e-01 -3.067923733515235535e-02 -9.698226218035284063e-01 -2.418330721734087141e-01
6.153846153846154188e-01 1.151220060166479320e-01 -9.932453029096434127e-01 -1.379202878928750646e-02
7.179487179487179516e-01 2.909539737186240815e-01 -9.369219519832676646e-01 1.936572031205965327e-01
8.205128205128204844e-01 4.706835728996561774e-01 -8.021879524671536865e-01 3.673322092534825889e-01
9.230769230769230171e-01 6.251603977135706813e-01 -5.987687320526315915e-01 5.006332754055561329e-01
1.025641025641025550e+00 7.270346060011088074e-01 -3.450853387520498861e-01 5.935668054202162258e-01
1.128205128205128194e+00 7.555221436713717154e-01 -6.715841188541982199e-02 6.516609268999691285e-01
1.230769230769230838e+00 7.003180448617264409e-01 2.039572674537558084e-01 6.840633776760512985e-01
1.333333333333333259e+00 5.639671693933555607e-01 4.360550257075540004e-01 7.012731756354730894e-01
1.435897435897435903e+00 3.621605701691315571e-01 6.004212745589150302e-01 7.129665506189267754e-01
1.538461538461538325e+00 1.218269177796039993e-01 6.764473139766760124e-01 7.263365993143590105e-01
1.641025641025640969e+00 -1.228351358584680586e-01 6.554250455270540510e-01 7.451963728661143982e-01
1.743589743589743613e+00 -3.357315211101358221e-01 5.426503035901020233e-01 7.699374969255945445e-01
1.846153846153846034e+00 -4.848964628994485437e-01 3.573053693413752452e-01 7.982467299062965260e-01
1.948717948717948678e+00 -5.480154992316134122e-01 1.299448838818945684e-01 8.263072923148170323e-01
2.051282051282051100e+00 -5.165234886635028388e-01 -1.021439108530547979e-01 8.501536614102580547e-01
2.153846153846153744e+00 -3.974180973783079662e-01 -3.009881517817869501e-01 8.668660354598800577e-01
2.256410256410256387e+00 -2.124023836331886128e-01 -4.343983347191417987e-01 8.753144253018102505e-01
2.358974358974359031e+00 5.662226012619536730e-03 -4.816133664582085139e-01 8.763609792731400505e-01
2.461538461538461675e+00 2.183761878046286409e-01 -4.370861898915624488e-01 8.725018251327363306e-01
2.564102564102563875e+00 3.885999420419829486e-01 -3.116046232653339465e-01 8.671126706042084908e-01
2.666666666666666519e+00 4.871383970939720531e-01 -1.304207893652965522e-01 8.635266144864539584e-01
2.769230769230769162e+00 4.980942270016511242e-01 7.130224905723109297e-02 8.641815602102248528e-01
2.871794871794871806e+00 4.218280385359973739e-01 2.550091139002776952e-01 8.700708580714008322e-01
2.974358974358974450e+00 2.748948641196570231e-01 3.859756225244930228e-01 8.805951676278455098e-01
3.076923076923076650e+00 8.691657416550110926e-02 4.398845747691766395e-01 8.938343197360019143e-01
3.179487179487179294e+00 -1.051036637565151283e-01 4.074539929091706703e-01 9.071536307793243159e-01
3.282051282051281937e+00 -2.638939579974030614e-01 2.961860268762078197e-01 9.179474467994526155e-01
3.384615384615384581e+00 -3.591678530894298893e-01 1.288580465969158817e-01 9.243311239788003508e-01
3.487179487179487225e+00 -3.735050413762867616e-01 -6.101983692276548299e-02 9.256157932746394978e-01
3.589743589743589425e+00 -3.057411226258896497e-01 -2.358602376488861674e-01 9.224349304367343017e-01
3.692307692307692069e+00 -1.711136519477527151e-01 -3.615176249886677406e-01 9.165253767759405923e-01
3.794871794871794712e+00 1.862833582201101068e-03 -4.140989060321796367e-01 9.102263481669922163e-01
3.897435897435897356e+00 1.772419305203489781e-01 -3.847426507432144538e-01 9.058430232821901296e-01
4.000000000000000000e+00 3.189679213920149081e-01 -2.813006502663543129e-01 9.050539039803988661e-01
