0.000000000000000000e+00 -2.488048077864092721e-09 -3.468588508759903330e-09 -1.000000000000000000e+00
1.025641025641025605e-01 -1.289199152589244612e-02 -4.061486789274925367e-03 -9.999085349838463532e-01
2.051282051282051211e-01 -2.579113205083376908e-02 -8.164357411160599182e-03 -9.996338055296584146e-01
3.076923076923077094e-01 -3.870031187151666552e-02 -1.230551394298017888e-02 -9.991747886380095700e-01
4.102564102564102422e-01 -5.162235680844286245e-02 -1.650553879050552231e-02 -9.985298760628257275e-01
5.128205128205127750e-01 -6.455579923505255779e-02 -2.078087241367178664e-02 -9.976972156542712744e-01
6.153846153846154188e-01 -7.749786901181889009e-02 -2.514748960820469004e-02 -9.966747362727396142e-01
7.179487179487179516e-01 -9.044148874583209097e-02 -2.962365450487088048e-02 -9.954604144070179350e-01
8.205128205128204844e-01 -1.033787209572274574e-01 -3.422196930057492398e-02 -9.940523979037764191e-01
9.230769230769230171e-01 -1.162932248208099900e-01 -3.895491688279188736e-02 -9.924498395507279636e-01
1.025641025641025550e+00 -1.291720172345249829e-01 -4.383591534110976157e-02 -9.906518536510350303e-01
1.128205128205128194e+00 -1.420003322202777751e-01 -4.887029737071206525e-02 -9.886584339686681489e-01
1.230769230769230838e+00 -1.547576307891470326e-01 -5.406957907558847948e-02 -9.864706077446552257e-01
1.333333333333333259e+00 -1.674289166007378038e-01 -5.943714328245151834e-02 -9.840895743300057674e-01
1.435897435897435903e+00 -1.799973381978444420e-01 -6.497367125866550241e-02 -9.815175431565105191e-01
1.538461538461538325e+00 -1.924450750116746545e-01 -7.068154616788298317e-02 -9.787574359173296656e-01
1.641025641025640969e+00 -2.047555930795502133e-01 -7.655299898345421794e-02 -9.758133477549071344e-01
1.743589743589743613e+00 -2.169154510436865080e-01 -8.258576217630619887e-02 -9.726890451991188069e-01
1.846153846153846034e+00 -2.289046703628024038e-01 -8.876972272383752693e-02 -9.693910887508514485e-01
1.948717948717948678e+00 -2.407095618105701273e-01 -9.509874027635548122e-02 -9.659251657025255122e-01
2.051282051282051100e+00 -2.523149937813311539e-01 -1.015595021785223595e-01 -9.622987555543358607e-01
2.153846153846153744e+00 -2.637102936449079449e-01 -1.081432274625424017e-01 -9.585185445436756879e-01
2.256410256410256387e+00 -2.748793472622486078e-01 -1.148437394904968656e-01 -9.545930707923099279e-01
2.358974358974359031e+00 -2.858118274906651934e-01 -1.216482191512717054e-01 -9.505307857561955398e-01
2.461538461538461675e+00 -2.965051566041401743e-01 -1.285513970600812850e-01 -9.463374073175684353e-01
2.564102564102563875e+00 -3.069487466223120853e-01 -1.355448117597855273e-01 -9.420218270751437029e-01
2.666666666666666519e+00 -3.171436637735500219e-01 -1.426191906900677320e-01 -9.375897348564506961e-01
2.769230769230769162e+00 -3.270912207400628602e-01 -1.497634414676497772e-01 -9.330470987030293761e-01
2.871794871794871806e+00 -3.367915649828437941e-01 -1.569657870680561396e-01 -9.284005733946979477e-01
2.974358974358974450e+00 -3.462490823873566881e-01 -1.642144944542471563e-01 -9.236554616678577245e-01
3.076923076923076650e+00 -3.554631565434723250e-01 -1.714931897032668795e-01 -9.188199324118428990e-01
3.179487179487179294e+00 -3.644364856709922385e-01 -1.787856197279817094e-01 -9.139013021937077985e-01
3.282051282051281937e+00 -3.731675162249625810e-01 -1.860778006155570929e-01 -9.089085212157725913e-01
3.384615384615384581e+00 -3.816545724883034230e-01 -1.933595982374950728e-01 -9.038502639950450890e-01
3.487179487179487225e+00 -3.898923985050961050e-01 -2.006213816124774174e-01 -8.987370215474128621e-01
3.589743589743589425e+00 -3.978805871887210466e-01 -2.078586828148017429e-01 -8.935764484738081270e-01
3.692307692307692069e+00 -4.056188184081888082e-01 -2.150715633452950359e-01 -8.883751862245594655e-01
3.794871794871794712e+00 -4.131084142644952939e-01 -2.222552616088684929e-01 -8.831402632891781623e-01
3.897435897435897356e+00 -4.203575769355743508e-01 -2.294196912115862852e-01 -8.778716403563056048e-01
4.000000000000000000e+00 -4.273736134561785249e-01 -2.365578541585163508e-01 -8.725734913851378449e-01
