0.000000000000000000e+00 2.264451914440721220e-12 -1.998420223232205988e-12 -1.000000000000000000e+00
1.025641025641025605e-01 2.261499989961400225e-01 -1.977705697565139142e-01 -9.538044766734901092e-01
2.051282051282051211e-01 4.360757384831394079e-01 -3.706689049146935644e-01 -8.200259223121114660e-01
3.076923076923077094e-01 6.149511272310147492e-01 -4.965598167734932011e-01 -6.125875116892631755e-01
4.102564102564102422e-01 7.506150369014021884e-01 -5.584888784142693074e-01 -3.530824819573932238e-01
5.128205128205127750e-01 8.346007522056382300e-01 -5.465755001671184221e-01 -6.853325397347313774e-02
6.153846153846154188e-01 8.628345208107501829e-01 -4.591475743590749392e-01 2.114239686348957370e-01
7.179487179487179516e-01 8.359328744655213361e-01 -3.029977042348567795e-01 4.576118666819363190e-01
8.205128205128204844e-01 7.590843384599555987e-01 -9.272825483492441734e-02 6.443542797369696817e-01
9.230769230769230171e-01 6.415240360130528563e-01 1.507446424057354573e-01 7.521455736478483978e-01
1.025641025641025550e+00 4.956571017351292796e-01 4.023730833951212893e-01 7.696882090909814567e-01
1.128205128205128194e+00 3.358992168987759430e-01 6.356365920225250932e-01 6.950811743901075257e-01
1.230769230769230838e+00 1.773643426961363512e-01 8.253571337378744488e-01 5.360293760292198506e-01
1.333333333333333259e+00 3.450728607932999903e-02 9.504174697834477659e-01 3.090564356799851975e-01
1.435897435897435903e+00 -8.015478566022345153e-02 9.960650506618232702e-01 3.781038856452055563e-02
1.538461538461538325e+00 -1.571218331435690618e-01 9.555724512317956831e-01 -2.493872886329349670e-01
1.641025641025640969e+00 -1.906922753878540211e-01 8.310593060419465550e-01 -5.224718996044113162e-01
1.743589743589743613e+00 -1.793836906896854877e-01 6.334003349285616258e-01 -7.527453134510230237e-01
1.846153846153846034e+00 -1.259579352374280148e-01 3.811966879917132456e-01 -9.158731809751813335e-01
1.948717948717948678e+00 -3.705719580804965607e-02 9.895715107285942003e-02 -9.944014512682616269e-01
2.051282051282051100e+00 7.752355957258547092e-02 -1.854008183466162862e-01 -9.796002420535177002e-01
2.153846153846153744e+00 2.058284405370924275e-01 -4.433842345537205021e-01 -8.723789736686988761e-01
2.256410256410256387e+00 3.349191905175541439e-01 -6.488704930512257940e-01 -6.832248670602404372e-01
2.358974358974359031e+00 4.521293098512970121e-01 -7.808325822946873274e-01 -4.311375249700194479e-01
2.461538461538461675e+00 5.462532050346241563e-01 -8.255491182544093531e-01 -1.416901168055004212e-01
2.564102564102563875e+00 6.085835561558565754e-01 -7.780857989812036690e-01 1.555909500490500752e-01
2.666666666666666519e+00 6.336903159773408234e-01 -6.428733103927700698e-01 4.302911690011306245e-01
2.769230769230769162e+00 6.198628219331031586e-01 -4.333301994199809659e-01 6.542132835099097043e-01
2.871794871794871806e+00 5.692007802934371252e-01 -1.705496404760209750e-01 8.043154181897547161e-01
2.974358974358974450e+00 4.873312515979442150e-01 1.188165576814125407e-01 8.650958771620442800e-01
3.076923076923076650e+00 3.827949108924760813e-01 4.052488808676978360e-01 8.302056375518637177e-01
3.179487179487179294e+00 2.661659201180725520e-01 6.593705146765376224e-01 7.031260400153918066e-01
3.282051282051281937e+00 1.489874711893802162e-01 8.549643404498294963e-01 4.968286516400166608e-01
3.384615384615384581e+00 4.263708133497254998e-02 9.716700110180596095e-01 2.324639081203454805e-01
3.487179487179487225e+00 -4.277902514482428281e-02 9.971078454673828473e-01 -6.281638770286789020e-02
3.589743589743589425e+00 -9.937902334638983037e-02 9.281771168989538801e-01 -3.586238260842763426e-01
3.692307692307692069e+00 -1.222370627090756390e-01 7.714221240103563693e-01 -6.244725820551078055e-01
3.794871794871794712e+00 -1.098116157267234050e-01 5.424006111208028447e-01 -8.329123515823035895e-01
3.897435897435897356e+00 -6.403924984976924750e-02 2.641196786186622014e-01 -9.623615578523583292e-01
4.000000000000000000e+00 9.910848443359685650e-03 -3.527194047128011378e-02 -9.993286070477033212e-01
