0.000000000000000000e+00 -4.992685326746610487e-10 2.432152010126070372e-09 -1.000000000000000000e+00
1.025641025641025605e-01 1.017701989348974989e-01 -1.166116706070037118e-01 -9.879482799304898366e-01
2.051282051282051211e-01 2.052922184689075502e-01 -2.219946234961742704e-01 -9.531882951057850661e-01
3.076923076923077094e-01 3.114079482315909586e-01 -3.057871004861064113e-01 -8.997282142104230385e-01
4.102564102564102422e-01 4.193966710054241598e-01 -3.592642400176056516e-01 -8.336812082718404460e-01
5.128205128205127750e-01 5.264749601254641309e-01 -3.760504406701243862e-01 -7.624935475964276232e-01
6.153846153846154188e-01 6.276626497092324675e-01 -3.526927311431115042e-01 -6.939968453993144992e-01
7.179487179487179516e-01 7.160172848361673337e-01 -2.890455054901235332e-01 -6.354168738043332043e-01
8.205128205128204844e-01 7.832425800003106620e-01 -1.884376566731644775e-01 -5.924558810745943482e-01
9.230769230769230171e-01 8.206057388089537108e-01 -5.758838169196445200e-02 -5.685692099711544545e-01
1.025641025641025550e+00 8.200631550173579365e-01 9.374018022097674319e-02 -5.645265748584586962e-01
1.128205128205128194e+00 7.754595069645962013e-01 2.533685017881819879e-01 -5.783150564354458956e-01
1.230769230769230838e+00 6.836404015551831304e-01 4.075527548398861777e-01 -6.054077231512217105e-01
1.333333333333333259e+00 5.453408853815364665e-01 5.420525234803921233e-01 -6.393474331049125992e-01
1.435897435897435903e+00 3.657002262152198035e-01 6.433220439004923019e-01 -6.725947480632761266e-01
1.538461538461538325e+00 1.543240057394815734e-01 6.997396202150062416e-01 -6.975190670328554887e-01
1.641025641025640969e+00 -7.517069936253312212e-02 7.027788928518097222e-01 -7.074148324854373504e-01
1.743589743589743613e+00 -3.061022275492528699e-01 6.479883176586536120e-01 -6.974215746154770468e-01
1.846153846153846034e+00 -5.201077102956125353e-01 5.356992361612655795e-01 -6.652050160252029887e-01
1.948717948717948678e+00 -6.988178224867169774e-01 3.713382954586757490e-01 -6.113457378023179345e-01
2.051282051282051100e+00 -8.256863951332790164e-01 1.653124069762179071e-01 -5.393461999801262285e-01
2.153846153846153744e+00 -8.877710200268443819e-01 -6.760354670053039805e-02 -4.552706801979535256e-01
2.256410256410256387e+00 -8.772544450307444563e-01 -3.093195195362498651e-01 -3.670473980211989007e-01
2.358974358974359031e+00 -7.925397078454625710e-01 -5.398721425249864980e-01 -2.835412605238326056e-01
2.461538461538461675e+00 -6.387923447423231593e-01 -7.391655109732769846e-01 -2.134358108426985812e-01
2.564102564102563875e+00 -4.278007455754401223e-01 -8.888256689933193844e-01 -1.641684669839138799e-01
2.666666666666666519e+00 -1.771761787083116768e-01 -9.740194939036159738e-01 -1.409621743961618767e-01
2.769230769230769162e+00 9.109724316794901022e-02 -9.850524051233895406e-01 -1.461122551490456056e-01
2.871794871794871806e+00 3.526040011278983588e-01 -9.185530080328732083e-01 -1.786245156272542323e-01
2.974358974358974450e+00 5.827853714478412606e-01 -7.781158346843182194e-01 -2.342504572167442567e-01
3.076923076923076650e+00 7.593208678387838306e-01 -5.743070344124368010e-01 -3.059088660009861016e-01
3.179487179487179294e+00 8.644063576704242857e-01 -3.239622802009036184e-01 -3.844841109563328918e-01
3.282051282051281937e+00 8.866343601693309484e-01 -4.885114904894355403e-02 -4.598610153457506344e-01
3.384615384615384581e+00 8.223090316110974740e-01 2.262141572752194851e-01 -5.221256681099479824e-01
3.487179487179487225e+00 6.760277633780724660e-01 4.756817076806073574e-01 -5.627560625919476589e-01
3.589743589743589425e+00 4.604518635315130171e-01 6.757033616467953419e-01 -5.756651228990899982e-01
3.692307692307692069e+00 1.952403958590508970e-01 8.065529348460613868e-01 -5.579735379537744677e-01
3.794871794871794712e+00 -9.471983343605273886e-02 8.546845217428422625e-01 -5.104140474073921574e-01
3.897435897435897356e+00 -3.816872755857952382e-01 8.142882912043716281e-01 -4.372963875354211050e-01
4.000000000000000000e+00 -6.377702688708348777e-01 6.880911334315079619e-01 -3.460594368966038448e-01
