0.000000000000000000e+00 -2.535190416586303387e-09 -4.350699771400552320e-10 -1.000000000000000000e+00
1.025641025641025605e-01 1.013898300350722648e-02 1.161697082707527362e-01 -9.931772275306343101e-01
2.051282051282051211e-01 2.050985068767730013e-02 2.300024704504343709e-01 -9.729730764543351729e-01
3.076923076923077094e-01 3.133118499891059117e-02 3.392980825353152929e-01 -9.401556809307280993e-01
4.102564102564102422e-01 4.277781985686743282e-02 4.421268960164517203e-01 -8.959299697058905609e-01
5.128205128205127750e-01 5.495690280953757778e-02 5.369225048413045487e-01 -8.418371081675356526e-01
6.153846153846154188e-01 6.791268483938278644e-02 6.225425911592470385e-01 -7.796303374068963565e-01
7.179487179487179516e-01 8.163129483950476439e-02 6.982699699103350754e-01 -7.111606275004375144e-01
8.205128205128204844e-01 9.603533753205206747e-02 7.638110408065873491e-01 -6.382501131812399198e-01
9.230769230769230171e-01 1.110086339877033312e-01 8.192355123508494597e-01 -5.626036682124478938e-01
1.025641025641025550e+00 1.264078123800371767e-01 8.648998834910764932e-01 -4.857584951550523722e-01
1.128205128205128194e+00 1.420757139396617852e-01 9.013987775787506429e-01 -4.090064880851133067e-01
1.230769230769230838e+00 1.578529935733462841e-01 9.294610248686950849e-01 -3.334303826976773855e-01
1.333333333333333259e+00 1.735889056897204352e-01 9.499094378553921691e-01 -2.598650500353854587e-01
1.435897435897435903e+00 1.891472049066227346e-01 9.635966221241584195e-01 -1.889326754820938314e-01
1.538461538461538325e+00 2.044083960691078228e-01 9.713634510635560382e-01 -1.210817491540198271e-01
1.641025641025640969e+00 2.192741026046462482e-01 9.740162660883537882e-01 -5.658303664377318382e-02
1.743589743589743613e+00 2.336672719711924140e-01 9.723017345210946960e-01 4.402101148133504005e-03
1.846153846153846034e+00 2.475252779259046743e-01 9.669012144241722062e-01 6.183638673640459715e-02
1.948717948717948678e+00 2.608044169843684035e-01 9.584233502498099577e-01 1.157422183415824507e-01
2.051282051282051100e+00 2.734745694138874805e-01 9.474051363536823978e-01 1.662100572226936079e-01
2.153846153846153744e+00 2.855186865933098117e-01 9.343149189478503480e-01 2.133669227216360986e-01
2.256410256410256387e+00 2.969282352564001082e-01 9.195592519691948574e-01 2.573621535826624562e-01
2.358974358974359031e+00 3.077087065826688006e-01 9.034835583176284990e-01 2.983686226419249299e-01
2.461538461538461675e+00 3.178639853914131397e-01 8.863839169561199549e-01 3.365668347770012225e-01
2.564102564102563875e+00 3.274084476633146723e-01 8.685107882761743392e-01 3.721344908259876516e-01
2.666666666666666519e+00 3.363567311854940289e-01 8.500733296501168379e-01 4.052542731715576552e-01
2.769230769230769162e+00 3.447316572386427969e-01 8.312496143121049785e-01 4.360916113444945896e-01
2.871794871794871806e+00 3.525487671258333844e-01 8.121861509425116754e-01 4.648170895747640863e-01
2.974358974358974450e+00 3.598355149831402588e-01 7.930040802834266156e-01 4.915841913338105384e-01
3.076923076923076650e+00 3.666143238198106280e-01 7.738040725770825023e-01 5.165398934707674528e-01
3.179487179487179294e+00 3.729067066236275707e-01 7.546668163329327550e-01 5.398250083008325761e-01
3.282051282051281937e+00 3.787353616273561596e-01 7.356626302154337660e-01 5.615626772428559121e-01
3.384615384615384581e+00 3.841247762690069845e-01 7.168438925399218675e-01 5.818726485834414541e-01
3.487179487179487225e+00 3.890938439320075215e-01 6.982540031640722678e-01 6.008662736095475854e-01
3.589743589743589425e+00 3.936682725066450450e-01 6.799270093839427931e-01 6.186417912252809570e-01
3.692307692307692069e+00 3.978647097285545886e-01 6.618887194188024514e-01 6.352954245393609423e-01
3.794871794871794712e+00 4.017033846133912234e-01 6.441612820801640993e-01 6.509101780404806803e-01
3.897435897435897356e+00 4.052079868159494946e-01 6.267591332012185656e-01 6.655622098700038070e-01
4.000000000000000000e+00 4.083936705240747700e-01 6.096924755694090869e-01 6.793256943891697874e-01
