0.000000000000000000e+00 7.049208868970127951e-13 6.459587714987906732e-14 -1.000000000000000000e+00
1.025641025641025605e-01 -5.633444095405446689e-02 -5.438519384841375079e-03 -9.983971420479129666e-01
2.051282051282051211e-01 -1.101627302798676433e-01 -1.224870117719515164e-02 -9.938380865390425978e-01
3.076923076923077094e-01 -1.590501139475505865e-01 -2.154986517539733692e-02 -9.870352904316769260e-01
4.102564102564102422e-01 -2.007100318417955331e-01 -3.397780304745190438e-02 -9.790612810254764042e-01
5.128205128205127750e-01 -2.330977931138067949e-01 -4.952208193879462095e-02 -9.711915270353395080e-01
6.153846153846154188e-01 -2.545153861683168151e-01 -6.742727699180658951e-02 -9.647152327967080110e-01
7.179487179487179516e-01 -2.637370224208149816e-01 -8.619009778221486950e-02 -9.607362021048829748e-01
8.205128205128204844e-01 -2.601298973330188891e-01 -1.036545524433160337e-01 -9.599938385608368652e-01
9.230769230769230171e-01 -2.437732204370511024e-01 -1.171809042411364882e-01 -9.627269876771414880e-01
1.025641025641025550e+00 -2.155499869420318682e-01 -1.239099783638108881e-01 -9.685992567977349532e-01
1.128205128205128194e+00 -1.771924603594265402e-01 -1.210551658398189012e-01 -9.767028611011383532e-01
1.230769230769230838e+00 -1.312726597278967289e-01 -1.062280484633468663e-01 -9.856384177603946251e-01
1.333333333333333259e+00 -8.111516375737144735e-02 -7.775283817514985762e-02 -9.936673621146843161e-01
1.435897435897435903e+00 -3.063481280048722596e-02 -3.492845442996603267e-02 -9.989201725912243424e-01
1.538461538461538325e+00 1.590564877409378353e-02 2.177529596396600778e-02 -9.996363572404501907e-01
1.641025641025640969e+00 5.420467394398306715e-02 9.063152452752326615e-02 -9.944082560649487590e-01
1.743589743589743613e+00 8.027533998038281771e-02 1.686744552696252120e-01 -9.823974744049577268e-01
1.846153846153846034e+00 9.081818953467438171e-02 2.518492897128833397e-01 -9.634957143965084958e-01
1.948717948717948678e+00 8.356900250194555790e-02 3.352659200103536574e-01 -9.384098170197434641e-01
2.051282051282051100e+00 5.760905196091044289e-02 4.135711474682208788e-01 -9.086474028587782081e-01
2.153846153846153744e+00 1.355539635384106489e-02 4.813649250757814912e-01 -8.764154609895047354e-01
2.256410256410256387e+00 -4.633504992493331365e-02 5.336773474881941759e-01 -8.444178773240952340e-01
2.358974358974359031e+00 -1.182295335166767825e-01 5.664235115728039061e-01 -8.155894692211864694e-01
2.461538461538461675e+00 -1.969289278747945182e-01 5.768177007131203293e-01 -7.927801309465353219e-01
2.564102564102563875e+00 -2.762112374771296119e-01 5.636958779999459157e-01 -7.784306709217703180e-01
2.666666666666666519e+00 -3.493139238068307395e-01 5.277178993220522640e-01 -7.742697217349763239e-01
2.769230769230769162e+00 -4.094956926090373428e-01 4.714145378569703504e-01 -7.810772118913198447e-01
2.871794871794871806e+00 -4.506375975910097975e-01 3.990769949028653008e-01 -7.985382314521651814e-01
2.974358974358974450e+00 -4.678423926913460873e-01 3.164853909924743025e-01 -8.252033027107282814e-01
3.076923076923076650e+00 -4.579483467448054457e-01 2.304887151861692018e-01 -8.585792115555063164e-01
3.179487179487179294e+00 -4.199302909679020757e-01 1.484811501156720892e-01 -8.953278148303183137e-01
3.282051282051281937e+00 -3.551067280475335708e-01 7.778886723808414727e-02 -9.315836537482575785e-01
3.384615384615384581e+00 -2.671864882638744776e-01 2.504579253075922551e-02 -9.633193078306735435e-01
3.487179487179487225e+00 -1.620400906211250103e-01 -4.400172340656670344e-03 -9.867743647909985594e-01
3.589743589743589425e+00 -4.729675235076528927e-02 -6.997034429655062462e-03 -9.988563760320525731e-01
3.692307692307692069e+00 6.824093258212579616e-02 1.863518498753487587e-02 -9.974948144998585509e-01
3.794871794871794712e+00 1.753433292260594967e-01 7.151514542868590840e-02 -9.819064624076053738e-01
3.897435897435897356e+00 2.651652396582647730e-01 1.482925680991298012e-01 -9.527311837948256867e-01
4.000000000000000000e+00 3.300463772119945904e-01 2.434578585779952897e-01 -9.120294169317809674e-01
