0.000000000000000000e+00 2.090079852434044959e-09 2.189566133567403588e-09 -1.000000000000000000e+00
1.025641025641025605e-01 2.151592313053716510e-01 1.002917422237712963e-01 -9.714133566333158498e-01
2.051282051282051211e-01 4.176306786078153865e-01 1.889397814867924130e-01 -8.887505951665871651e-01
3.076923076923077094e-01 5.963603906665150278e-01 2.558472253466274049e-01 -7.608436261482933727e-01
4.102564102564102422e-01 7.432783874253361400e-01 2.938960784803346105e-01 -6.009531312411279247e-01
5.128205128205127750e-01 8.541650577018746748e-01 2.998201539892080270e-01 -4.248400063385390779e-01
6.153846153846154188e-01 9.288976529000755322e-01 2.745098622214273698e-01 -2.485368149959953366e-01
7.179487179487179516e-01 9.710583878454983608e-01 2.227021059823791060e-01 -8.617151188822817776e-02
8.205128205128204844e-01 9.869946119774650750e-01 1.521012210750423699e-01 5.179694905356760359e-02
9.230769230769230171e-01 9.845243905236051862e-01 7.209346372526115321e-02 1.596581031955979224e-01
1.025641025641025550e+00 9.715325253151694262e-01 -7.736559598542469551e-03 2.367312145320954464e-01
1.128205128205128194e+00 9.547116896281973020e-01 -7.903513654225291507e-02 2.868038560565161488e-01
1.230769230769230838e+00 9.386616246282060150e-01 -1.358365778034433258e-01 3.169234944127974352e-01
1.333333333333333259e+00 9.254907262065299456e-01 -1.752750776001812949e-01 3.357431920590435159e-01
1.435897435897435903e+00 9.149464805542620871e-01 -1.977413231815309258e-01 3.517803615674632289e-01
1.538461538461538325e+00 9.050099444234290802e-01 -2.064998696517225674e-01 3.718779043437774323e-01
1.641025641025640969e+00 8.928029616169186333e-01 -2.068489667133265320e-01 4.001188820840369531e-01
1.743589743589743613e+00 8.755832738858616571e-01 -2.049841661860031805e-01 4.373953728749807590e-01
1.846153846153846034e+00 8.516238794817556634e-01 -2.067831915914577490e-01 4.816196465696626627e-01
1.948717948717948678e+00 8.207893830699685145e-01 -2.167195498454196900e-01 5.285056993945482784e-01
2.051282051282051100e+00 7.846810133226367334e-01 -2.371036926416600632e-01 5.727471281923541824e-01
2.153846153846153744e+00 7.463636835399396485e-01 -2.677523918924628599e-01 6.092884587925909701e-01
2.256410256410256387e+00 7.097198309801195926e-01 -3.061405389676041811e-01 6.344752345744814059e-01
2.358974358974359031e+00 6.785906808757999897e-01 -3.479982953026629633e-01 6.468348118432649674e-01
2.461538461538461675e+00 6.559178721341412110e-01 -3.881992484872898164e-01 6.473457293219732067e-01
2.564102564102563875e+00 6.430350192457967573e-01 -4.217990631603949492e-01 6.391985058735022429e-01
2.666666666666666519e+00 6.393312706317679783e-01 -4.450019899393555800e-01 6.270659229694020009e-01
2.769230769230769162e+00 6.423009516171080957e-01 -4.558864333734022334e-01 6.161166462764869900e-01
2.871794871794871806e+00 6.480252811321119966e-01 -4.547644060644849273e-01 6.109297196468704838e-01
2.974358974358974450e+00 6.519536240926737669e-01 -4.440981509972509733e-01 6.145859902373833616e-01
3.076923076923076650e+00 6.498621885631066242e-01 -4.280131375211378986e-01 6.280659542717200727e-01
3.179487179487179294e+00 6.387282526612506617e-01 -4.115056191450507939e-01 6.501329306358144544e-01
3.282051282051281937e+00 6.174096407775960804e-01 -3.994830786227617780e-01 6.776450261282559451e-01
3.384615384615384581e+00 5.869151127892527908e-01 -3.958340501039049331e-01 7.062796899980644527e-01
3.487179487179487225e+00 5.502480159199975018e-01 -4.027132826088753448e-01 7.314607213451317369e-01
3.589743589743589425e+00 5.118234012754595552e-01 -4.201382022610360978e-01 7.493376336555843675e-01
3.692307692307692069e+00 4.765920423861484956e-01 -4.460220909950639578e-01 7.575689814871295891e-01
3.794871794871794712e+00 4.490237847429418006e-01 -4.765828562122511047e-01 7.557994468326785231e-01
3.897435897435897356e+00 4.321847575047417789e-01 -5.070916362975035341e-01 7.456946351148633356e-01
4.000000000000000000e+00 4.270849184299606582e-01 -5.327752139093711037e-01 7.305714745374106700e-01
