0.000000000000000000e+00 4.261052102813946673e-13 6.249520035846103289e-13 -1.000000000000000000e+00
1.025641025641025605e-01 1.093347494156066690e-01 1.631150998118592599e-01 -9.805301508754369344e-01
2.051282051282051211e-01 2.047934163797561213e-01 3.219462367073980258e-01 -9.243431598701443708e-01
3.076923076923077094e-01 2.740413935876557239e-01 4.721174509010470643e-01 -8.378582380426129461e-01
4.102564102564102422e-01 3.076640945026371532e-01 6.091153481139298664e-01 -7.309728432488250549e-01
5.128205128205127750e-01 3.002447507188416020e-01 7.283274126622639733e-01 -6.159482685968058480e-01
6.153846153846154188e-01 2.510159315784808998e-01 8.251803221564573132e-01 -5.060320520541673472e-01
7.179487179487179516e-01 1.640222993330895940e-01 8.953976274787552869e-01 -4.139562462849891711e-01
8.205128205128204844e-01 4.777951841701943980e-02 9.353481729806701894e-01 -3.504866795874869712e-01
9.230769230769230171e-01 -8.555007983902707114e-02 9.424631371673840574e-01 -3.231786170338591946e-01
1.025641025641025550e+00 -2.213853267859891005e-01 9.156656749922691407e-01 -3.354771353275924906e-01
1.128205128205128194e+00 -3.442159764341137795e-01 8.557509549808730576e-01 -3.862714903031466140e-01
1.230769230769230838e+00 -4.392164137765167120e-01 7.656640741537923400e-01 -4.699441105098300930e-01
1.333333333333333259e+00 -4.938311311718607266e-01 6.506024302568134132e-01 -5.769291909108992256e-01
1.435897435897435903e+00 -4.991332900076564383e-01 5.179181862160553429e-01 -6.947134021463032827e-01
1.538461538461538325e+00 -4.508547905396345090e-01 3.767841279999237791e-01 -8.091746897085891899e-01
1.641025641025640969e+00 -3.499400059440194166e-01 2.376346559618922605e-01 -9.061301023211669747e-01
1.743589743589743613e+00 -2.025998071182691096e-01 1.114112986192990762e-01 -9.729033048060489186e-01
1.846153846153846034e+00 -1.981744463898593711e-02 8.668595365277285275e-03 -9.997660347906547340e-01
1.948717948717948678e+00 1.836264653068659380e-01 -6.137906998940708542e-02 -9.810779433253109527e-01
2.051282051282051100e+00 3.905348540899172272e-01 -9.177339499196196515e-02 -9.160022773636213866e-01
2.153846153846153744e+00 5.829217167946999512e-01 -7.859458360432425295e-02 -8.087182225157278914e-01
2.256410256410256387e+00 7.437695927621450487e-01 -2.151854510550020583e-02 -6.680896237443707530e-01
2.358974358974359031e+00 8.586986027810552535e-01 7.592366763521951611e-02 -5.068257160237904513e-01
2.461538461538461675e+00 9.174064008612703436e-01 2.064435018413907086e-01 -3.402154849217148835e-01
2.564102564102563875e+00 9.147289135305869401e-01 3.594577126717831694e-01 -1.845566786463266606e-01
2.666666666666666519e+00 8.512094585637578481e-01 5.218879764045870617e-01 -5.545626478972316697e-02
2.769230769230769162e+00 7.331158257149025248e-01 6.792613518712901088e-01 3.384082413030808228e-02
2.871794871794871806e+00 5.719036158036946427e-01 8.169862668963607799e-01 7.388973869788954818e-02
2.974358974358974450e+00 3.831620353407982904e-01 9.217229157392041738e-01 6.011423045776111834e-02
3.076923076923076650e+00 1.851533782158580888e-01 9.826873505618388682e-01 -6.617905632780054365e-03
3.179487179487179294e+00 -2.914634719212633174e-03 9.927717334046318731e-01 -1.199824545207801990e-01
3.282051282051281937e+00 -1.627320032942115025e-01 9.493600380412235973e-01 -2.687634886861351990e-01
3.384615384615384581e+00 -2.786470540160216891e-01 8.547394567438733048e-01 -4.379226869279745915e-01
3.487179487179487225e+00 -3.391767058136897495e-01 7.160542099129018068e-01 -6.101028848409946193e-01
3.589743589743589425e+00 -3.381293856531396025e-01 5.447836809278422399e-01 -7.673846875470504703e-01
3.692307692307692069e+00 -2.752149943370087448e-01 3.557859530802588988e-01 -8.931254461548571166e-01
3.794871794871794712e+00 -1.560838938399822517e-01 1.659748658027913326e-01 -9.736992150483221309e-01
3.897435897435897356e+00 8.206010502885099575e-03 -7.243503845464571711e-03 -9.999400951046215624e-01
4.000000000000000000e+00 2.022444663429502631e-01 -1.476276052013839324e-01 -9.681442383023702858e-01
