0.000000000000000000e+00 5.760341461152192566e-10 -2.970327034769502550e-09 -1.000000000000000000e+00
1.025641025641025605e-01 1.076619626976710459e-01 -1.111952567144779830e-01 -9.879483102713866316e-01
2.051282051282051211e-01 2.068711615029071305e-01 -2.205245651742152313e-01 -9.531882545915024707e-01
3.076923076923077094e-01 2.901286021127887915e-01 -3.260469540905622243e-01 -8.997280501576928602e-01
4.102564102564102422e-01 3.518394581190340542e-01 -4.256441267247978444e-01 -8.336816818188715894e-01
5.128205128205127750e-01 3.889432144817485670e-01 -5.170230383780169969e-01 -7.624939455689755397e-01
6.153846153846154188e-01 4.012597881735517902e-01 -5.977827746674739817e-01 -6.939964187598646195e-01
7.179487179487179516e-01 3.914870885779971887e-01 -6.655572761702935880e-01 -6.354168597678861996e-01
8.205128205128204844e-01 3.648509130163267722e-01 -7.182355661813717429e-01 -5.924556716646518506e-01
9.230769230769230171e-01 3.284496366684818702e-01 -7.542091430335674529e-01 -5.685693826848212673e-01
1.025641025641025550e+00 2.903749113237014678e-01 -7.726415746821069241e-01 -5.645255188498063958e-01
1.128205128205128194e+00 2.587082606119389117e-01 -7.736951329933450250e-01 -5.783146345375439479e-01
1.230769230769230838e+00 2.405299601902335938e-01 -7.586896514598880925e-01 -6.054071999884411692e-01
1.333333333333333259e+00 2.410360611221723792e-01 -7.301501546092062922e-01 -6.393478540792348896e-01
1.435897435897435903e+00 2.629054645178549587e-01 -6.917228973468843023e-01 -6.725951832036159983e-01
1.538461538461538325e+00 3.059586608400804431e-01 -6.479515726025448785e-01 -6.975190649140916577e-01
1.641025641025640969e+00 3.671782200880597813e-01 -6.039277779860245943e-01 -7.074153310827442365e-01
1.743589743589743613e+00 4.410710213688100456e-01 -5.648403978633981248e-01 -6.974212945913177419e-01
1.846153846153846034e+00 5.203413281220279352e-01 -5.354729582148988198e-01 -6.652048974234429091e-01
1.948717948717948678e+00 5.967839858579280232e-01 -5.196990259303863047e-01 -6.113464281384566323e-01
2.051282051282051100e+00 6.622998536884230347e-01 -5.200439020334468587e-01 -5.393462694851418604e-01
2.153846153846153744e+00 7.098979398881410940e-01 -5.373583701305937321e-01 -4.552697792262744292e-01
2.256410256410256387e+00 7.345744854599463025e-01 -5.706600130148618000e-01 -3.670502659178607185e-01
2.358974358974359031e+00 7.339537984135078297e-01 -6.171653144597770702e-01 -2.835424079884729109e-01
2.461538461538461675e+00 7.086122407012742652e-01 -6.725254394355986154e-01 -2.134365029907115963e-01
2.564102564102563875e+00 6.620491332940916518e-01 -7.312428286216684503e-01 -1.641690423282406996e-01
2.666666666666666519e+00 6.002951613412539356e-01 -7.872432966444400382e-01 -1.409616755159223689e-01
2.769230769230769162e+00 5.312222030445952203e-01 -8.345243902798994418e-01 -1.461113399154133630e-01
2.871794871794871806e+00 4.636099955095888125e-01 -8.678338331480786039e-01 -1.786250163746904429e-01
2.974358974358974450e+00 4.061104293314206082e-01 -8.832771093253579675e-01 -2.342497375883056399e-01
3.076923076923076650e+00 3.662077564006683272e-01 -8.787995035775599817e-01 -3.059101752107564742e-01
3.179487179487179294e+00 3.493154470724363359e-01 -8.544758717614192589e-01 -3.844845269936337795e-01
3.282051282051281937e+00 3.581149728065193827e-01 -8.125646233559590259e-01 -4.598610123543044881e-01
3.384615384615384581e+00 3.922154379438513860e-01 -7.573194154261380096e-01 -5.221256359334082164e-01
3.487179487179487225e+00 4.481870089404224045e-01 -6.945620508023409023e-01 -5.627553472799475820e-01
3.589743589743589425e+00 5.199403941098421633e-01 -6.310735904769649851e-01 -5.756648280295448838e-01
3.692307692307692069e+00 5.994498333592854777e-01 -5.738521056173702117e-01 -5.579741756244378514e-01
3.794871794871794712e+00 6.776954555988996542e-01 -5.293273933303549450e-01 -5.104135488044735380e-01
3.897435897435897356e+00 7.457317683708947209e-01 -5.026287198521486310e-01 -4.372961195233610598e-01
4.000000000000000000e+00 7.957638735331522550e-01 -4.969723004591036775e-01 -3.460586031508573468e-01
