0.000000000000000000e+00 1.825165388587621523e-09 1.743587428102409729e-09 -1.000000000000000000e+00
1.025641025641025605e-01 7.336415378517605057e-03 -1.990199461638672389e-03 -9.999710771428996781e-01
2.051282051282051211e-01 1.467992826768066243e-02 -3.972993219606853720e-03 -9.998842938498424537e-01
3.076923076923077094e-01 2.201931653040534870e-02 -5.953316311234456773e-03 -9.997397378750746411e-01
4.102564102564102422e-01 2.936025062801426999e-02 -7.933493818460670560e-03 -9.995373038448990277e-01
5.128205128205127750e-01 3.669770241795589083e-02 -9.913170802951768237e-03 -9.992771113005736172e-01
6.153846153846154188e-01 4.403136123674082636e-02 -1.189005527255842729e-02 -9.989592359977693681e-01
7.179487179487179516e-01 5.136457817140895055e-02 -1.386349817183288313e-02 -9.985835594765263279e-01
8.205128205128204844e-01 5.869297553262247530e-02 -1.583461173895521490e-02 -9.981502861225481915e-01
9.230769230769230171e-01 6.601817450984331925e-02 -1.780202251738836894e-02 -9.976593781479246026e-01
1.025641025641025550e+00 7.333766873824462684e-02 -1.976560320187273345e-02 -9.971110296401440864e-01
1.128205128205128194e+00 8.065170350866983362e-02 -2.172775470938420606e-02 -9.965052220929383475e-01
1.230769230769230838e+00 8.796295295999848052e-02 -2.368127118873116291e-02 -9.958419143700721898e-01
1.333333333333333259e+00 9.526597639944683893e-02 -2.563027677384004804e-02 -9.951215185500225102e-01
1.435897435897435903e+00 1.025633972334291100e-01 -2.757753189879776079e-02 -9.943437710571715327e-01
1.538461538461538325e+00 1.098554263719988405e-01 -2.951628095368358934e-02 -9.935088484773024753e-01
1.641025641025640969e+00 1.171394861115539754e-01 -3.144879478992562705e-02 -9.926170073454417819e-01
1.743589743589743613e+00 1.244138489506863843e-01 -3.337395886673873158e-02 -9.916685604155439648e-01
1.846153846153846034e+00 1.316798708682871411e-01 -3.529155874032705031e-02 -9.906634287527293914e-01
1.948717948717948678e+00 1.389382949809955248e-01 -3.720379788047196296e-02 -9.896014801048707010e-01
2.051282051282051100e+00 1.461873117826316681e-01 -3.910387720195797334e-02 -9.884832670090786255e-01
2.153846153846153744e+00 1.534276974555105477e-01 -4.099866495703636399e-02 -9.873084694129097283e-01
2.256410256410256387e+00 1.606570100344767160e-01 -4.288146321843782499e-02 -9.860777951969816879e-01
2.358974358974359031e+00 1.678764267324072690e-01 -4.475596614828092346e-02 -9.847909784099664332e-01
2.461538461538461675e+00 1.750862573361481322e-01 -4.661619792812293772e-02 -9.834482925219818483e-01
2.564102564102563875e+00 1.822785711494430971e-01 -4.846719693659123224e-02 -9.820510240463882212e-01
2.666666666666666519e+00 1.894626085496070034e-01 -5.030730267933576638e-02 -9.805976775741324092e-01
2.769230769230769162e+00 1.966338476151331394e-01 -5.213132551576106499e-02 -9.790894308014019831e-01
2.871794871794871806e+00 2.037911953875881643e-01 -5.394609576645080506e-02 -9.775262524586406654e-01
2.974358974358974450e+00 2.109339679593748018e-01 -5.574236549522205986e-02 -9.759089122027957419e-01
3.076923076923076650e+00 2.180623056708387852e-01 -5.752756423513157025e-02 -9.742370933533121002e-01
3.179487179487179294e+00 2.251744147592404377e-01 -5.929840637348832155e-02 -9.725115080642123822e-01
3.282051282051281937e+00 2.322735813392087512e-01 -6.105098009879604548e-02 -9.707317655761860120e-01
3.384615384615384581e+00 2.393532501663447332e-01 -6.278938958283566962e-02 -9.688993036404197623e-01
3.487179487179487225e+00 2.464138266038524150e-01 -6.450609475411053784e-02 -9.670147281009044971e-01
3.589743589743589425e+00 2.534605511155215707e-01 -6.620879289899096742e-02 -9.650763630309528995e-01
3.692307692307692069e+00 2.604869823709529131e-01 -6.789234462713919505e-02 -9.630863670258802411e-01
3.794871794871794712e+00 2.674933370586203285e-01 -6.955673965852587903e-02 -9.610449053205631920e-01
3.897435897435897356e+00 2.744793348948734169e-01 -7.119976234407804361e-02 -9.589524338879259480e-01
4.000000000000000000e+00 2.814429037990065496e-01 -7.282559568756613588e-02 -9.568094653171862474e-01
