0.000000000000000000e+00 3.886289836421807685e-09 -5.142406466731650602e-10 -1.000000000000000000e+00
1.435897435897435792e-01 1.156670484106314262e-01 -5.739295587287711609e-01 -8.106912277049128646e-01
2.871794871794871584e-01 2.716184680408770813e-01 -9.009910791098183491e-01 -3.382717708349702312e-01
4.307692307692307376e-01 4.259935385313702305e-01 -8.816686827894195666e-01 2.029251003180236324e-01
5.743589743589743168e-01 4.833835612433100004e-01 -6.109473159263717479e-01 6.269573181071828039e-01
7.179487179487178405e-01 4.004489818603683693e-01 -2.909633590518602153e-01 8.688937138580992148e-01
8.615384615384614753e-01 2.368897704791444458e-01 -8.020993319351875372e-02 9.682187182232975253e-01
1.005128205128205110e+00 9.397633893463494537e-02 -6.693484997254084412e-03 9.955515353291733982e-01
1.148717948717948634e+00 2.258327952310291986e-02 -5.115900503448725031e-03 9.997317692144400691e-01
1.292307692307692157e+00 4.169638867731052627e-03 -1.094690509227346648e-02 9.999313298847629650e-01
1.435897435897435681e+00 1.190553932220957990e-03 -7.065666887198654780e-03 9.999742921664912521e-01
1.579487179487179427e+00 -1.770369808625714501e-03 -2.517230312876345133e-03 9.999952472637373413e-01
1.723076923076922951e+00 -2.905028132630276590e-03 -1.388472707271996148e-03 9.999947983425802045e-01
1.866666666666666474e+00 -1.753510799130211881e-03 -5.282863677134241528e-04 9.999983121317163048e-01
2.010256410256410220e+00 -1.057043130523299332e-03 7.616852241113247768e-04 9.999991431719119639e-01
2.153846153846153744e+00 -9.953369387344518111e-04 9.959092288535809512e-04 9.999990000756988628e-01
2.297435897435897267e+00 -4.011400132964044758e-04 6.508503856061397018e-04 9.999997027412985684e-01
2.441025641025640791e+00 2.092065175686567448e-04 7.274368230110861812e-04 9.999997085731963109e-01
2.584615384615384315e+00 2.236106011578023120e-04 7.501905226824517620e-04 9.999996884969133415e-01
2.728205128205127838e+00 2.330960597502457861e-04 3.515821173889055310e-04 9.999999080805680451e-01
2.871794871794871362e+00 4.792538914381172391e-04 1.268381823810072633e-04 9.999998737167041796e-01
3.015384615384615330e+00 4.772692870878366854e-04 1.617325591717826507e-04 9.999998695785656810e-01
3.158974358974358854e+00 2.748808099499497988e-04 2.524127642790588585e-06 9.999999602142941590e-01
3.302564102564102377e+00 2.801242062038213554e-04 -2.140710407494745182e-04 9.999999353479588349e-01
3.446153846153845901e+00 3.100111922109071404e-04 -1.878955052467083924e-04 9.999999317273028376e-01
3.589743589743589425e+00 1.328217217727390234e-04 -1.468740400107905420e-04 9.999999789036098097e-01
3.733333333333332948e+00 2.683908982919001711e-05 -2.602522093492213771e-04 9.999999638631087429e-01
3.876923076923076472e+00 6.478526395104537109e-05 -2.701286229027724528e-04 9.999999593975231749e-01
4.020512820512820440e+00 1.741615860275980187e-06 -1.543846419979017577e-04 9.999999868897576638e-01
4.164102564102563520e+00 -1.211374414556447201e-04 -1.588641694508364079e-04 9.999999785423485665e-01
4.307692307692307487e+00 -1.065988276410079720e-04 -1.997689689262177311e-04 9.999999726862059957e-01
4.451282051282050567e+00 -7.868861201417362279e-05 -1.036357166296598086e-04 9.999999905055022564e-01
4.594871794871794535e+00 -1.511404051789230394e-04 -3.445972143413978013e-05 9.999999867901491202e-01
4.738461538461538503e+00 -1.730811380409759263e-04 -7.134959793844716596e-05 9.999999810626024610e-01
4.882051282051281582e+00 -1.072759602472762576e-04 -4.012705763907817953e-05 9.999999925222510244e-01
5.025641025641025550e+00 -1.115303134836757154e-04 4.967587206521015275e-05 9.999999915800866779e-01
5.169230769230768630e+00 -1.570566756708418493e-04 4.158299856459083353e-05 9.999999855622472289e-01
5.312820512820512597e+00 -1.009584044487865461e-04 2.040123199944772567e-05 9.999999938629526852e-01
5.456410256410255677e+00 -5.302920580921068061e-05 7.781443172805385753e-05 9.999999947936218936e-01
5.599999999999999645e+00 -8.849719942297295725e-05 1.076688703548428976e-04 9.999999891988765599e-01
