0.000000000000000000e+00 4.149079246754428939e-10 -1.812637556615751768e-09 -1.000000000000000000e+00
1.435897435897435792e-01 5.589665289782410618e-01 -6.697699815241060783e-02 -8.264770461868660156e-01
2.871794871794871584e-01 9.194355201032725633e-01 -6.472967401072765581e-02 -3.878615819373692486e-01
4.307692307692307376e-01 9.916618351502348716e-01 6.900926016081276870e-03 1.286318340095470303e-01
5.743589743589743168e-01 8.289677019990526752e-01 8.514936007168372178e-02 5.527674218392729655e-01
7.179487179487178405e-01 5.696541875324416804e-01 1.116230400940372847e-01 8.142652859968615431e-01
8.615384615384614753e-01 3.392257641174236116e-01 8.196557104819339468e-02 9.371254068547215654e-01
1.005128205128205110e+00 1.897488058061739258e-01 3.262863199327988017e-02 9.812894218738709151e-01
1.148717948717948634e+00 1.087026521085110581e-01 -3.673461096073901699e-03 9.940670035766668855e-01
1.292307692307692157e+00 6.438291891512640253e-02 -2.010083012054280499e-02 9.977224787360845504e-01
1.435897435897435681e+00 3.688473770785625355e-02 -2.483508262397928976e-02 9.990106577381985264e-01
1.579487179487179427e+00 1.932073350460170036e-02 -2.469378484911985416e-02 9.995081823349108996e-01
1.723076923076922951e+00 8.437433973213250699e-03 -2.190752554359457968e-02 9.997242739783183119e-01
1.866666666666666474e+00 1.405089889528544564e-03 -1.787674592684826425e-02 9.998391147630795173e-01
2.010256410256410220e+00 -3.093707374570352393e-03 -1.395911635815738280e-02 9.998977022555489702e-01
2.153846153846153744e+00 -5.501496378533853385e-03 -1.044474068563065391e-02 9.999302519602621953e-01
2.297435897435897267e+00 -6.589273268665229479e-03 -7.172980958018382314e-03 9.999525081006647165e-01
2.441025641025640791e+00 -7.015174822240486524e-03 -4.398897216090665030e-03 9.999656697823314788e-01
2.584615384615384315e+00 -6.863050107064032866e-03 -2.296355657390952362e-03 9.999737696040613688e-01
2.728205128205127838e+00 -6.221927425927491553e-03 -6.064223959863896361e-04 9.999804222910232410e-01
2.871794871794871362e+00 -5.449010272820088360e-03 7.928283047894098354e-04 9.999848063396911124e-01
3.015384615384615330e+00 -4.674385120890918455e-03 1.757577316551608027e-03 9.999874998138380544e-01
3.158974358974358854e+00 -3.781623984481336312e-03 2.350755857897114404e-03 9.999900589076214930e-01
3.302564102564102377e+00 -2.859368140503113637e-03 2.792949689130183339e-03 9.999919865678564834e-01
3.446153846153845901e+00 -2.085710324611747372e-03 3.072596467403678182e-03 9.999930809036513546e-01
3.589743589743589425e+00 -1.400923528952976137e-03 3.100576427464878451e-03 9.999941901144645540e-01
3.733333333333332948e+00 -7.064657272408162662e-04 3.006323910510193265e-03 9.999952114731734953e-01
3.876923076923076472e+00 -1.137735078878766761e-04 2.899962638254779176e-03 9.999957697301369297e-01
4.020512820512820440e+00 3.147756966396979619e-04 2.707013072959593529e-03 9.999962686230067233e-01
4.164102564102563520e+00 6.994085907550379828e-04 2.397994015815097576e-03 9.999968636980004488e-01
4.307692307692307487e+00 1.063218443361936029e-03 2.103168963746516931e-03 9.999972074375745867e-01
4.451282051282050567e+00 1.303917866753027347e-03 1.844442631724850122e-03 9.999974338178813094e-01
4.594871794871794535e+00 1.440695715725370980e-03 1.524570430020247324e-03 9.999977858886921478e-01
4.738461538461538503e+00 1.579467887462529443e-03 1.177431552954658241e-03 9.999980460940617322e-01
4.882051282051281582e+00 1.682596121063948107e-03 9.043752353173873347e-04 9.999981624924690893e-01
5.025641025641025550e+00 1.683327444918159910e-03 6.563713502444202662e-04 9.999983554248779161e-01
5.169230769230768630e+00 1.650459866953881468e-03 3.654895367689050233e-04 9.999985595392582027e-01
5.312820512820512597e+00 1.641352147210002870e-03 1.060018683712122753e-04 9.999986359750383524e-01
5.456410256410255677e+00 1.585197957096596850e-03 -7.176000056441042031e-05 9.999987299710058064e-01
5.599999999999999645e+00 1.463043050495482387e-03 -2.614346491494026932e-04 9.999988851642588328e-01
