0.000000000000000000e+00 2.761918647405255492e-09 1.191798847444802697e-09 -1.000000000000000000e+00
1.435897435897435792e-01 -5.480155008252288740e-01 4.586115635366962151e-02 -8.352037669120705443e-01
2.871794871794871584e-01 -9.077932566776272250e-01 6.295243346816095653e-02 -4.146423368057690073e-01
4.307692307692307376e-01 -9.945214031581991465e-01 5.449811636412288385e-02 8.907491142216547586e-02
5.743589743589743168e-01 -8.580572222619853306e-01 5.126002225488703046e-02 5.109712435291771104e-01
7.179487179487178405e-01 -6.271904208181606766e-01 7.689413636040831612e-02 7.750529162116270854e-01
8.615384615384614753e-01 -4.181199715415553353e-01 1.231510345391420846e-01 9.000009170144850357e-01
1.005128205128205110e+00 -2.774363094046030653e-01 1.610995313831578013e-01 9.471380475077046945e-01
1.148717948717948634e+00 -1.901382926621353331e-01 1.720558670781049126e-01 9.665608531409249915e-01
1.292307692307692157e+00 -1.254514998271554216e-01 1.622688306685581006e-01 9.787376258035890286e-01
1.435897435897435681e+00 -7.065065123561237170e-02 1.490730753129201058e-01 9.862976120142429304e-01
1.579487179487179427e+00 -2.984817787935784006e-02 1.400074408691355243e-01 9.896992678863206772e-01
1.723076923076922951e+00 -5.196301676066591990e-03 1.297293843560646809e-01 9.915347457188570246e-01
1.866666666666666474e+00 1.092629854053586702e-02 1.131706840124435398e-01 9.935145374749152491e-01
2.010256410256410220e+00 2.674615472980539782e-02 9.427888970514988753e-02 9.951856675925272455e-01
2.153846153846153744e+00 4.182645881106573232e-02 7.996488286437375415e-02 9.959190041726487808e-01
2.297435897435897267e+00 5.076538895831172321e-02 7.042180575236471618e-02 9.962239715796625816e-01
2.441025641025640791e+00 5.290176341657230885e-02 6.001046735974630703e-02 9.967942677170036347e-01
2.584615384615384315e+00 5.377436958193614752e-02 4.620459040057246780e-02 9.974829623032704928e-01
2.728205128205127838e+00 5.729409974948404538e-02 3.304009628093224765e-02 9.978099128833257669e-01
2.871794871794871362e+00 6.084656180715012491e-02 2.472239739336448694e-02 9.978403632686573266e-01
3.015384615384615330e+00 6.007296303319265701e-02 1.944306261026446797e-02 9.980040776498495525e-01
3.158974358974358854e+00 5.575549682689986963e-02 1.238179443948221603e-02 9.983671887911957921e-01
3.302564102564102377e+00 5.267802272289192483e-02 2.894343221763778090e-03 9.986069012261832301e-01
3.446153846153845901e+00 5.263845612963963250e-02 -4.852014834323736814e-03 9.986013949074096230e-01
3.589743589743589425e+00 5.216031024505633079e-02 -8.338040653062005203e-03 9.986034623019648393e-01
3.733333333333332948e+00 4.803652961924659986e-02 -1.041532627278583117e-02 9.987908521568560349e-01
3.876923076923076472e+00 4.220220601416631995e-02 -1.494014779396498835e-02 9.989969920601061704e-01
4.020512820512820440e+00 3.878619645734548288e-02 -2.109772137937017400e-02 9.990243992811727036e-01
4.164102564102563520e+00 3.799711226907601797e-02 -2.485535832352037816e-02 9.989682894521502154e-01
4.307692307692307487e+00 3.602462461367457458e-02 -2.513451564913934261e-02 9.990343938365511267e-01
4.451282051282050567e+00 3.089842335143612451e-02 -2.538436124911302993e-02 9.991997910084625678e-01
4.594871794871794535e+00 2.542469931782270418e-02 -2.837511539959294143e-02 9.992736211262728263e-01
4.738461538461538503e+00 2.291084218017085464e-02 -3.213366999833153909e-02 9.992206111433001858e-01
4.882051282051281582e+00 2.223858723347365424e-02 -3.306858159896853416e-02 9.992052930784861564e-01
5.025641025641025550e+00 1.967258822457483569e-02 -3.143663205501698310e-02 9.993118007485750631e-01
5.169230769230768630e+00 1.453959740632594991e-02 -3.091246662590178829e-02 9.994160365269931789e-01
5.312820512820512597e+00 1.019228583746667818e-02 -3.304355273076291927e-02 9.994016352604271347e-01
5.456410256410255677e+00 8.898697082959105414e-03 -3.501155645315663645e-02 9.993469703467773302e-01
5.599999999999999645e+00 8.463911037059946435e-03 -3.398489817595570783e-02 9.993861964157690903e-01
