0.000000000000000000e+00 -2.471815488912257903e-12 -1.165185654718352435e-12 -1.000000000000000000e+00
1.435897435897435792e-01 -5.153639074032412282e-01 -2.323375033013707069e-01 -8.248753405928878069e-01
2.871794871794871584e-01 -8.688215355100544768e-01 -3.315607626719668799e-01 -3.677180987120327038e-01
4.307692307692307376e-01 -9.556309692765465602e-01 -2.222258131857405561e-01 1.933523693947090949e-01
5.743589743589743168e-01 -7.645968839567077735e-01 7.943594651759983138e-02 6.395948213801704307e-01
7.179487179487178405e-01 -3.805577953170120042e-01 4.693382132046056698e-01 7.968044966375559257e-01
8.615384615384614753e-01 4.767894805078207870e-02 7.961236841147534271e-01 6.032526812563394625e-01
1.005128205128205110e+00 3.619413246901664327e-01 9.225173727024341686e-01 1.340155784048795706e-01
1.148717948717948634e+00 4.517014310040131653e-01 7.828874395259093344e-01 -4.278470216185377706e-01
1.292307692307692157e+00 2.926314358497690282e-01 4.135365917349432263e-01 -8.621799881310919789e-01
1.435897435897435681e+00 -4.707692143849127181e-02 -5.719425175948387313e-02 -9.972525160911993591e-01
1.579487179487179427e+00 -4.344013886384687773e-01 -4.560348350172574450e-01 -7.767416957850111769e-01
1.723076923076922951e+00 -7.223933068102154076e-01 -6.312985821565677558e-01 -2.821524300620359416e-01
1.866666666666666474e+00 -8.050599861711587035e-01 -5.128192178625212705e-01 2.981524271844016027e-01
2.010256410256410220e+00 -6.558676742142147686e-01 -1.415143409554939780e-01 7.414926063454853056e-01
2.153846153846153744e+00 -3.358492719167540108e-01 3.437633767135360729e-01 8.769446999995007541e-01
2.297435897435897267e+00 3.112077459765560244e-02 7.578260725158958433e-01 6.517140021070225719e-01
2.441025641025640791e+00 3.060782260308451130e-01 9.397921845153860421e-01 1.520091093344764777e-01
2.584615384615384315e+00 3.874694498325069181e-01 8.155813456388255611e-01 -4.297609749292690684e-01
2.728205128205127838e+00 2.486615987666616345e-01 4.278215680112433250e-01 -8.689856825237971538e-01
2.871794871794871362e+00 -5.337528429533359986e-02 -7.893750412653528781e-02 -9.954496217632536892e-01
3.015384615384615330e+00 -4.010179431813080120e-01 -5.126264283351962270e-01 -7.592092812385843326e-01
3.158974358974358854e+00 -6.614125701878895702e-01 -7.070741030572874619e-01 -2.501591980511050362e-01
3.302564102564102377e+00 -7.369476088297700622e-01 -5.863248189575258618e-01 3.363501595455379856e-01
3.446153846153845901e+00 -6.016192197592534763e-01 -1.948050157393240722e-01 7.746646358049530390e-01
3.589743589743589425e+00 -3.097928201392610714e-01 3.186173931847233187e-01 8.958299871445701834e-01
3.733333333333332948e+00 2.557968383902100434e-02 7.570177797965179645e-01 6.528933801841181328e-01
3.876923076923076472e+00 2.766334457932779767e-01 9.508372802686431147e-01 1.392207104577672938e-01
4.020512820512820440e+00 3.493039816741705383e-01 8.233632846518177395e-01 -4.472802506859565042e-01
4.164102564102563520e+00 2.185884892059809514e-01 4.209555722930499178e-01 -8.803496324630433190e-01
4.307692307692307487e+00 -6.285894058315667776e-02 -1.039466551409323342e-01 -9.925945061673502323e-01
4.451282051282050567e+00 -3.857313745415928419e-01 -5.508211727843851380e-01 -7.401400754527571735e-01
4.594871794871794535e+00 -6.263289783554585322e-01 -7.479571797454593884e-01 -2.197090056423718352e-01
4.738461538461538503e+00 -6.937888619040847304e-01 -6.187557896432605009e-01 3.685082059607461824e-01
4.882051282051281582e+00 -5.642760019285023576e-01 -2.117518051916417732e-01 7.979685458072078852e-01
5.025641025641025550e+00 -2.892772622195546872e-01 3.174008064817579466e-01 9.030921218984129251e-01
5.169230769230768630e+00 2.484693760284919367e-02 7.652940792404904213e-01 6.432009843769362911e-01
5.312820512820512597e+00 2.579870875316900292e-01 9.588720352627249088e-01 1.183514989645589460e-01
5.456410256410255677e+00 3.222214599634727894e-01 8.222147043970523539e-01 -4.691868140465678128e-01
5.599999999999999645e+00 1.949688252519551357e-01 4.061989033417219286e-01 -8.927427353717370950e-01
