0.000000000000000000e+00 3.600278966629852009e-09 1.760244606984294054e-09 -1.000000000000000000e+00
1.435897435897435792e-01 -1.534711932652219057e-01 -5.277945583181529177e-01 -8.353886966879426890e-01
2.871794871794871584e-01 -2.155953042187304103e-01 -8.830483398651483018e-01 -4.168144218701255177e-01
4.307692307692307376e-01 -1.698483932051019774e-01 -9.819715323270579166e-01 8.289763699217578274e-02
5.743589743589743168e-01 -7.544386841062350468e-02 -8.604069144998239826e-01 5.039829343911413906e-01
7.179487179487178405e-01 -3.666745344837699094e-03 -6.310193182214870466e-01 7.757544986578585045e-01
8.615384615384614753e-01 1.781773805978659198e-02 -4.054572505967195539e-01 9.139383462316212903e-01
1.005128205128205110e+00 5.755839113819521957e-03 -2.410669950782991788e-01 9.704903686433938859e-01
1.148717948717948634e+00 -1.264226890825972428e-02 -1.403894019230297052e-01 9.900150689334161758e-01
1.292307692307692157e+00 -2.380387111744194234e-02 -8.226879012970469973e-02 9.963255061907878574e-01
1.435897435897435681e+00 -2.731261761248909500e-02 -4.773033563483849995e-02 9.984865400955609260e-01
1.579487179487179427e+00 -2.635646935052752410e-02 -2.642461383583061957e-02 9.993031327818907572e-01
1.723076923076922951e+00 -2.318735679698686117e-02 -1.308514485280079173e-02 9.996453806952007026e-01
1.866666666666666474e+00 -1.917889863086374991e-02 -4.673226718552024248e-03 9.998050556574441528e-01
2.010256410256410220e+00 -1.516084282698301755e-02 5.247908782960788998e-04 9.998848585266006950e-01
2.153846153846153744e+00 -1.145879833176205280e-02 3.546512404063076329e-03 9.999279985357508727e-01
2.297435897435897267e+00 -8.205462333441632117e-03 5.151434373351328894e-03 9.999530175513418051e-01
2.441025641025640791e+00 -5.497991811495274439e-03 5.824005885654000812e-03 9.999678856388134474e-01
2.584615384615384315e+00 -3.302570074129045248e-03 5.859742709988344407e-03 9.999773434700937047e-01
2.728205128205127838e+00 -1.552229278583284501e-03 5.511109331342786688e-03 9.999835791324419576e-01
2.871794871794871362e+00 -2.157386121388127700e-04 4.948009488548187756e-03 9.999877089900329752e-01
3.015384615384615330e+00 7.615164513523849966e-04 4.257264530052672948e-03 9.999906245562423246e-01
3.158974358974358854e+00 1.462190626300769423e-03 3.513241747676456618e-03 9.999927387652667310e-01
3.302564102564102377e+00 1.927595116485993423e-03 2.791725306676770026e-03 9.999942265492561821e-01
3.446153846153845901e+00 2.190933719247649229e-03 2.104348484663024366e-03 9.999953687511979883e-01
3.589743589743589425e+00 2.310047520396739992e-03 1.469781716031289464e-03 9.999962362461899401e-01
3.733333333333332948e+00 2.322696986122080223e-03 9.097045530698621551e-04 9.999968745421011773e-01
3.876923076923076472e+00 2.236656807146779162e-03 4.305788767686117430e-04 9.999973928647661880e-01
4.020512820512820440e+00 2.083008777311831129e-03 1.651794220264377749e-05 9.999978183026525524e-01
4.164102564102563520e+00 1.901721396199555249e-03 -3.257863139819055804e-04 9.999981273527376313e-01
4.307692307692307487e+00 1.683659050265999156e-03 -5.928939540029980627e-04 9.999983963274042820e-01
4.451282051282050567e+00 1.446748357914500425e-03 -8.050786980724660216e-04 9.999986195161426616e-01
4.594871794871794535e+00 1.213374376979668105e-03 -9.662616845591999589e-04 9.999987877205622766e-01
4.738461538461538503e+00 9.800946487336175371e-04 -1.070435630218289887e-03 9.999989380167915165e-01
4.882051282051281582e+00 7.480363874876253113e-04 -1.131718871050645548e-03 9.999990715636282168e-01
5.025641025641025550e+00 5.370626349435176196e-04 -1.163544574478139618e-03 9.999991710098019571e-01
5.169230769230768630e+00 3.430953480042334700e-04 -1.161410188001473420e-03 9.999992592407024317e-01
5.312820512820512597e+00 1.599988339662954985e-04 -1.129963366974884613e-03 9.999993417179853239e-01
5.456410256410255677e+00 -2.701409598163410832e-06 -1.083938492922723040e-03 9.999994057812229276e-01
5.599999999999999645e+00 -1.437156812016550226e-04 -1.022280966179714336e-03 9.999994606798502383e-01
