0.000000000000000000e+00 -1.693815863398030259e-09 -1.797563582005033660e-09 -1.000000000000000000e+00
1.435897435897435792e-01 -3.522959651007019910e-01 4.389097068316102912e-01 -8.265842718975919823e-01
2.871794871794871584e-01 -6.874055733293469306e-01 6.132153312319552629e-01 -3.891428906871763349e-01
4.307692307692307376e-01 -8.953629395054079065e-01 4.275438009627429703e-01 1.245882550452438869e-01
5.743589743589743168e-01 -8.369160049862818251e-01 3.072738888375003974e-02 5.464614210875021749e-01
7.179487179487178405e-01 -5.133850324301086898e-01 -2.872777408313925696e-01 8.086424993828355001e-01
8.615384615384614753e-01 -1.249353547118084995e-01 -3.329064032857067534e-01 9.346453726122065930e-01
1.005128205128205110e+00 9.488628502842619272e-02 -1.650258511874293788e-01 9.817136962760610874e-01
1.148717948717948634e+00 9.431595512244753121e-02 3.937617847989998560e-03 9.955342106893002585e-01
1.292307692307692157e+00 1.022077796328550031e-02 4.562414852647570657e-02 9.989062258974681363e-01
1.435897435897435681e+00 -2.350461202212588557e-02 7.583906838151221672e-03 9.996948724139355091e-01
1.579487179487179427e+00 -4.038297433073978308e-03 -1.351565561700465712e-02 9.999004504903203916e-01
1.723076923076922951e+00 8.528013066755839658e-03 -1.667738099602680477e-03 9.999622100043354944e-01
1.866666666666666474e+00 2.690632947131960627e-04 5.687370070611002040e-03 9.999837665605236792e-01
2.010256410256410220e+00 -3.892685961270118088e-03 -5.422018578266655717e-04 9.999922592501152563e-01
2.153846153846153744e+00 9.623863848442373945e-04 -2.661075055099882715e-03 9.999959833918334873e-01
2.297435897435897267e+00 1.761623237552515341e-03 1.155049189073901507e-03 9.999977713996623940e-01
2.441025641025640791e+00 -1.198202938539974245e-03 1.093125145025789034e-03 9.999986768883513122e-01
2.584615384615384315e+00 -5.864866485368497610e-04 -1.135448843537208456e-03 9.999991771008291952e-01
2.728205128205127838e+00 1.003698306140003021e-03 -2.037372286160113802e-04 9.999994703906508464e-01
2.871794871794871362e+00 -7.255622361281434222e-05 8.380493821795860455e-04 9.999996418795710218e-01
3.015384615384615330e+00 -6.475899171133862745e-04 -2.596528324907932338e-04 9.999997529433165555e-01
3.158974358974358854e+00 3.766485734809228952e-04 -4.567279967509119305e-04 9.999998216073948676e-01
3.302564102564102377e+00 2.692088774199452410e-04 4.235184507861920180e-04 9.999998713649072002e-01
3.446153846153845901e+00 -4.204389283210083639e-04 1.048162008961710712e-04 9.999999037384242895e-01
3.589743589743589425e+00 2.955980512795973740e-05 -3.778162747232541850e-04 9.999999260865817252e-01
3.733333333333332948e+00 3.024968335239405955e-04 1.333393765153108236e-04 9.999999435008377624e-01
3.876923076923076472e+00 -2.018885404458020455e-04 2.147462410576338220e-04 9.999999548856893794e-01
4.020512820512820440e+00 -1.164399204670189179e-04 -2.335920447304633610e-04 9.999999644354276018e-01
4.164102564102563520e+00 2.345989721152882566e-04 -2.429118839664039871e-05 9.999999708211019245e-01
4.307692307692307487e+00 -5.267262032231773659e-05 2.047791405303399002e-04 9.999999764093022714e-01
4.451282051282050567e+00 -1.562685688477466733e-04 -1.081010385330561274e-04 9.999999808205348728e-01
4.594871794871794535e+00 1.439788665301872681e-04 -9.844132990136894687e-05 9.999999837425846971e-01
4.738461538461538503e+00 3.610956825161293587e-05 1.535287747033156831e-04 9.999999866129820614e-01
4.882051282051281582e+00 -1.435050656261497399e-04 -1.967066539471971714e-05 9.999999886294829166e-01
5.025641025641025550e+00 6.515890154571048328e-05 -1.203758143258742817e-04 9.999999897915706759e-01
5.169230769230768630e+00 7.957559125746022435e-05 9.833756220369709326e-05 9.999999912156024573e-01
5.312820512820512597e+00 -1.099806323640703016e-04 3.307049543193838761e-05 9.999999926884851620e-01
5.456410256410255677e+00 1.142335456388414168e-05 -1.057311065376658908e-04 9.999999936735652906e-01
5.599999999999999645e+00 8.651679305551918683e-05 4.688358435186527467e-05 9.999999945293287507e-01
