0.000000000000000000e+00 -3.970282056348094106e-10 -1.782412958406505002e-09 -1.000000000000000000e+00
1.435897435897435792e-01 1.493366169732013304e-01 5.614865367804765528e-01 -8.138949009443861016e-01
2.871794871794871584e-01 1.229119920655516868e-01 9.295078554006174221e-01 -3.477005723083000932e-01
4.307692307692307376e-01 -8.783489147748407833e-02 9.777721911760409723e-01 1.903509322295368345e-01
5.743589743589743168e-01 -3.169269453577059359e-01 7.208468223358506233e-01 6.163826156936231815e-01
7.179487179487178405e-01 -3.836526128233390676e-01 3.296482023201413591e-01 8.626339015119417475e-01
8.615384615384614753e-01 -2.599321805379825046e-01 2.646469485714937619e-02 9.652628162584137028e-01
1.005128205128205110e+00 -7.658590417189929667e-02 -7.621392103871929558e-02 9.941453621277147601e-01
1.148717948717948634e+00 2.538543141118751109e-02 -3.690507290302268151e-02 9.989960686747202390e-01
1.292307692307692157e+00 2.409043004749761296e-02 1.460165775184988843e-02 9.996029948989387792e-01
1.435897435897435681e+00 -6.447141205012081946e-03 1.546895813216792731e-02 9.998594709196546582e-01
1.579487179487179427e+00 -9.504993924433975325e-03 -5.382944382235264023e-03 9.999402751335120243e-01
1.723076923076922951e+00 4.219411006774836936e-03 -8.044368315940637892e-03 9.999586883618540867e-01
1.866666666666666474e+00 5.735464627189114026e-03 2.512909133056489674e-03 9.999803565224321122e-01
2.010256410256410220e+00 -2.720882287936010526e-03 4.043089231984758371e-03 9.999880945626063999e-01
2.153846153846153744e+00 -3.822340626330046013e-03 -2.431977141698889264e-03 9.999897090033160740e-01
2.297435897435897267e+00 1.666105986655540445e-03 -2.938466200100885335e-03 9.999942727425619182e-01
2.441025641025640791e+00 2.094755234181264018e-03 1.845214552901022461e-03 9.999960850167373128e-01
2.584615384615384315e+00 -1.857728686745233060e-03 2.088415421572773368e-03 9.999960750904564044e-01
2.728205128205127838e+00 -1.746048568878046060e-03 -1.372007427447594421e-03 9.999975193374092131e-01
2.871794871794871362e+00 1.410945647265143647e-03 -1.163253397796719553e-03 9.999983153196932983e-01
3.015384615384615330e+00 1.135821938415595197e-03 1.563913396914506145e-03 9.999981186800831479e-01
3.158974358974358854e+00 -1.250314708703894164e-03 1.073064520634156539e-03 9.999986310355806207e-01
3.302564102564102377e+00 -6.515736274232818582e-04 -1.145072699746894993e-03 9.999991226272577638e-01
3.446153846153845901e+00 1.319570593051998513e-03 -5.245144777241303414e-04 9.999989816590578728e-01
3.589743589743589425e+00 5.861566064499907063e-04 1.180775732814589403e-03 9.999991215804489020e-01
3.733333333333332948e+00 -9.662735478355249062e-04 3.366683814515680144e-04 9.999994689065075937e-01
3.876923076923076472e+00 -1.113190264434058647e-04 -1.070973846027680875e-03 9.999994123791536849e-01
4.020512820512820440e+00 1.081784198227708250e-03 -1.767532246190082687e-04 9.999993911988573903e-01
4.164102564102563520e+00 1.080688066200520656e-04 8.580126405359979509e-04 9.999996195547754541e-01
4.307692307692307487e+00 -8.216164276926277892e-04 -1.378168413045965685e-04 9.999996466800177286e-01
4.451282051282050567e+00 1.647219960108548984e-04 -9.099278860958606848e-04 9.999995655310621734e-01
4.594871794871794535e+00 7.688615584390983727e-04 1.117022214236956719e-04 9.999996922654290632e-01
4.738461538461538503e+00 -2.699252252045437764e-04 6.112506060773255107e-04 9.999997715804441745e-01
4.882051282051281582e+00 -6.591667290105089529e-04 -3.995564022575094415e-04 9.999996970508472360e-01
5.025641025641025550e+00 3.232573390970944508e-04 -6.391935657447769033e-04 9.999997379649910867e-01
5.169230769230768630e+00 4.518510751573233115e-04 3.439568275773573084e-04 9.999998342876789126e-01
5.312820512820512597e+00 -4.995186703336278091e-04 3.886912211695369313e-04 9.999997947764387440e-01
5.456410256410255677e+00 -4.352799638577247582e-04 -5.004903610187237326e-04 9.999997748872240244e-01
5.599999999999999645e+00 4.150626782904825963e-04 -3.210982834124484790e-04 9.999998581344921034e-01
