0.000000000000000000e+00 2.291070247372374454e-09 -2.745086754021971214e-09 -1.000000000000000000e+00
1.435897435897435792e-01 4.657501709835967230e-01 3.165876297781055615e-01 -8.263415506900428920e-01
2.871794871794871584e-01 7.446550967240411767e-01 5.443528063876517109e-01 -3.862022897980343927e-01
4.307692307692307376e-01 7.694901308285444497e-01 6.244681564463221424e-01 1.338139491830815653e-01
5.743589743589743168e-01 6.153727488337419338e-01 5.541404747418051668e-01 5.605625823594551083e-01
7.179487179487178405e-01 4.186307080370468281e-01 3.900097529889414716e-01 8.201413769907509588e-01
8.615384615384614753e-01 2.739802916602168681e-01 2.152687810291813719e-01 9.373309114070234038e-01
1.005128205128205110e+00 1.952014015273149383e-01 8.952407673555631828e-02 9.766672740430308863e-01
1.148717948717948634e+00 1.499319298002480816e-01 2.257048674836081847e-02 9.884376456410363110e-01
1.292307692307692157e+00 1.118823811844013305e-01 -9.201658907907531854e-03 9.936781011248283502e-01
1.435897435897435681e+00 7.834731459541383058e-02 -2.836391242028379542e-02 9.965219854860900561e-01
1.579487179487179427e+00 5.440729971699452550e-02 -4.064417168548369735e-02 9.976908222187714781e-01
1.723076923076922951e+00 3.803943154253897063e-02 -4.427384906445250290e-02 9.982945592542314950e-01
1.866666666666666474e+00 2.352141658976471955e-02 -4.194085360605921686e-02 9.988428501165005358e-01
2.010256410256410220e+00 1.009150851988058206e-02 -3.917599487446707385e-02 9.991810818254061033e-01
2.153846153846153744e+00 7.290794832436435502e-04 -3.719427110744621262e-02 9.993075235064567963e-01
2.297435897435897267e+00 -4.529295118793094307e-03 -3.342645695867476480e-02 9.994306756240578515e-01
2.441025641025640791e+00 -8.919518675834209320e-03 -2.752454257881488051e-02 9.995811235304600251e-01
2.584615384615384315e+00 -1.369095194967403367e-02 -2.227523085989528695e-02 9.996579360431352423e-01
2.728205128205127838e+00 -1.685691402890259621e-02 -1.892293328383566273e-02 9.996786458898797578e-01
2.871794871794871362e+00 -1.742757981547846807e-02 -1.556219211821131820e-02 9.997268387695926739e-01
3.015384615384615330e+00 -1.736046296057399893e-02 -1.091857666946609295e-02 9.997895236239426886e-01
3.158974358974358854e+00 -1.823578600332841082e-02 -6.569560085341624722e-03 9.998119848003530485e-01
3.302564102564102377e+00 -1.885057268953942503e-02 -4.034238195863832852e-03 9.998140278217151344e-01
3.446153846153845901e+00 -1.774921197238863921e-02 -2.186843805973113716e-03 9.998399430586399905e-01
3.589743589743589425e+00 -1.592774496046715782e-02 5.881840033741118131e-04 9.998728500351530268e-01
3.733333333333332948e+00 -1.509114550149183963e-02 3.589970227484745938e-03 9.998795579306007930e-01
3.876923076923076472e+00 -1.477179559267081076e-02 5.193748965105408552e-03 9.998772815401554270e-01
4.020512820512820440e+00 -1.337386121060207995e-02 5.774369228734315893e-03 9.998937797740528044e-01
4.164102564102563520e+00 -1.111270773692045466e-02 6.967753164117906906e-03 9.999138725858838228e-01
4.307692307692307487e+00 -9.600319104581690050e-03 8.794844657050514269e-03 9.999151364723277702e-01
4.451282051282050567e+00 -9.015699552965501795e-03 9.740544951028461129e-03 9.999118116678928914e-01
4.594871794871794535e+00 -7.902769772484510846e-03 9.524348002449674333e-03 9.999233158884672790e-01
4.738461538461538503e+00 -5.830923258029531778e-03 9.581175763731592659e-03 9.999370092302917179e-01
4.882051282051281582e+00 -4.147186081536823055e-03 1.048813929749161170e-02 9.999363080318904862e-01
5.025641025641025550e+00 -3.542028858197644910e-03 1.103837211202525134e-02 9.999327098581962669e-01
5.169230769230768630e+00 -2.882714231563293043e-03 1.044115854520193641e-02 9.999412477070607208e-01
5.312820512820512597e+00 -1.279131745136131374e-03 9.767318871724880308e-03 9.999514008730062686e-01
5.456410256410255677e+00 3.210366646283274381e-04 9.991625028366131131e-03 9.999499503109778864e-01
5.599999999999999645e+00 8.859628219662972308e-04 1.030872746176096991e-02 9.999463879414288714e-01
