0.000000000000000000e+00 2.029309068942709413e-09 1.370110301017244828e-09 -1.000000000000000000e+00
1.435897435897435792e-01 5.771451008630679169e-01 6.474375389833611494e-02 -8.140683818233583890e-01
2.871794871794871584e-01 9.177117137504675615e-01 1.881813718540831237e-01 -3.498350878726395052e-01
4.307692307692307376e-01 9.225942621662324150e-01 3.393584541128779053e-01 1.834305710913371468e-01
5.743589743589743168e-01 6.751333909341257211e-01 4.221027470071582188e-01 6.049938564919226103e-01
7.179487179487178405e-01 3.617951400724318534e-01 3.801149694950039515e-01 8.512420123748564160e-01
8.615384615384614753e-01 1.347548273073253533e-01 2.525531561202912223e-01 9.581524380723888124e-01
1.005128205128205110e+00 3.241070468747220962e-02 1.243650710130894260e-01 9.917066322926996191e-01
1.148717948717948634e+00 8.169888403346644429e-03 4.643997243623011056e-02 9.988875116781729124e-01
1.292307692307692157e+00 7.055554662706933940e-03 1.472355658805467489e-02 9.998666484609129990e-01
1.435897435897435681e+00 5.902218559422754522e-03 4.490963566981033030e-03 9.999724673410290698e-01
1.579487179487179427e+00 3.638531266307039325e-03 6.382956137294328210e-04 9.999931609120834564e-01
1.723076923076922951e+00 2.037030653643764119e-03 -8.002501597188446669e-04 9.999975950626311949e-01
1.866666666666666474e+00 9.343118599579459515e-04 -1.008327939208747718e-03 9.999990486133939482e-01
2.010256410256410220e+00 2.000177110791889453e-04 -8.903071996010955384e-04 9.999995791298299519e-01
2.153846153846153744e+00 -1.353619377235288387e-04 -6.603925448615485545e-04 9.999997693104843988e-01
2.297435897435897267e+00 -2.858889249161638245e-04 -3.728496731527410893e-04 9.999998871224040631e-01
2.441025641025640791e+00 -3.355025452180285489e-04 -1.713141889382163838e-04 9.999999270033829157e-01
2.584615384615384315e+00 -2.868320581841935684e-04 -3.367912758677979197e-05 9.999999566870628742e-01
2.728205128205127838e+00 -2.158564122715334011e-04 7.610952437935494656e-05 9.999999725067341139e-01
2.871794871794871362e+00 -1.531252113743523154e-04 1.225080131649155417e-04 9.999999796363211457e-01
3.015384615384615330e+00 -7.937098805545893677e-05 1.299315439997922750e-04 9.999999875020879614e-01
3.158974358974358854e+00 -2.216922832358705800e-05 1.322067820054214921e-04 9.999999902021295961e-01
3.302564102564102377e+00 1.351167642662001159e-05 1.154375060162821250e-04 9.999999925267192280e-01
3.446153846153845901e+00 4.403682790093201737e-05 8.216895596619796962e-05 9.999999950720291908e-01
3.589743589743589425e+00 6.253003952267408678e-05 5.772789468817882667e-05 9.999999958412542078e-01
3.733333333333332948e+00 6.371750576211570021e-05 3.247885721207849054e-05 9.999999969857528148e-01
3.876923076923076472e+00 6.380261624218438034e-05 7.150029691884595860e-06 9.999999975296580690e-01
4.020512820512820440e+00 5.783260436550792045e-05 -7.705301256783748628e-06 9.999999979172352615e-01
4.164102564102563520e+00 4.397064957461021363e-05 -1.991781610617142072e-05 9.999999985125207491e-01
4.307692307692307487e+00 3.399419831127902626e-05 -3.058281972866381979e-05 9.999999986533840701e-01
4.451282051282050567e+00 2.757461831990633402e-05 -3.303146719889430018e-05 9.999999987875111129e-01
4.594871794871794535e+00 1.266002701071550679e-05 -3.087142608816522175e-05 9.999999992121217929e-01
4.738461538461538503e+00 3.387166864621011120e-06 -3.286831225790995642e-05 9.999999992234783752e-01
4.882051282051281582e+00 -5.361653579529430437e-07 -3.236043917931776540e-05 9.999999992515913316e-01
5.025641025641025550e+00 -8.712024492906733620e-06 -2.366716012758565219e-05 9.999999995029253963e-01
5.169230769230768630e+00 -1.512938947601461120e-05 -2.253937174701757407e-05 9.999999994373417467e-01
5.312820512820512597e+00 -1.321076539408753857e-05 -1.463147153541009289e-05 9.999999996588071483e-01
5.456410256410255677e+00 -2.054099886018502082e-05 -1.058958692315057991e-05 9.999999995636695838e-01
5.599999999999999645e+00 -2.144253531923634930e-05 -6.415131454210081706e-06 9.999999995868938951e-01
