0.000000000000000000e+00 1.240432848929063225e-09 -2.181934700123770188e-09 -1.000000000000000000e+00
1.435897435897435792e-01 5.289618136596138109e-01 1.976564113986891413e-01 -8.252907816866655866e-01
2.871794871794871584e-01 8.371911087485237601e-01 3.998737609873950216e-01 -3.730434187002729662e-01
4.307692307692307376e-01 7.978730217936418345e-01 5.765857897525024089e-01 1.757627306521417909e-01
5.743589743589743168e-01 4.318195127525931154e-01 6.576605873564127513e-01 6.172308749162719321e-01
7.179487179487178405e-01 -1.022349863527930586e-01 5.657035736872926268e-01 8.182300506675014296e-01
8.615384615384614753e-01 -5.769603204305222555e-01 2.703522006489189611e-01 7.707111469547894833e-01
1.005128205128205110e+00 -7.955564403311311539e-01 -1.704044819465675153e-01 5.813861709820384860e-01
1.148717948717948634e+00 -6.778509860301913381e-01 -6.130761598022889114e-01 4.057167365974655437e-01
1.292307692307692157e+00 -2.948796637450293301e-01 -8.836722031505562791e-01 3.634811038209051492e-01
1.435897435897435681e+00 1.641604208399876086e-01 -8.612938781379024800e-01 4.808090666826437265e-01
1.579487179487179427e+00 4.785521295726695712e-01 -5.467180394341115690e-01 6.870594988575609019e-01
1.723076923076922951e+00 4.976159791359789919e-01 -7.555116421063454157e-02 8.640876006171311907e-01
1.866666666666666474e+00 2.104467131240477518e-01 3.376291273009351945e-01 9.174428553320059798e-01
2.010256410256410220e+00 -2.493578042657403626e-01 5.005765478520655121e-01 8.289859174007820908e-01
2.153846153846153744e+00 -6.669963431047346569e-01 3.399732336568428437e-01 6.629450230043789638e-01
2.297435897435897267e+00 -8.492605542640880856e-01 -5.774338881904639287e-02 5.247639240480835854e-01
2.441025641025640791e+00 -7.177338032329356743e-01 -4.861259735257249526e-01 4.984912995791072610e-01
2.584615384615384315e+00 -3.468870235415287273e-01 -7.214566659019737704e-01 5.992730730648072601e-01
2.728205128205127838e+00 7.246114933075370468e-02 -6.370593302484305331e-01 7.673810933755450536e-01
2.871794871794871362e+00 3.275224537442805728e-01 -2.697248946315694562e-01 9.055157622758255309e-01
3.015384615384615330e+00 2.896467112916616404e-01 1.978198546539911007e-01 9.364598516756402757e-01
3.158974358974358854e+00 -2.113021866546355154e-02 5.307168970390786500e-01 8.472712412119511871e-01
3.302564102564102377e+00 -4.458793855114526195e-01 5.639723838746777407e-01 6.950472927651195620e-01
3.446153846153845901e+00 -7.675742052819336525e-01 2.890746818030971999e-01 5.720339527405817748e-01
3.589743589743589425e+00 -8.222271317636593579e-01 -1.413373416181322728e-01 5.512916143058368412e-01
3.733333333333332948e+00 -5.835630313038654426e-01 -4.936819148042398964e-01 6.447428566699748842e-01
3.876923076923076472e+00 -1.770720840187340606e-01 -5.766736074825767888e-01 7.975363813593142615e-01
4.020512820512820440e+00 1.847461924370238373e-01 -3.424319522160562124e-01 9.211906811251960869e-01
4.164102564102563520e+00 3.131363036009979228e-01 8.842667670217255194e-02 9.455752574031166535e-01
4.307692307692307487e+00 1.420427118028378954e-01 4.913172098723900261e-01 8.593066013182709684e-01
4.451282051282050567e+00 -2.365659013365022378e-01 6.574115910130310381e-01 7.154102851281372022e-01
4.594871794871794535e+00 -6.207249853175513810e-01 5.051545357120038604e-01 5.995647865062904147e-01
4.738461538461538503e+00 -8.052519366167991688e-01 1.233618938924039982e-01 5.799212899106183094e-01
4.882051282051281582e+00 -6.908692776293339222e-01 -2.769788559746692025e-01 6.677908945026594933e-01
5.025641025641025550e+00 -3.375567195946229671e-01 -4.763750856384627586e-01 8.118464444314849038e-01
5.169230769230768630e+00 6.694065855465622383e-02 -3.647681801804981139e-01 9.286802968308857098e-01
5.312820512820512597e+00 3.073619313517625962e-01 -2.582088178823133129e-04 9.515858394365435124e-01
5.456410256410255677e+00 2.564039207897957362e-01 4.230382945500628100e-01 8.690645068204676527e-01
5.599999999999999645e+00 -5.634216316420374848e-02 6.801314109321170420e-01 7.308988549226065334e-01
