0.000000000000000000e+00 3.071939086724116539e-09 1.745085097924411222e-09 -1.000000000000000000e+00
1.435897435897435792e-01 6.091400727934348502e-02 5.842823915178059213e-01 -8.092554282667190346e-01
2.871794871794871584e-01 1.619563293806419724e-02 9.436014206539757865e-01 -3.306612160321435456e-01
4.307692307692307376e-01 -1.271483788625332734e-01 9.667688447762595727e-01 2.217505028688210589e-01
5.743589743589743168e-01 -2.547162055524840873e-01 7.114392766641555177e-01 6.549511963974423701e-01
7.179487179487178405e-01 -2.600022471305876159e-01 3.608656783930478396e-01 8.956384668980039709e-01
8.615384615384614753e-01 -1.467437385470179712e-01 1.006051633853141114e-01 9.840439472873191429e-01
1.005128205128205110e+00 -1.449485768008873521e-02 2.957715769638588621e-03 9.998904541194063578e-01
1.148717948717948634e+00 4.670800929609216640e-02 1.153806480111449484e-02 9.988416097347927458e-01
1.292307692307692157e+00 3.359584906153441353e-02 2.909455318334912971e-02 9.990116118019463087e-01
1.435897435897435681e+00 4.838026406789803710e-03 1.267216057471174870e-02 9.999078939267720401e-01
1.579487179487179427e+00 2.025780573467752047e-03 -1.369487268820538013e-02 9.999040598359537624e-01
1.723076923076922951e+00 1.443320785395551739e-02 -1.806079147893860024e-02 9.997325371995963161e-01
1.866666666666666474e+00 1.411219514172168225e-02 -5.261488696551458802e-03 9.998864576496623302e-01
2.010256410256410220e+00 -2.962188165120686802e-04 -4.145353179015937766e-05 9.999999516751156836e-01
2.153846153846153744e+00 -8.676920747900830969e-03 -8.189521033399163596e-03 9.999287235875887747e-01
2.297435897435897267e+00 -3.321984761366695432e-03 -1.340247588890056997e-02 9.999045560029464763e-01
2.441025641025640791e+00 2.268690031722552826e-03 -6.507738406790744209e-03 9.999761925423900077e-01
2.584615384615384315e+00 -2.411900212195637171e-03 1.842184344994665397e-03 9.999953663950523763e-01
2.728205128205127838e+00 -9.593674520088869492e-03 5.157616266083639347e-04 9.999537681572967518e-01
2.871794871794871362e+00 -8.096201721205486743e-03 -4.926348603044104768e-03 9.999550126991223475e-01
3.015384615384615330e+00 -1.507417596907504372e-03 -3.366995722081178935e-03 9.999931620024463674e-01
3.158974358974358854e+00 -6.820803084623800437e-04 3.527623949688648165e-03 9.999935125836373340e-01
3.302564102564102377e+00 -5.753845149719009379e-03 5.474016429912877818e-03 9.999683975071093078e-01
3.446153846153845901e+00 -7.075438463579522726e-03 9.952451894347140796e-04 9.999744132088385085e-01
3.589743589743589425e+00 -1.956070319366383023e-03 -1.020535136893446163e-03 9.999975449303133423e-01
3.733333333333332948e+00 1.575137338206563991e-03 3.202691667314911360e-03 9.999935983156986730e-01
3.876923076923076472e+00 -1.208035840913911953e-03 6.667569979504710774e-03 9.999769843294139537e-01
4.020512820512820440e+00 -4.197624659498062558e-03 3.949529831976002214e-03 9.999833406801492686e-01
4.164102564102563520e+00 -1.450685425955641154e-03 1.805954176071784671e-04 9.999989167494613973e-01
4.307692307692307487e+00 2.916030623581968191e-03 1.698559034946316333e-03 9.999942748637362655e-01
4.451282051282050567e+00 2.280198116614465254e-03 5.482102158919394987e-03 9.999823223439391340e-01
4.594871794871794535e+00 -1.235805056087121469e-03 4.737167264242519819e-03 9.999879728984137905e-01
4.738461538461538503e+00 -8.424606429983170879e-04 6.741359417951481303e-04 9.999994066687150074e-01
4.882051282051281582e+00 3.124569999477225159e-03 -2.992906668589025328e-05 9.999950891875730719e-01
5.025641025641025550e+00 4.226634152713401767e-03 3.217366079125620268e-03 9.999858456401677920e-01
5.169230769230768630e+00 1.114949778292543322e-03 4.172955753281941058e-03 9.999906331223687994e-01
5.312820512820512597e+00 -3.351726822300031311e-04 8.256556061708547308e-04 9.999995935088779042e-01
5.456410256410255677e+00 2.511891961882886746e-03 -1.393395387123635846e-03 9.999958476134597207e-01
5.599999999999999645e+00 4.767183310888547902e-03 7.755589125406445877e-04 9.999882936575245074e-01
