0.000000000000000000e+00 1.238928332110276695e-09 3.108763627886946616e-09 -1.000000000000000000e+00
1.435897435897435792e-01 -2.804398163389341114e-01 5.098832324286003415e-01 -8.132392024189040169e-01
2.871794871794871584e-01 -4.834276676238340453e-01 8.068787956601018996e-01 -3.394360855773670416e-01
4.307692307692307376e-01 -5.471921702765766282e-01 8.081675667921712769e-01 2.177545445804406343e-01
5.743589743589743168e-01 -4.523134520480385778e-01 5.976961480970459650e-01 6.619302396583705006e-01
7.179487179487178405e-01 -2.440456496206822590e-01 3.485562440861976752e-01 9.049531927202013604e-01
8.615384615384614753e-01 -2.012623713072139026e-02 1.966879190465002369e-01 9.802573769441799145e-01
1.005128205128205110e+00 1.234098421756722602e-01 1.631431017484329948e-01 9.788513212854841328e-01
1.148717948717948634e+00 1.528174967286158314e-01 1.751556375293483181e-01 9.726059029454535709e-01
1.292307692307692157e+00 1.118913789983333462e-01 1.529173600818078405e-01 9.818821258521436279e-01
1.435897435897435681e+00 7.629965631507554247e-02 8.043220669965370218e-02 9.938343076033961943e-01
1.579487179487179427e+00 8.719734060278555576e-02 3.844510524070181984e-03 9.961826885061511039e-01
1.723076923076922951e+00 1.242761703447987642e-01 -2.758531450789549616e-02 9.918627685711680630e-01
1.866666666666666474e+00 1.389643954005022608e-01 -1.298343193373086013e-02 9.902107504587465137e-01
2.010256410256410220e+00 1.098586952804509326e-01 5.140205997729016714e-03 9.939327326238054372e-01
2.153846153846153744e+00 6.309232033219261404e-02 -1.010916874517830272e-02 9.979557878507985258e-01
2.297435897435897267e+00 4.047341203690927453e-02 -5.213836211871768211e-02 9.978186414535190618e-01
2.441025641025640791e+00 5.357423274142944503e-02 -8.277326632859034750e-02 9.951262530568634190e-01
2.584615384615384315e+00 7.383450811438724282e-02 -7.685125737346848451e-02 9.943038025935819757e-01
2.728205128205127838e+00 6.707179473745578102e-02 -4.929835175207508691e-02 9.965285932237675226e-01
2.871794871794871362e+00 3.183869497737649296e-02 -3.633626848102503026e-02 9.988317605843123337e-01
3.015384615384615330e+00 -7.468368515950209174e-04 -5.423370128951982699e-02 9.985273843388903225e-01
3.158974358974358854e+00 -3.551862896134294623e-03 -8.245777317964665676e-02 9.965873288331240643e-01
3.302564102564102377e+00 1.621566891807864688e-02 -8.873996380153137409e-02 9.959218417151418645e-01
3.446153846153845901e+00 2.670162379328502866e-02 -6.626630583223719340e-02 9.974438496473259086e-01
3.589743589743589425e+00 8.605008032006238733e-03 -4.053315626849867542e-02 9.991406671969951248e-01
3.733333333333332948e+00 -2.328833073471671400e-02 -3.919999053207246648e-02 9.989594501021570316e-01
3.876923076923076472e+00 -3.827578019037480156e-02 -6.051604991849843240e-02 9.974323046690538597e-01
4.020512820512820440e+00 -2.550630221156280353e-02 -7.632003965080680352e-02 9.967562031731647121e-01
4.164102564102563520e+00 -5.912123929884985016e-03 -6.537910445922477665e-02 9.978422605315389049e-01
4.307692307692307487e+00 -7.160288208070983082e-03 -3.775704178552067442e-02 9.992608544577921137e-01
4.451282051282050567e+00 -3.145760622134474022e-02 -2.240458705022356500e-02 9.992535055519544684e-01
4.594871794871794535e+00 -5.370496504630428714e-02 -3.316786108823037427e-02 9.980051480368781203e-01
4.738461538461538503e+00 -5.132470076838746564e-02 -5.303047517022989321e-02 9.972722444038860656e-01
4.882051282051281582e+00 -3.058088829976914058e-02 -5.470613854539964349e-02 9.980333982644529200e-01
5.025641025641025550e+00 -1.866531462479996406e-02 -3.273930926702111471e-02 9.992891865639318416e-01
5.169230769230768630e+00 -3.146967102820894674e-02 -9.494789355441818346e-03 9.994592259016307212e-01
5.312820512820512597e+00 -5.525437157829230644e-02 -8.442140527667060107e-03 9.984359970385238148e-01
5.456410256410255677e+00 -6.327125830650842664e-02 -2.655481737330101302e-02 9.976422618688007837e-01
5.599999999999999645e+00 -4.754070016107463104e-02 -3.836556917175650006e-02 9.981315609705845304e-01
