0.000000000000000000e+00 3.424935809831824371e-09 4.822570088882158059e-09 -1.000000000000000000e+00
1.435897435897435792e-01 -2.862845529711197656e-01 -5.106010542199526103e-01 -8.107543960497134439e-01
2.871794871794871584e-01 -3.764232941975653168e-01 -8.621719433000166743e-01 -3.390511192393733109e-01
4.307692307692307376e-01 -2.379050640393684524e-01 -9.503819506111688131e-01 2.004130441909281746e-01
5.743589743589743168e-01 -1.023608517080237812e-02 -7.823021039591737669e-01 6.228092381699906754e-01
7.179487179487178405e-01 1.377373173257209760e-01 -4.830153091797163012e-01 8.647083404905090420e-01
8.615384615384614753e-01 1.484048827313835250e-01 -2.138036619708308939e-01 9.655371702142895307e-01
1.005128205128205110e+00 8.307771520616283323e-02 -6.310833049048557297e-02 9.945424420738729898e-01
1.148717948717948634e+00 2.458147159359378234e-02 -1.467555499125693282e-02 9.995899921521611553e-01
1.292307692307692157e+00 1.797101054783565004e-03 -7.887978685522573086e-03 9.999672382976378948e-01
1.435897435897435681e+00 -1.194933337539420912e-03 -5.100678926267662380e-03 9.999862529836245351e-01
1.579487179487179427e+00 -1.471621831290608612e-03 -1.438684647232625537e-03 9.999978716145948576e-01
1.723076923076922951e+00 -1.776087581507006805e-03 -6.206067653906723915e-05 9.999984114950148939e-01
1.866666666666666474e+00 -1.031454573118788763e-03 1.865938357448831096e-04 9.999994448056525043e-01
2.010256410256410220e+00 -3.366871947637440970e-04 5.959342837880420062e-04 9.999997617851900111e-01
2.153846153846153744e+00 -1.866331238349213349e-04 6.466190764763996186e-04 9.999997696148074100e-01
2.297435897435897267e+00 3.991836342559116832e-05 3.521227179493776433e-04 9.999999350068692339e-01
2.441025641025640791e+00 2.770141101068356103e-04 2.547404550045520924e-04 9.999999268613971593e-01
2.584615384615384315e+00 2.400385440314004764e-04 1.990826979202899494e-04 9.999999494095506147e-01
2.728205128205127838e+00 1.818483761495285960e-04 8.244194211960733623e-06 9.999999822213895273e-01
2.871794871794871362e+00 2.226738749792818732e-04 -7.821423916930890356e-05 9.999999706177833403e-01
3.015384615384615330e+00 1.508993031390791256e-04 -5.822094808456438285e-05 9.999999858320052226e-01
3.158974358974358854e+00 5.233138890609106481e-05 -1.131353218215152580e-04 9.999999913716259847e-01
3.302564102564102377e+00 4.916046837479776479e-05 -1.498605015649261802e-04 9.999999864997309862e-01
3.446153846153845901e+00 1.872664128341872515e-05 -9.644114791838586688e-05 9.999999944775690430e-01
3.589743589743589425e+00 -4.915552383511692517e-05 -7.871857043334707033e-05 9.999999950358691159e-01
3.733333333333332948e+00 -5.598139475102450297e-05 -9.451120261643575866e-05 9.999999932032880290e-01
3.876923076923076472e+00 -4.410383178541524507e-05 -4.491885445914313543e-05 9.999999975504343386e-01
4.020512820512820440e+00 -7.203114919345231281e-05 -8.974648117512863590e-06 9.999999968361169556e-01
4.164102564102563520e+00 -7.770528652144723602e-05 -2.114021825542054963e-05 9.999999961761438794e-01
4.307692307692307487e+00 -4.302124154619379987e-05 2.361455460512871640e-06 9.999999987389465161e-01
4.451282051282050567e+00 -4.967727247317227205e-05 3.235396198788392379e-05 9.999999978004623369e-01
4.594871794871794535e+00 -5.308787215414930392e-05 2.589839755214269677e-05 9.999999978158409242e-01
4.738461538461538503e+00 -1.820664252526919754e-05 2.614966093757441855e-05 9.999999992348437283e-01
4.882051282051281582e+00 -1.505289523217307845e-05 4.879652409546734039e-05 9.999999983098575296e-01
5.025641025641025550e+00 -1.957630127489658802e-05 4.161181638980319085e-05 9.999999985858051277e-01
5.169230769230768630e+00 2.647535838875627343e-06 2.578737301733566016e-05 9.999999994521565627e-01
5.312820512820512597e+00 1.480308356076009800e-05 3.937955794558967648e-05 9.999999987870880069e-01
5.456410256410255677e+00 5.992074450832424220e-06 4.067790459035831836e-05 9.999999988326203626e-01
5.599999999999999645e+00 1.437689053910897506e-05 1.528928410017891772e-05 9.999999995984829582e-01
