0.000000000000000000e+00 -5.786327094365362837e-09 -1.049426857264202525e-09 -1.000000000000000000e+00
1.435897435897435792e-01 -1.481373216128870351e-01 -5.679017159306423146e-01 -8.096529472996614185e-01
2.871794871794871584e-01 -1.333817901303674947e-01 -9.325046096874294310e-01 -3.356113886141335878e-01
4.307692307692307376e-01 4.787129271746504156e-02 -9.774814713648288800e-01 2.054953818022770551e-01
5.743589743589743168e-01 2.448254906005691844e-01 -7.389083670917813151e-01 6.277480295511268515e-01
7.179487179487178405e-01 3.083442296316092346e-01 -3.888829348373050721e-01 8.681530853096136591e-01
8.615384615384614753e-01 2.254034413463054665e-01 -1.163166618350556791e-01 9.672961350651033685e-01
1.005128205128205110e+00 9.795641040948968592e-02 9.511343939625181709e-04 9.951898888280161781e-01
1.148717948717948634e+00 1.893139442868884206e-02 1.145361678868206043e-02 9.997550882684977935e-01
1.292307692307692157e+00 -1.099099029736865397e-03 -2.228198864934991929e-03 9.999969008939412207e-01
1.435897435897435681e+00 5.693557668610409357e-04 -3.922571386047495751e-03 9.999921253634521667e-01
1.579487179487179427e+00 2.161603403881705483e-04 -2.377714160322050622e-04 9.999999463499070762e-01
1.723076923076922951e+00 -1.264527498191789136e-03 2.025304084424580514e-04 9.999991729779806882e-01
1.866666666666666474e+00 -5.631874303917317349e-04 -3.066436108824380571e-04 9.999997906426666416e-01
2.010256410256410220e+00 1.267120457060902415e-04 2.998619054862277809e-04 9.999999449647555272e-01
2.153846153846153744e+00 -1.555362579482465939e-04 4.900299633138472093e-04 9.999998647587784451e-01
2.297435897435897267e+00 -6.923196539180161678e-05 4.929600389676716966e-05 9.999999957768486158e-01
2.441025641025640791e+00 2.570708768867905865e-04 3.829237745598957883e-05 9.999999645505951440e-01
2.584615384615384315e+00 1.442682426572277753e-04 1.689627023699886803e-04 9.999999738680452888e-01
2.728205128205127838e+00 -3.996885043841515232e-06 -2.296448956201979785e-05 9.999999995256340091e-01
2.871794871794871362e+00 1.283254303275058227e-04 -1.249002476262749811e-04 9.999999827695539301e-01
3.015384615384615330e+00 1.002302987278902105e-04 -4.280675728561152116e-06 9.999999942517820983e-01
3.158974358974358854e+00 -3.989369089814696060e-05 -3.334488084029318586e-05 9.999999982467432380e-01
3.302564102564102377e+00 -6.284289890858487881e-06 -1.189050727782036304e-04 9.999999920841152745e-01
3.446153846153845901e+00 2.702331360571758536e-05 -3.312993172489112916e-05 9.999999987446506200e-01
3.589743589743589425e+00 -5.274090174445022821e-05 7.966740144006953538e-06 9.999999981704642549e-01
3.733333333333332948e+00 -6.109677651233488675e-05 -5.248503925387645863e-05 9.999999961701563356e-01
3.876923076923076472e+00 -3.296893156846262879e-06 -1.917311548100552351e-05 9.999999996401546243e-01
4.020512820512820440e+00 -3.152353219700733237e-05 3.533220624251806553e-05 9.999999985121863499e-01
4.164102564102563520e+00 -6.173800153126167358e-05 1.824919531931251638e-06 9.999999976325947282e-01
4.307692307692307487e+00 -3.617310454291415851e-06 -1.698538655282097182e-06 9.999999999322286559e-01
4.451282051282050567e+00 -2.272782843940152563e-06 4.249283021241629624e-05 9.999999987699612625e-01
4.594871794871794535e+00 -3.259316875434138379e-05 3.110588212678805272e-05 9.999999986378056427e-01
4.738461538461538503e+00 -3.172312905941979006e-09 -4.951589596469371602e-09 1.000000000007683187e+00
4.882051282051281582e+00 2.093350264460027302e-05 2.763417119905028059e-05 9.999999991228427643e-01
5.025641025641025550e+00 -8.689633270085334732e-06 3.672714910623585155e-05 9.999999989899139852e-01
5.169230769230768630e+00 -5.744101811694633386e-09 1.262276607821773612e-09 1.000000000003071099e+00
5.312820512820512597e+00 2.994817219392493634e-05 9.634754225354388347e-06 9.999999992524736259e-01
5.456410256410255677e+00 1.263543533085606001e-05 2.263350966621177976e-05 9.999999994486812316e-01
5.599999999999999645e+00 2.061422582811694453e-09 5.508028970612814499e-09 9.999999999927585703e-01
