0.000000000000000000e+00 8.210761787444212832e-12 9.215230472988946595e-12 -1.000000000000000000e+00
1.025641025641025605e-01 2.163517335024409960e-01 2.237583933381217249e-01 -9.484352337692286694e-01
2.051282051282051211e-01 4.245192775093520887e-01 3.915369340564180400e-01 -8.045696860453289689e-01
3.076923076923077094e-01 6.120852432016498090e-01 4.657237925591934946e-01 -5.955989611633247804e-01
4.102564102564102422e-01 7.613449958982112520e-01 4.355422719869147530e-01 -3.537625949733532171e-01
5.128205128205127750e-01 8.522022883882591771e-01 3.149279229035298888e-01 -1.071371162431470347e-01
6.153846153846154188e-01 8.678712050553256674e-01 1.354941493217100279e-01 1.238908914521946875e-01
7.179487179487179516e-01 8.016253738688898789e-01 -6.140581636450931358e-02 3.264546475745201404e-01
8.205128205128204844e-01 6.621341050073766832e-01 -2.334117046435439380e-01 4.939641723343152768e-01
9.230769230769230171e-01 4.743174243011235580e-01 -3.468961367158626685e-01 6.252354715770537252e-01
1.025641025641025550e+00 2.740137846696565349e-01 -3.854642709905007902e-01 7.233467681657683723e-01
1.128205128205128194e+00 9.763965756699537202e-02 -3.536208802688216024e-01 7.941265577920332275e-01
1.230769230769230838e+00 -2.865739211158156025e-02 -2.732541388714515573e-01 8.443423280299465761e-01
1.333333333333333259e+00 -9.565005265089754349e-02 -1.743954331452666207e-01 8.802087309036354945e-01
1.435897435897435903e+00 -1.107982855432753100e-01 -8.434804836849482679e-02 9.065703007468920438e-01
1.538461538461538325e+00 -9.214053467207258818e-02 -1.991250541849037131e-02 9.267308483805419828e-01
1.641025641025640969e+00 -5.986525653396375379e-02 1.483986535366269011e-02 9.427084657435141901e-01
1.743589743589743613e+00 -2.941636095917787852e-02 2.556806706068148055e-02 9.556401409936219338e-01
1.846153846153846034e+00 -8.526956589525241589e-03 2.217754481243737821e-02 9.661531030910074369e-01
1.948717948717948678e+00 1.892591982844072512e-03 1.382976062500706343e-02 9.746258842666776223e-01
2.051282051282051100e+00 4.793616238719285334e-03 6.271467643983820450e-03 9.813401648628413687e-01
2.153846153846153744e+00 3.971567627069901713e-03 1.619587807321350419e-03 9.865493317620395164e-01
2.256410256410256387e+00 2.204949515912488396e-03 -3.462490044284169139e-04 9.904985238434952377e-01
2.358974358974359031e+00 8.424102167655588783e-04 -7.311866040515424981e-04 9.934226420723697437e-01
2.461538461538461675e+00 1.513169807766763715e-04 -5.078001057294250897e-04 9.955375336727149138e-01
2.564102564102563875e+00 -6.713920158961237577e-05 -2.282194651591425323e-04 9.970322300898725176e-01
2.666666666666666519e+00 -7.770177374239715950e-05 -6.291396582952269454e-05 9.980649707174541474e-01
2.769230769230769162e+00 -4.195618307221063285e-05 -3.655185597848343643e-06 9.987628770195214889e-01
2.871794871794871806e+00 -1.419331669499872460e-05 6.087867111886860014e-06 9.992243505779381252e-01
2.974358974358974450e+00 -4.804672117631263479e-08 4.048374470638174100e-06 9.995230203480479636e-01
3.076923076923076650e+00 -9.590742183059378441e-07 1.074803691916933717e-06 9.997122835937984897e-01
3.179487179487179294e+00 8.480380868991778382e-07 1.265750652520055093e-06 9.998297426619666695e-01
3.282051282051281937e+00 3.164202919847928498e-06 8.040193384689609591e-07 9.999011523168739313e-01
3.384615384615384581e+00 -1.770237418235755533e-06 2.668241197563994317e-07 9.999436900104499149e-01
3.487179487179487225e+00 -4.299590519593790748e-08 -2.068951734825497609e-06 9.999685222182261857e-01
3.589743589743589425e+00 3.700160211566596788e-06 2.407393175770822364e-06 9.999827312328055662e-01
3.692307692307692069e+00 4.294718841855840174e-06 5.664125855556476919e-07 9.999907018849792939e-01
3.794871794871794712e+00 2.918577057853315805e-08 -2.743493977496145881e-06 9.999950858844104395e-01
3.897435897435897356e+00 1.737519870728748146e-06 -2.563363025002092503e-06 9.999974505103869094e-01
4.000000000000000000e+00 5.137957577982563655e-07 -6.705902307230800635e-07 9.999987014536579899e-01
