0.000000000000000000e+00 -7.627367800327597030e-12 1.003426243624831447e-11 -1.000000000000000000e+00
1.025641025641025605e-01 -2.021749780525498030e-01 2.455995438911570128e-01 -9.473178448934388429e-01
2.051282051282051211e-01 -3.996276818031183620e-01 4.400044672214192820e-01 -7.989160618810224879e-01
3.076923076923077094e-01 -5.839444682888648153e-01 5.457193339040921076e-01 -5.797863451084772635e-01
4.102564102564102422e-01 -7.407515750521157516e-01 5.464605028769682349e-01 -3.214999876119651323e-01
5.128205128205127750e-01 -8.503888332874537381e-01 4.480193282043760661e-01 -5.413630832096087003e-02
6.153846153846154188e-01 -8.924645850416761395e-01 2.754553462833262412e-01 1.981243261223921692e-01
7.179487179487179516e-01 -8.536921571234790118e-01 6.798567355475801377e-02 4.186803671156337781e-01
8.205128205128204844e-01 -7.357246373007183537e-01 -1.292000538963444245e-01 5.985868030054918298e-01
9.230769230769230171e-01 -5.585551680981560851e-01 -2.761811953302246714e-01 7.359106682447561498e-01
1.025641025641025550e+00 -3.564995049453522635e-01 -3.491389464957708189e-01 8.342135579711709159e-01
1.128205128205128194e+00 -1.678657210582936710e-01 -3.461649386413428453e-01 9.003942246665571636e-01
1.230769230769230838e+00 -2.304327575910706735e-02 -2.852757827189172368e-01 9.424349266132479030e-01
1.333333333333333259e+00 6.372401055735724129e-02 -1.956233701120379809e-01 9.677607472115143938e-01
1.435897435897435903e+00 9.571814332306410877e-02 -1.062861915503532373e-01 9.823226913411061689e-01
1.538461538461538325e+00 8.864843225334680110e-02 -3.734021898065489203e-02 9.903888842980959062e-01
1.641025641025640969e+00 6.245219760470695214e-02 3.725419862261963866e-03 9.947478543818766283e-01
1.743589743589743613e+00 3.382406662869651137e-02 2.006824200120766247e-02 9.970831833592698201e-01
1.846153846153846034e+00 1.233171299410706044e-02 2.043918721206355177e-02 9.983453533578642292e-01
1.948717948717948678e+00 4.922972494236198260e-04 1.397046989523324442e-02 9.990430231787359450e-01
2.051282051282051100e+00 -3.686420423685924166e-03 6.967745452009816744e-03 9.994399417967996246e-01
2.153846153846153744e+00 -3.644137027388044073e-03 2.228905569311115387e-03 9.996713359982097868e-01
2.256410256410256387e+00 -2.221561425078790245e-03 1.094171395821675469e-06 9.998081462363935801e-01
2.358974358974359031e+00 -9.370763224719317643e-04 -5.829994294971388696e-04 9.998892574101453379e-01
2.461538461538461675e+00 -2.238394897443805030e-04 -4.764386889920223787e-04 9.999370171924152340e-01
2.564102564102563875e+00 3.432491514335719060e-05 -2.344803101568245039e-04 9.999647816196666206e-01
2.666666666666666519e+00 7.119730769077828173e-05 -6.994013899397238964e-05 9.999806558430047732e-01
2.769230769230769162e+00 3.948475708101303731e-05 -1.085829367355130082e-05 9.999895672707740379e-01
2.871794871794871806e+00 1.169253533953626317e-05 8.050218900548555449e-06 9.999944758866001759e-01
2.974358974358974450e+00 -2.169310966262659727e-06 4.035239281516996307e-06 9.999971280395385520e-01
3.076923076923076650e+00 3.736071094312351096e-06 3.924327244684599977e-06 9.999985337875115787e-01
3.179487179487179294e+00 2.862598859261879414e-07 1.834523446328641053e-06 9.999992648628689418e-01
3.282051282051281937e+00 3.377905357884215301e-06 2.725099265298814745e-06 9.999996379379224587e-01
3.384615384615384581e+00 4.496152696580361957e-07 4.239627102706969362e-07 9.999998248227153219e-01
3.487179487179487225e+00 4.702017813649519443e-07 4.138254290530603500e-08 9.999999167174595804e-01
3.589743589743589425e+00 -4.575367800891731128e-07 -6.255817331043493841e-07 9.999999610883851808e-01
3.692307692307692069e+00 1.506322036338061204e-06 4.634025689898450736e-06 9.999999821199773153e-01
3.794871794871794712e+00 -6.886810730527449778e-07 -1.202075768061647034e-07 9.999999919351354460e-01
3.897435897435897356e+00 -3.232647312094802755e-06 -9.319556563831780187e-07 9.999999964196122360e-01
4.000000000000000000e+00 -1.278604011237238013e-06 5.240166349658312990e-07 9.999999984457905722e-01
