0.000000000000000000e+00 1.846211913219869387e-14 1.485846055043738887e-18 -1.000000000000000000e+00
1.000000000000000056e-01 -9.992345512922023998e-02 9.251455490954813010e-02 -9.906845371433474767e-01
2.000000000000000111e-01 -2.033036275380481206e-01 1.743633239356848774e-01 -9.634645982872838132e-01
3.000000000000000444e-01 -3.124046291285501042e-01 2.353661296272554770e-01 -9.203285065140198729e-01
4.000000000000000222e-01 -4.272834637448580386e-01 2.663430943692689512e-01 -8.639953894233166620e-01
5.000000000000000000e-01 -5.450238214340765719e-01 2.596752522961522924e-01 -7.971919815052139757e-01
6.000000000000000888e-01 -6.593660550167277368e-01 2.100688192051634040e-01 -7.218755089355337606e-01
7.000000000000000666e-01 -7.608186954572886407e-01 1.154554333641156783e-01 -6.386088372013418724e-01
8.000000000000000444e-01 -8.373310140348642072e-01 -2.183037648011670884e-02 -5.462563820262555936e-01
9.000000000000000222e-01 -8.757751794887354002e-01 -1.938241267851869010e-01 -4.420922229855211438e-01
1.000000000000000000e+00 -8.642948853186296354e-01 -3.860376439016010020e-01 -3.224351038760821520e-01
1.100000000000000089e+00 -7.954401383108282708e-01 -5.774725441312101859e-01 -1.838349484547261714e-01
1.200000000000000178e+00 -6.696300960629615329e-01 -7.422818144387945960e-01 -2.465691539475624652e-02
1.300000000000000044e+00 -4.979836135537017983e-01 -8.535418294285790353e-01 1.532104804739161386e-01
1.400000000000000133e+00 -3.031940748736427493e-01 -8.890346650243909910e-01 3.430537204557265185e-01
1.500000000000000000e+00 -1.172691447971609402e-01 -8.379558977059150537e-01 5.329855679431362292e-01
1.600000000000000089e+00 2.445016677638484071e-02 -7.065811259863586935e-01 7.072071999760758398e-01
1.700000000000000178e+00 9.231831117987919499e-02 -5.204389953836794369e-01 8.488923913449170078e-01
1.800000000000000044e+00 7.209600894212497835e-02 -3.208769177996714794e-01 9.443722006752212073e-01
1.900000000000000133e+00 -2.799300271003424267e-02 -1.555958200499177324e-01 9.874237909868095464e-01
2.000000000000000000e+00 -1.762489567858906148e-01 -6.490597448316987039e-02 9.822030401486535611e-01
2.100000000000000089e+00 -3.247026068498911067e-01 -6.787472476317055192e-02 9.433768835911787720e-01
2.200000000000000178e+00 -4.234215460994183999e-01 -1.537248654144518500e-01 8.927939227205260453e-01
2.300000000000000266e+00 -4.380101953362006695e-01 -2.830041957544418008e-01 8.532604886965703406e-01
2.400000000000000355e+00 -3.636475282128763808e-01 -3.999460301712309263e-01 8.413092644515142160e-01
2.500000000000000000e+00 -2.293003743912304104e-01 -4.527572942746529439e-01 8.616437806797623278e-01
2.600000000000000089e+00 -8.866713183417396227e-02 -4.147022962208244956e-01 9.056259772544730247e-01
2.700000000000000178e+00 2.804973979124436578e-04 -2.967833843969858165e-01 9.549441771554908476e-01
2.800000000000000266e+00 -1.935763709753138273e-04 -1.453706983207135317e-01 9.893769626667977546e-01
2.900000000000000355e+00 -8.956865281048806415e-02 -2.376246054582356604e-02 9.956969726201527759e-01
3.000000000000000000e+00 -2.267056688581642887e-01 1.583060322180429580e-02 9.738342189032052065e-01
3.100000000000000089e+00 -3.461505381631989620e-01 -4.207798619507193555e-02 9.372341501963350474e-01
3.200000000000000178e+00 -3.878233827489527275e-01 -1.656944789152150488e-01 9.067175038321282354e-01
3.300000000000000266e+00 -3.271511615674106976e-01 -2.874331320373542664e-01 9.001958229983390014e-01
3.400000000000000355e+00 -1.908972043155539033e-01 -3.343997847531269274e-01 9.228941007406384900e-01
3.500000000000000000e+00 -4.906972233700460095e-02 -2.651408216527244566e-01 9.629597428271274850e-01
3.600000000000000089e+00 1.607160448376125650e-02 -9.463677646230465867e-02 9.953819513827666388e-01
3.700000000000000178e+00 -4.925095305958137465e-02 1.063206530368424746e-01 9.931111856037989627e-01
3.800000000000000266e+00 -2.393917806747833943e-01 2.401912397061548021e-01 9.407435473550387339e-01
3.900000000000000355e+00 -4.849573301565343053e-01 2.284676670628805750e-01 8.441662292465494932e-01
4.000000000000000000e+00 -6.804090644198754756e-01 5.257325690239134097e-02 7.309421019526979313e-01
4.100000000000000533e+00 -7.324496246719567338e-01 -2.313734726592667212e-01 6.402969716077252516e-01
4.200000000000000178e+00 -6.065558617122677187e-01 -5.139533483897028576e-01 6.065790024518790124e-01
4.299999999999999822e+00 -3.474977879683291970e-01 -6.817686010436736499e-01 6.437648862491236468e-01
4.400000000000000355e+00 -6.157902675971099749e-02 -6.715211791555145693e-01 7.384201518866490010e-01
4.500000000000000000e+00 1.327651643629239042e-01 -5.013919689016523851e-01 8.549720719839258853e-01
4.600000000000000533e+00 1.622040107825322708e-01 -2.624770967617445216e-01 9.512068411126718415e-01
4.700000000000000178e+00 3.420612395477842793e-02 -7.334748781550276542e-02 9.967195141997694519e-01
4.800000000000000711e+00 -1.680177576175102272e-01 -2.038725801364268952e-02 9.855728110592030244e-01
4.900000000000000355e+00 -3.296174317902696993e-01 -1.151064496867433562e-01 9.370706988449147845e-01
5.000000000000000000e+00 -3.642558800447049383e-01 -2.912270553823917973e-01 8.845917200841040273e-01
5.100000000000000533e+00 -2.582935848732745843e-01 -4.432080466833900889e-01 8.583990120712385874e-01
5.200000000000000178e+00 -7.491195346247073172e-02 -4.849963909233683812e-01 8.713005645177080982e-01
5.300000000000000711e+00 8.374143804761027821e-02 -3.964083129241517400e-01 9.142462341442955109e-01
5.400000000000000355e+00 1.348568650832200622e-01 -2.314112437395975386e-01 9.634632506080867964e-01
5.500000000000000000e+00 6.055470471013697092e-02 -8.425722313429438726e-02 9.946021629290309196e-01
5.600000000000000533e+00 -8.488924419184178116e-02 -3.369980544018245927e-02 9.958201642370277940e-01
5.700000000000000178e+00 -2.096786603151342132e-01 -9.811139476305801022e-02 9.728351029200179578e-01
5.800000000000000711e+00 -2.396617397895285662e-01 -2.274549915497831032e-01 9.438353768331373406e-01
5.900000000000000355e+00 -1.611711993802061871e-01 -3.360918340913353064e-01 9.279356806367359267e-01
6.000000000000000000e+00 -2.624867595345023452e-02 -3.555746207990759800e-01 9.342784839058112523e-01
6.100000000000000533e+00 8.174838397871536655e-02 -2.751803811007105249e-01 9.579101422981745051e-01
6.200000000000000178e+00 1.001185456465747969e-01 -1.457631269880563796e-01 9.842401741275591531e-01
6.300000000000000711e+00 2.408951484501450913e-02 -4.576618093113207081e-02 9.986615814538967184e-01
6.400000000000000355e+00 -9.309682574852802539e-02 -3.170199606048443308e-02 9.951520498106219970e-01
6.500000000000000000e+00 -1.759137978409918979e-01 -1.044259371844880324e-01 9.788507463051908664e-01
6.600000000000000533e+00 -1.742707622710711890e-01 -2.116883376502916303e-01 9.616739083243914799e-01
6.700000000000000178e+00 -9.268706664318873689e-02 -2.837762298604628031e-01 9.543998119222262266e-01
6.800000000000000711e+00 1.663822044152860058e-02 -2.778780034509086283e-01 9.604717233433871515e-01
6.900000000000000355e+00 9.039838701507540986e-02 -2.022216677067218971e-01 9.751582951636222907e-01
7.000000000000000000e+00 9.485223718786034430e-02 -1.055744876355756562e-01 9.898770392911901972e-01
7.100000000000000533e+00 4.357217757924121415e-02 -4.130969387977525414e-02 9.981957462566674044e-01
7.200000000000000178e+00 -1.791479852628366856e-02 -3.189587050403427937e-02 9.993305612984711983e-01
7.300000000000000711e+00 -4.773414663595695884e-02 -5.810145381731506714e-02 9.971686869165576894e-01
7.400000000000000355e+00 -3.715873887201996684e-02 -7.878316090550638306e-02 9.961988351380087758e-01
7.500000000000000000e+00 -1.311242516543159597e-02 -6.511219658362453477e-02 9.977916698940612061e-01
7.600000000000000533e+00 -1.316219567525381967e-02 -2.311025539514347665e-02 9.996462209385527098e-01
7.700000000000000178e+00 -5.295296641348506278e-02 1.235388145976611812e-02 9.985204837225180041e-01
7.800000000000000711e+00 -1.116096259614504926e-01 7.286422898522913055e-03 9.937252064263940587e-01
7.900000000000000355e+00 -1.469074086004025781e-01 -4.127277855236002185e-02 9.882885226183442118e-01
8.000000000000000000e+00 -1.294457794217799274e-01 -9.887043947566453994e-02 9.866447274180448757e-01
