0.000000000000000000e+00 -6.791465743232369625e-12 -5.701690891725727829e-11 -1.000000000000000000e+00
1.025641025641025605e-01 -1.723310780831819045e-01 1.955749318967571204e-01 -8.197218536386284837e-01
2.051282051282051211e-01 -3.032047685946435145e-01 3.154154241269876424e-01 -3.717569927063030799e-01
3.076923076923077094e-01 -3.640767305720925551e-01 3.282939741847933357e-01 1.409783938329167707e-01
4.102564102564102422e-01 -3.498745583297707684e-01 2.582048394829262183e-01 5.507251998439463003e-01
5.128205128205127750e-01 -2.807282551421693140e-01 1.583017073670388020e-01 8.019040552992076076e-01
6.153846153846154188e-01 -1.907059375990525218e-01 7.399662631269410262e-02 9.252568060402813765e-01
7.179487179487179516e-01 -1.102151147309663182e-01 2.353720237636613977e-02 9.753538231143116244e-01
8.205128205128204844e-01 -5.429204664928664881e-02 2.192548267255886585e-03 9.927155288365496766e-01
9.230769230769230171e-01 -2.283910748495590268e-02 -3.036068322397698221e-03 9.980209324874047550e-01
1.025641025641025550e+00 -8.234343877722949748e-03 -2.528030873281072143e-03 9.994939481912807899e-01
1.128205128205128194e+00 -2.565342671274574091e-03 -1.223883346798286748e-03 9.998741935492285737e-01
1.230769230769230838e+00 -6.997159985498856323e-04 -4.403644311786927400e-04 9.999675332413954232e-01
1.333333333333333259e+00 -1.702126335337164707e-04 -1.245924962798879013e-04 9.999902418959334405e-01
1.435897435897435903e+00 -3.729430987275198899e-05 -2.904069823429395071e-05 9.999961719075511901e-01
1.538461538461538325e+00 -7.720245351438624238e-06 -5.508256731738137662e-06 9.999980117939308855e-01
1.641025641025640969e+00 -9.275365274445169159e-07 2.608641195138651179e-07 9.999987283208734423e-01
1.743589743589743613e+00 -7.119661193987582754e-07 2.048815916607871825e-06 9.999990700311401914e-01
1.846153846153846034e+00 -2.554536379703876118e-07 -1.871267613399351388e-06 9.999992590606737730e-01
1.948717948717948678e+00 -9.788506405068303688e-08 4.162714665276877936e-07 9.999993753800286989e-01
2.051282051282051100e+00 -2.977891467459880518e-07 1.962307814979395462e-07 9.999994529296030166e-01
2.153846153846153744e+00 1.939181074918597446e-07 1.263070916951495596e-06 9.999995079804299136e-01
2.256410256410256387e+00 9.462629975287827340e-07 7.713065413186216491e-07 9.999995490687397792e-01
2.358974358974359031e+00 -2.650655126225559310e-07 -1.076781265154648861e-06 9.999995809967642257e-01
2.461538461538461675e+00 3.967478500926080563e-07 -2.780737278077045935e-07 9.999996066233736158e-01
2.564102564102563875e+00 1.199973648020753646e-06 -7.209753902531949240e-09 9.999996277436349335e-01
2.666666666666666519e+00 2.157587329526521859e-07 -5.413452471753531616e-08 9.999996455307751386e-01
2.769230769230769162e+00 4.628404798261439744e-07 9.966676412011884926e-07 9.999996607742193122e-01
2.871794871794871806e+00 4.501575590673879180e-07 1.978897205592320337e-07 9.999996740326779765e-01
2.974358974358974450e+00 2.249271760540339419e-07 -3.468368773751069008e-07 9.999996857043534915e-01
3.076923076923076650e+00 -8.946941894283016556e-07 -2.983090138236175639e-07 9.999996960867142404e-01
3.179487179487179294e+00 -1.612846239544024336e-07 4.625604664887926215e-07 9.999997054040629108e-01
3.282051282051281937e+00 1.099663499245133745e-06 -5.159761010998706206e-07 9.999997138255379836e-01
3.384615384615384581e+00 -1.226172007747083485e-06 7.451688986084591505e-07 9.999997214901803488e-01
3.487179487179487225e+00 2.339686787641533066e-07 1.048227980626153054e-06 9.999997285049412321e-01
3.589743589743589425e+00 -4.764695065658562698e-07 -6.790245692538809260e-07 9.999997349566178695e-01
3.692307692307692069e+00 -7.012558494058091417e-07 3.884459290680995069e-07 9.999997409164647078e-01
3.794871794871794712e+00 6.457502921569986379e-07 7.751104460558288815e-07 9.999997464439062123e-01
3.897435897435897356e+00 -9.097590822642568825e-07 2.401066034700134570e-07 9.999997515882330656e-01
4.000000000000000000e+00 8.290470662620565091e-07 1.068540113286867981e-06 9.999997563908225029e-01
