0.000000000000000000e+00 9.046663333838013725e-12 7.626628976540043977e-11 -1.000000000000000000e+00
1.025641025641025605e-01 2.051865990246493077e-01 2.291515275882052283e-01 -8.220547291148598834e-01
2.051282051282051211e-01 2.415273047433020848e-01 2.412810220722915455e-01 -5.251837981702767166e-01
3.076923076923077094e-01 1.046124904879511958e-01 7.982932483218353747e-02 -4.507452967670677602e-01
4.102564102564102422e-01 -6.902582712262493592e-02 -6.412106643214138257e-02 -6.066052788860575307e-01
5.128205128205127750e-01 -1.591435505681356166e-01 -9.788772999773261152e-02 -8.004922862754912938e-01
6.153846153846154188e-01 -1.524493755172142972e-01 -6.275079268222849560e-02 -9.217625197183297869e-01
7.179487179487179516e-01 -1.015213934789366557e-01 -2.284474757379024307e-02 -9.744218641652293567e-01
8.205128205128204844e-01 -5.288690344723959158e-02 -2.416694022295516608e-03 -9.925794838688265509e-01
9.230769230769230171e-01 -2.268004190285233257e-02 2.963579441997087408e-03 -9.980084210966576608e-01
1.025641025641025550e+00 -8.222569570899592242e-03 2.517018598158105719e-03 -9.994931854348337863e-01
1.128205128205128194e+00 -2.562551387063610481e-03 1.222819103456305361e-03 -9.998741682404547193e-01
1.230769230769230838e+00 -6.997462140134191877e-04 4.400377569061997198e-04 -9.999675324951100563e-01
1.333333333333333259e+00 -1.712287019386968593e-04 1.250881824058289995e-04 -9.999902416399661931e-01
1.435897435897435903e+00 -3.749793375993293131e-05 2.781136189721894063e-05 -9.999961719529786297e-01
1.538461538461538325e+00 -7.846613712109236070e-06 4.734428605477164409e-06 -9.999980117890195919e-01
1.641025641025640969e+00 -2.174422051004366812e-06 -4.974838194478224694e-07 -9.999987283214771816e-01
1.743589743589743613e+00 -3.013113496166190871e-07 6.186501735142601619e-08 -9.999990700343769356e-01
1.846153846153846034e+00 1.688906965147845156e-06 8.548499112156971019e-09 -9.999992590623234534e-01
1.948717948717948678e+00 -7.373584567182294022e-07 1.503599138533653985e-07 -9.999993753804349295e-01
2.051282051282051100e+00 -6.718843826592374502e-07 -1.521107509285835037e-07 -9.999994529283818823e-01
2.153846153846153744e+00 1.401826652551297725e-08 -1.098927517299492586e-06 -9.999995079803657427e-01
2.256410256410256387e+00 6.682265344733846077e-07 -1.275004327681798625e-06 -9.999995490687556554e-01
2.358974358974359031e+00 5.211450051522481013e-07 3.866164597461314410e-07 -9.999995809974708827e-01
2.461538461538461675e+00 2.221306052309405626e-06 1.279280857310628253e-06 -9.999996066214413837e-01
2.564102564102563875e+00 7.724995778022954889e-07 -5.451392676062139739e-07 -9.999996277453396809e-01
2.666666666666666519e+00 6.588351289546528218e-07 2.959463424731601400e-07 -9.999996455302780918e-01
2.769230769230769162e+00 -1.068135059185842209e-06 -4.580408637208626230e-07 -9.999996607738920185e-01
2.871794871794871806e+00 -3.508082610986112523e-08 -8.092537080930546436e-07 -9.999996740313813470e-01
2.974358974358974450e+00 -8.330156472759375157e-08 -1.564283401334887424e-06 -9.999996857034912923e-01
3.076923076923076650e+00 -6.408012464112776292e-07 -7.370065056465117482e-08 -9.999996960867675311e-01
3.179487179487179294e+00 -1.161035506096727168e-07 -1.768701232875157112e-06 -9.999997054034012178e-01
3.282051282051281937e+00 1.819529027280317566e-07 1.288360965318533288e-06 -9.999997138264258290e-01
3.384615384615384581e+00 -1.214921500582844924e-06 -1.135413037467069140e-06 -9.999997214907219156e-01
3.487179487179487225e+00 8.760560184054035001e-07 -1.182839364223238701e-06 -9.999997285052079077e-01
3.589743589743589425e+00 -4.501325324936304674e-07 1.618397029817001562e-06 -9.999997349551784653e-01
3.692307692307692069e+00 -6.661895037284132974e-07 4.096919329846493628e-08 -9.999997409171841323e-01
3.794871794871794712e+00 1.045142828204811179e-06 -4.415263503548991865e-07 -9.999997464439702721e-01
3.897435897435897356e+00 4.881703266784743184e-08 2.339558754463501564e-07 -9.999997515885069577e-01
4.000000000000000000e+00 -3.109007428282134133e-07 -5.133760627469938205e-07 -9.999997563917334409e-01
