0.000000000000000000e+00 7.934122556623400339e-12 9.586886394216850858e-12 -1.000000000000000000e+00
1.025641025641025605e-01 2.102791399499169822e-01 2.347156469686058622e-01 -9.488398229072827483e-01
2.051282051282051211e-01 4.181746112207895827e-01 4.217605396641451732e-01 -8.032674767144720729e-01
3.076923076923077094e-01 6.155990547526717371e-01 5.243645170442605696e-01 -5.843802646716417248e-01
4.102564102564102422e-01 7.845549445298718449e-01 5.226051083396944241e-01 -3.218097980239106315e-01
5.128205128205127750e-01 9.004137406249896891e-01 4.194439975551443323e-01 -4.707347865825935174e-02
6.153846153846154188e-01 9.397073551932695334e-01 2.405922532604576891e-01 2.124450134397605494e-01
7.179487179487179516e-01 8.898724409936393798e-01 2.853519778174609667e-02 4.374776814476542541e-01
8.205128205128204844e-01 7.565457540688532712e-01 -1.685514905033630717e-01 6.182609966170186100e-01
9.230769230769230171e-01 5.646035593013450926e-01 -3.100667301084050753e-01 7.535916282507316710e-01
1.025641025641025550e+00 3.519461984290805923e-01 -3.738814985180917705e-01 8.483122423339849449e-01
1.128205128205128194e+00 1.581646943110394665e-01 -3.608519689170713862e-01 9.104626698925026851e-01
1.230769230769230838e+00 1.289998077206767901e-02 -2.914690078060296896e-01 9.487222825786494340e-01
1.333333333333333259e+00 -7.147844368772149348e-02 -1.962287728446555080e-01 9.707985105651012470e-01
1.435897435897435903e+00 -1.002140821644126600e-01 -1.042818719855560516e-01 9.826448701869197055e-01
1.538461538461538325e+00 -9.042370483005010562e-02 -3.490297969720165122e-02 9.883800956753319156e-01
1.641025641025640969e+00 -6.260495468517503215e-02 5.494648270825741587e-03 9.905961762122812431e-01
1.743589743589743613e+00 -3.335041756407961661e-02 2.095522895945108738e-02 9.907932275858433169e-01
1.846153846153846034e+00 -1.184698803374350379e-02 2.069380056514814881e-02 9.897813834622440909e-01
1.948717948717948678e+00 -2.092866740073303505e-04 1.391681375849436811e-02 9.879879340752761863e-01
2.051282051282051100e+00 3.784689524875490228e-03 6.856682113071908835e-03 9.856505608182588585e-01
2.153846153846153744e+00 3.646799979258921395e-03 2.150586038206343809e-03 9.829285399902099041e-01
2.256410256410256387e+00 2.197726497338550657e-03 -2.751468808094960708e-05 9.799549226817449998e-01
2.358974358974359031e+00 9.179171906916928783e-04 -5.885016664597968097e-04 9.768577008721458510e-01
2.461538461538461675e+00 2.138903292801413482e-04 -4.701923414399717554e-04 9.737637779688061990e-01
2.564102564102563875e+00 -3.338288832949897660e-05 -2.339466027709877856e-04 9.707961807791744002e-01
2.666666666666666519e+00 -6.679358743667273310e-05 -7.369501671101948191e-05 9.680688111859900857e-01
2.769230769230769162e+00 -3.906662036371505751e-05 -6.219895168501461073e-06 9.656812314068005110e-01
2.871794871794871806e+00 -1.483931239324730219e-05 6.404641544511194956e-06 9.637144693883696878e-01
2.974358974358974450e+00 -3.828175655336317323e-06 6.202328407541843718e-06 9.622281590865069401e-01
3.076923076923076650e+00 1.042890841447373921e-08 4.196365409600579769e-06 9.612592027337114597e-01
3.179487179487179294e+00 -1.217492779094430993e-06 3.945392510096976478e-07 9.608217937813144927e-01
3.282051282051281937e+00 -1.418519878157730194e-06 -3.366496865344041105e-07 9.609087387402166502e-01
3.384615384615384581e+00 -5.419188493144560368e-07 2.426171948615617668e-06 9.614937337740550038e-01
3.487179487179487225e+00 1.144751348851565576e-06 3.277052686514876212e-06 9.625344163603051229e-01
3.589743589743589425e+00 1.614130319072634671e-06 -1.219334034276235995e-06 9.639758972747811683e-01
3.692307692307692069e+00 2.791402880005800415e-07 -9.564614021894292107e-07 9.657544921432930085e-01
3.794871794871794712e+00 -2.278979831747175716e-06 -3.778560684009585257e-06 9.678014327132685723e-01
3.897435897435897356e+00 -1.641058066965043038e-06 -1.929906044212808396e-06 9.700463630274115401e-01
4.000000000000000000e+00 -6.112495312686372253e-06 -1.968786581347159022e-06 9.724204773501525789e-01
