1.000000000000000056e-01 9.755779078615686162e-01 0.000000000000000000e+00 2.427121067479416291e-02 1.508814636368425760e-04 0.000000000000000000e+00 0.000000000000000000e+00 -1.478983957812711724e-05 1.538780579116261205e-01 0.000000000000000000e+00 0.000000000000000000e+00 0.000000000000000000e+00 0.000000000000000000e+00 -1.078923342658457676e-03 1.580506313878508656e-03 -1.001966025154621583e-02 -6.841274057663437880e-03
2.612244897959183909e-01 8.429995826420254579e-01 0.000000000000000000e+00 1.503044780065107278e-01 6.695939351462070963e-03 0.000000000000000000e+00 0.000000000000000000e+00 -2.465381732653008462e-04 3.559586372567593027e-01 0.000000000000000000e+00 0.000000000000000000e+00 0.000000000000000000e+00 0.000000000000000000e+00 -1.786818922508025265e-02 2.621368884278292566e-02 -6.205127013079931447e-02 -4.235934315263842342e-02
4.224489795918368040e-01 6.328499514158428818e-01 0.000000000000000000e+00 3.253595757345977280e-01 4.179047284956169395e-02 0.000000000000000000e+00 0.000000000000000000e+00 -9.159196617402656218e-04 4.537653058461288413e-01 0.000000000000000000e+00 0.000000000000000000e+00 0.000000000000000000e+00 0.000000000000000000e+00 -6.554092472587544349e-02 9.644333932809226462e-02 -1.343209618000013594e-01 -9.167866670387221639e-02
5.836734693877551061e-01 4.037093668688469528e-01 0.000000000000000000e+00 4.634165381759207114e-01 1.328740949552304762e-01 0.000000000000000000e+00 0.000000000000000000e+00 -1.981259373104414957e-03 4.325293884162801916e-01 0.000000000000000000e+00 0.000000000000000000e+00 0.000000000000000000e+00 0.000000000000000000e+00 -1.389906837168195797e-01 2.055666386369072729e-01 -1.912711968201932233e-01 -1.306056889644812702e-01
7.448979591836735192e-01 2.098185011697960289e-01 0.000000000000000000e+00 4.966488675602305780e-01 2.935326312699736429e-01 0.000000000000000000e+00 0.000000000000000000e+00 -3.118673765284903348e-03 3.227946637014966202e-01 0.000000000000000000e+00 0.000000000000000000e+00 0.000000000000000000e+00 0.000000000000000000e+00 -2.126506650996962122e-01 3.171156626937000622e-01 -2.047725511881434146e-01 -1.402026356673675145e-01
9.061224489795919323e-01 8.182879162499390180e-02 0.000000000000000000e+00 4.087535885691674920e-01 5.094176198058377736e-01 0.000000000000000000e+00 0.000000000000000000e+00 -3.841778036459492663e-03 1.828470752780669284e-01 0.000000000000000000e+00 0.000000000000000000e+00 0.000000000000000000e+00 0.000000000000000000e+00 -2.516910889902220783e-01 3.806282647133540920e-01 -1.679002351688780315e-01 -1.161659985680194990e-01
1.067346938775510345e+00 1.994720116198755305e-02 0.000000000000000000e+00 2.429560706782017132e-01 7.370967281598105325e-01 0.000000000000000000e+00 0.000000000000000000e+00 -3.705533555456890556e-03 6.951663576501859731e-02 0.000000000000000000e+00 0.000000000000000000e+00 0.000000000000000000e+00 0.000000000000000000e+00 -2.290001436171418825e-01 3.558666307611017543e-01 -9.833087598310526201e-02 -7.095107886056642443e-02
1.228571428571428870e+00 1.791036431878491710e-03 0.000000000000000000e+00 8.076408206099552900e-02 9.174448815071251095e-01 0.000000000000000000e+00 0.000000000000000000e+00 -2.504562179799487906e-03 1.176344261443044124e-02 0.000000000000000000e+00 0.000000000000000000e+00 0.000000000000000000e+00 0.000000000000000000e+00 -1.395957962703346100e-01 2.336869853594793489e-01 -2.970797202148308183e-02 -2.757922421069452373e-02
1.389795918367347172e+00 8.997042849140475995e-05 0.000000000000000000e+00 1.895590035795878363e-03 9.980144395357121168e-01 0.000000000000000000e+00 0.000000000000000000e+00 -3.786558525851787659e-04 -1.648231574637046499e-04 0.000000000000000000e+00 0.000000000000000000e+00 0.000000000000000000e+00 0.000000000000000000e+00 -5.200361681785173155e-03 4.318312175894879756e-02 4.793617283110849885e-03 -8.173921982290211635e-03
1.551020408163265474e+00 6.848129446420585069e-04 0.000000000000000000e+00 4.509628050769973889e-02 9.542189065476586185e-01 0.000000000000000000e+00 0.000000000000000000e+00 2.219592968554969566e-03 -5.094695877908304860e-03 0.000000000000000000e+00 0.000000000000000000e+00 0.000000000000000000e+00 0.000000000000000000e+00 1.335696251300988457e-01 -1.587163456883681767e-01 -1.135662119804157176e-02 -2.290171940795311667e-02
1.712244897959183998e+00 1.138877918070040074e-02 0.000000000000000000e+00 1.891020276049321658e-01 7.995091932143681968e-01 0.000000000000000000e+00 0.000000000000000000e+00 4.679285041845094271e-03 -4.617083000137649218e-02 0.000000000000000000e+00 0.000000000000000000e+00 0.000000000000000000e+00 0.000000000000000000e+00 2.339449358311775085e-01 -3.105778105224231145e-01 -7.004123899581807255e-02 -6.480477319923259871e-02
1.873469387755102300e+00 5.711782475523208280e-02 0.000000000000000000e+00 3.630896509509400349e-01 5.797925242938249957e-01 0.000000000000000000e+00 0.000000000000000000e+00 6.439193746363871922e-03 -1.438660059467042340e-01 0.000000000000000000e+00 0.000000000000000000e+00 0.000000000000000000e+00 0.000000000000000000e+00 2.688283681898971933e-01 -3.718171244654806529e-01 -1.425565458845036992e-01 -1.131110893721033045e-01
2.034693877551020602e+00 1.638115376049564531e-01 0.000000000000000000e+00 4.814939756820657002e-01 3.546944867129765977e-01 0.000000000000000000e+00 0.000000000000000000e+00 7.162333414638577707e-03 -2.807542858023927557e-01 0.000000000000000000e+00 0.000000000000000000e+00 0.000000000000000000e+00 0.000000000000000000e+00 2.373587734104340152e-01 -3.382958343477145413e-01 -1.937261256431389300e-01 -1.434337369878997404e-01
2.195918367346938904e+00 3.395378944056779424e-01 0.000000000000000000e+00 4.860784448488438825e-01 1.743836607454767595e-01 0.000000000000000000e+00 0.000000000000000000e+00 6.808861634178299538e-03 -4.061966157765004026e-01 0.000000000000000000e+00 0.000000000000000000e+00 0.000000000000000000e+00 0.000000000000000000e+00 1.633130132429352621e-01 -2.410248913235743529e-01 -1.991273637690329501e-01 -1.398504686371016270e-01
2.357142857142857650e+00 5.628482309312277110e-01 0.000000000000000000e+00 3.745618681649802717e-01 6.258990090378999116e-02 0.000000000000000000e+00 0.000000000000000000e+00 5.589541037640280603e-03 -4.591189842494036721e-01 0.000000000000000000e+00 0.000000000000000000e+00 0.000000000000000000e+00 0.000000000000000000e+00 8.237695435623017259e-02 -1.290652070889601322e-01 -1.569722987347097753e-01 -1.028995265936392678e-01
2.518367346938775952e+00 7.850793047546021919e-01 0.000000000000000000e+00 2.017438099420663378e-01 1.317688530333194219e-02 0.000000000000000000e+00 0.000000000000000000e+00 3.835721543016352205e-03 -3.979575056785825682e-01 0.000000000000000000e+00 0.000000000000000000e+00 0.000000000000000000e+00 0.000000000000000000e+00 2.466977444535132027e-02 -4.527424508723308649e-02 -8.883840956503800956e-02 -4.952410315916474376e-02
2.679591836734694255e+00 9.465184503474982636e-01 0.000000000000000000e+00 5.257197771006426323e-02 9.095719424375947300e-04 0.000000000000000000e+00 0.000000000000000000e+00 1.855866051989812264e-03 -2.230625537190792651e-01 0.000000000000000000e+00 0.000000000000000000e+00 0.000000000000000000e+00 0.000000000000000000e+00 1.108774530648995536e-03 -6.825583643258618764e-03 -2.892176100233951469e-02 -4.945473085374905639e-03
2.840816326530612557e+00 9.994691573270422236e-01 0.000000000000000000e+00 3.883159204400316185e-04 1.425267525184127605e-04 0.000000000000000000e+00 0.000000000000000000e+00 -1.529244917237015532e-04 1.969987217239218061e-02 0.000000000000000000e+00 0.000000000000000000e+00 0.000000000000000000e+00 0.000000000000000000e+00 1.898844343814886238e-04 1.388854473890113587e-04 -7.120603727821992433e-03 9.578530493300679849e-03
3.002040816326530859e+00 9.276793201945778833e-01 0.000000000000000000e+00 7.087509188719974540e-02 1.445587918222000518e-03 0.000000000000000000e+00 0.000000000000000000e+00 -2.104668149194280271e-03 2.564077352605807492e-01 0.000000000000000000e+00 0.000000000000000000e+00 0.000000000000000000e+00 0.000000000000000000e+00 -3.483554242000502354e-03 9.503737976758748485e-03 -3.427862199130914805e-02 -1.288481793583404200e-02
3.163265306122449605e+00 7.530921689295754229e-01 0.000000000000000000e+00 2.294236616450524846e-01 1.748416942536963961e-02 0.000000000000000000e+00 0.000000000000000000e+00 -3.949728123793872295e-03 4.156459556511668541e-01 0.000000000000000000e+00 0.000000000000000000e+00 0.000000000000000000e+00 0.000000000000000000e+00 -3.346379579248478370e-02 5.377226731334849158e-02 -9.684290200311698738e-02 -6.155196692208645542e-02
3.324489795918367907e+00 5.267438541088749204e-01 0.000000000000000000e+00 3.981485095512746764e-01 7.510763633985075016e-02 0.000000000000000000e+00 0.000000000000000000e+00 -5.579446031860025960e-03 4.579204613341453789e-01 0.000000000000000000e+00 0.000000000000000000e+00 0.000000000000000000e+00 0.000000000000000000e+00 -9.666218967115036698e-02 1.433890322624502278e-01 -1.635607034156533190e-01 -1.131829574075895878e-01
3.485714285714286209e+00 3.081124294687206389e-01 0.000000000000000000e+00 4.941465413073263258e-01 1.977410292239538403e-01 0.000000000000000000e+00 0.000000000000000000e+00 -6.772815433103430462e-03 3.901369269894685576e-01 0.000000000000000000e+00 0.000000000000000000e+00 0.000000000000000000e+00 0.000000000000000000e+00 -1.771741230687894075e-01 2.575313075563637755e-01 -2.008968928773678386e-01 -1.434116677974336118e-01
3.646938775510204511e+00 1.424305603194074565e-01 0.000000000000000000e+00 4.702603619580846273e-01 3.873090777225085546e-01 0.000000000000000000e+00 0.000000000000000000e+00 -7.225831963406524096e-03 2.587029865035105347e-01 0.000000000000000000e+00 0.000000000000000000e+00 0.000000000000000000e+00 0.000000000000000000e+00 -2.421467335221853256e-01 3.514271829073949971e-01 -1.896089007393683135e-01 -1.386113785832578660e-01
3.808163265306122813e+00 4.636566339037113266e-02 0.000000000000000000e+00 3.382440506921333134e-01 6.153902859174953388e-01 0.000000000000000000e+00 0.000000000000000000e+00 -6.658389363301553572e-03 1.250542938255694014e-01 0.000000000000000000e+00 0.000000000000000000e+00 0.000000000000000000e+00 0.000000000000000000e+00 -2.570474951232361582e-01 3.769332639483464198e-01 -1.342983009726511634e-01 -1.024546086189931648e-01
3.969387755102041115e+00 8.038702537414125354e-03 0.000000000000000000e+00 1.629827189117596664e-01 8.289785785508256843e-01 0.000000000000000000e+00 0.000000000000000000e+00 -4.951944975523288675e-03 3.585594043417864724e-02 0.000000000000000000e+00 0.000000000000000000e+00 0.000000000000000000e+00 0.000000000000000000e+00 -2.029639203358597210e-01 3.064552536910304381e-01 -6.125297701087992208e-02 -5.396285608353514757e-02
4.130612244897958973e+00 3.676534311958967629e-04 0.000000000000000000e+00 3.061062143477565403e-02 9.690217251340292881e-01 0.000000000000000000e+00 0.000000000000000000e+00 -2.250775710504475998e-03 2.487603497363087470e-03 0.000000000000000000e+00 0.000000000000000000e+00 0.000000000000000000e+00 0.000000000000000000e+00 -8.738232460396347379e-02 1.484138827583886266e-01 -5.635875979383266586e-03 -1.801399268798066500e-02
4.291836734693877276e+00 2.022661507278066104e-04 0.000000000000000000e+00 6.164996808421609013e-03 9.936327370408513104e-01 0.000000000000000000e+00 0.000000000000000000e+00 1.027454781639246728e-03 -4.373931580778075761e-04 0.000000000000000000e+00 0.000000000000000000e+00 0.000000000000000000e+00 0.000000000000000000e+00 5.705067536535514405e-02 -5.358132569233288456e-02 5.706616289911801455e-03 -1.297739994349608045e-02
4.453061224489796466e+00 3.121159363279691137e-03 0.000000000000000000e+00 1.016270562916565395e-01 8.952517843450633617e-01 0.000000000000000000e+00 0.000000000000000000e+00 4.285800454095605935e-03 -1.728658626200916051e-02 0.000000000000000000e+00 0.000000000000000000e+00 0.000000000000000000e+00 0.000000000000000000e+00 1.854930337381366368e-01 -2.378531853690002140e-01 -3.263581965239346905e-02 -4.158274199933598148e-02
4.614285714285714768e+00 2.617543678280505673e-02 0.000000000000000000e+00 2.700381956079102030e-01 7.037863676092847021e-01 0.000000000000000000e+00 0.000000000000000000e+00 6.913711512121801898e-03 -8.378882872346983535e-02 0.000000000000000000e+00 0.000000000000000000e+00 0.000000000000000000e+00 0.000000000000000000e+00 2.596281900771669204e-01 -3.502033768726467988e-01 -1.020156981452994133e-01 -8.952491328521612612e-02
4.775510204081633070e+00 9.716342371610407758e-02 0.000000000000000000e+00 4.285870275039621036e-01 4.742495487799340825e-01 0.000000000000000000e+00 0.000000000000000000e+00 8.458603091366874438e-03 -2.038907366468774573e-01 0.000000000000000000e+00 0.000000000000000000e+00 0.000000000000000000e+00 0.000000000000000000e+00 2.633568510089947523e-01 -3.659240044468959896e-01 -1.688825760962640032e-01 -1.325080384974595404e-01
4.936734693877551372e+00 2.359983074016862303e-01 0.000000000000000000e+00 4.993071310700054610e-01 2.646945615283081144e-01 0.000000000000000000e+00 0.000000000000000000e+00 8.735772990526448345e-03 -3.431607763665858180e-01 0.000000000000000000e+00 0.000000000000000000e+00 0.000000000000000000e+00 0.000000000000000000e+00 2.081471532592932827e-01 -2.980581329198591645e-01 -2.012058849917803260e-01 -1.482688741223054107e-01
5.097959183673469674e+00 4.379663384876348875e-01 0.000000000000000000e+00 4.474168560005193362e-01 1.146168055118451240e-01 0.000000000000000000e+00 0.000000000000000000e+00 7.838632635926478034e-03 -4.425969612146751220e-01 0.000000000000000000e+00 0.000000000000000000e+00 0.000000000000000000e+00 0.000000000000000000e+00 1.257268252217017268e-01 -1.883461140317418681e-01 -1.841144114634129247e-01 -1.276721824538274430e-01
5.259183673469387976e+00 6.679831035136434281e-01 0.000000000000000000e+00 2.984114847898709511e-01 3.360541169648864623e-02 0.000000000000000000e+00 0.000000000000000000e+00 6.055337649461212286e-03 -4.464270891230976424e-01 0.000000000000000000e+00 0.000000000000000000e+00 0.000000000000000000e+00 0.000000000000000000e+00 5.190608632295546504e-02 -8.563879405721008808e-02 -1.270633798255120517e-01 -7.938989669717282094e-02
5.420408163265306278e+00 8.696898053329680245e-01 0.000000000000000000e+00 1.255343076533936564e-01 4.775887013642556196e-03 0.000000000000000000e+00 0.000000000000000000e+00 3.739895567394112188e-03 -3.303966140641417248e-01 0.000000000000000000e+00 0.000000000000000000e+00 0.000000000000000000e+00 0.000000000000000000e+00 9.563528949188096137e-03 -2.254054265395083120e-02 -5.904004769474128361e-02 -2.584198917908597792e-02
5.581632653061224580e+00 9.859632310699485425e-01 0.000000000000000000e+00 1.377347583710200954e-02 2.632930929492570166e-04 0.000000000000000000e+00 0.000000000000000000e+00 1.199346187265817876e-03 -1.165276861616738185e-01 0.000000000000000000e+00 0.000000000000000000e+00 0.000000000000000000e+00 0.000000000000000000e+00 -9.205026355275638603e-04 -1.667076447851471594e-03 -1.418414173756055857e-02 7.642542800597662382e-03
5.742857142857142883e+00 9.816547070926512353e-01 0.000000000000000000e+00 1.809177305400113539e-02 2.535198533502184062e-04 0.000000000000000000e+00 0.000000000000000000e+00 -1.353792221156014438e-03 1.332592959736344229e-01 0.000000000000000000e+00 0.000000000000000000e+00 0.000000000000000000e+00 0.000000000000000000e+00 7.183822454100471499e-04 2.017561524107704032e-03 -1.491451120933809382e-02 5.140502988686623809e-03
5.904081632653061185e+00 8.580806985377358309e-01 0.000000000000000000e+00 1.364015226316236395e-01 5.517778830641232105e-03 0.000000000000000000e+00 0.000000000000000000e+00 -3.775090979831780425e-03 3.420953941921819896e-01 0.000000000000000000e+00 0.000000000000000000e+00 0.000000000000000000e+00 0.000000000000000000e+00 -1.253151576913820800e-02 2.440480082652971006e-02 -6.086049462637957430e-02 -3.210452027131219244e-02
6.065306122448979487e+00 6.524739964922896540e-01 0.000000000000000000e+00 3.105895458447522350e-01 3.693645766295806931e-02 0.000000000000000000e+00 0.000000000000000000e+00 -5.917297926017099120e-03 4.501295312264213533e-01 0.000000000000000000e+00 0.000000000000000000e+00 0.000000000000000000e+00 0.000000000000000000e+00 -5.836075876792338329e-02 8.981145886772370912e-02 -1.290495782956704585e-01 -8.629183195527280470e-02
6.226530612244898677e+00 4.226612589504323836e-01 0.000000000000000000e+00 4.550779770500199550e-01 1.222607639995464957e-01 0.000000000000000000e+00 0.000000000000000000e+00 -7.568204278308923033e-03 4.385049034678301649e-01 0.000000000000000000e+00 0.000000000000000000e+00 0.000000000000000000e+00 0.000000000000000000e+00 -1.333675257859271712e-01 1.945540620426459977e-01 -1.852507977595281574e-01 -1.317460798322296900e-01
6.387755102040816979e+00 2.241466870679257595e-01 0.000000000000000000e+00 4.988697536411750288e-01 2.769835592909000721e-01 0.000000000000000000e+00 0.000000000000000000e+00 -8.445633262395862983e-03 3.342883260702180781e-01 0.000000000000000000e+00 0.000000000000000000e+00 0.000000000000000000e+00 0.000000000000000000e+00 -2.122810682395505910e-01 3.051482440779380578e-01 -2.008833810515030793e-01 -1.474137283410465460e-01
6.548979591836735281e+00 9.009437596912064916e-02 0.000000000000000000e+00 4.204610017141726108e-01 4.894446223167048804e-01 0.000000000000000000e+00 0.000000000000000000e+00 -8.265741999738550685e-03 1.944552827035615494e-01 0.000000000000000000e+00 0.000000000000000000e+00 0.000000000000000000e+00 0.000000000000000000e+00 -2.589049836059800769e-01 3.725057885108504774e-01 -1.671871497507042559e-01 -1.270616750004089635e-01
6.710204081632653583e+00 2.321965287948466947e-02 0.000000000000000000e+00 2.583929257083654729e-01 7.183874214121497292e-01 0.000000000000000000e+00 0.000000000000000000e+00 -6.859943375048055403e-03 7.715399836974817793e-02 0.000000000000000000e+00 0.000000000000000000e+00 0.000000000000000000e+00 0.000000000000000000e+00 -2.435650567060579641e-01 3.553902921900906620e-01 -9.965034083885954130e-02 -8.216160914208332777e-02
6.871428571428571885e+00 2.467679384497344086e-03 0.000000000000000000e+00 9.231983822463570022e-02 9.052124823908649365e-01 0.000000000000000000e+00 0.000000000000000000e+00 -4.286309143860989393e-03 1.447222471241327475e-02 0.000000000000000000e+00 0.000000000000000000e+00 0.000000000000000000e+00 0.000000000000000000e+00 -1.585564846240637982e-01 2.417206243736067794e-01 -3.053101939948447974e-02 -3.607847821898232249e-02
7.032653061224490187e+00 2.025589669886427311e-04 0.000000000000000000e+00 3.846198817542112458e-03 9.959512422154701561e-01 0.000000000000000000e+00 0.000000000000000000e+00 -8.773162482719802863e-04 -9.711561110397328659e-05 0.000000000000000000e+00 0.000000000000000000e+00 0.000000000000000000e+00 0.000000000000000000e+00 -2.387286188970906900e-02 5.710252520241757002e-02 6.886885356167417316e-03 -1.242247910190760404e-02
7.193877551020408490e+00 5.955277618438903743e-04 0.000000000000000000e+00 3.642769639376381569e-02 9.629767758443935621e-01 0.000000000000000000e+00 0.000000000000000000e+00 2.808414887465288719e-03 -3.715697798788239990e-03 0.000000000000000000e+00 0.000000000000000000e+00 0.000000000000000000e+00 0.000000000000000000e+00 1.198488428343096879e-01 -1.439279985250201399e-01 -5.441054193456080872e-03 -2.332098009378201844e-02
7.355102040816326792e+00 9.553587176145994161e-03 0.000000000000000000e+00 1.740127880451186326e-01 8.164336247787346013e-01 0.000000000000000000e+00 0.000000000000000000e+00 6.120390620957099834e-03 -4.031112155121678586e-02 0.000000000000000000e+00 0.000000000000000000e+00 0.000000000000000000e+00 0.000000000000000000e+00 2.280447744643419872e-01 -3.001091077189979583e-01 -6.150127521045326701e-02 -6.338340465779092325e-02
7.516326530612245094e+00 5.104289539096283634e-02 0.000000000000000000e+00 3.489420260148587416e-01 6.000150785941785747e-01 0.000000000000000000e+00 0.000000000000000000e+00 8.488560349846135597e-03 -1.331876540464351499e-01 0.000000000000000000e+00 0.000000000000000000e+00 0.000000000000000000e+00 0.000000000000000000e+00 2.708294509298126429e-01 -3.688114685433707685e-01 -1.341832588108142210e-01 -1.123447776866790815e-01
7.677551020408163396e+00 1.517093715278045873e-01 0.000000000000000000e+00 4.751974134774569758e-01 3.730932149947379650e-01 0.000000000000000000e+00 0.000000000000000000e+00 9.566625863821707348e-03 -2.683287812732046418e-01 0.000000000000000000e+00 0.000000000000000000e+00 0.000000000000000000e+00 0.000000000000000000e+00 2.447268490856893963e-01 -3.426393925371877813e-01 -1.885506192914545576e-01 -1.450873492875027759e-01
7.838775510204081698e+00 3.218012416271517906e-01 0.000000000000000000e+00 4.906948600211247236e-01 1.875038983517263169e-01 0.000000000000000000e+00 0.000000000000000000e+00 9.294898278904390257e-03 -3.972654111777609298e-01 0.000000000000000000e+00 0.000000000000000000e+00 0.000000000000000000e+00 0.000000000000000000e+00 1.721725211863916749e-01 -2.497275159952948576e-01 -1.989174678678576891e-01 -1.441208892620573223e-01
8.000000000000001776e+00 5.425832145826826602e-01 0.000000000000000000e+00 3.878016824231894644e-01 6.961510299413221914e-02 0.000000000000000000e+00 0.000000000000000000e+00 7.865176260523260715e-03 -4.586422707044020552e-01 0.000000000000000000e+00 0.000000000000000000e+00 0.000000000000000000e+00 0.000000000000000000e+00 8.925782039265961476e-02 -1.379489871737528961e-01 -1.613381624823599925e-01 -1.083605480277908956e-01
