0.000000000000000000e+00 3.876885385338918909e-09 5.406051051388197958e-10 -1.000000000000000000e+00
7.794871794871795212e-02 -4.680594928073657582e-03 -1.237295394175107546e-02 -9.999124057762993623e-01
1.558974358974359042e-01 -9.341837879633899111e-03 -2.475680483910053589e-02 -9.996496832507532071e-01
2.338461538461538702e-01 -1.399039501730407059e-02 -3.713590423771712112e-02 -9.992120392603632828e-01
3.117948717948718085e-01 -1.862175141875664283e-02 -4.951019198049116943e-02 -9.985996828543862724e-01
3.897435897435897467e-01 -2.322876819367717532e-02 -6.187555913277380942e-02 -9.978131315133336177e-01
4.676923076923077405e-01 -2.780505328025413558e-02 -7.423000687216643745e-02 -9.968529688188018101e-01
5.456410256410256787e-01 -3.234721882847108043e-02 -8.657227404538853088e-02 -9.957197426598286549e-01
6.235897435897436170e-01 -3.684706442736364329e-02 -9.889651872802814048e-02 -9.944146667382107729e-01
7.015384615384615552e-01 -4.129905020960082662e-02 -1.112029347351203290e-01 -9.929385184502912409e-01
7.794871794871794934e-01 -4.569994577238647993e-02 -1.234864397986351614e-01 -9.912926247281356185e-01
8.574358974358974317e-01 -5.004435984007517269e-02 -1.357428915548743176e-01 -9.894785145012645611e-01
9.353846153846154809e-01 -5.432643236255803310e-02 -1.479687160524171263e-01 -9.874978710296818951e-01
1.013333333333333419e+00 -5.854270091597698483e-02 -1.601620935051670525e-01 -9.853521444440175303e-01
1.091282051282051357e+00 -6.268701919824157254e-02 -1.723150791014445571e-01 -9.830440924538792480e-01
1.169230769230769296e+00 -6.675785042447823781e-02 -1.844243595300907312e-01 -9.805757105798010853e-01
1.247179487179487234e+00 -7.074953792308288913e-02 -1.964859680569843725e-01 -9.779495327771829949e-01
1.325128205128205172e+00 -7.465960450449529717e-02 -2.084935821182105076e-01 -9.751685664393894282e-01
1.403076923076923110e+00 -7.848468367279066993e-02 -2.204450889300517136e-01 -9.722352191034583369e-01
1.481025641025641049e+00 -8.222009378530845125e-02 -2.323336627530175336e-01 -9.691532229307574520e-01
1.558974358974358987e+00 -8.586564059316242892e-02 -2.441541726054612949e-01 -9.659258332050435492e-01
1.636923076923076925e+00 -8.941893932623994068e-02 -2.559021277391643201e-01 -9.625565316068049881e-01
1.714871794871794863e+00 -9.287783400894693286e-02 -2.675731099351106312e-01 -9.590489555900759688e-01
1.792820512820512802e+00 -9.624127914364605241e-02 -2.791633280944277318e-01 -9.554066412143562559e-01
1.870769230769230962e+00 -9.950656904026290717e-02 -2.906675300883316271e-01 -9.516338918313966833e-01
1.948717948717948900e+00 -1.026732847905597046e-01 -3.020820603442799790e-01 -9.477345079893384483e-01
2.026666666666666838e+00 -1.057442086385900065e-01 -3.133981831036205534e-01 -9.437137549649851076e-01
2.104615384615384777e+00 -1.087172133171794702e-01 -3.246181490721498086e-01 -9.395740372372024529e-01
2.182564102564102715e+00 -1.115895278632786369e-01 -3.357351601603377200e-01 -9.353209408933665925e-01
2.260512820512820653e+00 -1.143647207501037877e-01 -3.467427888999934926e-01 -9.309594891714211284e-01
2.338461538461538591e+00 -1.170447277678637599e-01 -3.576426211152136103e-01 -9.264920654898998187e-01
2.416410256410256530e+00 -1.196282421252038708e-01 -3.684263713013365971e-01 -9.219252633399107610e-01
2.494358974358974468e+00 -1.221156718520078066e-01 -3.790944114447520885e-01 -9.172623000916444447e-01
2.572307692307692406e+00 -1.245078299498917351e-01 -3.896416464749468123e-01 -9.125086108573640109e-01
2.650256410256410344e+00 -1.268086762610588780e-01 -4.000669439260097215e-01 -9.076676797321074908e-01
2.728205128205128283e+00 -1.290196226147131697e-01 -4.103657902927685952e-01 -9.027448777764438548e-01
2.806153846153846221e+00 -1.311367576435887305e-01 -4.205409136625420929e-01 -8.977431648938902775e-01
2.884102564102564159e+00 -1.331706595860885911e-01 -4.305837006606187400e-01 -8.926686918631898671e-01
2.962051282051282097e+00 -1.351137252608196060e-01 -4.404977349948705490e-01 -8.875246543726623694e-01
3.040000000000000036e+00 -1.369716989548184216e-01 -4.502781861541420017e-01 -8.823163486359877350e-01
