0.000000000000000000e+00 1.806251682301678941e-09 -2.422320312381252290e-09 -1.000000000000000000e+00
7.794871794871795212e-02 1.124745083355379455e-02 6.957740501862279617e-03 -9.999124065778018933e-01
1.558974358974359042e-01 2.247202231717677565e-02 1.396069464662199819e-02 -9.996497462276418000e-01
2.338461538461538702e-01 3.366055634148088643e-02 2.099915132424686262e-02 -9.992123352496459221e-01
3.117948717948718085e-01 4.479405288964527498e-02 2.808947723513801134e-02 -9.986007942919786773e-01
3.897435897435897467e-01 5.585876724183365394e-02 3.524856039737445795e-02 -9.978157120200584762e-01
4.676923076923077405e-01 6.683699921338319416e-02 4.248975455574999921e-02 -9.968581044776955169e-01
5.456410256410256787e-01 7.771492826786384478e-02 4.982443108875153626e-02 -9.957290526085831317e-01
6.235897435897436170e-01 8.848063434248626402e-02 5.726194624394929239e-02 -9.944297169694703564e-01
7.015384615384615552e-01 9.912385079600184723e-02 6.480995630739164182e-02 -9.929612941328436193e-01
7.794871794871794934e-01 1.096313283916740544e-01 7.247097270514914202e-02 -9.913257347595322289e-01
8.574358974358974317e-01 1.199991723870712235e-01 8.024833239200547530e-02 -9.895241116514857938e-01
9.353846153846154809e-01 1.302149693049018675e-01 8.813987643637051506e-02 -9.875589951672522071e-01
1.013333333333333419e+00 1.402739855092884347e-01 9.614131227223848830e-02 -9.854324844501283209e-01
1.091282051282051357e+00 1.501691741612742326e-01 1.042458404670477956e-01 -9.831474592128859324e-01
1.169230769230769296e+00 1.598952455351563273e-01 1.124450907759023399e-01 -9.807070365636081366e-01
1.247179487179487234e+00 1.694441287059671175e-01 1.207264099801674540e-01 -9.781156763522195208e-01
1.325128205128205172e+00 1.788109212564902573e-01 1.290822106288324611e-01 -9.753771926962083727e-01
1.403076923076923110e+00 1.879885493666227925e-01 1.374971573910804545e-01 -9.724972200967306746e-01
1.481025641025641049e+00 1.969686857293791449e-01 1.459580270378531552e-01 -9.694820117940177173e-01
1.558974358974358987e+00 2.057461499507538538e-01 1.544529116867732199e-01 -9.663376088498758509e-01
1.636923076923076925e+00 2.143111123539797880e-01 1.629703282745334492e-01 -9.630715176489033080e-01
1.714871794871794863e+00 2.226580052821595934e-01 1.714987964344405758e-01 -9.596909290863535613e-01
1.792820512820512802e+00 2.307773140149948499e-01 1.800282459135127411e-01 -9.562042361404587965e-01
1.870769230769230962e+00 2.386641365011251958e-01 1.885518407400836871e-01 -9.526186486367275164e-01
1.948717948717948900e+00 2.463099528642148095e-01 1.970639057463509369e-01 -9.489423900929715439e-01
2.026666666666666838e+00 2.537125041767883671e-01 2.055614115765193872e-01 -9.451818273763691325e-01
2.104615384615384777e+00 2.608669899732634634e-01 2.140420848200250137e-01 -9.413439310528446402e-01
2.182564102564102715e+00 2.677757730335808550e-01 2.225045651013577430e-01 -9.374335358528820272e-01
2.260512820512820653e+00 2.744350614232069496e-01 2.309493082060871949e-01 -9.334566829306768510e-01
2.338461538461538591e+00 2.808506870751132922e-01 2.393789243798524202e-01 -9.294159320496641064e-01
2.416410256410256530e+00 2.870290296180516565e-01 2.477928091098575147e-01 -9.253141082583299371e-01
2.494358974358974468e+00 2.929780522270241105e-01 2.561927226227518339e-01 -9.211525820382953089e-01
2.572307692307692406e+00 2.987067154008034020e-01 2.645776977827465348e-01 -9.169327463600451811e-01
2.650256410256410344e+00 3.042272721786397072e-01 2.729465709715033772e-01 -9.126546164724868015e-01
2.728205128205128283e+00 3.095542207161340320e-01 2.812943611575524083e-01 -9.083182117879252671e-01
2.806153846153846221e+00 3.147009647329350734e-01 2.896139196231536928e-01 -9.039243236048827290e-01
2.884102564102564159e+00 3.196810952944294515e-01 2.979001382488627447e-01 -8.994728481957929844e-01
2.962051282051282097e+00 3.245079430287054478e-01 3.061398470451499043e-01 -8.949663046944197342e-01
3.040000000000000036e+00 3.291930428007611154e-01 3.143227681335767354e-01 -8.904070051065012814e-01
