0.000000000000000000e+00 -3.296484724849825806e-09 2.327046886711536179e-09 -1.000000000000000000e+00
7.794871794871795212e-02 -3.148986532617668171e-02 -9.479972822974882390e-03 -9.994587955268162682e-01
1.558974358974359042e-01 -6.264900464471900854e-02 -1.958078665918026873e-02 -9.978429200556433454e-01
2.338461538461538702e-01 -9.312848098754207549e-02 -3.085026080453438097e-02 -9.951751528355029519e-01
3.117948717948718085e-01 -1.225550206221877048e-01 -4.383042810270897094e-02 -9.914922267984568327e-01
3.897435897435897467e-01 -1.505178197668066709e-01 -5.901027254483459661e-02 -9.868430915624177846e-01
4.676923076923077405e-01 -1.765598799690338561e-01 -7.681100835990135878e-02 -9.812865136794148846e-01
5.456410256410256787e-01 -2.001741570165359030e-01 -9.756501228289089778e-02 -9.748883751560348809e-01
6.235897435897436170e-01 -2.208013974058202211e-01 -1.214968265589518592e-01 -9.677193135037085447e-01
7.015384615384615552e-01 -2.378341194344999465e-01 -1.487114148546212489e-01 -9.598513838314632896e-01
7.794871794871794934e-01 -2.506294581335599680e-01 -1.791715444309125715e-01 -9.513551921622033225e-01
8.574358974358974317e-01 -2.585179135886076507e-01 -2.126892395116475043e-01 -9.422979824263035820e-01
9.353846153846154809e-01 -2.608272948018482973e-01 -2.489039918241479632e-01 -9.327427723664802883e-01
1.013333333333333419e+00 -2.569061011342465006e-01 -2.872867580906448004e-01 -9.227449171943499229e-01
1.091282051282051357e+00 -2.461519237173092900e-01 -3.271259974941506665e-01 -9.123540251215034314e-01
1.169230769230769296e+00 -2.280495676917277947e-01 -3.675309824622577382e-01 -9.016129440820570551e-01
1.247179487179487234e+00 -2.021979589598735527e-01 -4.074469803404972557e-01 -8.905582326504515311e-01
1.325128205128205172e+00 -1.683562893587016440e-01 -4.456651887079089991e-01 -8.792207966403021713e-01
1.403076923076923110e+00 -1.264742358015905899e-01 -4.808436137052740089e-01 -8.676311026938968718e-01
1.481025641025641049e+00 -7.672754677860377237e-02 -5.115518096279147997e-01 -8.558137272509123150e-01
1.558974358974358987e+00 -1.955167913989197537e-02 -5.362919804690734482e-01 -8.437995399018641818e-01
1.636923076923076925e+00 4.433909746399215812e-02 -5.535711198166830549e-01 -8.316138593347804919e-01
1.714871794871794863e+00 1.139312046142355178e-01 -5.619347931377616234e-01 -8.192905712895725001e-01
1.792820512820512802e+00 1.879093711695709046e-01 -5.600410525923801286e-01 -8.068653634419252763e-01
1.870769230769230962e+00 2.646661073297031930e-01 -5.467207554350625998e-01 -7.943773949122062694e-01
1.948717948717948900e+00 3.423144453548888078e-01 -5.210469186862954905e-01 -7.818680790411642878e-01
2.026666666666666838e+00 4.187284193681691247e-01 -4.823946787233373557e-01 -7.693817115326476719e-01
2.104615384615384777e+00 4.915902605144949478e-01 -4.305030581469992401e-01 -7.569623779503343863e-01
2.182564102564102715e+00 5.584439410101031953e-01 -3.655315328589728852e-01 -7.446560461963326327e-01
2.260512820512820653e+00 6.167899999621694329e-01 -2.880932281977970355e-01 -7.325008835450712574e-01
2.338461538461538591e+00 6.641528641531978527e-01 -1.992920102043186370e-01 -7.205334915581741440e-01
2.416410256410256530e+00 6.981912929006887092e-01 -1.007265916574565101e-01 -7.087789174508433154e-01
2.494358974358974468e+00 7.167890193043668923e-01 5.513201404185208432e-03 -6.972569639423172871e-01
2.572307692307692406e+00 7.181688109947954590e-01 1.168777332648680001e-01 -6.859715717702568050e-01
2.650256410256410344e+00 7.009809548327241568e-01 2.304132549631716098e-01 -6.749214705779247314e-01
2.728205128205128283e+00 6.644051318565864506e-01 3.428271782411073665e-01 -6.640923328894573485e-01
2.806153846153846221e+00 6.082270697863949582e-01 4.505956682992388052e-01 -6.534572253051224022e-01
2.884102564102564159e+00 5.329010516456602620e-01 5.500599524946848673e-01 -6.429877453683439104e-01
2.962051282051282097e+00 4.395918210820420891e-01 6.375781681548873259e-01 -6.326417704765193717e-01
3.040000000000000036e+00 3.301953157829961016e-01 7.096444484939731234e-01 -6.223809374165844011e-01
