0.000000000000000000e+00 -2.163581767184150547e-09 -1.480337846768282290e-09 -1.000000000000000000e+00
7.794871794871795212e-02 1.722096129428479783e-01 -6.439209183417912707e-02 -9.829527924184751075e-01
1.558974358974359042e-01 3.387672734432667920e-01 -1.245661992230586435e-01 -9.325863258028576075e-01
2.338461538461538702e-01 4.942585886160420494e-01 -1.766714794015781242e-01 -8.511705798888244967e-01
3.117948717948718085e-01 6.337517814400887017e-01 -2.175102694215867438e-01 -7.423221272520765801e-01
3.897435897435897467e-01 7.530173062881463375e-01 -2.448050672879850953e-01 -6.107603027989803035e-01
4.676923076923077405e-01 8.487074406340735511e-01 -2.573658020229728782e-01 -4.620065818695051618e-01
5.456410256410256787e-01 9.185108633496783526e-01 -2.551689229757636568e-01 -3.020219758972818025e-01
6.235897435897436170e-01 9.612399909801353504e-01 -2.393220428004482203e-01 -1.368678025014090083e-01
7.015384615384615552e-01 9.768876724640780385e-01 -2.119312946256833308e-01 2.767003532782760095e-02
7.794871794871794934e-01 9.666018148460837622e-01 -1.758909310629684919e-01 1.863694291093769273e-01
8.574358974358974317e-01 9.326071469276722148e-01 -1.346074654656800873e-01 3.348366048256924410e-01
9.353846153846154809e-01 8.780729361056354154e-01 -9.167281942688637608e-02 4.696547971747885297e-01
1.013333333333333419e+00 8.069133324233697113e-01 -5.056290583797601323e-02 5.884953645079830098e-01
1.091282051282051357e+00 7.235544095560176858e-01 -1.433651056477575070e-02 6.901137772152177163e-01
1.169230769230769296e+00 6.326632833455932969e-01 1.460701868086325406e-02 7.742857197398594904e-01
1.247179487179487234e+00 5.388791695217214350e-01 3.469984896210440151e-02 8.416654401571340705e-01
1.325128205128205172e+00 4.465372455250221084e-01 4.527063420631510793e-02 8.936170940899937909e-01
1.403076923076923110e+00 3.594348419992642873e-01 4.655616118194330633e-02 9.320066304594645246e-01
1.481025641025641049e+00 2.806240056422867335e-01 3.959545764088845399e-02 9.589996200350419109e-01
1.558974358974358987e+00 2.122874325189143818e-01 2.607693109333576731e-02 9.768584853559413306e-01
1.636923076923076925e+00 1.556670417423968444e-01 8.107867983571617754e-03 9.877757457600883084e-01
1.714871794871794863e+00 1.110748635554126978e-01 -1.200672624956547127e-02 9.937391090811367178e-01
1.792820512820512802e+00 7.797886929631497877e-02 -3.202660395595669646e-02 9.964401575758550234e-01
1.870769230769230962e+00 5.513780383368988014e-02 -4.998044271469568450e-02 9.972267749291483518e-01
1.948717948717948900e+00 4.079527140933725954e-02 -6.433734091409194777e-02 9.970937283099515769e-01
2.026666666666666838e+00 3.289235231819314514e-02 -7.412891542664976074e-02 9.967057815176634250e-01
2.104615384615384777e+00 2.928944398863015525e-02 -7.896947775283981452e-02 9.964463592332127861e-01
2.182564102564102715e+00 2.797076244102787018e-02 -7.905264928814800807e-02 9.964776539493960250e-01
2.260512820512820653e+00 2.722634912278372454e-02 -7.504939034094336436e-02 9.968077752411429460e-01
2.338461538461538591e+00 2.576192596004673457e-02 -6.798222442856323433e-02 9.973536060599355046e-01
2.416410256410256530e+00 2.277540897560565922e-02 -5.907524139119391116e-02 9.979934550179073716e-01
2.494358974358974468e+00 1.795191464624438377e-02 -4.957086418304708364e-02 9.986090675991172727e-01
2.572307692307692406e+00 1.142682235244973921e-02 -4.059120501968647293e-02 9.991103378710863847e-01
2.650256410256410344e+00 3.680156313519505895e-03 -3.301163928896121147e-02 9.994480653377407764e-01
2.728205128205128283e+00 -4.587023486476249010e-03 -2.738521314720360200e-02 9.996143229351410753e-01
2.806153846153846221e+00 -1.257705624352843145e-02 -2.390402266546508628e-02 9.996350362956571978e-01
2.884102564102564159e+00 -1.955035736865225887e-02 -2.242457806082890498e-02 9.995572486778603327e-01
2.962051282051282097e+00 -2.491344057176025223e-02 -2.253074228024887216e-02 9.994355560528104254e-01
3.040000000000000036e+00 -2.830973537527673584e-02 -2.361062004509961385e-02 9.993201786661551900e-01
