0.000000000000000000e+00 -2.028813997516069038e-09 1.403126626427559729e-09 -1.000000000000000000e+00
7.794871794871795212e-02 2.204934668139311299e-02 4.294838840537466840e-02 -9.988337808859022449e-01
1.558974358974359042e-01 4.305989722935677638e-02 8.623508603542917594e-02 -9.953435080468300278e-01
2.338461538461538702e-01 6.200385189547882175e-02 1.301334704582131629e-01 -9.895553657432658579e-01
3.117948717948718085e-01 7.784353575002836423e-02 1.748510833037633383e-01 -9.815121884420424658e-01
3.897435897435897467e-01 8.953827643974646144e-02 2.204840848420544508e-01 -9.712713368092588118e-01
4.676923076923077405e-01 9.605424859594387244e-02 2.669603101196132977e-01 -9.589076088482004767e-01
5.456410256410256787e-01 9.638378681466855391e-02 3.140321831423950050e-01 -9.445060078092379907e-01
6.235897435897436170e-01 8.955937213061354596e-02 3.612245851012109155e-01 -9.281665783623435084e-01
7.015384615384615552e-01 7.470423147407884157e-02 4.078234951628706417e-01 -9.099979034216330032e-01
7.794871794871794934e-01 5.105435478723127640e-02 4.528562762082271598e-01 -8.901186709098114491e-01
8.574358974358974317e-01 1.803051894063716076e-02 4.950927174766850958e-01 -8.686508328022847225e-01
9.353846153846154809e-01 -2.471791686556336354e-02 5.330391870765679441e-01 -8.457269657791225415e-01
1.013333333333333419e+00 -7.723950038941493346e-02 5.649833955485972226e-01 -8.214762906733088510e-01
1.091282051282051357e+00 -1.392176597545714822e-01 5.890181898407296224e-01 -7.960346495184712490e-01
1.169230769230769296e+00 -2.099004255588163559e-01 6.031192111916831022e-01 -7.695347935867299372e-01
1.247179487179487234e+00 -2.880537679252492822e-01 6.052204512482792786e-01 -7.421102612041363678e-01
1.325128205128205172e+00 -3.719169198251389696e-01 5.933213795413641023e-01 -7.138918866304611033e-01
1.403076923076923110e+00 -4.591672823887466004e-01 5.656252635182484889e-01 -6.850016502435926080e-01
1.481025641025641049e+00 -5.469446020085955151e-01 5.206541605138399476e-01 -6.555641405030088187e-01
1.558974358974358987e+00 -6.318735427153728823e-01 4.574308084011420306e-01 -6.256884814545633500e-01
1.636923076923076925e+00 -7.101457959905476125e-01 3.755979844660494171e-01 -5.954931200772688449e-01
1.714871794871794863e+00 -7.776456553793791304e-01 2.756022725483198710e-01 -5.650692390486821148e-01
1.792820512820512802e+00 -8.300974034588213257e-01 1.587829038018245820e-01 -5.345267396234923973e-01
1.870769230769230962e+00 -8.632985499148188024e-01 2.749104576716770998e-02 -5.039365770942596523e-01
1.948717948717948900e+00 -8.733244662957395654e-01 -1.148644432700705043e-01 -4.733947862898832404e-01
2.026666666666666838e+00 -8.568321246939482050e-01 -2.638388188548436708e-01 -4.429668048196857000e-01
2.104615384615384777e+00 -8.113224110952184098e-01 -4.140147595699930627e-01 -4.127218519873227520e-01
2.182564102564102715e+00 -7.354265352793795119e-01 -5.591610247679985601e-01 -3.827247851554538838e-01
2.260512820512820653e+00 -6.291629841547821123e-01 -6.924749835059798020e-01 -3.530207094364308240e-01
2.338461538461538591e+00 -4.941334534629012176e-01 -8.068864083045073077e-01 -3.236627774179330896e-01
2.416410256410256530e+00 -3.336841391621370168e-01 -8.954322874878020144e-01 -2.946980957170621251e-01
2.494358974358974468e+00 -1.529200895504492785e-01 -9.517181759186035261e-01 -2.661558824273586032e-01
2.572307692307692406e+00 4.134798103760800592e-02 -9.703648218556247818e-01 -2.380616990682753453e-01
2.650256410256410344e+00 2.408034874751672216e-01 -9.474771883171587694e-01 -2.104553367276998099e-01
2.728205128205128283e+00 4.359524111257105372e-01 -8.810913067171690649e-01 -1.833418779161687384e-01
2.806153846153846221e+00 6.165760102801489673e-01 -7.715250342828542385e-01 -1.567603950365746845e-01
2.884102564102564159e+00 7.723146717869382449e-01 -6.216396485356344703e-01 -1.307087841797177907e-01
2.962051282051282097e+00 8.933102306627720424e-01 -4.369431430009876327e-01 -1.052049491703393319e-01
3.040000000000000036e+00 9.709232729362073933e-01 -2.255160093325394577e-01 -8.025629790449315126e-02
