0.000000000000000000e+00 1.793242731798613319e-09 -7.717459282667804550e-10 -1.000000000000000000e+00
7.794871794871795212e-02 -6.824500284975443254e-03 -3.785874448781864805e-03 -9.999694992713681341e-01
1.558974358974359042e-01 -1.359793357588244891e-02 -7.675847775701323018e-03 -9.998779938815532953e-01
2.338461538461538702e-01 -2.026825157473350486e-02 -1.174122019452738044e-02 -9.997255070837171020e-01
3.117948717948718085e-01 -2.678060019079906567e-02 -1.606598232742472571e-02 -9.995120591979831381e-01
3.897435897435897467e-01 -3.307273475818399422e-02 -2.073181025127164220e-02 -9.992377020409483057e-01
4.676923076923077405e-01 -3.907809250853408467e-02 -2.581432982915623023e-02 -9.989024219709431440e-01
5.456410256410256787e-01 -4.471819050879242280e-02 -3.138296100780695042e-02 -9.985063071236245369e-01
6.235897435897436170e-01 -4.990771935890758737e-02 -3.749690478747483291e-02 -9.980493881941324696e-01
7.015384615384615552e-01 -5.454903197283191008e-02 -4.420403085159942819e-02 -9.975318120749059325e-01
7.794871794871794934e-01 -5.853613689989331514e-02 -5.154303490500303231e-02 -9.969533925516953499e-01
8.574358974358974317e-01 -6.174784741982131120e-02 -5.952765849939168491e-02 -9.963146204225661329e-01
9.353846153846154809e-01 -6.405570792893854060e-02 -6.816020476090731139e-02 -9.956154572683083570e-01
1.013333333333333419e+00 -6.532260095547862133e-02 -7.741961224066548630e-02 -9.948558569811088992e-01
1.091282051282051357e+00 -6.540094512344153677e-02 -8.725806983771500214e-02 -9.940360598763373634e-01
1.169230769230769296e+00 -6.413930703755460483e-02 -9.760049104629771322e-02 -9.931561614785109349e-01
1.247179487179487234e+00 -6.138663680677092227e-02 -1.083362113553028860e-01 -9.922165816777942515e-01
1.325128205128205172e+00 -5.699365670853812765e-02 -1.193279000097718506e-01 -9.912170782896838617e-01
1.403076923076923110e+00 -5.082069876710951228e-02 -1.303964879676821065e-01 -9.901578963760689911e-01
1.481025641025641049e+00 -4.274095192353337402e-02 -1.413247166092876372e-01 -9.890394879872735912e-01
1.558974358974358987e+00 -3.264948235270089677e-02 -1.518583270834992227e-01 -9.878621161134851780e-01
1.636923076923076925e+00 -2.047749733075367173e-02 -1.617060121783413240e-01 -9.866256938993032133e-01
1.714871794871794863e+00 -6.185965951929328632e-03 -1.705389778567502346e-01 -9.853306744523475658e-01
1.792820512820512802e+00 1.020356374303638819e-02 -1.779950056804418257e-01 -9.839776073766343112e-01
1.870769230769230962e+00 2.862612552944240885e-02 -1.836917009701023451e-01 -9.825660758242107384e-01
1.948717948717948900e+00 4.893639515213456248e-02 -1.872199330392984307e-01 -9.810973708758851108e-01
2.026666666666666838e+00 7.092673486130866845e-02 -1.881703846865887264e-01 -9.795710009494676962e-01
2.104615384615384777e+00 9.429526812564398286e-02 -1.861362734133866492e-01 -9.779875486436389043e-01
2.182564102564102715e+00 1.186602177692598487e-01 -1.807277160875966349e-01 -9.763478518968198294e-01
2.260512820512820653e+00 1.435492346337441383e-01 -1.715958900465500980e-01 -9.746518706420911338e-01
2.338461538461538591e+00 1.683944183724558064e-01 -1.584498792404671064e-01 -9.729001385072907349e-01
2.416410256410256530e+00 1.925451095258446932e-01 -1.410736017782399931e-01 -9.710933363911861127e-01
2.494358974358974468e+00 2.152725650160000614e-01 -1.193511513800533941e-01 -9.692319651053968865e-01
2.572307692307692406e+00 2.357858901442144162e-01 -9.328631309196076804e-02 -9.673159559969687349e-01
2.650256410256410344e+00 2.532397139790942830e-01 -6.302340901804490136e-02 -9.653471501818788880e-01
2.728205128205128283e+00 2.667763587844982354e-01 -2.887039148207565242e-02 -9.633245555689199380e-01
2.806153846153846221e+00 2.755382973637930388e-01 8.701687155294512976e-03 -9.612492613889104254e-01
2.884102564102564159e+00 2.787015256513807882e-01 4.903189878436809562e-02 -9.591238235664926171e-01
2.962051282051282097e+00 2.755415614379261302e-01 9.126958456436870537e-02 -9.569450340108757169e-01
3.040000000000000036e+00 2.654289624550271731e-01 1.343886825717748035e-01 -9.547167946647262537e-01
