0.000000000000000000e+00 2.301351076747526630e-09 1.413361490721562456e-09 -1.000000000000000000e+00
7.794871794871795212e-02 -9.765837995302618924e-02 5.920439136089183929e-02 -9.934569266119001041e-01
1.558974358974359042e-01 -1.935061195439566339e-01 1.177204992069063316e-01 -9.740098664571732456e-01
2.338461538461538702e-01 -2.857826094154199414e-01 1.749014891798315041e-01 -9.421967014256033002e-01
3.117948717948718085e-01 -3.728813548254791277e-01 2.301387745791988182e-01 -8.988833878837707569e-01
3.897435897435897467e-01 -4.533998872304655925e-01 2.828893157767942146e-01 -8.452199232120397587e-01
4.676923076923077405e-01 -5.261833429468301127e-01 3.326936456020783694e-01 -7.825850824798091798e-01
5.456410256410256787e-01 -5.903611032080366972e-01 3.791809796058472903e-01 -7.125221657045152091e-01
6.235897435897436170e-01 -6.453625284988522282e-01 4.220836040842325110e-01 -6.366662443366827295e-01
7.015384615384615552e-01 -6.909209770196905742e-01 4.612282945025973357e-01 -5.566749618298383329e-01
7.794871794871794934e-01 -7.270547539868268405e-01 4.965367537453789781e-01 -4.741647472713327316e-01
8.574358974358974317e-01 -7.540423906435040902e-01 5.280173781612469419e-01 -3.906489981223319474e-01
9.353846153846154809e-01 -7.723857115889618541e-01 5.557518000615017106e-01 -3.074876371653718077e-01
1.013333333333333419e+00 -7.827583717281632048e-01 5.798833191333948589e-01 -2.258598497687997197e-01
1.091282051282051357e+00 -7.859604812900637949e-01 6.006009490800530148e-01 -1.467391346607048175e-01
1.169230769230769296e+00 -7.828669259479437148e-01 6.181287009980931391e-01 -7.087945885853744188e-02
1.247179487179487234e+00 -7.743814170933107643e-01 6.327081660345312830e-01 1.169685101760740411e-03
1.325128205128205172e+00 -7.613936352594413703e-01 6.445917042601398972e-01 6.905708210094094190e-02
1.403076923076923110e+00 -7.447476978012008697e-01 6.540308305479450857e-01 1.325981237841017679e-01
1.481025641025641049e+00 -7.252134322367912445e-01 6.612723008415664072e-01 1.917610684489293449e-01
1.558974358974358987e+00 -7.034755289050103055e-01 6.665478717149742049e-01 2.466256788066051864e-01
1.636923076923076925e+00 -6.801223084137749675e-01 6.700828205231520451e-01 2.973398655394545176e-01
1.714871794871794863e+00 -6.556446573304115510e-01 6.720784150593281936e-01 3.441355727926940222e-01
1.792820512820512802e+00 -6.304470493754296134e-01 6.727275294495083102e-01 3.872506734148586371e-01
1.870769230769230962e+00 -6.048559856980708638e-01 6.722042063691834324e-01 4.269425217552211826e-01
1.948717948717948900e+00 -5.791216980378189882e-01 6.706695315165587257e-01 4.634759019850718809e-01
2.026666666666666838e+00 -5.534527131419805235e-01 6.682666759702754478e-01 4.970910629528718094e-01
2.104615384615384777e+00 -5.280053992297750742e-01 6.651271622418692964e-01 5.280210508194417285e-01
2.182564102564102715e+00 -5.029103839018511657e-01 6.613663400808417192e-01 5.564764773565300526e-01
2.260512820512820653e+00 -4.782648544843764449e-01 6.570835094462079695e-01 5.826616795092008916e-01
2.338461538461538591e+00 -4.541620567554708887e-01 6.523637677210630814e-01 6.067530433754558805e-01
2.416410256410256530e+00 -4.306650831025814474e-01 6.472813140772231133e-01 6.289242128657047681e-01
2.494358974358974468e+00 -4.078290912305346239e-01 6.418903874439381152e-01 6.493408950440026084e-01
2.572307692307692406e+00 -3.856994316364084074e-01 6.362385705059113716e-01 6.681527549646906206e-01
2.650256410256410344e+00 -3.642958113071476656e-01 6.303593406651728515e-01 6.855126366013426509e-01
2.728205128205128283e+00 -3.436336747517709789e-01 6.242824938447139038e-01 7.015549878630806813e-01
2.806153846153846221e+00 -3.237115752537100266e-01 6.180264286543650787e-01 7.164122330836636410e-01
2.884102564102564159e+00 -3.045128679973894692e-01 6.116168178550434043e-01 7.301981407395140566e-01
2.962051282051282097e+00 -2.860134105671182647e-01 6.050661690177359109e-01 7.430235572222299023e-01
3.040000000000000036e+00 -2.681843528668589882e-01 5.983973229325098009e-01 7.549773047700941708e-01
