0.000000000000000000e+00 2.144565702148796487e-09 3.614973029344315055e-09 -1.000000000000000000e+00
7.794871794871795212e-02 1.815432927684309736e-02 -4.472641961382459869e-02 -9.988340300025314589e-01
1.558974358974359042e-01 3.722918446447823215e-02 -8.885032222820098136e-02 -9.953484583121928742e-01
2.338461538461538702e-01 5.807574052616286397e-02 -1.317446990957719111e-01 -9.895802027349545060e-01
3.117948717948718085e-01 8.150560622219653328e-02 -1.727355613296814585e-01 -9.815891027954929404e-01
3.897435897435897467e-01 1.082315012078517297e-01 -2.110803133394713316e-01 -9.714568540919484851e-01
4.676923076923077405e-01 1.388397540743569469e-01 -2.459560465213159186e-01 -9.592840962059483445e-01
5.456410256410256787e-01 1.737523243021567576e-01 -2.764541049294108044e-01 -9.451875612519474723e-01
6.235897435897436170e-01 2.131924146095975914e-01 -3.015786423946370531e-01 -9.292981312124337645e-01
7.015384615384615552e-01 2.571505599344677262e-01 -3.202626355454370466e-01 -9.117568617932142461e-01
7.794871794871794934e-01 3.053560788507871937e-01 -3.313908881919919169e-01 -8.927106695047231089e-01
8.574358974358974317e-01 3.572367969467978299e-01 -3.338411902942377552e-01 -8.723106950045682595e-01
9.353846153846154809e-01 4.119150896279749063e-01 -3.265187221319288402e-01 -8.507084734425766070e-01
1.013333333333333419e+00 4.681743175348109798e-01 -3.084247954418173343e-01 -8.280579010999836731e-01
1.091282051282051357e+00 5.244836825852533524e-01 -2.787241430543713760e-01 -8.045011508789486898e-01
1.169230769230769296e+00 5.789854304800012841e-01 -2.368137925361656071e-01 -7.801839417338344296e-01
1.247179487179487234e+00 6.295515324688907288e-01 -1.824060904254030668e-01 -7.552378893651530145e-01
1.325128205128205172e+00 6.738192034009733433e-01 -1.156093605482453046e-01 -7.297896952821583128e-01
1.403076923076923110e+00 7.092641355878547271e-01 -3.699392046084948316e-02 -7.039647369238154484e-01
1.481025641025641049e+00 7.333202365453829197e-01 5.233802018677674583e-02 -6.778584866904275863e-01
1.558974358974358987e+00 7.434476191587102711e-01 1.507127981301989439e-01 -6.515833372287934688e-01
1.636923076923076925e+00 7.373019998218720561e-01 2.558614779290080965e-01 -6.252278341072888823e-01
1.714871794871794863e+00 7.128658928112276971e-01 3.649101644657636312e-01 -5.988752796419194446e-01
1.792820512820512802e+00 6.685978869622505316e-01 4.744485057175251708e-01 -5.725940208159918665e-01
1.870769230769230962e+00 6.035731852394686792e-01 5.805754698460852126e-01 -5.464610024324902948e-01
1.948717948717948900e+00 5.176458200739268989e-01 6.790294241292581523e-01 -5.205282338602094105e-01
2.026666666666666838e+00 4.115453781926753929e-01 7.653411580115014878e-01 -4.948441994167038227e-01
2.104615384615384777e+00 2.869832799806212309e-01 8.350078242101510728e-01 -4.694568592043572020e-01
2.182564102564102715e+00 1.466812070564907367e-01 8.837309443522533003e-01 -4.443998093781768022e-01
2.260512820512820653e+00 -5.598637416848850634e-03 9.076332330192969922e-01 -4.197110254191694367e-01
2.338461538461538591e+00 -1.651428654293577991e-01 9.035306077951440473e-01 -3.954070866365161363e-01
2.416410256410256530e+00 -3.263845975498251284e-01 8.691596375577083089e-01 -3.715116132630013612e-01
2.494358974358974468e+00 -4.830967053565502489e-01 8.034103376165391275e-01 -3.480452840394191449e-01
2.572307692307692406e+00 -6.286363342177028191e-01 7.065163225753084975e-01 -3.250184446696198770e-01
2.650256410256410344e+00 -7.562317336781686494e-01 5.801960547282257741e-01 -3.024431584913256366e-01
2.728205128205128283e+00 -8.593379689932670873e-01 4.277188309097156305e-01 -2.803221671690492300e-01
2.806153846153846221e+00 -9.319960419827377773e-01 2.538975177532517002e-01 -2.586599164730577494e-01
2.884102564102564159e+00 -9.692118832404996720e-01 6.498548518724080181e-02 -2.374671586555039959e-01
2.962051282051282097e+00 -9.673249670203946105e-01 -1.315137804347978612e-01 -2.167298775426473867e-01
3.040000000000000036e+00 -9.243193459881953178e-01 -3.271399529345796475e-01 -1.964648622835230285e-01
