0.000000000000000000e+00 -1.868323944512486747e-09 2.384945145029575743e-09 -1.000000000000000000e+00
7.794871794871795212e-02 -7.937434686597133471e-03 1.837540964162620583e-01 -9.829385618358505994e-01
1.558974358974359042e-01 -1.552804518472319928e-02 3.611877972108066270e-01 -9.323602109690521944e-01
2.338461538461538702e-01 -2.236330354112034402e-02 5.262040269304282258e-01 -8.500580835992280759e-01
3.117948717948718085e-01 -2.804232135950476823e-02 6.731683790215219343e-01 -7.389477034353657547e-01
3.897435897435897467e-01 -3.214203547958871532e-02 7.971159401715069981e-01 -6.029554555937387539e-01
4.676923076923077405e-01 -3.421210331027196849e-02 8.939329573311678434e-01 -4.468698341988845968e-01
5.456410256410256787e-01 -3.377831421275355461e-02 9.605034542562722599e-01 -2.761688629230872882e-01
6.235897435897436170e-01 -3.034784496251716202e-02 9.948287182673851703e-01 -9.680286284209353720e-02
7.015384615384615552e-01 -2.341718284078577600e-02 9.960922985625797477e-01 8.501587134111950050e-02
7.794871794871794934e-01 -1.248892547101827961e-02 9.646893450419558036e-01 2.630503248969276453e-01
8.574358974358974317e-01 2.908237362005683391e-03 9.022057828811863578e-01 4.312716898717647851e-01
9.353846153846154809e-01 2.320147072218031736e-02 8.113549963657828989e-01 5.840775259888726367e-01
1.013333333333333419e+00 4.874149751432807487e-02 6.958706727288267446e-01 7.165007751187119078e-01
1.091282051282051357e+00 7.978578283355708400e-02 5.603626456181077797e-01 8.243885635439519577e-01
1.169230769230769296e+00 1.164650342976309705e-01 4.101400024176155013e-01 9.045512509216621089e-01
1.247179487179487234e+00 1.587597478790463423e-01 2.510078430141170491e-01 9.548743594934380186e-01
1.325128205128205172e+00 2.064794802366239912e-01 8.904660378869175275e-02 9.743885058654060405e-01
1.403076923076923110e+00 2.592605105925199771e-01 -6.960538006676383893e-02 9.632934546462808001e-01
1.481025641025641049e+00 3.165489153523077248e-01 -2.190184917750223614e-01 9.229412161044990848e-01
1.558974358974358987e+00 3.775756364619481387e-01 -3.536716712414442187e-01 8.557702707148386878e-01
1.636923076923076925e+00 4.413775053679901417e-01 -4.686503795623375157e-01 7.652053774654034024e-01
1.714871794871794863e+00 5.068137111006676410e-01 -5.598431264510878025e-01 6.555142958889886851e-01
1.792820512820512802e+00 5.725898742541338793e-01 -6.240914904754572001e-01 5.316308600794714678e-01
1.870769230769230962e+00 6.372808027760121785e-01 -6.592995995394376196e-01 3.989683528124950973e-01
1.948717948717948900e+00 6.993762649807634402e-01 -6.645134112280342009e-01 2.631952428627177820e-01
2.026666666666666838e+00 7.573235105086175700e-01 -6.399469777632985634e-01 1.300194065118851217e-01
2.104615384615384777e+00 8.095789140581541865e-01 -5.869694766589279578e-01 4.960973151106156699e-03
2.182564102564102715e+00 8.546631807317737195e-01 -5.080442038097683355e-01 -1.068546838448470593e-01
2.260512820512820653e+00 8.912174274117177220e-01 -4.066306790214624933e-01 -2.008966725483188054e-01
2.338461538461538591e+00 9.180612394433773638e-01 -2.870389438502453094e-01 -2.734031493540401425e-01
2.416410256410256530e+00 9.342415816180935639e-01 -1.542677165090461378e-01 -3.215147059579479549e-01
2.494358974358974468e+00 9.390817864143246041e-01 -1.380690992969624276e-02 -3.433840222524658925e-01
2.572307692307692406e+00 9.322239979803561560e-01 1.285848448937882971e-01 -3.382338113227953413e-01
2.650256410256410344e+00 9.136560380946169291e-01 2.670941280092362091e-01 -3.063833695124862366e-01
2.728205128205128283e+00 8.837314348090988814e-01 3.960844283317092041e-01 -2.492242517702135673e-01
2.806153846153846221e+00 8.431772428715810230e-01 5.103093548947803537e-01 -1.691531182109286546e-01
2.884102564102564159e+00 7.930829433953799912e-01 6.051189549829710801e-01 -6.947206406967744441e-02
2.962051282051282097e+00 7.348846675893386804e-01 6.766295515618635514e-01 4.574714561948182989e-02
3.040000000000000036e+00 6.703242024748139460e-01 7.218813003780663040e-01 1.718404642815054006e-01
