0.000000000000000000e+00 1.339226481472480102e-09 -8.201668455552738332e-09 -1.000000000000000000e+00
7.794871794871795212e-02 3.361232443513531565e-02 8.339146050898325890e-02 -9.959491854558049084e-01
1.558974358974359042e-01 6.713047922644752030e-02 1.655805493189646538e-01 -9.839075250410030948e-01
2.338461538461538702e-01 1.004869742390571696e-01 2.453806263601446824e-01 -9.642026883719185815e-01
3.117948717948718085e-01 1.335963750702598429e-01 3.217159806159631263e-01 -9.373609551159566289e-01
3.897435897435897467e-01 1.663562574604493527e-01 3.936393492141607164e-01 -9.040834983652976664e-01
4.676923076923077405e-01 1.986583366423043950e-01 4.603673772894026905e-01 -8.652101733168596764e-01
5.456410256410256787e-01 2.303828420768561092e-01 5.213033715304143945e-01 -8.216794136282520311e-01
6.235897435897436170e-01 2.613958596554269431e-01 5.760496154890768494e-01 -7.744857849291038043e-01
7.015384615384615552e-01 2.915601866638978801e-01 6.244073430107944800e-01 -7.246351201844561940e-01
7.794871794871794934e-01 3.207331019186975274e-01 6.663727456201602450e-01 -6.731005908733529441e-01
8.574358974358974317e-01 3.487738821783389342e-01 7.021140465275386155e-01 -6.207884891188775178e-01
9.353846153846154809e-01 3.755503060748051070e-01 7.319504652867523387e-01 -5.685026283199176023e-01
1.013333333333333419e+00 4.009433768666742504e-01 7.563168187478577220e-01 -5.169266789812275720e-01
1.091282051282051357e+00 4.248525101234236767e-01 7.757363707630331451e-01 -4.666011312861167437e-01
1.169230769230769296e+00 4.472050053383556101e-01 7.907769024301971594e-01 -4.179259889499976066e-01
1.247179487179487234e+00 4.679550646721029050e-01 8.020193937461044253e-01 -3.711670531086994629e-01
1.325128205128205172e+00 4.870918064709718331e-01 8.100321615409533660e-01 -3.264522198662414554e-01
1.403076923076923110e+00 5.046370741689718553e-01 8.153363705615278567e-01 -2.838119846297006421e-01
1.481025641025641049e+00 5.206459684095725571e-01 8.183951275106833290e-01 -2.431832755602197638e-01
1.558974358974358987e+00 5.352065382183556208e-01 8.195959751253167891e-01 -2.044433267449870251e-01
1.636923076923076925e+00 5.484315644139455825e-01 8.192481658848124182e-01 -1.674387780541125303e-01
1.714871794871794863e+00 5.604566439744127493e-01 8.175843081004647850e-01 -1.320022063183939609e-01
1.792820512820512802e+00 5.714320944998512175e-01 8.147671505808830039e-01 -9.797998145290200134e-02
1.870769230769230962e+00 5.815118050262785276e-01 8.109054940582998139e-01 -6.524148047079408874e-02
1.948717948717948900e+00 5.908518652874683585e-01 8.060636586560754324e-01 -3.369805931918089942e-02
2.026666666666666838e+00 5.995958061342709922e-01 8.002837266052778009e-01 -3.304299290583626730e-03
2.104615384615384777e+00 6.078719663927195649e-01 7.935983180804597747e-01 2.595156542605878136e-02
2.182564102564102715e+00 6.157862764918861087e-01 7.860456074211104038e-01 5.403422832685024491e-02
2.260512820512820653e+00 6.234178452542653570e-01 7.776806747184205060e-01 8.088969184468357276e-02
2.338461538461538591e+00 6.308162920578120891e-01 7.685825704259319213e-01 1.064513350528181745e-01
2.416410256410256530e+00 6.380032373903653520e-01 7.588562082893957061e-01 1.306501280462612213e-01
2.494358974358974468e+00 6.449727489457203200e-01 7.486317524963210790e-01 1.534309916754861836e-01
2.572307692307692406e+00 6.516961585205962582e-01 7.380554122166400610e-01 1.747765464731847462e-01
2.650256410256410344e+00 6.581244122636653593e-01 7.272889238252975286e-01 1.946887231782455652e-01
2.728205128205128283e+00 6.641991649931519026e-01 7.164901378834349632e-01 2.132183719763578733e-01
2.806153846153846221e+00 6.698570166696967698e-01 7.058033930038357662e-01 2.304647089418749573e-01
2.884102564102564159e+00 6.750402323578881258e-01 6.953534685648641300e-01 2.465464995780665969e-01
2.962051282051282097e+00 6.796978698163396171e-01 6.852300802130357749e-01 2.616325417585639301e-01
3.040000000000000036e+00 6.837973083298916066e-01 6.754850835460053382e-01 2.759026925969397248e-01
