0.000000000000000000e+00 -4.959271199306131484e-10 -2.989299141521759108e-09 -1.000000000000000000e+00
7.794871794871795212e-02 -1.087569774054324284e-01 1.482890460028589430e-01 -9.829440767163100112e-01
1.558974358974359042e-01 -2.151691512494982583e-01 2.902389427654580301e-01 -9.324467217060509183e-01
2.338461538461538702e-01 -3.168548283643676244e-01 4.198376874009878135e-01 -8.504874307197785033e-01
3.117948717948718085e-01 -4.114936901161638794e-01 5.316782492562889262e-01 -7.402546375580895122e-01
3.897435897435897467e-01 -4.968260933908372201e-01 6.212283338988066062e-01 -6.059879712760583015e-01
4.676923076923077405e-01 -5.706877123824927178e-01 6.850453389216231148e-01 -4.527777689271406669e-01
5.456410256410256787e-01 -6.310623596721298689e-01 7.209481387772015415e-01 -2.863061512208535109e-01
6.235897435897436170e-01 -6.761278407056230400e-01 7.281147743443671105e-01 -1.125876256362522143e-01
7.015384615384615552e-01 -7.043348770003676762e-01 7.071092701043997231e-01 6.232713272222072803e-02
7.794871794871794934e-01 -7.144697686317649232e-01 6.598457193779189156e-01 2.326225223265470654e-01
8.574358974358974317e-01 -7.057359097092572586e-01 5.894725853755833356e-01 3.929851117459915999e-01
9.353846153846154809e-01 -6.778230503876654378e-01 5.002115954623391758e-01 5.388182361106886864e-01
1.013333333333333419e+00 -6.309699500952583584e-01 3.971115740873590871e-01 6.664555651905850198e-01
1.091282051282051357e+00 -5.660171496635661992e-01 2.858047816734598512e-01 7.732573940063941498e-01
1.169230769230769296e+00 -4.844258619512940012e-01 1.721955206077598333e-01 8.577121380131611517e-01
1.247179487179487234e+00 -3.882844532216832567e-01 6.215470034531217491e-02 9.194371026934528013e-01
1.325128205128205172e+00 -2.802769787589844408e-01 -3.877249327326015571e-02 9.591331580485176200e-01
1.403076923076923110e+00 -1.636294058591604150e-01 -1.256692997303030801e-01 9.784830167569658066e-01
1.481025641025641049e+00 -4.199312197917491607e-02 -1.944818302411348010e-01 9.800050511142797127e-01
1.558974358974358987e+00 8.066547189321970901e-02 -2.422076618785898583e-01 9.668629573034362990e-01
1.636923076923076925e+00 2.001943505931205181e-01 -2.670548028322706768e-01 9.426546695886092175e-01
1.714871794871794863e+00 3.124502828851928871e-01 -2.685236269680365551e-01 9.111871800513573483e-01
1.792820512820512802e+00 4.134770449921579272e-01 -2.474148208473781474e-01 8.762495257576208285e-01
1.870769230769230962e+00 4.996944156425106032e-01 -2.057522072755222364e-01 8.414040020447914880e-01
1.948717948717948900e+00 5.680713244495529946e-01 -1.466702496024521185e-01 8.097967776161885123e-01
2.026666666666666838e+00 6.162853117803295255e-01 -7.422358622154051622e-02 7.840091865948323191e-01
2.104615384615384777e+00 6.428619585123306335e-01 6.849095108641588270e-03 7.659426407144095394e-01
2.182564102564102715e+00 6.472607000948010780e-01 9.138378861837168077e-02 7.567620769916086898e-01
2.260512820512820653e+00 6.299315783950274472e-01 1.740971175929050818e-01 7.568769095212164455e-01
2.338461538461538591e+00 5.923158796376895019e-01 2.498610585599519429e-01 7.659751273067302302e-01
2.416410256410256530e+00 5.367979729405720768e-01 3.140004908346439305e-01 7.830956077035360341e-01
2.494358974358974468e+00 4.665999510561567032e-01 3.625431694112389858e-01 8.067433561514566476e-01
2.572307692307692406e+00 3.856344680974123085e-01 3.924339873103903642e-01 8.350272752691462186e-01
2.650256410256410344e+00 2.983226883172844790e-01 4.016985849063823832e-01 8.658128998001168863e-01
2.728205128205128283e+00 2.093573585042822760e-01 3.895506700574631331e-01 8.968897807501033936e-01
2.806153846153846221e+00 1.234909117862271200e-01 3.564138075110397930e-01 9.261275024364779007e-01
2.884102564102564159e+00 4.524690428058146530e-02 3.039023593918064869e-01 9.516251845046599378e-01
2.962051282051282097e+00 -2.127975251733724149e-02 2.347125228470799130e-01 9.718297302531356818e-01
3.040000000000000036e+00 -7.267859376088534051e-02 1.524699622315608960e-01 9.856306520631514800e-01
