0.000000000000000000e+00 -1.215644592756122359e-15 3.652388690577727266e-14 -1.000000000000000000e+00
7.794871794871795212e-02 -2.767410770471880402e-03 8.982592873493439045e-02 -9.959536354416435033e-01
1.558974358974359042e-01 -4.165600347033230483e-03 1.782390413835743537e-01 -9.839784001043603290e-01
2.338461538461538702e-01 -2.893846483367906730e-03 2.638505931053871656e-01 -9.645592206255221290e-01
3.117948717948718085e-01 2.221866733194875765e-03 3.453180912915571610e-01 -9.384830733744430331e-01
3.897435897435897467e-01 1.216274980782763859e-02 4.213679158093490695e-01 -9.068082192926457674e-01
4.676923076923077405e-01 2.767479707448174120e-02 4.908183104961047483e-01 -8.708223075854145678e-01
5.456410256410256787e-01 4.921906920912702543e-02 5.525999377464649864e-01 -8.319920623676029248e-01
6.235897435897436170e-01 7.694466420028979459e-02 6.057788970179918131e-01 -7.919036849990273019e-01
7.015384615384615552e-01 1.106742579029902501e-01 6.495722390256961631e-01 -7.522015118887228624e-01
7.794871794871794934e-01 1.498900461113898408e-01 6.833668553987810590e-01 -7.145227180833703118e-01
8.574358974358974317e-01 1.937539354962198312e-01 7.067355094450279429e-01 -6.804295199482781609e-01
9.353846153846154809e-01 2.411219620153000343e-01 7.194490025186984772e-01 -6.513473201463515494e-01
1.013333333333333419e+00 2.905846556099599964e-01 7.214848789508472304e-01 -6.285062664796974286e-01
1.091282051282051357e+00 3.405099461044952536e-01 7.130363888049134902e-01 -6.128883129134111707e-01
1.169230769230769296e+00 3.891006239292871260e-01 6.945103946219053359e-01 -6.051908916798138804e-01
1.247179487179487234e+00 4.344630963796398682e-01 6.665328525491094336e-01 -6.057852539034644934e-01
1.325128205128205172e+00 4.746756467231649790e-01 6.299334425407709936e-01 -6.147087828895728689e-01
1.403076923076923110e+00 5.078620108735730776e-01 5.857422718305145271e-01 -6.316503530033127367e-01
1.481025641025641049e+00 5.322636090220886906e-01 5.351700399015411058e-01 -6.559637783580132275e-01
1.558974358974358987e+00 5.463187388077895834e-01 4.795887362204993010e-01 -6.866807694957853814e-01
1.636923076923076925e+00 5.487205700668729147e-01 4.205045951782256930e-01 -7.225521578135276624e-01
1.714871794871794863e+00 5.384852995703359735e-01 3.595276665612829325e-01 -7.620849287865915089e-01
1.792820512820512802e+00 5.149917122653669965e-01 2.983416277234642311e-01 -8.036017726730131372e-01
1.870769230769230962e+00 4.780307047577236346e-01 2.386588527338697474e-01 -8.452979339543534865e-01
1.948717948717948900e+00 4.278196633670304228e-01 1.821868602481293009e-01 -8.853125340900612761e-01
2.026666666666666838e+00 3.650142323793037491e-01 1.305825183135044254e-01 -9.217986851349512234e-01
2.104615384615384777e+00 2.907089643766547216e-01 8.541010990479203091e-02 -9.529918211712250509e-01
2.182564102564102715e+00 2.064049827211144328e-01 4.809756825992558826e-02 -9.772837903035339613e-01
2.260512820512820653e+00 1.139813694448382625e-01 1.989407714893533588e-02 -9.932836819647480331e-01
2.338461538461538591e+00 1.564301019417285027e-02 1.839352226285686630e-03 -9.998759488214492563e-01
2.416410256410256530e+00 -8.614170957651975935e-02 -5.282127670376741274e-03 -9.962688920010133176e-01
2.494358974358974468e+00 -1.887169535114012753e-01 -9.597661467731152807e-04 -9.820310537062603151e-01
2.572307692307692406e+00 -2.893195023066670313e-01 1.501541207325472055e-02 -9.571148116227145008e-01
2.650256410256410344e+00 -3.851661125741421832e-01 4.253593684126737162e-02 -9.218664544031245356e-01
2.728205128205128283e+00 -4.735420797412361327e-01 8.117150927824988427e-02 -8.770228529930510497e-01
2.806153846153846221e+00 -5.518966588786273775e-01 1.301722755237592621e-01 -8.236900245594001024e-01
2.884102564102564159e+00 -6.179238014212637964e-01 1.884792545932887919e-01 -7.633123508616898034e-01
2.962051282051282097e+00 -6.696422074770477240e-01 2.547407690153591919e-01 -6.976291667601950408e-01
3.040000000000000036e+00 -7.054730746713026024e-01 3.273482445001526520e-01 -6.286102666437720643e-01
