0.000000000000000000e+00 3.656645309583440298e-10 4.067122476736640752e-09 -1.000000000000000000e+00
7.794871794871795212e-02 3.894788216326051933e-02 2.840456828518053006e-02 -9.988369958299040396e-01
1.558974358974359042e-01 7.692306817547850395e-02 5.716815044395479051e-02 -9.953958642655164057e-01
2.338461538461538702e-01 1.129807451638431548e-01 8.656327549861497772e-02 -9.898179715230909226e-01
3.117948717948718085e-01 1.461926940044890322e-01 1.168309956958343138e-01 -9.823313424628915547e-01
3.897435897435897467e-01 1.756677760404877220e-01 1.481241949964389737e-01 -9.732398984317156554e-01
4.676923076923077405e-01 2.005683559741339994e-01 1.804849099485842934e-01 -9.629084028024507136e-01
5.456410256410256787e-01 2.201232631522546668e-01 2.138266652401203116e-01 -9.517448243166385380e-01
6.235897435897436170e-01 2.336423173709167300e-01 2.479191005193997210e-01 -9.401813576138563500e-01
7.015384615384615552e-01 2.405368310264155429e-01 2.823842132200756749e-01 -9.286517823332729460e-01
7.794871794871794934e-01 2.403350753495304692e-01 3.166920292357541244e-01 -9.175715584069868980e-01
8.574358974358974317e-01 2.326958193783856821e-01 3.501716177983332789e-01 -9.073171039983154440e-01
9.353846153846154809e-01 2.174342262958328942e-01 3.820196843630834782e-01 -8.982063856305029237e-01
1.013333333333333419e+00 1.945274262673272747e-01 4.113259225114394013e-01 -8.904836314808195485e-01
1.091282051282051357e+00 1.641341052176042703e-01 4.370979514104499364e-01 -8.843054456011967268e-01
1.169230769230769296e+00 1.266063958889842578e-01 4.582911776043702701e-01 -8.797332351067499445e-01
1.247179487179487234e+00 8.249106102625602954e-02 4.738470488625373678e-01 -8.767294926561771673e-01
1.325128205128205172e+00 3.253739099015701131e-02 4.827325977371155763e-01 -8.751576403256967618e-01
1.403076923076923110e+00 -2.230612988395724861e-02 4.839834398134694737e-01 -8.747872794936160101e-01
1.481025641025641049e+00 -8.090018026639256288e-02 4.767451983315963426e-01 -8.753053914092232546e-01
1.558974358974358987e+00 -1.419362478104495007e-01 4.603140781984703667e-01 -8.763306739000773504e-01
1.636923076923076925e+00 -2.039475184422635534e-01 4.341804638881052170e-01 -8.774298728933817015e-01
1.714871794871794863e+00 -2.653433219826129008e-01 3.980573126213218793e-01 -8.781422294614744661e-01
1.792820512820512802e+00 -3.244446107394386436e-01 3.519162390970293486e-01 -8.779983671485025454e-01
1.870769230769230962e+00 -3.795235393519247324e-01 2.960097668809221760e-01 -8.765446421104768904e-01
1.948717948717948900e+00 -4.288461238302132550e-01 2.308816234599248840e-01 -8.733698773308548047e-01
2.026666666666666838e+00 -4.707250465202920120e-01 1.573773342677432796e-01 -8.681246182035148307e-01
2.104615384615384777e+00 -5.035720818674127575e-01 7.663953304989540305e-02 -8.605412638533838088e-01
2.182564102564102715e+00 -5.259525088353169675e-01 -9.904612769517318061e-03 -8.504499809436426583e-01
2.260512820512820653e+00 -5.366332959540567327e-01 -1.005731272465714143e-01 -8.377938675991002393e-01
2.338461538461538591e+00 -5.346362509538881147e-01 -1.934523007059371080e-01 -8.226351084782569378e-01
2.416410256410256530e+00 -5.192846982464687233e-01 -2.864529926281885186e-01 -8.051556855879283825e-01
2.494358974358974468e+00 -4.902400191282765274e-01 -3.773503498686125446e-01 -7.856579140289872143e-01
2.572307692307692406e+00 -4.475344823005500405e-01 -4.638522575168569917e-01 -7.645522766496609668e-01
2.650256410256410344e+00 -3.915931881321895736e-01 -5.436561366505048287e-01 -7.423464734209210825e-01
2.728205128205128283e+00 -3.232447463015070133e-01 -6.145238811571505089e-01 -7.196235585856951555e-01
2.806153846153846221e+00 -2.437154539047175494e-01 -6.743466305407707084e-01 -6.970248216379555384e-01
2.884102564102564159e+00 -1.546156546219933370e-01 -7.212217156397116025e-01 -6.752161233291072984e-01
2.962051282051282097e+00 -5.791827656111420142e-02 -7.535080356981845862e-01 -6.548695778464019845e-01
3.040000000000000036e+00 4.409236054715631736e-02 -7.699003120740636197e-01 -6.366254463777151207e-01
