0.000000000000000000e+00 -1.040520893048630267e-09 -2.244575993277715421e-09 -1.000000000000000000e+00
7.794871794871795212e-02 -2.440270725689878267e-02 -2.207405600866813034e-02 -9.994583546630662063e-01
1.558974358974359042e-01 -4.833167998129685172e-02 -4.458429779857736586e-02 -9.978355725966068235e-01
2.338461538461538702e-01 -7.130790793512542525e-02 -6.792953311001012628e-02 -9.951382247468603115e-01
3.117948717948718085e-01 -9.282818670194230293e-02 -9.248760073081171984e-02 -9.913768588713927077e-01
3.897435897435897467e-01 -1.123597553839782992e-01 -1.185782638674359041e-01 -9.865664521166734868e-01
4.676923076923077405e-01 -1.293314555580915848e-01 -1.464582686028101655e-01 -9.807252415025095038e-01
5.456410256410256787e-01 -1.431315102375476656e-01 -1.762847076131967283e-01 -9.738765286400057342e-01
6.235897435897436170e-01 -1.531152836141215778e-01 -2.081097953687253976e-01 -9.660456600329434540e-01
7.015384615384615552e-01 -1.586051665129687982e-01 -2.418471943317769268e-01 -9.572629183194708569e-01
7.794871794871794934e-01 -1.588977867939199151e-01 -2.772750875220439393e-01 -9.475588231609065604e-01
8.574358974358974317e-01 -1.533021995045378838e-01 -3.139793594403613719e-01 -9.369700340443207764e-01
9.353846153846154809e-01 -1.411432225013174446e-01 -3.513735663663893338e-01 -9.255335825634312119e-01
1.013333333333333419e+00 -1.218109099067287426e-01 -3.886707485922892280e-01 -9.132875236183904955e-01
1.091282051282051357e+00 -9.479616341217977915e-02 -4.248710062232664009e-01 -9.002749829779120860e-01
1.169230769230769296e+00 -5.973147296865345679e-02 -4.587865644064350046e-01 -8.865345697846256368e-01
1.247179487179487234e+00 -1.643924471208637467e-02 -4.890234358994305919e-01 -8.721135527827512668e-01
1.325128205128205172e+00 3.499534190541701839e-02 -5.140317907493971994e-01 -8.570546700862681222e-01
1.403076923076923110e+00 9.419943514817563646e-02 -5.321340695979654978e-01 -8.414009615560930078e-01
1.481025641025641049e+00 1.604370925501059642e-01 -5.415768178807199851e-01 -8.251969402920975583e-01
1.558974358974358987e+00 2.325812846009964185e-01 -5.406026633352439825e-01 -8.084862056775052874e-01
1.636923076923076925e+00 3.090694765172202763e-01 -5.275324502716125519e-01 -7.913157466409075358e-01
1.714871794871794863e+00 3.879058321010383503e-01 -5.008696662732463611e-01 -7.737269542619493734e-01
1.792820512820512802e+00 4.666404122450982239e-01 -4.594193779020482871e-01 -7.557612831171777179e-01
1.870769230769230962e+00 5.424380684247854800e-01 -4.023784216121971680e-01 -7.374597470422693535e-01
1.948717948717948900e+00 6.120955689982822134e-01 -3.294915384616261544e-01 -7.188660913141152742e-01
2.026666666666666838e+00 6.721814831377860289e-01 -2.411346990610009899e-01 -7.000143147113369047e-01
2.104615384615384777e+00 7.191249948612927767e-01 -1.384374613309512503e-01 -6.809464367153806874e-01
2.182564102564102715e+00 7.494109446052250600e-01 -2.334677205130430977e-02 -6.616884592589212799e-01
2.260512820512820653e+00 7.597286352204197790e-01 1.013225306484660804e-01 -6.422924039740436353e-01
2.338461538461538591e+00 7.472387819361694383e-01 2.318974265358566544e-01 -6.227768305549942207e-01
2.416410256410256530e+00 7.097575622990638378e-01 3.638937275394975024e-01 -6.031737625946981263e-01
2.494358974358974468e+00 6.459909775719596681e-01 4.921363136235507030e-01 -5.835154093815466680e-01
2.572307692307692406e+00 5.557612220869733166e-01 6.109164364806123348e-01 -5.638290987308387514e-01
2.650256410256410344e+00 4.401760556558957926e-01 7.142471631105573593e-01 -5.441401499418967447e-01
2.728205128205128283e+00 3.017519324718733742e-01 7.961553268154015761e-01 -5.244757589061140868e-01
2.806153846153846221e+00 1.444957091785833425e-01 8.510183980397525438e-01 -5.048572632532195570e-01
2.884102564102564159e+00 -2.614576089931408553e-02 8.739526171096967389e-01 -4.852990897322069230e-01
2.962051282051282097e+00 -2.033704887149232476e-01 8.611820976502835290e-01 -4.658301427247136806e-01
3.040000000000000036e+00 -3.792926986570482883e-01 8.104325383768938851e-01 -4.464615503903768823e-01
