0.000000000000000000e+00 1.331356294617989981e-09 -1.331770930429645934e-09 -1.000000000000000000e+00
7.794871794871795212e-02 9.452185840699642294e-02 -1.008287670033233274e-01 -9.904027989998407389e-01
1.558974358974359042e-01 1.895961628286037259e-01 -1.967679163543851195e-01 -9.619421363795918056e-01
2.338461538461538702e-01 2.855454482257262505e-01 -2.831064770421246046e-01 -9.155926253666444303e-01
3.117948717948718085e-01 3.823288641959013967e-01 -3.554554482249433489e-01 -8.529183433049719598e-01
3.897435897435897467e-01 4.793831629333694666e-01 -4.099184520533240006e-01 -7.759836147078692514e-01
4.676923076923077405e-01 5.755096518889715185e-01 -4.432435952482743913e-01 -6.872510799059378117e-01
5.456410256410256787e-01 6.688410827095377931e-01 -4.529934191477971717e-01 -5.894382516540901396e-01
6.235897435897436170e-01 7.568582214257519869e-01 -4.376661262484503045e-01 -4.853881091138251835e-01
7.015384615384615552e-01 8.364737804437801794e-01 -3.968259743138282114e-01 -3.779250722422137776e-01
7.794871794871794934e-01 9.041786486818799151e-01 -3.311915568572723623e-01 -2.697387202801769801e-01
8.574358974358974317e-01 9.562666427628532251e-01 -2.426693979767218790e-01 -1.632514965686391872e-01
9.353846153846154809e-01 9.890721023105707443e-01 -1.343721892436104959e-01 -6.054435975702818218e-02
1.013333333333333419e+00 9.992629062236912940e-01 -1.053846592185037068e-02 3.671099766544950321e-02
1.091282051282051357e+00 9.841331513388089647e-01 1.235791407833498057e-01 1.272610796962492519e-01
1.169230769230769296e+00 9.418820019726241721e-01 2.619217131984491465e-01 2.103350867204769326e-01
1.247179487179487234e+00 8.718656816020704525e-01 3.978680997192365343e-01 2.855471666770555417e-01
1.325128205128205172e+00 7.747951263392656163e-01 5.245574849368280779e-01 3.528715457361578656e-01
1.403076923076923110e+00 6.528338058172085123e-01 6.352422348929092077e-01 4.126284345288148137e-01
1.481025641025641049e+00 5.096418949025638412e-01 7.236819182969438380e-01 4.653353533843247458e-01
1.558974358974358987e+00 3.502894380053644396e-01 7.845124551429003557e-01 5.116888085428309418e-01
1.636923076923076925e+00 1.810745293956280144e-01 8.136342637654802035e-01 5.524488215663839741e-01
1.714871794871794863e+00 9.238537680711644828e-03 8.085065939601129292e-01 5.884050906556788085e-01
1.792820512820512802e+00 -1.574062403594607695e-01 7.683973293380671477e-01 6.203048687312674447e-01
1.870769230769230962e+00 -3.109100069787135712e-01 6.945321725237061372e-01 6.488063891947548623e-01
1.948717948717948900e+00 -4.436798108838662658e-01 5.901127666557809404e-01 6.744666575240394479e-01
2.026666666666666838e+00 -5.489633865007135238e-01 4.602167558299263272e-01 6.977321870649700886e-01
2.104615384615384777e+00 -6.213346159268152702e-01 3.115692023503494612e-01 7.189289036808342859e-01
2.182564102564102715e+00 -6.570772841179202128e-01 1.521928372091959913e-01 7.382939761609098595e-01
2.260512820512820653e+00 -6.545303862618222501e-01 -9.053562025791606072e-03 7.559758900980034779e-01
2.338461538461538591e+00 -6.142552884119923950e-01 -1.630233444233994411e-01 7.720788084474327073e-01
2.416410256410256530e+00 -5.390925047629321343e-01 -3.008475702442294231e-01 7.866779394215740462e-01
2.494358974358974468e+00 -4.340698484759138998e-01 -4.145418028992335913e-01 7.998317864040171976e-01
2.572307692307692406e+00 -3.061007653806074869e-01 -4.975584418353541927e-01 8.116221868871719147e-01
2.650256410256410344e+00 -1.636063773125222831e-01 -5.452517074066639546e-01 8.221474512151679681e-01
2.728205128205128283e+00 -1.598792755217578326e-02 -5.552596427697200632e-01 8.315192122917485218e-01
2.806153846153846221e+00 1.270314806578892730e-01 -5.276779067667743961e-01 8.398882944844194842e-01
2.884102564102564159e+00 2.560202184858412222e-01 -4.651378802269491297e-01 8.474042143852814624e-01
2.962051282051282097e+00 3.625339781024489727e-01 -3.726304895136894890e-01 8.542302369141046015e-01
3.040000000000000036e+00 4.397145303060664423e-01 -2.571990983390507468e-01 8.605193643034828588e-01
