0.000000000000000000e+00 -1.534266900172774622e-09 -1.788958874805612604e-09 -1.000000000000000000e+00
7.794871794871795212e-02 -1.343820346041182424e-02 1.661341025287491058e-02 -9.997715094398625935e-01
1.558974358974359042e-01 -2.689339889638431985e-02 3.318523716226964848e-02 -9.990870081020711835e-01
2.338461538461538702e-01 -4.034044195909762542e-02 4.968679470992722058e-02 -9.979493704570975288e-01
3.117948717948718085e-01 -5.377404676667492389e-02 6.608597570538557453e-02 -9.963632784273511733e-01
3.897435897435897467e-01 -6.719132180963768852e-02 8.234981083381232025e-02 -9.943351209071378261e-01
4.676923076923077405e-01 -8.058623462890800171e-02 9.844914644993600639e-02 -9.918728908445689774e-01
5.456410256410256787e-01 -9.395239543976260932e-02 1.143551901554165223e-01 -9.889862246008597202e-01
6.235897435897436170e-01 -1.072837218943334114e-01 1.300440983892172109e-01 -9.856857284804247943e-01
7.015384615384615552e-01 -1.205726601663270336e-01 1.454922999328850386e-01 -9.819834764905566171e-01
7.794871794871794934e-01 -1.338097933481691704e-01 1.606792137167457613e-01 -9.778927110176094395e-01
8.574358974358974317e-01 -1.469894457964300294e-01 1.755900048294576909e-01 -9.734264104273864238e-01
9.353846153846154809e-01 -1.600999497790936976e-01 1.902060785737108295e-01 -9.686000594740411529e-01
1.013333333333333419e+00 -1.731310561194662756e-01 2.045193182935348408e-01 -9.634280478780216095e-01
1.091282051282051357e+00 -1.860719313570642630e-01 2.185173483215310242e-01 -9.579265211695846549e-01
1.169230769230769296e+00 -1.989114491785008432e-01 2.321898309212758471e-01 -9.521121932018010714e-01
1.247179487179487234e+00 -2.116349143004726263e-01 2.455349501456917105e-01 -9.460012991350585931e-01
1.325128205128205172e+00 -2.242324484360035952e-01 2.585437925473905163e-01 -9.396115252367488457e-01
1.403076923076923110e+00 -2.366938110710146981e-01 2.712145387244458972e-01 -9.329594385708326332e-01
1.481025641025641049e+00 -2.490049237131944648e-01 2.835421026385857024e-01 -9.260641031465074446e-01
1.558974358974358987e+00 -2.611571433320903912e-01 2.955272172645633799e-01 -9.189421142122244923e-01
1.636923076923076925e+00 -2.731406506524239886e-01 3.071687430156788134e-01 -9.116113485442761677e-01
1.714871794871794863e+00 -2.849469719597641504e-01 3.184651561305908429e-01 -9.040899159330111345e-01
1.792820512820512802e+00 -2.965690117659844360e-01 3.294190517460084400e-01 -8.963944593316144349e-01
1.870769230769230962e+00 -3.080019363117490472e-01 3.400312717874056090e-01 -8.885417090542423457e-01
1.948717948717948900e+00 -3.192446283890409964e-01 3.503057554504918625e-01 -8.805460155723651150e-01
2.026666666666666838e+00 -3.302840972505414197e-01 3.602465413254500315e-01 -8.724259875224893435e-01
2.104615384615384777e+00 -3.411316792102356832e-01 3.698574436791734477e-01 -8.641913159723295657e-01
2.182564102564102715e+00 -3.517763509927425147e-01 3.791470224890149399e-01 -8.558578389716778867e-01
2.260512820512820653e+00 -3.622231882022427518e-01 3.881216343316810091e-01 -8.474357755238964840e-01
2.338461538461538591e+00 -3.724730602758622444e-01 3.967887908385319129e-01 -8.389360199454014566e-01
2.416410256410256530e+00 -3.825215728503196244e-01 4.051620778906761533e-01 -8.303684989839231756e-01
2.494358974358974468e+00 -3.923696217928988039e-01 4.132474942056577616e-01 -8.217440214982046909e-01
2.572307692307692406e+00 -4.020176663163323449e-01 4.210592084811419222e-01 -8.130690843166228365e-01
2.650256410256410344e+00 -4.114672721232816022e-01 4.286044235837360716e-01 -8.043525845393844076e-01
2.728205128205128283e+00 -4.207112376904735829e-01 4.359005734085451556e-01 -7.956020655441508049e-01
2.806153846153846221e+00 -4.297507099298192301e-01 4.429522731220853493e-01 -7.868273460240258199e-01
2.884102564102564159e+00 -4.385836906095360033e-01 4.497709499526890697e-01 -7.780359032549979403e-01
2.962051282051282097e+00 -4.472101986382645555e-01 4.563660678037312346e-01 -7.692348452647410628e-01
3.040000000000000036e+00 -4.556230176986340585e-01 4.627463256680964254e-01 -7.604357135040259452e-01
