0.000000000000000000e+00 -9.395008506423147034e-13 -3.235820179004233862e-12 -1.000000000000000000e+00
7.794871794871795212e-02 -5.138235328414241659e-02 -1.766193548671418923e-01 -9.829371583440635884e-01
1.558974358974359042e-01 -1.015678417782112514e-01 -3.470287027313100348e-01 -9.323384862858568045e-01
2.338461538461538702e-01 -1.493928991698995346e-01 -5.052332766103334594e-01 -8.499535857055944277e-01
3.117948717948718085e-01 -1.937611519771664792e-01 -6.456620056812824027e-01 -7.386319722247007835e-01
3.897435897435897467e-01 -2.336739687686325839e-01 -7.633636686945459715e-01 -6.022228704569880797e-01
4.676923076923077405e-01 -2.682575669179786959e-01 -8.541769727185523076e-01 -4.454431244849241800e-01
5.456410256410256787e-01 -2.967889766085712311e-01 -9.148754311266945605e-01 -2.737138082972096487e-01
6.235897435897436170e-01 -3.187136489078250534e-01 -9.432799690916211510e-01 -9.297585641863986838e-02
7.015384615384615552e-01 -3.336616206139022545e-01 -9.383365719090616119e-01 9.052292953746284010e-02
7.794871794871794934e-01 -3.414562353372100345e-01 -9.001516819274997250e-01 2.704340751268684007e-01
8.574358974358974317e-01 -3.421173073543264387e-01 -8.299891528118594763e-01 4.405380280601198240e-01
9.353846153846154809e-01 -3.358593733126894465e-01 -7.302292914372897625e-01 5.949484542923835217e-01
1.013333333333333419e+00 -3.230832300565299464e-01 -6.042835127756270852e-01 7.283259318635618706e-01
1.091282051282051357e+00 -3.043621935734571182e-01 -4.564772156704215988e-01 8.360575378903949417e-01
1.169230769230769296e+00 -2.804242644705183252e-01 -2.919059404041646766e-01 9.144141040468530823e-01
1.247179487179487234e+00 -2.521285411415327138e-01 -1.162463044504277593e-01 9.606862107647728966e-01
1.325128205128205172e+00 -2.204387737824969051e-01 6.442574113041750483e-02 9.732708106541622106e-01
1.403076923076923110e+00 -1.863943397282838699e-01 2.438544831545048086e-01 9.517311286413713267e-01
1.481025641025641049e+00 -1.510778909133668746e-01 4.158209286468884658e-01 8.968101392566391050e-01
1.558974358974358987e+00 -1.155840291952499599e-01 5.743514700635278247e-01 8.104077499449152677e-01
1.636923076923076925e+00 -8.098462079866232399e-02 7.139415277719222130e-01 6.955062803153853057e-01
1.714871794871794863e+00 -4.830107932779522523e-02 8.297229550474360948e-01 5.560816702919906263e-01
1.792820512820512802e+00 -1.847161505183197300e-02 9.176511384842928054e-01 3.969574127623151094e-01
1.870769230769230962e+00 7.674391618068607604e-03 9.746430763754373450e-01 2.236335783267230093e-01
1.948717948717948900e+00 2.943954554083393765e-02 9.986792958179933066e-01 4.210674173190749603e-02
2.026666666666666838e+00 4.627653774502225870e-02 9.888786861539485828e-01 -1.413415241531739974e-01
2.104615384615384777e+00 5.780292127819144921e-02 9.455292957862168057e-01 -3.203641257501569917e-01
2.182564102564102715e+00 6.380953058105516551e-02 8.700784636895290136e-01 -4.887655991216072193e-01
2.260512820512820653e+00 6.426379297082940312e-02 7.650870667267576364e-01 -6.407120608575974652e-01
2.338461538461538591e+00 5.930792750558598614e-02 6.341365792055375650e-01 -7.709431682375716965e-01
2.416410256410256530e+00 4.925072018090483755e-02 4.817067107279227045e-01 -8.749474332492660489e-01
2.494358974358974468e+00 3.455560846788047202e-02 3.130294840648332189e-01 -9.491145620406579164e-01
2.572307692307692406e+00 1.582305862517145723e-02 1.338955471495705263e-01 -9.908691202288913980e-01
2.650256410256410344e+00 -6.229618251143009301e-03 -4.952943198257913487e-02 -9.987532363805491364e-01
2.728205128205128283e+00 -3.079481672382933244e-02 -2.309423620152198375e-01 -9.724799765567320176e-01
2.806153846153846221e+00 -5.699924728399178436e-02 -4.040856805891179793e-01 -9.129435080680037284e-01
2.884102564102564159e+00 -8.393460350797195269e-02 -5.629948885672430015e-01 -8.221871670812446187e-01
2.962051282051282097e+00 -1.106855083653796729e-01 -7.021899918505229987e-01 -7.033334449655385123e-01
3.040000000000000036e+00 -1.363606537735221336e-01 -8.168679095467725748e-01 -5.604753260196417841e-01
