0.000000000000000000e+00 -2.669672973723711664e-09 -1.319893044744795236e-11 -1.000000000000000000e+00
7.794871794871795212e-02 -1.713735517996199387e-01 6.662344313711160426e-02 -9.829498853509455181e-01
1.558974358974359042e-01 -3.374671449176581683e-01 1.283939772166177717e-01 -9.325378593651044712e-01
2.338461538461538702e-01 -4.931508783456092226e-01 1.808493964071491156e-01 -8.509344203671102003e-01
3.117948717948718085e-01 -6.336500637717596973e-01 2.202150413229180814e-01 -7.416092812144837731e-01
3.897435897435897467e-01 -7.546976119298043351e-01 2.436995658093721873e-01 -6.091234114344075135e-01
4.676923076923077405e-01 -8.526953086896814638e-01 2.497072349529328439e-01 -4.588513146733508297e-01
5.456410256410256787e-01 -9.248528501784771816e-01 2.379465964919142418e-01 -2.966729245444633123e-01
6.235897435897436170e-01 -9.693126131415044089e-01 2.094522594490695888e-01 -1.286401143865691377e-01
7.015384615384615552e-01 -9.852482103281059445e-01 1.664997237838785615e-01 3.935895901622506882e-02
7.794871794871794934e-01 -9.729226387306055823e-01 1.124258144047910468e-01 2.019101289074825278e-01
8.574358974358974317e-01 -9.337068275830112674e-01 5.136857390939697510e-02 3.543154462930281912e-01
9.353846153846154809e-01 -8.700452906448551404e-01 -1.205363949363452702e-02 4.928121123677942084e-01
1.013333333333333419e+00 -7.853759893365668265e-01 -7.309520023732513083e-02 6.146795826121547179e-01
1.091282051282051357e+00 -6.839840103624408307e-01 -1.272434910662822438e-01 7.183077084049857008e-01
1.169230769230769296e+00 -5.708105321398778687e-01 -1.705696576487482907e-01 8.031649453525171456e-01
1.247179487179487234e+00 -4.512162474904451992e-01 -2.000145581483812329e-01 8.697081235344642502e-01
1.325128205128205172e+00 -3.307083571832137303e-01 -2.136223596726355423e-01 9.192350041824501883e-01
1.403076923076923110e+00 -2.146499133059023845e-01 -2.106614575758020136e-01 9.537000939172934899e-01
1.481025641025641049e+00 -1.079687803833966481e-01 -1.916826422744221936e-01 9.754989294549714085e-01
1.558974358974358987e+00 -1.488361042806234102e-02 -1.584465153426104778e-01 9.872545278948693381e-01
1.636923076923076925e+00 6.133825617168305738e-02 -1.137603447746637353e-01 9.916122448493536190e-01
1.714871794871794863e+00 1.185502616628397454e-01 -6.125222075476691175e-02 9.910563027553024318e-01
1.792820512820512802e+00 1.558349566155666222e-01 -5.051603599018336666e-03 9.877693587724736268e-01
1.870769230769230962e+00 1.735281849134869270e-01 5.051860312370785866e-02 9.835313553984635915e-01
1.948717948717948900e+00 1.731772436463381026e-01 1.013079468226294050e-01 9.796653581531065136e-01
2.026666666666666838e+00 1.573794765645455951e-01 1.436698017660644755e-01 9.770304090592287771e-01
2.104615384615384777e+00 1.295801696484955579e-01 1.747271835283531471e-01 9.760517760209088678e-01
2.182564102564102715e+00 9.378903055544993150e-02 1.926019553743741897e-01 9.767834063961884361e-01
2.260512820512820653e+00 5.427047645963484906e-02 1.965258938690275792e-01 9.789944454877111957e-01
2.338461538461538591e+00 1.521518588515587134e-02 1.868811238123983531e-01 9.822636905740272928e-01
2.416410256410256530e+00 -1.957426142952686798e-02 1.651249925870069413e-01 9.860774991343742579e-01
2.494358974358974468e+00 -4.695576150863344650e-02 1.336516660769368203e-01 9.899145904322901313e-01
2.572307692307692406e+00 -6.467672475081963357e-02 9.554020850012129307e-02 9.933215868512587088e-01
2.650256410256410344e+00 -7.150496597924588249e-02 5.428432583018281965e-02 9.959614947720741851e-01
2.728205128205128283e+00 -6.729196975740028841e-02 1.347417143375419582e-02 9.976419705207615340e-01
2.806153846153846221e+00 -5.292777613594346064e-02 -2.351866792045227694e-02 9.983210379893588948e-01
2.884102564102564159e+00 -3.020603668311812318e-02 -5.383016385226743750e-02 9.980928023380493119e-01
2.962051282051282097e+00 -1.633507311571733012e-03 -7.532106990574555239e-02 9.971575918411521577e-01
3.040000000000000036e+00 2.982169624473934855e-02 -8.675490016551319628e-02 9.957827476025694624e-01
