0.000000000000000000e+00 -2.278768495831630841e-11 -3.095435636294170709e-09 -1.000000000000000000e+00
7.794871794871795212e-02 1.136286102057250044e-03 -4.237132957837159639e-03 -9.999903532599290212e-01
1.558974358974359042e-01 2.286281915659816016e-03 -8.478092217609379741e-03 -9.999614011953906756e-01
2.338461538461538702e-01 3.435289011745026183e-03 -1.271853476032133029e-02 -9.999131495305751960e-01
3.117948717948718085e-01 4.585438815751203406e-03 -1.695737446726618830e-02 -9.998456138805251747e-01
3.897435897435897467e-01 5.735512636208851128e-03 -2.119786342745687627e-02 -9.997587443233896254e-01
4.676923076923077405e-01 6.885700993928716915e-03 -2.543678670956644322e-02 -9.996525955766656368e-01
5.456410256410256787e-01 8.036539485535447447e-03 -2.967641482513670367e-02 -9.995271093678540497e-01
6.235897435897436170e-01 9.188472060802158059e-03 -3.391512392412614207e-02 -9.993823181278557177e-01
7.015384615384615552e-01 1.033955195170957464e-02 -3.815372972204758573e-02 -9.992182101739240929e-01
7.794871794871794934e-01 1.149261466668167683e-02 -4.239219675143760663e-02 -9.990347492280007291e-01
8.574358974358974317e-01 1.264735889859974066e-02 -4.663024471301457918e-02 -9.988319362850005545e-01
9.353846153846154809e-01 1.380113647866736473e-02 -5.086650236217465926e-02 -9.986098656283777242e-01
1.013333333333333419e+00 1.495637508560267517e-02 -5.510361380741944648e-02 -9.983683683110737839e-01
1.091282051282051357e+00 1.611199950168896305e-02 -5.934017026234471304e-02 -9.981075152425139541e-01
1.169230769230769296e+00 1.726784183133375089e-02 -6.357700186150452848e-02 -9.978272470679832029e-01
1.247179487179487234e+00 1.842846838074008869e-02 -6.781231154477998513e-02 -9.975275808847092751e-01
1.325128205128205172e+00 1.958855410731131369e-02 -7.204643519259061601e-02 -9.972085822307990011e-01
1.403076923076923110e+00 2.075046178406220881e-02 -7.628097244603219973e-02 -9.968700778596714107e-01
1.481025641025641049e+00 2.191369498966626306e-02 -8.051355636734486287e-02 -9.965122386445405267e-01
1.558974358974358987e+00 2.307736274350932065e-02 -8.474647265011514552e-02 -9.961348899875952512e-01
1.636923076923076925e+00 2.424384921011086061e-02 -8.897729375292090515e-02 -9.957381628008895591e-01
1.714871794871794863e+00 2.541355544082615769e-02 -9.320879581169334849e-02 -9.953217806897423081e-01
1.792820512820512802e+00 2.658458058199827945e-02 -9.743651173851881897e-02 -9.948861870608090019e-01
1.870769230769230962e+00 2.775864134562621571e-02 -1.016673937458740934e-01 -9.944306419267172625e-01
1.948717948717948900e+00 2.893374303247230744e-02 -1.058949642811646275e-01 -9.939558143336357787e-01
2.026666666666666838e+00 3.011128578882416029e-02 -1.101206604085532975e-01 -9.934615142080267525e-01
2.104615384615384777e+00 3.129372628230006614e-02 -1.143465350210131209e-01 -9.929474132107760642e-01
2.182564102564102715e+00 3.247823068833648186e-02 -1.185707696059136174e-01 -9.924137712024675428e-01
2.260512820512820653e+00 3.366558331200562859e-02 -1.227918667445907080e-01 -9.918607287213911938e-01
2.338461538461538591e+00 3.485698091347677607e-02 -1.270133375506392326e-01 -9.912877913066023838e-01
2.416410256410256530e+00 3.605088228078530410e-02 -1.312316855703909990e-01 -9.906954243800552007e-01
2.494358974358974468e+00 3.724995550911583408e-02 -1.354495474714196290e-01 -9.900831626747764735e-01
2.572307692307692406e+00 3.845449578001422508e-02 -1.396653490297831424e-01 -9.894511672460852836e-01
2.650256410256410344e+00 3.966053392337716421e-02 -1.438774166996108494e-01 -9.887998097731254266e-01
2.728205128205128283e+00 4.087137636272075714e-02 -1.480875937808079357e-01 -9.881286808679321521e-01
2.806153846153846221e+00 4.208711344411711353e-02 -1.522954730046354732e-01 -9.874378060045715388e-01
2.884102564102564159e+00 4.330899268073874764e-02 -1.565015431270096735e-01 -9.867270228190506698e-01
2.962051282051282097e+00 4.453397799510754040e-02 -1.607050615184429099e-01 -9.859965461072858206e-01
3.040000000000000036e+00 4.576520921168219375e-02 -1.649041126482397868e-01 -9.852465283495395187e-01
