0.000000000000000000e+00 -5.869316802541055381e-10 -3.230119881711780268e-09 -1.000000000000000000e+00
7.794871794871795212e-02 -2.114698636924728509e-02 8.740895429635670011e-02 -9.959475398291361969e-01
1.558974358974359042e-01 -4.437733848737215880e-02 1.732157604244625726e-01 -9.838826254173750341e-01
2.338461538461538702e-01 -7.163490205909689434e-02 2.557700002027013531e-01 -9.640784208041339731e-01
3.117948717948718085e-01 -1.046561903112143005e-01 3.333511385639691960e-01 -9.369739037162888584e-01
3.897435897435897467e-01 -1.448592038781024993e-01 4.041234230794745752e-01 -9.031583397023825732e-01
4.676923076923077405e-01 -1.932350789668568769e-01 4.661489609052066330e-01 -8.633418563832181425e-01
5.456410256410256787e-01 -2.502689024084116531e-01 5.173998677308369043e-01 -8.183248872730941592e-01
6.235897435897436170e-01 -3.158637636521897107e-01 5.558023361070408841e-01 -7.689639462428679018e-01
7.015384615384615552e-01 -3.892716420639047437e-01 5.792996247966030188e-01 -7.161495921143761212e-01
7.794871794871794934e-01 -4.690853160224081608e-01 5.859657162914911899e-01 -6.607518195680374129e-01
8.574358974358974317e-01 -5.532091968735358689e-01 5.741065491656576203e-01 -6.036143019257392828e-01
9.353846153846154809e-01 -6.389054573433249340e-01 5.424021960419282973e-01 -5.455161689604496322e-01
1.013333333333333419e+00 -7.228540856081256960e-01 4.900512924501628231e-01 -4.871542142122438079e-01
1.091282051282051357e+00 -8.012581067835788939e-01 4.169048518421598071e-01 -4.291417831151900231e-01
1.169230769230769296e+00 -8.699941283252230484e-01 3.236013867724082949e-01 -3.719929140330264783e-01
1.247179487179487234e+00 -9.247954337203611042e-01 2.116786090055926550e-01 -3.161195932996681557e-01
1.325128205128205172e+00 -9.614743761431167046e-01 8.362933704627850684e-02 -2.618373838167057932e-01
1.403076923076923110e+00 -9.761597232524763523e-01 -5.706852314759047751e-02 -2.093819610357619820e-01
1.481025641025641049e+00 -9.655588336079359291e-01 -2.059838319726657874e-01 -1.589088409366336552e-01
1.558974358974358987e+00 -9.272130200115507037e-01 -3.578383496694784727e-01 -1.105115260386766857e-01
1.636923076923076925e+00 -8.597376742290275820e-01 -5.066638817639407266e-01 -6.424822414759245870e-02
1.714871794871794863e+00 -7.630340044952549361e-01 -6.460338005629915337e-01 -2.010978968958529109e-02
1.792820512820512802e+00 -6.384383862974359891e-01 -7.693508020535543279e-01 2.192567284262592411e-02
1.870769230769230962e+00 -4.888124281001485771e-01 -8.701821113875485292e-01 6.189114438333610108e-02
1.948717948717948900e+00 -3.185497356389492829e-01 -9.426260058829447619e-01 9.983649687103911263e-02
2.026666666666666838e+00 -1.334845168072004151e-01 -9.816908708740428313e-01 1.358309967678529573e-01
2.104615384615384777e+00 5.929671391946833570e-02 -9.836610669118835970e-01 1.699413983605858880e-01
2.182564102564102715e+00 2.517309066774492954e-01 -9.464257719513864409e-01 2.022255218597029114e-01
2.260512820512820653e+00 4.351614189072665617e-01 -8.697343752632499259e-01 2.327706495455951485e-01
2.338461538461538591e+00 6.007717510033587782e-01 -7.553796196306741262e-01 2.616497548178713384e-01
2.416410256410256530e+00 7.400959246926139823e-01 -6.072509305274385039e-01 2.889466728054227995e-01
2.494358974358974468e+00 8.455272557465067784e-01 -4.312807024385481580e-01 3.147485378669143685e-01
2.572307692307692406e+00 9.108409106915855702e-01 -2.352429756408456196e-01 3.391397301249705065e-01
2.650256410256410344e+00 9.316532104119803481e-01 -2.841917670915328209e-02 3.622167938772360429e-01
2.728205128205128283e+00 9.058124885159635209e-01 1.788416314277136432e-01 3.840649933040927166e-01
2.806153846153846221e+00 8.336680088949148804e-01 3.756866553045760115e-01 4.047762930977562568e-01
2.884102564102564159e+00 7.182060977429377546e-01 5.513815140645612622e-01 4.244352707078771214e-01
2.962051282051282097e+00 5.650192872780002151e-01 6.959847165989101470e-01 4.431089545215876058e-01
3.040000000000000036e+00 3.820940165100804031e-01 8.009906450565318359e-01 4.608746479421772513e-01
