0.000000000000000000e+00 -3.990652332786344602e-13 3.075034472545236047e-13 -1.000000000000000000e+00
7.794871794871795212e-02 1.687441292270323856e-02 -1.304022757285866821e-02 -9.997725774620697115e-01
1.558974358974359042e-01 3.338427335390678485e-02 -2.602227640817020293e-02 -9.991037640822322263e-01
2.338461538461538702e-01 4.917198661680143024e-02 -3.888019898168771499e-02 -9.980332889717834499e-01
3.117948717948718085e-01 6.389850813233301230e-02 -5.153716114789270997e-02 -9.966247546990847361e-01
3.897435897435897467e-01 7.724479440022941068e-02 -6.389481396736770846e-02 -9.949626598258984878e-01
4.676923076923077405e-01 8.892423983844700841e-02 -7.583231718299401902e-02 -9.931474911755454604e-01
5.456410256410256787e-01 9.868771053035345353e-02 -8.720214286403968340e-02 -9.912903318536901986e-01
6.235897435897436170e-01 1.063316990894809522e-01 -9.782840499455816574e-02 -9.895065299361495148e-01
7.015384615384615552e-01 1.116993534410886529e-01 -1.075069336407943055e-01 -9.879096688485331512e-01
7.794871794871794934e-01 1.146929575761251457e-01 -1.160076729890174435e-01 -9.866041482114651373e-01
8.574358974358974317e-01 1.152715806937034543e-01 -1.230807145058190888e-01 -9.856792582922956347e-01
9.353846153846154809e-01 1.134579678933355790e-01 -1.284559971436415315e-01 -9.852037079076774173e-01
1.013333333333333419e+00 1.093397449706256380e-01 -1.318577278184157597e-01 -9.852199550170961384e-01
1.091282051282051357e+00 1.030694629942205537e-01 -1.330129083581844118e-01 -9.857404587841861465e-01
1.169230769230769296e+00 9.486306066764024769e-02 -1.316541639557188836e-01 -9.867462595754056265e-01
1.247179487179487234e+00 8.499867122951726417e-02 -1.275425875200427994e-01 -9.881842511392547879e-01
1.325128205128205172e+00 7.381486740547435477e-02 -1.204680620368783761e-01 -9.899690961708902393e-01
1.403076923076923110e+00 6.169871468802078790e-02 -1.102671107908945597e-01 -9.919850971169796860e-01
1.481025641025641049e+00 4.908504246891148837e-02 -9.683363668775610278e-02 -9.940894856500938070e-01
1.558974358974358987e+00 3.644356866617604052e-02 -8.012546736561282357e-02 -9.961183543960515641e-01
1.636923076923076925e+00 2.426789083806491290e-02 -6.017921901002899754e-02 -9.978925448165009149e-01
1.714871794871794863e+00 1.306680066421452360e-02 -3.710646851852936190e-02 -9.992258847828867641e-01
1.792820512820512802e+00 3.348701416066729615e-03 -1.111087518214053105e-02 -9.999326650720887777e-01
1.870769230769230962e+00 -4.392203885625092265e-03 1.751804400140047693e-02 -9.998369000670813689e-01
1.948717948717948900e+00 -9.689705222796390557e-03 4.840423872330493205e-02 -9.987808264190966012e-01
2.026666666666666838e+00 -1.211806640191348539e-02 8.108694975417415907e-02 -9.966333624505473443e-01
2.104615384615384777e+00 -1.131309716461702947e-02 1.150288463983166753e-01 -9.932977288882417488e-01
2.182564102564102715e+00 -6.979085099413841198e-03 1.496266184761127216e-01 -9.887179412426928549e-01
2.260512820512820653e+00 1.095314958166573871e-03 1.842206884196178063e-01 -9.828842953936556270e-01
2.338461538461538591e+00 1.302597967990149624e-02 2.181132898596346847e-01 -9.758365214995540216e-01
2.416410256410256530e+00 2.882465028533272300e-02 2.505834757682490199e-01 -9.676657796501979547e-01
2.494358974358974468e+00 4.839387103890613329e-02 2.809087638158568878e-01 -9.585135885071111028e-01
2.572307692307692406e+00 7.152094648814311117e-02 3.083797960971241259e-01 -9.485708487345695383e-01
2.650256410256410344e+00 9.787789285641351755e-02 3.323284202301777790e-01 -9.380712868096082735e-01
2.728205128205128283e+00 1.270236803196521935e-01 3.521453910014248345e-01 -9.272856128379842744e-01
2.806153846153846221e+00 1.584098754414320354e-01 3.672977015993354466e-01 -9.165144350521150507e-01
2.884102564102564159e+00 1.913927400068727025e-01 3.773526002056169504e-01 -9.060760642891305672e-01
2.962051282051282097e+00 2.252442919702581370e-01 3.819922331083630551e-01 -8.962962362036813735e-01
3.040000000000000036e+00 2.591650115774017937e-01 3.810266458789595689e-01 -8.874977137842102737e-01
