0.000000000000000000e+00 2.202976313484930614e-09 8.751927292454467921e-10 -1.000000000000000000e+00
7.794871794871795212e-02 2.184299251516902407e-02 -4.305526603081809289e-02 -9.988337324061727918e-01
1.558974358974359042e-01 4.358970816597267095e-02 -8.596723678969890592e-02 -9.953436525814145508e-01
2.338461538461538702e-01 6.512836344333308713e-02 -1.285978033055536485e-01 -9.895554710324042658e-01
3.117948717948718085e-01 8.635814227263197140e-02 -1.708081236956038307e-01 -9.815119401095265816e-01
3.897435897435897467e-01 1.071811643872112446e-01 -2.124671526968429092e-01 -9.712715565954023189e-01
4.676923076923077405e-01 1.275062918604328299e-01 -2.534496718114202518e-01 -9.589075197171401665e-01
5.456410256410256787e-01 1.472498794624792218e-01 -2.936387326426528332e-01 -9.445060459789216267e-01
6.235897435897436170e-01 1.663322363153125205e-01 -3.329235951295891893e-01 -9.281664977288894836e-01
7.015384615384615552e-01 1.846809376912879608e-01 -3.712040490606271503e-01 -9.099987692085822477e-01
7.794871794871794934e-01 2.022377862495528533e-01 -4.083940673385382802e-01 -8.901185832520532859e-01
8.574358974358974317e-01 2.189453478153877419e-01 -4.444140164509112756e-01 -8.686516654042233387e-01
9.353846153846154809e-01 2.347630583034860385e-01 -4.791967006288603836e-01 -8.457263775273944351e-01
1.013333333333333419e+00 2.496516722657547427e-01 -5.126868475996850805e-01 -8.214756176704857138e-01
1.091282051282051357e+00 2.635844271176610576e-01 -5.448371189986966900e-01 -7.960348042579580286e-01
1.169230769230769296e+00 2.765426540073954720e-01 -5.756150707604327232e-01 -7.695367344753418770e-01
1.247179487179487234e+00 2.885165893232965462e-01 -6.049985664425123755e-01 -7.421118151664347629e-01
1.325128205128205172e+00 2.995010976161136540e-01 -6.329702305676389029e-01 -7.138925135486928752e-01
1.403076923076923110e+00 3.094987822730494442e-01 -6.595264054809123477e-01 -6.850035743965643409e-01
1.481025641025641049e+00 3.185196642413237189e-01 -6.846715077006713113e-01 -6.555641448112803360e-01
1.558974358974358987e+00 3.265802941466184883e-01 -7.084125726613671459e-01 -6.256923289967698532e-01
1.636923076923076925e+00 3.336973887626393243e-01 -7.307710149442663283e-01 -5.954943187520098657e-01
1.714871794871794863e+00 3.398983527741616384e-01 -7.517675650672732690e-01 -5.650735486919600259e-01
1.792820512820512802e+00 3.452083668222234447e-01 -7.714306154249581660e-01 -5.345271287444492980e-01
1.870769230769230962e+00 3.496590166701411539e-01 -7.897944353762436087e-01 -5.039408546234861452e-01
1.948717948717948900e+00 3.532840682868623183e-01 -8.068944798529471552e-01 -4.733968094883491684e-01
2.026666666666666838e+00 3.561161627097006455e-01 -8.227708062668692701e-01 -4.429697273084605702e-01
2.104615384615384777e+00 3.581926960965748363e-01 -8.374652268672447830e-01 -4.127257276611443482e-01
2.182564102564102715e+00 3.595546253612493803e-01 -8.510203010545256408e-01 -3.827235324889493029e-01
2.260512820512820653e+00 3.602304562168828772e-01 -8.634821246147946772e-01 -3.530225187289923183e-01
2.338461538461538591e+00 3.602670719294222557e-01 -8.748933349786174318e-01 -3.236686998300969953e-01
2.416410256410256530e+00 3.596998312125667674e-01 -8.853032649782650587e-01 -2.946967741631912885e-01
2.494358974358974468e+00 3.585589509399552677e-01 -8.947568778798836719e-01 -2.661532267240537264e-01
2.572307692307692406e+00 3.568883303305350196e-01 -9.032989303812807291e-01 -2.380621885962435069e-01
2.650256410256410344e+00 3.547227879887618340e-01 -9.109747672388907036e-01 -2.104483038092590796e-01
2.728205128205128283e+00 3.520948524005132474e-01 -9.178264773713745717e-01 -1.833452443181368130e-01
2.806153846153846221e+00 3.490383398762346157e-01 -9.238998301883246667e-01 -1.567577421231490520e-01
2.884102564102564159e+00 3.455862034070745215e-01 -9.292348622043435924e-01 -1.307071345154696418e-01
2.962051282051282097e+00 3.417672980648469583e-01 -9.338731614716121454e-01 -1.052026753378159929e-01
3.040000000000000036e+00 3.376131590732521781e-01 -9.378530642338910317e-01 -8.025291889300692483e-02
