0.000000000000000000e+00 1.908632315429337269e-09 -1.453070004570244258e-09 -1.000000000000000000e+00
7.794871794871795212e-02 -7.874204193987789646e-02 -1.566603834530955197e-01 -9.845077953124715675e-01
1.558974358974359042e-01 -1.515148868734255139e-01 -3.096858660037064004e-01 -9.386876713904275249e-01
2.338461538461538702e-01 -2.127815495849705030e-01 -4.554262783235188405e-01 -8.644684357653095175e-01
3.117948717948718085e-01 -2.577741039891736086e-01 -5.902789375455864684e-01 -7.649288541992189661e-01
3.897435897435897467e-01 -2.828445796137651347e-01 -7.107101765556098627e-01 -6.441126034604659489e-01
4.676923076923077405e-01 -2.857109147484050427e-01 -8.133478564018951085e-01 -5.067781016881074407e-01
5.456410256410256787e-01 -2.656314137183251045e-01 -8.950852985644577320e-01 -3.581208854746165682e-01
6.235897435897436170e-01 -2.234561958236172263e-01 -9.532329812466375785e-01 -2.034741759153960161e-01
7.015384615384615552e-01 -1.615896678420449262e-01 -9.856828434865370081e-01 -4.801322340748347128e-02
7.794871794871794934e-01 -8.383572544537021276e-02 -9.910843526536887715e-01 1.034920953945057259e-01
8.574358974358974317e-01 4.860355384704029280e-03 -9.690156086649230893e-01 2.469267298320014514e-01
9.353846153846154809e-01 9.873754018443420266e-02 -9.201180425859987189e-01 3.789750853168996625e-01
1.013333333333333419e+00 1.916276346306194922e-01 -8.461841680883974703e-01 4.972329784100331662e-01
1.091282051282051357e+00 2.773748303058184428e-01 -7.501846830022820267e-01 6.002305204992127718e-01
1.169230769230769296e+00 3.502832562512471770e-01 -6.362036532371627695e-01 6.874141628313603647e-01
1.247179487179487234e+00 4.055275439368862256e-01 -5.092936413502799908e-01 7.590521481757492861e-01
1.325128205128205172e+00 4.394860476522023385e-01 -3.752597008654136590e-01 8.161041320757279616e-01
1.403076923076923110e+00 4.500356867529360372e-01 -2.403451793169345818e-01 8.600562407725448333e-01
1.481025641025641049e+00 4.366961621448748887e-01 -1.108798133938777714e-01 8.927471793938057676e-01
1.558974358974358987e+00 4.006661913707526557e-01 7.115172435831401687e-03 9.161942923065147237e-01
1.636923076923076925e+00 3.447451191191824305e-01 1.083173911753138874e-01 9.324240447539808851e-01
1.714871794871794863e+00 2.731117359001587475e-01 1.884599267643919385e-01 9.433396098500849147e-01
1.792820512820512802e+00 1.910185624292994599e-01 2.446298372923298714e-01 9.506130489221517044e-01
1.870769230769230962e+00 1.043665840084745805e-01 2.754868625207145261e-01 9.556211586465740426e-01
1.948717948717948900e+00 1.927235971860212504e-02 2.813510086546086586e-01 9.594099782020439893e-01
2.026666666666666838e+00 -5.842823714956217607e-02 2.641752648807319526e-01 9.627019295994587722e-01
2.104615384615384777e+00 -1.236157893818548570e-01 2.273912009751174745e-01 9.659243928042772209e-01
2.182564102564102715e+00 -1.722884868587903073e-01 1.756496330332324718e-01 9.692582590143398180e-01
2.260512820512820653e+00 -2.018682913515909838e-01 1.144266923297082572e-01 9.727042455895543727e-01
2.338461538461538591e+00 -2.113580635681669151e-01 4.961394781143296101e-02 9.761476309382769445e-01
2.416410256410256530e+00 -2.014157956883502743e-01 -1.297654208185571034e-02 9.794189149022449747e-01
2.494358974358974468e+00 -1.742456742339576758e-01 -6.805429388050579509e-02 9.823468476268626404e-01
2.572307692307692406e+00 -1.333712502837307579e-01 -1.112854129820649851e-01 9.847974740313163444e-01
2.650256410256410344e+00 -8.330432022090858424e-02 -1.395998912484681387e-01 9.866968952363632805e-01
2.728205128205128283e+00 -2.912250696664978045e-02 -1.514231804070512166e-01 9.880392095383555562e-01
2.806153846153846221e+00 2.399064829754550543e-02 -1.467481906362230193e-01 9.888822224147139073e-01
2.884102564102564159e+00 7.120646816752385089e-02 -1.270792042087649787e-01 9.893326917691681599e-01
2.962051282051282097e+00 1.084749571701383308e-01 -9.524473888236408003e-02 9.895252888090001475e-01
3.040000000000000036e+00 1.328727206244912640e-01 -5.508256203652026756e-02 9.896006396838136210e-01
