0.000000000000000000e+00 -6.379529889312521837e-10 -2.560596593798817799e-09 -1.000000000000000000e+00
7.794871794871795212e-02 -4.249609110525128658e-03 1.069998832317408961e-03 -9.999903450298236463e-01
1.558974358974359042e-01 -8.535917040908815034e-03 2.068329484047403549e-03 -9.999613312272447319e-01
2.338461538461538702e-01 -1.285540525752035951e-02 2.964969213134430702e-03 -9.999128290265864027e-01
3.117948717948718085e-01 -1.722507773093066505e-02 3.710602124135879872e-03 -9.998445693850367411e-01
3.897435897435897467e-01 -2.165495523638836031e-02 4.249035009230420212e-03 -9.997562509963208166e-01
4.676923076923077405e-01 -2.614984698960801449e-02 4.529009071552188292e-03 -9.996475106263638111e-01
5.456410256410256787e-01 -3.071307049650964793e-02 4.494133630198765550e-03 -9.995178344124356906e-01
6.235897435897436170e-01 -3.533757609341948991e-02 4.088579103679258059e-03 -9.993667243322257310e-01
7.015384615384615552e-01 -4.000925249324999849e-02 3.254273017528602069e-03 -9.991936244294752356e-01
7.794871794871794934e-01 -4.470406558174514627e-02 1.934761415323109357e-03 -9.989979737222148826e-01
8.574358974358974317e-01 -4.938813350815821068e-02 7.208292528247499387e-05 -9.987791925473062937e-01
9.353846153846154809e-01 -5.401672903671508180e-02 -2.388799897191110078e-03 -9.985366664671938564e-01
1.013333333333333419e+00 -5.853234175295515818e-02 -5.499765986348360836e-03 -9.982698140624128857e-01
1.091282051282051357e+00 -6.286522916496960212e-02 -9.305241216969684093e-03 -9.979780544412272247e-01
1.169230769230769296e+00 -6.693123718089480367e-02 -1.384561594966314882e-02 -9.976608877442889600e-01
1.247179487179487234e+00 -7.063409238710084692e-02 -1.914867326568562428e-02 -9.973178066543597620e-01
1.325128205128205172e+00 -7.386199362915743527e-02 -2.523305965619281749e-02 -9.969484796427490192e-01
1.403076923076923110e+00 -7.649759245132090046e-02 -3.209864624052360255e-02 -9.965521963644358161e-01
1.481025641025641049e+00 -7.840725000340714734e-02 -3.972726912570207630e-02 -9.961287300473437023e-01
1.558974358974358987e+00 -7.945035293697438883e-02 -4.808180788294843383e-02 -9.956777050452002564e-01
1.636923076923076925e+00 -7.948193826991231670e-02 -5.709949772437106913e-02 -9.951987202226816320e-01
1.714871794871794863e+00 -7.835416696312864915e-02 -6.668974660622126183e-02 -9.946915290315413438e-01
1.792820512820512802e+00 -7.592370163733906663e-02 -7.673483487326596131e-02 -9.941556228981819343e-01
1.870769230769230962e+00 -7.205081828434052593e-02 -8.708579741618413528e-02 -9.935908100132430087e-01
1.948717948717948900e+00 -6.660951793691606559e-02 -9.756086555094978241e-02 -9.929969367879000197e-01
2.026666666666666838e+00 -5.949576001269475667e-02 -1.079489939825261785e-01 -9.923734394302474726e-01
2.104615384615384777e+00 -5.062882413497737238e-02 -1.180072357510701664e-01 -9.917200678396034252e-01
2.182564102564102715e+00 -3.995902594775267713e-02 -1.274622097234772433e-01 -9.910369573070668681e-01
2.260512820512820653e+00 -2.748059804579440490e-02 -1.360202508103615648e-01 -9.903235859329574398e-01
2.338461538461538591e+00 -1.322887612096364934e-02 -1.433654088316678732e-01 -9.895800910280712070e-01
2.416410256410256530e+00 2.707297783323521501e-03 -1.491711005560742431e-01 -9.888063303886764910e-01
2.494358974358974468e+00 2.017803309306931414e-02 -1.531058697511091249e-01 -9.880023547190089905e-01
2.572307692307692406e+00 3.897830819699822646e-02 -1.548421184466799438e-01 -9.871685396063777373e-01
2.650256410256410344e+00 5.883315401414257462e-02 -1.540722906934984260e-01 -9.863049265625558615e-01
2.728205128205128283e+00 7.940609480710869583e-02 -1.505117515996192978e-01 -9.854125076919137971e-01
2.806153846153846221e+00 1.002983925724312414e-01 -1.439228808123279579e-01 -9.844913713333548477e-01
2.884102564102564159e+00 1.210465613248621064e-01 -1.341218172275961684e-01 -9.835424727476906881e-01
2.962051282051282097e+00 1.411421106910865642e-01 -1.209863739934353422e-01 -9.825669601351952887e-01
3.040000000000000036e+00 1.600280931562865216e-01 -1.044826067571831274e-01 -9.815655488747930812e-01
