0.000000000000000000e+00 3.018821179815852646e-09 3.811649546921343389e-10 -1.000000000000000000e+00
7.794871794871795212e-02 -6.452731590210011858e-02 1.722170844971548098e-01 -9.829414103941247483e-01
1.558974358974359042e-01 -1.271323533112156401e-01 3.383102581556610700e-01 -9.324032717945303084e-01
2.338461538461538702e-01 -1.858652160468686754e-01 4.924220105908115319e-01 -8.502721354856983549e-01
3.117948717948718085e-01 -2.388781311752383729e-01 6.292162711259554619e-01 -7.395997596669080520e-01
3.897435897435897467e-01 -2.844345442427223536e-01 7.441054384366845298e-01 -6.044697959021770872e-01
4.676923076923077405e-01 -3.209399047583140208e-01 8.334463587678441199e-01 -4.498233019900981788e-01
5.456410256410256787e-01 -3.469875060888411022e-01 8.946942600838828641e-01 -2.812394936468667894e-01
6.235897435897436170e-01 -3.613889064726777955e-01 9.265028110347701684e-01 -1.047046813333247089e-01
7.015384615384615552e-01 -3.632168972858382805e-01 9.287742894662952553e-01 7.364895120591423427e-02
7.794871794871794934e-01 -3.518370199260526521e-01 9.026494410026322246e-01 2.478066884374338086e-01
8.574358974358974317e-01 -3.269422862522795015e-01 8.504439129715291035e-01 4.121037377796460399e-01
9.353846153846154809e-01 -2.885764935378709595e-01 7.755279577577264272e-01 5.614789205960764029e-01
1.013333333333333419e+00 -2.371550301433583141e-01 6.821639726745379884e-01 6.916588158573813150e-01
1.091282051282051357e+00 -1.734773951508460088e-01 5.753048770325851491e-01 7.993220674223402433e-01
1.169230769230769296e+00 -9.871993932072622990e-02 4.603521331639230385e-01 8.822243592701863868e-01
1.247179487179487234e+00 -1.443199578661297222e-02 3.429146408791737266e-01 9.392518464660878363e-01
1.325128205128205172e+00 7.749631784348527674e-02 2.285395949263363258e-01 9.704427183838267856e-01
1.403076923076923110e+00 1.748628107658327935e-01 1.224762563829576711e-01 9.769433235034390428e-01
1.481025641025641049e+00 2.752400534454141900e-01 2.942872914106450799e-02 9.609220422669222383e-01
1.558974358974358987e+00 3.760192354378706359e-01 -4.666711765810241386e-02 9.254315823872509839e-01
1.636923076923076925e+00 4.744712494227375510e-01 -1.027992907186743299e-01 8.742416600711950814e-01
1.714871794871794863e+00 5.678602305494956370e-01 -1.370076523236108679e-01 8.116341685979968634e-01
1.792820512820512802e+00 6.535297560395230132e-01 -1.484506677878705272e-01 7.421893424505039416e-01
1.870769230769230962e+00 7.290051002509259082e-01 -1.374411341120152508e-01 6.705542226222753754e-01
1.948717948717948900e+00 7.920865417552819254e-01 -1.054033708969744632e-01 6.012225845270655622e-01
2.026666666666666838e+00 8.409448347078564145e-01 -5.479309354022066092e-02 5.383191911547833275e-01
2.104615384615384777e+00 8.741973981990255327e-01 1.103966429784208891e-02 4.854214314704369260e-01
2.182564102564102715e+00 8.909808265863987664e-01 8.802438223263187034e-02 4.453998757296382949e-01
2.260512820512820653e+00 8.910010853948576726e-01 1.715772375491313728e-01 4.203023316785118313e-01
2.338461538461538591e+00 8.745651266885189346e-01 2.568296939992562589e-01 4.112784124142979669e-01
2.416410256410256530e+00 8.425802549504657346e-01 3.388719850256991517e-01 4.185689910576724793e-01
2.494358974358974468e+00 7.965466712884037292e-01 4.129928373322828694e-01 4.415047195614689168e-01
2.572307692307692406e+00 7.385032776547912903e-01 4.749104240094010887e-01 4.785914682882835280e-01
2.650256410256410344e+00 6.709671183513622461e-01 5.209742308073284089e-01 5.276047679988912220e-01
2.728205128205128283e+00 5.968391481897818984e-01 5.483465956410374931e-01 5.857287879568779942e-01
2.806153846153846221e+00 5.192953108057740685e-01 5.551309105851370829e-01 6.497252626127418829e-01
2.884102564102564159e+00 4.416590236002782000e-01 5.404569575035398366e-01 7.161190382666395848e-01
2.962051282051282097e+00 3.672701485883363981e-01 5.045243028332245805e-01 7.813789385491591855e-01
3.040000000000000036e+00 2.993403609072207150e-01 4.485778741722851737e-01 8.421169110548510917e-01
