0.000000000000000000e+00 1.398296424240316207e-09 1.173999292431536516e-09 -1.000000000000000000e+00
7.794871794871795212e-02 3.508175724950799573e-03 4.813154942281749893e-02 -9.988344860607064613e-01
1.558974358974359042e-01 7.010259277601769284e-03 9.599926807343461821e-02 -9.953560280452361519e-01
2.338461538461538702e-01 1.054041355534846708e-02 1.433283630609077930e-01 -9.896180277738650943e-01
3.117948717948718085e-01 1.410702531684668304e-02 1.898682911156095721e-01 -9.817068331926064317e-01
3.897435897435897467e-01 1.771475348607066957e-02 2.353882303582768842e-01 -9.717382153437486014e-01
4.676923076923077405e-01 2.136650589403848999e-02 2.796824824459703818e-01 -9.598526306832211308e-01
5.456410256410256787e-01 2.505648591539670622e-02 3.225756143172895385e-01 -9.462094527371430752e-01
6.235897435897436170e-01 2.877473116522052954e-02 3.639239099217499440e-01 -9.309811371343751363e-01
7.015384615384615552e-01 3.250863539169371319e-02 4.036162295870305838e-01 -9.143472521406935671e-01
7.794871794871794934e-01 3.623962563108530655e-02 4.415755949787190104e-01 -8.964880115587062770e-01
8.574358974358974317e-01 3.995161142461450821e-02 4.777550229345011723e-01 -8.775798491909182486e-01
9.353846153846154809e-01 4.362496334343103632e-02 5.121347800550887230e-01 -8.577916648959104107e-01
1.013333333333333419e+00 4.724687282452011416e-02 5.447237486487302993e-01 -8.372782250855104191e-01
1.091282051282051357e+00 5.080369677787732741e-02 5.755471956548482426e-01 -8.161830865027496218e-01
1.169230769230769296e+00 5.428668130393943247e-02 6.046497198092656289e-01 -7.946329202908271050e-01
1.247179487179487234e+00 5.769578895373689287e-02 6.320846596416042074e-01 -7.727414773162993855e-01
1.325128205128205172e+00 6.103585973348696347e-02 6.579154708135395158e-01 -7.506067578996888923e-01
1.403076923076923110e+00 6.431512490138380223e-02 6.822082728918199557e-01 -7.283155479252070297e-01
1.481025641025641049e+00 6.754763000181679411e-02 7.050305255432977036e-01 -7.059439460552637824e-01
1.558974358974358987e+00 7.075138753166693162e-02 7.264479101497109959e-01 -6.835603532336377297e-01
1.636923076923076925e+00 7.394513188775336809e-02 7.465250158951206583e-01 -6.612254714309407921e-01
1.714871794871794863e+00 7.714823289963916586e-02 7.653208324044141753e-01 -6.389979116904809242e-01
1.792820512820512802e+00 8.037612622988936362e-02 7.828916656543883912e-01 -6.169327760759584223e-01
1.870769230769230962e+00 8.364544409296773009e-02 7.992935339656535021e-01 -5.950786585391081296e-01
1.948717948717948900e+00 8.696128552975762593e-02 8.145766050091400867e-01 -5.734872576897317442e-01
2.026666666666666838e+00 9.032397329707433919e-02 8.287939083823561148e-01 -5.522017960092495681e-01
2.104615384615384777e+00 9.373353960319816269e-02 8.419948655734962317e-01 -5.312653921803308643e-01
2.182564102564102715e+00 9.717519737125249191e-02 8.542314908826247333e-01 -5.107146706041874040e-01
2.260512820512820653e+00 1.006374037072918781e-01 8.655581139811786562e-01 -4.905760907647625513e-01
2.338461538461538591e+00 1.040979837042241840e-01 8.760300035262111873e-01 -4.708698399024903170e-01
2.416410256410256530e+00 1.075346925756247574e-01 8.857006228740621490e-01 -4.516124477833834971e-01
2.494358974358974468e+00 1.109293087402102307e-01 8.946273044811615671e-01 -4.328042728619924118e-01
2.572307692307692406e+00 1.142626240624823875e-01 9.028655322484173684e-01 -4.144400155791870266e-01
2.650256410256410344e+00 1.175171372884359355e-01 9.104703336452901752e-01 -3.965046355637859010e-01
2.728205128205128283e+00 1.206874435761015052e-01 9.174934028263161956e-01 -3.789757697859954533e-01
2.806153846153846221e+00 1.237697745824739015e-01 9.239809741670418353e-01 -3.618318183768364227e-01
2.884102564102564159e+00 1.267663483154026216e-01 9.299785729570806403e-01 -3.450391875752873427e-01
2.962051282051282097e+00 1.296978680260997829e-01 9.355202383293544921e-01 -3.285758346676385111e-01
3.040000000000000036e+00 1.325776662672527029e-01 9.406384727537404622e-01 -3.124164184185700410e-01
