0.000000000000000000e+00 -4.434879358359558503e-09 -6.354919813216844598e-10 -1.000000000000000000e+00
9.435897435897436236e-02 1.235064224028214891e-01 2.233916106457199124e-01 -9.668713836194822164e-01
1.887179487179487247e-01 2.361646585529103004e-01 4.317890129761584594e-01 -8.705056475913913738e-01
2.830769230769231148e-01 3.287619609603140702e-01 6.116801486943530541e-01 -7.195527520736304528e-01
3.774358974358974494e-01 3.950058180185277434e-01 7.523962942464961223e-01 -5.271255294272328973e-01
4.717948717948717841e-01 4.323354563328818401e-01 8.470808953498567551e-01 -3.090786657325142461e-01
5.661538461538462297e-01 4.420188241752091018e-01 8.932421143147792897e-01 -8.201716375388957980e-02
6.605128205128205643e-01 4.286324128297682723e-01 8.927705003214547741e-01 1.386510382966869848e-01
7.548717948717948989e-01 3.989928848259993721e-01 8.514571529653236492e-01 3.403163095612620204e-01
8.492307692307692335e-01 3.608175306456087861e-01 7.780767574971052536e-01 5.141967196233999671e-01
9.435897435897435681e-01 3.213425979820678235e-01 6.831571801084144191e-01 6.557648963338691406e-01
1.037948717948717903e+00 2.862198572906607952e-01 5.776232595548105309e-01 7.644758852978197350e-01
1.132307692307692459e+00 2.588247777879882361e-01 4.715032755295140432e-01 8.430240035166974844e-01
1.226666666666666794e+00 2.401012272196920705e-01 3.728832515354583155e-01 8.962731614648636880e-01
1.321025641025641129e+00 2.288962878140385904e-01 2.872247402829784524e-01 9.301103754290973580e-01
1.415384615384615463e+00 2.226535512305901077e-01 2.171669361338763038e-01 9.504006140370484523e-01
1.509743589743589798e+00 2.182973489092337738e-01 1.627337198782363159e-01 9.622171149390738032e-01
1.604102564102564132e+00 2.130643589991841891e-01 1.219529860735867888e-01 9.693962331536268850e-01
1.698461538461538467e+00 2.051008105239797985e-01 9.164474659562577008e-02 9.744398813835656314e-01
1.792820512820512802e+00 1.937577597349636194e-01 6.830358691582796848e-02 9.786679218480748288e-01
1.887179487179487136e+00 1.795443191512586523e-01 4.883535480330897932e-02 9.825362379016402414e-01
1.981538461538461693e+00 1.637662180204267348e-01 3.107515835445803787e-02 9.860089415505601806e-01
2.075897435897435805e+00 1.480455659270886737e-01 1.396618132033806969e-02 9.888813252589154779e-01
2.170256410256410362e+00 1.338199153421468224e-01 -2.524689037088800880e-03 9.910019136793314365e-01
2.264615384615384919e+00 1.219513962064741885e-01 -1.772855474258352299e-02 9.923772349962125539e-01
2.358974358974359031e+00 1.125821378667115485e-01 -3.073392417206020910e-02 9.931665320726901225e-01
2.453333333333333588e+00 1.051666687585589288e-01 -4.079245803243149865e-02 9.936171542818347246e-01
2.547692307692307701e+00 9.874739833637737052e-02 -4.762172846246713609e-02 9.939719557321374799e-01
2.642051282051282257e+00 9.227004076960376722e-02 -5.151740671905094548e-02 9.943999972013465305e-01
2.736410256410256370e+00 8.494332554912864541e-02 -5.326798889701545026e-02 9.949604784127128454e-01
2.830769230769230926e+00 7.643356633597367389e-02 -5.391835969536756812e-02 9.956153740976431132e-01
2.925128205128205039e+00 6.693209710405043089e-02 -5.449249835600121494e-02 9.962680216293897661e-01
3.019487179487179596e+00 5.707255988150575221e-02 -5.570574994427628102e-02 9.968144015380816514e-01
3.113846153846154152e+00 4.767654154186701243e-02 -5.780975049451871073e-02 9.971882347751344078e-01
3.208205128205128265e+00 3.950491311159712998e-02 -6.057452340577546696e-02 9.973813236328662457e-01
3.302564102564102821e+00 3.300984770011069352e-02 -6.342133650555724367e-02 9.974404774538370155e-01
3.396923076923076934e+00 2.822213395074371634e-02 -6.562641080734850363e-02 9.974447894983669016e-01
3.491282051282051491e+00 2.474832298582384238e-02 -6.658796848753620323e-02 9.974733023785784525e-01
3.585641025641025603e+00 2.192415151163094184e-02 -6.601590930200297580e-02 9.975774000553495613e-01
3.680000000000000160e+00 1.901268953301291087e-02 -6.400374782503268078e-02 9.977682579294401277e-01
