0.000000000000000000e+00 -4.439949980952238400e-09 8.974659354344352478e-10 -1.000000000000000000e+00
9.435897435897436236e-02 -9.739374359457630970e-02 1.625885659409231215e-02 -9.951124843850889246e-01
1.887179487179487247e-01 -1.939019014769448601e-01 2.716269977583715689e-02 -9.806435397487874850e-01
2.830769230769231148e-01 -2.882420772464836523e-01 2.766691491141357040e-02 -9.571558188852674620e-01
3.774358974358974494e-01 -3.784369059687553993e-01 1.327688743485633260e-02 -9.255290960248057086e-01
4.717948717948717841e-01 -4.615673237278774543e-01 -1.961487287976096394e-02 -8.868846602855043892e-01
5.661538461538462297e-01 -5.336812021313616095e-01 -7.337105886142247790e-02 -8.424922899448114011e-01
6.605128205128205643e-01 -5.898769026668915227e-01 -1.487373640763919314e-01 -7.936708021398469759e-01
7.548717948717948989e-01 -6.245658738458581549e-01 -2.445022155011571663e-01 -7.417046890859281261e-01
8.492307692307692335e-01 -6.319519139574770739e-01 -3.572162122311701715e-01 -6.877658928759764478e-01
9.435897435897435681e-01 -6.066681086164691372e-01 -4.810581399669375813e-01 -6.328700159243829670e-01
1.037948717948717903e+00 -5.445532667109106439e-01 -6.078967579393803611e-01 -5.778494034648158362e-01
1.132307692307692459e+00 -4.434719798675887947e-01 -7.276044932427867540e-01 -5.233642951603071358e-01
1.226666666666666794e+00 -3.041284405058912732e-01 -8.286637732833620484e-01 -4.699015246519075983e-01
1.321025641025641129e+00 -1.306594970797529398e-01 -8.990759614658241361e-01 -4.178218202586209684e-01
1.415384615384615463e+00 6.895792924797253254e-02 -9.275039090138240683e-01 -3.673763114419493769e-01
1.509743589743589798e+00 2.829847041664724783e-01 -9.045975245963872036e-01 -3.187579842201868630e-01
1.604102564102564132e+00 4.963694578296348192e-01 -8.243617586690884513e-01 -2.720815635451891978e-01
1.698461538461538467e+00 6.917372869623662490e-01 -6.853824605737921516e-01 -2.274499654187323305e-01
1.792820512820512802e+00 8.508631769191286054e-01 -4.917576406625420726e-01 -1.849029490901825390e-01
1.887179487179487136e+00 9.564670013932232706e-01 -2.535421123532414778e-01 -1.444644441979369420e-01
1.981538461538461693e+00 9.942551498323266568e-01 1.344947783210548309e-02 -1.061055660332944767e-01
2.075897435897435805e+00 9.549122419252522587e-01 2.885467612121216385e-01 -6.975588035983422419e-02
2.170256410256410362e+00 8.358151057898918213e-01 5.478577155339260374e-01 -3.531963583396309503e-02
2.264615384615384919e+00 6.421908694844468135e-01 7.665286688927462899e-01 -2.668349387904630273e-03
2.358974358974359031e+00 3.874789611142531176e-01 9.214334354785423953e-01 2.833594567452968338e-02
2.453333333333333588e+00 9.275609237920726113e-02 9.939996451639152575e-01 5.782273075324524669e-02
2.547692307692307701e+00 -2.148790206773473488e-01 9.728448711647290637e-01 8.592073673341114881e-02
2.642051282051282257e+00 -5.048312107953039085e-01 8.558187059301964883e-01 1.127046424533742902e-01
2.736410256410256370e+00 -7.462563340013832480e-01 6.511315867235669685e-01 1.382453226353765052e-01
2.830769230769230926e+00 -9.116981201224290121e-01 3.773083713069541045e-01 1.625659776622241925e-01
2.925128205128205039e+00 -9.806554396840654331e-01 6.181961029571972355e-02 1.856774612809022618e-01
3.019487179487179596e+00 -9.425947480693626090e-01 -2.615393856182458565e-01 2.075939440758329813e-01
3.113846153846154152e+00 -7.989643850912612200e-01 -5.563260216789623902e-01 2.283425946631769954e-01
3.208205128205128265e+00 -5.638341341741394119e-01 -7.877719645590330888e-01 2.479709153671349198e-01
3.302564102564102821e+00 -2.629197050336301023e-01 -9.272561381963737581e-01 2.665568874860939630e-01
3.396923076923076934e+00 6.896674860780002692e-02 -9.562730624296499338e-01 2.841985193345721861e-01
3.491282051282051491e+00 3.918815087470556291e-01 -8.693690940514223753e-01 3.010145630268236117e-01
3.585641025641025603e+00 6.656471362402086589e-01 -6.755237653674475151e-01 3.171201728068763770e-01
3.680000000000000160e+00 8.551084180225614340e-01 -3.976680454717263502e-01 3.326161292942131920e-01
