0.000000000000000000e+00 4.931812146442686216e-09 3.942935188946861676e-10 -1.000000000000000000e+00
9.435897435897436236e-02 -8.660318855873164190e-03 1.311776914813284900e-01 -9.913202488936353474e-01
1.887179487179487247e-01 -1.613937624365364976e-02 2.590067252722195734e-01 -9.657390145859340302e-01
2.830769230769231148e-01 -2.134438795767754082e-02 3.803765394385111298e-01 -9.245827150959105012e-01
3.774358974358974494e-01 -2.342622251000889277e-02 4.926485012088773763e-01 -8.699091885022230963e-01
4.717948717948717841e-01 -2.183847916450221138e-02 5.938058949346988191e-01 -8.043066876542137589e-01
5.661538461538462297e-01 -1.636896811699867227e-02 6.825546044531936030e-01 -7.306444063314523341e-01
6.605128205128205643e-01 -7.134852353129342295e-03 7.583309325894983521e-01 -6.518219031056348145e-01
7.548717948717948989e-01 5.469669475258814861e-03 8.212426629558463587e-01 -5.705416564299191640e-01
8.492307692307692335e-01 2.084819554639527617e-02 8.719543492622255920e-01 -4.891289150685947384e-01
9.435897435897435681e-01 3.829485758266520934e-02 9.115355128234492454e-01 -4.094163772332891638e-01
1.037948717948717903e+00 5.709565031661167911e-02 9.412865697223748995e-01 -3.327224812647366359e-01
1.132307692307692459e+00 7.659903616746782662e-02 9.625965203412893967e-01 -2.598549311358863134e-01
1.226666666666666794e+00 9.628348761338501038e-02 9.768059953791203842e-01 -1.912151348222457803e-01
1.321025641025641129e+00 1.157806516014389664e-01 9.851279055737850454e-01 -1.268909225176725886e-01
1.415384615384615463e+00 1.348741103850736311e-01 9.886014920582408827e-01 -6.677861023634003301e-02
1.509743589743589798e+00 1.534730297426525891e-01 9.880866194021816762e-01 -1.068313935878064357e-02
1.604102564102564132e+00 1.715706342743362756e-01 9.842846734383173812e-01 4.159909052971953736e-02
1.698461538461538467e+00 1.891988817120571209e-01 9.777747795719540225e-01 9.024201763030473278e-02
1.792820512820512802e+00 2.063767771976410259e-01 9.690518312862314021e-01 1.353907375666763835e-01
1.887179487179487136e+00 2.230913731574775127e-01 9.585549585052210997e-01 1.771616776816051786e-01
1.981538461538461693e+00 2.392834019636606024e-01 9.466833351078509651e-01 2.156801243806930335e-01
2.075897435897435805e+00 2.548532704220002887e-01 9.337957218897054990e-01 2.511162410371979292e-01
2.170256410256410362e+00 2.696784739906580852e-01 9.202051703191972409e-01 2.836902797934646170e-01
2.264615384615384919e+00 2.836538092884334783e-01 9.061636517244776590e-01 3.136755964040447431e-01
2.358974358974359031e+00 2.967045840559647818e-01 8.918515652560613516e-01 3.413968599740268006e-01
2.453333333333333588e+00 3.088246851538766213e-01 8.773745752527724040e-01 3.671866449118856846e-01
2.547692307692307701e+00 3.200686647800853324e-01 8.627768148456039787e-01 3.913531697081738536e-01
2.642051282051282257e+00 3.305557268700678453e-01 8.480595656117417835e-01 4.141415139662213973e-01
2.736410256410256370e+00 3.404420755304473079e-01 8.332037052218190798e-01 4.357250360283138613e-01
2.830769230769230926e+00 3.498974041216548758e-01 8.182038919290689494e-01 4.561797347894728794e-01
2.925128205128205039e+00 3.590654841347497017e-01 8.030839879511829649e-01 4.755145140750949850e-01
3.019487179487179596e+00 3.680437283653462677e-01 7.879095957119867100e-01 4.936886353442770381e-01
3.113846153846154152e+00 3.768602890744439105e-01 7.727860974593363519e-01 5.106509309765877580e-01
3.208205128205128265e+00 3.854756136285308887e-01 7.578439362068235541e-01 5.263722239255849145e-01
3.302564102564102821e+00 3.937962187766825828e-01 7.432097368764364331e-01 5.408794863686556820e-01
3.396923076923076934e+00 4.016963151949626276e-01 7.289821918695401637e-01 5.542670964486764440e-01
3.491282051282051491e+00 4.090552452899766656e-01 7.152133236531655891e-01 5.666841027585918233e-01
3.585641025641025603e+00 4.157837327723660215e-01 7.018902573052908656e-01 5.783262849692123453e-01
3.680000000000000160e+00 4.218498406884522156e-01 6.889420747969877690e-01 5.893971721317375900e-01
