0.000000000000000000e+00 -4.431104991121042139e-09 2.817816548802418902e-10 -1.000000000000000000e+00
9.435897435897436236e-02 -6.112440104749512770e-02 -1.921036106376821095e-01 -9.794674247498421638e-01
1.887179487179487247e-01 -1.096395079126871730e-01 -3.775519804486686670e-01 -9.194706233844323062e-01
2.830769230769231148e-01 -1.343192157038647361e-01 -5.494671356204889889e-01 -8.246409255004851779e-01
3.774358974358974494e-01 -1.264707570261671132e-01 -7.006980303943811661e-01 -7.021480908595907344e-01
4.717948717948717841e-01 -8.094808606846232157e-02 -8.238775438123496775e-01 -5.609405500934888655e-01
5.661538461538462297e-01 3.179326883110934754e-03 -9.116968577460772272e-01 -4.108250169958791997e-01
6.605128205128205643e-01 1.223524212239303632e-01 -9.574136539403249602e-01 -2.614683141624933871e-01
7.548717948717948989e-01 2.686710486256407293e-01 -9.555289317409464411e-01 -1.214747436450928503e-01
8.492307692307692335e-01 4.304864589710734046e-01 -9.025803065823145843e-01 2.393386295311949324e-03
9.435897435897435681e-01 5.933849385897849160e-01 -7.979273389586649667e-01 1.057449717742697803e-01
1.037948717948717903e+00 7.415035821174825736e-01 -6.444085567621642419e-01 1.867783376473937107e-01
1.132307692307692459e+00 8.590578169258685781e-01 -4.487454606599651230e-01 2.462188868626348504e-01
1.226666666666666794e+00 9.319600444453034482e-01 -2.215825337772331372e-01 2.869296193717910115e-01
1.321025641025641129e+00 9.493556184636336992e-01 2.288909863359395169e-02 3.133324294117707520e-01
1.415384615384615463e+00 9.049368712451519858e-01 2.677908328740610799e-01 3.306883048439236417e-01
1.509743589743589798e+00 7.978843036205949257e-01 4.947899451965519502e-01 3.442980401109460020e-01
1.604102564102564132e+00 6.332998186722188505e-01 6.856810054483545303e-01 3.588183821304062882e-01
1.698461538461538467e+00 4.220724439723366750e-01 8.241203896565874043e-01 3.777015179845998882e-01
1.792820512820512802e+00 1.801498515832692382e-01 8.973576796482526374e-01 4.028319257651087892e-01
1.887179487179487136e+00 -7.276091502416828782e-02 8.977453535310355726e-01 4.344398166919062887e-01
1.981538461538461693e+00 -3.149511507215553840e-01 8.238496975277124212e-01 4.712290984204789979e-01
2.075897435897435805e+00 -5.247736459488021588e-01 6.809815583839413655e-01 5.107414811329354931e-01
2.170256410256410362e+00 -6.828123244870221153e-01 4.810758434648422233e-01 5.498310858361649123e-01
2.264615384615384919e+00 -7.739430782822509514e-01 2.418349927983983738e-01 5.852431744490664833e-01
2.358974358974359031e+00 -7.890416785377755149e-01 -1.476740980917723434e-02 6.141477159144467235e-01
2.453333333333333588e+00 -7.261493124658168208e-01 -2.645343177267363011e-01 6.345955809481091947e-01
2.547692307692307701e+00 -5.909347499512375146e-01 -4.834358652956609603e-01 6.458087292883475383e-01
2.642051282051282257e+00 -3.963771196525541218e-01 -6.500727963929588960e-01 6.482851474870560127e-01
2.736410256410256370e+00 -1.616378622341854698e-01 -7.480027077286679482e-01 6.436987654766466171e-01
2.830769230769230926e+00 8.974024862006385606e-02 -7.675750110333113829e-01 6.346322274756730497e-01
2.925128205128205039e+00 3.321960780613349984e-01 -7.071444401249051825e-01 6.241594286126884716e-01
3.019487179487179596e+00 5.408072521994495840e-01 -5.734079056575668298e-01 6.153967806715699984e-01
3.113846153846154152e+00 6.939467579994581525e-01 -3.808702234729506864e-01 6.110302543707639700e-01
3.208205128205128265e+00 7.756832172384711122e-01 -1.504221244979092043e-01 6.129200131573447896e-01
3.302564102564102821e+00 7.775834249411862631e-01 9.283710686563456660e-02 6.218743671256183880e-01
3.396923076923076934e+00 6.997748087097842573e-01 3.222654480480569017e-01 6.375288487424863870e-01
3.491282051282051491e+00 5.510488746790900283e-01 5.126156087782123283e-01 6.584479653061868776e-01
3.585641025641025603e+00 3.480094805952533288e-01 6.428473698974083161e-01 6.823639872060053291e-01
3.680000000000000160e+00 1.133188278960923223e-01 6.985262811315886555e-01 7.065440574121603090e-01
