0.000000000000000000e+00 -5.121921128385077607e-10 -4.695247072302382655e-09 -1.000000000000000000e+00
9.435897435897436236e-02 -2.214917736340429877e-01 -1.269566712564487998e-01 -9.668609857723725609e-01
1.887179487179487247e-01 -4.220553736854157911e-01 -2.536885365740348952e-01 -8.703473676367809997e-01
2.830769230769231148e-01 -5.828912135794773741e-01 -3.788608457599960122e-01 -7.188127264865740162e-01
3.774358974358974494e-01 -6.892267499056229374e-01 -4.992830316097743859e-01 -5.250420316677195665e-01
4.717948717948717841e-01 -7.318529934262925085e-01 -6.095249355894006849e-01 -3.047202921198424730e-01
5.661538461538462297e-01 -7.081005411505034708e-01 -7.021476092091376575e-01 -7.460025671765851962e-02
6.605128205128205643e-01 -6.221484558763860084e-01 -7.685112761383707802e-01 1.493478384419504035e-01
7.548717948717948989e-01 -4.846183979561219379e-01 -8.000620866208209003e-01 3.535957868347868183e-01
8.492307692307692335e-01 -3.114577124758807214e-01 -7.898798677044840399e-01 5.282708887136914333e-01
9.435897435897435681e-01 -1.221910681994335668e-01 -7.342178361090316852e-01 6.678187877369498038e-01
1.037948717948717903e+00 6.225143072685368484e-02 -6.337371741685872140e-01 7.710334165239184356e-01
1.132307692307692459e+00 2.219491455988661932e-01 -4.941703062328089979e-01 8.405513677659585126e-01
1.226666666666666794e+00 3.403297141088506561e-01 -3.262373074195891176e-01 8.818947784054061989e-01
1.321025641025641129e+00 4.061543727804085568e-01 -1.447525727961632147e-01 9.022635212996671372e-01
1.415384615384615463e+00 4.148689936675288292e-01 3.298404132001589439e-02 9.092800320041026785e-01
1.509743589743589798e+00 3.691602041973001125e-01 1.893400515984274834e-01 9.098711425370245021e-01
1.604102564102564132e+00 2.785283638586136812e-01 3.087068385177077490e-01 9.094594210311642835e-01
1.698461538461538467e+00 1.580097614008325047e-01 3.797111898920620399e-01 9.115079856610661668e-01
1.792820512820512802e+00 2.608065449941074365e-02 3.969213950007681735e-01 9.174790938881399738e-01
1.887179487179487136e+00 -9.789249298600791183e-02 3.617365074830768412e-01 9.271239373373212356e-01
1.981538461538461693e+00 -1.963668526976193041e-01 2.823159391243142968e-01 9.390065346224344411e-01
2.075897435897435805e+00 -2.560794637074412794e-01 1.724744385491476240e-01 9.511424144460558505e-01
2.170256410256410362e+00 -2.698829563333498549e-01 4.972023564541439011e-02 9.616067743616768526e-01
2.264615384615384919e+00 -2.376913190163871537e-01 -6.728596349985704883e-02 9.690058417183967654e-01
2.358974358974359031e+00 -1.663593436895545175e-01 -1.614985975602752921e-01 9.727486127398288218e-01
2.453333333333333588e+00 -6.850397152858911376e-02 -2.199938356657123451e-01 9.730914790442957152e-01
2.547692307692307701e+00 3.953877675302524403e-02 -2.358550894445065049e-01 9.709820027728525149e-01
2.642051282051282257e+00 1.403381104891973374e-01 -2.091218225068112169e-01 9.677655184203393102e-01
2.736410256410256370e+00 2.181409154304610465e-01 -1.466162686216475053e-01 9.648393004192112876e-01
2.830769230769230926e+00 2.613637977055472961e-01 -6.070902781062852138e-02 9.633275492511594873e-01
2.925128205128205039e+00 2.643663309285979590e-01 3.282115758536602312e-02 9.638619363887828140e-01
3.019487179487179596e+00 2.282724170649238216e-01 1.174502645777995430e-01 9.664853271149488334e-01
3.113846153846154152e+00 1.606249956570931781e-01 1.786675657863008582e-01 9.707082380524838516e-01
3.208205128205128265e+00 7.401375493254896965e-02 2.063506631288809512e-01 9.756734216828198969e-01
3.302564102564102821e+00 -1.614237416774290390e-02 1.963998855468043203e-01 9.803897487401069810e-01
3.396923076923076934e+00 -9.427716567412683379e-02 1.512999312941485375e-01 9.839806567436435447e-01
3.491282051282051491e+00 -1.473368576328947244e-01 7.956580077606756340e-02 9.858798415496632384e-01
3.585641025641025603e+00 -1.669762227113166797e-01 -5.839687951980643277e-03 9.859425796605466585e-01
3.680000000000000160e+00 -1.509261384068168732e-01 -8.985649947116605696e-02 9.844515904155314301e-01
