0.000000000000000000e+00 1.525161127082766420e-09 -4.797624819554249107e-09 -1.000000000000000000e+00
9.435897435897436236e-02 -4.748627011052936747e-02 5.233237696085941276e-02 -9.974996338794206441e-01
1.887179487179487247e-01 -9.442066715929668674e-02 1.041831557354901128e-01 -9.900651168909253563e-01
2.830769230769231148e-01 -1.402487929800677324e-01 1.551044182529921489e-01 -9.778907823270619470e-01
3.774358974358974494e-01 -1.844839714417399468e-01 2.046805151052492056e-01 -9.612846461166970613e-01
4.717948717948717841e-01 -2.267183665395102188e-01 2.525487966252435434e-01 -9.406453222038793083e-01
5.661538461538462297e-01 -2.666287105094098386e-01 2.984101187838256730e-01 -9.164362371077576785e-01
6.605128205128205643e-01 -3.039838940814695856e-01 3.420334839273787009e-01 -8.891573804948751381e-01
7.548717948717948989e-01 -3.386373698306195390e-01 3.832636747613192840e-01 -8.593176211746520465e-01
8.492307692307692335e-01 -3.705243422379912444e-01 4.220123026436669589e-01 -8.274113662321800344e-01
9.435897435897435681e-01 -3.996402293915150561e-01 4.582513274722901375e-01 -7.939048039554232883e-01
1.037948717948717903e+00 -4.260323691323115169e-01 4.920056176316280894e-01 -7.592216710716214179e-01
1.132307692307692459e+00 -4.497805478549207758e-01 5.233381871885068870e-01 -7.237434100097284162e-01
1.226666666666666794e+00 -4.709942652424599641e-01 5.523459747295660360e-01 -6.877990704874229477e-01
1.321025641025641129e+00 -4.897936066736928717e-01 5.791409626755388285e-01 -6.516798029491267519e-01
1.415384615384615463e+00 -5.063082410741612804e-01 6.038484228334470849e-01 -6.156354846461487007e-01
1.509743589743589798e+00 -5.206819237160003055e-01 6.265948454096799125e-01 -5.798764445015870406e-01
1.604102564102564132e+00 -5.330636771185578437e-01 6.475061310305231244e-01 -5.445786316216963963e-01
1.698461538461538467e+00 -5.436004114209180837e-01 6.667050634422088118e-01 -5.098916128015470450e-01
1.792820512820512802e+00 -5.524488211346032518e-01 6.843096719998552624e-01 -4.759271663810074604e-01
1.887179487179487136e+00 -5.597583289507597204e-01 7.004367454401110304e-01 -4.427693552053247328e-01
1.981538461538461693e+00 -5.656778096496500874e-01 7.151959677014281258e-01 -4.104737900302735665e-01
2.075897435897435805e+00 -5.703442543050467606e-01 7.286950567837914283e-01 -3.790726022589769317e-01
2.170256410256410362e+00 -5.738804488899776901e-01 7.410399124994568876e-01 -3.485769682471326902e-01
2.264615384615384919e+00 -5.763921758559185093e-01 7.523327400411319310e-01 -3.189860528735182776e-01
2.358974358974359031e+00 -5.779721923463549960e-01 7.626675662253948884e-01 -2.902941880409429243e-01
2.453333333333333588e+00 -5.786979212445344523e-01 7.721344327754124937e-01 -2.624906434376571562e-01
2.547692307692307701e+00 -5.786364871772928797e-01 7.808144564762367068e-01 -2.355687730715895212e-01
2.642051282051282257e+00 -5.778506551815192349e-01 7.887783913081822806e-01 -2.095260779892411107e-01
2.736410256410256370e+00 -5.764014046548715520e-01 7.960874480413928644e-01 -1.843637430121982945e-01
2.830769230769230926e+00 -5.743549492841235615e-01 8.027923069616763607e-01 -1.600768582624315928e-01
2.925128205128205039e+00 -5.717790249415312109e-01 8.089358323379356452e-01 -1.366571644734267399e-01
3.019487179487179596e+00 -5.687431741038571076e-01 8.145534041972861683e-01 -1.140942816769236895e-01
3.113846153846154152e+00 -5.653170976043353502e-01 8.196768995286188852e-01 -9.235724944004768122e-02
3.208205128205128265e+00 -5.615632281819171734e-01 8.243368652692062426e-01 -7.140681446957426737e-02
3.302564102564102821e+00 -5.575349561384765895e-01 8.285634127333860732e-01 -5.119449212925771681e-02
3.396923076923076934e+00 -5.532702943415088725e-01 8.323896200707245896e-01 -3.166882777965478873e-02
3.491282051282051491e+00 -5.487914830929008225e-01 8.358517110781172876e-01 -1.277613393664371079e-02
3.585641025641025603e+00 -5.441117345880150946e-01 8.389846830490110818e-01 5.524846877440202017e-03
3.680000000000000160e+00 -5.392308701254360237e-01 8.418265856717452866e-01 2.326964776749483252e-02
