0.000000000000000000e+00 -5.846376757907072442e-09 2.102063476519803288e-10 -1.000000000000000000e+00
9.435897435897436236e-02 2.007599847403947896e-02 4.382213576539691069e-02 -9.988374214848926291e-01
1.887179487179487247e-01 3.824771800344391182e-02 8.828479208445542958e-02 -9.953603256153376044e-01
2.830769230769231148e-01 5.260881092181381169e-02 1.338726240962302416e-01 -9.896006014383103011e-01
3.774358974358974494e-01 6.121295339539899183e-02 1.808144549530697476e-01 -9.816097248750731419e-01
4.717948717948717841e-01 6.210270634803585765e-02 2.289284212669497609e-01 -9.714593142874271559e-01
5.661538461538462297e-01 5.336537402026150789e-02 2.775171926211468798e-01 -9.592362169983857934e-01
6.605128205128205643e-01 3.323095966473826879e-02 3.252433114230741107e-01 -9.450448993773248318e-01
7.548717948717948989e-01 2.262625490107583737e-04 3.700720872511414350e-01 -9.290013966820099833e-01
8.492307692307692335e-01 -4.662901910011391787e-02 4.092423158097439617e-01 -9.112316208880297808e-01
9.435897435897435681e-01 -1.075706166747558701e-01 4.393115146997233489e-01 -8.918689129355386047e-01
1.037948717948717903e+00 -1.818290829068451020e-01 4.562890071649868817e-01 -8.710535699061309201e-01
1.132307692307692459e+00 -2.673649375596678923e-01 4.558849718643320781e-01 -8.489289450800483472e-01
1.226666666666666794e+00 -3.606456655186423554e-01 4.338858831869054078e-01 -8.256347625598245976e-01
1.321025641025641129e+00 -4.565294900608571904e-01 3.866134559987922659e-01 -8.013148521554382953e-01
1.415384615384615463e+00 -5.482629676859140933e-01 3.115273038260744087e-01 -7.761138916992300629e-01
1.509743589743589798e+00 -6.277399146559137222e-01 2.078548977311977519e-01 -7.501552085260216884e-01
1.604102564102564132e+00 -6.859087394755054579e-01 7.720343562898190903e-02 -7.235761153583772920e-01
1.698461538461538467e+00 -7.135279916193795202e-01 -7.591923682039569687e-02 -6.964964748019152330e-01
1.792820512820512802e+00 -7.021120981549668905e-01 -2.437882620525956834e-01 -6.690282811428067689e-01
1.887179487179487136e+00 -6.450713336662501352e-01 -4.154870920194824735e-01 -6.412847269877580691e-01
1.981538461538461693e+00 -5.389614383147557364e-01 -5.773264942597200466e-01 -6.133571732484093264e-01
2.075897435897435805e+00 -3.846236346699193898e-01 -7.137471222687916672e-01 -5.853389786537960271e-01
2.170256410256410362e+00 -1.881135114692034649e-01 -8.087023125314795058e-01 -5.573201033361757650e-01
2.264615384615384919e+00 3.887070449310153775e-02 -8.474965241915737302e-01 -5.293678361676585897e-01
2.358974358974359031e+00 2.791941287991885345e-01 -8.188376191085491307e-01 -5.015445384789686267e-01
2.453333333333333588e+00 5.112690497097975850e-01 -7.169354413897016665e-01 -4.739183734024142725e-01
2.547692307692307701e+00 7.109026893299504879e-01 -5.433289128380320854e-01 -4.465445296578585133e-01
2.642051282051282257e+00 8.538946287479105557e-01 -3.080758502424423284e-01 -4.194567399709839273e-01
2.736410256410256370e+00 9.191700201399560788e-01 -2.995288179678312623e-02 -3.927083706003470787e-01
2.830769230769230926e+00 8.921070228870847663e-01 2.644668858659838251e-01 -3.663233058616597315e-01
2.925128205128205039e+00 7.675498610352975426e-01 5.431660873513090015e-01 -3.403352953399570446e-01
3.019487179487179596e+00 5.520098571600998705e-01 7.721356606051861249e-01 -3.147725935006936426e-01
3.113846153846154152e+00 2.644676856115201202e-01 9.198608492527253766e-01 -2.896602664566189089e-01
3.208205128205128265e+00 -6.451825986767434351e-02 9.620866776548777644e-01 -2.649842890732222456e-01
3.302564102564102821e+00 -3.956600572650451619e-01 8.862636485545649645e-01 -2.407899294419627301e-01
3.396923076923076934e+00 -6.855502103031548833e-01 6.949025949972511551e-01 -2.170738170975069214e-01
3.491282051282051491e+00 -8.926073079235836705e-01 4.070235739326265589e-01 -1.938392277551675702e-01
3.585641025641025603e+00 -9.835886845673932344e-01 5.715730158603440914e-02 -1.711021005367134307e-01
3.680000000000000160e+00 -9.395843226861313457e-01 -3.082409106225961759e-01 -1.488570402810826532e-01
