0.000000000000000000e+00 1.438770335734212676e-09 2.212323535433900689e-09 -1.000000000000000000e+00
9.435897435897436236e-02 -7.008628524967223938e-02 6.951302430039871250e-02 -9.951152562226188714e-01
1.887179487179487247e-01 -1.423676548707019096e-01 1.340949224085842550e-01 -9.806870376182472704e-01
2.830769230769231148e-01 -2.185441547386509364e-01 1.888800273310585198e-01 -9.573705296282103427e-01
3.774358974358974494e-01 -2.994734385314678504e-01 2.291169001056960752e-01 -9.261830711858750620e-01
4.717948717948717841e-01 -3.847882708446420108e-01 2.503226122832981071e-01 -8.884081174516301749e-01
5.661538461538462297e-01 -4.726586216318220957e-01 2.485153839722019919e-01 -8.454731245064694978e-01
6.605128205128205643e-01 -5.596683700349117663e-01 2.205399286859322239e-01 -7.988259216453582612e-01
7.548717948717948989e-01 -6.408616038207914922e-01 1.644457177267591719e-01 -7.498280155844395667e-01
8.492307692307692335e-01 -7.099816770261599963e-01 7.990385012319811686e-02 -6.996629260152229524e-01
9.435897435897435681e-01 -7.598919174038047952e-01 -3.137835672224309480e-02 -6.492806365444365735e-01
1.037948717948717903e+00 -7.831858268022625635e-01 -1.653680461496165877e-01 -5.993813947453588975e-01
1.132307692307692459e+00 -7.729406172500880023e-01 -3.155304504713200564e-01 -5.504426779568830641e-01
1.226666666666666794e+00 -7.235921965839436920e-01 -4.729200486396259451e-01 -5.027364781324746845e-01
1.321025641025641129e+00 -6.318002858891226259e-01 -6.264944966977938900e-01 -4.564158092947778189e-01
1.415384615384615463e+00 -4.972633644582618029e-01 -7.637674544997973269e-01 -4.115460777375166690e-01
1.509743589743589798e+00 -3.233318437720285043e-01 -8.717084518289959227e-01 -3.681876149684922828e-01
1.604102564102564132e+00 -1.173442596330013799e-01 -9.379075995504395635e-01 -3.264053302939645129e-01
1.698461538461538467e+00 1.094085985905352276e-01 -9.518636076665364376e-01 -2.862968366247456431e-01
1.792820512820512802e+00 3.421926688777423009e-01 -9.063063348320421486e-01 -2.479781563322135673e-01
1.887179487179487136e+00 5.637442325519388397e-01 -7.983778918685440207e-01 -2.115776433883773122e-01
1.981538461538461693e+00 7.556530104925930358e-01 -6.305335683341204422e-01 -1.771880710236183876e-01
2.075897435897435805e+00 9.000439412939167383e-01 -4.109966717731690089e-01 -1.448522596865096379e-01
2.170256410256410362e+00 9.814564436519965795e-01 -1.536512902371688916e-01 -1.145161699634919955e-01
2.264615384615384919e+00 9.886962828497545264e-01 1.227000976902350438e-01 -8.604467576022158115e-02
2.358974358974359031e+00 9.164629596901365804e-01 3.956845474747837099e-01 -5.923417957305524700e-02
2.453333333333333588e+00 7.665303628889102994e-01 6.413009152840136728e-01 -3.381736132124586736e-02
2.547692307692307701e+00 5.482688623512674830e-01 8.362356708585865217e-01 -9.508093794709611066e-03
2.642051282051282257e+00 2.783976893310400325e-01 9.603538914299292184e-01 1.394157080589355710e-02
2.736410256410256370e+00 -2.012885797100977259e-02 9.991123648204498497e-01 3.672286152178613067e-02
2.830769230769230926e+00 -3.200301679055156390e-01 9.455621812304321194e-01 5.892493906494174899e-02
2.925128205128205039e+00 -5.922713816711198120e-01 8.016888589057250547e-01 8.055400174678165048e-02
3.019487179487179596e+00 -8.090742801039754184e-01 5.788565896608161010e-01 1.015048400114538091e-01
3.113846153846154152e+00 -9.470190121891444157e-01 2.972204549004574536e-01 1.216324473181622789e-01
3.208205128205128265e+00 -9.899079566260490237e-01 -1.591553637026446588e-02 1.407424787647456599e-01
3.302564102564102821e+00 -9.309981320687996664e-01 -3.286980112265077691e-01 1.586810661076505924e-01
3.396923076923076934e+00 -7.742966066374550316e-01 -6.080245837562401334e-01 1.753583991209520243e-01
3.491282051282051491e+00 -5.346834818853927196e-01 -8.232267669293404921e-01 1.907642647991419638e-01
3.585641025641025603e+00 -2.367645290169198558e-01 -9.496806374186939070e-01 2.050099972440697638e-01
3.680000000000000160e+00 8.751440223654430306e-02 -9.719434738045499289e-01 2.182821616539461773e-01
