0.000000000000000000e+00 2.547384503982329262e-09 -7.312383647712284217e-10 -1.000000000000000000e+00
9.435897435897436236e-02 -1.467416875273490628e-01 1.383030739712238222e-01 -9.794576649703585769e-01
1.887179487179487247e-01 -2.855528246799713399e-01 2.707649195427646593e-01 -9.193161268808546227e-01
2.830769230769231148e-01 -4.092520473784769797e-01 3.921460729443250193e-01 -8.238496916997584130e-01
3.774358974358974494e-01 -5.120928572401282075e-01 4.982796185029852998e-01 -6.996216031568490701e-01
4.717948717948717841e-01 -5.902375199485417889e-01 5.864194542885032835e-01 -5.547271216152417361e-01
5.661538461538462297e-01 -6.419865196244884942e-01 6.553710701125502469e-01 -3.979082612797388285e-01
6.605128205128205643e-01 -6.677548969656624811e-01 7.054153829287386213e-01 -2.376563137306841045e-01
7.548717948717948989e-01 -6.697929470601216018e-01 7.380578258612211506e-01 -8.145924249950881046e-02
8.492307692307692335e-01 -6.517388408505373487e-01 7.556623812491490844e-01 6.479496029589476569e-02
9.435897435897435681e-01 -6.180565836711658934e-01 7.610228897800452863e-01 1.970737408555933989e-01
1.037948717948717903e+00 -5.734484969247568564e-01 7.569804459709624789e-01 3.132503712068527846e-01
1.132307692307692459e+00 -5.223498082579530744e-01 7.461088343581303572e-01 4.128695774865062673e-01
1.226666666666666794e+00 -4.685281134538271663e-01 7.305268593963710755e-01 4.967913360130247757e-01
1.321025641025641129e+00 -4.148632022183882939e-01 7.118366416837517141e-01 5.667164424545881873e-01
1.415384615384615463e+00 -3.632859727909293346e-01 6.911543001646505147e-01 6.247560415487413144e-01
1.509743589743589798e+00 -3.148616696807927662e-01 6.692216239238232278e-01 6.730499555530693456e-01
1.604102564102564132e+00 -2.699800155539968660e-01 6.465362932032939769e-01 7.135081435944716777e-01
1.698461538461538467e+00 -2.285881606210170003e-01 6.234713663658993932e-01 7.476788604247111003e-01
1.792820512820512802e+00 -1.904161353231041687e-01 6.003532952886592167e-01 7.767308773426165880e-01
1.887179487179487136e+00 -1.551514790086027107e-01 5.774950731102362900e-01 8.015117885827166555e-01
1.981538461538461693e+00 -1.225634623349044772e-01 5.551835523257782068e-01 8.226442049220243913e-01
2.075897435897435805e+00 -9.252539840540469074e-02 5.336466133481047036e-01 8.406275979804044285e-01
2.170256410256410362e+00 -6.500448413243746504e-02 5.130211390135802629e-01 8.559079658123230905e-01
2.264615384615384919e+00 -3.999291197668985998e-02 4.933175941365611217e-01 8.689265328224363705e-01
2.358974358974359031e+00 -1.744531073540939170e-02 4.744531554143058272e-01 8.801051670836819163e-01
2.453333333333333588e+00 2.767063832219033431e-03 4.562606077115051728e-01 8.898393460950286826e-01
2.547692307692307701e+00 2.086897314350197319e-02 4.385690517033437041e-01 8.984527475886794345e-01
2.642051282051282257e+00 3.716606906043695702e-02 4.212373426257932096e-01 9.061863160844495502e-01
2.736410256410256370e+00 5.199680522777258562e-02 4.041991155469150665e-01 9.131897077262937090e-01
2.830769230769230926e+00 6.566133796855549987e-02 3.874905509038598650e-01 9.195302373815005259e-01
2.925128205128205039e+00 7.838948672465617662e-02 3.712143979833775753e-01 9.252304124600986279e-01
3.019487179487179596e+00 9.029613500414465643e-02 3.555192951002376089e-01 9.302951870448815663e-01
3.113846153846154152e+00 1.013974524603233340e-01 3.405292670825971757e-01 9.347486256761493584e-01
3.208205128205128265e+00 1.116175477901037161e-01 3.263146505240466788e-01 9.386463666707131059e-01
3.302564102564102821e+00 1.208677420214460674e-01 3.128605693551133049e-01 9.420754151126987663e-01
3.396923076923076934e+00 1.290717018047978781e-01 3.000624153247448689e-01 9.451454750938997895e-01
3.491282051282051491e+00 1.362304661236892478e-01 2.877565723904572104e-01 9.479633052307463448e-01
3.585641025641025603e+00 1.424290023394071680e-01 2.757598258738019892e-01 9.506143249718426169e-01
3.680000000000000160e+00 1.478329274112021308e-01 2.639223771506133964e-01 9.531461520303009527e-01
