0.000000000000000000e+00 3.097048956804195656e-09 1.103660838681008722e-10 -1.000000000000000000e+00
9.435897435897436236e-02 -1.841700058046603639e-01 -1.416892546636147887e-01 -9.726257330940981660e-01
1.887179487179487247e-01 -3.515138594257995464e-01 -2.820396585930819988e-01 -8.926822694923433055e-01
2.830769230769231148e-01 -4.866160624610712526e-01 -4.191314465062326855e-01 -7.664973241350316879e-01
3.774358974358974494e-01 -5.767083356520015247e-01 -5.501191038296114888e-01 -6.039502881535755430e-01
4.717948717948717841e-01 -6.127555600182579276e-01 -6.709472113570962293e-01 -4.175355943175468876e-01
5.661538461538462297e-01 -5.902197715495731689e-01 -7.763282883671822621e-01 -2.211967751209226452e-01
6.605128205128205643e-01 -5.094830650672872441e-01 -8.599745239971150479e-01 -2.903243465711434490e-02
7.548717948717948989e-01 -3.758579929848254730e-01 -9.150906472720874429e-01 1.459874374014340226e-01
8.492307692307692335e-01 -1.992112356785146199e-01 -9.350660174445203365e-01 2.931555318006972555e-01
9.435897435897435681e-01 6.796983490377550563e-03 -9.143048210360109618e-01 4.049392508640654031e-01
1.037948717948717903e+00 2.257891204578025834e-01 -8.490882777862330810e-01 4.775405410457774780e-01
1.132307692307692459e+00 4.399988125392808036e-01 -7.383631441999366496e-01 5.110755232871414533e-01
1.226666666666666794e+00 6.317136264380520672e-01 -5.843469098130130712e-01 5.093661012797484622e-01
1.321025641025641129e+00 7.847621764201697658e-01 -3.928543478884332085e-01 4.793645977248170986e-01
1.415384615384615463e+00 8.858920541526903447e-01 -1.732663381684589332e-01 4.302903288425860007e-01
1.509743589743589798e+00 9.259292307262085853e-01 6.186649910780983586e-02 3.725619210407625226e-01
1.604102564102564132e+00 9.006274564990884857e-01 2.976134980843754274e-01 3.166550182867631791e-01
1.698461538461538467e+00 8.111201572671834503e-01 5.177666181034221715e-01 2.719840150585060568e-01
1.792820512820512802e+00 6.639247226555828885e-01 7.061731920746880942e-01 2.459605905720055885e-01
1.887179487179487136e+00 4.704940465051122844e-01 8.481874264084814374e-01 2.432830378500269730e-01
1.981538461538461693e+00 2.463484708549205648e-01 9.320780721635834043e-01 2.655490993359441165e-01
2.075897435897435805e+00 9.815896544763780263e-03 9.502732602259217343e-01 3.112206962785279418e-01
2.170256410256410362e+00 -2.194605867526780996e-01 9.002691032258086645e-01 3.759354166320590940e-01
2.264615384615384919e+00 -4.221947580826459490e-01 7.851291674261666742e-01 4.531003309572977367e-01
2.358974358974359031e+00 -5.811081264449062811e-01 6.134718303302206799e-01 5.347368181036357138e-01
2.453333333333333588e+00 -6.824587876705953127e-01 3.989389493294668299e-01 6.124356415610209270e-01
2.547692307692307701e+00 -7.172877369127046432e-01 1.591543512683937789e-01 6.783433942935394034e-01
2.642051282051282257e+00 -6.822664550207520051e-01 -8.571540540590921742e-02 7.260498882446762003e-01
2.736410256410256370e+00 -5.800724194517692389e-01 -3.147142772753646067e-01 7.513021162990914936e-01
2.830769230769230926e+00 -4.192384300437075328e-01 -5.079849858433904686e-01 7.524456040132810886e-01
2.925128205128205039e+00 -2.134827395391647453e-01 -6.485941894911078087e-01 7.305709645339019120e-01
3.019487179487179596e+00 1.944628324461927793e-02 -7.241620461937021691e-01 6.893424905846103901e-01
3.113846153846154152e+00 2.592870875283305176e-01 -7.280851584970836621e-01 6.345411728314410693e-01
3.208205128205128265e+00 4.850631705959816964e-01 -6.602573902723420929e-01 5.733695139162257037e-01
3.302564102564102821e+00 6.769518076840282950e-01 -5.271741706004673400e-01 5.136155941398548030e-01
3.396923076923076934e+00 8.180845103159422038e-01 -3.414283294245173406e-01 4.627534200209821313e-01
3.491282051282051491e+00 8.961076246122990918e-01 -1.205959521772310694e-01 4.271105358694177734e-01
3.585641025641025603e+00 9.043526418986124193e-01 1.143542381266242636e-01 4.111505807401117929e-01
3.680000000000000160e+00 8.424904128105856760e-01 3.410134824752415472e-01 4.170074352544707597e-01
