0.000000000000000000e+00 9.482253102234125253e-12 -2.452486372260490058e-09 -1.000000000000000000e+00
9.435897435897436236e-02 -1.162769442784829799e-01 6.149768855219805291e-02 -9.913106615583027192e-01
1.887179487179487247e-01 -2.334467363697852182e-01 1.146370680839163547e-01 -9.655874764188537851e-01
2.830769230769231148e-01 -3.515863121123382617e-01 1.513619110622107522e-01 -9.238365007017750319e-01
3.774358974358974494e-01 -4.692558813854905697e-01 1.642855339505792100e-01 -8.676435975604339657e-01
4.717948717948717841e-01 -5.829672054700733019e-01 1.471832287907697268e-01 -7.990504147875746588e-01
5.661538461538462297e-01 -6.869194152378543805e-01 9.563236763618759850e-02 -7.204098949888239067e-01
6.605128205128205643e-01 -7.731137379377206464e-01 7.814705336275873382e-03 -6.342140426647326912e-01
7.548717948717948989e-01 -8.318830999628402667e-01 -1.147465377341737036e-01 -5.429515540740348367e-01
8.492307692307692335e-01 -8.528869311756989147e-01 -2.664833757155616878e-01 -4.489570742436273521e-01
9.435897435897435681e-01 -8.264994115962428500e-01 -4.374166345726006599e-01 -3.543399860003549340e-01
1.037948717948717903e+00 -7.455450568882274753e-01 -6.132645082036403128e-01 -2.608836174805121422e-01
1.132307692307692459e+00 -6.070876527160879998e-01 -7.762247466681124752e-01 -1.700308787745876404e-01
1.226666666666666794e+00 -4.140727653258465812e-01 -9.064571788013712217e-01 -8.288411698087473634e-02
1.321025641025641129e+00 -1.764402462341150835e-01 -9.843065565376005743e-01 -2.293399148139135672e-04
1.415384615384615463e+00 8.860966784341312019e-02 -9.930458593048578919e-01 7.745266063288709646e-02
1.509743589743589798e+00 3.574529180136385986e-01 -9.218192250003519606e-01 1.498916529880188475e-01
1.604102564102564132e+00 6.021363992094663775e-01 -7.683270806241027095e-01 2.170163521859824474e-01
1.698461538461538467e+00 7.936233443495321893e-01 -5.407029753862653276e-01 2.789146242843236756e-01
1.792820512820512802e+00 9.058973292018200896e-01 -2.580739673961569003e-01 3.357666461179151240e-01
1.887179487179487136e+00 9.203418334942370382e-01 5.058491681971044596e-02 3.878191026171567968e-01
1.981538461538461693e+00 8.296648955939992520e-01 3.494206809354284959e-01 4.353771090447898784e-01
2.075897435897435805e+00 6.405973490417625760e-01 6.003573375045114791e-01 4.787465707883830635e-01
2.170256410256410362e+00 3.745582868363210305e-01 7.688303173456615403e-01 5.182648551135811132e-01
2.264615384615384919e+00 6.594624557375300400e-02 8.297283440321026049e-01 5.542514814308419080e-01
2.358974358974359031e+00 -2.421575627988561408e-01 7.725078832017017172e-01 5.870130154052002336e-01
2.453333333333333588e+00 -5.042861145800643374e-01 6.043112471449193501e-01 6.168440946313482609e-01
2.547692307692307701e+00 -6.800996778948001920e-01 3.502902256021511174e-01 6.440144753161092250e-01
2.642051282051282257e+00 -7.417262358302351144e-01 5.063801127410139102e-02 6.687837815612549530e-01
2.736410256410256370e+00 -6.795337817970775740e-01 -2.454200430764839069e-01 6.913731218754062269e-01
2.830769230769230926e+00 -5.049505548660906395e-01 -4.879243857188975131e-01 7.120034270531639953e-01
2.925128205128205039e+00 -2.495446297875603403e-01 -6.352703030000759199e-01 7.308580522593406403e-01
3.019487179487179596e+00 3.991744018744192157e-02 -6.623647182452038207e-01 7.481137236159141057e-01
3.113846153846154152e+00 3.097316886186647356e-01 -5.661139367135271661e-01 7.639214485537284549e-01
3.208205128205128265e+00 5.094041219917734287e-01 -3.668161429535161666e-01 7.784267949573006051e-01
3.302564102564102821e+00 6.017633420823542689e-01 -1.049088226085066466e-01 7.917513060632671573e-01
3.396923076923076934e+00 5.707971256990060915e-01 1.666192111859902680e-01 8.040049674631561949e-01
3.491282051282051491e+00 4.254310353729368055e-01 3.928094393027067310e-01 8.152942039265109742e-01
3.585641025641025603e+00 1.982071441969286418e-01 5.281334598883817844e-01 8.257024694171866130e-01
3.680000000000000160e+00 -6.126164741911728495e-02 5.463410086597266790e-01 8.353168506060051346e-01
