0.000000000000000000e+00 1.470777062945543318e-09 -2.646552028047980594e-09 -1.000000000000000000e+00
9.435897435897436236e-02 1.694197627352722058e-01 1.590104059943140136e-01 -9.726297113405568684e-01
1.887179487179487247e-01 3.304631414622423713e-01 3.062655967774789434e-01 -8.927412262175223878e-01
2.830769230769231148e-01 4.756457061204908410e-01 4.310679507643532249e-01 -7.667648083564700956e-01
3.774358974358974494e-01 5.990933264322111373e-01 5.248409884158981020e-01 -6.046581616894345368e-01
4.717948717948717841e-01 6.971070123286899900e-01 5.818768501296643914e-01 -4.188556962437443021e-01
5.661538461538462297e-01 7.684352437740328279e-01 5.997980225078027861e-01 -2.229941608252679341e-01
6.605128205128205643e-01 8.142553239896415107e-01 5.796828568762518730e-01 -3.052894135198109399e-02
7.548717948717948989e-01 8.378506561841846390e-01 5.258321970072855622e-01 1.465711016492163843e-01
8.492307692307692335e-01 8.440498091569318406e-01 4.452134193265685491e-01 2.989019707962760619e-01
9.435897435897435681e-01 8.385008400643567672e-01 3.466487013387792859e-01 4.203926532532798466e-01
1.037948717948717903e+00 8.268889541414081723e-01 2.398381498874859741e-01 5.086381193761063679e-01
1.132307692307692459e+00 8.141939492718001103e-01 1.343352172421991564e-01 5.648218880489996874e-01
1.226666666666666794e+00 8.040997725413121522e-01 3.857224921172580645e-02 5.932266407056812074e-01
1.321025641025641129e+00 7.986210270727075455e-01 -4.093169198668644704e-02 6.004259500153403817e-01
1.415384615384615463e+00 7.979950057955527143e-01 -1.001346242887143911e-01 5.942719568419362330e-01
1.509743589743589798e+00 8.008417646976125903e-01 -1.377158951642329376e-01 5.828110181557294434e-01
1.604102564102564132e+00 8.045621342397372144e-01 -1.550137048804431372e-01 5.732645186377726132e-01
1.698461538461538467e+00 8.059066348031057592e-01 -1.556526132167218024e-01 5.711990904171859729e-01
1.792820512820512802e+00 8.016146324752451147e-01 -1.449382864583064756e-01 5.799902579183229268e-01
1.887179487179487136e+00 7.890494879916316595e-01 -1.290762985024738740e-01 6.006017697692462853e-01
1.981538461538461693e+00 7.667010693194726834e-01 -1.143357425452855292e-01 6.317276203225836717e-01
2.075897435897435805e+00 7.345168504695082090e-01 -1.062404028114702914e-01 6.702103496753087919e-01
2.170256410256410362e+00 6.939813178783111880e-01 -1.088973730243689014e-01 7.116996157453454597e-01
2.264615384615384919e+00 6.479540193853597918e-01 -1.245375876874590532e-01 7.514201166900309481e-01
2.358974358974359031e+00 6.002856784219519071e-01 -1.533160882336799258e-01 7.849449351885939841e-01
2.453333333333333588e+00 5.552589395149135632e-01 -1.933804897692079916e-01 8.088755068676335425e-01
2.547692307692307701e+00 5.169741338811572051e-01 -2.412082482407982842e-01 8.213067972191105959e-01
2.642051282051282257e+00 4.887236291978100944e-01 -2.921369415906100997e-01 8.220667737171478695e-01
2.736410256410256370e+00 4.724859771205604519e-01 -3.410456286578986695e-01 8.126703526187140092e-01
2.830769230769230926e+00 4.686058062350902942e-01 -3.830503040204265019e-01 7.960331069520406588e-01
2.925128205128205039e+00 4.757109169119813075e-01 -4.141805398423891726e-01 7.759771838511995146e-01
3.019487179487179596e+00 4.908792532793369023e-01 -4.318959965484199803e-01 7.566305338959457005e-01
3.113846153846154152e+00 5.100237677736167985e-01 -4.354107447432505884e-01 7.418080361193328809e-01
3.208205128205128265e+00 5.284771879129518402e-01 -4.257797970782668528e-01 7.344447790323879177e-01
3.302564102564102821e+00 5.416434939211300925e-01 -4.057332007492285841e-01 7.361987842356566558e-01
3.396923076923076934e+00 5.456699270375042765e-01 -3.792902037417399952e-01 7.472411621740278065e-01
3.491282051282051491e+00 5.379921148880993931e-01 -3.512083942214017096e-01 7.662922543368874129e-01
3.585641025641025603e+00 5.177328696313064915e-01 -3.263407627328550609e-01 7.908488168936896878e-01
3.680000000000000160e+00 4.858353769853577253e-01 -3.089810595959970874e-01 8.176081499805980535e-01
