0.000000000000000000e+00 8.233510484675891636e-10 -2.471548527561441442e-09 -1.000000000000000000e+00
9.435897435897436236e-02 1.712986254394968377e-01 -1.569652226961843200e-01 -9.726340733730782784e-01
1.887179487179487247e-01 3.323798922357955599e-01 -3.040173676201642916e-01 -8.928009505656252509e-01
2.830769230769231148e-01 4.739947135241254772e-01 -4.324742414418966119e-01 -7.670003960113652708e-01
3.774358974358974494e-01 5.887786629649253145e-01 -5.358735160943250975e-01 -6.051215083641566794e-01
4.717948717948717841e-01 6.718671047584978684e-01 -6.106137904086423873e-01 -4.192097182236100283e-01
5.661538461538462297e-01 7.212314256541489943e-01 -6.561442627338885947e-01 -2.220145055188069150e-01
6.605128205128205643e-01 7.376651761035073473e-01 -6.746741212102665974e-01 -2.559470596035790316e-02
7.548717948717948989e-01 7.244548523368357085e-01 -6.705216249400758333e-01 1.598632602150679705e-01
8.492307692307692335e-01 6.867857127570670128e-01 -6.492301374754319010e-01 3.268279608078072940e-01
9.435897435897435681e-01 6.309809879348551309e-01 -6.166417456968135147e-01 4.707522376312689993e-01
1.037948717948717903e+00 5.636946886895171094e-01 -5.780872925740153656e-01 5.899627253877524069e-01
1.132307692307692459e+00 4.911638373979838046e-01 -5.378140068639387650e-01 6.852063557439734831e-01
1.226666666666666794e+00 4.186341374491872047e-01 -4.987233897212831613e-01 7.589564551851335494e-01
1.321025641025641129e+00 3.500012699338445055e-01 -4.623942607780260894e-01 8.146691785197599511e-01
1.415384615384615463e+00 2.877001655811219916e-01 -4.293194452576013509e-01 8.561012153154702320e-01
1.509743589743589798e+00 2.328345223874019321e-01 -3.992809815581632726e-01 8.867689451271199008e-01
1.604102564102564132e+00 1.854342950578298510e-01 -3.717333375381703942e-01 9.096291856094780304e-01
1.698461538461538467e+00 1.448388322943159057e-01 -3.461133914046859439e-01 9.269435824391251133e-01
1.792820512820512802e+00 1.100616288289662792e-01 -3.220223875921447432e-01 9.403113800056350779e-01
1.887179487179487136e+00 8.008713360531551084e-02 -2.992854729706903028e-01 9.507954469351069804e-01
1.981538461538461693e+00 5.407131785090393133e-02 -2.779075337328766881e-01 9.590837502923985625e-01
2.075897435897435805e+00 3.141209430869212893e-02 -2.579674970529229339e-01 9.656418471073630050e-01
2.170256410256410362e+00 1.174027687993725588e-02 -2.395093688078888117e-01 9.708221816481760191e-01
2.264615384615384919e+00 -5.181062471425385008e-03 -2.224785293228038197e-01 9.749230092712832807e-01
2.358974358974359031e+00 -1.953953057741680821e-02 -2.067111374187518003e-01 9.782061340084401424e-01
2.453333333333333588e+00 -3.156351762409852213e-02 -1.919689106892857877e-01 9.808926076243780212e-01
2.547692307692307701e+00 -4.154977494758965717e-02 -1.780084644721455500e-01 9.831507066875077028e-01
2.642051282051282257e+00 -4.985623950829762285e-02 -1.646468820863351001e-01 9.850911372057892246e-01
2.736410256410256370e+00 -5.683903538965902336e-02 -1.517989835159224699e-01 9.867751783816859357e-01
2.830769230769230926e+00 -6.281461280739164543e-02 -1.394901318489208675e-01 9.882285954618666990e-01
2.925128205128205039e+00 -6.799035118713461778e-02 -1.278103911336271603e-01 9.894649068127379099e-01
3.019487179487179596e+00 -7.246684834852508417e-02 -1.168616041599778166e-01 9.905003569523002094e-01
3.113846153846154152e+00 -7.625011178713825277e-02 -1.067086815907647146e-01 9.913618200238139000e-01
3.208205128205128265e+00 -7.930424149723294680e-02 -9.733055699235240721e-02 9.920870517733052507e-01
3.302564102564102821e+00 -8.158809467033305285e-02 -8.864166298891103246e-02 9.927160691271138537e-01
3.396923076923076934e+00 -8.312603979515945096e-02 -8.049155189132804755e-02 9.932826178429945418e-01
3.491282051282051491e+00 -8.399607007596973651e-02 -7.273100194839188237e-02 9.938078697114924864e-01
3.585641025641025603e+00 -8.434821681927581749e-02 -6.524051340401142152e-02 9.942978953481383941e-01
3.680000000000000160e+00 -8.434875921554899070e-02 -5.798315698313365185e-02 9.947474657114689922e-01
