0.000000000000000000e+00 -4.261052102813946673e-13 6.249520035846103289e-13 -1.000000000000000000e+00
9.435897435897436236e-02 -9.310590271883698033e-02 1.382316859270457943e-01 -9.860138396033950592e-01
1.887179487179487247e-01 -1.777315238552300836e-01 2.738694634200246614e-01 -9.452021066887847933e-01
2.830769230769231148e-01 -2.460703990585738909e-01 4.042783324435689774e-01 -8.809133831482626187e-01
3.774358974358974494e-01 -2.916197102292655274e-01 5.267556700265465519e-01 -7.984274597395555340e-01
4.717948717948717841e-01 -3.097055303430577000e-01 6.385267557819731543e-01 -7.045325161531897917e-01
5.661538461538462297e-01 -2.978730855071253236e-01 7.367869766494039574e-01 -6.069732908218644640e-01
6.605128205128205643e-01 -2.561094230605496236e-01 8.187730238268177141e-01 -5.138274988772345564e-01
7.548717948717948989e-01 -1.868801328705485543e-01 8.818854521330268259e-01 -4.328439265897220389e-01
8.492307692307692335e-01 -9.497842984757709495e-02 9.238369464337440329e-01 -3.708158490263256946e-01
9.435897435897435681e-01 1.280533653398169269e-02 9.428377166290234923e-01 -3.330061004657689505e-01
1.037948717948717903e+00 1.281670473655468767e-01 9.377773143930917543e-01 -3.227180133876251800e-01
1.132307692307692459e+00 2.418997842668373366e-01 9.084112437369608051e-01 -3.409890119704956368e-01
1.226666666666666794e+00 3.445715398883062996e-01 8.555086712871126098e-01 -3.864910951677512641e-01
1.321025641025641129e+00 4.272357081708177962e-01 7.809623654005575233e-01 -4.555956904564296694e-01
1.415384615384615463e+00 4.821178921505252513e-01 6.878226435214074286e-01 -5.426438507270373579e-01
1.509743589743589798e+00 5.032160712025014471e-01 5.802732787077440335e-01 -6.403565471263712450e-01
1.604102564102564132e+00 4.867954396190136701e-01 4.634963588554055214e-01 -7.404061893562515762e-01
1.698461538461538467e+00 4.317077141633740567e-01 3.434732121216129697e-01 -8.340591117732354398e-01
1.792820512820512802e+00 3.395368031759669059e-01 2.267020320165911984e-01 -9.128641453084274104e-01
1.887179487179487136e+00 2.145473881217336287e-01 1.198355476369245692e-01 -9.693342353011723533e-01
1.981538461538461693e+00 6.343575145944821414e-02 2.928969226030848916e-02 -9.975560230493765168e-01
2.075897435897435805e+00 -1.051078936995850227e-01 -3.916716853337791349e-02 -9.936892187899007967e-01
2.170256410256410362e+00 -2.809599079718417824e-01 -8.083249209305892746e-02 -9.563093840401782897e-01
2.264615384615384919e+00 -4.532662018608942245e-01 -9.242029867016010591e-02 -8.865710569200747626e-01
2.358974358974359031e+00 -6.111902992301793125e-01 -7.236663871572707185e-02 -7.881684387603299369e-01
2.453333333333333588e+00 -7.446651181828345401e-01 -2.101797960584952940e-02 -6.671072674426401505e-01
2.547692307692307701e+00 -8.451158607482580631e-01 5.928959038350162247e-02 -5.312851658759970563e-01
2.642051282051282257e+00 -9.060744342343025615e-01 1.642788725747480472e-01 -3.899250847957183574e-01
2.736410256410256370e+00 -9.236551657846773233e-01 2.879298925738016379e-01 -2.528982254567777588e-01
2.830769230769230926e+00 -8.968568958908138544e-01 4.227906015641326731e-01 -1.299839054867940880e-01
2.925128205128205039e+00 -8.276602500511631710e-01 5.604202192483463962e-01 -3.012786900516882874e-02
3.019487179487179596e+00 -7.209236380308836623e-01 6.919022498526049558e-01 3.924774584282587214e-02
3.113846153846154152e+00 -5.840745445429242899e-01 8.084255700544513701e-01 7.283559839472800168e-02
3.208205128205128265e+00 -4.266110023155074704e-01 9.018846576282067984e-01 6.787574619927540243e-02
3.302564102564102821e+00 -2.594718297696686493e-01 9.654423907470640609e-01 2.440003334700615450e-02
3.396923076923076934e+00 -9.429030688061090792e-02 9.940400594137990264e-01 -5.471469298373059925e-02
3.491282051282051491e+00 5.741407067116788276e-02 9.847990111814095560e-01 -1.639345338001709229e-01
3.585641025641025603e+00 1.850093031082499229e-01 9.372833110665572676e-01 -2.954175890030099616e-01
3.680000000000000160e+00 2.795059368250866205e-01 8.536023453671782724e-01 -4.395901114867559745e-01
