0.000000000000000000e+00 -3.640929843714132219e-09 -1.739421091123716459e-09 -1.000000000000000000e+00
9.435897435897436236e-02 -4.605278806014694026e-02 -1.407113138890412479e-02 -9.988394485036200532e-01
1.887179487179487247e-01 -9.104704796132347122e-02 -3.002107636663303714e-02 -9.953931122341176385e-01
2.830769230769231148e-01 -1.338307200231806937e-01 -4.955588026899096499e-02 -9.897631064075331775e-01
3.774358974358974494e-01 -1.730862971521024696e-01 -7.417652587555327581e-02 -9.821077306063817902e-01
4.717948717948717841e-01 -2.072732799776390022e-01 -1.050291089523537474e-01 -9.726265777699676374e-01
5.661538461538462297e-01 -2.346224894049047105e-01 -1.427878640905922702e-01 -9.615398370684821172e-01
6.605128205128205643e-01 -2.531568604012539025e-01 -1.875258938528284736e-01 -9.490731129592263615e-01
7.548717948717948989e-01 -2.607838870438062284e-01 -2.386295390968249108e-01 -9.354362699056528729e-01
8.492307692307692335e-01 -2.554181390847470867e-01 -2.947047654153693852e-01 -9.208165893493726051e-01
9.435897435897435681e-01 -2.351782305667942663e-01 -3.535383245111717310e-01 -9.053693043132154950e-01
1.037948717948717903e+00 -1.985883414339685571e-01 -4.121146891964589942e-01 -8.892216311488173597e-01
1.132307692307692459e+00 -1.448462817366714395e-01 -4.666877046083373060e-01 -8.724748317030150968e-01
1.226666666666666794e+00 -7.404775171058547434e-02 -5.129382176330448129e-01 -8.552197418456354283e-01
1.321025641025641129e+00 1.258564447781700298e-02 -5.462188792986998331e-01 -8.375412628993454955e-01
1.415384615384615463e+00 1.125354808650701477e-01 -5.618646431531105767e-01 -8.195315467248909247e-01
1.509743589743589798e+00 2.219043047577220484e-01 -5.555736448385163451e-01 -8.013013413791092443e-01
1.604102564102564132e+00 3.354482384282200802e-01 -5.238393243094902063e-01 -7.829774749770569420e-01
1.698461538461538467e+00 4.467240334183204542e-01 -4.644004447278207159e-01 -7.646934797262003869e-01
1.792820512820512802e+00 5.483882805522326542e-01 -3.766403325846838790e-01 -7.465909012649358800e-01
1.887179487179487136e+00 6.326341932971377702e-01 -2.619331674814839306e-01 -7.288004489235226924e-01
1.981538461538461693e+00 6.917459922582591680e-01 -1.238688975019131000e-01 -7.114271028952732223e-01
2.075897435897435805e+00 7.187390015099512919e-01 3.168308538265196539e-02 -6.945462854278093845e-01
2.170256410256410362e+00 7.080714833864870661e-01 1.967247580579855049e-01 -6.781723849286767081e-01
2.264615384615384919e+00 6.562843379869054417e-01 3.614662459653176785e-01 -6.622810559941789688e-01
2.358974358974359031e+00 5.626062525231677602e-01 5.148852345756873561e-01 -6.467999997008454516e-01
2.453333333333333588e+00 4.293679166507604061e-01 6.455149673063547144e-01 -6.316138442786927154e-01
2.547692307692307701e+00 2.622116796335712818e-01 7.423101857330638431e-01 -6.166058123447499817e-01
2.642051282051282257e+00 7.002091162493556675e-02 7.956745468000877564e-01 -6.016484215908222133e-01
2.736410256410256370e+00 -1.354485664781452103e-01 7.984243318470430895e-01 -5.866460984234567189e-01
2.830769230769230926e+00 -3.402629147522103770e-01 7.466799486380382156e-01 -5.715516230562452948e-01
2.925128205128205039e+00 -5.292564990020485194e-01 6.405633588743057105e-01 -5.563693595336193232e-01
3.019487179487179596e+00 -6.872354020254289875e-01 4.845865942496362377e-01 -5.411688413599231584e-01
3.113846153846154152e+00 -8.002813879521325502e-01 2.876995835851875460e-01 -5.260786612720551592e-01
3.208205128205128265e+00 -8.571092404541548193e-01 6.291019445631201856e-02 -5.112591870130647198e-01
3.302564102564102821e+00 -8.502799114151081694e-01 -1.734946602677421290e-01 -4.968935889567573927e-01
3.396923076923076934e+00 -7.771900521726125000e-01 -4.031251187871512931e-01 -4.831615591508205410e-01
3.491282051282051491e+00 -6.407107922961104984e-01 -6.069471946286510988e-01 -4.701955500373582453e-01
3.585641025641025603e+00 -4.493305280529506507e-01 -7.669767331673509325e-01 -4.580694778083316820e-01
3.680000000000000160e+00 -2.168129496280150614e-01 -8.679609609342010534e-01 -4.467825485301720190e-01
