0.000000000000000000e+00 1.328628669218392967e-09 3.052800893832477165e-09 -1.000000000000000000e+00
9.435897435897436236e-02 -2.384231852298629717e-01 -9.123216696455113683e-02 -9.668651957196670033e-01
1.887179487179487247e-01 -4.558237842991445521e-01 -1.860080736739186114e-01 -8.704135821444974885e-01
2.830769230769231148e-01 -6.331687472673397377e-01 -2.862690276032062164e-01 -7.191233170886238701e-01
3.774358974358974494e-01 -7.552448866997438781e-01 -3.911571781649018642e-01 -5.259176641709534250e-01
4.717948717948717841e-01 -8.121713418768442549e-01 -4.963731720675673142e-01 -3.065576310570016227e-01
5.661538461538462297e-01 -8.004577199007451016e-01 -5.943144635727620750e-01 -7.773709670431194763e-02
6.605128205128205643e-01 -7.234491809519777439e-01 -6.750057512338820676e-01 1.448239421731286891e-01
7.548717948717948989e-01 -5.910994595003735697e-01 -7.276608462342228911e-01 3.479908455722550142e-01
8.492307692307692335e-01 -4.189960767948401332e-01 -7.426562936420846306e-01 5.223907098375374369e-01
9.435897435897435681e-01 -2.267276580033389943e-01 -7.134975735928842377e-01 6.629523307209758132e-01
1.037948717948717903e+00 -3.568809271555793694e-02 -6.384688900881795304e-01 7.688144843892749103e-01
1.132307692307692459e+00 1.334348069741846388e-01 -5.215893748423672260e-01 8.426939730690657937e-01
1.226666666666666794e+00 2.631669082316272501e-01 -3.726357497921800044e-01 8.898766323150056889e-01
1.321025641025641129e+00 3.414565004436792006e-01 -2.062190754603147602e-01 9.169932292145009933e-01
1.415384615384615463e+00 3.631949849244419104e-01 -3.993461319065275128e-02 9.308547164862092105e-01
1.509743589743589798e+00 3.308518012497095873e-01 1.080813165072242732e-01 9.374708537757606708e-01
1.604102564102564132e+00 2.540352014775738576e-01 2.218250895797586053e-01 9.414116946131969588e-01
1.698461538461538467e+00 1.480226385489154528e-01 2.899067484475601475e-01 9.455367522036989270e-01
1.792820512820512802e+00 3.143772514823622855e-02 3.073349380359850502e-01 9.510801721288009158e-01
1.887179487179487136e+00 -7.660311059803068257e-02 2.763456387547911786e-01 9.579989100096506505e-01
1.981538461538461693e+00 -1.594141612853264833e-01 2.060482907610517167e-01 9.654679721066692366e-01
2.075897435897435805e+00 -2.052657225770308791e-01 1.109473155091137420e-01 9.723960964401437979e-01
2.170256410256410362e+00 -2.091081813148428226e-01 8.547625289993997233e-03 9.778540132387893991e-01
2.264615384615384919e+00 -1.731688525926126099e-01 -8.352328371689694830e-02 9.813431440743879408e-01
2.358974358974359031e+00 -1.063271783363075734e-01 -1.504291332862202346e-01 9.828853698647229686e-01
2.453333333333333588e+00 -2.235917102643708923e-02 -1.825118712156430512e-01 9.829483863915872144e-01
2.547692307692307701e+00 6.260823497117445902e-02 -1.767555291003301832e-01 9.822605036737012130e-01
2.642051282051282257e+00 1.330563669494239376e-01 -1.370814609115281746e-01 9.815817055689912696e-01
2.736410256410256370e+00 1.768211172147118593e-01 -7.335974803395237109e-02 9.815042563869784686e-01
2.830769230769230926e+00 1.871953773347719840e-01 5.936942129442374094e-04 9.823215102738410698e-01
2.925128205128205039e+00 1.639953595459139879e-01 6.972066476517811695e-02 9.839932204403472049e-01
3.019487179487179596e+00 1.133531425475164944e-01 1.205823884024821019e-01 9.862095105167030251e-01
3.113846153846154152e+00 4.636697380803184165e-02 1.438520544425329062e-01 9.885115537200712676e-01
3.208205128205128265e+00 -2.319045502601665282e-02 1.359697613320812182e-01 9.904407953981183566e-01
3.302564102564102821e+00 -8.162004249037584092e-02 9.963497071608148903e-02 9.916701466249221442e-01
3.396923076923076934e+00 -1.179570221386868067e-01 4.309215870042124030e-02 9.920825974480843579e-01
3.491282051282051491e+00 -1.260555158899852035e-01 -2.167862816257754704e-02 9.917856080536934238e-01
3.585641025641025603e+00 -1.056476092977571418e-01 -8.143044926467285505e-02 9.910631936027689548e-01
3.680000000000000160e+00 -6.225216508171465407e-02 -1.243687426090943349e-01 9.902805741586133692e-01
