0.000000000000000000e+00 4.181385971672008927e-09 3.994178697787276097e-09 -1.000000000000000000e+00
9.435897435897436236e-02 -2.165431225236109924e-02 -2.262384610464017107e-02 -9.995093772478867988e-01
1.887179487179487247e-01 -4.244605031131563899e-02 -4.598568263051158039e-02 -9.980396588311023498e-01
2.830769230769231148e-01 -6.148526570213476428e-02 -7.074702947829614175e-02 -9.955971598804557177e-01
3.774358974358974494e-01 -7.780642731488250641e-02 -9.746689975045552679e-02 -9.921922268558651670e-01
4.717948717948717841e-01 -9.035158912518684304e-02 -1.265286823482598966e-01 -9.878390049804963713e-01
5.661538461538462297e-01 -9.796455557978459017e-02 -1.580648955238264097e-01 -9.825563752845465348e-01
6.605128205128205643e-01 -9.939753301123141482e-02 -1.919098772015787047e-01 -9.763652294178220004e-01
7.548717948717948989e-01 -9.337403483252755543e-02 -2.274942152045097976e-01 -9.692913706019989917e-01
8.492307692307692335e-01 -7.863110324965652542e-02 -2.638108460181183279e-01 -9.613629983434911486e-01
9.435897435897435681e-01 -5.405347749568709115e-02 -2.993458483554474192e-01 -9.526110789211794661e-01
1.037948717948717903e+00 -1.880286488557578184e-02 -3.320598446748531662e-01 -9.430694784518149909e-01
1.132307692307692459e+00 2.751794108728242150e-02 -3.594022718800589100e-01 -9.327753486733110222e-01
1.226666666666666794e+00 8.465995262292719259e-02 -3.783959469813553134e-01 -9.217624479571533413e-01
1.321025641025641129e+00 1.515375146341217394e-01 -3.857439187979838091e-01 -9.100739264057040590e-01
1.415384615384615463e+00 2.260459443650109090e-01 -3.780826809825242885e-01 -8.977488718523065625e-01
1.509743589743589798e+00 3.049351000838976811e-01 -3.522685972896755224e-01 -8.848262411546342632e-01
1.604102564102564132e+00 3.837536095904541811e-01 -3.057482775833910704e-01 -8.713477710657168140e-01
1.698461538461538467e+00 4.569048709798849139e-01 -2.370077000824842850e-01 -8.573568833663423039e-01
1.792820512820512802e+00 5.178855752823382508e-01 -1.460153034747930234e-01 -8.428934226853393996e-01
1.887179487179487136e+00 5.596528752170141230e-01 -3.467095282123591748e-02 -8.279985696950737939e-01
1.981538461538461693e+00 5.752067493845454127e-01 9.288311938073900986e-02 -8.127144314537534386e-01
2.075897435897435805e+00 5.583295752356227659e-01 2.300674385667139665e-01 -7.970769314130191630e-01
2.170256410256410362e+00 5.044323311325160653e-01 3.679447688192872268e-01 -7.811267859855621776e-01
2.264615384615384919e+00 4.114602757101486485e-01 4.956050956294550391e-01 -7.648987705053243991e-01
2.358974358974359031e+00 2.807217276209418300e-01 6.008701371861621121e-01 -7.484278485422802829e-01
2.453333333333333588e+00 1.175310027742074159e-01 6.713558490209533547e-01 -7.317522622463725757e-01
2.547692307692307701e+00 -6.851495757008579934e-02 6.958524573485765918e-01 -7.149045196325674034e-01
2.642051282051282257e+00 -2.637089917113454862e-01 6.658567729461833951e-01 -6.979151224913773266e-01
2.736410256410256370e+00 -4.509981107471547901e-01 5.771362584196112477e-01 -6.808138262783313133e-01
2.830769230769230926e+00 -6.113596068662257021e-01 4.310911265038525064e-01 -6.636208864801864671e-01
2.925128205128205039e+00 -7.257145997459779618e-01 2.356449768533955269e-01 -6.463763925560352952e-01
3.019487179487179596e+00 -7.773077306805931119e-01 5.504991033325190575e-03 -6.290904705105150319e-01
3.113846153846154152e+00 -7.541915558843893530e-01 -2.385124828862970614e-01 -6.117999383407023428e-01
3.208205128205128265e+00 -6.516159461391837215e-01 -4.711029939979405334e-01 -5.945171931529605880e-01
3.302564102564102821e+00 -4.737768204977400033e-01 -6.650529576219159633e-01 -5.772624790017631957e-01
3.396923076923076934e+00 -2.346886009718280319e-01 -7.945098920163823353e-01 -5.600598418725287742e-01
3.491282051282051491e+00 4.224870908725375518e-02 -8.387159370383816537e-01 -5.429201266116572278e-01
3.585641025641025603e+00 3.261304147963831612e-01 -7.855543837247781491e-01 -5.258657276045313189e-01
3.680000000000000160e+00 5.817918485161363007e-01 -6.344521185818245979e-01 -5.089008698993651159e-01
