0.000000000000000000e+00 3.484081315762106307e-10 -4.102520668369882923e-09 -1.000000000000000000e+00
9.435897435897436236e-02 1.609263864115131892e-02 -1.081359936925904014e-02 -9.998119196572545775e-01
1.887179487179487247e-01 3.219067880995483966e-02 -2.160355494245123562e-02 -9.992480355974112660e-01
2.830769230769231148e-01 4.827672675587123263e-02 -3.236503045729630101e-02 -9.983092033011040645e-01
3.774358974358974494e-01 6.434153818584882611e-02 -4.308279020213210547e-02 -9.969971198907663368e-01
4.717948717948717841e-01 8.037845772520874066e-02 -5.374353050187530290e-02 -9.953140044565556011e-01
5.661538461538462297e-01 9.638174646243613530e-02 -6.433222488446702081e-02 -9.932626880000849923e-01
6.605128205128205643e-01 1.123414643120690948e-01 -7.483475474285256057e-02 -9.908470164387299661e-01
7.548717948717948989e-01 1.282494136535820006e-01 -8.523942226695316315e-02 -9.880712486768850056e-01
8.492307692307692335e-01 1.440962134629459324e-01 -9.553008050991837474e-02 -9.849408895923249530e-01
9.435897435897435681e-01 1.598737792284126991e-01 -1.056976000118534098e-01 -9.814613942969984128e-01
1.037948717948717903e+00 1.755701820631627441e-01 -1.157258018244651243e-01 -9.776402868822100523e-01
1.132307692307692459e+00 1.911786922969109792e-01 -1.256049767839206299e-01 -9.734843502629957346e-01
1.226666666666666794e+00 2.066839284719343417e-01 -1.353272094886515953e-01 -9.690024679814914776e-01
1.321025641025641129e+00 2.220810349331349687e-01 -1.448781606359756391e-01 -9.642030981344240637e-01
1.415384615384615463e+00 2.373529671048847933e-01 -1.542525685732554219e-01 -9.590968636138906822e-01
1.509743589743589798e+00 2.524952761983951799e-01 -1.634396680637180688e-01 -9.536930775574788965e-01
1.604102564102564132e+00 2.674925378298330658e-01 -1.724335566039196799e-01 -9.480037360555495507e-01
1.698461538461538467e+00 2.823394170549609061e-01 -1.812294536340040563e-01 -9.420386441556818369e-01
1.792820512820512802e+00 2.970210793631599122e-01 -1.898234165535658269e-01 -9.358107784777511817e-01
1.887179487179487136e+00 3.115322470618535622e-01 -1.982077116282802698e-01 -9.293317077864358122e-01
1.981538461538461693e+00 3.258610824891042812e-01 -2.063806099321794929e-01 -9.226144676998624394e-01
2.075897435897435805e+00 3.399966078281276283e-01 -2.143418285816486857e-01 -9.156721807105454580e-01
2.170256410256410362e+00 3.539360156475867547e-01 -2.220871562400527355e-01 -9.085163964707941853e-01
2.264615384615384919e+00 3.676708404577040401e-01 -2.296195833675536979e-01 -9.011593910235611293e-01
2.358974358974359031e+00 3.811931058429955943e-01 -2.369368862478887505e-01 -8.936150047670928798e-01
2.453333333333333588e+00 3.944941938436984930e-01 -2.440442801100432546e-01 -8.858959133097676908e-01
2.547692307692307701e+00 4.075764352122361878e-01 -2.509381865626975072e-01 -8.780125991555136622e-01
2.642051282051282257e+00 4.204238927483098798e-01 -2.576248617425198617e-01 -8.699813994294068875e-01
2.736410256410256370e+00 4.330431678446273747e-01 -2.641056953636708449e-01 -8.618097555217025807e-01
2.830769230769230926e+00 4.454260013095975301e-01 -2.703858867024998003e-01 -8.535111093468020771e-01
2.925128205128205039e+00 4.575689356287988563e-01 -2.764664542793252577e-01 -8.450981271358123381e-01
3.019487179487179596e+00 4.694709162995565066e-01 -2.823549737742823140e-01 -8.365801903922581717e-01
3.113846153846154152e+00 4.811327055570905342e-01 -2.880520626769247361e-01 -8.279678912260963752e-01
3.208205128205128265e+00 4.925474978505846035e-01 -2.935665276860554007e-01 -8.192734424734644527e-01
3.302564102564102821e+00 5.037197819349426009e-01 -2.988997678999731900e-01 -8.105050562734468222e-01
3.396923076923076934e+00 5.146506144354653367e-01 -3.040549590302208394e-01 -8.016721821015521110e-01
3.491282051282051491e+00 5.253341136177698267e-01 -3.090420221204595030e-01 -7.927861513957933370e-01
3.585641025641025603e+00 5.357772470308704849e-01 -3.138629534742259919e-01 -7.838529199365045219e-01
3.680000000000000160e+00 5.459807043441159413e-01 -3.185242460598857184e-01 -7.748805187694706165e-01
