0.000000000000000000e+00 -1.868261813829120299e-09 2.380962300007701388e-09 -1.000000000000000000e+00
9.435897435897436236e-02 1.551466546930429791e-01 -6.087805940445491226e-02 -9.860124281182547357e-01
1.887179487179487247e-01 3.023885895997878714e-01 -1.232371426495474653e-01 -9.451813881342697732e-01
2.830769230769231148e-01 4.344019624972347282e-01 -1.883400804471080103e-01 -8.808029687976870470e-01
3.774358974358974494e-01 5.450578030248888206e-01 -2.569346167884655197e-01 -7.980503596952576162e-01
4.717948717948717841e-01 6.298708712373470853e-01 -3.290937284837436305e-01 -7.035232117712273414e-01
5.661538461538462297e-01 6.863297489164043030e-01 -4.041106724306054998e-01 -6.046722242947588644e-01
6.605128205128205643e-01 7.140644753674583178e-01 -4.804744720447343687e-01 -5.091529679791489960e-01
7.548717948717948989e-01 7.148374948736000434e-01 -5.559474043690717515e-01 -4.241567925982332454e-01
8.492307692307692335e-01 6.923633587991246952e-01 -6.277129388978605062e-01 -3.557916097601517835e-01
9.435897435897435681e-01 6.519652124637058677e-01 -6.926134433278734459e-01 -3.085541581130393229e-01
1.037948717948717903e+00 6.001065511293506294e-01 -7.474341631005536613e-01 -2.849416532627400134e-01
1.132307692307692459e+00 5.438369014623032349e-01 -7.892095139226918965e-01 -2.852493930653071108e-01
1.226666666666666794e+00 4.901917488428577663e-01 -8.155360123200792177e-01 -3.075560637222523042e-01
1.321025641025641129e+00 4.456002880830478019e-01 -8.248506359258941378e-01 -3.479079371134994325e-01
1.415384615384615463e+00 4.153697979629706327e-01 -8.166401413520896213e-01 -4.006814367495976081e-01
1.509743589743589798e+00 4.032428661011624449e-01 -7.915830401090108159e-01 -4.590982000671843810e-01
1.604102564102564132e+00 4.111270829265372129e-01 -7.515735708646078539e-01 -5.158413955565467335e-01
1.698461538461538467e+00 4.389597689673039316e-01 -6.996546704590833610e-01 -5.637191201302401700e-01
1.792820512820512802e+00 4.847620078543298794e-01 -6.398336870900503959e-01 -5.963228345791101725e-01
1.887179487179487136e+00 5.448418154090299836e-01 -5.768132672578827336e-01 -6.086184326600090344e-01
1.981538461538461693e+00 6.141599054358222176e-01 -5.156456465900520758e-01 -5.974106423413765299e-01
2.075897435897435805e+00 6.867954307473260744e-01 -4.613426737091843033e-01 -5.616551584637765604e-01
2.170256410256410362e+00 7.564890873589245057e-01 -4.184752444263009075e-01 -5.025765122264660434e-01
2.264615384615384919e+00 8.172157976903839938e-01 -3.907882422175918968e-01 -4.235823745445033706e-01
2.358974358974359031e+00 8.637203107247114486e-01 -3.808845649244927412e-01 -3.299880262878351345e-01
2.453333333333333588e+00 8.919932251653950317e-01 -3.899777925586477290e-01 -2.285659080843865654e-01
2.547692307692307701e+00 8.996275297883171707e-01 -4.177658884656694216e-01 -1.269579826835779135e-01
2.642051282051282257e+00 8.860327313816505068e-01 -4.624197024634556508e-01 -3.301712144020042122e-02
2.736410256410256370e+00 8.524871601975718693e-01 -5.207069856458427237e-01 4.589123776264092402e-02
2.830769230769230926e+00 8.020291185298482617e-01 -5.882218901243581044e-01 1.035401850808086027e-01
2.925128205128205039e+00 7.391878747844797815e-01 -6.597292078457899223e-01 1.354069907843853116e-01
3.019487179487179596e+00 6.695873297103465127e-01 -7.295769860904601778e-01 1.390921949706658278e-01
3.113846153846154152e+00 5.994491888617949904e-01 -7.921579373439485705e-01 1.145546777927892307e-01
3.208205128205128265e+00 5.350492139326039620e-01 -8.423675387377371759e-01 6.415154884328938545e-02
3.302564102564102821e+00 4.821622474378203238e-01 -8.760358741510128056e-01 -7.536259862153554291e-03
3.396923076923076934e+00 4.455601045177167707e-01 -8.902821113727924507e-01 -9.407539623794604344e-02
3.491282051282051491e+00 4.285848163255793208e-01 -8.837742427026897829e-01 -1.877093895299700166e-01
3.585641025641025603e+00 4.328567899898872473e-01 -8.568591528826878800e-01 -2.800085411399764190e-01
3.680000000000000160e+00 4.581296956484086080e-01 -8.115562692020382718e-01 -3.625905460789317081e-01
