0.000000000000000000e+00 -2.786375555690266296e-09 3.888571586671441960e-09 -1.000000000000000000e+00
9.435897435897436236e-02 -6.155186061964718763e-02 -3.476674592735851804e-02 -9.974979156569896421e-01
1.887179487179487247e-01 -1.226390852255519331e-01 -6.916863441857604156e-02 -9.900375133637624447e-01
2.830769230769231148e-01 -1.828136520140641041e-01 -1.028325889879788679e-01 -9.777540616297650811e-01
3.774358974358974494e-01 -2.416554284587205392e-01 -1.354201143285906905e-01 -9.608651606771160258e-01
4.717948717948717841e-01 -2.987803997868304640e-01 -1.666255214405758800e-01 -9.396613402972581186e-01
5.661538461538462297e-01 -3.538501008853927599e-01 -1.961837252365868922e-01 -9.144936770831987305e-01
6.605128205128205643e-01 -4.065826069141310062e-01 -2.238796680710065656e-01 -8.857564652234661828e-01
7.548717948717948989e-01 -4.567490597948001274e-01 -2.495439403146071378e-01 -8.538756122784522118e-01
8.492307692307692335e-01 -5.041813148138288847e-01 -2.730572777070099932e-01 -8.192898072854728486e-01
9.435897435897435681e-01 -5.487614566815526285e-01 -2.943449972421009475e-01 -7.824424469706107166e-01
1.037948717948717903e+00 -5.904271339589929335e-01 -3.133820219610380375e-01 -7.437615653432912977e-01
1.132307692307692459e+00 -6.291583164553498086e-01 -3.301691172838976396e-01 -7.036628556524063827e-01
1.226666666666666794e+00 -6.649787237538972162e-01 -3.447482754577337882e-01 -6.625290043793496952e-01
1.321025641025641129e+00 -6.979447078755075529e-01 -3.571887252137545543e-01 -6.207106477889681173e-01
1.415384615384615463e+00 -7.281371473900860591e-01 -3.675766310331715636e-01 -5.785288338827354604e-01
1.509743589743589798e+00 -7.556638807659226131e-01 -3.760126643519220990e-01 -5.362630722126744409e-01
1.604102564102564132e+00 -7.806427004584621798e-01 -3.826123661080473304e-01 -4.941618336916546728e-01
1.698461538461538467e+00 -8.032036481046569421e-01 -3.875021292205054757e-01 -4.524343627005423252e-01
1.792820512820512802e+00 -8.234863504911784648e-01 -3.908018974927531808e-01 -4.112598692109766807e-01
1.887179487179487136e+00 -8.416336526185823619e-01 -3.926378142371103053e-01 -3.707811596924204811e-01
1.981538461538461693e+00 -8.577811958296778228e-01 -3.931362137053376893e-01 -3.311275451485657939e-01
2.075897435897435805e+00 -8.720740054473853364e-01 -3.924132468951471164e-01 -2.923845079654953105e-01
2.170256410256410362e+00 -8.846441545490112413e-01 -3.905882123677278939e-01 -2.546278507002425751e-01
2.264615384615384919e+00 -8.956216796610526609e-01 -3.877681387223613774e-01 -2.179158566289505772e-01
2.358974358974359031e+00 -9.051314017208978990e-01 -3.840572247855457144e-01 -1.822820136137309199e-01
2.453333333333333588e+00 -9.132902296006580878e-01 -3.795527402559867314e-01 -1.477502169513438823e-01
2.547692307692307701e+00 -9.202096737161471474e-01 -3.743417969986024829e-01 -1.143318103504956107e-01
2.642051282051282257e+00 -9.259910741613331941e-01 -3.685117622142956018e-01 -8.203019167772786224e-02
2.736410256410256370e+00 -9.307331027908654075e-01 -3.621338702368794848e-01 -5.083561097162171000e-02
2.830769230769230926e+00 -9.345237227891263210e-01 -3.552812971116102725e-01 -2.073413223512028322e-02
2.925128205128205039e+00 -9.374451896375333160e-01 -3.480187705900240625e-01 8.291107932130557454e-03
3.019487179487179596e+00 -9.395757470731384009e-01 -3.403990597461222789e-01 3.626561171817623691e-02
3.113846153846154152e+00 -9.409842871071045778e-01 -3.324788064730928028e-01 6.321182520264918836e-02
3.208205128205128265e+00 -9.417360061407871186e-01 -3.243037887739067537e-01 8.916108673825891284e-02
3.302564102564102821e+00 -9.418908136943517917e-01 -3.159147685040047948e-01 1.141444115674726395e-01
3.396923076923076934e+00 -9.415014406841007988e-01 -3.073548130794084843e-01 1.381936822629134809e-01
3.491282051282051491e+00 -9.406202033558362929e-01 -2.986535922794225639e-01 1.613355315330801121e-01
3.585641025641025603e+00 -9.392892268490419250e-01 -2.898480288472893296e-01 1.836121398837468888e-01
3.680000000000000160e+00 -9.375529125677711795e-01 -2.809621040056495822e-01 2.050474089542345946e-01
