0.000000000000000000e+00 3.388261063175658257e-10 -3.004059354519590650e-09 -1.000000000000000000e+00
9.435897435897436236e-02 4.788051877932799488e-02 5.135340913929333645e-03 -9.988394407190721580e-01
1.887179487179487247e-01 9.531153572871442492e-02 1.033010633228965622e-02 -9.953930690658784330e-01
2.830769230769231148e-01 1.418566206936024143e-01 1.559675417500809569e-02 -9.897631120771178681e-01
3.774358974358974494e-01 1.871388129560445646e-01 2.098079068373916167e-02 -9.821077627213092853e-01
4.717948717948717841e-01 2.308457759910625406e-01 2.653518258238299343e-02 -9.726263945611461903e-01
5.661538461538462297e-01 2.727472742104243841e-01 3.231970760854753488e-02 -9.615402012304535839e-01
6.605128205128205643e-01 3.127001972681995867e-01 3.838730919487590154e-02 -9.490729217550473162e-01
7.548717948717948989e-01 3.506376326317198200e-01 4.478582437008690742e-02 -9.354363223331029209e-01
8.492307692307692335e-01 3.865669492717685451e-01 5.153704161016760266e-02 -9.208163752514606504e-01
9.435897435897435681e-01 4.205468754457921676e-01 5.863840931835748171e-02 -9.053695295340203897e-01
1.037948717948717903e+00 4.526744627063750137e-01 6.604741545836695371e-02 -8.892215497193109996e-01
1.132307692307692459e+00 4.830606521950806531e-01 7.368747959746457799e-02 -8.724753549167569844e-01
1.226666666666666794e+00 5.118161789608264289e-01 8.145002839253806526e-02 -8.552193190445086524e-01
1.321025641025641129e+00 5.390345561950691256e-01 8.920052344756607132e-02 -8.375406458337526505e-01
1.415384615384615463e+00 5.647884540743284276e-01 9.680266850787797028e-02 -8.195315217110937800e-01
1.509743589743589798e+00 5.891194559150829679e-01 1.041215687831157644e-01 -8.013020674324972115e-01
1.604102564102564132e+00 6.120477558380844618e-01 1.110527678121419337e-01 -7.829765384434813624e-01
1.698461538461538467e+00 6.335764383923867538e-01 1.175321227513672073e-01 -7.646920634312616150e-01
1.792820512820512802e+00 6.537014385604986710e-01 1.235442807703393542e-01 -7.465906162591249284e-01
1.887179487179487136e+00 6.724304219463200782e-01 1.291271533885374190e-01 -7.287999029258639405e-01
1.981538461538461693e+00 6.897828090137918533e-01 1.343669134912515717e-01 -7.114285010142610277e-01
2.075897435897435805e+00 7.058063317402498704e-01 1.393823117517186128e-01 -6.945464991444648684e-01
2.170256410256410362e+00 7.205834358605613943e-01 1.443132162863238199e-01 -6.781722692605406388e-01
2.264615384615384919e+00 7.342198907691612764e-01 1.492880042074715141e-01 -6.622826148236704569e-01
2.358974358974359031e+00 7.468550814587248121e-01 1.544095605236096569e-01 -6.467988977945990925e-01
2.453333333333333588e+00 7.586372258307624294e-01 1.597325188154121722e-01 -6.316156762400417790e-01
2.547692307692307701e+00 7.697236167988633637e-01 1.652485059734352113e-01 -6.166047524091012866e-01
2.642051282051282257e+00 7.802566887661097628e-01 1.708893502786593688e-01 -6.016468510762423838e-01
2.736410256410256370e+00 7.903589933781902666e-01 1.765289881672104655e-01 -5.866450881056026745e-01
2.830769230769230926e+00 8.001181628182103545e-01 1.819982451220107378e-01 -5.715501110927642126e-01
2.925128205128205039e+00 8.095835251917816722e-01 1.871085987758095703e-01 -5.563690729885963915e-01
3.019487179487179596e+00 8.187628357804134227e-01 1.916881459687253264e-01 -5.411695051803522283e-01
3.113846153846154152e+00 8.276265995790254015e-01 1.955966113593120004e-01 -5.260772304724160575e-01
3.208205128205128265e+00 8.361167057323785068e-01 1.987601651224119581e-01 -5.112573276259475552e-01
3.302564102564102821e+00 8.441589812291647732e-01 2.011789979365101455e-01 -4.968935251662096597e-01
3.396923076923076934e+00 8.516761234428933403e-01 2.029362157412385181e-01 -4.831614504669751176e-01
3.491282051282051491e+00 8.586048327285438209e-01 2.041941898362573671e-01 -4.701941912820118419e-01
3.585641025641025603e+00 8.649033353638103661e-01 2.051701418232259044e-01 -4.580691460939962378e-01
3.680000000000000160e+00 8.705658757965684114e-01 2.061059243663014851e-01 -4.467830967557627209e-01
