0.000000000000000000e+00 -3.117760303004318215e-11 -2.349145560894909303e-09 -1.000000000000000000e+00
9.435897435897436236e-02 1.099288391704969226e-01 -2.046861937945564369e-01 -9.726340678557975350e-01
1.887179487179487247e-01 2.240777001604667973e-01 -3.907527934964003524e-01 -8.928027870390259357e-01
2.830769230769231148e-01 3.448660655272321462e-01 -5.410575130324541959e-01 -7.670182727970904502e-01
3.774358974358974494e-01 4.715486524132746493e-01 -6.413668049381674452e-01 -6.052115684067842505e-01
4.717948717948717841e-01 5.994002247864229638e-01 -6.817003831236045919e-01 -4.195147681761803860e-01
5.661538461538462297e-01 7.197691837034561058e-01 -6.574692048942654132e-01 -2.228320047420066230e-01
6.605128205128205643e-01 8.209755667825656689e-01 -5.702936125325999139e-01 -2.741173114080586171e-02
7.548717948717948989e-01 8.900080804394945311e-01 -4.282779110718575311e-01 1.563680063128506659e-01
8.492307692307692335e-01 9.147251620635600267e-01 -2.456406104032753113e-01 3.208217474487259357e-01
9.435897435897435681e-01 8.862291724734550069e-01 -4.156833139059870619e-02 4.613664326362016399e-01
1.037948717948717903e+00 8.009785671565472498e-01 1.616711868599094992e-01 5.764424842580694319e-01
1.132307692307692459e+00 6.622279158720251191e-01 3.412628961634807112e-01 6.670720932887884702e-01
1.226666666666666794e+00 4.804722086130210346e-01 4.766999959084167737e-01 7.361358013025346425e-01
1.321025641025641129e+00 2.726954547027961584e-01 5.525945439714077256e-01 7.875720145199228694e-01
1.415384615384615463e+00 6.045624618278658269e-02 5.610186035262034743e-01 8.255889316610708351e-01
1.509743589743589798e+00 -1.329743317573174877e-01 5.029092454502651632e-01 8.540460297376107901e-01
1.604102564102564132e+00 -2.859873189425206075e-01 3.882452082356752099e-01 8.760547295027089065e-01
1.698461538461538467e+00 -3.820127702812010639e-01 2.348316391739850018e-01 8.938208771773968886e-01
1.792820512820512802e+00 -4.122369601985157450e-01 6.580832400661305870e-02 9.086945256232014101e-01
1.887179487179487136e+00 -3.772277620635082207e-01 -9.381935476807497232e-02 9.213540426270613315e-01
1.981538461538461693e+00 -2.870262618444875402e-01 -2.210638433721412444e-01 9.320639025282082546e-01
2.075897435897435805e+00 -1.596754641490704674e-01 -2.986263162843506014e-01 9.409159201342573997e-01
2.170256410256410362e+00 -1.832549055434376517e-02 -3.177092437535242730e-01 9.480094555736511275e-01
2.264615384615384919e+00 1.126069872775126157e-01 -2.793888991251076148e-01 9.535505286065836250e-01
2.358974358974359031e+00 2.115334301495162550e-01 -1.943282625132857488e-01 9.578556171029202204e-01
2.453333333333333588e+00 2.633812227651379789e-01 -8.075405365688746728e-02 9.613045772339576800e-01
2.547692307692307701e+00 2.620780491331229367e-01 3.890548462860186907e-02 9.642608231970902777e-01
2.642051282051282257e+00 2.114293188522237410e-01 1.421535555393334538e-01 9.669992787086465480e-01
2.736410256410256370e+00 1.241723786245426120e-01 2.105525763093930303e-01 9.696631013174177305e-01
2.830769230769230926e+00 1.932961298394469951e-02 2.330705475438106800e-01 9.722665696680082847e-01
2.925128205128205039e+00 -8.157646575106110298e-02 2.079594579956265954e-01 9.747287040734127217e-01
3.019487179487179596e+00 -1.587575665815317560e-01 1.428231134739340602e-01 9.769317267308633701e-01
3.113846153846154152e+00 -1.979950340827991151e-01 5.286409137927396834e-02 9.787754804524625429e-01
3.208205128205128265e+00 -1.933033229072956549e-01 -4.237784606194407167e-02 9.802224763301573551e-01
3.302564102564102821e+00 -1.478972702674032080e-01 -1.230963504529224706e-01 9.813113130568191789e-01
3.396923076923076934e+00 -7.325542370148309390e-02 -1.732742920423640254e-01 9.821445495836385042e-01
3.491282051282051491e+00 1.348906934465786411e-02 -1.838766365626391119e-01 9.828558975611295656e-01
3.585641025641025603e+00 9.330321659690989089e-02 -1.545537287286999628e-01 9.835679844923169712e-01
3.680000000000000160e+00 1.493232500536547658e-01 -9.345280140742899533e-02 9.843614736063439619e-01
