0.000000000000000000e+00 3.990652332698021968e-13 3.075034472568466676e-13 -1.000000000000000000e+00
9.435897435897436236e-02 -2.462511322471813008e-02 -1.909268084744140254e-02 -9.995144187690001569e-01
1.887179487179487247e-01 -4.810976504396069497e-02 -3.799586888400172807e-02 -9.981191133512832270e-01
2.830769230769231148e-01 -6.936704937440316132e-02 -5.647431932060929805e-02 -9.959913974327164743e-01
3.774358974358974494e-01 -8.741558733418473837e-02 -7.420914921178564660e-02 -9.934040050506003361e-01
4.717948717948717841e-01 -1.014288215050083708e-01 -9.076680364799311063e-02 -9.906934851062964009e-01
5.661538461538462297e-01 -1.107771129241093971e-01 -1.055852379723941498e-01 -9.882207186625576734e-01
6.605128205128205643e-01 -1.150733569335185003e-01 -1.179777328719709140e-01 -9.863262020504145466e-01
7.548717948717948989e-01 -1.141964538948715968e-01 -1.271524321513729516e-01 -9.852874853404300914e-01
8.492307692307692335e-01 -1.083182316463544848e-01 -1.322553304694140119e-01 -9.852794974938485772e-01
9.435897435897435681e-01 -9.790767376292061619e-02 -1.324251486411787970e-01 -9.863456124761186272e-01
1.037948717948717903e+00 -8.372905238228531277e-02 -1.268591540918890537e-01 -9.883805951728062977e-01
1.132307692307692459e+00 -6.681913897122120083e-02 -1.148930108715852938e-01 -9.911280436887683898e-01
1.226666666666666794e+00 -4.845184250372949752e-02 -9.607872430131719765e-02 -9.941937928110794465e-01
1.321025641025641129e+00 -3.007892462881294263e-02 -7.024818886211031677e-02 -9.970759500507101469e-01
1.415384615384615463e+00 -1.327075049623288421e-02 -3.758187652418595176e-02 -9.992054291335529248e-01
1.509743589743589798e+00 3.767275331908957183e-04 1.351991117017507750e-03 -9.999990150775127651e-01
1.604102564102564132e+00 9.329819152515380146e-03 4.558715564572332624e-02 -9.989167961656877370e-01
1.698461538461538467e+00 1.221235069875285448e-02 9.375665934361566978e-02 -9.955202394510256347e-01
1.792820512820512802e+00 7.908342257176584345e-03 1.441469295469438860e-01 -9.895246941718200961e-01
1.887179487179487136e+00 -4.350211511739185410e-03 1.947497029164949600e-01 -9.808433252484141107e-01
1.981538461538461693e+00 -2.489908257437103978e-02 2.433698775462075636e-01 -9.696139120772766518e-01
2.075897435897435805e+00 -5.359121460263599479e-02 2.877376966647945955e-01 -9.562086589220708532e-01
2.170256410256410362e+00 -8.975294911809586496e-02 3.256344319953549116e-01 -9.412261281964513504e-01
2.264615384615384919e+00 -1.321850890885695740e-01 3.550473539079651020e-01 -9.254558217342305770e-01
2.358974358974359031e+00 -1.791922952572145289e-01 3.742902647866879207e-01 -9.098334565034319477e-01
2.453333333333333588e+00 -2.286378110562880539e-01 3.821487193485277323e-01 -8.953698163440979574e-01
2.547692307692307701e+00 -2.780472594600555403e-01 3.779792249881091526e-01 -8.830749836286589938e-01
2.642051282051282257e+00 -3.247305763140007628e-01 3.617808670192303455e-01 -8.738790857419902469e-01
2.736410256410256370e+00 -3.659332116164128457e-01 3.342484005510258926e-01 -8.685452727717897226e-01
2.830769230769230926e+00 -3.989953297179504865e-01 2.967661684307288383e-01 -8.676016182170566138e-01
2.925128205128205039e+00 -4.215335974162827126e-01 2.513734211820204956e-01 -8.712754035751314463e-01
3.019487179487179596e+00 -4.315945576380528781e-01 2.006602738141213815e-01 -8.794666521220139144e-01
3.113846153846154152e+00 -4.278226336719849199e-01 1.476600319501238934e-01 -8.917198601584332973e-01
3.208205128205128265e+00 -4.095678468383062154e-01 9.567566797357029973e-02 -9.072487777948605725e-01
3.302564102564102821e+00 -3.769848536830999186e-01 4.809489504519837144e-02 -9.249698918981339446e-01
3.396923076923076934e+00 -3.310619534520206630e-01 8.190017217496972646e-03 -9.435734770175675523e-01
3.491282051282051491e+00 -2.736262888672385540e-01 -2.108955636903105113e-02 -9.616048480212470162e-01
3.585641025641025603e+00 -2.072616346454845548e-01 -3.730997950329941609e-02 -9.775738235798779874e-01
3.680000000000000160e+00 -1.352101639777858744e-01 -3.872801566502200726e-02 -9.900597716812923332e-01
