0.000000000000000000e+00 3.029316204416333490e-09 1.762554396533640949e-11 -1.000000000000000000e+00
9.435897435897436236e-02 -1.801048454790948883e-02 2.670442574157068649e-01 -9.635134688483378840e-01
1.887179487179487247e-01 -3.671104600520586070e-02 5.138019037842497250e-01 -8.571171036625858664e-01
2.830769230769231148e-01 -5.624723633549713608e-02 7.219203696733975661e-01 -6.896749817986769227e-01
3.774358974358974494e-01 -7.590492234939455463e-02 8.767364037945463151e-01 -4.749225465787159095e-01
4.717948717948717841e-01 -9.387898618960155428e-02 9.686341870642077856e-01 -2.300244516161020492e-01
5.661538461538462297e-01 -1.072983665402131304e-01 9.938699915313540245e-01 2.617863449050170099e-02
6.605128205128205643e-01 -1.125015187439906139e-01 9.548033716566962648e-01 2.750836761236252204e-01
7.548717948717948989e-01 -1.055302773686802031e-01 8.594994025714939312e-01 5.001042719744720477e-01
8.492307692307692335e-01 -8.277524826654625301e-02 7.207470451394875077e-01 6.882269080853283816e-01
9.435897435897435681e-01 -4.167136984597380467e-02 5.546308791198385491e-01 8.310456695813397410e-01
1.037948717948717903e+00 1.867431402301220067e-02 3.787745626348418271e-01 9.252967249700047025e-01
1.132307692307692459e+00 9.702035958438604002e-02 2.104842318405952539e-01 9.727689059324127197e-01
1.226666666666666794e+00 1.897922359846916929e-01 6.499418751875887801e-02 9.796688982489707431e-01
1.321025641025641129e+00 2.912548896317009861e-01 -4.603465624376645859e-02 9.555344491566115650e-01
1.415384615384615463e+00 3.939156010280913112e-01 -1.156103301777839931e-01 9.118426393410403730e-01
1.509743589743589798e+00 4.892863405026025014e-01 -1.418835308326612255e-01 8.604986357816211129e-01
1.604102564102564132e+00 5.688508151477449371e-01 -1.280958115480650972e-01 8.123966771390412900e-01
1.698461538461538467e+00 6.251057741315615424e-01 -8.195511415810341482e-02 7.762171356151404966e-01
1.792820512820512802e+00 6.525520694337278993e-01 -1.451872850300845591e-02 7.575957521594006705e-01
1.887179487179487136e+00 6.484834019624159396e-01 6.126063815981858118e-02 7.587507925844408918e-01
1.981538461538461693e+00 6.134712106110929986e-01 1.321543024033039471e-01 7.785726096537711749e-01
2.075897435897435805e+00 5.514541510314697748e-01 1.862583774248603441e-01 8.131385474813050962e-01
2.170256410256410362e+00 4.693962385237173685e-01 2.143913268764641999e-01 8.565590055499158195e-01
2.264615384615384919e+00 3.765533327760016147e-01 2.111121325593358078e-01 9.020149828919560298e-01
2.358974358974359031e+00 2.834105339047338634e-01 1.752714530687796701e-01 9.428426642913496636e-01
2.453333333333333588e+00 2.004355737924116143e-01 1.100215120980202466e-01 9.735074790224704788e-01
2.547692307692307701e+00 1.368015669630734121e-01 2.230022297519099195e-02 9.903462131590097250e-01
2.642051282051282257e+00 9.924386872442871044e-02 -7.812128114253405475e-02 9.919906868749820417e-01
2.736410256410256370e+00 9.122584256632090827e-02 -1.799726594124043955e-01 9.794305233779592168e-01
2.830769230769230926e+00 1.124272117045646280e-01 -2.719110643392780302e-01 9.557296668212402757e-01
2.925128205128205039e+00 1.588134701533257809e-01 -3.439578473806669812e-01 9.254535226888400690e-01
3.019487179487179596e+00 2.231253805264740708e-01 -3.887492598167271995e-01 8.939130131250172528e-01
3.113846153846154152e+00 2.958108459101164156e-01 -4.024331692516041614e-01 8.663334816627442647e-01
3.208205128205128265e+00 3.662500758040051485e-01 -3.851088186102042954e-01 8.470782189949168650e-01
3.302564102564102821e+00 4.241382675902989341e-01 -3.407589918603275425e-01 8.390346596587872074e-01
3.396923076923076934e+00 4.608219953456874629e-01 -2.766884893431342252e-01 8.432531354504116949e-01
3.491282051282051491e+00 4.704486352332415411e-01 -2.025562097183124521e-01 8.588591029108640917e-01
3.585641025641025603e+00 4.507241207441722852e-01 -1.291018864593932725e-01 8.832731147974387520e-01
3.680000000000000160e+00 4.032356037786540837e-01 -6.676689139362712577e-02 9.126530114369836300e-01
