0.000000000000000000e+00 2.106504163110001859e-09 -1.118429109731555902e-09 -1.000000000000000000e+00
9.435897435897436236e-02 9.224822665203920302e-03 -6.756492182966341090e-03 -9.999344906791385323e-01
1.887179487179487247e-01 1.854673695859480539e-02 -1.340689856017182602e-02 -9.997378540909992450e-01
2.830769230769231148e-01 2.800462561049399043e-02 -1.988005400912110782e-02 -9.994097292790048437e-01
3.774358974358974494e-01 3.766324514648665411e-02 -2.610030310176127133e-02 -9.989491076675945935e-01
4.717948717948717841e-01 4.757794345722607399e-02 -3.200493849177674099e-02 -9.983540820306073815e-01
5.661538461538462297e-01 5.779417022848058055e-02 -3.754981822791790547e-02 -9.976214105065521753e-01
6.605128205128205643e-01 6.834519075884494532e-02 -4.270653066763585581e-02 -9.967464585005523237e-01
7.548717948717948989e-01 7.924824717242320848e-02 -4.746551264766140504e-02 -9.957233224488281076e-01
8.492307692307692335e-01 9.050479894991388108e-02 -5.183307651165078994e-02 -9.945452143461694927e-01
9.435897435897435681e-01 1.020944722481614136e-01 -5.582862885586440532e-02 -9.932057305628452237e-01
1.037948717948717903e+00 1.139809594186450697e-01 -5.947833877046797280e-02 -9.916996395290420541e-01
1.132307692307692459e+00 1.261051434455378595e-01 -6.281305406858042617e-02 -9.900248895655928694e-01
1.226666666666666794e+00 1.383955139435803505e-01 -6.586094827410102215e-02 -9.881832036315514323e-01
1.321025641025641129e+00 1.507651413095282278e-01 -6.864158593085194215e-02 -9.861820255507323107e-01
1.415384615384615463e+00 1.631212229361991284e-01 -7.116040666893837241e-02 -9.840346545405397327e-01
1.509743589743589798e+00 1.753717321659978290e-01 -7.341210644760164106e-02 -9.817594979121568866e-01
1.604102564102564132e+00 1.874302277895230351e-01 -7.537026287556941595e-02 -9.793800509921802844e-01
1.698461538461538467e+00 1.992220164195473153e-01 -7.699086317367735688e-02 -9.769231334651752308e-01
1.792820512820512802e+00 2.106973525435951178e-01 -7.822087301933247638e-02 -9.744145436105342561e-01
1.887179487179487136e+00 2.218276301914208770e-01 -7.899582893122918115e-02 -9.718783456470583282e-01
1.981538461538461693e+00 2.326136085617211413e-01 -7.925131165152500545e-02 -9.693323875388252242e-01
2.075897435897435805e+00 2.430872795474096904e-01 -7.892802105684815217e-02 -9.667853283457127356e-01
2.170256410256410362e+00 2.533002346617473921e-01 -7.798442727533197449e-02 -9.642365606773520836e-01
2.264615384615384919e+00 2.633302924904870612e-01 -7.639754810971162435e-02 -9.616730719594132060e-01
2.358974358974359031e+00 2.732642652576733333e-01 -7.417972945582218536e-02 -9.590716022152936393e-01
2.453333333333333588e+00 2.831963141328819322e-01 -7.136965330466160662e-02 -9.563996825469557317e-01
2.547692307692307701e+00 2.932065394378272072e-01 -6.804463545488528831e-02 -9.536214060132058856e-01
2.642051282051282257e+00 3.033631822934576006e-01 -6.430978891515204410e-02 -9.506990900152575419e-01
2.736410256410256370e+00 3.137006433156059870e-01 -6.030006055357425843e-02 -9.476018819609475230e-01
2.830769230769230926e+00 3.242257160778680980e-01 -5.616389884566874713e-02 -9.443074706431394683e-01
2.925128205128205039e+00 3.348991508936014494e-01 -5.205067755613637659e-02 -9.408115409315216393e-01
3.019487179487179596e+00 3.456464458386452332e-01 -4.810508147254106970e-02 -9.371271371716453080e-01
3.113846153846154152e+00 3.563596277652805733e-01 -4.444577072195113332e-02 -9.332871940082865247e-01
3.208205128205128265e+00 3.669023223697517322e-01 -4.115172866936252227e-02 -9.293447043814319075e-01
3.302564102564102821e+00 3.771246010049997266e-01 -3.826060022617255862e-02 -9.253676485123509821e-01
3.396923076923076934e+00 3.868761279143920206e-01 -3.575328897830540309e-02 -9.214339143853714775e-01
3.491282051282051491e+00 3.960205180688833870e-01 -3.355801295382279670e-02 -9.176237174970250932e-01
3.585641025641025603e+00 4.044489589162070242e-01 -3.155261724423885639e-02 -9.140114594824338967e-01
3.680000000000000160e+00 4.120949461756864274e-01 -2.957905398425422772e-02 -9.106558769620339833e-01
