0.000000000000000000e+00 3.408019168637299979e-10 -3.885153499188673802e-09 -1.000000000000000000e+00
9.435897435897436236e-02 -1.970036808789043387e-02 2.433210221612288823e-02 -9.995095627957527595e-01
1.887179487179487247e-01 -3.940936697197713889e-02 4.854701501474004144e-02 -9.980426765219689855e-01
2.830769230769231148e-01 -5.909171189759497567e-02 7.254597375976265528e-02 -9.956123362139004396e-01
3.774358974358974494e-01 -7.873211267259301593e-02 9.623035556735448637e-02 -9.922394976881157014e-01
4.717948717948717841e-01 -9.831395694238198590e-02 1.195084046939567102e-01 -9.879523903396885132e-01
5.661538461538462297e-01 -1.178150058254520821e-01 1.423041903142631681e-01 -9.827850869493262032e-01
6.605128205128205643e-01 -1.372115546324703672e-01 1.645478372300108461e-01 -9.767773264091682561e-01
7.548717948717948989e-01 -1.564753417466413499e-01 1.861881222200787167e-01 -9.699721416727572487e-01
8.492307692307692335e-01 -1.755770879220938940e-01 2.071804800097492016e-01 -9.624162281569484945e-01
9.435897435897435681e-01 -1.944780798456604842e-01 2.274921198898434971e-01 -9.541599592946580222e-01
1.037948717948717903e+00 -2.131434163780411006e-01 2.471011036332812216e-01 -9.452545155628614415e-01
1.132307692307692459e+00 -2.315330708161079665e-01 2.659902884073536700e-01 -9.357544171698952695e-01
1.226666666666666794e+00 -2.496146131835574877e-01 2.841485248586054224e-01 -9.257140185337755511e-01
1.321025641025641129e+00 -2.673531955896260026e-01 3.015683447064196887e-01 -9.151899521814783611e-01
1.415384615384615463e+00 -2.847198798426695543e-01 3.182493857785344549e-01 -9.042374317304459064e-01
1.509743589743589798e+00 -3.016899625018187314e-01 3.341945669648910267e-01 -8.929110509339084345e-01
1.604102564102564132e+00 -3.182538245216178785e-01 3.494077616643671558e-01 -8.812611901611354659e-01
1.698461538461538467e+00 -3.343930568728715191e-01 3.639053584597137236e-01 -8.693367173200374776e-01
1.792820512820512802e+00 -3.501093915980880711e-01 3.777014538314855674e-01 -8.571795469870568951e-01
1.887179487179487136e+00 -3.653954831425765271e-01 3.908186278785831247e-01 -8.448303338704256094e-01
1.981538461538461693e+00 -3.802556987546089617e-01 4.032854056872178239e-01 -8.323205232722389324e-01
2.075897435897435805e+00 -3.946852128115487246e-01 4.151339013138052314e-01 -8.196816560069589697e-01
2.170256410256410362e+00 -4.086879568873932334e-01 4.263963984772484173e-01 -8.069389594505340657e-01
2.264615384615384919e+00 -4.222542681297534184e-01 4.371084721847203758e-01 -7.941205062403069448e-01
2.358974358974359031e+00 -4.353804153849492042e-01 4.473034485716770314e-01 -7.812509398695879348e-01
2.453333333333333588e+00 -4.480585170451329424e-01 4.570121634028824209e-01 -7.683570929643264158e-01
2.547692307692307701e+00 -4.602846653006539279e-01 4.662589695863247896e-01 -7.554663744099999745e-01
2.642051282051282257e+00 -4.720559974324883279e-01 4.750650271336701591e-01 -7.426068137974090044e-01
2.736410256410256370e+00 -4.833740199125113879e-01 4.834469214257498537e-01 -7.298060321774588743e-01
2.830769230769230926e+00 -4.942452539998034577e-01 4.914177357570012616e-01 -7.170900610773306427e-01
2.925128205128205039e+00 -5.046873624258251256e-01 4.989830153110056399e-01 -7.044815445289527300e-01
3.019487179487179596e+00 -5.147218655266474485e-01 5.061540540324036552e-01 -6.919948175248766820e-01
3.113846153846154152e+00 -5.243735787634851153e-01 5.129419643763961645e-01 -6.796395954053845445e-01
3.208205128205128265e+00 -5.336704984100142379e-01 5.193628675717437693e-01 -6.674165407482357537e-01
3.302564102564102821e+00 -5.426392592000260917e-01 5.254344569780886598e-01 -6.553227016951028716e-01
3.396923076923076934e+00 -5.512979102486759153e-01 5.311878379258010430e-01 -6.433478312065040727e-01
3.491282051282051491e+00 -5.596629199827110046e-01 5.366494442526986708e-01 -6.314830912208035940e-01
3.585641025641025603e+00 -5.677406147026581307e-01 5.418542904912380109e-01 -6.197180035326754766e-01
3.680000000000000160e+00 -5.755316113203008399e-01 5.468322636634961320e-01 -6.080489333040096644e-01
