0.000000000000000000e+00 -4.149309645471037158e-09 -1.416949316129193458e-09 -1.000000000000000000e+00
9.435897435897436236e-02 -1.061475338618115827e-01 2.455636348589489149e-01 -9.635501976245143263e-01
1.887179487179487247e-01 -2.123323718748995614e-01 4.682855627671805854e-01 -8.576822697277918239e-01
2.830769230769231148e-01 -3.173822462262091970e-01 6.479983473499504321e-01 -6.923578534535226314e-01
3.774358974358974494e-01 -4.181192099227327152e-01 7.695669952209526210e-01 -4.826318931090800568e-01
4.717948717948717841e-01 -5.091014248277213605e-01 8.246027141290318552e-01 -2.466481061103763806e-01
5.661538461538462297e-01 -5.831283341797081077e-01 8.123664988305635548e-01 -3.277474420984488861e-03
6.605128205128205643e-01 -6.323726514796720322e-01 7.396739121380516702e-01 2.301662325131456910e-01
7.548717948717948989e-01 -6.499568783447637887e-01 6.198296465132915323e-01 4.397243485654445672e-01
8.492307692307692335e-01 -6.315881031617874841e-01 4.707068782442594967e-01 6.160546862922329225e-01
9.435897435897435681e-01 -5.769044644197089955e-01 3.122342519688119378e-01 7.547745252504318714e-01
1.037948717948717903e+00 -4.901375209347577644e-01 1.636248011833369154e-01 8.561468186100512634e-01
1.132307692307692459e+00 -3.799276546954119538e-01 4.079099806161608222e-02 9.241145814463982422e-01
1.226666666666666794e+00 -2.582557363825058738e-01 -4.568748134299227548e-02 9.649945400138819629e-01
1.321025641025641129e+00 -1.386439511692440785e-01 -9.170930531586131418e-02 9.860861631374057135e-01
1.415384615384615463e+00 -3.398150004770246480e-02 -9.970459495719535825e-02 9.944362227292130596e-01
1.509743589743589798e+00 4.559862215267762586e-02 -7.765012439027391133e-02 9.959369930725369136e-01
1.604102564102564132e+00 9.433640210792804126e-02 -3.718140845395772470e-02 9.948453983082842234e-01
1.698461538461538467e+00 1.116521176648965774e-01 8.762651080216218857e-03 9.937082659950633445e-01
1.792820512820512802e+00 1.019676487933888487e-01 4.841210606682837952e-02 9.936085535350981379e-01
1.887179487179487136e+00 7.355975549537621672e-02 7.319437823994190406e-02 9.946007783801595892e-01
1.981538461538461693e+00 3.673673343227767951e-02 7.902414750252437226e-02 9.961952063605424845e-01
2.075897435897435805e+00 1.675712816325378163e-03 6.658016687699869207e-02 9.977793980898973514e-01
2.170256410256410362e+00 -2.353738673550173285e-02 4.061150016438130200e-02 9.988975442012588690e-01
2.264615384615384919e+00 -3.434431360117837229e-02 8.426231448482490033e-03 9.993743861745395529e-01
2.358974358974359031e+00 -3.024097689616170315e-02 -2.202358518826982511e-02 9.992998178117327157e-01
2.453333333333333588e+00 -1.443556949885483991e-02 -4.401628215006114092e-02 9.989263195079718383e-01
2.547692307692307701e+00 7.309026570999032496e-03 -5.352925938471560230e-02 9.985393071016792632e-01
2.642051282051282257e+00 2.833429471949605247e-02 -4.993791954413024509e-02 9.983500876719613171e-01
2.736410256410256370e+00 4.280487437977288645e-02 -3.587985836986626320e-02 9.984387386003059639e-01
2.830769230769230926e+00 4.708969877965246686e-02 -1.631197359291740312e-02 9.987572594991305230e-01
2.925128205128205039e+00 4.051002922459893268e-02 2.904995662197051159e-03 9.991747364111008833e-01
3.019487179487179596e+00 2.527810673662026983e-02 1.656492857376153788e-02 9.995430745434950026e-01
3.113846153846154152e+00 5.718400325234564326e-03 2.139233327946272675e-02 9.997547048316963725e-01
3.208205128205128265e+00 -1.299729888265441398e-02 1.674136340005051224e-02 9.997752781268527400e-01
3.302564102564102821e+00 -2.627032577541289077e-02 4.575594103741456933e-03 9.996442864217811586e-01
3.396923076923076934e+00 -3.122675263429583806e-02 -1.121097098354284852e-02 9.994493074388594023e-01
3.491282051282051491e+00 -2.740508159158841148e-02 -2.595869640794675262e-02 9.992871388351479700e-01
3.585641025641025603e+00 -1.672098891985353622e-02 -3.556140953152128747e-02 9.992274315231363113e-01
3.680000000000000160e+00 -2.829916953552440162e-03 -3.752053603256187697e-02 9.992916889548097981e-01
