0.000000000000000000e+00 -2.619495109097572250e-10 -4.597816796641502333e-09 -1.000000000000000000e+00
9.435897435897436236e-02 1.581241429710060487e-01 5.301854020834123604e-02 -9.859937618127146974e-01
1.887179487179487247e-01 3.072591952939996984e-01 1.130573657770745089e-01 -9.448838658204252727e-01
2.830769230769231148e-01 4.384739017046729304e-01 1.859488237905928543e-01 -8.792934799917972999e-01
3.774358974358974494e-01 5.430468161675848782e-01 2.753450417439031739e-01 -7.932693292540625718e-01
4.717948717948717841e-01 6.127784737977841623e-01 3.818820593803571306e-01 -6.918507164841993795e-01
5.661538461538462297e-01 6.405303325172758688e-01 5.026725355007085616e-01 -5.805411841733200129e-01
6.605128205128205643e-01 6.209355418302702212e-01 6.311963611331676827e-01 -4.647746256887745342e-01
7.548717948717948989e-01 5.512275444184643325e-01 7.576404537900626179e-01 -3.494469377638984020e-01
8.492307692307692335e-01 4.320795898895651299e-01 8.697086787786540985e-01 -2.385314857215812268e-01
9.435897435897435681e-01 2.682829371509788952e-01 9.538410542493995781e-01 -1.348862565377411393e-01
1.037948717948717903e+00 6.910256983366702688e-02 9.967911366257866668e-01 -4.018520302089051421e-02
1.132307692307692459e+00 -1.518249171809729070e-01 9.873751442997023009e-01 4.496775268145077054e-02
1.226666666666666794e+00 -3.771646728776957280e-01 9.182203366506074271e-01 1.208345144743419586e-01
1.321025641025641129e+00 -5.871478952574953336e-01 7.872737610023516908e-01 1.882561463101621035e-01
1.415384615384615463e+00 -7.613720030365587199e-01 5.988421374974592926e-01 2.483627713116395852e-01
1.509743589743589798e+00 -8.809774131136824948e-01 3.639566665806656665e-01 3.023210580224649502e-01
1.604102564102564132e+00 -9.309748907329632450e-01 9.992588656946810310e-02 3.511191469336259474e-01
1.698461538461538467e+00 -9.024030608295591227e-01 -1.709877163926816213e-01 3.954951715668666989e-01
1.792820512820512802e+00 -7.940104627996646958e-01 -4.236931085325981172e-01 4.359087479095055118e-01
1.887179487179487136e+00 -6.131712748326223483e-01 -6.329860430333472676e-01 4.725833002485739232e-01
1.981538461538461693e+00 -3.757792604522792179e-01 -7.766060400131927777e-01 5.056270898748977949e-01
2.075897435897435805e+00 -1.050442618951123452e-01 -8.382046745155060652e-01 5.351306225088892088e-01
2.170256410256410362e+00 1.707649455463171595e-01 -8.098306294496443458e-01 5.612487643279535643e-01
2.264615384615384919e+00 4.214618233598755315e-01 -6.935188475609153080e-01 5.842845571622786727e-01
2.358974358974359031e+00 6.185934989580605947e-01 -5.017181695158815513e-01 6.046554115989964950e-01
2.453333333333333588e+00 7.391171619010521443e-01 -2.563339698973511882e-01 6.228854112152409916e-01
2.547692307692307701e+00 7.686457157148639530e-01 1.355309803564158644e-02 6.395216050704889410e-01
2.642051282051282257e+00 7.037225877642134808e-01 2.750788357825980079e-01 6.550528536104339716e-01
2.736410256410256370e+00 5.527441410310383052e-01 4.957472918292185615e-01 6.698484020751440671e-01
2.830769230769230926e+00 3.353119060048856959e-01 6.477301232908887485e-01 6.841054045996838306e-01
2.925128205128205039e+00 8.000261355407495278e-02 7.117534445908368923e-01 6.978506350027804395e-01
3.019487179487179596e+00 -1.792375048145423699e-01 6.800022936674253726e-01 7.109570501931878894e-01
3.113846153846154152e+00 -4.076046693752672923e-01 5.574839467782090052e-01 7.232284866070172180e-01
3.208205128205128265e+00 -5.742463745013388632e-01 3.616722593177525424e-01 7.344548423988139785e-01
3.302564102564102821e+00 -6.567032992127225244e-01 1.203244600823671906e-01 7.444814687520772134e-01
3.396923076923076934e+00 -6.442529775750489573e-01 -1.322813637917242546e-01 7.532793771383626824e-01
3.491282051282051491e+00 -5.396683964639268360e-01 -3.601445554339472999e-01 7.609495146192334358e-01
3.585641025641025603e+00 -3.590270482985107314e-01 -5.307666415048875042e-01 7.677087294545188456e-01
3.680000000000000160e+00 -1.295184897415369296e-01 -6.199575748188961288e-01 7.738657217689848267e-01
