0.000000000000000000e+00 8.999541035061370065e-10 -2.296736368729605089e-09 -1.000000000000000000e+00
9.435897435897436236e-02 3.201859600713020254e-02 6.303457557883261619e-02 -9.974973503445808687e-01
1.887179487179487247e-01 6.078038996432239688e-02 1.270696695745718863e-01 -9.900293349873482418e-01
2.830769230769231148e-01 8.302958470369758981e-02 1.928181321312232299e-01 -9.777145817418878559e-01
3.774358974358974494e-01 9.549877119054396568e-02 2.604796762382456388e-01 -9.607436589866503729e-01
4.717948717948717841e-01 9.498520821574810147e-02 3.294753867986213725e-01 -9.393728248767559963e-01
5.661538461538462297e-01 7.849130409198429303e-02 3.982329454455191264e-01 -9.139182904147689079e-01
6.605128205128205643e-01 4.345970221516684551e-02 4.640621875692743092e-01 -8.847338392281841601e-01
7.548717948717948989e-01 -1.189254180347504297e-02 5.230528145771542459e-01 -8.522149010047818107e-01
8.492307692307692335e-01 -8.820874753783132516e-02 5.701781172301059186e-01 -8.167689180496567891e-01
9.435897435897435681e-01 -1.845063866579962075e-01 5.994878525422705495e-01 -7.788238667242604052e-01
1.037948717948717903e+00 -2.977846243615923094e-01 6.045731943808059228e-01 -7.387894743004932430e-01
1.132307692307692459e+00 -4.226718932527242512e-01 5.791552181362258356e-01 -6.970807861151798734e-01
1.226666666666666794e+00 -5.512778386088361682e-01 5.179412218396866052e-01 -6.540818272390033217e-01
1.321025641025641129e+00 -6.732883431178746658e-01 4.175834493147842497e-01 -6.101638402560614072e-01
1.415384615384615463e+00 -7.764651997649343329e-01 2.777085715106050734e-01 -5.656610322596220541e-01
1.509743589743589798e+00 -8.475287513772905568e-01 1.018379816348536915e-01 -5.208803301266085040e-01
1.604102564102564132e+00 -8.734631309407476785e-01 -1.019055245984614166e-01 -4.760981490007898387e-01
1.698461538461538467e+00 -8.431944818824899102e-01 -3.205907459770039325e-01 -4.315512074018354460e-01
1.792820512820512802e+00 -7.494456883852496087e-01 -5.368521761481870325e-01 -3.874434225363125317e-01
1.887179487179487136e+00 -5.905858511602675165e-01 -7.299945842152345543e-01 -3.439586043696242212e-01
1.981538461538461693e+00 -3.721243267612828198e-01 -8.779337938801698993e-01 -3.012421259393578965e-01
2.075897435897435805e+00 -1.075772543229186473e-01 -9.597496105866785143e-01 -2.594200910995823617e-01
2.170256410256410362e+00 1.816867490881410308e-01 -9.587500456738299315e-01 -2.185842695660140667e-01
2.264615384615384919e+00 4.677751547777401764e-01 -8.655640235523375248e-01 -1.788185373116274179e-01
2.358974358974359031e+00 7.188954424297928636e-01 -6.808309786383039963e-01 -1.401754182775927504e-01
2.453333333333333588e+00 9.031264278552932900e-01 -4.169017349553894025e-01 -1.026944032577276900e-01
2.547692307692307701e+00 9.929571397555063683e-01 -9.807009383427212068e-02 -6.639935085306428175e-02
2.642051282051282257e+00 9.700002365551820827e-01 2.410594456834541655e-01 -3.131071080698587250e-02
2.736410256410256370e+00 8.290909467621048190e-01 5.590993597535129922e-01 2.568110802755760487e-03
2.830769230769230926e+00 5.809540530612682385e-01 8.131667631172796451e-01 3.525170715032752838e-02
2.925128205128205039e+00 2.527049818578181450e-01 9.652336498454785474e-01 6.674349882162294856e-02
3.019487179487179596e+00 -1.143127633039034974e-01 9.886859183764488135e-01 9.707361049914234319e-02
3.113846153846154152e+00 -4.694083860973512490e-01 8.739027649460051617e-01 1.262549871375064081e-01
3.208205128205128265e+00 -7.596800737340332343e-01 6.317129485010344325e-01 1.543230137039044991e-01
3.302564102564102821e+00 -9.385270029464486408e-01 2.937465117338649012e-01 1.813028039907373101e-01
3.396923076923076934e+00 -9.740620328788073268e-01 -9.081801918149184916e-02 2.072341857756127004e-01
3.491282051282051491e+00 -8.559315433242391524e-01 -4.620441750932261504e-01 2.321361941791961758e-01
3.585641025641025603e+00 -5.989553713267157242e-01 -7.587334063051396349e-01 2.560604541936085110e-01
3.680000000000000160e+00 -2.425744611100212889e-01 -9.291310343984688913e-01 2.790416758850747248e-01
