0.000000000000000000e+00 -4.917914296501787588e-09 5.305992684657673851e-10 -1.000000000000000000e+00
9.435897435897436236e-02 -1.722473330381342482e-03 1.931223807566526812e-02 -9.998119358798079892e-01
1.887179487179487247e-01 -3.457601626167379483e-03 3.861497561187446359e-02 -9.992480277529436350e-01
2.830769230769231148e-01 -5.195118621764251501e-03 5.788823434596269274e-02 -9.983093283715749333e-01
3.774358974358974494e-01 -6.936960514131097766e-03 7.712046321571604246e-02 -9.969973543387157244e-01
4.717948717948717841e-01 -8.682391188500213075e-03 9.629787424850728972e-02 -9.953143259159170642e-01
5.661538461538462297e-01 -1.043587763868592672e-02 1.154046072850197224e-01 -9.932633084706257165e-01
6.605128205128205643e-01 -1.219664935177049159e-02 1.344280562333214080e-01 -9.908477822837612470e-01
7.548717948717948989e-01 -1.396684183647040750e-02 1.533572890804025535e-01 -9.880715123905779995e-01
8.492307692307692335e-01 -1.574668285347015362e-02 1.721754680917551295e-01 -9.849397694617596510e-01
9.435897435897435681e-01 -1.753464857804488963e-02 1.908706367647096391e-01 -9.814578387345468391e-01
1.037948717948717903e+00 -1.933552421958846523e-02 2.094311876980086695e-01 -9.776313826532070372e-01
1.132307692307692459e+00 -2.114507168533517889e-02 2.278442258077049698e-01 -9.734670767546955705e-01
1.226666666666666794e+00 -2.296497621013782187e-02 2.460948592277566183e-01 -9.689726694739011492e-01
1.321025641025641129e+00 -2.480021244622170745e-02 2.641763169113935938e-01 -9.641544352472761759e-01
1.415384615384615463e+00 -2.664057762856920919e-02 2.820717936362759359e-01 -9.590222008206796822e-01
1.509743589743589798e+00 -2.849579710904369401e-02 2.997734157996957971e-01 -9.535835214270578231e-01
1.604102564102564132e+00 -3.035862701937376562e-02 3.172713299524622110e-01 -9.478474274688232226e-01
1.698461538461538467e+00 -3.222947999279285325e-02 3.345522835781273296e-01 -9.418244875368591007e-01
1.792820512820512802e+00 -3.410918049870231838e-02 3.516137462544111081e-01 -9.355220560286056086e-01
1.887179487179487136e+00 -3.599320296786726048e-02 3.684379826625869270e-01 -9.289536939723490594e-01
1.981538461538461693e+00 -3.788437881862974366e-02 3.850240646788801735e-01 -9.221269499996751495e-01
2.075897435897435805e+00 -3.977696378086109652e-02 4.013592573989980816e-01 -9.150547806687299168e-01
2.170256410256410362e+00 -4.167077316868994519e-02 4.174430962146573609e-01 -9.077452103028496033e-01
2.264615384615384919e+00 -4.356532213902794548e-02 4.332634916199105679e-01 -9.002117585920763609e-01
2.358974358974359031e+00 -4.545583764364363732e-02 4.488166152922132834e-01 -8.924649354614800911e-01
2.453333333333333588e+00 -4.734538631558848909e-02 4.641003260482203796e-01 -8.845142137966661711e-01
2.547692307692307701e+00 -4.922415906294975996e-02 4.791078756202311051e-01 -8.763723897307303945e-01
2.642051282051282257e+00 -5.109504654127224044e-02 4.938351735243198259e-01 -8.680506343073377540e-01
2.736410256410256370e+00 -5.295597685133066057e-02 5.082836710034708272e-01 -8.595574503935149435e-01
2.830769230769230926e+00 -5.480551393955718220e-02 5.224462041575411719e-01 -8.509064601059955768e-01
2.925128205128205039e+00 -5.663247876465529046e-02 5.363231951905569339e-01 -8.421077891144125305e-01
3.019487179487179596e+00 -5.844699088508749363e-02 5.499153958533611330e-01 -8.331699685890960883e-01
3.113846153846154152e+00 -6.024069680961864626e-02 5.632183601294921127e-01 -8.241062899896633986e-01
3.208205128205128265e+00 -6.201127566674763392e-02 5.762360121188960793e-01 -8.149242661655137221e-01
3.302564102564102821e+00 -6.376079247944635431e-02 5.889653175658119411e-01 -8.056358799769771650e-01
3.396923076923076934e+00 -6.547633180781253781e-02 6.014098425445392193e-01 -7.962497490369321307e-01
3.491282051282051491e+00 -6.717065006028186125e-02 6.135692014928980642e-01 -7.867753261017419453e-01
3.585641025641025603e+00 -6.883281081698605641e-02 6.254468454440951231e-01 -7.772210926286113875e-01
3.680000000000000160e+00 -7.046362888282364789e-02 6.370442016828190557e-01 -7.675960936777020960e-01
