0.000000000000000000e+00 -2.209373489204878662e-09 3.155433074314244813e-10 -1.000000000000000000e+00
9.435897435897436236e-02 5.534208877417939182e-03 -3.277136008825312381e-03 -9.999792364998956185e-01
1.887179487179487247e-01 1.115188249597181235e-02 -6.509713280883016803e-03 -9.999164778135368747e-01
2.830769230769231148e-01 1.688393929727553117e-02 -9.686990027039273088e-03 -9.998103153350839101e-01
3.774358974358974494e-01 2.278141149639058977e-02 -1.278551917415832358e-02 -9.996584314699639151e-01
4.717948717948717841e-01 2.888667665358874564e-02 -1.578691268207649268e-02 -9.994576753603066077e-01
5.661538461538462297e-01 3.523306152109882683e-02 -1.867540430376045044e-02 -9.992042036225906587e-01
6.605128205128205643e-01 4.184477709346472174e-02 -2.144215400115289175e-02 -9.988935350059349183e-01
7.548717948717948989e-01 4.872910411784380641e-02 -2.408040704350128056e-02 -9.985211650223189128e-01
8.492307692307692335e-01 5.588434525017655502e-02 -2.658638911803542365e-02 -9.980825977466137866e-01
9.435897435897435681e-01 6.329497394332303517e-02 -2.895853002600545789e-02 -9.975739442666375911e-01
1.037948717948717903e+00 7.093333043164659624e-02 -3.119296384812421039e-02 -9.969924469263528044e-01
1.132307692307692459e+00 7.876177041873402840e-02 -3.328413310108684769e-02 -9.963368293743072313e-01
1.226666666666666794e+00 8.673872533170379207e-02 -3.521910981715585531e-02 -9.956074446313598614e-01
1.321025641025641129e+00 9.481196592618590380e-02 -3.698139689979126205e-02 -9.948070616509333552e-01
1.415384615384615463e+00 1.029376788752547484e-01 -3.854711862623740742e-02 -9.939395467295968345e-01
1.509743589743589798e+00 1.110706050459510930e-01 -3.988432024463783171e-02 -9.930107132679945048e-01
1.604102564102564132e+00 1.191728493495269880e-01 -4.095874270298233838e-02 -9.920271041486340424e-01
1.698461538461538467e+00 1.272180309892662897e-01 -4.172786288949532907e-02 -9.909953426566887602e-01
1.792820512820512802e+00 1.351922555321580788e-01 -4.215537500817393562e-02 -9.899208254081899305e-01
1.887179487179487136e+00 1.430952884486291210e-01 -4.220260340637606300e-02 -9.888072576754325382e-01
1.981538461538461693e+00 1.509418895051326259e-01 -4.184115646254369519e-02 -9.876552194198930934e-01
2.075897435897435805e+00 1.587516137205777222e-01 -4.105571812144137578e-02 -9.864629631145438449e-01
2.170256410256410362e+00 1.665610202261551542e-01 -3.984146185393425132e-02 -9.852242208194318396e-01
2.264615384615384919e+00 1.744088155486701042e-01 -3.821570564956502936e-02 -9.839297031276451611e-01
2.358974358974359031e+00 1.823261099739869329e-01 -3.620915274674018497e-02 -9.825693234397202547e-01
2.453333333333333588e+00 1.903465739582343164e-01 -3.387336364163631708e-02 -9.811304783180089251e-01
2.547692307692307701e+00 1.984865113112111168e-01 -3.127214638887169940e-02 -9.796025936185096539e-01
2.642051282051282257e+00 2.067484935652822986e-01 -2.848306217565324538e-02 -9.779773518190912895e-01
2.736410256410256370e+00 2.151129581610584651e-01 -2.558619965464152546e-02 -9.762517727277895130e-01
2.830769230769230926e+00 2.235440825330048398e-01 -2.266106290849408123e-02 -9.744280960959215143e-01
2.925128205128205039e+00 2.319808268064520451e-01 -1.977936549811626366e-02 -9.725168880638559443e-01
3.019487179487179596e+00 2.403526435754577695e-01 -1.699342219650998298e-02 -9.705344322687380343e-01
3.113846153846154152e+00 2.485677297165610755e-01 -1.433846342022125631e-02 -9.685058469972239736e-01
3.208205128205128265e+00 2.565380227157411097e-01 -1.181771449522796280e-02 -9.664592600334773742e-01
3.302564102564102821e+00 2.641748603333403667e-01 -9.409215350757754726e-03 -9.644261838292849109e-01
3.396923076923076934e+00 2.713990988884021904e-01 -7.061479075911071546e-03 -9.624381873431691048e-01
3.491282051282051491e+00 2.781566832710977710e-01 -4.696694368291495780e-03 -9.605213446176245062e-01
3.585641025641025603e+00 2.844180054891977116e-01 -2.224059817279425144e-03 -9.586948254644360734e-01
3.680000000000000160e+00 2.901829092343491956e-01 4.630800840658144679e-04 -9.569680531622760666e-01
