0.000000000000000000e+00 1.673556405097365331e-09 -4.459748077515592145e-09 -1.000000000000000000e+00
9.435897435897436236e-02 -2.630022677873326553e-01 4.930176948661692260e-02 -9.635329558860464827e-01
1.887179487179487247e-01 -5.071015814354495888e-01 8.760985066953846934e-02 -8.574178072054480237e-01
2.830769230769231148e-01 -7.149445895323003342e-01 1.059076044778911874e-01 -6.911054513228838125e-01
3.774358974358974494e-01 -8.722138121899359886e-01 9.870562021429074573e-02 -4.790468826096512811e-01
4.717948717948717841e-01 -9.688392950738586862e-01 6.508497262331280897e-02 -2.389516529625061447e-01
5.661538461538462297e-01 -9.998982697223998128e-01 8.954671028351790518e-03 1.030091823932098409e-02
6.605128205128205643e-01 -9.660758253229863035e-01 -6.152124864357921830e-02 2.507911894402468089e-01
7.548717948717948989e-01 -8.736254699884659081e-01 -1.352072875160384435e-01 4.674217212911168096e-01
8.492307692307692335e-01 -7.338053935705944886e-01 -1.997994575598729394e-01 6.493057657400170823e-01
9.435897435897435681e-01 -5.617838857916129802e-01 -2.438655094947309865e-01 7.905185235016162215e-01
1.037948717948717903e+00 -3.751171170208786876e-01 -2.587592320471980845e-01 8.901261652207057562e-01
1.132307692307692459e+00 -1.919206392616417678e-01 -2.401177209525832690e-01 9.515807927712413017e-01
1.226666666666666794e+00 -2.893492768466475462e-02 -1.886730267880905865e-01 9.816123962282784499e-01
1.321025641025641129e+00 1.003004405237045288e-01 -1.102387018483255848e-01 9.888303275888716826e-01
1.415384615384615463e+00 1.868975659790786947e-01 -1.485757571781834430e-02 9.822658673722713951e-01
1.509743589743589798e+00 2.275200747455631278e-01 8.469329654748627978e-02 9.700817571488188351e-01
1.604102564102564132e+00 2.246274025155357845e-01 1.749022745616047869e-01 9.586178071877399232e-01
1.698461538461538467e+00 1.859136887325057164e-01 2.436334996340362435e-01 9.518796595080797340e-01
1.792820512820512802e+00 1.230948222938633985e-01 2.820254617060798941e-01 9.514753577144569041e-01
1.887179487179487136e+00 5.012201372729269133e-02 2.858552384799625257e-01 9.569591762652245315e-01
1.981538461538461693e+00 -1.887047773737689227e-02 2.561410036744822261e-01 9.664535438010273261e-01
2.075897435897435805e+00 -7.161094579019457174e-02 1.989110551864379517e-01 9.773963573869773880e-01
2.170256410256410362e+00 -9.941977899506543315e-02 1.241498495376407440e-01 9.872692454862925793e-01
2.264615384615384919e+00 -9.836615162030720727e-02 4.410750987467634138e-02 9.941716639136436440e-01
2.358974358974359031e+00 -6.964877596917673497e-02 -2.871971910817874840e-02 9.971576026484089139e-01
2.453333333333333588e+00 -1.915376599916664840e-02 -8.364695694443492757e-02 9.963108212471829539e-01
2.547692307692307701e+00 4.370933325888169685e-02 -1.134575877211711631e-01 9.925801602874003704e-01
2.642051282051282257e+00 1.077027283959350046e-01 -1.155097035185548432e-01 9.874490800064549267e-01
2.736410256410256370e+00 1.617634011707871911e-01 -9.202953973017857781e-02 9.825277927229110198e-01
2.830769230769230926e+00 1.968941396797250221e-01 -4.954689155414060409e-02 9.791707126606509215e-01
2.925128205128205039e+00 2.076715853500867848e-01 2.387764885745408128e-03 9.781943716700443048e-01
3.019487179487179596e+00 1.930821150553296006e-01 5.296191886475305755e-02 9.797509110434081681e-01
3.113846153846154152e+00 1.565871226738498601e-01 9.206170434551959325e-02 9.833630414879009907e-01
3.208205128205128265e+00 1.054041751859170345e-01 1.120394520453760201e-01 9.880967700060919734e-01
3.302564102564102821e+00 4.911270363707323505e-02 1.090216894328809583e-01 9.928246281973930332e-01
3.396923076923076934e+00 -2.112026252125864811e-03 8.350174874650036216e-02 9.965048718353574086e-01
3.491282051282051491e+00 -3.936087181410909824e-02 4.013591427689884583e-02 9.984183069807887057e-01
3.585641025641025603e+00 -5.656770677028440109e-02 -1.323000697343884244e-02 9.983107355796005944e-01
3.680000000000000160e+00 -5.153447830917459727e-02 -6.705927673641437492e-02 9.964166800588043493e-01
