0.000000000000000000e+00 8.812492245839094748e-12 9.247710008448107054e-12 -1.000000000000000000e+00
1.025641025641025605e-01 2.312312123918663087e-01 2.234033142284180817e-01 -9.432494223354080942e-01
2.051282051282051211e-01 4.523178284182676201e-01 3.845033560939881134e-01 -7.859042592246554548e-01
3.076923076923077094e-01 6.458828841392272313e-01 4.394831061691288898e-01 -5.620306472417301302e-01
4.102564102564102422e-01 7.862808841339369303e-01 3.755867902272039260e-01 -3.152299801078317087e-01
5.128205128205127750e-01 8.466473597612769186e-01 2.137733178350780527e-01 -8.551118251910926060e-02
6.153846153846154188e-01 8.104022299319206812e-01 8.375641121692034563e-04 1.001200027613950300e-01
7.179487179487179516e-01 6.807516277436312935e-01 -2.059803262386552813e-01 2.307823779787639695e-01
8.205128205128204844e-01 4.830487168033696377e-01 -3.564231900484045035e-01 3.094608455523285007e-01
9.230769230769230171e-01 2.586605342729781376e-01 -4.209688690702391711e-01 3.478505074631544902e-01
1.025641025641025550e+00 5.293078725048806776e-02 -3.968789123778445616e-01 3.609582379077831971e-01
1.128205128205128194e+00 -9.796746516733166599e-02 -3.054640726136984008e-01 3.630575916447040252e-01
1.230769230769230838e+00 -1.765027686253641259e-01 -1.823461603147114030e-01 3.654214010963988679e-01
1.333333333333333259e+00 -1.864476735355130033e-01 -6.446736492836890875e-02 3.755621034576538397e-01
1.435897435897435903e+00 -1.482499036859541153e-01 2.138227486941002981e-02 3.974102526282815573e-01
1.538461538461538325e+00 -8.948121746196967263e-02 6.473876498084829567e-02 4.319420642080006312e-01
1.641025641025640969e+00 -3.450394835953534550e-02 7.075974240922748570e-02 4.779489922863416340e-01
1.743589743589743613e+00 2.477875758866522615e-03 5.398218784543624971e-02 5.327815565831252043e-01
1.846153846153846034e+00 1.878207596658231643e-02 3.026925753054388046e-02 5.930121114951679706e-01
1.948717948717948678e+00 1.979904061124915238e-02 1.069532256181689872e-02 6.550157331450183751e-01
2.051282051282051100e+00 1.358554042788688229e-02 -4.886257570262918237e-04 7.154402667798841486e-01
2.153846153846153744e+00 6.564524192745634090e-03 -4.295452138337642507e-03 7.715517035938964652e-01
2.256410256410256387e+00 1.817738357846801836e-03 -3.916654671210765236e-03 8.214340065444276640e-01
2.358974358974359031e+00 -2.968504909442706754e-04 -2.242877371964632598e-03 8.640367137635323047e-01
2.461538461538461675e+00 -7.383105640518735106e-04 -8.543804300461773412e-04 8.990943845406852430e-01
2.564102564102563875e+00 -5.145763716358821033e-04 -1.412598123685346622e-04 9.269597710222434728e-01
2.666666666666666519e+00 -2.227859194122228169e-04 8.036888043650618554e-05 9.483998614476832900e-01
2.769230769230769162e+00 -5.810776440963040632e-05 8.260365378924214037e-05 9.643990751130768757e-01
2.871794871794871806e+00 3.507792927180040211e-06 3.975352850198521425e-05 9.759976873249822660e-01
2.974358974358974450e+00 7.283140430172583074e-06 1.162283143037672701e-05 9.841779993602345344e-01
3.076923076923076650e+00 2.924546851132786739e-06 2.054235601788294211e-06 9.897978285688974198e-01
3.179487179487179294e+00 5.374744736369851688e-07 7.910790967792563521e-08 9.935623901953209991e-01
3.282051282051281937e+00 6.796564530858110386e-07 7.356895099834011864e-07 9.960233949706227552e-01
3.384615384615384581e+00 -9.902134602243986967e-09 -3.642536609925337635e-07 9.975946008860863135e-01
3.487179487179487225e+00 3.804276661177210390e-07 -2.822981216527942462e-06 9.985748392721494060e-01
3.589743589743589425e+00 5.201189435454123550e-07 -1.375959230485553332e-06 9.991727354328522326e-01
3.692307692307692069e+00 1.181440533017313563e-06 1.775376467904517528e-06 9.995294376768174560e-01
3.794871794871794712e+00 2.613227808566612417e-06 3.213688713068502376e-06 9.997376590649188488e-01
3.897435897435897356e+00 2.226753153949996373e-06 1.226087951916462353e-06 9.998566260746197809e-01
4.000000000000000000e+00 1.139574580082265716e-06 4.021306517865779235e-08 9.999231750999627577e-01
