0.000000000000000000e+00 -9.543573492532508978e-12 -8.029700670697637735e-12 -1.000000000000000000e+00
1.000000000000000056e-01 -1.659833767448306574e-01 -1.457969808488795982e-01 -9.752910817651588848e-01
2.000000000000000111e-01 -3.073745322050185358e-01 -3.000547031928387787e-01 -9.030436984514484955e-01
3.000000000000000444e-01 -4.006624260634999990e-01 -4.663623410363845201e-01 -7.886542611949232118e-01
4.000000000000000222e-01 -4.254217182120672014e-01 -6.395072080705792583e-01 -6.403487705717574308e-01
5.000000000000000000e-01 -3.677100227845606639e-01 -8.034909551882726264e-01 -4.681785972509486249e-01
6.000000000000000888e-01 -2.245775771433184964e-01 -9.324923635511493947e-01 -2.828823477436492873e-01
7.000000000000000666e-01 -8.472607529545650440e-03 -9.954634081561660741e-01 -9.476463638725489413e-02
8.000000000000000444e-01 2.504894374661652545e-01 -9.641830672278571823e-01 8.721013271370053888e-02
9.000000000000000222e-01 5.065564694699276060e-01 -8.233181062943649708e-01 2.560223172462711694e-01
1.000000000000000000e+00 7.060454724441231900e-01 -5.796111247388372467e-01 4.068786607633537167e-01
1.100000000000000089e+00 8.002677564708098323e-01 -2.664185530872332230e-01 5.372079221135104277e-01
1.200000000000000178e+00 7.607271647445660312e-01 5.975793106000859556e-02 6.463148450639122355e-01
1.300000000000000044e+00 5.912615627156844189e-01 3.318268157888445979e-01 7.350514269052996763e-01
1.400000000000000133e+00 3.316661671086723606e-01 4.914418139806232544e-01 8.052840715739177924e-01
1.500000000000000000e+00 4.896055106369208432e-02 5.088068732800521410e-01 8.594873279426119561e-01
1.600000000000000089e+00 -1.826518023999299523e-01 3.949965215332028601e-01 9.003422420399928017e-01
1.700000000000000178e+00 -3.068538224526656810e-01 2.002069392245392487e-01 9.304611863280412010e-01
1.800000000000000044e+00 -3.054086820550847015e-01 -3.431793531543436693e-03 9.522152499042968454e-01
1.900000000000000133e+00 -2.040078978443207736e-01 -1.485821579541394544e-01 9.676280814436875044e-01
2.000000000000000000e+00 -6.014860842181882217e-02 -1.979697041649160216e-01 9.783610144271963627e-01
2.100000000000000089e+00 6.230252640570876216e-02 -1.565182025299437785e-01 9.857080754385564303e-01
2.200000000000000178e+00 1.201648529008746552e-01 -6.435520137260887508e-02 9.906658428689150142e-01
2.300000000000000266e+00 1.067141724633064032e-01 2.549697934832191940e-02 9.939627679064800825e-01
2.400000000000000355e+00 4.854316874739650345e-02 7.327847684190758049e-02 9.961294267830718141e-01
2.500000000000000000e+00 -1.326910567604206587e-02 6.887847153294415770e-02 9.975368100142582017e-01
2.600000000000000089e+00 -4.660166402868636676e-02 3.065016576421085090e-02 9.984432177469149128e-01
2.700000000000000178e+00 -4.294528948860714540e-02 -1.048759172681078787e-02 9.990223760848297996e-01
2.800000000000000266e+00 -1.637275503835335794e-02 -3.085470509610456491e-02 9.993897735829774254e-01
2.900000000000000355e+00 1.014826774915410929e-02 -2.558568452753615108e-02 9.996211233853083966e-01
3.000000000000000000e+00 2.064642381805551277e-02 -6.519251995275484636e-03 9.997655869658413907e-01
3.100000000000000089e+00 1.402908338610844678e-02 9.650077538391125045e-03 9.998550200890524708e-01
3.200000000000000178e+00 5.468916516980935807e-04 1.339108052585689240e-02 9.999101859180239416e-01
3.300000000000000266e+00 -8.291818361853442454e-03 6.523578110752610570e-03 9.999443424407170600e-01
3.400000000000000355e+00 -7.935579818419974049e-03 -2.397121525398069122e-03 9.999656393115786690e-01
3.500000000000000000e+00 -1.907601583827579252e-03 -6.195302960645475247e-03 9.999789894225259435e-01
3.600000000000000089e+00 3.263150539269928877e-03 -3.862624460679235042e-03 9.999872159636223889e-01
3.700000000000000178e+00 3.911536186243464407e-03 6.158947969233977918e-04 9.999921602371670826e-01
3.800000000000000266e+00 1.142297064929021161e-03 2.924217150653966955e-03 9.999950720248940161e-01
3.900000000000000355e+00 -1.572192857423559487e-03 1.961008466751490518e-03 9.999968412921536043e-01
4.000000000000000000e+00 -1.975824492245593401e-03 -2.991041187513053534e-04 9.999980033168085480e-01
4.100000000000000533e+00 -5.497428529528429952e-04 -1.455657280067736321e-03 9.999987894201705085e-01
4.200000000000000178e+00 8.051535681062389933e-04 -8.835326664389054957e-04 9.999992855408226244e-01
4.299999999999999822e+00 8.885383941836791019e-04 3.002137750007757063e-04 9.999995601890505625e-01
4.400000000000000355e+00 7.294627905726731388e-05 7.857711452472680930e-04 9.999996886262487727e-01
4.500000000000000000e+00 -5.755961966717334198e-04 3.602713323925947381e-04 9.999997694548043992e-01
4.600000000000000533e+00 -4.819375771947119924e-04 -2.617560821251031376e-04 9.999998496092116218e-01
4.700000000000000178e+00 1.432376863521776520e-05 -3.976602608647757282e-04 9.999999208397424288e-01
4.800000000000000711e+00 2.816773330369079270e-04 -7.244343822117393190e-05 9.999999577124013550e-01
4.900000000000000355e+00 1.194608628049692871e-04 2.426101473184037694e-04 9.999999634434033613e-01
5.000000000000000000e+00 -1.752551902679817916e-04 2.175306729275936250e-04 9.999999609898851949e-01
5.100000000000000533e+00 -2.556470888968367374e-04 -2.202584405169816004e-05 9.999999670882965264e-01
5.200000000000000178e+00 -9.203630835960796000e-05 -1.588067460462410307e-04 9.999999831645310922e-01
5.300000000000000711e+00 7.456082677767123239e-05 -7.028268190729831672e-05 9.999999947583583237e-01
5.400000000000000355e+00 5.480741413174245434e-05 9.734497914458687046e-05 9.999999937648549331e-01
5.500000000000000000e+00 -9.080603354353640857e-05 1.351377166575309170e-04 9.999999867524320685e-01
5.600000000000000533e+00 -1.775422123990425699e-04 2.441197960919909790e-05 9.999999839505813171e-01
5.700000000000000178e+00 -1.033822648689016805e-04 -8.020724774607799253e-05 9.999999914503583387e-01
5.800000000000000711e+00 6.774893717231134224e-06 -5.879814832554914439e-05 9.999999982590846992e-01
5.900000000000000355e+00 2.199748792714004654e-05 5.301649378309075927e-05 9.999999983632525957e-01
6.000000000000000000e+00 -7.418073798624875558e-05 1.038734023849596756e-04 9.999999918668486254e-01
6.100000000000000533e+00 -1.494154702004441915e-04 3.327615293998023783e-05 9.999999882983406918e-01
6.200000000000000178e+00 -1.161580340733126476e-04 -5.592048650580219000e-05 9.999999917043895792e-01
6.300000000000000711e+00 -1.274741563972711235e-05 -5.511144211940861013e-05 9.999999984160499178e-01
6.400000000000000355e+00 1.655110925168200257e-05 3.878964908250596196e-05 9.999999991284636014e-01
6.500000000000000000e+00 -7.286727509485223112e-05 1.022360695380269903e-04 9.999999921355249288e-01
6.600000000000000533e+00 -1.473049049796464624e-04 4.543961760131086879e-05 9.999999881317684913e-01
6.700000000000000178e+00 -1.216481156583859021e-04 -5.224967287435215751e-05 9.999999912514402345e-01
6.800000000000000711e+00 -1.865242320983241669e-05 -5.588331287769445600e-05 9.999999982751907046e-01
6.900000000000000355e+00 6.212552264621847631e-06 4.452104919753551365e-05 9.999999990044634579e-01
7.000000000000000000e+00 -8.191492932128366605e-05 1.004644925430823484e-04 9.999999916162070068e-01
7.100000000000000533e+00 -1.613629143433344354e-04 3.540985393798348199e-05 9.999999863751815043e-01
7.200000000000000178e+00 -1.167774775154653712e-04 -6.108500669901936601e-05 9.999999913372500382e-01
7.300000000000000711e+00 -1.405175079084559414e-05 -4.203531683375751944e-05 9.999999990412704598e-01
7.400000000000000355e+00 2.513246720360837725e-06 6.705873290739974846e-05 9.999999977676564678e-01
7.500000000000000000e+00 -1.097390192787671279e-04 1.062133710590901865e-04 9.999999883591811356e-01
7.600000000000000533e+00 -1.741801129045577896e-04 1.111305943867490567e-05 9.999999847909218920e-01
7.700000000000000178e+00 -1.015503687314197212e-04 -7.353288825175273631e-05 9.999999921628632826e-01
7.800000000000000711e+00 -1.399533653225389435e-06 -2.101484164776624373e-05 9.999999998069952767e-01
7.900000000000000355e+00 -2.579620447446896102e-05 9.060691717184910854e-05 9.999999955901622828e-01
8.000000000000000000e+00 -1.415133918757950908e-04 9.610759036942327638e-05 9.999999853944836481e-01
