1.000000000000000056e-01 9.890962918816903482e-01 0.000000000000000000e+00 1.090370811831460791e-02 0.000000000000000000e+00 0.000000000000000000e+00 0.000000000000000000e+00 2.666042397527029761e-02 1.003695109577198707e-01 0.000000000000000000e+00 0.000000000000000000e+00 0.000000000000000000e+00 0.000000000000000000e+00 0.000000000000000000e+00 0.000000000000000000e+00 0.000000000000000000e+00 0.000000000000000000e+00
2.000000000000000111e-01 9.571104511665673442e-01 0.000000000000000000e+00 4.288954883343250313e-02 0.000000000000000000e+00 0.000000000000000000e+00 0.000000000000000000e+00 5.009066871178148583e-02 1.963185167882346982e-01 0.000000000000000000e+00 0.000000000000000000e+00 0.000000000000000000e+00 0.000000000000000000e+00 0.000000000000000000e+00 0.000000000000000000e+00 0.000000000000000000e+00 0.000000000000000000e+00
2.999999999999999889e-01 9.061383173071096975e-01 0.000000000000000000e+00 9.386168269289464627e-02 0.000000000000000000e+00 0.000000000000000000e+00 0.000000000000000000e+00 6.748544977299622549e-02 2.837206030161278369e-01 0.000000000000000000e+00 0.000000000000000000e+00 0.000000000000000000e+00 0.000000000000000000e+00 0.000000000000000000e+00 0.000000000000000000e+00 0.000000000000000000e+00 0.000000000000000000e+00
4.000000000000000222e-01 8.394180848430822239e-01 0.000000000000000000e+00 1.605819151569174708e-01 0.000000000000000000e+00 0.000000000000000000e+00 0.000000000000000000e+00 7.680782757349775836e-02 3.590207797710608939e-01 0.000000000000000000e+00 0.000000000000000000e+00 0.000000000000000000e+00 0.000000000000000000e+00 0.000000000000000000e+00 0.000000000000000000e+00 0.000000000000000000e+00 0.000000000000000000e+00
5.000000000000000000e-01 7.609746490341056102e-01 0.000000000000000000e+00 2.390253509658972486e-01 0.000000000000000000e+00 0.000000000000000000e+00 0.000000000000000000e+00 7.704212984465937109e-02 4.194719820977997338e-01 0.000000000000000000e+00 0.000000000000000000e+00 0.000000000000000000e+00 0.000000000000000000e+00 0.000000000000000000e+00 0.000000000000000000e+00 0.000000000000000000e+00 0.000000000000000000e+00
5.999999999999999778e-01 6.752096188572070945e-01 0.000000000000000000e+00 3.247903811427919618e-01 0.000000000000000000e+00 0.000000000000000000e+00 0.000000000000000000e+00 6.825672033236525327e-02 4.632953807631570164e-01 0.000000000000000000e+00 0.000000000000000000e+00 0.000000000000000000e+00 0.000000000000000000e+00 0.000000000000000000e+00 0.000000000000000000e+00 0.000000000000000000e+00 0.000000000000000000e+00
6.999999999999999556e-01 5.865077292895857219e-01 0.000000000000000000e+00 4.134922707104174422e-01 0.000000000000000000e+00 0.000000000000000000e+00 0.000000000000000000e+00 5.152516226579641201e-02 4.897566435414348329e-01 0.000000000000000000e+00 0.000000000000000000e+00 0.000000000000000000e+00 0.000000000000000000e+00 0.000000000000000000e+00 0.000000000000000000e+00 0.000000000000000000e+00 0.000000000000000000e+00
7.999999999999999334e-01 4.988653396261577000e-01 0.000000000000000000e+00 5.011346603738431327e-01 0.000000000000000000e+00 0.000000000000000000e+00 0.000000000000000000e+00 2.872432516987742657e-02 4.991729415174914752e-01 0.000000000000000000e+00 0.000000000000000000e+00 0.000000000000000000e+00 0.000000000000000000e+00 0.000000000000000000e+00 0.000000000000000000e+00 0.000000000000000000e+00 0.000000000000000000e+00
8.999999999999999112e-01 4.156190198300199201e-01 0.000000000000000000e+00 5.843809801699846318e-01 0.000000000000000000e+00 0.000000000000000000e+00 0.000000000000000000e+00 2.219033009474083440e-03 4.928234220055603410e-01 0.000000000000000000e+00 0.000000000000000000e+00 0.000000000000000000e+00 0.000000000000000000e+00 0.000000000000000000e+00 0.000000000000000000e+00 0.000000000000000000e+00 0.000000000000000000e+00
9.999999999999998890e-01 3.392674455077619444e-01 0.000000000000000000e+00 6.607325544922366678e-01 0.000000000000000000e+00 0.000000000000000000e+00 0.000000000000000000e+00 -2.545934092782403679e-02 4.727757058962149816e-01 0.000000000000000000e+00 0.000000000000000000e+00 0.000000000000000000e+00 0.000000000000000000e+00 0.000000000000000000e+00 0.000000000000000000e+00 0.000000000000000000e+00 0.000000000000000000e+00
1.099999999999999867e+00 2.714442357686568386e-01 0.000000000000000000e+00 7.285557642313434945e-01 0.000000000000000000e+00 0.000000000000000000e+00 0.000000000000000000e+00 -5.192655328943376891e-02 4.416626484895468385e-01 0.000000000000000000e+00 0.000000000000000000e+00 0.000000000000000000e+00 0.000000000000000000e+00 0.000000000000000000e+00 0.000000000000000000e+00 0.000000000000000000e+00 0.000000000000000000e+00
1.199999999999999956e+00 2.129548352822621393e-01 0.000000000000000000e+00 7.870451647177413301e-01 0.000000000000000000e+00 0.000000000000000000e+00 0.000000000000000000e+00 -7.522848843995964818e-02 4.024248342252234045e-01 0.000000000000000000e+00 0.000000000000000000e+00 0.000000000000000000e+00 0.000000000000000000e+00 0.000000000000000000e+00 0.000000000000000000e+00 0.000000000000000000e+00 0.000000000000000000e+00
1.300000000000000044e+00 1.638844942567391216e-01 0.000000000000000000e+00 8.361155057432633209e-01 0.000000000000000000e+00 0.000000000000000000e+00 0.000000000000000000e+00 -9.393632032546188337e-02 3.580535356506847622e-01 0.000000000000000000e+00 0.000000000000000000e+00 0.000000000000000000e+00 0.000000000000000000e+00 0.000000000000000000e+00 0.000000000000000000e+00 0.000000000000000000e+00 0.000000000000000000e+00
1.399999999999999911e+00 1.237835962510420440e-01 0.000000000000000000e+00 8.762164037489595936e-01 0.000000000000000000e+00 0.000000000000000000e+00 0.000000000000000000e+00 -1.072665966117331837e-01 3.113761298631149699e-01 0.000000000000000000e+00 0.000000000000000000e+00 0.000000000000000000e+00 0.000000000000000000e+00 0.000000000000000000e+00 0.000000000000000000e+00 0.000000000000000000e+00 0.000000000000000000e+00
1.500000000000000000e+00 9.180405236438508865e-02 0.000000000000000000e+00 9.081959476356161742e-01 0.000000000000000000e+00 0.000000000000000000e+00 0.000000000000000000e+00 -1.150285324645169693e-01 2.648480787854586849e-01 0.000000000000000000e+00 0.000000000000000000e+00 0.000000000000000000e+00 0.000000000000000000e+00 0.000000000000000000e+00 0.000000000000000000e+00 0.000000000000000000e+00 0.000000000000000000e+00
1.599999999999999867e+00 6.689303852838703046e-02 0.000000000000000000e+00 9.331069614716164251e-01 0.000000000000000000e+00 0.000000000000000000e+00 0.000000000000000000e+00 -1.175491124127861498e-01 2.204553612197471257e-01 0.000000000000000000e+00 0.000000000000000000e+00 0.000000000000000000e+00 0.000000000000000000e+00 0.000000000000000000e+00 0.000000000000000000e+00 0.000000000000000000e+00 0.000000000000000000e+00
1.699999999999999956e+00 4.791210583202282214e-02 0.000000000000000000e+00 9.520878941679788987e-01 0.000000000000000000e+00 0.000000000000000000e+00 0.000000000000000000e+00 -1.155028863238993231e-01 1.796541675330599330e-01 0.000000000000000000e+00 0.000000000000000000e+00 0.000000000000000000e+00 0.000000000000000000e+00 0.000000000000000000e+00 0.000000000000000000e+00 0.000000000000000000e+00 0.000000000000000000e+00
1.800000000000000044e+00 3.376020097135665893e-02 0.000000000000000000e+00 9.662397990286367699e-01 0.000000000000000000e+00 0.000000000000000000e+00 0.000000000000000000e+00 -1.098231789770538619e-01 1.433852129390114916e-01 0.000000000000000000e+00 0.000000000000000000e+00 0.000000000000000000e+00 0.000000000000000000e+00 0.000000000000000000e+00 0.000000000000000000e+00 0.000000000000000000e+00 0.000000000000000000e+00
1.899999999999999911e+00 2.341283935720091594e-02 0.000000000000000000e+00 9.765871606427981577e-01 0.000000000000000000e+00 0.000000000000000000e+00 0.000000000000000000e+00 -1.014908115853199039e-01 1.120905590864382240e-01 0.000000000000000000e+00 0.000000000000000000e+00 0.000000000000000000e+00 0.000000000000000000e+00 0.000000000000000000e+00 0.000000000000000000e+00 0.000000000000000000e+00 0.000000000000000000e+00
2.000000000000000000e+00 1.599301911577102539e-02 0.000000000000000000e+00 9.840069808842246690e-01 0.000000000000000000e+00 0.000000000000000000e+00 0.000000000000000000e+00 -9.148205458172664617e-02 8.583866304503180722e-02 0.000000000000000000e+00 0.000000000000000000e+00 0.000000000000000000e+00 0.000000000000000000e+00 0.000000000000000000e+00 0.000000000000000000e+00 0.000000000000000000e+00 0.000000000000000000e+00
2.099999999999999645e+00 1.076909823591188156e-02 0.000000000000000000e+00 9.892309017640871227e-01 0.000000000000000000e+00 0.000000000000000000e+00 0.000000000000000000e+00 -8.067380259245875151e-02 6.438060471686493647e-02 0.000000000000000000e+00 0.000000000000000000e+00 0.000000000000000000e+00 0.000000000000000000e+00 0.000000000000000000e+00 0.000000000000000000e+00 0.000000000000000000e+00 0.000000000000000000e+00
2.199999999999999734e+00 7.152061119958501821e-03 0.000000000000000000e+00 9.928479388800401928e-01 0.000000000000000000e+00 0.000000000000000000e+00 0.000000000000000000e+00 -6.975277177685618168e-02 4.728065105586785888e-02 0.000000000000000000e+00 0.000000000000000000e+00 0.000000000000000000e+00 0.000000000000000000e+00 0.000000000000000000e+00 0.000000000000000000e+00 0.000000000000000000e+00 0.000000000000000000e+00
2.299999999999999822e+00 4.688920407326683734e-03 0.000000000000000000e+00 9.953110795926779497e-01 0.000000000000000000e+00 0.000000000000000000e+00 0.000000000000000000e+00 -5.926741684133370047e-02 3.397510214913121440e-02 0.000000000000000000e+00 0.000000000000000000e+00 0.000000000000000000e+00 0.000000000000000000e+00 0.000000000000000000e+00 0.000000000000000000e+00 0.000000000000000000e+00 0.000000000000000000e+00
2.399999999999999911e+00 3.037386696146186262e-03 0.000000000000000000e+00 9.969626133038527183e-01 0.000000000000000000e+00 0.000000000000000000e+00 0.000000000000000000e+00 -4.958950343128810945e-02 2.385460203749387512e-02 0.000000000000000000e+00 0.000000000000000000e+00 0.000000000000000000e+00 0.000000000000000000e+00 0.000000000000000000e+00 0.000000000000000000e+00 0.000000000000000000e+00 0.000000000000000000e+00
2.500000000000000000e+00 1.944531841020564382e-03 0.000000000000000000e+00 9.980554681589781651e-01 0.000000000000000000e+00 0.000000000000000000e+00 0.000000000000000000e+00 -4.090798506765903897e-02 1.634892275174845699e-02 0.000000000000000000e+00 0.000000000000000000e+00 0.000000000000000000e+00 0.000000000000000000e+00 0.000000000000000000e+00 0.000000000000000000e+00 0.000000000000000000e+00 0.000000000000000000e+00
2.600000000000000089e+00 1.232729287335677286e-03 0.000000000000000000e+00 9.987672707126686866e-01 0.000000000000000000e+00 0.000000000000000000e+00 0.000000000000000000e+00 -3.335308863095760162e-02 1.089866926543396966e-02 0.000000000000000000e+00 0.000000000000000000e+00 0.000000000000000000e+00 0.000000000000000000e+00 0.000000000000000000e+00 0.000000000000000000e+00 0.000000000000000000e+00 0.000000000000000000e+00
2.699999999999999734e+00 7.729943707830991490e-04 0.000000000000000000e+00 9.992270056292197333e-01 0.000000000000000000e+00 0.000000000000000000e+00 0.000000000000000000e+00 -2.688496065311092587e-02 7.042420382198002170e-03 0.000000000000000000e+00 0.000000000000000000e+00 0.000000000000000000e+00 0.000000000000000000e+00 0.000000000000000000e+00 0.000000000000000000e+00 0.000000000000000000e+00 0.000000000000000000e+00
2.799999999999999822e+00 4.809797581390132964e-04 0.000000000000000000e+00 9.995190202418655634e-01 0.000000000000000000e+00 0.000000000000000000e+00 0.000000000000000000e+00 -2.148366805325198706e-02 4.381814808128327646e-03 0.000000000000000000e+00 0.000000000000000000e+00 0.000000000000000000e+00 0.000000000000000000e+00 0.000000000000000000e+00 0.000000000000000000e+00 0.000000000000000000e+00 0.000000000000000000e+00
2.899999999999999911e+00 2.967808752219294505e-04 0.000000000000000000e+00 9.997032191247747779e-01 0.000000000000000000e+00 0.000000000000000000e+00 0.000000000000000000e+00 -1.702794447018811733e-02 2.596491535988393242e-03 0.000000000000000000e+00 0.000000000000000000e+00 0.000000000000000000e+00 0.000000000000000000e+00 0.000000000000000000e+00 0.000000000000000000e+00 0.000000000000000000e+00 0.000000000000000000e+00
3.000000000000000000e+00 1.817520452426356781e-04 0.000000000000000000e+00 9.998182479547608192e-01 0.000000000000000000e+00 0.000000000000000000e+00 0.000000000000000000e+00 -1.340327302520841722e-02 1.439165105852936288e-03 0.000000000000000000e+00 0.000000000000000000e+00 0.000000000000000000e+00 0.000000000000000000e+00 0.000000000000000000e+00 0.000000000000000000e+00 0.000000000000000000e+00 0.000000000000000000e+00
