1.000000000000000056e-01 9.755781500153105634e-01 1.213544714511456332e-02 1.213544714511456332e-02 1.509556944625783795e-04 -1.883973812411056663e-05 1.088075214635066679e-01 -1.883973812411056663e-05 1.088075214635066679e-01 1.213544714511456332e-02 0.000000000000000000e+00 -2.343520240017762156e-07 1.353482470248134305e-03 -2.343520240017762156e-07 1.353482470248134305e-03 -1.213544641797726677e-02 -4.202442371858350426e-06
3.034482758620690168e-01 7.932491735481417283e-01 9.739619556973884429e-02 9.739619556973884429e-02 1.195843531238265089e-02 -4.484488230502388026e-04 2.779554829972218366e-01 -4.484488230502388026e-04 2.779554829972218366e-01 9.739619556973884429e-02 0.000000000000000000e+00 -5.506114658706868939e-05 3.412774636173528109e-02 -5.506114658706868939e-05 3.412774636173528109e-02 -9.739568852450031233e-02 -3.142740352061209707e-04
5.068965517241379448e-01 5.114794115911942551e-01 2.036984764542150994e-01 2.036984764542150994e-01 8.112363550037599014e-02 -1.479680503821619551e-03 3.227776130027149026e-01 -1.479680503821619551e-03 3.227776130027149026e-01 2.036984764542150994e-01 0.000000000000000000e+00 -5.892879677233215860e-04 1.285473207902813608e-01 -5.892879677233215860e-04 1.285473207902813608e-01 -2.036899151928320273e-01 -1.867554111569382641e-03
7.103448275862068728e-01 2.466014195034508527e-01 2.499883704744761681e-01 2.499883704744761681e-01 2.534218395475969499e-01 -2.298108593481997149e-03 2.482784842674452819e-01 -2.298108593481997149e-03 2.482784842674452819e-01 2.499883704744761681e-01 0.000000000000000000e+00 -2.329671995587494562e-03 2.516884687627820583e-01 -2.329671995587494562e-03 2.516884687627820583e-01 -2.499455377669987932e-01 -4.627474719242710872e-03
9.137931034482759118e-01 7.771986345971909627e-02 2.010629616011603005e-01 2.010629616011603005e-01 5.201542133379594146e-01 -1.989717988125067234e-03 1.249905075339903804e-01 -1.989717988125067234e-03 1.249905075339903804e-01 2.010629616011603005e-01 0.000000000000000000e+00 -5.147443306215071339e-03 3.233531357239234905e-01 -5.147443306215071339e-03 3.233531357239234905e-01 -2.009610834569528215e-01 -6.399801785774244384e-03
1.117241379310345062e+00 1.111025657113997103e-02 9.429494586596125216e-02 9.429494586596125216e-02 8.002998516969352938e-01 -8.103159208790085017e-04 3.235713891459317260e-02 -8.103159208790085017e-04 3.235713891459317260e-02 9.429494586596125216e-02 0.000000000000000000e+00 -6.877311499321080678e-03 2.746214371413114308e-01 -6.877311499321080678e-03 2.746214371413114308e-01 -9.417674663089101172e-02 -4.719873833733068992e-03
1.320689655172413879e+00 1.220393796831137947e-04 1.092510676441964951e-02 1.092510676441964951e-02 9.780277470914777727e-01 -4.312863994331902356e-05 1.153877632996856088e-03 -4.312863994331902356e-05 1.153877632996856088e-03 1.092510676441964951e-02 0.000000000000000000e+00 -3.860924201777440196e-03 1.032964214408449016e-01 -3.860924201777440196e-03 1.032964214408449016e-01 -1.089462351684620557e-02 -8.155589160158401929e-04
1.524137931034482918e+00 2.033794946437314163e-04 1.405773992338921891e-02 1.405773992338921891e-02 9.716811406585770250e-01 9.147631726027058874e-05 -1.688398169390323191e-03 9.147631726027058874e-05 -1.688398169390323191e-03 1.405773992338921891e-02 0.000000000000000000e+00 6.322910734377661275e-03 -1.167033057257715195e-01 6.322910734377661275e-03 -1.167033057257715195e-01 -1.397545121642057575e-02 -1.518820365892766325e-03
1.727586206896551957e+00 1.296033321071567504e-02 1.008831251619705105e-01 1.008831251619705105e-01 7.852734164653446536e-01 2.798622798945130715e-03 -3.605061190748500011e-02 2.798622798945130715e-03 -3.605061190748500011e-02 1.008831251619705105e-01 0.000000000000000000e+00 2.178445682130955574e-02 -2.806176645225807453e-01 2.178445682130955574e-02 -2.806176645225807453e-01 -9.967446956919914780e-02 -1.556936286157779847e-02
1.931034482758620996e+00 8.358731457256604602e-02 2.055273926030849185e-01 2.055273926030849185e-01 5.053579002212654769e-01 1.457807405630248861e-02 -1.302572930808415241e-01 1.457807405630248861e-02 -1.302572930808415241e-01 2.055273926030849185e-01 0.000000000000000000e+00 3.584507521348424125e-02 -3.202811615070224605e-01 3.584507521348424125e-02 -3.202811615070224605e-01 -2.004424046525494496e-01 -4.543513519059953071e-02
2.134482758620690035e+00 2.541537044796734479e-01 2.499828884810911533e-01 2.499828884810911533e-01 2.458805185581445230e-01 4.131253421904701462e-02 -2.486510634744412973e-01 4.131253421904701462e-02 -2.486510634744412973e-01 2.499828884810911533e-01 0.000000000000000000e+00 4.063457070548444350e-02 -2.445705505209828101e-01 4.063457070548444350e-02 -2.445705505209828101e-01 -2.365522325127692449e-01 -8.083616651097207118e-02
2.337931034482759074e+00 5.112521988422070729e-01 2.037668214426749391e-01 2.037668214426749391e-01 8.121415827244306274e-02 8.254576425559972952e-02 -3.120295364934470017e-01 8.254576425559972952e-02 -3.120295364934470017e-01 2.037668214426749391e-01 0.000000000000000000e+00 3.289978614586653444e-02 -1.243638017160673542e-01 3.289978614586653444e-02 -1.243638017160673542e-01 -1.771114712567258831e-01 -1.007593380106190512e-01
2.541379310344827669e+00 7.723395076941051984e-01 1.064889796155759072e-01 1.064889796155759072e-01 1.468253307474636817e-02 1.283201521947083534e-01 -2.564753068351006138e-01 1.283201521947083534e-01 -2.564753068351006138e-01 1.064889796155759072e-01 0.000000000000000000e+00 1.769258478447971114e-02 -3.536241813319128402e-02 1.769258478447971114e-02 -3.536241813319128402e-02 -6.384954114566393502e-02 -8.522404992715104655e-02
2.744827586206896708e+00 9.259790440310896598e-01 3.629900538680358446e-02 3.629900538680358446e-02 1.422945195300290159e-03 1.620769981202230259e-01 -8.569226803660284775e-02 1.620769981202230259e-01 -8.569226803660284775e-02 3.629900538680358446e-02 0.000000000000000000e+00 6.353528083900964081e-03 -3.359194120704431501e-03 6.353528083900964081e-03 -3.359194120704431501e-03 2.043867887201286301e-02 -2.999796953381046044e-02
2.948275862068965747e+00 8.996005611466749707e-01 4.887219045239842713e-02 4.887219045239842713e-02 2.655057948526121959e-03 1.690674149422193018e-01 1.240228161226301778e-01 1.690674149422193018e-01 1.240228161226301778e-01 4.887219045239842713e-02 0.000000000000000000e+00 9.184848688515365178e-03 6.737732577377341867e-03 9.184848688515365178e-03 6.737732577377341867e-03 1.467554845394484879e-02 4.661672694022910013e-02
3.151724137931034786e+00 7.060961565371599580e-01 1.341991162397403181e-01 1.341991162397403181e-01 2.550561098335601962e-02 1.452395644273976050e-01 2.714091956564498864e-01 1.452395644273976050e-01 2.714091956564498864e-01 1.341991162397403181e-01 0.000000000000000000e+00 2.760392161027054939e-02 5.158345761173345478e-02 2.760392161027054939e-02 5.158345761173345478e-02 -7.444937558230975416e-02 1.116543502720238612e-01
3.355172413793103825e+00 4.353376230379505385e-01 2.244635757990456337e-01 2.244635757990456337e-01 1.157352253639585271e-01 1.003917853875102295e-01 2.960387305186019669e-01 1.003917853875102295e-01 2.960387305186019669e-01 2.244635757990456337e-01 0.000000000000000000e+00 5.176281130679769027e-02 1.526399471052706514e-01 5.176281130679769027e-02 1.526399471052706514e-01 -1.781615333057515738e-01 1.365370462401168106e-01
3.558620689655172864e+00 1.968741852459305608e-01 2.468308801691123933e-01 2.468308801691123933e-01 3.094640544158430706e-01 5.280750416722956864e-02 2.140233592745490743e-01 5.280750416722956864e-02 2.140233592745490743e-01 2.468308801691123933e-01 0.000000000000000000e+00 6.620737254923497739e-02 2.683316338936013179e-01 6.620737254923497739e-02 2.683316338936013179e-01 -2.185017980620878320e-01 1.148148419584254232e-01
3.762068965517241903e+00 5.565824786614182590e-02 1.802617599715006236e-01 1.802617599715006236e-01 5.838182321908557126e-01 1.860214175951378779e-02 9.842263314593122092e-02 1.860214175951378779e-02 9.842263314593122092e-02 1.802617599715006236e-01 0.000000000000000000e+00 6.024721913714864430e-02 3.187638188503780223e-01 6.024721913714864430e-02 3.187638188503780223e-01 -1.678273163665283119e-01 6.578977157448426261e-02
3.965517241379310942e+00 6.181166537019515753e-03 7.243928430151375109e-02 7.243928430151375109e-02 8.489402648599547740e-01 3.051878000849691467e-03 2.093909810555309031e-02 3.051878000849691467e-03 2.093909810555309031e-02 7.243928430151375109e-02 0.000000000000000000e+00 3.576601131673176615e-02 2.453923627816600728e-01 3.576601131673176615e-02 2.453923627816600728e-01 -6.942562789323586392e-02 2.067685166273918948e-02
4.168965517241379537e+00 1.358789843773940228e-05 3.673517651641102465e-03 3.673517651641102465e-03 9.926393767982797378e-01 2.407518994781261839e-05 2.221596607296585793e-04 2.407518994781261839e-05 2.221596607296585793e-04 3.673517651641102465e-03 0.000000000000000000e+00 6.506106307972961585e-03 6.003451539450993524e-02 6.506106307972961585e-03 6.003451539450993524e-02 -3.588232230267043073e-03 7.869704487004320704e-04
4.372413793103448576e+00 6.885045584763773872e-04 2.555086312235909859e-02 2.555086312235909859e-02 9.482097691968053299e-01 -3.000790085243352882e-04 -4.183520633527578955e-03 -3.000790085243352882e-04 -4.183520633527578955e-03 2.555086312235909859e-02 0.000000000000000000e+00 -1.113612936865124824e-02 -1.552532276661389987e-01 -1.113612936865124824e-02 -1.552532276661389987e-01 -2.528928952954990345e-02 3.646703190426650414e-03
4.575862068965517615e+00 2.004543537261748581e-02 1.215364284378096793e-01 1.215364284378096793e-01 7.368817077517629821e-01 -1.544645357325715547e-03 -4.933420646186884723e-02 -1.544645357325715547e-03 -4.933420646186884723e-02 1.215364284378096793e-01 0.000000000000000000e+00 -9.365278073940351555e-03 -2.991158079687778470e-01 -9.365278073940351555e-03 -2.991158079687778470e-01 -1.212983751300221041e-01 7.603122316483265294e-03
4.779310344827586654e+00 1.063868937124617248e-01 2.197831095749307739e-01 2.197831095749307739e-01 4.540468871376750482e-01 2.903820759445626277e-03 -1.528842798295552141e-01 2.903820759445626277e-03 -1.528842798295552141e-01 2.197831095749307739e-01 0.000000000000000000e+00 5.998944326433998733e-03 -3.158415140599796223e-01 5.998944326433998733e-03 -3.158415140599796223e-01 -2.196245888755387898e-01 -8.345910863048311423e-03
4.982758620689654805e+00 2.942127229118300380e-01 2.482010661013474839e-01 2.482010661013474839e-01 2.093851448854762154e-01 2.444563663440101065e-02 -2.691213636595165548e-01 2.444563663440101065e-02 -2.691213636595165548e-01 2.482010661013474839e-01 0.000000000000000000e+00 2.062259969383326008e-02 -2.270337749047012521e-01 2.062259969383326008e-02 -2.270337749047012521e-01 -2.441387719834541004e-01 -4.472166623483672665e-02
5.186206896551723844e+00 5.569870597279740210e-01 1.893286062215094323e-01 1.893286062215094323e-01 6.435572782900954303e-02 6.815427000555476789e-02 -3.175036417180698844e-01 6.815427000555476789e-02 -3.175036417180698844e-01 1.893286062215094323e-01 0.000000000000000000e+00 2.316670087633499256e-02 -1.079244604556717640e-01 2.316670087633499256e-02 -1.079244604556717640e-01 -1.726495658006876321e-01 -7.770100298750720613e-02
5.389655172413792883e+00 8.035754139931334805e-01 9.284827559459897517e-02 9.284827559459897517e-02 1.072803481767050163e-02 1.247283750583401268e-01 -2.430090692166383959e-01 1.247283750583401268e-01 -2.430090692166383959e-01 9.284827559459897517e-02 0.000000000000000000e+00 1.441160977255299958e-02 -2.807822216027625051e-02 1.441160977255299958e-02 -2.807822216027625051e-02 -5.412840579973702410e-02 -7.543815824709299012e-02
5.593103448275861922e+00 9.259069589936534950e-01 3.633364530983532181e-02 3.633364530983532181e-02 1.425750386677912930e-03 1.725766662004682428e-01 -6.211962075882124928e-02 1.725766662004682428e-01 -6.211962075882124928e-02 3.633364530983532181e-02 0.000000000000000000e+00 6.772109438598551689e-03 -2.437604441195020087e-03 6.772109438598551689e-03 -2.437604441195020087e-03 2.799831776886427953e-02 -2.315652558719237877e-02
5.796551724137930961e+00 8.656635682842858115e-01 6.474686075737240420e-02 6.474686075737240420e-02 4.842710200968959426e-03 1.897159184956471178e-01 1.416222615971188259e-01 1.897159184956471178e-01 1.416222615971188259e-01 6.474686075737240420e-02 0.000000000000000000e+00 1.418970405038903412e-02 1.059257784691297784e-02 1.418970405038903412e-02 1.059257784691297784e-02 1.840814578632003415e-02 6.207491926796107617e-02
6.000000000000000000e+00 6.519395603689215335e-01 1.554881770751086467e-01 1.554881770751086467e-01 3.708408548086255391e-02 1.675870394243479944e-01 2.707092157563469881e-01 1.675870394243479944e-01 2.707092157563469881e-01 1.554881770751086467e-01 0.000000000000000000e+00 3.996966117879113822e-02 6.456440387201300979e-02 3.996966117879113822e-02 6.456440387201300979e-02 -6.932860759837286557e-02 1.391765712152882029e-01
