1.000000000000000056e-01 1.797818885784535636e-02 1.697287409182986337e-03 -9.698595127105873459e-01
2.000000000000000111e-01 1.402856749619338235e-05 1.407509607850728008e-06 -8.839029997772633873e-01
2.999999999999999889e-01 4.382706694972644276e-11 4.861128437927159435e-12 -7.544835497129875890e-01
4.000000000000000222e-01 1.673878181844637264e-15 -1.242392702643874193e-15 -5.990496330213458398e-01
5.000000000000000000e-01 4.226994519499234407e-16 1.023359279371683194e-15 -4.364583739724370304e-01
5.999999999999999778e-01 -1.135731282827892780e-15 -1.096695432891582158e-15 -2.834571852502888456e-01
6.999999999999999556e-01 -1.277158240273651412e-16 -7.128175220803421373e-16 -1.521973489237398169e-01
7.999999999999999334e-01 -7.321642258660532894e-17 -3.003779532504319759e-16 -4.921447263169090314e-02
8.999999999999999112e-01 5.377609106398796368e-17 -8.440146862722088273e-18 2.421145295955128354e-02
9.999999999999998890e-01 -3.885692314845256714e-17 3.592433784324538333e-16 7.076297799523233178e-02
1.099999999999999867e+00 4.663253206474728904e-17 3.381350809113728837e-16 9.542617515743077872e-02
1.199999999999999956e+00 1.001412360749783872e-16 1.259037741714470608e-16 1.039648042976309000e-01
1.300000000000000044e+00 1.311909316382583288e-16 6.419766562957920360e-17 1.017979031276271124e-01
1.399999999999999911e+00 2.834146293065615675e-17 9.188642128452808798e-17 9.337997993249051720e-02
1.500000000000000000e+00 -4.252252718478845680e-17 4.023308499966780246e-16 8.198961341355340271e-02
1.599999999999999867e+00 -1.919130684753617353e-17 3.816028446123111614e-16 6.980432081488034679e-02
1.699999999999999956e+00 -1.580036688349564070e-18 2.161232283780853237e-16 5.811224986678444754e-02
1.800000000000000044e+00 9.938469474698254231e-18 1.503455382372365976e-16 4.756323680154814215e-02
1.899999999999999911e+00 4.577405492961576943e-19 1.795131543488124618e-16 3.839260975662944081e-02
2.000000000000000000e+00 -4.745970700920069726e-18 1.452047509032894250e-16 3.059463367565963890e-02
2.099999999999999645e+00 1.538526410349656393e-18 9.614752351975022149e-17 2.404163039078923911e-02
2.199999999999999734e+00 1.974867425661881202e-18 4.042940459883385300e-17 1.856013696223368994e-02
2.299999999999999822e+00 5.465254639769475758e-19 5.369617068192186256e-17 1.397178737538550507e-02
2.399999999999999911e+00 5.026868992737812099e-19 3.921126958750805262e-17 1.011457568300939275e-02
2.500000000000000000e+00 2.678372164662409036e-19 2.852992883554137609e-17 6.850664770462720765e-03
2.600000000000000089e+00 1.308976809073246374e-19 1.471145248519079738e-17 4.066683048466092874e-03
2.699999999999999734e+00 -4.138273600429159908e-21 8.024416285208357104e-18 1.672057632066063131e-03
2.799999999999999822e+00 -3.945958470091008400e-20 -1.123941939631962930e-18 -4.054010099676507318e-04
2.899999999999999911e+00 -5.222784166456464233e-20 -9.230912673356641287e-18 -2.222223887377700133e-03
3.000000000000000000e+00 -1.194253790556370612e-20 -1.331763538427750824e-17 -3.823305926017702989e-03
