1.000000000000000056e-01 0.000000000000000000e+00 -1.189303816007969278e-01 -9.512078586238117417e-01
2.000000000000000111e-01 0.000000000000000000e+00 -1.289678482050246947e-02 -8.113438200178039184e-01
2.999999999999999889e-01 0.000000000000000000e+00 -1.499260520155958922e-04 -5.988061420778137967e-01
4.000000000000000222e-01 0.000000000000000000e+00 -2.205969842584752486e-07 -3.407148376508815635e-01
5.000000000000000000e-01 0.000000000000000000e+00 -4.303846056379434084e-11 -6.839743313711149630e-02
5.999999999999999778e-01 0.000000000000000000e+00 -1.925714367976215104e-15 1.875350755099764177e-01
6.999999999999999556e-01 0.000000000000000000e+00 -5.007738163486639707e-15 4.015637393640447694e-01
7.999999999999999334e-01 0.000000000000000000e+00 1.109614144934431402e-15 5.563416420056445100e-01
8.999999999999999112e-01 0.000000000000000000e+00 -7.567204146714127321e-16 6.440625014965417616e-01
9.999999999999998890e-01 0.000000000000000000e+00 -2.176806886557551558e-15 6.661273526080682128e-01
1.099999999999999867e+00 0.000000000000000000e+00 1.235040360343279511e-15 6.314180944185763256e-01
1.199999999999999956e+00 0.000000000000000000e+00 -1.180856912852534629e-15 5.537434043357775115e-01
1.300000000000000044e+00 0.000000000000000000e+00 1.430849563427612909e-15 4.490368018876962908e-01
1.399999999999999911e+00 0.000000000000000000e+00 8.138786061646372414e-16 3.328439122364349467e-01
1.500000000000000000e+00 0.000000000000000000e+00 1.042852835960917639e-15 2.184307207075731894e-01
1.599999999999999867e+00 0.000000000000000000e+00 4.602762105028050008e-16 1.156759342921692413e-01
1.699999999999999956e+00 0.000000000000000000e+00 8.303550614537693776e-17 3.072736239587775531e-02
1.800000000000000044e+00 0.000000000000000000e+00 -1.313962838394818028e-16 -3.374325278792094512e-02
1.899999999999999911e+00 0.000000000000000000e+00 -4.401585400235269915e-16 -7.788301686662099654e-02
2.000000000000000000e+00 0.000000000000000000e+00 -3.666224890611725197e-16 -1.038230947805312554e-01
2.099999999999999645e+00 0.000000000000000000e+00 -6.113956217626139791e-16 -1.148364754834380330e-01
2.199999999999999734e+00 0.000000000000000000e+00 -3.569839922680253984e-16 -1.146210477291363938e-01
2.299999999999999822e+00 0.000000000000000000e+00 -3.114518497681583894e-16 -1.067553819444692353e-01
2.399999999999999911e+00 0.000000000000000000e+00 -2.605840744556163012e-16 -9.435634230342558604e-02
2.500000000000000000e+00 0.000000000000000000e+00 -3.981607181750335661e-16 -7.990578972757822473e-02
2.600000000000000089e+00 0.000000000000000000e+00 -2.335746016450293231e-16 -6.521567039485626216e-02
2.699999999999999734e+00 0.000000000000000000e+00 -9.452384842871665299e-17 -5.148127572557063131e-02
2.799999999999999822e+00 0.000000000000000000e+00 -8.170762578133789289e-17 -3.938649806801920034e-02
2.899999999999999911e+00 0.000000000000000000e+00 -7.431184710899588458e-17 -2.922428342231599141e-02
3.000000000000000000e+00 0.000000000000000000e+00 -2.739164718754808882e-17 -2.101694967276302242e-02
