1.000000000000000056e-01 6.379130417818032472e-02 -5.841219342088069255e-02 -8.962294967890191977e-01
2.000000000000000111e-01 1.268463828400697435e-01 -1.158650533485400536e-01 -8.817892334844740221e-01
2.999999999999999889e-01 1.884472765633781188e-01 -1.714307478720848432e-01 -8.580400963387773139e-01
4.000000000000000222e-01 2.479057423729412735e-01 -2.242381973156556685e-01 -8.254494033330276315e-01
5.000000000000000000e-01 3.045999452042473243e-01 -2.735110665159936616e-01 -7.846391456695951394e-01
5.999999999999999778e-01 3.579611128781562956e-01 -3.185768228853282369e-01 -7.363731942146880538e-01
6.999999999999999556e-01 4.075013923794483794e-01 -3.588906888849019428e-01 -6.815232837393955245e-01
7.999999999999999334e-01 4.528237449369972301e-01 -3.940428679112354393e-01 -6.210367497325559594e-01
8.999999999999999112e-01 4.936139725499358866e-01 -4.237646317012577768e-01 -5.559119846881906968e-01
9.999999999999998890e-01 5.296554603558090157e-01 -4.479284575969637583e-01 -4.871555672062164999e-01
1.099999999999999867e+00 5.608207176092314672e-01 -4.665235759123403936e-01 -4.157758341263075308e-01
1.199999999999999956e+00 5.870612932059956490e-01 -4.796818956707369352e-01 -3.427307963608884345e-01
1.300000000000000044e+00 6.084172370676574904e-01 -4.876165813152049666e-01 -2.689359817153550436e-01
1.399999999999999911e+00 6.249993769255470788e-01 -4.906451803489965680e-01 -1.952049162516105163e-01
1.500000000000000000e+00 6.369731214117513307e-01 -4.891493270726399167e-01 -1.222968716963836328e-01
1.599999999999999867e+00 6.445673187004623550e-01 -4.835563829774593980e-01 -5.085223147804355387e-02
1.699999999999999956e+00 6.480428337827197627e-01 -4.743377411118467335e-01 1.857520496431652388e-02
1.800000000000000044e+00 6.477013969274920679e-01 -4.619704158864159083e-01 8.553418958073999434e-02
1.899999999999999911e+00 6.438591787731016147e-01 -4.469469005201166523e-01 1.496633930091118836e-01
2.000000000000000000e+00 6.368520644173907286e-01 -4.297381404463201382e-01 2.106988323728006540e-01
2.099999999999999645e+00 6.270182353788972263e-01 -4.108015464465482047e-01 2.684532457532169958e-01
2.199999999999999734e+00 6.146983068116907978e-01 -3.905661221323390442e-01 3.228056617269695061e-01
2.299999999999999822e+00 6.002229796142523055e-01 -3.694248822599993654e-01 3.737108961880953872e-01
2.399999999999999911e+00 5.839108884264569976e-01 -3.477389280205459565e-01 4.211724850170407985e-01
2.500000000000000000e+00 5.660704876861657464e-01 -3.258199410354609693e-01 4.652394847837746927e-01
2.600000000000000089e+00 5.469856292677688359e-01 -3.039564736435417247e-01 5.059963732344671117e-01
2.699999999999999734e+00 5.269285627039249631e-01 -2.823794957810229489e-01 5.435581907965059134e-01
2.799999999999999822e+00 5.061419912444192759e-01 -2.612937116521408809e-01 5.780648703682916834e-01
2.899999999999999911e+00 4.848509065101531679e-01 -2.408656383109691324e-01 6.096684137652261803e-01
3.000000000000000000e+00 4.632613066684594938e-01 -2.212277619344541202e-01 6.385298250194787473e-01
