1.000000000000000056e-01 1.417176759744158132e-01 6.279650664141789296e-02 -8.835463565680483633e-01
2.000000000000000111e-01 2.697108690581283552e-01 1.369593454890954964e-01 -8.321562783717627587e-01
2.999999999999999889e-01 3.696466802025251686e-01 2.305971333444490901e-01 -7.503406965269227014e-01
4.000000000000000222e-01 4.267569338551344127e-01 3.456070649839546594e-01 -6.433416816849670816e-01
5.000000000000000000e-01 4.273450155185207211e-01 4.754613491792821778e-01 -5.175779839560163964e-01
5.999999999999999778e-01 3.617619749075838831e-01 6.043841756757828421e-01 -3.799457111132176212e-01
6.999999999999999556e-01 2.284582162503171476e-01 7.086384581023397189e-01 -2.371463876441049501e-01
7.999999999999999334e-01 3.794355405728688790e-02 7.605170785851300685e-01 -9.514815666505209435e-02
8.999999999999999112e-01 -1.849237990559975398e-01 7.349725640592155163e-01 4.116667556357692104e-02
9.999999999999998890e-01 -4.021193904782379147e-01 6.179302986183787816e-01 1.682142632397364557e-01
1.099999999999999867e+00 -5.684175578809969043e-01 4.141481154659248931e-01 2.835837886479460890e-01
1.199999999999999956e+00 -6.419705083864236661e-01 1.516185634455121389e-01 3.860780994070094896e-01
1.300000000000000044e+00 -5.975801784898757685e-01 -1.205075296315057110e-01 4.753795628134809825e-01
1.399999999999999911e+00 -4.383717674643319850e-01 -3.421535759562230883e-01 5.519012051891467596e-01
1.500000000000000000e+00 -2.007352662385525899e-01 -4.595152532781975330e-01 6.165178947520284503e-01
1.599999999999999867e+00 5.197345092987482040e-02 -4.444837456063728265e-01 6.704027992385778179e-01
1.699999999999999956e+00 2.476472707017794428e-01 -3.085676821133178649e-01 7.148548858355863178e-01
1.800000000000000044e+00 3.309989269913606313e-01 -1.036192419280685534e-01 7.511808153769489182e-01
1.899999999999999911e+00 2.864974495727114490e-01 9.445847099381221579e-02 7.806335082404246561e-01
2.000000000000000000e+00 1.471093503332777386e-01 2.149574791124981843e-01 8.043503075746725184e-01
2.099999999999999645e+00 -1.825321292629591974e-02 2.226286568877534344e-01 8.233389908009116631e-01
2.199999999999999734e+00 -1.356252802204073182e-01 1.335527210699906375e-01 8.384583648108931975e-01
2.299999999999999822e+00 -1.610955032815412080e-01 6.051724323941888584e-03 8.504422876677306675e-01
2.399999999999999911e+00 -1.010879957892446418e-01 -9.063083108958161493e-02 8.598907406549171073e-01
2.500000000000000000e+00 -4.961734803322737086e-03 -1.136151792906738012e-01 8.673046210892252361e-01
2.600000000000000089e+00 6.664627422772520515e-02 -6.738610453181186066e-02 8.730873729638484182e-01
2.699999999999999734e+00 7.847273821344084854e-02 4.662965388758774990e-03 8.775664533626978958e-01
2.799999999999999822e+00 3.850565586364766701e-02 5.226239455368568432e-02 8.810059160786297694e-01
2.899999999999999911e+00 -1.409088313816648369e-02 5.149298455213772302e-02 8.836182530888075926e-01
3.000000000000000000e+00 -4.066831894375454171e-02 1.607449486145936385e-02 8.855749148472589205e-01
