8.000000000000000444e-01 6.839393735718691802e-01 -2.148497622529446649e-01 4.634576463125327783e-01
8.517241379310345195e-01 5.901442807458134876e-01 -2.878478080662436045e-01 5.260047935721271495e-01
9.034482758620689946e-01 4.873563863425313114e-01 -3.419396715423482780e-01 5.786098831658708086e-01
9.551724137931034697e-01 3.808689801890576265e-01 -3.753577338845220934e-01 6.223195310112390466e-01
1.006896551724137945e+00 2.760230476334134542e-01 -3.879186514872393632e-01 6.583023433495990284e-01
1.058620689655172420e+00 1.777440983369759087e-01 -3.809180078955522464e-01 6.878047363842545447e-01
1.110344827586206895e+00 9.020952322508235532e-02 -3.569500421724504657e-01 7.120314216366062654e-01
1.162068965517241370e+00 1.653863933224922894e-02 -3.195664615803761044e-01 7.321138797401192111e-01
1.213793103448275845e+00 -4.138839203777558429e-02 -2.729092511157295009e-01 7.490600645385712131e-01
1.265517241379310320e+00 -8.296856152428326581e-02 -2.213037265664817566e-01 7.637281440851414471e-01
1.317241379310344795e+00 -1.088081091315632742e-01 -1.688461624438863939e-01 7.768284713222902704e-01
1.368965517241379271e+00 -1.205367175858440554e-01 -1.190922234913743272e-01 7.889156402512311761e-01
1.420689655172413746e+00 -1.205269812490631365e-01 -7.481591927674385856e-02 8.004024427587386192e-01
1.472413793103448221e+00 -1.116051158319518871e-01 -3.786702976460065706e-02 8.115754990309197447e-01
1.524137931034482696e+00 -9.670727175876121795e-02 -9.148687968650828783e-03 8.226164069621952901e-01
1.575862068965517171e+00 -7.861073061883751267e-02 1.128823275320403607e-02 8.336187975581695886e-01
1.627586206896551646e+00 -5.971775597790487944e-02 2.408965106652335986e-02 8.446096751285649962e-01
1.679310344827586121e+00 -4.189182679093067518e-02 3.041359597687653266e-02 8.555683917020577844e-01
1.731034482758620596e+00 -2.640629329962132857e-02 3.169557487519811950e-02 8.664416137435904108e-01
1.782758620689655071e+00 -1.395927496716438745e-02 2.944058124895449977e-02 8.771564393592152786e-01
1.834482758620689546e+00 -4.753156126631536554e-03 2.504822175428123715e-02 8.876318432949762416e-01
1.886206896551724022e+00 1.404419929819076401e-03 1.971455258316093251e-02 8.977861501674976319e-01
1.937931034482758497e+00 4.968138963132535078e-03 1.433501270968905693e-02 9.075439387293282589e-01
1.989655172413792972e+00 6.498549945671832674e-03 9.526102648168036438e-03 9.168388726518982290e-01
2.041379310344827225e+00 6.619903755018871974e-03 5.613033783477820726e-03 9.256171363075524905e-01
2.093103448275861922e+00 5.870414886766348733e-03 2.707784316641250518e-03 9.338381731858658164e-01
2.144827586206896619e+00 4.703157570444318862e-03 7.394654968048133478e-04 9.414747276412404053e-01
2.196551724137930872e+00 3.445664137579790200e-03 -4.247220308717398335e-04 9.485123704670225253e-01
2.248275862068965125e+00 2.301907321529631650e-03 -9.807263061192943165e-04 9.549485697706270315e-01
2.299999999999999822e+00 1.376036218922280664e-03 -1.133692098697999806e-03 9.607912054264364787e-01
