0.000000000000000000e+00 -4.576698496593700953e-12 -4.895770303678896297e-12 -1.000000000000000000e+00
1.034482758620689641e-01 -1.653721795264272154e-01 -2.094344593104368601e-01 -9.637368784143065525e-01
2.068965517241379282e-01 -2.950155989588788552e-01 -4.186347772423265057e-01 -8.589002827275230567e-01
3.103448275862069061e-01 -3.582694327203218010e-01 -6.215546954871677965e-01 -6.966428106096954620e-01
4.137931034482758563e-01 -3.348417218890910041e-01 -8.028048837418972905e-01 -4.933389445705806398e-01
5.172413793103448620e-01 -2.199633090837161964e-01 -9.380138911130511126e-01 -2.678501586537931356e-01
6.206896551724138122e-01 -2.806302232340063263e-02 -9.988572623396461125e-01 -3.865417885756605026e-02
7.241379310344827624e-01 2.070156523134336624e-01 -9.619056475871748946e-01 1.785486056116007136e-01
8.275862068965517127e-01 4.369374615264222106e-01 -8.187667565784763068e-01 3.724304763168101440e-01
9.310344827586206629e-01 6.094196063829709908e-01 -5.837869779537276926e-01 5.364685740200025865e-01
1.034482758620689724e+00 6.823501581121871329e-01 -2.954551849788766282e-01 6.686574786010943683e-01
1.137931034482758674e+00 6.373958224458097233e-01 -9.348374017684069059e-03 7.704789674300736024e-01
1.241379310344827624e+00 4.877722469932294080e-01 2.165870214435118291e-01 8.456755929324533128e-01
1.344827586206896575e+00 2.759466884357640870e-01 3.398466644562672112e-01 8.990866487875140978e-01
1.448275862068965525e+00 6.077498944147533000e-02 3.475970747689373641e-01 9.356719548082695903e-01
1.551724137931034475e+00 -1.022243588747273196e-01 2.609772496447939072e-01 9.599169488479087908e-01
1.655172413793103425e+00 -1.797635507417838785e-01 1.267467430525438532e-01 9.755100872532428413e-01
1.758620689655172376e+00 -1.709553376192048113e-01 -9.240875182093405416e-04 9.852781937163476167e-01
1.862068965517241326e+00 -1.041908307675310924e-01 -8.090821002075210266e-02 9.912607645532829359e-01
1.965517241379310276e+00 -2.224191080196481762e-02 -9.880698291108283571e-02 9.948579315445843507e-01
2.068965517241379448e+00 3.722996422393825416e-02 -6.801589207963673611e-02 9.969892857881716974e-01
2.172413793103448398e+00 5.636945170392533566e-02 -1.843116715608623946e-02 9.982397892127442551e-01
2.275862068965517349e+00 4.051511617584116487e-02 2.048434090291673462e-02 9.989688886372890542e-01
2.379310344827586299e+00 9.957320969090299734e-03 3.338081723276238588e-02 9.993930716070454912e-01
2.482758620689655249e+00 -1.401543321128358513e-02 2.287807196213493405e-02 9.996399920563993069e-01
2.586206896551724199e+00 -2.050785466607944751e-02 3.231057498899679234e-03 9.997844521481891178e-01
2.689655172413793149e+00 -1.201923920244078736e-02 -1.079653742918987303e-02 9.998694630023292618e-01
2.793103448275862100e+00 8.946808997880532216e-04 -1.261366529215055508e-02 9.999200325360864117e-01
2.896551724137931050e+00 8.387372119902833031e-03 -5.379580675747841489e-03 9.999503453740985481e-01
3.000000000000000000e+00 7.344031474842969628e-03 2.921564544100763335e-03 9.999687568008797101e-01
