0.000000000000000000e+00 5.562721670720884794e-10 2.955521947626960215e-09 -1.000000000000000000e+00
1.034482758620689641e-01 1.580233300351837900e-01 2.149642967589629472e-01 -9.637501967709828365e-01
2.068965517241379282e-01 2.887540123429486183e-01 4.224957679360931140e-01 -8.591326020844466393e-01
3.103448275862069061e-01 3.687199902727047451e-01 6.139712256765692544e-01 -6.979041626031041723e-01
4.137931034482758563e-01 3.815496705531069566e-01 7.789478435711202353e-01 -4.976355521069632526e-01
5.172413793103448620e-01 3.204202334683308173e-01 9.052234546785252745e-01 -2.790691175627780241e-01
6.206896551724138122e-01 1.892720964525704819e-01 9.798857891948130616e-01 -6.306284059727272628e-02
7.241379310344827624e-01 2.608930550896060296e-03 9.911934805847057994e-01 1.323099036835961306e-01
8.275862068965517127e-01 -2.161677211755671513e-01 9.310101250892270919e-01 2.940578370363635674e-01
9.310344827586206629e-01 -4.377233052524087675e-01 7.972836053004063173e-01 4.155922784018517002e-01
1.034482758620689724e+00 -6.307471341666903708e-01 5.959988678359777747e-01 4.969149006294842352e-01
1.137931034482758674e+00 -7.663854717904647895e-01 3.420600604794772903e-01 5.437187514388102105e-01
1.241379310344827624e+00 -8.225689489046906777e-01 5.874848017612725737e-02 5.656069671005432564e-01
1.344827586206896575e+00 -7.875941567000074306e-01 -2.244271747535765416e-01 5.738556769724453277e-01
1.448275862068965525e+00 -6.623514511824413198e-01 -4.752371822817600955e-01 5.791569064134974854e-01
1.551724137931034475e+00 -4.608260710136724558e-01 -6.632177870244539974e-01 5.897154006531606374e-01
1.655172413793103425e+00 -2.086212135858110384e-01 -7.643727639155266651e-01 6.100776093250402932e-01
1.758620689655172376e+00 6.036718985708494634e-02 -7.653098222082919122e-01 6.408124421337852983e-01
1.862068965517241326e+00 3.087286623475832270e-01 -6.660162006317356109e-01 6.790389162832598524e-01
1.965517241379310276e+00 5.011064987805877724e-01 -4.806817093834467314e-01 7.195993723555682564e-01
2.068965517241379448e+00 6.097016314173384632e-01 -2.362683093834863912e-01 7.565898088943902033e-01
2.172413793103448398e+00 6.188378425473907152e-01 3.111120436043754434e-02 7.848946582828251195e-01
2.275862068965517349e+00 5.277704832684101399e-01 2.814785736263133442e-01 8.013840885154451810e-01
2.379310344827586299e+00 3.511973333851995949e-01 4.771834267506318561e-01 8.055711580451914156e-01
2.482758620689655249e+00 1.172893270669042587e-01 5.889596607511080606e-01 7.995986416713899425e-01
2.586206896551724199e+00 -1.365626344126355529e-01 6.008146811111131358e-01 7.876294993053707394e-01
2.689655172413793149e+00 -3.696435572247478429e-01 5.128577626708529236e-01 7.748083987868781275e-01
2.793103448275862100e+00 -5.445547667735539665e-01 3.415045737940037296e-01 7.660430519579582986e-01
2.896551724137931050e+00 -6.334209072508004690e-01 1.169300469291507660e-01 7.649133883992562666e-01
3.000000000000000000e+00 -6.226682259207431125e-01 -1.218833601499167696e-01 7.729269877075218842e-01
