0.000000000000000000e+00 -6.690871192026974531e-12 1.038112224906181945e-11 -1.000000000000000000e+00
2.105263157894736725e-01 -3.626792603496075129e-01 4.624611099478809773e-01 -7.762730603726339940e-01
4.210526315789473450e-01 -6.614792504689900321e-01 5.599399932871266250e-01 -2.698141983459316773e-01
6.315789473684210176e-01 -7.666838059840030972e-01 2.919025440742738509e-01 2.319641624568374583e-01
8.421052631578946901e-01 -6.117836628639323759e-01 -6.704710371805853997e-02 5.833725569561538649e-01
1.052631578947368363e+00 -2.988065784841240635e-01 -2.580818301856061536e-01 7.861280976732215597e-01
1.263157894736842035e+00 -2.958782629525168878e-02 -2.203389239193100924e-01 8.914074706275700866e-01
1.473684210526315708e+00 7.089749087297081420e-02 -8.414735561379942108e-02 9.441482186760041806e-01
1.684210526315789380e+00 4.736838395067917429e-02 2.693354928918874347e-03 9.711123471262045337e-01
1.894736842105263053e+00 8.553067823698756039e-03 1.539540274290078503e-02 9.853573903098072906e-01
2.105263157894736725e+00 -2.989268420072045077e-03 4.690588066721279419e-03 9.928821984381791532e-01
2.315789473684210620e+00 -1.457787076574306243e-03 -1.862352583791673268e-04 9.967138066076548508e-01
2.526315789473684070e+00 -8.290011071174891409e-05 -3.101519462194497366e-04 9.985617491758292941e-01
2.736842105263157521e+00 4.385171391623623143e-05 -3.026742316804785087e-05 9.994027840946316799e-01
2.947368421052631415e+00 3.724410922865971643e-06 5.614192984086364677e-06 9.997643758729585217e-01
3.157894736842105310e+00 2.688862226745639907e-07 -6.853310603808851368e-08 9.999115290340180318e-01
3.368421052631578760e+00 -3.119173356598625125e-07 1.409944156725552672e-06 9.999683321160495186e-01
3.578947368421052211e+00 -3.228047862625898510e-07 2.806112105667541039e-06 9.999891744651131509e-01
3.789473684210526105e+00 -1.388995599636620203e-06 -1.082436146436899216e-06 9.999964593372082655e-01
4.000000000000000000e+00 -5.833590129729345149e-07 -3.637104898737908168e-07 9.999988899488753136e-01
