0.000000000000000000e+00 -2.535190416586303387e-09 -4.350699771400552320e-10 -1.000000000000000000e+00
1.353846153846153810e-01 1.780181081175202795e-02 2.010297654101129428e-01 -9.794226558636653923e-01
2.707692307692307621e-01 3.679469601888582519e-02 3.900629570669881807e-01 -9.200511649916719437e-01
4.061538461538461431e-01 5.783161994019442309e-02 5.572139157687113764e-01 -8.283499904072895159e-01
5.415384615384615241e-01 8.120356814749554730e-02 6.961179186574782962e-01 -7.133161253046664818e-01
6.769230769230769607e-01 1.066457915845474280e-01 8.042934523895387544e-01 -5.845780834886644683e-01
8.123076923076922862e-01 1.335031720622358586e-01 8.825804587085041009e-01 -4.507998035412182913e-01
9.476923076923076117e-01 1.609579200029853663e-01 9.340604094415390080e-01 -3.187707987144145494e-01
1.083076923076923048e+00 1.882080411998118818e-01 9.629419102605352165e-01 -1.931613144745291388e-01
1.218461538461538485e+00 2.145899971814509977e-01 9.736795254120652610e-01 -7.674496352073119365e-02
1.353846153846153921e+00 2.396124682380396664e-01 9.704248521402871752e-01 2.918754354232582990e-02
1.489230769230769136e+00 2.629553728113753208e-01 9.567527901503295462e-01 1.243748630781073561e-01
1.624615384615384572e+00 2.844450337090763670e-01 9.355843240986982945e-01 2.091977879772198567e-01
1.760000000000000009e+00 3.040208119278423604e-01 9.092209242674376135e-01 2.843934332142176169e-01
1.895384615384615223e+00 3.216922105538598808e-01 8.794285078856197702e-01 3.508716147021585519e-01
2.030769230769230660e+00 3.375292210414535532e-01 8.475325916467749687e-01 4.095779564948659468e-01
2.166153846153846096e+00 3.516266859180199322e-01 8.145128909620910074e-01 4.614318160466781005e-01
2.301538461538461533e+00 3.641022529817507514e-01 7.810800145778322712e-01 5.072827311841091591e-01
2.436923076923076970e+00 3.750748259452128530e-01 7.477468173106521787e-01 5.478924045456046166e-01
2.572307692307692406e+00 3.846685759265883187e-01 7.148700899806084141e-01 5.839380547373073105e-01
2.707692307692307843e+00 3.929970746341140964e-01 6.826925735465317890e-01 6.160172416848294086e-01
2.843076923076922835e+00 4.001730363291308157e-01 6.513843519642398272e-01 6.446342522216842452e-01
2.978461538461538272e+00 4.063009588705612796e-01 6.210426109599100908e-01 6.702381868428304301e-01
3.113846153846153708e+00 4.114797600399727195e-01 5.917264998795567221e-01 6.932084975482041278e-01
3.249230769230769145e+00 4.157951774140334900e-01 5.634693255541813883e-01 7.138702784193073914e-01
3.384615384615384581e+00 4.193201747726493789e-01 5.362735642958436078e-01 7.325131741275463515e-01
3.520000000000000018e+00 4.221315672529141194e-01 5.101250299786255216e-01 7.493810109231958672e-01
3.655384615384615454e+00 4.242997150222129199e-01 4.850036019152010880e-01 7.646802893840803916e-01
3.790769230769230447e+00 4.258814572781514651e-01 4.608793948187617784e-01 7.785949169462226260e-01
3.926153846153845883e+00 4.269289820696937632e-01 4.377264672145534385e-01 7.912788506262186106e-01
4.061538461538461320e+00 4.274898344589804777e-01 4.155052812476130453e-01 8.028717128640886491e-01
4.196923076923076756e+00 4.276117414205256040e-01 3.941706578186844889e-01 8.134943322490736373e-01
4.332307692307692193e+00 4.273294479981330496e-01 3.736852649488343614e-01 8.232522995338683591e-01
4.467692307692307629e+00 4.266893858509372417e-01 3.540262879690165843e-01 8.322242281003897624e-01
4.603076923076923066e+00 4.257140123732882087e-01 3.351456303756770727e-01 8.405002782536512562e-01
4.738461538461538503e+00 4.244342102266369654e-01 3.170139465281548441e-01 8.481471607538411117e-01
4.873846153846153939e+00 4.228790801138068711e-01 2.995841483035440178e-01 8.552301321660117361e-01
5.009230769230769376e+00 4.210747613765828401e-01 2.828291289500368122e-01 8.618003228965829265e-01
5.144615384615384812e+00 4.190480810648257171e-01 2.667210951287100063e-01 8.679024840133505725e-01
5.280000000000000249e+00 4.168068812694342151e-01 2.512354750212454912e-01 8.735840103585881256e-01
