0.000000000000000000e+00 -3.018228988680760740e-09 2.455673568787353677e-09 -1.000000000000000000e+00
1.353846153846153810e-01 -1.568164763796250569e-02 -1.757375714933563302e-02 -9.997224739800953941e-01
2.707692307692307621e-01 -2.921649316510579325e-02 -3.693174734889687061e-02 -9.988903928068801896e-01
4.061538461538461431e-01 -3.815547243113625447e-02 -5.938236726960433032e-02 -9.975055304632004516e-01
5.415384615384615241e-01 -3.956083929636595997e-02 -8.528939803339774528e-02 -9.955701107453326371e-01
6.769230769230769607e-01 -3.010866017682603535e-02 -1.134374894141204071e-01 -9.930883120915529050e-01
8.123076923076922862e-01 -6.631764947139726085e-03 -1.404506417513387839e-01 -9.900648609063305017e-01
9.476923076923076117e-01 3.278662899526669366e-02 -1.604032388998255787e-01 -9.865061708130091755e-01
1.083076923076923048e+00 8.720381885137439004e-02 -1.650673578304305278e-01 -9.824187723951520734e-01
1.218461538461538485e+00 1.509978750198933684e-01 -1.451878579746875286e-01 -9.778130234887909555e-01
1.353846153846153921e+00 2.125281679722806905e-01 -9.320985673148031447e-02 -9.726981403080539046e-01
1.489230769230769136e+00 2.543378228440861810e-01 -7.250321410079692969e-03 -9.670871095340144441e-01
1.624615384615384572e+00 2.560684267916555346e-01 1.044950492856317747e-01 -9.609928839010157819e-01
1.760000000000000009e+00 2.006697292261445109e-01 2.208918677934361141e-01 -9.544295637881158312e-01
1.895384615384615223e+00 8.315491659437691807e-02 3.090069101284417807e-01 -9.474160181618577203e-01
2.030769230769230660e+00 -8.085465219056413300e-02 3.315410667852795035e-01 -9.399680567807277010e-01
2.166153846153846096e+00 -2.514958423787664321e-01 2.606208142034195374e-01 -9.321069213553556665e-01
2.301538461538461533e+00 -3.708664623693487816e-01 9.459929911834996652e-02 -9.238536299887891712e-01
2.436923076923076970e+00 -3.814992730960569123e-01 -1.296802243577295510e-01 -9.152254293344067593e-01
2.572307692307692406e+00 -2.534329483696859397e-01 -3.383518037849955196e-01 -9.062481979226448825e-01
2.707692307692307843e+00 -9.226887673962819170e-03 -4.420426865015951723e-01 -8.969442286354868399e-01
2.843076923076922835e+00 2.686160259501713665e-01 -3.748005788377815617e-01 -8.873362211512502151e-01
2.978461538461538272e+00 4.601149833838972247e-01 -1.355643160074541664e-01 -8.774462480297348099e-01
3.113846153846153708e+00 4.595173799450541496e-01 1.914025593366784628e-01 -8.672969486927749605e-01
3.249230769230769145e+00 2.366847118655580340e-01 4.579073428220155062e-01 -8.569108369439566442e-01
3.384615384615384581e+00 -1.260993126534194486e-01 5.175410954768108196e-01 -8.463125738944476950e-01
3.520000000000000018e+00 -4.536176643100039430e-01 3.100522039719228462e-01 -8.355197111117594888e-01
3.655384615384615454e+00 -5.595871796810512055e-01 -8.346298693811485259e-02 -8.245546515861280623e-01
3.790769230769230447e+00 -3.568134892014838133e-01 -4.593414103999619025e-01 -8.134394136674780729e-01
3.926153846153845883e+00 6.900553963010980230e-02 -5.930588860280232577e-01 -8.021927944410227607e-01
4.061538461538461320e+00 4.814645896656164492e-01 -3.778442693569475375e-01 -7.908345667116947197e-01
4.196923076923076756e+00 6.206881510822848114e-01 8.549587188834031903e-02 -7.793781071153558226e-01
4.332307692307692193e+00 3.719963038789119159e-01 5.215677518491763642e-01 -7.678406112311597642e-01
4.467692307692307629e+00 -1.340676303041429818e-01 6.404087548147466835e-01 -7.562377987758197584e-01
4.603076923076923066e+00 -5.767804494707187146e-01 3.360045157509550240e-01 -7.445926770558941588e-01
4.738461538461538503e+00 -6.457893274166399689e-01 -2.139831617638201233e-01 -7.329121362298706144e-01
4.873846153846153939e+00 -2.654735818991417751e-01 -6.398290283606171691e-01 -7.212040367976880750e-01
5.009230769230769376e+00 3.215674059050362965e-01 -6.270632216748828203e-01 -7.094918418499426283e-01
5.144615384615384812e+00 6.989561423273569218e-01 -1.567462197163045079e-01 -6.977702054055399117e-01
5.280000000000000249e+00 5.727083012555944652e-01 4.486718921507056868e-01 -6.860691430771598265e-01
