0.000000000000000000e+00 2.538055937267895570e-09 -1.655814697072886926e-09 -1.000000000000000000e+00
1.353846153846153810e-01 -3.064822550142320967e-01 4.315230052487458723e-01 -8.484373696040620194e-01
2.707692307692307621e-01 -5.409475624334901811e-01 7.159061413109879535e-01 -4.413991705288498046e-01
4.061538461538461431e-01 -6.462853850567185088e-01 7.572640098253520247e-01 9.403348175504135098e-02
5.415384615384615241e-01 -5.926722458556685780e-01 5.444280067508895371e-01 5.935652486530292871e-01
6.769230769230769607e-01 -3.847659323890596506e-01 1.550681822737167148e-01 9.098907417756249005e-01
8.123076923076922862e-01 -6.203136203720890918e-02 -2.710883195550378155e-01 9.605510039267822764e-01
9.476923076923076117e-01 3.087603398376247976e-01 -5.806338314665937528e-01 7.533376063133084832e-01
1.083076923076923048e+00 6.475857551149850622e-01 -6.599032889699396609e-01 3.809705456451529804e-01
1.218461538461538485e+00 8.798992105167783295e-01 -4.749644052435335606e-01 -1.272481582929850703e-02
1.353846153846153921e+00 9.553636983919177039e-01 -8.415249875297536875e-02 -2.831530666977626343e-01
1.489230769230769136e+00 8.619028593415185568e-01 3.811718034051458925e-01 -3.343787752614104658e-01
1.624615384615384572e+00 6.306946859622946100e-01 7.612386775153408003e-01 -1.507182811558142876e-01
1.760000000000000009e+00 3.297551439946616592e-01 9.226198885058083388e-01 2.000262226305955238e-01
1.895384615384615223e+00 4.678144261115124714e-02 8.043471233705917767e-01 5.922998559661291074e-01
2.030769230769230660e+00 -1.347455898648284855e-01 4.395002713340830924e-01 8.880733332968717697e-01
2.166153846153846096e+00 -1.597269577879835145e-01 -5.523885605345515981e-02 9.856130143433373680e-01
2.301538461538461533e+00 -1.847208009191467215e-02 -5.187705555643857824e-01 8.547078955706732817e-01
2.436923076923076970e+00 2.488386954126706740e-01 -7.997995328259416281e-01 5.462425912799483418e-01
2.572307692307692406e+00 5.627086767856819272e-01 -8.083036678562967037e-01 1.731483816959857314e-01
2.707692307692307843e+00 8.275572214991175901e-01 -5.460445691608665220e-01 -1.302320534462838020e-01
2.843076923076922835e+00 9.608853731130196918e-01 -1.060330693064317487e-01 -2.557990080218949802e-01
2.978461538461538272e+00 9.195643458930217173e-01 3.590311724313209885e-01 -1.596063711997152135e-01
3.113846153846153708e+00 7.146310499300418950e-01 6.885355958511456542e-01 1.232768517215178383e-01
3.249230769230769145e+00 4.093220603349919662e-01 7.684191393797550340e-01 4.919018284910883776e-01
3.384615384615384581e+00 1.002193281605420760e-01 5.697101154527419720e-01 8.157050256726187110e-01
3.520000000000000018e+00 -1.130632749542853505e-01 1.580922899819478256e-01 9.809281891910510698e-01
3.655384615384615454e+00 -1.601613648508740106e-01 -3.287862358302283128e-01 9.307207660375570457e-01
3.790769230769230447e+00 -2.347621304575642220e-02 -7.282949816225277040e-01 6.848499462043108332e-01
3.926153846153845883e+00 2.545901958590996994e-01 -9.081851776378856433e-01 3.322064559126413630e-01
4.061538461538461320e+00 5.843839048042243078e-01 -8.114616596404812254e-01 -1.073375012086666414e-03
4.196923076923076756e+00 8.575563970726838292e-01 -4.753792999553273502e-01 -1.964381070105484239e-01
4.332307692307692193e+00 9.825909992155413830e-01 -1.829888214376529376e-02 -1.848144944460968775e-01
4.467692307692307629e+00 9.155862321210148647e-01 4.010278194533117846e-01 2.922805648783595098e-02
4.603076923076923066e+00 6.758493104138204588e-01 6.377341985607148933e-01 3.694602393278870189e-01
4.738461538461538503e+00 3.406566498384938080e-01 6.101359487439118601e-01 7.153126393708126862e-01
4.873846153846153939e+00 2.040948598154096461e-02 3.272269582909866359e-01 9.447221567489226812e-01
5.009230769230769376e+00 -1.779000410448260405e-01 -1.148956247138310099e-01 9.773161338032489986e-01
5.144615384615384812e+00 -1.866509486330742429e-01 -5.664487099233852518e-01 8.026736798865917732e-01
5.280000000000000249e+00 -1.205934318579571229e-03 -8.752068618098972630e-01 4.837264367487192351e-01
