0.000000000000000000e+00 2.787999506559738025e-09 -5.962132782909187953e-10 -1.000000000000000000e+00
1.353846153846153810e-01 -4.579937361479008429e-02 -1.373988617420154879e-01 -9.894557620820104704e-01
2.707692307692307621e-01 -9.074029409966301307e-02 -2.695514754758828180e-01 -9.586999670913597393e-01
4.061538461538461431e-01 -1.340672477956399433e-01 -3.919376324010563351e-01 -9.101686190321455205e-01
5.415384615384615241e-01 -1.751662873382573982e-01 -5.013002440882048383e-01 -8.473544173379532474e-01
6.769230769230769607e-01 -2.136155665665209480e-01 -5.958228392304067977e-01 -7.741814321161714085e-01
8.123076923076922862e-01 -2.491906133566425818e-01 -6.750003402559431320e-01 -6.944571560455832238e-01
9.476923076923076117e-01 -2.818403444320336515e-01 -7.393313619117034552e-01 -6.115114634457088361e-01
1.083076923076923048e+00 -3.116346868730032749e-01 -7.899808617007326728e-01 -5.280192167171530171e-01
1.218461538461538485e+00 -3.387222198606235635e-01 -8.284642950230745040e-01 -4.459861890362686321e-01
1.353846153846153921e+00 -3.632978162789894383e-01 -8.564233312791315056e-01 -3.668006523620819248e-01
1.489230769230769136e+00 -3.855768951203907280e-01 -8.754624754222690708e-01 -2.913493147334460520e-01
1.624615384615384572e+00 -4.057756784876965228e-01 -8.870597442807979238e-01 -2.201347409742587524e-01
1.760000000000000009e+00 -4.241026062687191511e-01 -8.925241507039876065e-01 -1.533805869077163875e-01
1.895384615384615223e+00 -4.407400420595809498e-01 -8.929921314122281073e-01 -9.111050746896717789e-02
2.030769230769230660e+00 -4.558544762128838856e-01 -8.894276036132438001e-01 -3.321187962957383027e-02
2.166153846153846096e+00 -4.696006482643407254e-01 -8.826335672056735415e-01 2.051846380306231871e-02
2.301538461538461533e+00 -4.821188284004554458e-01 -8.732722201854695721e-01 7.031994082563548798e-02
2.436923076923076970e+00 -4.935363115966274750e-01 -8.618855518973685959e-01 1.164607489671807411e-01
2.572307692307692406e+00 -5.039536487026512468e-01 -8.489277699185557857e-01 1.591865748525416180e-01
2.707692307692307843e+00 -5.134581635726056525e-01 -8.347668400203963612e-01 1.987791818637763275e-01
2.843076923076922835e+00 -5.221291465136400634e-01 -8.197024168086728402e-01 2.354938792907520229e-01
2.978461538461538272e+00 -5.300440073208096958e-01 -8.039701812540378523e-01 2.695806106418954795e-01
3.113846153846153708e+00 -5.372739773834898092e-01 -7.877609045470939098e-01 3.012606728808233103e-01
3.249230769230769145e+00 -5.438879659162354496e-01 -7.712277922610579761e-01 3.307299599330157935e-01
3.384615384615384581e+00 -5.499275718983531736e-01 -7.545115402922379921e-01 3.581632175246548533e-01
3.520000000000000018e+00 -5.554228202791293700e-01 -7.377233508529305039e-01 3.837431503220017359e-01
3.655384615384615454e+00 -5.604185482104578897e-01 -7.209341236782171869e-01 4.076447836920840673e-01
3.790769230769230447e+00 -5.649630963639513670e-01 -7.042012240312913729e-01 4.300078354382825263e-01
3.926153846153845883e+00 -5.690997637752701621e-01 -6.875729199360021138e-01 4.509528849148446428e-01
4.061538461538461320e+00 -5.728595637040447830e-01 -6.711032156094470791e-01 4.705763586058490655e-01
4.196923076923076756e+00 -5.762543910536468417e-01 -6.548367091535658435e-01 4.889883788023172140e-01
4.332307692307692193e+00 -5.792990669985917940e-01 -6.387957100768992813e-01 5.063029422304597960e-01
4.467692307692307629e+00 -5.820228757596741520e-01 -6.229880717126643486e-01 5.226140191801019741e-01
4.603076923076923066e+00 -5.844603876733101000e-01 -6.074102932855827142e-01 5.380047595464115817e-01
4.738461538461538503e+00 -5.866424361233077978e-01 -5.920836545768830561e-01 5.525197509196045909e-01
4.873846153846153939e+00 -5.885781903182063513e-01 -5.770346430219184253e-01 5.662131679193210809e-01
5.009230769230769376e+00 -5.902643134044366358e-01 -5.622744121726326316e-01 5.791599759950171178e-01
5.144615384615384812e+00 -5.917084118533069148e-01 -5.477950600729346586e-01 5.914326823128838173e-01
5.280000000000000249e+00 -5.929388445503969152e-01 -5.335773524533640177e-01 6.030835379574732702e-01
