0.000000000000000000e+00 -4.011150564974661889e-09 -5.748748203910352283e-11 -1.000000000000000000e+00
1.353846153846153810e-01 1.269427698217735767e-02 9.677638487638812181e-02 -9.952243132277900362e-01
2.707692307692307621e-01 9.504890483183078831e-03 1.852548362602175758e-01 -9.826428507698126147e-01
4.061538461538461431e-01 -2.116295407249316196e-02 2.550922268763403666e-01 -9.666826807956544476e-01
5.415384615384615241e-01 -8.305488927794685283e-02 2.933807740179379397e-01 -9.523780439758289251e-01
6.769230769230769607e-01 -1.697334539924009733e-01 2.864075057730774421e-01 -9.429501722766767680e-01
8.123076923076922862e-01 -2.643199427938079937e-01 2.236758005294363083e-01 -9.381351479016347694e-01
9.476923076923076117e-01 -3.418916121323122281e-01 1.030455457668285335e-01 -9.340690359798616837e-01
1.083076923076923048e+00 -3.746720818815886256e-01 -6.486242005735884386e-02 -9.248818410512764654e-01
1.218461538461538485e+00 -3.393215494606697247e-01 -2.550424513126808290e-01 -9.054313639984989948e-01
1.353846153846153921e+00 -2.248141383027422724e-01 -4.306952787948159500e-01 -8.740425908328049998e-01
1.489230769230769136e+00 -3.866414687825845548e-02 -5.503256661428257424e-01 -8.340475836483637329e-01
1.624615384615384572e+00 1.908299653057368150e-01 -5.781052153636377922e-01 -7.933255455948162727e-01
1.760000000000000009e+00 4.179609165876568833e-01 -4.949184941801081372e-01 -7.618073563811197380e-01
1.895384615384615223e+00 5.888385741774131432e-01 -3.067712344939335090e-01 -7.477607775296997161e-01
2.030769230769230660e+00 6.548588998632509650e-01 -4.746448529842214881e-02 -7.542498163691744306e-01
2.166153846153846096e+00 5.871113021356305639e-01 2.263048929077026428e-01 -7.772213333105909561e-01
2.301538461538461533e+00 3.874995810788294803e-01 4.471762519244626422e-01 -8.061420881470641175e-01
2.436923076923076970e+00 9.263637052840473229e-02 5.541885996223564481e-01 -8.272133159736873020e-01
2.572307692307692406e+00 -2.318010105728271486e-01 5.103068112606500284e-01 -8.281567867001192740e-01
2.707692307692307843e+00 -5.059020999912451355e-01 3.152642350745418764e-01 -8.029065970733123558e-01
2.843076923076922835e+00 -6.563270197350348223e-01 9.381963668933734901e-03 -7.544088186336708191e-01
2.978461538461538272e+00 -6.375324821336517678e-01 -3.338233600813099722e-01 -6.943330267259107957e-01
3.113846153846153708e+00 -4.471121857952522483e-01 -6.253343317967974269e-01 -6.395547474142728728e-01
3.249230769230769145e+00 -1.300012594394793775e-01 -7.843904591241095403e-01 -6.064759651750631919e-01
3.384615384615384581e+00 2.308003978115987787e-01 -7.619475644325943708e-01 -6.051023578247299861e-01
3.520000000000000018e+00 5.354280332692490374e-01 -5.567995448037412753e-01 -6.350382463562050939e-01
3.655384615384615454e+00 6.948716898641723594e-01 -2.190105147419330600e-01 -6.849609672967642560e-01
3.790769230769230447e+00 6.574627521513604078e-01 1.614282192166607843e-01 -7.359816105328628177e-01
3.926153846153845883e+00 4.259513824260678372e-01 4.784000335684024385e-01 -7.679095721324612489e-01
4.061538461538461320e+00 5.944891645624969523e-02 6.397072021112945039e-01 -7.663072130112433822e-01
4.196923076923076756e+00 -3.413191055487763137e-01 5.947189830217500806e-01 -7.278706142076010188e-01
4.332307692307692193e+00 -6.620048229591527500e-01 3.512060021519960995e-01 -6.621081082209522295e-01
4.467692307692307629e+00 -8.080667377448137456e-01 -2.445014230521608267e-02 -5.885675313547211740e-01
4.603076923076923066e+00 -7.337457988479478832e-01 -4.246068514975314678e-01 -5.303831632613960068e-01
4.738461538461538503e+00 -4.575155049278912256e-01 -7.309810981334202706e-01 -5.062863792631192572e-01
4.873846153846153939e+00 -5.868115298048542927e-02 -8.497667079304234150e-01 -5.238636323707486220e-01
5.009230769230769376e+00 3.447130165656615564e-01 -7.408258019065253608e-01 -5.764817531038770593e-01
5.144615384615384812e+00 6.305094579001065958e-01 -4.316007661439913434e-01 -6.451056704323410163e-01
5.280000000000000249e+00 7.095394140135129479e-01 -1.086166276512190443e-02 -7.045709138987157338e-01
