0.000000000000000000e+00 1.325249443563726658e-09 1.704076848826343002e-09 -1.000000000000000000e+00
1.353846153846153810e-01 -2.300441151566114117e-03 -2.016563091765074811e-01 -9.794526632632758467e-01
2.707692307692307621e-01 3.935513089741733694e-02 -3.887488485912377612e-01 -9.205006891633039645e-01
4.061538461538461431e-01 1.572846743628944499e-01 -5.345009753741585268e-01 -8.303999877715073641e-01
5.415384615384615241e-01 3.583990653743345245e-01 -5.955388174639720811e-01 -7.189405745067454223e-01
6.769230769230769607e-01 6.104750453577993952e-01 -5.215116975249298736e-01 -5.961006701073991998e-01
8.123076923076922862e-01 8.368742709334584529e-01 -2.800493943664799090e-01 -4.703219310451067225e-01
9.476923076923076117e-01 9.310652039731838192e-01 1.104310280517269427e-01 -3.477218914637555391e-01
1.083076923076923048e+00 7.967964017897806173e-01 5.578543317519887301e-01 -2.321665333900680972e-01
1.218461538461538485e+00 4.049616254740138754e-01 9.056437088202220487e-01 -1.257079138723050660e-01
1.353846153846153921e+00 -1.603134776400949035e-01 9.866302262995455541e-01 -2.910687704875427467e-02
1.489230769230769136e+00 -7.023853555668280180e-01 7.094421857476729265e-01 5.773576328228909732e-02
1.624615384615384572e+00 -9.814787770652120269e-01 1.354980097874511347e-01 1.353758887603701000e-01
1.760000000000000009e+00 -8.362849979563693470e-01 -5.086828080533676300e-01 2.045883096337334783e-01
1.895384615384615223e+00 -2.970234092494686839e-01 -9.170064002667446257e-01 2.662026042375104651e-01
2.030769230769230660e+00 3.883961424163608900e-01 -8.637450071129316731e-01 3.210619888883992634e-01
2.166153846153846096e+00 8.592615817532693878e-01 -3.532336749016070643e-01 3.699778469921736201e-01
2.301538461538461533e+00 8.425746267389326860e-01 3.448261745589172866e-01 4.137044310535082925e-01
2.436923076923076970e+00 3.351380645731234509e-01 8.261731890856678362e-01 4.528896307500703822e-01
2.572307692307692406e+00 -3.626403231496608814e-01 7.938851870755043727e-01 4.880853801801458558e-01
2.707692307692307843e+00 -8.128012274666587267e-01 2.630565586782965815e-01 5.197545630647485426e-01
2.843076923076922835e+00 -7.213313168727921720e-01 -4.230925500850550858e-01 5.483279394127545947e-01
2.978461538461538272e+00 -1.496610201466767598e-01 -8.049048595779575432e-01 5.742123559651360898e-01
3.113846153846153708e+00 5.070093539341802291e-01 -6.209903516596725348e-01 5.977480551355170979e-01
3.249230769230769145e+00 7.852077510100345936e-01 -5.025165264322728476e-03 6.192043507703067773e-01
3.384615384615384581e+00 4.880400003101664219e-01 5.947883407404790379e-01 6.387758140870233303e-01
3.520000000000000018e+00 -1.590874849999140417e-01 7.372106749870208642e-01 6.566601846748638671e-01
3.655384615384615454e+00 -6.660501966560933296e-01 3.214731766902519938e-01 6.730701048722932400e-01
3.790769230769230447e+00 -6.477523121367942949e-01 -3.267896611394084383e-01 6.881983069450493540e-01
3.926153846153845883e+00 -1.266282344951577543e-01 -7.006428072527980389e-01 7.021798712683758881e-01
4.061538461538461320e+00 4.781716047174239259e-01 -5.098698189826456062e-01 7.151060414190808512e-01
4.196923076923076756e+00 6.815207886303930040e-01 8.326580359721856561e-02 7.270407660924388393e-01
4.332307692307692193e+00 3.256811998939974084e-01 5.908819160969889239e-01 7.380938578026208230e-01
4.467692307692307629e+00 -2.871519719185647856e-01 5.978704735478492793e-01 7.483896331073983665e-01
4.603076923076923066e+00 -6.432796546172385721e-01 1.076279876505464028e-01 7.580237662041063862e-01
4.738461538461538503e+00 -4.483899128123960409e-01 -4.589000165838847956e-01 7.670397933475711083e-01
4.873846153846153939e+00 1.218235414515096982e-01 -6.195492691242685535e-01 7.754421665652599938e-01
5.009230769230769376e+00 5.716663605542602333e-01 -2.442767819876223157e-01 7.832748092733461398e-01
5.144615384615384812e+00 5.143218254372836640e-01 3.322471689814003315e-01 7.906187400485947814e-01
5.280000000000000249e+00 9.372546763234512746e-03 6.031667676354977026e-01 7.975557972702892462e-01
