0.000000000000000000e+00 -3.485607704574257102e-13 -1.918350421118064783e-09 -1.000000000000000000e+00
1.353846153846153810e-01 1.275603826359279942e-02 3.571445889500018261e-03 -9.999121844822250749e-01
2.707692307692307621e-01 2.509651656944261733e-02 8.499615960426072300e-03 -9.996487575677774906e-01
4.061538461538461431e-01 3.637505973262961101e-02 1.602376641349033057e-02 -9.992095300009311565e-01
5.415384615384615241e-01 4.551038266580144376e-02 2.715976071259683031e-02 -9.985943202694963494e-01
6.769230769230769607e-01 5.086046622837227943e-02 4.244591632323908154e-02 -9.978030351550799537e-01
8.123076923076922862e-01 5.024279911885068395e-02 6.159719274262999422e-02 -9.968353234608138269e-01
9.476923076923076117e-01 4.116888679069647533e-02 8.309178768085223599e-02 -9.956906990774060384e-01
1.083076923076923048e+00 2.142353214897175367e-02 1.037825136641123969e-01 -9.943687383971137050e-01
1.218461538461538485e+00 -1.003802112699860721e-02 1.187828284134530704e-01 -9.928689327846290658e-01
1.353846153846153921e+00 -5.189829495233982959e-02 1.218435889831257640e-01 -9.911909098267784879e-01
1.489230769230769136e+00 -9.935088958856656827e-02 1.065219303580115795e-01 -9.893336457961313668e-01
1.624615384615384572e+00 -1.434888300247197934e-01 6.821370427161618788e-02 -9.872974769142730533e-01
1.760000000000000009e+00 -1.719457009177052798e-01 6.849211710648912127e-03 -9.850817655021949504e-01
1.895384615384615223e+00 -1.713164914255277116e-01 -7.054031916459604923e-02 -9.826865771188747489e-01
2.030769230769230660e+00 -1.314887954586805852e-01 -1.486184255182699254e-01 -9.801129133165651375e-01
2.166153846153846096e+00 -5.112793115096597729e-02 -2.053053694238213545e-01 -9.773605061194955423e-01
2.301538461538461533e+00 5.767158680339277976e-02 -2.171565301066840648e-01 -9.744304999776652876e-01
2.436923076923076970e+00 1.681458126379388740e-01 -1.680806996954320176e-01 -9.713256416135308546e-01
2.572307692307692406e+00 2.437076439908491543e-01 -5.906907101220248979e-02 -9.680469577576571449e-01
2.707692307692307843e+00 2.494832733451584905e-01 8.547510615546979884e-02 -9.645980834199244791e-01
2.843076923076922835e+00 1.681347586466970523e-01 2.196462245384548373e-01 -9.609804652830969962e-01
2.978461538461538272e+00 1.368509226216827260e-02 2.891007745898677150e-01 -9.571993291139789806e-01
3.113846153846153708e+00 -1.647087327552621827e-01 2.533134291928861859e-01 -9.532577211323280952e-01
3.249230769230769145e+00 -2.953328875809446141e-01 1.089633292225920397e-01 -9.491587229664401049e-01
3.384615384615384581e+00 -3.123608656842590814e-01 -9.782873304945263748e-02 -9.449110568851496472e-01
3.520000000000000018e+00 -1.903854888524613431e-01 -2.813914047607151137e-01 -9.405151464483263446e-01
3.655384615384615454e+00 3.245730945419951496e-02 -3.505526647117818140e-01 -9.359784734031760811e-01
3.790769230769230447e+00 2.596424028444553334e-01 -2.554438398835280344e-01 -9.313057961089431513e-01
3.926153846153845883e+00 3.755402368452002149e-01 -2.354766979030878393e-02 -9.265047668974288886e-01
4.061538461538461320e+00 3.055111886099833862e-01 2.394791850154004698e-01 -9.215793787146085991e-01
4.196923076923076756e+00 6.620653228319778316e-02 3.944314440787152765e-01 -9.165349443299803944e-01
4.332307692307692193e+00 -2.272739707855193358e-01 3.431165845033417594e-01 -9.113798259872970542e-01
4.467692307692307629e+00 -4.125159750127986857e-01 9.366183493585131248e-02 -9.061200549143255678e-01
4.603076923076923066e+00 -3.702941994178560736e-01 -2.269638080805920777e-01 -9.007580017229942504e-01
4.738461538461538503e+00 -1.048343220293879163e-01 -4.329418656547853184e-01 -8.953023701014933833e-01
4.873846153846153939e+00 2.407079564728612509e-01 -3.877876779646803329e-01 -8.897614876007450269e-01
5.009230769230769376e+00 4.566805142648180382e-01 -9.870345375504555041e-02 -8.841354341169792574e-01
5.144615384615384812e+00 3.947975672380462098e-01 2.692308797602992465e-01 -8.784329060056645933e-01
5.280000000000000249e+00 7.412441472354541760e-02 4.826651101827973966e-01 -8.726594860209696547e-01
