0.000000000000000000e+00 3.018821179815852646e-09 3.811649546921343389e-10 -1.000000000000000000e+00
1.353846153846153810e-01 -1.867981721272826690e-01 4.948512659842952410e-01 -8.486557676836026243e-01
2.707692307692307621e-01 -3.219814236478804048e-01 8.359447485394438937e-01 -4.444102812610222220e-01
4.061538461538461431e-01 -3.629659421413284348e-01 9.281298553294160536e-01 8.248083334739216010e-02
5.415384615384615241e-01 -2.855558459380875824e-01 7.698415656926773654e-01 5.707719568394313825e-01
6.769230769230769607e-01 -9.205419432403508240e-02 4.506098337080260419e-01 8.879564344554303768e-01
8.123076923076922862e-01 1.847785439193278534e-01 1.125414183122145639e-01 9.763129376740509180e-01
9.476923076923076117e-01 4.856496018844364548e-01 -1.079328210252586684e-01 8.674582326778280672e-01
1.083076923076923048e+00 7.381512610582818823e-01 -1.343489843253637961e-01 6.611083565924951166e-01
1.218461538461538485e+00 8.777688923324030723e-01 2.195354672986551958e-02 4.785567972379666246e-01
1.353846153846153921e+00 8.702933155500698348e-01 2.708193849336321124e-01 4.113660043817610190e-01
1.489230769230769136e+00 7.267842158862687363e-01 4.846112328998753993e-01 4.867377295076798505e-01
1.624615384615384572e+00 5.037098766352766654e-01 5.539261596942324228e-01 6.628901990057898264e-01
1.760000000000000009e+00 2.858035611880833660e-01 4.340599871542389354e-01 8.543397768298542916e-01
1.895384615384615223e+00 1.562508346382014968e-01 1.629502692993859414e-01 9.741808454335187939e-01
2.030769230769230660e+00 1.649794616139572956e-01 -1.563373710675957373e-01 9.738253452405072341e-01
2.166153846153846096e+00 3.080446877798959093e-01 -4.006405837114962454e-01 8.628929203177427842e-01
2.301538461538461533e+00 5.271796695431882895e-01 -4.794740603448768290e-01 7.015473235194310542e-01
2.436923076923076970e+00 7.318041816837067559e-01 -3.731746041544181658e-01 5.702474420454339832e-01
2.572307692307692406e+00 8.352114438444948608e-01 -1.403586783421452155e-01 5.316946370872884797e-01
2.707692307692307843e+00 7.906515539104962409e-01 1.080889679828133665e-01 6.026329630877510501e-01
2.843076923076922835e+00 6.119981630110647997e-01 2.569982038861601814e-01 7.479265566529789133e-01
2.978461538461538272e+00 3.694769123386606458e-01 2.360631852550333643e-01 8.987498931022316340e-01
3.113846153846153708e+00 1.612864827989115568e-01 4.923643480157247759e-02 9.856769607474177297e-01
3.249230769230769145e+00 7.244839920388643217e-02 -2.279729931161506851e-01 9.709658507573235564e-01
3.384615384615384581e+00 1.382750853022600146e-01 -4.819655697183464205e-01 8.652039633683267228e-01
3.520000000000000018e+00 3.281568824066249390e-01 -6.101577200718684146e-01 7.211128015543941672e-01
3.655384615384615454e+00 5.577172627114227454e-01 -5.650459738943528487e-01 6.079919733840702945e-01
3.790769230769230447e+00 7.243835038578669838e-01 -3.739879488473085711e-01 5.791205047587403287e-01
3.926153846153845883e+00 7.516140401813431460e-01 -1.265716496022835091e-01 6.473304737750255056e-01
4.061538461538461320e+00 6.225645232885348435e-01 6.468237252190275899e-02 7.798812276743283256e-01
4.196923076923076756e+00 3.882546462116228114e-01 1.131198826071214136e-01 9.145783093955386356e-01
4.332307692307692193e+00 1.461299235233484151e-01 -4.898143496477380676e-03 9.892518057743092674e-01
4.467692307692307629e+00 -2.002543067972734070e-03 -2.403887173358122409e-01 9.706721221030417679e-01
4.603076923076923066e+00 5.414018705840850654e-03 -4.938267645464775035e-01 8.695370763439186357e-01
4.738461538461538503e+00 1.621646878895217636e-01 -6.585935690930522224e-01 7.348065271270827203e-01
4.873846153846153939e+00 3.963972910263195981e-01 -6.674486333635847313e-01 6.303664323024736893e-01
5.009230769230769376e+00 6.016512620252437715e-01 -5.213775766101422793e-01 6.051122549266736428e-01
5.144615384615384812e+00 6.835402664655682026e-01 -2.886017735347526370e-01 6.704201550263988452e-01
5.280000000000000249e+00 6.015722346945985288e-01 -7.435164768900789922e-02 7.953416829931472254e-01
