0.000000000000000000e+00 2.736070069735801557e-09 -1.074419896436720437e-09 -1.000000000000000000e+00
1.353846153846153810e-01 3.439525469061517904e-01 2.115380118045012414e-01 -9.148440623752792655e-01
2.707692307692307621e-01 6.358841727535156085e-01 3.516904300337011513e-01 -6.869841798286439039e-01
4.061538461538461431e-01 8.411219463933544693e-01 3.764739477259282929e-01 -3.882739255502792863e-01
5.415384615384615241e-01 9.524077432034580015e-01 2.855435645757579688e-01 -1.065694631008499427e-01
6.769230769230769607e-01 9.888050639864685021e-01 1.204829429015793485e-01 8.786936136275491638e-02
8.123076923076922862e-01 9.844290323183533253e-01 -5.369050193952851213e-02 1.673015883420271854e-01
9.476923076923076117e-01 9.724880263612171172e-01 -1.757824924422062840e-01 1.527759136780695859e-01
1.083076923076923048e+00 9.719424792696802484e-01 -2.128655555564584745e-01 9.994366698548622086e-02
1.218461538461538485e+00 9.825240396283259070e-01 -1.717877287997254254e-01 7.147069523046843675e-02
1.353846153846153921e+00 9.896805539825819231e-01 -9.335735144896473159e-02 1.085794907377187063e-01
1.489230769230769136e+00 9.762462076943505540e-01 -3.230971396329085366e-02 2.141793193477262436e-01
1.624615384615384572e+00 9.345498066469133391e-01 -3.219138523495820858e-02 3.543378107364950069e-01
1.760000000000000009e+00 8.726921598648669232e-01 -1.061978988807684293e-01 4.765578111774088077e-01
1.895384615384615223e+00 8.118147129436831255e-01 -2.321621169524362704e-01 5.357572110319847036e-01
2.030769230769230660e+00 7.757770731325730473e-01 -3.634592522752068122e-01 5.157955462065395569e-01
2.166153846153846096e+00 7.785622381250385526e-01 -4.506120726113700958e-01 4.367674575196420772e-01
2.301538461538461533e+00 8.159628812976379431e-01 -4.637416955411061137e-01 3.451419974997185780e-01
2.436923076923076970e+00 8.660991944419065280e-01 -4.058745634512086475e-01 2.917398593962799436e-01
2.572307692307692406e+00 8.989821777963075133e-01 -3.113088927009958207e-01 3.080456601681829665e-01
2.707692307692307843e+00 8.907839489273373657e-01 -2.300020086316407475e-01 3.918909336520774445e-01
2.843076923076922835e+00 8.359639340048800049e-01 -2.051047611823437755e-01 5.089930619662779154e-01
2.978461538461538272e+00 7.511408951022970903e-01 -2.537634691670852538e-01 6.094024914508342494e-01
3.113846153846153708e+00 6.684143019514334760e-01 -3.597047656249336978e-01 6.510114132179974922e-01
3.249230769230769145e+00 6.208459061334845597e-01 -4.808204150715716385e-01 6.191464103209269876e-01
3.384615384615384581e+00 6.267862173995927266e-01 -5.681984283281951154e-01 5.331676017969594339e-01
3.520000000000000018e+00 6.804596351489581307e-01 -5.880521559681605170e-01 4.372019706769667557e-01
3.655384615384615454e+00 7.536211597744748580e-01 -5.367111896709987340e-01 3.794357924252053094e-01
3.790769230769230447e+00 8.078795446055548890e-01 -4.420760735566324762e-01 3.897111904648852820e-01
3.926153846153845883e+00 8.122883873462382054e-01 -3.509643442763383803e-01 4.658200762087602032e-01
4.061538461538461320e+00 7.580847421243869233e-01 -3.081008724914561236e-01 5.747699024385072297e-01
4.196923076923076756e+00 6.635268274608074890e-01 -3.361874755659359781e-01 6.683499745639287504e-01
4.332307692307692193e+00 5.662773606195277143e-01 -4.259202428200729029e-01 7.056235439345606153e-01
4.467692307692307629e+00 5.064780851724131061e-01 -5.403704790040662065e-01 6.719087380231161255e-01
4.603076923076923066e+00 5.081942135798607207e-01 -6.316384944200259532e-01 5.854492072491663812e-01
4.738461538461538503e+00 5.678085152202991814e-01 -6.623254990702639455e-01 4.887694789903352932e-01
4.873846153846153939e+00 6.549685794797573957e-01 -6.221790780101671414e-01 4.288186377970910623e-01
5.009230769230769376e+00 7.259650613334740488e-01 -5.325144938044941156e-01 4.351772322544602556e-01
5.144615384615384812e+00 7.436089080230006143e-01 -4.365296554973590037e-01 5.064239228717456465e-01
5.280000000000000249e+00 6.945590852457020903e-01 -3.798756602484302802e-01 6.109518244130894837e-01
