0.000000000000000000e+00 -1.443827568476165495e-09 3.592829236284082813e-09 -1.000000000000000000e+00
1.353846153846153810e-01 1.314811512742011801e-02 1.618929050896437093e-03 -9.999121584626337045e-01
2.707692307692307621e-01 2.631497256390754463e-02 3.258605343048627187e-03 -9.996482203882705031e-01
4.061538461538461431e-01 3.950631240212940792e-02 4.907965336851762006e-03 -9.992070215068005190e-01
5.415384615384615241e-01 5.273594918366215217e-02 6.574461977716338640e-03 -9.985865281396261173e-01
6.769230769230769607e-01 6.601482101817245096e-02 8.268564380584259368e-03 -9.977839856997822165e-01
8.123076923076922862e-01 7.935231597283622096e-02 1.000351322873319071e-02 -9.967959651535163168e-01
9.476923076923076117e-01 9.275492880530664119e-02 1.180122579711365138e-02 -9.956184803796461757e-01
1.083076923076923048e+00 1.062279608140060116e-01 1.367894967595362915e-02 -9.942470800757768901e-01
1.218461538461538485e+00 1.197684385596335110e-01 1.565850642017717689e-02 -9.926776541243030882e-01
1.353846153846153921e+00 1.333698396412335840e-01 1.776585712600683986e-02 -9.909062992013488724e-01
1.489230769230769136e+00 1.470231170343341554e-01 2.001521665625609347e-02 -9.889296568202233795e-01
1.624615384615384572e+00 1.607105554469536179e-01 2.243572929873802191e-02 -9.867455921664699536e-01
1.760000000000000009e+00 1.744171341493427896e-01 2.503845080522086250e-02 -9.843524167973771721e-01
1.895384615384615223e+00 1.881192985837887022e-01 2.784026975375406693e-02 -9.817503864307970396e-01
2.030769230769230660e+00 2.017937248155473040e-01 3.085247550075290168e-02 -9.789407631267575960e-01
2.166153846153846096e+00 2.154133456745455366e-01 3.408092780536965682e-02 -9.759267433686645843e-01
2.301538461538461533e+00 2.289579492160581375e-01 3.753299012261379630e-02 -9.727110489041159713e-01
2.436923076923076970e+00 2.423990893885585862e-01 4.120740599337471832e-02 -9.692995963342035948e-01
2.572307692307692406e+00 2.557181827195091350e-01 4.510159169770397436e-02 -9.656971348956622236e-01
2.707692307692307843e+00 2.688918591840662176e-01 4.921039260663026549e-02 -9.619107160337119211e-01
2.843076923076922835e+00 2.818977589253208182e-01 5.352463581619323896e-02 -9.579484884591127347e-01
2.978461538461538272e+00 2.947197449253108337e-01 5.803616820564053841e-02 -9.538178209042788014e-01
3.113846153846153708e+00 3.073357293929230294e-01 6.273282837731722350e-02 -9.495291052189098746e-01
3.249230769230769145e+00 3.197335842542691764e-01 6.760622151758147180e-02 -9.450903833827312139e-01
3.384615384615384581e+00 3.319017409694716703e-01 7.264586449351620456e-02 -9.405103039517016539e-01
3.520000000000000018e+00 3.438344452213283886e-01 7.783955881493431761e-02 -9.357961941032957309e-01
3.655384615384615454e+00 3.555253428822746087e-01 8.316725424794288446e-02 -9.309567121062558570e-01
3.790769230769230447e+00 3.669618187174528146e-01 8.861259468308976817e-02 -9.260033014442551336e-01
3.926153846153845883e+00 3.781384751677867029e-01 9.416719140404958277e-02 -9.209445910145338532e-01
4.061538461538461320e+00 3.890497515025603814e-01 9.981429216112283620e-02 -9.157905484361316129e-01
4.196923076923076756e+00 3.996950056162732468e-01 1.055505603695677808e-01 -9.105480427485104222e-01
4.332307692307692193e+00 4.100704022682801764e-01 1.113601296342512648e-01 -9.052269168346218642e-01
4.467692307692307629e+00 4.201881290317502904e-01 1.172365337868065960e-01 -8.998288419474690381e-01
4.603076923076923066e+00 4.300467272898447768e-01 1.231590220294055404e-01 -8.943634109707019331e-01
4.738461538461538503e+00 4.396495943150338093e-01 1.291137803787535676e-01 -8.888374093337826354e-01
4.873846153846153939e+00 4.489917266974468579e-01 1.350919180490342542e-01 -8.832612935020582867e-01
5.009230769230769376e+00 4.580727830180575944e-01 1.410900742994903867e-01 -8.776426732966120525e-01
5.144615384615384812e+00 4.668965393433072708e-01 1.470992370485767753e-01 -8.719879702874688832e-01
5.280000000000000249e+00 4.754729428823926130e-01 1.531215784667243340e-01 -8.662982677753421346e-01
