0.000000000000000000e+00 1.389024248743454682e-09 2.067549358175294165e-09 -1.000000000000000000e+00
1.353846153846153810e-01 9.291624479771885825e-02 1.780071205705540116e-01 -9.796307699155106796e-01
2.707692307692307621e-01 1.411146816050096453e-01 3.575234421437634147e-01 -9.231772912800354502e-01
4.061538461538461431e-01 1.080238350528460178e-01 5.276219978888767592e-01 -8.425763607083606166e-01
5.415384615384615241e-01 -2.530419798454705549e-02 6.586041272444843608e-01 -7.520546346631121759e-01
6.769230769230769607e-01 -2.501039791791143663e-01 7.057948606198942709e-01 -6.627857403027461736e-01
8.123076923076922862e-01 -5.233866906019897236e-01 6.243331175445839820e-01 -5.798757279525468267e-01
9.476923076923076117e-01 -7.707847146459003707e-01 3.911218916651164612e-01 -5.028860422384578976e-01
1.083076923076923048e+00 -9.028878729519924651e-01 2.575380333718721437e-02 -4.290790090341270457e-01
1.218461538461538485e+00 -8.440835120540594039e-01 -3.999731891731217459e-01 -3.571022236529921567e-01
1.353846153846153921e+00 -5.657945431088228228e-01 -7.722979867849747437e-01 -2.888063019999941861e-01
1.489230769230769136e+00 -1.107108981966217209e-01 -9.672804070357812201e-01 -2.282278196576877638e-01
1.624615384615384572e+00 4.057766447440673829e-01 -8.963291556424266560e-01 -1.786483072264143102e-01
1.760000000000000009e+00 8.241033029113581376e-01 -5.488691796185611871e-01 -1.399000746278216134e-01
1.895384615384615223e+00 9.940850678057185918e-01 -1.248361369872169613e-02 -1.077707991029707157e-01
2.030769230769230660e+00 8.357837954805882319e-01 5.437346072725607327e-01 -7.611513880061279713e-02
2.166153846153846096e+00 3.823747163924036130e-01 9.231096902847241159e-01 -4.041579712465336038e-02
2.301538461538461533e+00 -2.172716996737166784e-01 9.760984037879434361e-01 -4.769917008166447482e-04
2.436923076923076970e+00 -7.444598051009569950e-01 6.664875213816405797e-01 3.936146993346496814e-02
2.572307692307692406e+00 -9.924473664554838148e-01 9.850785381593812895e-02 7.293725654564880978e-02
2.707692307692307843e+00 -8.530842759439394296e-01 -5.128097677677774247e-01 9.617072009738039662e-02
2.843076923076922835e+00 -3.704628873394751887e-01 -9.223123383612007453e-01 1.098761316929111748e-01
2.978461538461538272e+00 2.663389370402060585e-01 -9.564212419484855454e-01 1.195722119620138135e-01
3.113846153846153708e+00 7.946541841128507144e-01 -5.924105038286457958e-01 1.324769534504347535e-01
3.249230769230769145e+00 9.879207896348480844e-01 2.270464466882302079e-02 1.532080619553517209e-01
3.384615384615384581e+00 7.571119351848294432e-01 6.276882290981808943e-01 1.810107977266690593e-01
3.520000000000000018e+00 1.969198150439674389e-01 9.576315435260780440e-01 2.100964615249789336e-01
3.655384615384615454e+00 -4.487755722722253093e-01 8.627000243810988289e-01 2.330780896166921023e-01
3.790769230769230447e+00 -8.915907052242036945e-01 3.805294752734714736e-01 2.454376711060886895e-01
3.926153846153845883e+00 -9.289863314227222446e-01 -2.743412744251590984e-01 2.483901557590173503e-01
4.061538461538461320e+00 -5.405556152813686399e-01 -8.038142939670709364e-01 2.483113957490082901e-01
4.196923076923076756e+00 9.714153343475906421e-02 -9.625356828187933145e-01 2.531106724062084923e-01
4.332307692307692193e+00 6.881671635252276653e-01 -6.744241978589309294e-01 2.674967412790193455e-01
4.467692307692307629e+00 9.541977909040543215e-01 -7.276457374039235759e-02 2.901528433880624092e-01
4.603076923076923066e+00 7.675064242381898216e-01 5.586037624716760908e-01 3.144403638333634343e-01
4.738461538461538503e+00 2.152818265021063382e-01 9.182634876686048830e-01 3.322997524740033404e-01
4.873846153846153939e+00 -4.383998977763742810e-01 8.323494394024006926e-01 3.390828989556659012e-01
5.009230769230769376e+00 -8.777336886915755310e-01 3.411525095407539343e-01 3.364161785443943176e-01
5.144615384615384812e+00 -8.886044579581393599e-01 -3.171435568917309045e-01 3.313296222765388932e-01
5.280000000000000249e+00 -4.652184756313137992e-01 -8.205031800595100622e-01 3.321497632662545052e-01
