0.000000000000000000e+00 3.876885385338918909e-09 5.406051051388197958e-10 -1.000000000000000000e+00
1.353846153846153810e-01 -1.406815246668089749e-02 -3.734130236363903538e-02 -9.992032914364703533e-01
2.707692307692307621e-01 -2.795770774466110192e-02 -7.464104793285994410e-02 -9.968180034722055050e-01
4.061538461538461431e-01 -4.151951582668730878e-02 -1.118153873398832210e-01 -9.928605375193074734e-01
5.415384615384615241e-01 -5.460877453019102878e-02 -1.487808919047667877e-01 -9.873602510097577722e-01
6.769230769230769607e-01 -6.709265494685162645e-02 -1.854295383257116570e-01 -9.803632633728138757e-01
8.123076923076922862e-01 -7.886035690294532219e-02 -2.216330427120424273e-01 -9.719346821558201288e-01
9.476923076923076117e-01 -8.982552697134833786e-02 -2.572637793537485562e-01 -9.621556141199227863e-01
1.083076923076923048e+00 -9.993292972897631354e-02 -2.921907525276680184e-01 -9.511225928168578481e-01
1.218461538461538485e+00 -1.091524192540960919e-01 -3.262869740650828354e-01 -9.389453030938662570e-01
1.353846153846153921e+00 -1.174806460028477995e-01 -3.594431600674539151e-01 -9.257397819336311562e-01
1.489230769230769136e+00 -1.249372259556705000e-01 -3.915575643863133948e-01 -9.116293713827060552e-01
1.624615384615384572e+00 -1.315495668878961522e-01 -4.225515350263465697e-01 -8.967380778990126089e-01
1.760000000000000009e+00 -1.373627324170291486e-01 -4.523743557075272648e-01 -8.811825682562633988e-01
1.895384615384615223e+00 -1.424293927105948487e-01 -4.809845398013572471e-01 -8.650786520443868310e-01
2.030769230769230660e+00 -1.468116123503969139e-01 -5.083682283342323416e-01 -8.485287139339067197e-01
2.166153846153846096e+00 -1.505731541209019420e-01 -5.345189053823677927e-01 -8.316307534474567387e-01
2.301538461538461533e+00 -1.537812598521718088e-01 -5.594422405600266712e-01 -8.144738954920447416e-01
2.436923076923076970e+00 -1.564999268504252972e-01 -5.831513690104357384e-01 -7.971410562599864358e-01
2.572307692307692406e+00 -1.587767528720432919e-01 -6.056621538202777710e-01 -7.797143804693753566e-01
2.707692307692307843e+00 -1.606589364315995083e-01 -6.270197223665693320e-01 -7.622504903167010015e-01
2.843076923076922835e+00 -1.621903281238712968e-01 -6.472676897903566484e-01 -7.448015225284403407e-01
2.978461538461538272e+00 -1.634196513360680059e-01 -6.664557700197959456e-01 -7.274069344202733767e-01
3.113846153846153708e+00 -1.644080262147474270e-01 -6.846277990532231295e-01 -7.101017980353395709e-01
3.249230769230769145e+00 -1.651968336232517709e-01 -7.018204232480674820e-01 -6.929268111214536008e-01
3.384615384615384581e+00 -1.658206510331204364e-01 -7.180673939187585120e-01 -6.759229893206181172e-01
3.520000000000000018e+00 -1.662934877564938851e-01 -7.334100645980019539e-01 -6.591244338236884603e-01
3.655384615384615454e+00 -1.666209696910045945e-01 -7.479017810503159058e-01 -6.425488043074728539e-01
3.790769230769230447e+00 -1.668229814717778758e-01 -7.616022936980965108e-01 -6.261951452149997488e-01
3.926153846153845883e+00 -1.669339913118069174e-01 -7.745611879873517402e-01 -6.100623540599815486e-01
4.061538461538461320e+00 -1.669984191990906419e-01 -7.868140116878057366e-01 -5.941574421137273410e-01
4.196923076923076756e+00 -1.670422275391971190e-01 -7.983870258481131632e-01 -5.785003413183210652e-01
4.332307692307692193e+00 -1.670719936536669004e-01 -8.093005611819018563e-01 -5.631224787351861716e-01
4.467692307692307629e+00 -1.670670251520672833e-01 -8.195899523732652625e-01 -5.480402256709641096e-01
4.603076923076923066e+00 -1.670183243663725114e-01 -8.293063936637022904e-01 -5.332379924859249609e-01
4.738461538461538503e+00 -1.669316404611427829e-01 -8.384975960088222324e-01 -5.186929686377184101e-01
4.873846153846153939e+00 -1.668436660801401739e-01 -8.472003508470695721e-01 -5.043821615816098669e-01
5.009230769230769376e+00 -1.667916555817607893e-01 -8.554315242908958616e-01 -4.903099943362304591e-01
5.144615384615384812e+00 -1.667954358913915081e-01 -8.631959391986817609e-01 -4.765063767229834046e-01
5.280000000000000249e+00 -1.668364922879829459e-01 -8.705063626102718111e-01 -4.630014931386455257e-01
