0.000000000000000000e+00 -1.237208350030140810e-09 -2.113135113340768603e-09 -1.000000000000000000e+00
1.353846153846153810e-01 -4.927446164874167978e-01 -1.888567629475692566e-01 -8.494294188896036601e-01
2.707692307692307621e-01 -8.064112535460143949e-01 -3.778107731401717517e-01 -4.549164962035718296e-01
4.061538461538461431e-01 -8.441393730382783511e-01 -5.343995148987155108e-01 4.281481788330071536e-02
5.415384615384615241e-01 -6.333278041300086647e-01 -5.974072783259687380e-01 4.919246544563016244e-01
6.769230769230769607e-01 -3.056395164855906788e-01 -5.198830189460245110e-01 7.976839082535729375e-01
8.123076923076922862e-01 -2.412042065938657665e-02 -3.165291867913803125e-01 9.482744523023010075e-01
9.476923076923076117e-01 1.032463267150848518e-01 -7.167250615699030658e-02 9.920696044189897256e-01
1.083076923076923048e+00 7.353954186244104907e-02 1.063064496649116231e-01 9.916096474841137320e-01
1.218461538461538485e+00 -2.732641722409472063e-02 1.534674388305963255e-01 9.877750697084030085e-01
1.353846153846153921e+00 -9.387485563817639378e-02 8.954274872101741778e-02 9.915484978234602176e-01
1.489230769230769136e+00 -7.424957628095947559e-02 -3.276708141872194252e-03 9.972339612107732343e-01
1.624615384615384572e+00 4.141025672162821497e-03 -4.526667148680457720e-02 9.989661383584400589e-01
1.760000000000000009e+00 7.066210837004101297e-02 -1.580705136710702785e-02 9.973747187320185503e-01
1.895384615384615223e+00 7.538057358580134426e-02 4.186225632588865680e-02 9.962753261601775545e-01
2.030769230769230660e+00 2.757739855513444485e-02 6.721186007953121322e-02 9.973571962381213574e-01
2.166153846153846096e+00 -2.023061102654953938e-02 3.717474779805734347e-02 9.991037752449445364e-01
2.301538461538461533e+00 -2.365127177433046235e-02 -1.810892105737463634e-02 9.995560962163319019e-01
2.436923076923076970e+00 1.494452663990363667e-02 -4.846686975718776658e-02 9.987127426909738759e-01
2.572307692307692406e+00 5.371903376144948616e-02 -3.166235594109374774e-02 9.980536943660467397e-01
2.707692307692307843e+00 5.425022075346526418e-02 8.532749924298893562e-03 9.984906545226928110e-01
2.843076923076922835e+00 1.764255083480257419e-02 2.877135452505424906e-02 9.994301469187218956e-01
2.978461538461538272e+00 -1.958548904183377015e-02 9.014679337463752523e-03 9.997674349835675711e-01
3.113846153846153708e+00 -2.319934691098403390e-02 -2.998266928442514662e-02 9.992809723577581460e-01
3.249230769230769145e+00 5.734962518574106966e-03 -4.963879468384557736e-02 9.987505321519597468e-01
3.384615384615384581e+00 3.414731713255009932e-02 -3.256374505794984442e-02 9.988859356584945948e-01
3.520000000000000018e+00 3.157567366998174224e-02 1.473245852810833867e-03 9.995001227176616432e-01
3.655384615384615454e+00 3.399333364637463495e-04 1.721422237689542237e-02 9.998516767573294439e-01
3.790769230769230447e+00 -2.850732197314354358e-02 -8.370145542558465879e-05 9.995934384190505728e-01
3.926153846153845883e+00 -2.770483988358370120e-02 -3.089757070470843664e-02 9.991383197767395030e-01
4.061538461538461320e+00 -1.213604411834604685e-03 -4.271427975837406577e-02 9.990863859931072843e-01
4.196923076923076756e+00 2.118823672169940081e-02 -2.368626756727432170e-02 9.994947256415154246e-01
4.332307692307692193e+00 1.533765720956335385e-02 6.119977030107407422e-03 9.998635553764076978e-01
4.467692307692307629e+00 -1.280433070618222993e-02 1.650343552515843443e-02 9.997817121530705453e-01
4.603076923076923066e+00 -3.439929026678364976e-02 -1.526324021437456754e-03 9.994068354028493584e-01
4.738461538461538503e+00 -2.825718690623504198e-02 -2.718946598196552572e-02 9.992306461212844271e-01
4.873846153846153939e+00 -2.562697501260167120e-03 -3.246327074125845980e-02 9.994694835751914974e-01
5.009230769230769376e+00 1.457111127827664596e-02 -1.147530128585486434e-02 9.998278893948496782e-01
5.144615384615384812e+00 5.004324487423342238e-03 1.410685393406498588e-02 9.998878913362170273e-01
5.280000000000000249e+00 -2.083318577845508571e-02 1.845311716021032222e-02 9.996125167621308094e-01
