0.000000000000000000e+00 -3.462932600222785542e-09 2.292922846087974670e-09 -1.000000000000000000e+00
1.353846153846153810e-01 1.986796830159626992e-01 -2.069166748580905310e-02 -9.798442050903944933e-01
2.707692307692307621e-01 3.762468203531402766e-01 -7.723555646595658963e-03 -9.264834163191030258e-01
4.061538461538461431e-01 5.093272026659408924e-01 6.078345356766290397e-02 -8.584176357201522833e-01
5.415384615384615241e-01 5.728495156435983171e-01 1.864042331030288935e-01 -7.981755933691250249e-01
6.769230769230769607e-01 5.446977594080957275e-01 3.473658250134652459e-01 -7.633004331978563428e-01
8.123076923076922862e-01 4.137513889392220312e-01 5.023399738468606879e-01 -7.592433192637921824e-01
9.476923076923076117e-01 1.884304512662016429e-01 6.005818930653180621e-01 -7.770341114196224197e-01
1.083076923076923048e+00 -9.818751069992420755e-02 5.962712394994874598e-01 -7.967478595730859148e-01
1.218461538461538485e+00 -3.902128537858941537e-01 4.634337706047785277e-01 -7.955817703777040562e-01
1.353846153846153921e+00 -6.191267948002913135e-01 2.072336406633525918e-01 -7.574445583511070224e-01
1.489230769230769136e+00 -7.208631971888341816e-01 -1.322107736322639115e-01 -6.803384028398032912e-01
1.624615384615384572e+00 -6.552832692735889308e-01 -4.857096869888285484e-01 -5.785077669076346130e-01
1.760000000000000009e+00 -4.219305560157500801e-01 -7.702187664970849834e-01 -4.782436545878076539e-01
1.895384615384615223e+00 -6.614745895327803216e-02 -9.102809353650740398e-01 -4.086457679699836421e-01
2.030769230769230660e+00 3.279589010684121897e-01 -8.601196038765812624e-01 -3.906599567150231822e-01
2.166153846153846096e+00 6.573172338546934279e-01 -6.199397453118640211e-01 -4.284708617831028965e-01
2.301538461538461533e+00 8.278137460933767677e-01 -2.407967236037398817e-01 -5.066766053579665474e-01
2.436923076923076970e+00 7.824952904874828974e-01 1.847640765328407153e-01 -5.945965089722348162e-01
2.572307692307692406e+00 5.213079926514394558e-01 5.451707973100317073e-01 -6.565134559118631641e-01
2.707692307692307843e+00 1.054400799134962430e-01 7.399741959716583661e-01 -6.643071026142116642e-01
2.843076923076922835e+00 -3.564148739354974782e-01 7.094339891750283122e-01 -6.079916293387132020e-01
2.978461538461538272e+00 -7.370363974917569783e-01 4.545192338760328798e-01 -5.001693141032191869e-01
3.113846153846153708e+00 -9.271283212733877344e-01 4.045178047347969263e-02 -3.725244418983899020e-01
3.249230769230769145e+00 -8.685137256565778063e-01 -4.186542979773111295e-01 -2.653092843183073035e-01
3.384615384615384581e+00 -5.736903711005125750e-01 -7.907900988565689238e-01 -2.133224161661762264e-01
3.520000000000000018e+00 -1.249670271076128436e-01 -9.643216611075646760e-01 -2.333307028079897871e-01
3.655384615384615454e+00 3.475751921294533142e-01 -8.822600374513858146e-01 -3.174677287971905959e-01
3.790769230769230447e+00 7.035758497292066149e-01 -5.617442522763653745e-01 -4.352045904875671556e-01
3.926153846153845883e+00 8.344020859203404861e-01 -9.185028748356971473e-02 -5.434309860686218352e-01
4.061538461538461320e+00 6.969568966278345545e-01 3.907354671567764837e-01 -6.012974877509436045e-01
4.196923076923076756e+00 3.284893728301374605e-01 7.417564538433195631e-01 -5.846995049671578348e-01
4.332307692307692193e+00 -1.628408271073843450e-01 8.533742238954283854e-01 -4.951918232701802425e-01
4.467692307692307629e+00 -6.295248482258593015e-01 6.884950831119670545e-01 -3.600701902785572450e-01
4.603076923076923066e+00 -9.292402759196387585e-01 2.942857525131469254e-01 -2.233485332914192101e-01
4.738461538461538503e+00 -9.688792673779197395e-01 -2.102057458934848411e-01 -1.306219623622354165e-01
4.873846153846153939e+00 -7.342757025368139567e-01 -6.693521593564253358e-01 -1.130591248056093401e-01
5.009230769230769376e+00 -2.959598052187853989e-01 -9.388084772364578834e-01 -1.761313631309020800e-01
5.144615384615384812e+00 2.114448092804935009e-01 -9.310963965665196573e-01 -2.971992669326383174e-01
5.280000000000000249e+00 6.303140795763862991e-01 -6.443879529286538066e-01 -4.329513765563710592e-01
