0.000000000000000000e+00 -1.640005784735148086e-09 1.823492144553034009e-09 -1.000000000000000000e+00
1.353846153846153810e-01 -2.403489389600768911e-01 1.173169434001492262e-01 -9.635700687003790899e-01
2.707692307692307621e-01 -4.828804936305791662e-01 1.639365706039617454e-01 -8.602019228641011317e-01
4.061538461538461431e-01 -7.036148189901105798e-01 8.283083786756301192e-02 -7.057332014574091428e-01
5.415384615384615241e-01 -8.405737163516312505e-01 -1.479910572714343009e-01 -5.210824718211797268e-01
6.769230769230769607e-01 -8.086589112418693936e-01 -4.891680997780674112e-01 -3.267669847238356406e-01
8.123076923076922862e-01 -5.450847621271901478e-01 -8.267847965373634755e-01 -1.389251695052256819e-01
9.476923076923076117e-01 -6.981559384846758309e-02 -9.970333931450863219e-01 3.226166221406971679e-02
1.083076923076923048e+00 4.769588640158753390e-01 -8.598665123099278329e-01 1.820183148984577948e-01
1.218461538461538485e+00 8.641134704211024253e-01 -3.968620324978651692e-01 3.095152205612412555e-01
1.353846153846153921e+00 8.798599509895815851e-01 2.293533154505649763e-01 4.162153978153139144e-01
1.489230769230769136e+00 4.760044065235870536e-01 7.202412812603913306e-01 5.046430879878373021e-01
1.624615384615384572e+00 -1.534935790189870808e-01 8.017493690578068044e-01 5.776076488945526277e-01
1.760000000000000009e+00 -6.478053733125813674e-01 4.166415521143850276e-01 6.377706901720677779e-01
1.895384615384615223e+00 -6.995930029069403755e-01 -1.948065947940583187e-01 6.874692171928403761e-01
2.030769230769230660e+00 -2.832900209559776061e-01 -6.235289711304984328e-01 7.286650186081441438e-01
2.166153846153846096e+00 2.944708696961332306e-01 -5.754533243932004050e-01 7.629778268908568029e-01
2.301538461538461533e+00 6.016450609040950859e-01 -1.059541227209752079e-01 7.917020068219410289e-01
2.436923076923076970e+00 4.147057452341256778e-01 4.029236762328409771e-01 8.158842481646850775e-01
2.572307692307692406e+00 -9.021571166476506642e-02 5.406993683595419098e-01 8.363617775288088030e-01
2.707692307692307843e+00 -4.748732936830823426e-01 2.133533040182239160e-01 8.537984004229555168e-01
2.843076923076922835e+00 -4.149507862177724271e-01 -2.703918265697688450e-01 8.687349138242410618e-01
2.978461538461538272e+00 1.024320823692703719e-02 -4.718871763759381333e-01 8.815974306552196715e-01
3.113846153846153708e+00 3.910062597823257824e-01 -2.239272405876220617e-01 8.927302798420485574e-01
3.249230769230769145e+00 3.735159635940404899e-01 2.147647543454963004e-01 9.024182849449040589e-01
3.384615384615384581e+00 -2.037110564800631574e-03 4.126446665691770321e-01 9.108881417724484786e-01
3.520000000000000018e+00 -3.472049434276081592e-01 1.900386148757216564e-01 9.183306421582387857e-01
3.655384615384615454e+00 -3.191456851375800152e-01 -2.066616181440431577e-01 9.248968996620722249e-01
3.790769230769230447e+00 3.249251382434098501e-02 -3.643038854654406800e-01 9.307117260296116079e-01
3.926153846153845883e+00 3.261568121089257755e-01 -1.331861937185101763e-01 9.358849982065583495e-01
4.061538461538461320e+00 2.565680659892765614e-01 2.227543384476103339e-01 9.405056699545139010e-01
4.196923076923076756e+00 -8.269609282720077892e-02 3.174963371533809364e-01 9.446454991293015135e-01
4.332307692307692193e+00 -3.109805353878116185e-01 6.234695281870672456e-02 9.483679342811500712e-01
4.467692307692307629e+00 -1.841606808906325887e-01 -2.455616465486807898e-01 9.517258914520210222e-01
4.603076923076923066e+00 1.395194285605264040e-01 -2.625931877087385180e-01 9.547654592002693397e-01
4.738461538461538503e+00 2.879006449957322578e-01 1.606988675833091740e-02 9.575244005807643788e-01
4.873846153846153939e+00 1.014373744818555245e-01 2.608494567626639116e-01 9.600344180296214169e-01
5.009230769230769376e+00 -1.910199420418539629e-01 1.935039036368009224e-01 9.623230907279944901e-01
5.144615384615384812e+00 -2.471210228635499218e-01 -9.395246148858918400e-02 9.644181149158898014e-01
5.280000000000000249e+00 -1.213300164475460824e-02 -2.569808272091813062e-01 9.663394171415996547e-01
