0.000000000000000000e+00 -2.066380421612118210e-09 7.693918182022106286e-10 -1.000000000000000000e+00
1.353846153846153810e-01 -2.635266952756832870e-01 4.403068346240071596e-02 -9.636453707194172491e-01
2.707692307692307621e-01 -5.075961398220983911e-01 2.159868500044320738e-02 -8.613212113821744342e-01
4.061538461538461431e-01 -6.943222579006662620e-01 -1.129542716704204364e-01 -7.107388981902770242e-01
5.415384615384615241e-01 -7.634102299029132954e-01 -3.627430405154951076e-01 -5.344266546945684038e-01
6.769230769230769607e-01 -6.514174090933736450e-01 -6.715340482665570487e-01 -3.531081662283526157e-01
8.123076923076922862e-01 -3.314731527638802300e-01 -9.258372362655596932e-01 -1.814886865481040445e-01
9.476923076923076117e-01 1.448884264321448345e-01 -9.890612142711807664e-01 -2.742495713315568420e-02
1.083076923076923048e+00 6.334536096611688150e-01 -7.664102473835846530e-01 1.064838276935046041e-01
1.218461538461538485e+00 9.358540807876741807e-01 -2.746880186451884365e-01 2.207055193340444199e-01
1.353846153846153921e+00 8.900975183764791021e-01 3.273336191709504961e-01 3.171229137572854073e-01
1.489230769230769136e+00 4.736321283553197592e-01 7.855655514582464694e-01 3.981804699073286935e-01
1.624615384615384572e+00 -1.466167891613161245e-01 8.723315579082627780e-01 4.664010929317937704e-01
1.760000000000000009e+00 -6.697184046819515402e-01 5.261476194367193937e-01 5.240566131290621543e-01
1.895384615384615223e+00 -8.155820924367105373e-01 -8.051862137781182205e-02 5.730031933878615424e-01
2.030769230769230660e+00 -4.990066686982387867e-01 -6.108559223736335086e-01 6.146851979976628577e-01
2.166153846153846096e+00 9.322228216632358344e-02 -7.539016396275629583e-01 6.503328756837852831e-01
2.301538461538461533e+00 5.953442816838169227e-01 -4.263078180894210867e-01 6.810420113441846279e-01
2.436923076923076970e+00 6.892213690782814650e-01 1.551697537790813763e-01 7.077344616646743525e-01
2.572307692307692406e+00 3.219293426857594009e-01 6.015629795476292729e-01 7.310783838518073452e-01
2.707692307692307843e+00 -2.449411984659070063e-01 6.125323021476727359e-01 7.515320778551597414e-01
2.843076923076922835e+00 -6.089798274941846667e-01 1.924644883876590606e-01 7.694763123067336341e-01
2.978461538461538272e+00 -5.146047832083656681e-01 -3.441576035130233246e-01 7.853219371662896187e-01
3.113846153846153708e+00 -4.526986342080158154e-02 -5.990014447857552327e-01 7.994630970021884275e-01
3.249230769230769145e+00 4.344867633756646641e-01 -3.893288028648796972e-01 8.121809568007184454e-01
3.384615384615384581e+00 5.564949385998304576e-01 1.093905419289882830e-01 8.236145444976733510e-01
3.520000000000000018e+00 2.368897692295967028e-01 4.985737529095789489e-01 8.338473708090979875e-01
3.655384615384615454e+00 -2.565244871230654700e-01 4.727445941312838351e-01 8.430313868000440802e-01
3.790769230769230447e+00 -5.203914461996018703e-01 6.590445518167836747e-02 8.513775269575700744e-01
3.926153846153845883e+00 -3.460929650087645193e-01 -3.771417196952261408e-01 8.590566408061750536e-01
4.061538461538461320e+00 1.082311385886359500e-01 -4.879718226746683207e-01 8.661202309472043614e-01
4.196923076923076756e+00 4.526440766707273688e-01 -1.837505213719622943e-01 8.725502417823171042e-01
4.332307692307692193e+00 3.980119194446306574e-01 2.646379763877249602e-01 8.783781780976805953e-01
4.467692307692307629e+00 3.141140328765890111e-03 4.679982398308527580e-01 8.837210528128903730e-01
4.603076923076923066e+00 -3.795338063911674054e-01 2.571755877057602113e-01 8.887125721223714248e-01
4.738461538461538503e+00 -4.153049966529019921e-01 -1.713030862553600875e-01 8.934049048794064918e-01
4.873846153846153939e+00 -8.236186742965778684e-02 -4.327163906729558085e-01 8.977574776911005916e-01
5.009230769230769376e+00 3.124214477114779509e-01 -2.987836994629465281e-01 9.017298228636327906e-01
5.144615384615384812e+00 4.128095052553169553e-01 9.943285244496161135e-02 9.053712136583900172e-01
5.280000000000000249e+00 1.358315516318486238e-01 3.944994224798590854e-01 9.087990456483370227e-01
