0.000000000000000000e+00 -2.905756919627300989e-10 -4.519627526121992820e-09 -1.000000000000000000e+00
1.353846153846153810e-01 2.718855929804902538e-01 3.741458595484485339e-01 -8.866166154428234414e-01
2.707692307692307621e-01 4.776833122924067365e-01 6.559730135848396149e-01 -5.843883531463300862e-01
4.061538461538461431e-01 5.834181602649288756e-01 7.902105746863753444e-01 -1.875625316460454994e-01
5.415384615384615241e-01 5.979875959506332217e-01 7.763837287503438933e-01 1.990688205847841730e-01
6.769230769230769607e-01 5.580437724494391460e-01 6.594814547283802675e-01 5.036489878178227464e-01
8.123076923076922862e-01 5.013579557716075774e-01 5.016266163040966619e-01 7.049850880890534688e-01
9.476923076923076117e-01 4.485693269592669341e-01 3.526584289982098164e-01 8.212261052170500841e-01
1.083076923076923048e+00 4.025790135001381942e-01 2.353246704648563892e-01 8.846176121899341771e-01
1.218461538461538485e+00 3.593848093373363528e-01 1.490525989301025311e-01 9.212071244846962159e-01
1.353846153846153921e+00 3.175795948878404329e-01 8.396208552675366033e-02 9.445056024809682649e-01
1.489230769230769136e+00 2.794727202623610851e-01 3.265642054363815383e-02 9.595969215144627418e-01
1.624615384615384572e+00 2.468660774351624232e-01 -6.943253184655356902e-03 9.690237018791271195e-01
1.760000000000000009e+00 2.184020213111220743e-01 -3.535030982066793975e-02 9.752174830781721315e-01
1.895384615384615223e+00 1.914050567398086766e-01 -5.506707055405861417e-02 9.799643534288334790e-01
2.030769230769230660e+00 1.650869680894374580e-01 -6.999345384307599505e-02 9.837915367003329248e-01
2.166153846153846096e+00 1.410244739849661477e-01 -8.249099024819844805e-02 9.865627418219155009e-01
2.301538461538461533e+00 1.206742062348826056e-01 -9.220654842342432267e-02 9.883999631510800299e-01
2.436923076923076970e+00 1.033172398664494868e-01 -9.796030521819867887e-02 9.898122057070125601e-01
2.572307692307692406e+00 8.691438712283103274e-02 -1.001540004111456383e-01 9.911680064491015241e-01
2.707692307692307843e+00 7.052140842612612814e-02 -1.008718026565869341e-01 9.923964125601327790e-01
2.843076923076922835e+00 5.521883825231919951e-02 -1.017165976694604235e-01 9.932792652843811521e-01
2.978461538461538272e+00 4.248108902423268496e-02 -1.023067742753353132e-01 9.938449607810505571e-01
3.113846153846153708e+00 3.218324523909456281e-02 -1.011981049239331631e-01 9.943451825645713837e-01
3.249230769230769145e+00 2.269018005343317185e-02 -9.798528862594541033e-02 9.949287628293992380e-01
3.384615384615384581e+00 1.281516119512754459e-02 -9.399460178488558415e-02 9.954898462523983360e-01
3.520000000000000018e+00 3.159326468836418100e-03 -9.076420571823626271e-02 9.958670374037750239e-01
3.655384615384615454e+00 -4.798082169857782742e-03 -8.828368255041262047e-02 9.960834634652140362e-01
3.790769230769230447e+00 -1.066542117156937808e-02 -8.518613660152207778e-02 9.963076268553457959e-01
3.926153846153845883e+00 -1.566903754563031548e-02 -8.057750130459602478e-02 9.966248508022587105e-01
4.061538461538461320e+00 -2.117668090091769789e-02 -7.522430151070383375e-02 9.969414371351599247e-01
4.196923076923076756e+00 -2.707071507006885563e-02 -7.063619602443008128e-02 9.971344436636930819e-01
4.332307692307692193e+00 -3.199849596461811635e-02 -6.722437216054358289e-02 9.972243398653437563e-01
4.467692307692307629e+00 -3.513469556249568942e-02 -6.388912862644589852e-02 9.973380307648725962e-01
4.603076923076923066e+00 -3.725940399224318689e-02 -5.942536504508705991e-02 9.975368661953890603e-01
4.738461538461538503e+00 -3.980666974790929291e-02 -5.408223091155910101e-02 9.977424520945166186e-01
4.873846153846153939e+00 -4.312313229356238425e-02 -4.924072138942167665e-02 9.978553092991178097e-01
5.009230769230769376e+00 -4.609609296411017881e-02 -4.570994548506995825e-02 9.978903888013890278e-01
5.144615384615384812e+00 -4.760513039886886399e-02 -4.274961613150588674e-02 9.979507525523547695e-01
5.280000000000000249e+00 -4.794792238973911297e-02 -3.902102671537839573e-02 9.980870981916430962e-01
