0.000000000000000000e+00 -2.357919022690870479e-09 3.149752290125058822e-09 -1.000000000000000000e+00
1.353846153846153810e-01 2.209542934114789442e-02 3.322868882763528597e-02 -9.992033249726672839e-01
2.707692307692307621e-01 3.960149857623865288e-02 6.915509770253150390e-02 -9.968192433118383544e-01
4.061538461538461431e-01 4.747077011152411874e-02 1.093828228314933509e-01 -9.928649990289237781e-01
5.415384615384615241e-01 4.003851755443054578e-02 1.532894903733403591e-01 -9.873691805025843760e-01
6.769230769230769607e-01 1.161962648625729233e-02 1.968100412675700128e-01 -9.803719142727314040e-01
8.123076923076922862e-01 -4.190673604930457430e-02 2.315282475734112000e-01 -9.719240992537971913e-01
9.476923076923076117e-01 -1.204589964415788972e-01 2.446954971476101581e-01 -9.620869714539931339e-01
1.083076923076923048e+00 -2.164625433494865303e-01 2.210667655063955073e-01 -9.509314978102528793e-01
1.218461538461538485e+00 -3.121715806717144104e-01 1.473059349400078211e-01 -9.385343540109732929e-01
1.353846153846153921e+00 -3.795318587246844788e-01 1.890040424145481013e-02 -9.249837061620485024e-01
1.489230769230769136e+00 -3.848961523387790518e-01 -1.519209894299655972e-01 -9.103686632199382567e-01
1.624615384615384572e+00 -2.997970535756151467e-01 -3.308724979036875014e-01 -8.947853995473201705e-01
1.760000000000000009e+00 -1.164455393020352725e-01 -4.636550554068940011e-01 -8.783278588748564264e-01
1.895384615384615223e+00 1.375379771413801355e-01 -4.894852629096149155e-01 -8.610937986773911090e-01
2.030769230769230660e+00 3.939122789848316097e-01 -3.658938918003403207e-01 -8.431782267754333038e-01
2.166153846153846096e+00 5.571258257810561831e-01 -9.754573548552245010e-02 -8.246756979116567354e-01
2.301538461538461533e+00 5.390895825892393356e-01 2.455029136322484651e-01 -8.056703892152492497e-01
2.436923076923076970e+00 3.063307284684084753e-01 5.366220307527814759e-01 -7.862518517915034755e-01
2.572307692307692406e+00 -8.250328173062163040e-02 6.369174352235057457e-01 -7.665003752774888213e-01
2.707692307692307843e+00 -4.763500722807227361e-01 4.645859086645212077e-01 -7.464875507748457428e-01
2.843076923076922835e+00 -6.849998432834644158e-01 5.729086632990185168e-02 -7.262820645470080549e-01
2.978461538461538272e+00 -5.742498346680400267e-01 -4.145596102314182962e-01 -7.059532488034897524e-01
3.113846153846153708e+00 -1.578496911349761278e-01 -7.107046428184720099e-01 -6.855469302592589464e-01
3.249230769230769145e+00 3.746786108665872694e-01 -6.459172234064760598e-01 -6.651307101049058756e-01
3.384615384615384581e+00 7.336430196316904295e-01 -2.146558390460053534e-01 -6.447344185390191384e-01
3.520000000000000018e+00 6.886938424133592918e-01 3.685125052978671101e-01 -6.244123908783214549e-01
3.655384615384615454e+00 2.269793209013156177e-01 7.638211970694410713e-01 -6.041926142926572485e-01
3.790769230769230447e+00 -4.002226505577732851e-01 7.061326975071914314e-01 -5.841142168686423997e-01
3.926153846153845883e+00 -8.024538926767056379e-01 1.942541218198862163e-01 -5.642020205651064879e-01
4.061538461538461320e+00 -6.957243738237404163e-01 -4.685037166100560202e-01 -5.444836406268608320e-01
4.196923076923076756e+00 -1.154977539370096173e-01 -8.432361315289126358e-01 -5.249796099451187192e-01
4.332307692307692193e+00 5.670250203770260677e-01 -6.501860185150717397e-01 -5.056985724783703562e-01
4.467692307692307629e+00 8.735334058411334812e-01 9.105550884861313143e-03 -4.866688462634649603e-01
4.603076923076923066e+00 5.599165647134269896e-01 6.837817902554612637e-01 -4.678950932882254832e-01
4.738461538461538503e+00 -1.755831968768568063e-01 8.759032500299906987e-01 -4.493927607645024080e-01
4.873846153846153939e+00 -8.004266921341435248e-01 4.164173011771974409e-01 -4.311651741436569041e-01
5.009230769230769376e+00 -8.306028829081275600e-01 -3.732843649428844723e-01 -4.132156038797644149e-01
5.144615384615384812e+00 -2.164417907762170024e-01 -8.925668212472270824e-01 -3.955587376235749630e-01
5.280000000000000249e+00 5.825775587647539222e-01 -7.194165601780260211e-01 -3.781962703228536338e-01
