0.000000000000000000e+00 -1.413520919780571999e-09 -2.236989354639658481e-09 -1.000000000000000000e+00
1.353846153846153810e-01 -2.434978852739201061e-01 3.932163579879455750e-01 -8.866148660701753670e-01
2.707692307692307621e-01 -5.110207926282237523e-01 6.304029345423081132e-01 -5.843305767412813045e-01
4.061538461538461431e-01 -7.690904536090024113e-01 6.111306876094944052e-01 -1.871075067026052308e-01
5.415384615384615241e-01 -9.196647354619931214e-01 3.374254959484447869e-01 2.008753504817090418e-01
6.769230769230769607e-01 -8.582775490774935401e-01 -7.095806490408063105e-02 5.082482513714398076e-01
8.123076923076922862e-01 -5.615220127609552581e-01 -4.191862902968781501e-01 7.134210149266576595e-01
9.476923076923076117e-01 -1.358734248831136304e-01 -5.360420784541750638e-01 8.331822234756702805e-01
1.083076923076923048e+00 2.233270567317558464e-01 -3.783794715619276938e-01 8.983042216362933097e-01
1.218461538461538485e+00 3.500144388228837444e-01 -6.611702037069711047e-02 9.344065876940929050e-01
1.353846153846153921e+00 2.216463415227799272e-01 1.927549395252499131e-01 9.558850413091436460e-01
1.489230769230769136e+00 -2.283421532394059456e-02 2.455292951457546391e-01 9.691192512389379399e-01
1.624615384615384572e+00 -1.863147371573599387e-01 1.008167088180161597e-01 9.773030484926612527e-01
1.760000000000000009e+00 -1.622359348851111216e-01 -8.992747212436509596e-02 9.826450012352738739e-01
1.895384615384615223e+00 -7.498576606608922668e-03 -1.636454446100603644e-01 9.864901132488838043e-01
2.030769230769230660e+00 1.222271768525619029e-01 -7.932678156024954019e-02 9.893263957271821729e-01
2.166153846153846096e+00 1.163426950059877757e-01 6.133898668405338844e-02 9.913127402496797469e-01
2.301538461538461533e+00 1.948407088452744351e-03 1.204791800318551070e-01 9.927135016966560643e-01
2.436923076923076970e+00 -9.657025048397591127e-02 5.444263245231117931e-02 9.938356905794816232e-01
2.572307692307692406e+00 -8.565383562814314622e-02 -5.517963416454683967e-02 9.947953997280731819e-01
2.707692307692307843e+00 9.814683791349636255e-03 -9.376867474153820214e-02 9.955452876853312372e-01
2.843076923076922835e+00 8.293500732286207544e-02 -3.077682338802934653e-02 9.960792758746307429e-01
2.978461538461538272e+00 6.088280476508345362e-02 5.720909464626677821e-02 9.965037838719247310e-01
3.113846153846153708e+00 -2.291754890572048065e-02 7.514270720000862380e-02 9.969091147857687130e-01
3.249230769230769145e+00 -7.292254507006366848e-02 1.089845935560974921e-02 9.972777864273750792e-01
3.384615384615384581e+00 -3.830789636732100101e-02 -5.847888323777712671e-02 9.975531104152257633e-01
3.520000000000000018e+00 3.556311795496688161e-02 -5.685332419053273217e-02 9.977486993127692161e-01
3.655384615384615454e+00 6.378461168446263041e-02 7.835279823706881031e-03 9.979326905616774379e-01
3.790769230769230447e+00 1.855192069771690461e-02 5.820277208588445217e-02 9.981321597561544356e-01
3.926153846153845883e+00 -4.355473128052496368e-02 3.852377077556475016e-02 9.983078027710567959e-01
4.061538461538461320e+00 -5.076856176885959082e-02 -2.379572814237791017e-02 9.984267098964302312e-01
4.196923076923076756e+00 1.289078098268833100e-03 -5.446024811759653944e-02 9.985149025127686429e-01
4.332307692307692193e+00 4.850681910772779160e-02 -2.024316321349652753e-02 9.986174979748773106e-01
4.467692307692307629e+00 3.623097955121407088e-02 3.488090567972773615e-02 9.987343293062287408e-01
4.603076923076923066e+00 -1.760268157703535202e-02 4.509729894149146212e-02 9.988273185669080956e-01
4.738461538461538503e+00 -4.724204490005065593e-02 9.882275493349503004e-04 9.988828033693112340e-01
4.873846153846153939e+00 -1.901448515700188829e-02 -4.214053107156989081e-02 9.989305656283089530e-01
5.009230769230769376e+00 3.024464718722238987e-02 -3.296438345074142323e-02 9.989986345234962428e-01
5.144615384615384812e+00 4.039439010027841281e-02 1.481605016302381568e-02 9.990737962685334317e-01
5.280000000000000249e+00 1.121079202056635832e-03 4.179780806966029022e-02 9.991253009598256574e-01
