0.000000000000000000e+00 1.752107919016751809e-09 -2.470294454377862004e-09 -1.000000000000000000e+00
1.353846153846153810e-01 2.058060918438922582e-01 4.620209056836019901e-01 -8.626532448174847323e-01
2.707692307692307621e-01 3.626501925906554513e-01 7.881363101539895499e-01 -4.972988653852799534e-01
4.061538461538461431e-01 4.475401954519488967e-01 8.939330187212348733e-01 -2.382069199861953923e-02
5.415384615384615241e-01 4.741019087376509566e-01 7.762571148666352894e-01 4.154890030098242204e-01
6.769230769230769607e-01 4.818885871556051748e-01 5.090107474296143852e-01 7.132156012863802852e-01
8.123076923076922862e-01 5.106701577559074057e-01 2.078888193676436957e-01 8.342584720314739632e-01
9.476923076923076117e-01 5.751109561404672554e-01 -1.961201704088871844e-02 8.178331928765396608e-01
1.083076923076923048e+00 6.550653686735522507e-01 -1.166517112130367462e-01 7.465036960305956315e-01
1.218461538461538485e+00 7.075707306604933633e-01 -9.391579023134510873e-02 7.003628950678576492e-01
1.353846153846153921e+00 6.937626318191755237e-01 -1.513749871200564812e-02 7.200343838107624572e-01
1.489230769230769136e+00 6.047861099076363711e-01 3.993155807917575517e-02 7.953784155266997447e-01
1.624615384615384572e+00 4.709942760826694164e-01 1.635253797320643243e-02 8.819795250793298624e-01
1.760000000000000009e+00 3.481756951163004210e-01 -9.090921939449825295e-02 9.330072706203659250e-01
1.895384615384615223e+00 2.879541440658323070e-01 -2.387391358278959652e-01 9.274044964187769802e-01
2.030769230769230660e+00 3.090236777929343259e-01 -3.619024155894493555e-01 8.795008781445436963e-01
2.166153846153846096e+00 3.859098805746792316e-01 -4.089072621216981451e-01 8.269565361627941869e-01
2.301538461538461533e+00 4.623497928715580296e-01 -3.690084203834252952e-01 8.062589006675027203e-01
2.436923076923076970e+00 4.822737086011630314e-01 -2.766830587190304280e-01 8.311723113762563564e-01
2.572307692307692406e+00 4.212238414100750172e-01 -1.920589559016023518e-01 8.863830608910635567e-01
2.707692307692307843e+00 3.003780694785394556e-01 -1.682356627617569989e-01 9.388628595117028963e-01
2.843076923076922835e+00 1.749967375489856758e-01 -2.231092553519964383e-01 9.589542875212038187e-01
2.978461538461538272e+00 1.035547305023455655e-01 -3.306260486311287661e-01 9.380599551544352988e-01
3.113846153846153708e+00 1.147966800655572661e-01 -4.358046588353129414e-01 8.926854937286450298e-01
3.249230769230769145e+00 1.914221078271677867e-01 -4.851320328407635607e-01 8.532257587655029951e-01
3.384615384615384581e+00 2.797036812918302640e-01 -4.557884144264726101e-01 8.449923976036072260e-01
3.520000000000000018e+00 3.197493168659918394e-01 -3.678116150258884387e-01 8.731927067755010929e-01
3.655384615384615454e+00 2.793217244056281356e-01 -2.727251980388837871e-01 9.206481705852510578e-01
3.790769230769230447e+00 1.720703318825846373e-01 -2.250115376209993745e-01 9.590393831551409232e-01
3.926153846153845883e+00 4.979298562792076888e-02 -2.520988212111628934e-01 9.664172397481378685e-01
4.061538461538461320e+00 -2.697078939159652800e-02 -3.394454537819197038e-01 9.402356799668338816e-01
4.196923076923076756e+00 -2.328448161196899902e-02 -4.388330821043310848e-01 8.982621984395634529e-01
4.332307692307692193e+00 5.038834787770557488e-02 -4.953190078499681848e-01 8.672429665652868769e-01
4.467692307692307629e+00 1.441797549402404344e-01 -4.778645580377042790e-01 8.665148015170542894e-01
4.603076923076923066e+00 1.972196801036891212e-01 -3.966017725735780930e-01 8.965506024994773782e-01
4.738461538461538503e+00 1.722609897595534512e-01 -2.970956495435155276e-01 9.391773189344559958e-01
4.873846153846153939e+00 7.679672303252582655e-02 -2.348018957406731999e-01 9.690025609884637126e-01
5.009230769230769376e+00 -4.132330372932398188e-02 -2.439777826695301022e-01 9.688977481234107847e-01
5.144615384615384812e+00 -1.212737352492166965e-01 -3.184753714650057077e-01 9.401382262374458065e-01
5.280000000000000249e+00 -1.239772399429980021e-01 -4.152049927198421253e-01 9.012359371700603416e-01
