0.000000000000000000e+00 -1.641395679190319558e-09 -4.428712237256704874e-09 -1.000000000000000000e+00
1.353846153846153810e-01 -4.327423298803417806e-01 -2.610880089617657607e-01 -8.628789305840052215e-01
2.707692307692307621e-01 -6.976321611099223219e-01 -5.128564020307450066e-01 -5.002734659525551741e-01
4.061538461538461431e-01 -6.972733128300976357e-01 -7.159693076194592054e-01 -3.436087267660701411e-02
5.415384615384615241e-01 -4.465493878852435095e-01 -8.016203468647236097e-01 3.974709528284798843e-01
6.769230769230769607e-01 -6.671808203468088116e-02 -7.092609714472121185e-01 7.017739496852414272e-01
8.123076923076922862e-01 2.689898813227515340e-01 -4.376695690282075279e-01 8.579525471221554067e-01
9.476923076923076117e-01 4.166490053358211654e-01 -7.036828838488623505e-02 9.063366976346709514e-01
1.083076923076923048e+00 3.314559235809474980e-01 2.507210910305961993e-01 9.095440097860766349e-01
1.218461538461538485e+00 8.861082888928888124e-02 3.955661810008814783e-01 9.141499286064648233e-01
1.353846153846153921e+00 -1.596649296020534181e-01 3.197843052338297243e-01 9.339381190920192921e-01
1.489230769230769136e+00 -2.703955397867571220e-01 9.364847963378887530e-02 9.581818984202783440e-01
1.624615384615384572e+00 -1.909582422740313534e-01 -1.367845716961288427e-01 9.720195353792356885e-01
1.760000000000000009e+00 1.381732324509369475e-02 -2.360591998584387896e-01 9.716389065313234541e-01
1.895384615384615223e+00 2.064515387901047494e-01 -1.599823639166032263e-01 9.652875725519144412e-01
2.030769230769230660e+00 2.661697993539893226e-01 2.165917192158593740e-02 9.636810297386101398e-01
2.166153846153846096e+00 1.655481205563488212e-01 1.757523194233836517e-01 9.704132644278029574e-01
2.301538461538461533e+00 -1.581530839863866389e-02 1.965094518568705484e-01 9.803731220185847306e-01
2.436923076923076970e+00 -1.493290718746603796e-01 7.510619990797431922e-02 9.859299269196377669e-01
2.572307692307692406e+00 -1.469728981611190810e-01 -9.862936062519933600e-02 9.842098465324572443e-01
2.707692307692307843e+00 -2.035417887394369574e-02 -2.026021605546546311e-01 9.790482788906059719e-01
2.843076923076922835e+00 1.314778533896527879e-01 -1.694184282704125355e-01 9.767334810609287210e-01
2.978461538461538272e+00 1.957690941665555240e-01 -3.218741048724227394e-02 9.801203806628739912e-01
3.113846153846153708e+00 1.275792287664068436e-01 1.028356985561277859e-01 9.864817960042673306e-01
3.249230769230769145e+00 -1.983873493738814997e-02 1.357004805904727385e-01 9.905504072946542671e-01
3.384615384615384581e+00 -1.370781353062273666e-01 4.556199683913132736e-02 9.895109418740479779e-01
3.520000000000000018e+00 -1.408700749022058218e-01 -9.640450363872540840e-02 9.853221196616406274e-01
3.655384615384615454e+00 -3.515455996311012132e-02 -1.825103998142706963e-01 9.825740709875910861e-01
3.790769230769230447e+00 9.427194742594785515e-02 -1.500826355499204623e-01 9.841675706669094081e-01
3.926153846153845883e+00 1.464423933749292583e-01 -2.744196985406576611e-02 9.888375622487193262e-01
4.061538461538461320e+00 8.200283092384889894e-02 8.974640744046087637e-02 9.925822970437688797e-01
4.196923076923076756e+00 -4.835141320009569976e-02 1.127740779831810786e-01 9.924427600747600664e-01
4.332307692307692193e+00 -1.446427040038336387e-01 2.744410013449031377e-02 9.891023669548736352e-01
4.467692307692307629e+00 -1.354223442331725924e-01 -9.662035644042053784e-02 9.860645197294312103e-01
4.603076923076923066e+00 -3.227802093466516226e-02 -1.614306217085578476e-01 9.863550301614072424e-01
4.738461538461538503e+00 8.081351298122466109e-02 -1.170727879112516689e-01 9.898289644604327808e-01
4.873846153846153939e+00 1.141333919831422905e-01 4.329842670692668483e-04 9.934646296164701962e-01
5.009230769230769376e+00 4.228259150613519757e-02 9.876911367834884103e-02 9.942110019199279503e-01
5.144615384615384812e+00 -7.713418579752555349e-02 1.025419823442507428e-01 9.917327618846140114e-01
5.280000000000000249e+00 -1.501026851054271527e-01 1.214602096831030736e-02 9.885948588697434092e-01
