1.000000000000000056e-01 2.512945280320895772e-03 5.615637263498529349e-04 -9.999966820840826554e-01
3.071428571428571619e-01 7.709121467429228339e-03 1.687445772766916954e-03 -9.999688342671715358e-01
5.142857142857142350e-01 1.288285774227189949e-02 2.699247150491970986e-03 -9.999132960155006078e-01
7.214285714285714191e-01 1.803875713438606379e-02 3.517347553689580825e-03 -9.998309582357479686e-01
9.285714285714284921e-01 2.321127764754178299e-02 4.062672075765030345e-03 -9.997220917262091833e-01
1.135714285714285676e+00 2.847588789536464188e-02 4.266472595001624679e-03 -9.995850260839028723e-01
1.342857142857142971e+00 3.395590147105601031e-02 4.088451889576216400e-03 -9.994144882178358502e-01
1.550000000000000044e+00 3.982210378642377091e-02 3.542108512063680062e-03 -9.991998744526201515e-01
1.757142857142857117e+00 4.627299468643860519e-02 2.729995366303533764e-03 -9.989242989474259593e-01
1.964285714285714191e+00 5.349419671479210131e-02 1.871908736571959494e-03 -9.985654169756971177e-01
2.171428571428571264e+00 6.159242643220272373e-02 1.319887035899155667e-03 -9.980993165987420701e-01
2.378571428571428559e+00 7.050542828354561253e-02 1.534931169825814665e-03 -9.975087924858000443e-01
2.585714285714285854e+00 7.991341115883701662e-02 2.995861216662546248e-03 -9.967956325420422869e-01
2.792857142857142705e+00 8.919374998052785608e-02 6.056878092054345832e-03 -9.959939232200790693e-01
3.000000000000000000e+00 9.747580822044188409e-02 1.072506549891348408e-02 -9.951778403397061323e-01
