0.000000000000000000e+00 2.264451914440721220e-12 -1.998420223232205988e-12 -1.000000000000000000e+00
9.846153846153846145e-02 2.088006335330056806e-01 -1.828512957561312657e-01 -9.607120791818373196e-01
1.969230769230769229e-01 4.048591088745337463e-01 -3.461513073748094804e-01 -8.463263994299174975e-01
2.953846153846153566e-01 5.763699731364985146e-01 -4.721791674610639200e-01 -6.669666318098522728e-01
3.938461538461538458e-01 7.133161238226930490e-01 -5.467056483607578565e-01 -4.385123049955292340e-01
4.923076923076923350e-01 8.081996784313163484e-01 -5.603418626222523846e-01 -1.811912710312919284e-01
5.907692307692307132e-01 8.565690255336648740e-01 -5.094427711373984424e-01 8.220442445228717809e-02
6.892307692307692024e-01 8.573140309556713801e-01 -3.964938715852585616e-01 3.283371167619734132e-01
7.876923076923076916e-01 8.127091087873369313e-01 -2.299346991824177400e-01 5.353820492358570826e-01
8.861538461538461808e-01 7.281981225601434904e-01 -2.343210211161629586e-02 6.849660070323034811e-01
9.846153846153846700e-01 6.119415463783621778e-01 2.053115490244144803e-01 7.637897037559603364e-01
1.083076923076923048e+00 4.741595619164419850e-01 4.361533590745905742e-01 7.648156360333994153e-01
1.181538461538461426e+00 3.263317044649178822e-01 6.483130009497751756e-01 6.878937936507100170e-01
1.280000000000000027e+00 1.803036845593027071e-01 8.222656071779506082e-01 5.397868585900573724e-01
1.378461538461538405e+00 4.739003411318243320e-02 9.415284947836686236e-01 3.335839897893104755e-01
1.476923076923077005e+00 -6.248351244030236201e-02 9.941984988801416678e-01 8.755087475618014703e-02
1.575384615384615383e+00 -1.415023768367277279e-01 9.740816656538061613e-01 -1.764709215577865420e-01
1.673846153846153761e+00 -1.845185147364541978e-01 8.813270211456297742e-01 -4.349891948538221476e-01
1.772307692307692362e+00 -1.893831348140899429e-01 7.224959974804910923e-01 -6.649312457838379986e-01
1.870769230769230740e+00 -1.570436654387027398e-01 5.100597536996470671e-01 -8.456809886940916954e-01
1.969230769230769340e+00 -9.139437881902319483e-02 2.613682059651929457e-01 -9.609025592269665461e-01
2.067692307692307718e+00 1.105770522529057626e-03 -2.835937797282667584e-03 -9.999953673276998911e-01
2.166153846153846096e+00 1.120057804622764802e-01 -2.602031875134894201e-01 -9.590354562706736585e-01
2.264615384615384475e+00 2.315822866978577976e-01 -4.887233480885801451e-01 -8.411415657332620421e-01
2.363076923076922853e+00 3.496523349794062874e-01 -6.686724379886518355e-01 -6.562167445854744097e-01
2.461538461538461675e+00 4.564045299641719677e-01 -7.843594398150530722e-01 -4.200894833149411700e-01
2.560000000000000053e+00 5.431791333160933544e-01 -8.255316407677025792e-01 -1.531467876263864492e-01
2.658461538461538431e+00 6.031514440737892890e-01 -7.883250942036992281e-01 1.214573235223424114e-01
2.756923076923076810e+00 6.318484275995324140e-01 -6.756443671717273780e-01 3.798318755696780680e-01
2.855384615384615188e+00 6.274626712059863110e-01 -4.969636583439443478e-01 5.994311620680017327e-01
2.953846153846154010e+00 5.909512498059186214e-01 -2.675399514108530163e-01 7.610512431500685571e-01
3.052307692307692388e+00 5.259026102927939483e-01 -7.122292183035925511e-03 8.505149716236322099e-01
3.150769230769230766e+00 4.381940875426987847e-01 2.617418693562573173e-01 8.599285639218612332e-01
3.249230769230769145e+00 3.354670323908600649e-01 5.156650364121420083e-01 7.883853387013927128e-01
3.347692307692307523e+00 2.264653584504507933e-01 7.324427812466777210e-01 6.420599766324098789e-01
3.446153846153846345e+00 1.202974715000522388e-01 8.929991510802902654e-01 4.336831037891895613e-01
3.544615384615384723e+00 2.567761551929696739e-02 9.830681609498274076e-01 1.814322205948586397e-01
3.643076923076923102e+00 -4.978677586912811509e-02 9.944537156663332267e-01 -9.264493864050100946e-02
3.741538461538461480e+00 -1.002095179115391199e-01 9.257719305004912247e-01 -3.645605372142444733e-01
3.839999999999999858e+00 -1.218794470635109900e-01 7.826006558364542176e-01 -6.104765447399982392e-01
