0.000000000000000000e+00 -3.296484724849825806e-09 2.327046886711536179e-09 -1.000000000000000000e+00
9.846153846153846145e-02 -5.010940783934659387e-02 -1.538624170096338992e-02 -9.986247228437445944e-01
1.969230769230769229e-01 -9.884656879408415531e-02 -3.318279978262776708e-02 -9.945483338189565758e-01
2.953846153846153566e-01 -1.446983910163215092e-01 -5.556660775467971852e-02 -9.879129301945568375e-01
3.938461538461538458e-01 -1.859031316485112995e-01 -8.438230774205354723e-02 -9.789361453481998376e-01
4.923076923076923350e-01 -2.203808439097780514e-01 -1.209312427006186408e-01 -9.678860128732313939e-01
5.907692307692307132e-01 -2.457319973108052780e-01 -1.657886556820808155e-01 -9.550520507356712319e-01
6.892307692307692024e-01 -2.593177399169127595e-01 -2.186315198337948629e-01 -9.407168480008333278e-01
7.876923076923076916e-01 -2.584226248504336576e-01 -2.780888304267150613e-01 -9.251362612857596535e-01
8.861538461538461808e-01 -2.405050277491525557e-01 -3.416617955722890398e-01 -9.085243218672020005e-01
9.846153846153846700e-01 -2.035119361962310636e-01 -4.057059521365866672e-01 -8.910536490050958713e-01
1.083076923076923048e+00 -1.462578936221563819e-01 -4.655234629381339584e-01 -8.728612495040287689e-01
1.181538461538461426e+00 -6.878440088193815694e-02 -5.155919276992686484e-01 -8.540627405166230091e-01
1.280000000000000027e+00 2.728848320678043532e-02 -5.499156324261001982e-01 -8.347675124371886080e-01
1.378461538461538405e+00 1.385145682410241774e-01 -5.625030585962829122e-01 -8.151024238854226445e-01
1.476923076923077005e+00 2.595120217537174589e-01 -5.479816025059370821e-01 -7.952086961799990084e-01
1.575384615384615383e+00 3.830410319069720293e-01 -5.022381465954827151e-01 -7.752567176868888632e-01
1.673846153846153761e+00 5.003011782101649541e-01 -4.231104841776817671e-01 -7.554218383661233105e-01
1.772307692307692362e+00 6.014666753028432566e-01 -3.109597391604661532e-01 -7.358852814280050225e-01
1.870769230769230740e+00 6.764479792782051026e-01 -1.691289465539136949e-01 -7.167972196417495834e-01
1.969230769230769340e+00 7.158141169497196366e-01 -4.150379705140927467e-03 -6.982672180766571479e-01
2.067692307692307718e+00 7.118412747224210912e-01 1.743609727698795520e-01 -6.803410500657729454e-01
2.166153846153846096e+00 6.595467898385917183e-01 3.541474306921965076e-01 -6.629938705125569820e-01
2.264615384615384475e+00 5.576077301429714916e-01 5.211231798664717196e-01 -6.461323423267113508e-01
2.363076923076922853e+00 4.090355609205511556e-01 6.604910939913857248e-01 -6.296219584272082503e-01
2.461538461538461675e+00 2.214898528578035930e-01 7.581497412384792245e-01 -6.132970029423751024e-01
2.560000000000000053e+00 7.125936261711873776e-03 8.021936596099943362e-01 -5.970060196617376080e-01
2.658461538461538431e+00 -2.180520510509304233e-01 7.844063525656076452e-01 -5.806386674914152390e-01
2.756923076923076810e+00 -4.353689172547639541e-01 7.015453167742647933e-01 -5.641532605811991896e-01
2.855384615384615188e+00 -6.250643879349758736e-01 5.562441781026388199e-01 -5.476015483956944152e-01
2.953846153846154010e+00 -7.682248040558972146e-01 3.574032284355159184e-01 -5.311062247738402853e-01
3.052307692307692388e+00 -8.488337480544165814e-01 1.199017918249660752e-01 -5.148637925759605993e-01
3.150769230769230766e+00 -8.557299746620974368e-01 -1.363681253360900514e-01 -4.991087475095922765e-01
3.249230769230769145e+00 -7.842381052875282421e-01 -3.881019828399761562e-01 -4.840731172547548256e-01
3.347692307692307523e+00 -6.372502361715940422e-01 -6.107782781743515965e-01 -4.699374949821082947e-01
3.446153846153846345e+00 -4.255492404867343703e-01 -7.811710473497975871e-01 -4.567915059114818210e-01
3.544615384615384723e+00 -1.672869624790043197e-01 -8.799389493356576386e-01 -4.446359887357241303e-01
3.643076923076923102e+00 1.134356388955879702e-01 -8.940522547465798997e-01 -4.333374942865252932e-01
3.741538461538461480e+00 3.887592260290637647e-01 -8.186540726681994506e-01 -4.226701847315417204e-01
3.839999999999999858e+00 6.298957156966484838e-01 -6.581706843719126176e-01 -4.123359149998953588e-01
