0.000000000000000000e+00 1.455389543212551014e-09 1.915830583902008324e-09 -1.000000000000000000e+00
9.846153846153846145e-02 1.265114803996158499e-01 2.467501581045744297e-01 -9.607847766772238396e-01
1.969230769230769229e-01 2.387220056900539733e-01 4.742112639920760264e-01 -8.474264632801831176e-01
2.953846153846153566e-01 3.249630876199083307e-01 6.653656088997589313e-01 -6.720726642017380570e-01
3.938461538461538458e-01 3.782031347375699459e-01 8.074553468085043928e-01 -4.527368281773415104e-01
4.923076923076923350e-01 3.970325861942011203e-01 8.933474887181467317e-01 -2.104442102600636300e-01
5.907692307692307132e-01 3.854381251964525967e-01 9.221055149581225407e-01 3.391117201876957254e-02
6.892307692307692024e-01 3.514603108546137111e-01 8.986907768065273139e-01 2.623395912603042057e-01
7.876923076923076916e-01 3.051745080734187265e-01 8.328518314191395433e-01 4.617562006645877792e-01
8.861538461538461808e-01 2.564534696716722073e-01 7.374014329456601846e-01 6.248714989416347398e-01
9.846153846153846700e-01 2.131221756861195749e-01 6.261679389690513187e-01 7.499916919792497527e-01
1.083076923076923048e+00 1.798131714932668934e-01 5.120087120641638734e-01 8.399466171851139862e-01
1.181538461538461426e+00 1.577519430811452628e-01 4.052102050796689836e-01 9.005087240049451935e-01
1.280000000000000027e+00 1.453531479768931378e-01 3.125205389178545845e-01 9.387230937885905346e-01
1.378461538461538405e+00 1.393536046647591009e-01 2.369622352729229831e-01 9.614716187126448599e-01
1.476923076923077005e+00 1.360885177926002276e-01 1.783132571363030550e-01 9.745167288082688950e-01
1.575384615384615383e+00 1.325693152235830063e-01 1.341171497895349840e-01 9.820574126292244133e-01
1.673846153846153761e+00 1.270834582174746596e-01 1.008401033087872878e-01 9.867522672976366538e-01
1.772307692307692362e+00 1.193001767962894172e-01 7.498360957780007829e-02 9.900222377935605778e-01
1.870769230769230740e+00 1.099033156006783279e-01 5.382891544713663823e-02 9.924832158519535374e-01
1.969230769230769340e+00 1.000322556667288115e-01 3.575244936150959174e-02 9.943413072467084390e-01
2.067692307692307718e+00 9.072032432842101757e-02 2.012205329400500869e-02 9.956728045637117663e-01
2.166153846153846096e+00 8.251481814351405153e-02 6.948049760193128477e-03 9.965653519839455798e-01
2.264615384615384475e+00 7.541358961786255588e-02 -3.584031254513633802e-03 9.971456571129710955e-01
2.363076923076922853e+00 6.899479179113124361e-02 -1.146764824211953318e-02 9.975508814717711781e-01
2.461538461538461675e+00 6.272483381422101767e-02 -1.703578969833239448e-02 9.978852420268274903e-01
2.560000000000000053e+00 5.622327605422666741e-02 -2.090528484535002576e-02 9.981991395911594678e-01
2.658461538461538431e+00 4.943582678656053414e-02 -2.377728797212124226e-02 9.984940565588923400e-01
2.756923076923076810e+00 4.261193877125769858e-02 -2.622278624461493041e-02 9.987473449054034003e-01
2.855384615384615188e+00 3.616315320641678988e-02 -2.852022109025875024e-02 9.989386964136630631e-01
2.953846153846154010e+00 3.046520553382595087e-02 -3.062953216496837328e-02 9.990662721684130387e-01
3.052307692307692388e+00 2.568433633207991076e-02 -3.230916253602842542e-02 9.991477160805999347e-01
3.150769230769230766e+00 2.172643024568968184e-02 -3.328061029289892253e-02 9.992097367835766075e-01
3.249230769230769145e+00 1.829073969523683021e-02 -3.340857331802213337e-02 9.992742670830043750e-01
3.347692307692307523e+00 1.502970782140729961e-02 -3.276888672986612988e-02 9.993498214437879223e-01
3.446153846153846345e+00 1.168323154591078411e-02 -3.163394922675243776e-02 9.994311218893592308e-01
3.544615384615384723e+00 8.197804317655349449e-03 -3.036192493741488030e-02 9.995052453651769309e-01
3.643076923076923102e+00 4.714612556101564073e-03 -2.924310246688319875e-02 9.995611089781812897e-01
3.741538461538461480e+00 1.496875127800199184e-03 -2.839838324465033745e-02 9.995954662269496138e-01
3.839999999999999858e+00 -1.211698399058061537e-03 -2.775220502235715286e-02 9.996140034512210892e-01
