0.000000000000000000e+00 1.339226481472480102e-09 -8.201668455552738332e-09 -1.000000000000000000e+00
9.846153846153846145e-02 5.358869103904349146e-02 1.325641017903427810e-01 -9.897236824967992064e-01
1.969230769230769229e-01 1.068372158501675884e-01 2.602704191061447903e-01 -9.596045879317181004e-01
2.953846153846153566e-01 1.594030186213417077e-01 3.787102934021507883e-01 -9.116813084372941134e-01
3.938461538461538458e-01 2.108610607744230980e-01 4.843713403489298130e-01 -8.490661845857674361e-01
4.923076923076923350e-01 2.607178525439119432e-01 5.749045916823342095e-01 -7.755643909832699023e-01
5.907692307692307132e-01 3.084174594047361939e-01 6.492457544677043835e-01 -6.952308040601609118e-01
6.892307692307692024e-01 3.533915103989059281e-01 7.075599354271364660e-01 -6.119304813227897100e-01
7.876923076923076916e-01 3.950933290572387069e-01 7.510459375759810374e-01 -5.289757657299116733e-01
8.861538461538461808e-01 4.330844962780132090e-01 7.816263933750368098e-01 -4.488662925304725548e-01
9.846153846153846700e-01 4.670693174068074605e-01 8.015935398666367284e-01 -3.731971375612969100e-01
1.083076923076923048e+00 4.969585105519178092e-01 8.132590993599496665e-01 -3.026933273483889963e-01
1.181538461538461426e+00 5.228718825181239982e-01 8.186794483898068853e-01 -2.373812007822604375e-01
1.280000000000000027e+00 5.451455255457983151e-01 8.194714182687894422e-01 -1.768148121181694898e-01
1.378461538461538405e+00 5.642756862550648567e-01 8.167547840350568578e-01 -1.203530941062500859e-01
1.476923076923077005e+00 5.808668050595984234e-01 8.111929291840727085e-01 -6.737908483090572498e-02
1.575384615384615383e+00 5.955436158963918203e-01 8.031204691504849613e-01 -1.747598806055233184e-02
1.673846153846153761e+00 6.088761973763653357e-01 7.927034079913706233e-01 2.951589331823660164e-02
1.772307692307692362e+00 6.213069683564098611e-01 7.800994374635192852e-01 7.350296553236404518e-02
1.870769230769230740e+00 6.331087237618391317e-01 7.655732721412238373e-01 1.142417695063543542e-01
1.969230769230769340e+00 6.443649086323730568e-01 7.495537972657555503e-01 1.514707237564543174e-01
2.067692307692307718e+00 6.549946614907974363e-01 7.326120044080797200e-01 1.850465111573195709e-01
2.166153846153846096e+00 6.647996861309418692e-01 7.153863087156637768e-01 2.150454457791796392e-01
2.264615384615384475e+00 6.735300739818544935e-01 6.984763890524257057e-01 2.418033984583626839e-01
2.363076923076922853e+00 6.809603944705104883e-01 6.823279208314763089e-01 2.658996556980140480e-01
2.461538461538461675e+00 6.869643491242485300e-01 6.671454823032957338e-01 2.880592652631193129e-01
2.560000000000000053e+00 6.915491795985673207e-01 6.528739718982446982e-01 3.090254614250386167e-01
2.658461538461538431e+00 6.948814561700209502e-01 6.392170388177937923e-01 3.294282177139166157e-01
2.756923076923076810e+00 6.972673422917359254e-01 6.257257126274801129e-01 3.496675417773178474e-01
2.855384615384615188e+00 6.991016790810007375e-01 6.119200251281806668e-01 3.698550245943117987e-01
2.953846153846154010e+00 7.008057324500716057e-01 5.974137954118849958e-01 3.898080497294700852e-01
3.052307692307692388e+00 7.027461691342745675e-01 5.820216180629537162e-01 4.091223677225335198e-01
3.150769230769230766e+00 7.051716573525577125e-01 5.658086647278767201e-01 4.272893212817092112e-01
3.249230769230769145e+00 7.081666783714422042e-01 5.490960259798585152e-01 4.438202259993516696e-01
3.347692307692307523e+00 7.116306325472586680e-01 5.323924165911185780e-01 4.583920021188069849e-01
3.446153846153846345e+00 7.153093345238406009e-01 5.162787081812416634e-01 4.709268479495622994e-01
3.544615384615384723e+00 7.188433633150925761e-01 5.012776707475249394e-01 4.816308883773349758e-01
3.643076923076923102e+00 7.218426277823077886e-01 4.877372115111774931e-01 4.909573967400288619e-01
3.741538461538461480e+00 7.239710837401448495e-01 4.757328063513050487e-01 4.995275941730349389e-01
3.839999999999999858e+00 7.250188529311942798e-01 4.650575943601085727e-01 5.079890535572226806e-01
