0.000000000000000000e+00 -2.054928556861649306e-09 8.416602760359714959e-10 -1.000000000000000000e+00
9.846153846153846145e-02 4.327066381661166111e-02 -2.948069863402006177e-02 -9.986277949162948309e-01
1.969230769230769229e-01 8.585306133801173800e-02 -5.834570172445481540e-02 -9.945969002320356189e-01
2.953846153846153566e-01 1.270845884234033107e-01 -8.603287157113692629e-02 -9.881522416084252969e-01
3.938461538461538458e-01 1.664696928387349451e-01 -1.119975185726501121e-01 -9.796634350869219965e-01
4.923076923076923350e-01 2.037024362099980057e-01 -1.357513006756715379e-01 -9.695731142385363155e-01
5.907692307692307132e-01 2.386869464735986157e-01 -1.568908447042793031e-01 -9.583360758736736429e-01
6.892307692307692024e-01 2.715299441690669502e-01 -1.751164479262034279e-01 -9.463609782032320616e-01
7.876923076923076916e-01 3.025137406065270262e-01 -1.902678818449222709e-01 -9.339572535336588821e-01
8.861538461538461808e-01 3.320290834461502860e-01 -2.023392605892871954e-01 -9.213074058994475957e-01
9.846153846153846700e-01 3.605183736203045886e-01 -2.114909867092131246e-01 -9.084542748563143588e-01
1.083076923076923048e+00 3.883948436896313972e-01 -2.180489618077734726e-01 -8.953181027389524038e-01
1.181538461538461426e+00 4.159723512671351653e-01 -2.224848337373390161e-01 -8.817353519164797815e-01
1.280000000000000027e+00 4.434193658061297283e-01 -2.253835392917216129e-01 -8.675082566051650623e-01
1.378461538461538405e+00 4.707206130030230362e-01 -2.273914376582100993e-01 -8.524691202721871308e-01
1.476923076923077005e+00 4.976842003154791083e-01 -2.291480570948428164e-01 -8.365340841853663445e-01
1.575384615384615383e+00 5.239588806526650488e-01 -2.312271370971223927e-01 -8.197487873727562491e-01
1.673846153846153761e+00 5.490878154258957977e-01 -2.340645672028734414e-01 -8.023108058634117468e-01
1.772307692307692362e+00 5.725767849977393409e-01 -2.379087724077017518e-01 -7.845641110536270002e-01
1.870769230769230740e+00 5.939668714251977732e-01 -2.427808095385334264e-01 -7.669718352437331355e-01
1.969230769230769340e+00 6.129054848741207762e-01 -2.484778660295664521e-01 -7.500599878864652181e-01
2.067692307692307718e+00 6.292171013718048656e-01 -2.545808266827129795e-01 -7.343420720540968505e-01
2.166153846153846096e+00 6.429296156903359094e-01 -2.605073834967094326e-01 -7.202505037478318384e-01
2.264615384615384475e+00 6.542948339577194794e-01 -2.655901696859254701e-01 -7.080558713535105575e-01
2.363076923076922853e+00 6.637639024728654302e-01 -2.691627507479075754e-01 -6.978191487990154096e-01
2.461538461538461675e+00 6.719445502573235807e-01 -2.706534943935033910e-01 -6.893617470625690302e-01
2.560000000000000053e+00 6.795286803601388037e-01 -2.696804200906520732e-01 -6.822722637591904782e-01
2.658461538461538431e+00 6.872145692528235372e-01 -2.661081818838362256e-01 -6.759471751356203040e-01
2.756923076923076810e+00 6.956156253513579024e-01 -2.601015894401219608e-01 -6.696625224227942264e-01
2.855384615384615188e+00 7.051868329241050004e-01 -2.521207108682873010e-01 -6.626675666879822124e-01
2.953846153846154010e+00 7.161663776016302663e-01 -2.428846033106933922e-01 -6.542890637849096969e-01
3.052307692307692388e+00 7.285452506833592912e-01 -2.332962308096440673e-01 -6.440308945087506176e-01
3.150769230769230766e+00 7.420642174280875913e-01 -2.243441260898844658e-01 -6.316574880911365319e-01
3.249230769230769145e+00 7.562528180648416809e-01 -2.169786487890337234e-01 -6.172376634151734986e-01
3.347692307692307523e+00 7.704861224340213699e-01 -2.119888252938578743e-01 -6.011587595408278695e-01
3.446153846153846345e+00 7.840669620983371502e-01 -2.098974936809786529e-01 -5.840904076366220110e-01
3.544615384615384723e+00 7.963187579606855193e-01 -2.108798066202631771e-01 -5.669085423200248552e-01
3.643076923076923102e+00 8.066752953674128923e-01 -2.147258171984060549e-01 -5.505874741073996104e-01
3.741538461538461480e+00 8.147571756386429165e-01 -2.208509572730933956e-01 -5.360728098805728203e-01
3.839999999999999858e+00 8.204287593302079795e-01 -2.283512208319565806e-01 -5.241474708958913098e-01
