0.000000000000000000e+00 4.637923278576365688e-09 -1.253946195824265942e-09 -1.000000000000000000e+00
9.846153846153846145e-02 -2.122145532346151886e-01 1.986080903625891958e-01 -9.568260653806753835e-01
1.969230769230769229e-01 -4.083891036805578079e-01 3.756931292068905748e-01 -8.319045305150725156e-01
2.953846153846153566e-01 -5.737867727106198412e-01 5.130742793275147040e-01 -6.383663136330408605e-01
3.938461538461538458e-01 -6.963023283783101869e-01 5.986350734155823083e-01 -3.959595208777401676e-01
4.923076923076923350e-01 -7.675497087671583341e-01 6.280160646448882389e-01 -1.282434498263531342e-01
5.907692307692307132e-01 -7.837039194615774695e-01 6.049892676786881029e-01 1.406389124438262583e-01
6.892307692307692024e-01 -7.459855440378611036e-01 5.404391020377637966e-01 3.891219646549322619e-01
7.876923076923076916e-01 -6.606418677016185903e-01 4.501993111229458666e-01 6.007165064735401350e-01
8.861538461538461808e-01 -5.383799658583086067e-01 3.521365660907542217e-01 7.655960877576118984e-01
9.846153846153846700e-01 -3.932433405209488919e-01 2.630306670861168872e-01 8.810040134833739822e-01
1.083076923076923048e+00 -2.409958725817040737e-01 1.958148497167820634e-01 9.505648636119791162e-01
1.181538461538461426e+00 -9.721525884368643899e-02 1.576630592408419518e-01 9.826949025477687005e-01
1.280000000000000027e+00 2.464620128865125520e-02 1.492336371198242084e-01 9.884938203106301557e-01
1.378461538461538405e+00 1.150028608080288089e-01 1.651814868229752320e-01 9.795340398398316717e-01
1.476923076923077005e+00 1.692904119608767965e-01 1.956991430484016359e-01 9.659396216938407331e-01
1.575384615384615383e+00 1.883770750184998455e-01 2.288632369694236224e-01 9.550559778413613143e-01
1.673846153846153761e+00 1.781270424303764421e-01 2.532148767483692886e-01 9.508675127241237313e-01
1.772307692307692362e+00 1.481643187054228483e-01 2.600754621799333810e-01 9.541510765168284003e-01
1.870769230769230740e+00 1.100311832611345492e-01 2.451821001392391897e-01 9.632110319557362077e-01
1.969230769230769340e+00 7.506382223261660880e-02 2.092946914508729828e-01 9.749658420375533208e-01
2.067692307692307718e+00 5.239812660789038012e-02 1.577674202466494702e-01 9.860840922826026311e-01
2.166153846153846096e+00 4.743163508640291931e-02 9.915546925419913005e-02 9.939401808576914243e-01
2.264615384615384475e+00 6.105994132901543248e-02 4.324407811482702813e-02 9.971964210393012840e-01
2.363076923076922853e+00 8.984896307207891619e-02 -1.102952653512505321e-03 9.959542342333917997e-01
2.461538461538461675e+00 1.270229696051340673e-01 -2.782357195625048685e-02 9.915086596327303825e-01
2.560000000000000053e+00 1.640881408069298775e-01 -3.483430261880533785e-02 9.858293941839252339e-01
2.658461538461538431e+00 1.927726190384019822e-01 -2.430176221244841062e-02 9.809412535822639168e-01
2.756923076923076810e+00 2.068393359762016326e-01 -2.004366560707265821e-03 9.783715626900338913e-01
2.855384615384615188e+00 2.033892576968632515e-01 2.408598993766081220e-02 9.788003600749682898e-01
2.953846153846154010e+00 1.834019665044832048e-01 4.563902122302662678e-02 9.819768176834765550e-01
3.052307692307692388e+00 1.514214284040867331e-01 5.583378959055353141e-02 9.868901465236880055e-01
3.150769230769230766e+00 1.144406331757627099e-01 5.082486665573168749e-02 9.921283386479765598e-01
3.249230769230769145e+00 8.028936141738578225e-02 3.048718484478420837e-02 9.963047164831634328e-01
3.347692307692307523e+00 5.586188553224186171e-02 -1.671608981111842585e-03 9.984367523441064485e-01
3.446153846153846345e+00 4.559813683022760633e-02 -3.941544004686671487e-02 9.981815832754648010e-01
3.544615384615384723e+00 5.054615025344284113e-02 -7.530492504288088806e-02 9.958780724472956480e-01
3.643076923076923102e+00 6.819496206639807934e-02 -1.024144678239355122e-01 9.924007343243901325e-01
3.741538461538461480e+00 9.315795756629514923e-02 -1.159130955345259312e-01 9.888801385909551378e-01
3.839999999999999858e+00 1.184560471057731768e-01 -1.141272242846417262e-01 9.863777792556035484e-01
