0.000000000000000000e+00 1.258886900843182656e-10 -5.447042368514823526e-09 -1.000000000000000000e+00
9.846153846153846145e-02 -3.503344228909166524e-02 1.015860711453551446e-01 -9.942090531048147772e-01
1.969230769230769229e-01 -6.886801904125817997e-02 2.012852124249462082e-01 -9.771074093624092516e-01
2.953846153846153566e-01 -1.003750692789212029e-01 2.973399710912191796e-01 -9.494787341910616574e-01
3.938461538461538458e-01 -1.286504895471770327e-01 3.882294705525785039e-01 -9.125358172532933576e-01
4.923076923076923350e-01 -1.530485036188995451e-01 4.727581594712854662e-01 -8.677955842936655451e-01
5.907692307692307132e-01 -1.732131324884769175e-01 5.500974307494231885e-01 -8.169345002446715132e-01
6.892307692307692024e-01 -1.890655950588296386e-01 6.197927682965155283e-01 -7.616441401424225432e-01
7.876923076923076916e-01 -2.007603427749246605e-01 6.817361597931101969e-01 -7.035059211755456676e-01
8.861538461538461808e-01 -2.086140070795270973e-01 7.361092326090938887e-01 -6.439035752495742004e-01
9.846153846153846700e-01 -2.130394830793339578e-01 7.833122159684133834e-01 -5.839722788233794315e-01
1.083076923076923048e+00 -2.144802352298823545e-01 8.238860630147426534e-01 -5.245918661936957994e-01
1.181538461538461426e+00 -2.133580152329583868e-01 8.584435118099257300e-01 -4.664107919942615532e-01
1.280000000000000027e+00 -2.100441472172915325e-01 8.876134856970658848e-01 -4.098891082422714272e-01
1.378461538461538405e+00 -2.048615068309258547e-01 9.120002730382635869e-01 -3.553478457156731829e-01
1.476923076923077005e+00 -1.980793684087707174e-01 9.321673152803140461e-01 -3.030067280249867934e-01
1.575384615384615383e+00 -1.899426725083976364e-01 9.486249000538072851e-01 -2.530151520655593012e-01
1.673846153846153761e+00 -1.806858365218375617e-01 9.618311214167192258e-01 -2.054686250674838677e-01
1.772307692307692362e+00 -1.705358436000857791e-01 9.721975528606274786e-01 -1.604153339378305843e-01
1.870769230769230740e+00 -1.597204080896896805e-01 9.800946694598082765e-01 -1.178445197470051331e-01
1.969230769230769340e+00 -1.484549793447227373e-01 9.858542559405136796e-01 -7.769114032342504250e-02
2.067692307692307718e+00 -1.369274732361590585e-01 9.897714686176818377e-01 -3.983291846182519108e-02
2.166153846153846096e+00 -1.252850972656918693e-01 9.921038580778615001e-01 -4.112899820029825883e-03
2.264615384615384475e+00 -1.136170307230909837e-01 9.930738033940804677e-01 2.964686861276554994e-02
2.363076923076922853e+00 -1.019648997137664326e-01 9.928693188368072908e-01 6.162023171339971878e-02
2.461538461538461675e+00 -9.032852702742699691e-02 9.916491524804410540e-01 9.195732178636129017e-02
2.560000000000000053e+00 -7.868205574722292317e-02 9.895502831106856023e-01 1.207595604656140631e-01
2.658461538461538431e+00 -6.700084502916592299e-02 9.866933179172772128e-01 1.480904191832555505e-01
2.756923076923076810e+00 -5.528773713917300991e-02 9.831867204149776773e-01 1.739851135452286646e-01
2.855384615384615188e+00 -4.357154786553285586e-02 9.791323969640801650e-01 1.984566872412721339e-01
2.953846153846154010e+00 -3.191803152250749509e-02 9.746232898124134181e-01 2.215278356397898663e-01
3.052307692307692388e+00 -2.042132059606727168e-02 9.697398753250427994e-01 2.432520723030570653e-01
3.150769230769230766e+00 -9.178439426378803834e-03 9.645507870421475838e-01 2.637075701577728526e-01
3.249230769230769145e+00 1.729880723656040953e-03 9.591024335052398264e-01 2.830261456334840497e-01
3.347692307692307523e+00 1.225791381199553554e-02 9.534243970708295990e-01 3.013570280959277925e-01
3.446153846153846345e+00 2.241522984401750351e-02 9.475325276568556943e-01 3.188482320178541718e-01
3.544615384615384723e+00 3.225039765782711232e-02 9.414337544160646942e-01 3.356293467333612002e-01
3.643076923076923102e+00 4.185027231188981345e-02 9.351350842566436006e-01 3.517893117563545835e-01
3.741538461538461480e+00 5.130892295408084891e-02 9.286516744026291903e-01 3.673668251152921171e-01
3.839999999999999858e+00 6.071007813251744212e-02 9.220143224839921769e-01 3.823466158232188272e-01
