0.000000000000000000e+00 3.747847305242805559e-09 -3.144875366490337857e-09 -1.000000000000000000e+00
9.846153846153846145e-02 -2.511415593597340901e-02 2.512438435847583751e-01 -9.675963365779990388e-01
1.969230769230769229e-01 -4.663096304889741139e-02 4.844895045154826718e-01 -8.735495575282343772e-01
2.953846153846153566e-01 -6.120092202972189643e-02 6.840020517320699600e-01 -7.269012423796292754e-01
3.938461538461538458e-01 -6.605741354196226212e-02 8.382288554781366363e-01 -5.412905247616901505e-01
4.923076923076923350e-01 -5.926437128660244635e-02 9.410280271337914115e-01 -3.330741059842486362e-01
5.907692307692307132e-01 -3.994918307461531315e-02 9.920635786735311212e-01 -1.191517774039455441e-01
6.892307692307692024e-01 -8.456851019564226579e-03 9.963237892005412100e-01 8.515007236807022040e-02
7.876923076923076916e-01 3.361343633024832522e-02 9.628863981414976791e-01 2.677757057910653549e-01
8.861538461538461808e-01 8.351160617836300704e-02 9.031912382348568080e-01 4.210185162289488692e-01
9.846153846153846700e-01 1.376092830227625963e-01 8.291335911959384353e-01 5.418374414263936734e-01
1.083076923076923048e+00 1.918159409949496685e-01 7.513191928578952794e-01 6.314381433539226762e-01
1.181538461538461426e+00 2.421016044914932885e-01 6.777636709626772005e-01 6.942710960540257048e-01
1.280000000000000027e+00 2.850384820254729390e-01 6.132072639605778974e-01 7.366952408893194804e-01
1.378461538461538405e+00 3.182803403796640174e-01 5.591081364789822761e-01 7.655627383599730162e-01
1.476923076923077005e+00 3.408575898053334274e-01 5.142329979907376281e-01 7.870016604581959729e-01
1.575384615384615383e+00 3.532831005700388660e-01 4.756394320643723694e-01 8.055741441452445306e-01
1.673846153846153761e+00 3.573724851488125909e-01 4.398225597081277805e-01 8.239132319799791215e-01
1.772307692307692362e+00 3.558536599982267123e-01 4.037820574985721001e-01 8.428052619585566507e-01
1.870769230769230740e+00 3.518103384207061923e-01 3.657421569776349024e-01 8.616583841452598591e-01
1.969230769230769340e+00 3.480822294666350292e-01 3.255024806781100510e-01 8.791361786180657001e-01
2.067692307692307718e+00 3.467393621254088454e-01 2.842924429684468568e-01 8.938364481565901354e-01
2.166153846153846096e+00 3.487256294061060746e-01 2.442989815568565315e-01 9.048219640106393014e-01
2.264615384615384475e+00 3.537852297855926254e-01 2.079567566853712801e-01 9.119125928943124793e-01
2.363076923076922853e+00 3.606018334845726425e-01 1.772538134575739610e-01 9.157194519599324289e-01
2.461538461538461675e+00 3.672230843604072370e-01 1.531747140366745696e-01 9.174309157550263327e-01
2.560000000000000053e+00 3.715751138025529254e-01 1.354372431741273641e-01 9.184680173422860028e-01
2.658461538461538431e+00 3.719901544460908482e-01 1.225713058358650215e-01 9.201056827951364925e-01
2.756923076923076810e+00 3.676412013038686810e-01 1.122970791395040135e-01 9.231599493229615261e-01
2.855384615384615188e+00 3.587372171593783410e-01 1.020833476787615657e-01 9.278371373530611699e-01
2.953846153846154010e+00 3.464850802709024125e-01 8.977888881528214848e-02 9.337468679541778283e-01
3.052307692307692388e+00 3.327906871447929293e-01 7.410820694480727000e-02 9.400818861910370527e-01
3.150769230769230766e+00 3.198099990074981247e-01 5.494845838059028709e-02 9.458848203156348111e-01
3.249230769230769145e+00 3.094300510390678438e-01 3.330827542495298776e-02 9.503365977757688432e-01
3.347692307692307523e+00 3.028142970839499681e-01 1.103782232893410487e-02 9.529836477383272220e-01
3.446153846153846345e+00 3.001567660779488333e-01 -9.672120478661366816e-03 9.538388589181187038e-01
3.544615384615384723e+00 3.006188855633961099e-01 -2.686020772962227632e-02 9.533640437233389386e-01
3.643076923076923102e+00 3.025827719202995869e-01 -3.927841555343433710e-02 9.523114023836574127e-01
3.741538461538461480e+00 3.040343941524335514e-01 -4.672313609687964164e-02 9.515125525244982896e-01
3.839999999999999858e+00 3.030908078481326928e-01 -5.006761432433742831e-02 9.516434743458643819e-01
