0.000000000000000000e+00 -1.101009512810204678e-09 -2.199385375902255903e-09 -1.000000000000000000e+00
9.846153846153846145e-02 1.823706600879803491e-02 -1.059732353685242379e-01 -9.942013655267940564e-01
1.969230769230769229e-01 4.289856453755203775e-02 -2.089353009647199610e-01 -9.769873587563440154e-01
2.953846153846153566e-01 7.985855982144623999e-02 -3.053356181470444075e-01 -9.488891104297217938e-01
3.938461538461538458e-01 1.338912121072414196e-01 -3.906475145499073709e-01 -9.107494878249751125e-01
4.923076923076923350e-01 2.080212811957740104e-01 -4.591359753422346035e-01 -8.636651293441348631e-01
5.907692307692307132e-01 3.028402711879616960e-01 -5.039140238497458180e-01 -8.089213617927972777e-01
6.892307692307692024e-01 4.158559938633223929e-01 -5.173908493845870149e-01 -7.479071334424429729e-01
7.876923076923076916e-01 5.409531795643769403e-01 -4.921184091381644032e-01 -6.820432288321369718e-01
8.861538461538461808e-01 6.681907668292212943e-01 -4.220070959386907905e-01 -6.127187566481337999e-01
9.846153846153846700e-01 7.840347216076648529e-01 -3.038732084316164705e-01 -5.412422885301605424e-01
1.083076923076923048e+00 8.722982859825181290e-01 -1.390366330886930180e-01 -4.687820167611468913e-01
1.181538461538461426e+00 9.157648074307495056e-01 6.527628065978713368e-02 -3.963652149009402881e-01
1.280000000000000027e+00 8.985552162288813483e-01 2.950619126352490573e-01 -3.248510775671055173e-01
1.378461538461538405e+00 8.090029445600057656e-01 5.296314125016371444e-01 -2.549427154295642040e-01
1.476923076923077005e+00 6.426698274112369047e-01 7.429218699697613948e-01 -1.871718703192047084e-01
1.575384615384615383e+00 4.049438077975214823e-01 9.061650512155537962e-01 -1.219675889455853063e-01
1.673846153846153761e+00 1.125978926399663349e-01 9.918483413217883404e-01 -5.957468936485672134e-02
1.772307692307692362e+00 -2.063438044900071655e-01 9.784747043384689480e-01 -1.992943971059506138e-04
1.870769230769230740e+00 -5.148233658075345165e-01 8.554549333890786311e-01 5.607428339905149578e-02
1.969230769230769340e+00 -7.712268487709217357e-01 6.271132786876694176e-01 1.092185447654806102e-01
2.067692307692307718e+00 -9.357042992644972745e-01 3.147679910679441750e-01 1.592771529735621805e-01
2.166153846153846096e+00 -9.774897570074441155e-01 -4.399891581725001721e-02 2.063218539041702937e-01
2.264615384615384475e+00 -8.819088887762966955e-01 -3.993752756589847297e-01 2.504536805300618951e-01
2.363076923076922853e+00 -6.555248274206157966e-01 -6.965182185085435629e-01 2.917886782184048178e-01
2.461538461538461675e+00 -3.279247835521193477e-01 -8.850137885733611043e-01 3.304650989533243211e-01
2.560000000000000053e+00 5.085873684008579421e-02 -9.289680810921606691e-01 3.666376845104041271e-01
2.658461538461538431e+00 4.175060394732581504e-01 -8.156770444969778655e-01 4.004387888966540188e-01
2.756923076923076810e+00 7.064041135920799963e-01 -5.606608723406205641e-01 4.320235970019741245e-01
2.855384615384615188e+00 8.625292643857556119e-01 -2.074132135434615387e-01 4.615354747995811246e-01
2.953846153846154010e+00 8.536751225009862054e-01 1.788975106104505053e-01 4.891079916443306086e-01
3.052307692307692388e+00 6.790819658566347172e-01 5.232062819118266095e-01 5.148739364640191329e-01
3.150769230769230766e+00 3.720101902633385360e-01 7.557247166721305920e-01 5.389629844146497373e-01
3.249230769230769145e+00 -5.091244567827057921e-03 8.274628459971552497e-01 5.614908559143284572e-01
3.347692307692307523e+00 -3.725251798031624095e-01 7.223747282613164344e-01 5.825741831444881669e-01
3.446153846153846345e+00 -6.503425547828178832e-01 4.628903838143639260e-01 6.023123039691402614e-01
3.544615384615384723e+00 -7.766572335529744464e-01 1.067876371617364484e-01 6.208004342076776094e-01
3.643076923076923102e+00 -7.230020310862053101e-01 -2.646675528398658717e-01 6.381320739284528365e-01
3.741538461538461480e+00 -5.025408521105433346e-01 -5.649951046506118679e-01 6.543903718945217607e-01
3.839999999999999858e+00 -1.685059374161349266e-01 -7.232987796010257320e-01 6.696553341242992285e-01
