0.000000000000000000e+00 2.248324130940839303e-09 2.016553311763101241e-09 -1.000000000000000000e+00
9.846153846153846145e-02 1.648453800937497125e-03 6.806156517209327288e-03 -9.999754046679233399e-01
1.969230769230769229e-01 3.274173945004735936e-03 1.365149120976886891e-02 -9.999013150550671858e-01
2.953846153846153566e-01 4.894990649082526547e-03 2.054243727225830984e-02 -9.997767992193155040e-01
3.938461538461538458e-01 6.507999866571155534e-03 2.749698700008558483e-02 -9.996004414007276795e-01
4.923076923076923350e-01 8.105597356024698413e-03 3.453505392189992057e-02 -9.993702970912220485e-01
5.907692307692307132e-01 9.682827029153649734e-03 4.166765817045507692e-02 -9.990842262651842276e-01
6.892307692307692024e-01 1.123000277133615228e-02 4.890429453358135364e-02 -9.987398953637074417e-01
7.876923076923076916e-01 1.273611626403269373e-02 5.625182619003404882e-02 -9.983348754852506834e-01
8.861538461538461808e-01 1.418637893722146659e-02 6.371414754461139640e-02 -9.978667904519623599e-01
9.846153846153846700e-01 1.556753396117291702e-02 7.128902661992574108e-02 -9.973335848589178765e-01
1.083076923076923048e+00 1.686073353829253829e-02 7.897484588776398917e-02 -9.967333226422223635e-01
1.181538461538461426e+00 1.804915408232723312e-02 8.676778160284678854e-02 -9.960642949150522174e-01
1.280000000000000027e+00 1.911574262411504244e-02 9.466604639290016054e-02 -9.953247199105729193e-01
1.378461538461538405e+00 2.004358646496211954e-02 1.026611090689350525e-01 -9.945135444485538878e-01
1.476923076923077005e+00 2.082111872441140543e-02 1.107491955027477548e-01 -9.936293085293996796e-01
1.575384615384615383e+00 2.143428581446880921e-02 1.189258209273029582e-01 -9.926707371619998277e-01
1.673846153846153761e+00 2.187756104210737684e-02 1.271844500638911746e-01 -9.916366891328919353e-01
1.772307692307692362e+00 2.214411977248130145e-02 1.355166286173563606e-01 -9.905264149375074823e-01
1.870769230769230740e+00 2.223649546944325706e-02 1.439142080662816903e-01 -9.893390706368592191e-01
1.969230769230769340e+00 2.215391030986955945e-02 1.523630480754427086e-01 -9.880749577862575350e-01
2.067692307692307718e+00 2.190264395237065398e-02 1.608500920407131829e-01 -9.867344100619817038e-01
2.166153846153846096e+00 2.148426989322504976e-02 1.693550612999851213e-01 -9.853194507392832868e-01
2.264615384615384475e+00 2.090319364674030067e-02 1.778622120628437775e-01 -9.838318331748303613e-01
2.363076923076922853e+00 2.016166356193101888e-02 1.863468220216706328e-01 -9.822755266167300103e-01
2.461538461538461675e+00 1.925848725925423388e-02 1.947899759030803091e-01 -9.806542055524232193e-01
2.560000000000000053e+00 1.818945235686866141e-02 2.031725879031151261e-01 -9.789722121905936048e-01
2.658461538461538431e+00 1.694652915534881898e-02 2.114800348891450188e-01 -9.772335512901172416e-01
2.756923076923076810e+00 1.552615692749680087e-02 2.197002022155232215e-01 -9.754419604623655315e-01
2.855384615384615188e+00 1.391856561751698973e-02 2.278263704614881813e-01 -9.736002941194391580e-01
2.953846153846154010e+00 1.211373780479171880e-02 2.358612600939222759e-01 -9.717091611332547840e-01
3.052307692307692388e+00 1.011540698632715229e-02 2.438064887599169228e-01 -9.697689937999416365e-01
3.150769230769230766e+00 7.925029400791983036e-03 2.516711965040788757e-01 -9.677781181823096324e-01
3.249230769230769145e+00 5.548900411755819384e-03 2.594667159125856326e-01 -9.657338000902562225e-01
3.347692307692307523e+00 3.008182386278701603e-03 2.672010723502408758e-01 -9.636337134737763543e-01
3.446153846153846345e+00 3.192907577555872956e-04 2.748762817238714629e-01 -9.614770819649217648e-01
3.544615384615384723e+00 -2.487097403211166458e-03 2.824958334224701995e-01 -9.592627505367190555e-01
3.643076923076923102e+00 -5.386280285505293253e-03 2.900508069955948787e-01 -9.569934578552999893e-01
3.741538461538461480e+00 -8.354589246283281034e-03 2.975287608629882397e-01 -9.546735848118813594e-01
3.839999999999999858e+00 -1.136965294412090044e-02 3.049068749532185540e-01 -9.523115031008781983e-01
