0.000000000000000000e+00 2.040491014602851899e-09 1.062335618099668972e-09 -1.000000000000000000e+00
9.846153846153846145e-02 2.186658144893395828e-01 1.567769037913887414e-02 -9.756727968237814963e-01
1.969230769230769229e-01 4.234359416668458387e-01 4.569317732038215285e-02 -9.047705742386179528e-01
2.953846153846153566e-01 6.003657257596366481e-01 1.016430732257807001e-01 -7.932357468644597454e-01
3.938461538461538458e-01 7.357333218148276455e-01 1.900684961411318596e-01 -6.500473156547456055e-01
4.923076923076923350e-01 8.168350153935353131e-01 3.107444106159699126e-01 -4.860119889279512773e-01
5.907692307692307132e-01 8.333576700188193298e-01 4.559686573670030940e-01 -3.124027736717258086e-01
6.892307692307692024e-01 7.792105407243409276e-01 6.110008508137476646e-01 -1.396283786201589494e-01
7.876923076923076916e-01 6.544185528790509299e-01 7.557497139671131015e-01 2.378504048006097049e-02
8.861538461538461808e-01 4.666671153555891904e-01 8.675762351681752804e-01 1.718154222416876376e-01
9.846153846153846700e-01 2.319398490670892821e-01 9.249430600286223658e-01 3.011180586487264832e-01
1.083076923076923048e+00 -2.612901551428312152e-02 9.113486003834954108e-01 4.107914046783246453e-01
1.181538461538461426e+00 -2.784202942720475082e-01 8.189277515908864880e-01 5.018254403348025861e-01
1.280000000000000027e+00 -4.939051349702410221e-01 6.509747546190477463e-01 5.764370776835556764e-01
1.378461538461538405e+00 -6.442159957181582408e-01 4.227951254337685150e-01 6.373546188632150944e-01
1.476923076923077005e+00 -7.084287996866589499e-01 1.604628488588777380e-01 6.872931374860252740e-01
1.575384615384615383e+00 -6.772099704390267538e-01 -1.025669833171228840e-01 7.286006063343740680e-01
1.673846153846153761e+00 -5.553697612942437578e-01 -3.305408509859056876e-01 7.630857776437059981e-01
1.772307692307692362e+00 -3.621096927628079110e-01 -4.914544875876913910e-01 7.920494303623717425e-01
1.870769230769230740e+00 -1.286232901464516298e-01 -5.629575294574410416e-01 8.164120168025619240e-01
1.969230769230769340e+00 1.067338495083433869e-01 -5.368959542971565302e-01 8.368660154925507966e-01
2.067692307692307718e+00 3.050013514832404793e-01 -4.214919364127027723e-01 8.539983743842372022e-01
2.166153846153846096e+00 4.336950298910444146e-01 -2.404597304573190264e-01 8.683792583704301737e-01
2.264615384615384475e+00 4.730419783747409901e-01 -2.909086755800163737e-02 8.805566809285262364e-01
2.363076923076922853e+00 4.199940328439656367e-01 1.722029747126687660e-01 8.910367397844320969e-01
2.461538461538461675e+00 2.890513299264291236e-01 3.256157958979962741e-01 9.002328717340011277e-01
2.560000000000000053e+00 1.095623226828236207e-01 4.034147939914803915e-01 9.084318065544180199e-01
2.658461538461538431e+00 -8.013929356938834236e-02 3.935621320413942303e-01 9.157960932855259140e-01
2.756923076923076810e+00 -2.405908077046717830e-01 3.021747291463291463e-01 9.223896292827872267e-01
2.855384615384615188e+00 -3.394615145456096328e-01 1.521721814821155316e-01 9.282272356581486861e-01
2.953846153846154010e+00 -3.583729817609749291e-01 -2.169633694370565191e-02 9.333244490076243460e-01
3.052307692307692388e+00 -2.967595284823315582e-01 -1.805037492868769577e-01 9.377359757554999398e-01
3.150769230769230766e+00 -1.717927392442962498e-01 -2.897270544218745192e-01 9.415636911495544048e-01
3.249230769230769145e+00 -1.432884248276028449e-02 -3.269102274982272904e-01 9.449450762810329696e-01
3.347692307692307523e+00 1.382734700582627929e-01 -2.865941227587889828e-01 9.480195984346413418e-01
3.446153846153846345e+00 2.508319148938814580e-01 -1.813121769273280115e-01 9.508975915089630249e-01
3.544615384615384723e+00 2.984992543964898326e-01 -3.840174998561959874e-02 9.536354552215715596e-01
3.643076923076923102e+00 2.724430492841925511e-01 1.066862864532031052e-01 9.562374153846070479e-01
3.741538461538461480e+00 1.817061600977459279e-01 2.189672157987666568e-01 9.586623431052677669e-01
3.839999999999999858e+00 5.069968700063977318e-02 2.723406497103761925e-01 9.608628734035524754e-01
