0.000000000000000000e+00 -1.901616512076209543e-09 1.756367298917279900e-09 -1.000000000000000000e+00
9.846153846153846145e-02 1.799743975902670101e-01 -2.322850156464566218e-02 -9.833963552017507270e-01
1.969230769230769229e-01 3.524227047847832694e-01 -4.650373716956764103e-02 -9.346833785441776010e-01
2.953846153846153566e-01 5.105223367563966885e-01 -6.987645804958603213e-02 -8.570181783816639420e-01
3.938461538461538458e-01 6.487636260527526177e-01 -9.334812115903706742e-02 -7.552392844560432694e-01
4.923076923076923350e-01 7.633590868833697307e-01 -1.168702601812033615e-01 -6.353089152188596822e-01
5.907692307692307132e-01 8.524213156891936594e-01 -1.403312507051150404e-01 -5.036636793338055140e-01
6.892307692307692024e-01 9.158892910562161926e-01 -1.635565688862351541e-01 -3.665887132661906356e-01
7.876923076923076916e-01 9.552599406072638244e-01 -1.863109144147664376e-01 -2.296896741264337072e-01
8.861538461538461808e-01 9.731811407987127627e-01 -2.083192209454579058e-01 -9.752913942450472384e-02
9.846153846153846700e-01 9.729907519933429505e-01 -2.292911219475974871e-01 2.654960709725941517e-02
1.083076923076923048e+00 9.582768067666136425e-01 -2.489508330923798085e-01 1.404260615782587651e-01
1.181538461538461426e+00 9.325210540817663318e-01 -2.670618524377806335e-01 2.430497050006191762e-01
1.280000000000000027e+00 8.988475288723593026e-01 -2.834576051029585875e-01 3.342393962696483811e-01
1.378461538461538405e+00 8.598950502831483877e-01 -2.980394354134656698e-01 4.144206668538544247e-01
1.476923076923077005e+00 8.177738464925377038e-01 -3.107897695503457625e-01 4.844043702452077715e-01
1.575384615384615383e+00 7.741040074519642822e-01 -3.217488079838545789e-01 5.451908715663525973e-01
1.673846153846153761e+00 7.300908016973874926e-01 -3.310017344335757783e-01 5.978278236726848327e-01
1.772307692307692362e+00 6.865898867845362519e-01 -3.386671306778773483e-01 6.433444990653777174e-01
1.870769230769230740e+00 6.441935830665554974e-01 -3.448636790352304082e-01 6.826985652900120494e-01
1.969230769230769340e+00 6.032938849153250960e-01 -3.497178927001172721e-01 7.167481622947932118e-01
2.067692307692307718e+00 5.641285087926679598e-01 -3.533532611515327604e-01 7.462538971023056078e-01
2.166153846153846096e+00 5.268175142635701524e-01 -3.558790421194014120e-01 7.718860798873152795e-01
2.264615384615384475e+00 4.913988911583596075e-01 -3.574138270880460322e-01 7.942150142686257297e-01
2.363076923076922853e+00 4.578623902253526334e-01 -3.580630074467382462e-01 8.137248777261687493e-01
2.461538461538461675e+00 4.261512853074405083e-01 -3.579335388917084249e-01 8.308274115227067824e-01
2.560000000000000053e+00 3.962052620714476836e-01 -3.571207913189811123e-01 8.458616189075294223e-01
2.658461538461538431e+00 3.679498531651081983e-01 -3.557135656790613165e-01 8.591139192066272745e-01
2.756923076923076810e+00 3.413039225499913121e-01 -3.537770437270327806e-01 8.708327014122532184e-01
2.855384615384615188e+00 3.161908203614297030e-01 -3.513724370780852424e-01 8.812247777322834708e-01
2.953846153846154010e+00 2.925165684229909524e-01 -3.485484939153807860e-01 8.904743146295492906e-01
3.052307692307692388e+00 2.701946222926074892e-01 -3.453495635907263828e-01 8.987353320053215189e-01
3.150769230769230766e+00 2.491356462066927346e-01 -3.418227065718533186e-01 9.061376579757689509e-01
3.249230769230769145e+00 2.292463305750372105e-01 -3.380085964903443707e-01 9.127941886803873084e-01
3.347692307692307523e+00 2.104538372648343536e-01 -3.339529049159972729e-01 9.187935994781325499e-01
3.446153846153846345e+00 1.926878206555382167e-01 -3.296959389921758077e-01 9.242127138662392660e-01
3.544615384615384723e+00 1.758929639773616771e-01 -3.252704556111307710e-01 9.291168138223888651e-01
3.643076923076923102e+00 1.600155650459785805e-01 -3.207000915835273580e-01 9.335651126930930577e-01
3.741538461538461480e+00 1.450046871427211337e-01 -3.160027447750318741e-01 9.376104456257037256e-01
3.839999999999999858e+00 1.308065912689138355e-01 -3.111915899505689476e-01 9.413006739011736679e-01
