0.000000000000000000e+00 8.308511814924122520e-10 2.853749280560795463e-09 -1.000000000000000000e+00
9.846153846153846145e-02 1.032181767679243856e-01 -1.490090656235464883e-01 -9.834320660319243457e-01
1.969230769230769229e-01 2.098456679338630837e-01 -2.850730562900626319e-01 -9.352489307353268888e-01
2.953846153846153566e-01 3.221685114591262278e-01 -3.960831131044633691e-01 -8.598336636516652476e-01
3.938461538461538458e-01 4.405360759293298623e-01 -4.715328793546669228e-01 -7.639169027135371826e-01
4.923076923076923350e-01 5.626949747359465404e-01 -5.032695685570189870e-01 -6.558009721873440112e-01
5.907692307692307132e-01 6.835684575705150978e-01 -4.861559031060977976e-01 -5.443936998526126558e-01
6.892307692307692024e-01 7.954402267973275098e-01 -4.185947098301654457e-01 -4.382111933825057482e-01
7.876923076923076916e-01 8.885950088345008213e-01 -3.028804937036436717e-01 -3.444366016047123447e-01
8.861538461538461808e-01 9.523374474604811013e-01 -1.453032131988771791e-01 -2.681672569443948606e-01
9.846153846153846700e-01 9.762746306607431590e-01 4.402430435557014299e-02 -2.119492576508032744e-01
1.083076923076923048e+00 9.517338886893307315e-01 2.516565966212181982e-01 -1.756247847015241503e-01
1.181538461538461426e+00 8.731326787009481283e-01 4.616367771040320589e-01 -1.565349843196343904e-01
1.280000000000000027e+00 7.391322749426317840e-01 6.566212586097863735e-01 -1.500145056159717938e-01
1.378461538461538405e+00 5.534089509294455311e-01 8.192480997460513947e-01 -1.501446975574851350e-01
1.476923076923077005e+00 3.249254418885385576e-01 9.336542676176715627e-01 -1.506171167008435730e-01
1.575384615384615383e+00 6.763051309156442592e-02 9.870115843680169476e-01 -1.456247578816942390e-01
1.673846153846153761e+00 -2.004486463262215024e-01 9.709374227130497248e-01 -1.306640457773476927e-01
1.772307692307692362e+00 -4.586146490453002489e-01 8.826146957705519602e-01 -1.031311135780038774e-01
1.870769230769230740e+00 -6.853640319518650159e-01 7.254848905207864629e-01 -6.260825045587832538e-02
1.969230769230769340e+00 -8.604508144672944336e-01 5.093891198923848895e-01 -1.090957682295514916e-02
2.067692307692307718e+00 -9.670035166047015185e-01 2.500983036500357692e-01 4.823879958021969755e-02
2.166153846153846096e+00 -9.934332055195953526e-01 -3.179005475852580975e-02 1.097815976990353520e-01
2.264615384615384475e+00 -9.349190131521176728e-01 -3.125094861540232971e-01 1.680378589935882239e-01
2.363076923076922853e+00 -7.942873863406738622e-01 -5.672334373581398026e-01 2.175467800739226132e-01
2.461538461538461675e+00 -5.821565568378925803e-01 -7.724189221034751807e-01 2.538422935850239703e-01
2.560000000000000053e+00 -3.162682440411847540e-01 -9.081961970004203133e-01 2.740938589724419838e-01
2.658461538461538431e+00 -2.008408284707152713e-02 -9.604979566116449430e-01 2.775134496892125990e-01
2.756923076923076810e+00 2.793248638414135288e-01 -9.227494196356815781e-01 2.654890276440512453e-01
2.855384615384615188e+00 5.538225692189517879e-01 -7.968548873967900015e-01 2.414039984848213305e-01
2.953846153846154010e+00 7.769816828489130023e-01 -5.933694120503856251e-01 2.102021857155476348e-01
3.052307692307692388e+00 9.268118219645335998e-01 -3.307716410062596091e-01 1.777145798910777785e-01
3.150769230769230766e+00 9.881083295270903788e-01 -3.388880439056940475e-02 1.498859691714889419e-01
3.249230769230769145e+00 9.542023363567303518e-01 2.684301861106407339e-01 1.319672974788883568e-01
3.347692307692307523e+00 8.278655914555437256e-01 5.461455381031945500e-01 1.278117066891811815e-01
3.446153846153846345e+00 6.212679884116139029e-01 7.710884086984741703e-01 1.393593764698289328e-01
3.544615384615384723e+00 3.549407936477707026e-01 9.199520658433968379e-01 1.663660775104104372e-01
3.643076923076923102e+00 5.582602199305541912e-02 9.768495187840304794e-01 2.064490490809641754e-01
3.741538461538461480e+00 -2.453894577837989477e-01 9.351623334407238586e-01 2.553989491466488460e-01
3.839999999999999858e+00 -5.174288448792492279e-01 7.984565175563385075e-01 3.077472270716983260e-01
