0.000000000000000000e+00 2.390866352432005415e-13 -4.063040821030793111e-13 -1.000000000000000000e+00
9.846153846153846145e-02 -5.487220743356004127e-02 9.206767011824160130e-02 -9.942397019057332974e-01
1.969230769230769229e-01 -1.107889455316278249e-01 1.789981585644346285e-01 -9.775916676982624454e-01
2.953846153846153566e-01 -1.684675481862458191e-01 2.559874245401320136e-01 -9.518871379284998824e-01
3.938461538461538458e-01 -2.280087947568702200e-01 3.188716768372872878e-01 -9.199635009743039049e-01
4.923076923076923350e-01 -2.886853168083125531e-01 3.644073791066474999e-01 -8.853632303175491547e-01
5.907692307692307132e-01 -3.488405980891132740e-01 3.904871810889472550e-01 -8.519565704069880230e-01
6.892307692307692024e-01 -4.059003570545008377e-01 3.962952461781622526e-01 -8.235259421764863363e-01
7.876923076923076916e-01 -4.565189470785354087e-01 3.823803011630090287e-01 -8.033528214955208968e-01
8.861538461538461808e-01 -4.968457724024614719e-01 3.506491835309922811e-01 -7.938447129409834657e-01
9.846153846153846700e-01 -5.228745445916800350e-01 3.042664060313009511e-01 -7.962563426437222480e-01
1.083076923076923048e+00 -5.308696286608319825e-01 2.474698540242478151e-01 -8.105159517540537761e-01
1.181538461538461426e+00 -5.178039028877370331e-01 1.853208769785021359e-01 -8.351857819607536593e-01
1.280000000000000027e+00 -4.817753947495008182e-01 1.233789855163001242e-01 -8.675656140428349428e-01
1.378461538461538405e+00 -4.223504080021117657e-01 6.734119667858755320e-02 -9.039277050731103769e-01
1.476923076923077005e+00 -3.408027921245130321e-01 2.265098095577158799e-02 -9.398618993251841580e-01
1.575384615384615383e+00 -2.402036673713719706e-01 -5.881915139003157655e-03 -9.707046928665812313e-01
1.673846153846153761e+00 -1.253530596100343453e-01 -1.444472634568984282e-02 -9.920070364585528155e-01
1.772307692307692362e+00 -2.548947734870282006e-03 -5.306656505160545862e-04 -9.999966105274403771e-01
1.870769230769230740e+00 1.208094435850457643e-01 3.684158533374865679e-02 -9.919918222622255977e-01
1.969230769230769340e+00 2.367306501041219757e-01 9.698737950424457521e-02 -9.667223216989055956e-01
2.067692307692307718e+00 3.372522355818188267e-01 1.775302156380036134e-01 -9.245236352254836421e-01
2.166153846153846096e+00 4.150791960501789557e-01 2.745079958193693548e-01 -8.673837796906814779e-01
2.264615384615384475e+00 4.642259626046074672e-01 3.825755409346986990e-01 -7.988305271413471687e-01
2.363076923076922853e+00 4.805663922625913465e-01 4.953344356941364879e-01 -7.236710157462269422e-01
2.461538461538461675e+00 4.622771133485412687e-01 6.057386581244439405e-01 -6.475959760355650685e-01
2.560000000000000053e+00 4.101022809579569772e-01 7.065753213355149276e-01 -5.766865999101327134e-01
2.658461538461538431e+00 3.274147814321187733e-01 7.909775385786709245e-01 -5.168695139701180441e-01
2.756923076923076810e+00 2.200699673274953416e-01 8.529348166942797294e-01 -4.733618138337827852e-01
2.855384615384615188e+00 9.603731241272850383e-02 8.877625678568041856e-01 -4.501715852675956531e-01
2.953846153846154010e+00 -3.514454702652855533e-02 8.924999517016332096e-01 -4.496762134338005423e-01
3.052307692307692388e+00 -1.630719771516192795e-01 8.661895149411416028e-01 -4.723592421977023670e-01
3.150769230769230766e+00 -2.772814798233748101e-01 8.100327956404509422e-01 -5.166835108896004058e-01
3.249230769230769145e+00 -3.680705506952606787e-01 7.273782378256901104e-01 -5.791761112610690487e-01
3.347692307692307523e+00 -4.273103484885383274e-01 6.235603361570106751e-01 -6.546589742355436448e-01
3.446153846153846345e+00 -4.491270406322875886e-01 5.055776133238585324e-01 -7.366655806136062079e-01
3.544615384615384723e+00 -4.304424266043187508e-01 3.816365426959016371e-01 -8.179687438512072140e-01
3.643076923076923102e+00 -3.712931907634858808e-01 2.605821936068324907e-01 -8.912004737936631837e-01
3.741538461538461480e+00 -2.748972058037711941e-01 1.512663775189385662e-01 -9.494998724573640025e-01
3.839999999999999858e+00 -1.474856863188549472e-01 6.188569398630416885e-02 -9.871261992966721133e-01
