0.000000000000000000e+00 2.755101809744665192e-09 -3.910805079895236402e-09 -1.000000000000000000e+00
9.846153846153846145e-02 -6.700503935573946801e-02 -3.784398325347466951e-02 -9.970343833564417890e-01
1.969230769230769229e-01 -1.334106820031060736e-01 -7.521412132176806542e-02 -9.882020308083070415e-01
2.953846153846153566e-01 -1.986452393604436206e-01 -1.116367172695039156e-01 -9.736917076643092361e-01
3.938461538461538458e-01 -2.621719768041249066e-01 -1.466822474731078463e-01 -9.538069912564972608e-01
4.923076923076923350e-01 -3.235174453544993889e-01 -1.799744594530088282e-01 -9.289470494672343870e-01
5.907692307692307132e-01 -3.822667066240731937e-01 -2.111905956789993377e-01 -8.995926931796934811e-01
6.892307692307692024e-01 -4.380963657777136033e-01 -2.400884783899437658e-01 -8.662706069625916161e-01
7.876923076923076916e-01 -4.907504200305882747e-01 -2.664820007723778250e-01 -8.295459001582315972e-01
8.861538461538461808e-01 -5.400596929009738867e-01 -2.902608361315167640e-01 -7.899864458012670898e-01
9.846153846153846700e-01 -5.859255733989503501e-01 -3.113697803448021162e-01 -7.481536582861834095e-01
1.083076923076923048e+00 -6.283107390909002943e-01 -3.298134689745212955e-01 -7.045863671667788042e-01
1.181538461538461426e+00 -6.672481388678169756e-01 -3.456376036048390832e-01 -6.597782137137542247e-01
1.280000000000000027e+00 -7.028051223531788239e-01 -3.589299770588958993e-01 -6.141876518533683216e-01
1.378461538461538405e+00 -7.350918310843433945e-01 -3.698075617092240752e-01 -5.682201748566774180e-01
1.476923076923077005e+00 -7.642511396331858053e-01 -3.784066559402751162e-01 -5.222259922361083273e-01
1.575384615384615383e+00 -7.904396698787058417e-01 -3.848756809655087263e-01 -4.765153400339631196e-01
1.673846153846153761e+00 -8.138325803718614582e-01 -3.893778174367711342e-01 -4.313376284503514513e-01
1.772307692307692362e+00 -8.346078103438046014e-01 -3.920699751519083343e-01 -3.869125997240248083e-01
1.870769230769230740e+00 -8.529505581736421815e-01 -3.931169733514767728e-01 -3.434014672463314155e-01
1.969230769230769340e+00 -8.690400226659652505e-01 -3.926742353228909188e-01 -3.009424456351810773e-01
2.067692307692307718e+00 -8.830524736974302291e-01 -3.908923002601932817e-01 -2.596369255965418898e-01
2.166153846153846096e+00 -8.951561157754643894e-01 -3.879163293587357675e-01 -2.195588745022612198e-01
2.264615384615384475e+00 -9.055135598882653181e-01 -3.838769272902231577e-01 -1.807573786156942142e-01
2.363076923076922853e+00 -9.142748322625466884e-01 -3.789013007762452867e-01 -1.432647135948353911e-01
2.461538461538461675e+00 -9.215823232461334280e-01 -3.731041816798549293e-01 -1.070918624199284214e-01
2.560000000000000053e+00 -9.275679527669966618e-01 -3.665899544166364432e-01 -7.224143890895474984e-02
2.658461538461538431e+00 -9.323536941469464656e-01 -3.594556440262273167e-01 -3.869791951916681100e-02
2.756923076923076810e+00 -9.360521415184099858e-01 -3.517870231710636952e-01 -6.447393741184307553e-03
2.855384615384615188e+00 -9.387658221567081185e-01 -3.436648359637426431e-01 2.454601165562596971e-02
2.953846153846154010e+00 -9.405893294058970122e-01 -3.351593356124445977e-01 5.430693963241983030e-02
3.052307692307692388e+00 -9.416095453500926693e-01 -3.263324870226576024e-01 8.287288189704748731e-02
3.150769230769230766e+00 -9.419038448713329403e-01 -3.172431841976759426e-01 1.102873154252841936e-01
3.249230769230769145e+00 -9.415448639767476369e-01 -3.079406068747682079e-01 1.365843535423330313e-01
3.347692307692307523e+00 -9.405967717898062741e-01 -2.984723024244830825e-01 1.618069526686595483e-01
3.446153846153846345e+00 -9.391192276806982209e-01 -2.888758039196170913e-01 1.859983782254340245e-01
3.544615384615384723e+00 -9.371639884664980658e-01 -2.791907634258019022e-01 2.092027620776959473e-01
3.643076923076923102e+00 -9.347800815217982562e-01 -2.694469198082815597e-01 2.314611173965730462e-01
3.741538461538461480e+00 -9.320125925693327762e-01 -2.596676992812778084e-01 2.528141449634627169e-01
3.839999999999999858e+00 -9.289003850838074561e-01 -2.498824980987780497e-01 2.732995835116890926e-01
