0.000000000000000000e+00 -2.954516622704065920e-09 5.135637793321355296e-10 -1.000000000000000000e+00
9.846153846153846145e-02 -1.617607241945518380e-03 2.104963446360333043e-02 -9.997770219120706292e-01
1.969230769230769229e-01 -3.252371654717121224e-03 4.208340564796143185e-02 -9.991086164844608097e-01
2.953846153846153566e-01 -4.896382498449855514e-03 6.308270919804695454e-02 -9.979960123910404102e-01
3.938461538461538458e-01 -6.554625302842695053e-03 8.402600618456392001e-02 -9.964416372609695705e-01
4.923076923076923350e-01 -8.229920873478020760e-03 1.048953861701902440e-01 -9.944487518897612288e-01
5.907692307692307132e-01 -9.928019483135236412e-03 1.256739963873094723e-01 -9.920213701287566854e-01
6.892307692307692024e-01 -1.165209420571122756e-02 1.463435494128479675e-01 -9.891645632922836384e-01
7.876923076923076916e-01 -1.340528363174020576e-02 1.668857220438115518e-01 -9.858843810474404723e-01
8.861538461538461808e-01 -1.518949567862558359e-02 1.872818416992116930e-01 -9.821879488829003968e-01
9.846153846153846700e-01 -1.700961333297051903e-02 2.075144305698975455e-01 -9.780831384927999306e-01
1.083076923076923048e+00 -1.886380098855776344e-02 2.275654361350695210e-01 -9.735790341171817186e-01
1.181538461538461426e+00 -2.075872682329840679e-02 2.474175647470909789e-01 -9.686854199307416424e-01
1.280000000000000027e+00 -2.269098862833701657e-02 2.670571384717429497e-01 -9.634122861902122414e-01
1.378461538461538405e+00 -2.466286328332736866e-02 2.864665680559727035e-01 -9.577714166377395699e-01
1.476923076923077005e+00 -2.667451908725551601e-02 3.056313054684191011e-01 -9.517747748839761046e-01
1.575384615384615383e+00 -2.872267724430846436e-02 3.245353877771853801e-01 -9.454357957755979980e-01
1.673846153846153761e+00 -3.080683816598135671e-02 3.431664739723457869e-01 -9.387675807764527258e-01
1.772307692307692362e+00 -3.292754652530328896e-02 3.615159801824902042e-01 -9.317825071891986388e-01
1.870769230769230740e+00 -3.508072666923606198e-02 3.795634487938719381e-01 -9.244984617889844269e-01
1.969230769230769340e+00 -3.726130691432472108e-02 3.973057493079770186e-01 -9.169274880169391295e-01
2.067692307692307718e+00 -3.947106003149400411e-02 4.147333672926121761e-01 -9.090843519152476127e-01
2.166153846153846096e+00 -4.170414350373594092e-02 4.318351932921516978e-01 -9.009855858357991298e-01
2.264615384615384475e+00 -4.395414104843137215e-02 4.486048281303207097e-01 -8.926463174808544343e-01
2.363076923076922853e+00 -4.622294703871690502e-02 4.650391683813019927e-01 -8.840800458876892920e-01
2.461538461538461675e+00 -4.850349389886435270e-02 4.811313218224951838e-01 -8.753030283723968186e-01
2.560000000000000053e+00 -5.079047509761405732e-02 4.968772393262458342e-01 -8.663304673377094645e-01
2.658461538461538431e+00 -5.307958377003102468e-02 5.122753777425561594e-01 -8.571764421829790592e-01
2.756923076923076810e+00 -5.537292811122662695e-02 5.273212213175866303e-01 -8.478566739669893826e-01
2.855384615384615188e+00 -5.765681487015423407e-02 5.420177132995802616e-01 -8.383836119677566812e-01
2.953846153846154010e+00 -5.993552508458262207e-02 5.563625340335190961e-01 -8.287719080085108603e-01
3.052307692307692388e+00 -6.219868054159885529e-02 5.703547516340168322e-01 -8.190366384027490954e-01
3.150769230769230766e+00 -6.444679467298225495e-02 5.840016778932354269e-01 -8.091864487721868171e-01
3.249230769230769145e+00 -6.667562577769475807e-02 5.972989931396148755e-01 -7.992384888365865470e-01
3.347692307692307523e+00 -6.887902450325933401e-02 6.102537439959877519e-01 -7.892019792308305748e-01
3.446153846153846345e+00 -7.105846479018838868e-02 6.228672632801397491e-01 -7.790896094853715370e-01
3.544615384615384723e+00 -7.320594486146986268e-02 6.351443231862307082e-01 -7.689121970637230463e-01
3.643076923076923102e+00 -7.532157585158527624e-02 6.470913365699758613e-01 -7.586782505268779842e-01
3.741538461538461480e+00 -7.740097990922722992e-02 6.587081670491002905e-01 -7.484021043924183880e-01
3.839999999999999858e+00 -7.944389033375107156e-02 6.700050237337765724e-01 -7.380886452684852772e-01
