0.000000000000000000e+00 1.616110222185758660e-09 1.902684737281690441e-09 -1.000000000000000000e+00
9.846153846153846145e-02 3.125203825893417900e-03 1.205912977871734411e-02 -9.999223512259391988e-01
1.969230769230769229e-01 5.841973190232184476e-03 2.422121304610586751e-02 -9.996894580640455219e-01
2.953846153846153566e-01 7.753860536934348985e-03 3.655390959464509260e-02 -9.993014611238666411e-01
3.938461538461538458e-01 8.452992052941359080e-03 4.908603881277412428e-02 -9.987586022726918644e-01
4.923076923076923350e-01 7.519375445176189332e-03 6.177858738226706808e-02 -9.980613322745464089e-01
5.907692307692307132e-01 4.539655680339142740e-03 7.450901025525910604e-02 -9.972097414765023204e-01
6.892307692307692024e-01 -8.935102598558002096e-04 8.703281284792141470e-02 -9.962047383840654247e-01
7.876923076923076916e-01 -9.138828959822258013e-03 9.898175786067141269e-02 -9.950469313078409428e-01
8.861538461538461808e-01 -2.050934373759975837e-02 1.098464188339621228e-01 -9.937365598751571882e-01
9.846153846153846700e-01 -3.519560614354304284e-02 1.189556217298967100e-01 -9.922751452763903801e-01
1.083076923076923048e+00 -5.324598420667925325e-02 1.255021473678807065e-01 -9.906629706470833074e-01
1.181538461538461426e+00 -7.449054093078774641e-02 1.285438705724862574e-01 -9.889017175241801016e-01
1.280000000000000027e+00 -9.849886942832859760e-02 1.270588732084138028e-01 -9.869918403819158970e-01
1.378461538461538405e+00 -1.245120515742085265e-01 1.199978714985762973e-01 -9.849345406351329713e-01
1.476923076923077005e+00 -1.513972457919017522e-01 1.063790158449363921e-01 -9.827314375730721308e-01
1.575384615384615383e+00 -1.776315086795995368e-01 8.540065904501527305e-02 -9.803837992505676224e-01
1.673846153846153761e+00 -2.013016283281315599e-01 5.658333620570590167e-02 -9.778928914211816315e-01
1.772307692307692362e+00 -2.201516530333439692e-01 1.992612636207030663e-02 -9.752613182730156538e-01
1.870769230769230740e+00 -2.317094571882103993e-01 -2.394806537621206599e-02 -9.724893686465700959e-01
1.969230769230769340e+00 -2.334339062997826952e-01 -7.364065337442100845e-02 -9.695792480189457940e-01
2.067692307692307718e+00 -2.229648705796577479e-01 -1.268801382873691597e-01 -9.665331133476591230e-01
2.166153846153846096e+00 -1.984111375201202399e-01 -1.805075036513023867e-01 -9.633525509146289023e-01
2.264615384615384475e+00 -1.586961517907877206e-01 -2.305179930208285655e-01 -9.600390409965487981e-01
2.363076923076922853e+00 -1.038866609695103665e-01 -2.722678033676357301e-01 -9.565958800329354972e-01
2.461538461538461675e+00 -3.551698066172404022e-02 -3.007981059933834689e-01 -9.530250853717492365e-01
2.560000000000000053e+00 4.318319366879169730e-02 -3.113010747131283451e-01 -9.493284699960943263e-01
2.658461538461538431e+00 1.272279647783114975e-01 -2.997094704409543620e-01 -9.455077522061330342e-01
2.756923076923076810e+00 2.099875136065894599e-01 -2.633527856495280206e-01 -9.415668120888742720e-01
2.855384615384615188e+00 2.835941814456509613e-01 -2.016280604604678284e-01 -9.375062181928505156e-01
2.953846153846154010e+00 3.395627170737643974e-01 -1.165748693050488172e-01 -9.333299421482902369e-01
3.052307692307692388e+00 3.697380560777154268e-01 -1.322643482489518907e-02 -9.290404055190004673e-01
3.150769230769230766e+00 3.673844997752237496e-01 1.003415718523926331e-01 -9.246390220441960128e-01
3.249230769230769145e+00 3.283585604450705020e-01 2.133878206488806495e-01 -9.201322407995631281e-01
3.347692307692307523e+00 2.522401454203376248e-01 3.133695591665913716e-01 -9.155169931446043297e-01
3.446153846153846345e+00 1.431126777663913607e-01 3.872446034185965114e-01 -9.108003240697120084e-01
3.544615384615384723e+00 9.925916998303051242e-03 4.231910795515594348e-01 -9.059843051929927782e-01
3.643076923076923102e+00 -1.338436504145308903e-01 4.124975859878622919e-01 -9.010706211353892714e-01
3.741538461538461480e+00 -2.712886561871625801e-01 3.513797906682474825e-01 -8.960643381740727165e-01
3.839999999999999858e+00 -3.839267255309808946e-01 2.424343175993494692e-01 -8.909670969829067699e-01
