0.000000000000000000e+00 -3.079518994818567343e-09 3.321315086254188397e-10 -1.000000000000000000e+00
9.846153846153846145e-02 -7.639073040633297118e-02 7.552218164382798471e-02 -9.942128804059638947e-01
1.969230769230769229e-01 -1.555800929343397199e-01 1.446841499701323197e-01 -9.771684261429429696e-01
2.953846153846153566e-01 -2.396411958925592500e-01 2.012192188197583498e-01 -9.497778928239557494e-01
3.938461538461538458e-01 -3.293528139188093840e-01 2.390518254736903603e-01 -9.134409433237402620e-01
4.923076923076923350e-01 -4.236750900841440570e-01 2.525695082625127319e-01 -8.698849312008557488e-01
5.907692307692307132e-01 -5.194313915954201777e-01 2.370154266048295488e-01 -8.209779513587879274e-01
6.892307692307692024e-01 -6.112199201002166404e-01 1.890203207385878492e-01 -7.685506507248374142e-01
7.876923076923076916e-01 -6.916387214150824247e-01 1.072199358163520855e-01 -7.142317077611267662e-01
8.861538461538461808e-01 -7.517880745806969633e-01 -7.096459932802112736e-03 -6.593559168519491642e-01
9.846153846153846700e-01 -7.821287073446466787e-01 -1.494817476993104410e-01 -6.049088210620900963e-01
1.083076923076923048e+00 -7.735898167379587909e-01 -3.120081405955097975e-01 -5.515373721862142364e-01
1.181538461538461426e+00 -7.188511349066691869e-01 -4.833296222592420865e-01 -4.996283691738310218e-01
1.280000000000000027e+00 -6.137056305480753648e-01 -6.491698627799955545e-01 -4.493618837104677577e-01
1.378461538461538405e+00 -4.582673164437045532e-01 -7.932876498276195676e-01 -4.008334401377185441e-01
1.476923076923077005e+00 -2.578798674601597840e-01 -8.989371562627668233e-01 -3.541059566574544237e-01
1.575384615384615383e+00 -2.350732902184105022e-02 -9.506684577156599980e-01 -3.092855095145051747e-01
1.673846153846153761e+00 2.285093263152435106e-01 -9.363434584089161961e-01 -2.665046154739760254e-01
1.772307692307692362e+00 4.774764099198899880e-01 -8.490896544455847073e-01 -2.259270175483122367e-01
1.870769230769230740e+00 7.000845875623973313e-01 -6.889351781794456064e-01 -1.876956530648258015e-01
1.969230769230769340e+00 8.728012553457296097e-01 -4.638186632644019092e-01 -1.518874538907330762e-01
2.067692307692307718e+00 9.746481187623873277e-01 -1.897502723221337340e-01 -1.184706568238736435e-01
2.166153846153846096e+00 9.900736463669819187e-01 1.100582243802402105e-01 -8.729658738942237817e-02
2.264615384615384475e+00 9.115184964083252739e-01 4.071091543330604967e-01 -5.809872865465403463e-02
2.363076923076922853e+00 7.412795094225588244e-01 6.704858608295387601e-01 -3.053959977830387681e-02
2.461538461538461675e+00 4.923090789455307204e-01 8.703981422092255116e-01 -4.252829933821848478e-03
2.560000000000000053e+00 1.877040630155133172e-01 9.819890801669609592e-01 2.106823391495468711e-02
2.658461538461538431e+00 -1.412001223700187491e-01 9.889179350784551570e-01 4.564088930017926038e-02
2.756923076923076810e+00 -4.580477837577544009e-01 8.861910108504476025e-01 6.954890513411554620e-02
2.855384615384615188e+00 -7.256765166642518139e-01 6.817441342534259485e-01 9.272486944859707758e-02
2.953846153846154010e+00 -9.108193869096952167e-01 3.964368206994693944e-01 1.150015017924775340e-01
3.052307692307692388e+00 -9.887191851331138537e-01 6.227782668275105848e-02 1.361445196971327321e-01
3.150769230769230766e+00 -9.469413206087805568e-01 -2.810003187265799340e-01 1.559505196656915116e-01
3.249230769230769145e+00 -7.878133474026955962e-01 -5.907287909780258861e-01 1.742679917244194798e-01
3.347692307692307523e+00 -5.289803089103574107e-01 -8.268311949428330809e-01 1.910753019108796802e-01
3.446153846153846345e+00 -2.018686752172139665e-01 -9.573841986034913321e-01 2.065051718334940112e-01
3.544615384615384723e+00 1.519074232025743876e-01 -9.634014040790729316e-01 2.208207862636912822e-01
3.643076923076923102e+00 4.857694011696158110e-01 -8.420686783488834370e-01 2.343682016591074613e-01
3.741538461538461480e+00 7.544582053218146234e-01 -6.078688160751066771e-01 2.475246110725240756e-01
3.839999999999999858e+00 9.204489338772465779e-01 -2.912681739991852536e-01 2.606084975190271491e-01
