0.000000000000000000e+00 1.355282284441189082e-09 4.099558541573532823e-09 -1.000000000000000000e+00
9.846153846153846145e-02 -8.216054474829651705e-04 6.953440370658121351e-03 -9.999754299734542329e-01
1.969230769230769229e-01 -1.869843431825394392e-03 1.388951189392446939e-02 -9.999016816107705319e-01
2.953846153846153566e-01 -3.328596357480426843e-03 2.076449532861894889e-02 -9.997787010551764109e-01
3.938461538461538458e-01 -5.402429196293235397e-03 2.752717438692675600e-02 -9.996062585447634818e-01
4.923076923076923350e-01 -8.280928177318697819e-03 3.409016538453470135e-02 -9.993842108463243390e-01
5.907692307692307132e-01 -1.214616728933059012e-02 4.033070683508821475e-02 -9.991122712804525463e-01
6.892307692307692024e-01 -1.715782234016761942e-02 4.607989807471259830e-02 -9.987900630685840886e-01
7.876923076923076916e-01 -2.343643455437282447e-02 5.111940264832635916e-02 -9.984171424137689987e-01
8.861538461538461808e-01 -3.106320117558230426e-02 5.517058349865724964e-02 -9.979932102625722612e-01
9.846153846153846700e-01 -4.005410284617140493e-02 5.790911690271367124e-02 -9.975175584011491958e-01
1.083076923076923048e+00 -5.033936498187868008e-02 5.896307470681556862e-02 -9.969896139469812679e-01
1.181538461538461426e+00 -6.175038525195620381e-02 5.792264283582064521e-02 -9.964089281152923583e-01
1.280000000000000027e+00 -7.399376701367675613e-02 5.437227881600433660e-02 -9.957747657715143585e-01
1.378461538461538405e+00 -8.663663596531728794e-02 4.791261243512132117e-02 -9.950865256314648244e-01
1.476923076923077005e+00 -9.909517930846840905e-02 3.819844225893528900e-02 -9.943438299443675410e-01
1.575384615384615383e+00 -1.106406104084570047e-01 2.498573118816754118e-02 -9.935456220508144254e-01
1.673846153846153761e+00 -1.203951540333754872e-01 8.192417702506477051e-03 -9.926914610767946234e-01
1.772307692307692362e+00 -1.273721700593896389e-01 -1.206822813124741600e-02 -9.917807414009157663e-01
1.870769230769230740e+00 -1.305141391324002864e-01 -3.540504117900541980e-02 -9.908132037000042525e-01
1.969230769230769340e+00 -1.287700907869236966e-01 -6.112647181223901383e-02 -9.897878477911959960e-01
2.067692307692307718e+00 -1.211702435962934560e-01 -8.819583193790368758e-02 -9.887048785599177325e-01
2.166153846153846096e+00 -1.069461786599363029e-01 -1.152305575387258668e-01 -9.875638748250984422e-01
2.264615384615384475e+00 -8.564411752119312216e-02 -1.405304590176640334e-01 -9.863641032235482831e-01
2.363076923076922853e+00 -5.724086651789065533e-02 -1.621313233699538114e-01 -9.851064402995889369e-01
2.461538461538461675e+00 -2.226432169219215440e-02 -1.779338448990592791e-01 -9.837893661686117897e-01
2.560000000000000053e+00 1.811712710231599965e-02 -1.858238454233819281e-01 -9.824148037506689191e-01
2.658461538461538431e+00 6.205881534539699901e-02 -1.839053034100829320e-01 -9.809816643676081416e-01
2.756923076923076810e+00 1.070482049204994068e-01 -1.706919734957601242e-01 -9.794908429272159989e-01
2.855384615384615188e+00 1.499893191124481717e-01 -1.453597748949652380e-01 -9.779422388504820374e-01
2.953846153846154010e+00 1.873712993277455441e-01 -1.079602437148426408e-01 -9.763369063839202333e-01
3.052307692307692388e+00 2.155285459748868260e-01 -5.961173795175982171e-02 -9.746747928463160848e-01
3.150769230769230766e+00 2.309641201074333350e-01 -2.590400765473899192e-03 -9.729572726564998941e-01
3.249230769230769145e+00 2.307381511948216612e-01 5.964931048688709714e-02 -9.711841906674596459e-01
3.347692307692307523e+00 2.128620604805213368e-01 1.226063522896073121e-01 -9.693576194311118721e-01
3.446153846153846345e+00 1.767028314147063295e-01 1.810005629687894413e-01 -9.674769101375123581e-01
3.544615384615384723e+00 1.232619467941168528e-01 2.291878210329933441e-01 -9.655444023868464676e-01
3.643076923076923102e+00 5.538168487047939736e-02 2.616901797625349468e-01 -9.635598362735446898e-01
3.741538461538461480e+00 -2.226157188502106768e-02 2.738050472588320350e-01 -9.615256481231064800e-01
3.839999999999999858e+00 -1.033747389711876380e-01 2.622620246972892089e-01 -9.594417806116553038e-01
