0.000000000000000000e+00 4.490505528612777765e-09 -3.424165574592329837e-10 -1.000000000000000000e+00
9.846153846153846145e-02 -7.571630101154791515e-02 -2.408740263104125201e-01 -9.675970233588540026e-01
1.969230769230769229e-01 -1.311044008475940603e-01 -4.687208400287859456e-01 -8.735597215461899934e-01
2.953846153846153566e-01 -1.491775568644255479e-01 -6.703009076174875069e-01 -7.269345364298703815e-01
3.938461538461538458e-01 -1.190912448465798468e-01 -8.323304247196814387e-01 -5.413239591243360627e-01
4.923076923076923350e-01 -3.815453105147204038e-02 -9.421619498479172350e-01 -3.329585815689980466e-01
5.907692307692307132e-01 8.737786859708485121e-02 -9.890949884333056774e-01 -1.184969248850138712e-01
6.892307692307692024e-01 2.428536337343359941e-01 -9.661398449816799294e-01 8.706989211067032997e-02
7.876923076923076916e-01 4.071545162172158228e-01 -8.718969923686061829e-01 2.720418162361426528e-01
8.861538461538461808e-01 5.557599935580994632e-01 -7.120839828746052813e-01 4.290155442333091762e-01
9.846153846153846700e-01 6.645967336500852030e-01 -5.002239867898721215e-01 5.550455784893542077e-01
1.083076923076923048e+00 7.140529938317971004e-01 -2.571197673347118684e-01 6.511585777246371443e-01
1.181538461538461426e+00 6.925406333276316051e-01 -8.946954322593736464e-03 7.213170913942459350e-01
1.280000000000000027e+00 5.989450986755440187e-01 2.159293419612566822e-01 7.711233182215907478e-01
1.378461538461538405e+00 4.434458207022961007e-01 3.909720433651265870e-01 8.065291567156587238e-01
1.476923076923077005e+00 2.464094847538367827e-01 4.956858014883173680e-01 8.328091835918750574e-01
1.575384615384615383e+00 3.546887132468645731e-02 5.192125874846583722e-01 8.539051090826237367e-01
1.673846153846153761e+00 -1.588942727358478857e-01 4.625897791586461305e-01 8.722141167664770878e-01
1.772307692307692362e+00 -3.084625341082020133e-01 3.390570142006892329e-01 8.887551865107296001e-01
1.870769230769230740e+00 -3.922609129331359190e-01 1.722219338958398127e-01 9.035850753448559924e-01
1.969230769230769340e+00 -4.003895415492119136e-01 -7.746713985871789276e-03 9.163097630057722709e-01
2.067692307692307718e+00 -3.359437572858996468e-01 -1.692786625911756881e-01 9.265431610926208039e-01
2.166153846153846096e+00 -2.145819282230028990e-01 -2.849900421913570958e-01 9.342008534246245555e-01
2.264615384615384475e+00 -6.167710380604823212e-02 -3.366522196089278274e-01 9.396048957576098593e-01
2.363076923076922853e+00 9.243319764586600817e-02 -3.184800726776568780e-01 9.434102146738916339e-01
2.461538461538461675e+00 2.182231510837071842e-01 -2.381202454298272098e-01 9.464004406889392484e-01
2.560000000000000053e+00 2.926682412806984046e-01 -1.149588153976106863e-01 9.492767150620191607e-01
2.658461538461538431e+00 3.036700080630962972e-01 2.387623870819860494e-02 9.524762893001069708e-01
2.756923076923076810e+00 2.522699475861109875e-01 1.490798810069801639e-01 9.561024159203397321e-01
2.855384615384615188e+00 1.522009654300367498e-01 2.351951767781274294e-01 9.599557394507732822e-01
2.953846153846154010e+00 2.679557378408400914e-02 2.657818381363514226e-01 9.636592211677081909e-01
3.052307692307692388e+00 -9.610773646722889363e-02 2.366900069578299071e-01 9.668186820272850479e-01
3.150769230769230766e+00 -1.901576735166891352e-01 1.566710810351263361e-01 9.691705537866348585e-01
3.249230769230769145e+00 -2.361375973723058852e-01 4.522440001094359119e-02 9.706653255657863300e-01
3.347692307692307523e+00 -2.259808555118005546e-01 -7.186992698238194033e-02 9.714755793877842827e-01
3.446153846153846345e+00 -1.643123177043118721e-01 -1.683871290465011050e-01 9.719283361119159803e-01
3.544615384615384723e+00 -6.713408275113043333e-02 -2.234728295169812196e-01 9.723941503207164105e-01
3.643076923076923102e+00 4.200289092348985509e-02 -2.262259152972215803e-01 9.731675635156564752e-01
3.741538461538461480e+00 1.374943168164535767e-01 -1.779649967554464141e-01 9.743825447300905607e-01
3.839999999999999858e+00 1.976070294372713476e-01 -9.165936557951706587e-02 9.759854915684010868e-01
