0.000000000000000000e+00 -2.066380421612118210e-09 7.693918182022106286e-10 -1.000000000000000000e+00
9.846153846153846145e-02 -1.403648274042598176e-01 2.775168814176473542e-02 -9.897101677078211646e-01
1.969230769230769229e-01 -2.784287533922131797e-01 4.512058913517949521e-02 -9.593950240459943046e-01
2.953846153846153566e-01 -4.109665638244797692e-01 4.258084911460353894e-02 -9.106531271423585761e-01
3.938461538461538458e-01 -5.331076001637069517e-01 1.228895874195123916e-02 -8.459547787744943204e-01
4.923076923076923350e-01 -6.379490080015960407e-01 -5.095746738287926236e-02 -7.683860653018171893e-01
5.907692307692307132e-01 -7.166705570359571675e-01 -1.488019344010216849e-01 -6.813461943797141096e-01
6.892307692307692024e-01 -7.592090257428950606e-01 -2.784875814036040231e-01 -5.882486379066964588e-01
7.876923076923076916e-01 -7.555042371680057434e-01 -4.322950410101292773e-01 -4.922636515557893833e-01
8.861538461538461808e-01 -6.972251643885930550e-01 -5.974574805571175595e-01 -3.961185655815007145e-01
9.846153846153846700e-01 -5.797416990484143273e-01 -7.567584965224704030e-01 -3.019997267878837266e-01
1.083076923076923048e+00 -4.040635852619746671e-01 -8.899290394497922918e-01 -2.115329448081137431e-01
1.181538461538461426e+00 -1.783432365205301906e-01 -9.758869446965794392e-01 -1.257988776593215730e-01
1.280000000000000027e+00 8.144754946644711113e-02 -9.956346962108278964e-01 -4.543919557359699102e-02
1.378461538461538405e+00 3.520243161328710513e-01 -9.355265635813512226e-01 2.925427810013326441e-02
1.476923076923077005e+00 6.046749594438158848e-01 -7.903807349876770250e-01 9.825185760242233224e-02
1.575384615384615383e+00 8.084804262932064889e-01 -5.658614684067244660e-01 1.617013702827981569e-01
1.673846153846153761e+00 9.346294360444103999e-01 -2.795139294141945063e-01 2.198342626547323542e-01
1.772307692307692362e+00 9.611824873980098216e-01 3.999071750828464555e-02 2.729771273768402673e-01
1.870769230769230740e+00 8.775729463283340470e-01 3.556745758840396676e-01 3.214795458915803983e-01
1.969230769230769340e+00 6.878902689418585625e-01 6.269323281695352579e-01 3.657197248223634234e-01
2.067692307692307718e+00 4.121504474606136337e-01 8.156093520148760545e-01 4.060809829354409262e-01
2.166153846153846096e+00 8.496588866261822748e-02 8.925157167574779837e-01 4.429280235320744441e-01
2.264615384615384475e+00 -2.485499001515522055e-01 8.432455294834042547e-01 4.766014172967627527e-01
2.363076923076922853e+00 -5.392738670542678303e-01 6.720794956367479589e-01 5.074269831406905684e-01
2.461538461538461675e+00 -7.420512254221910409e-01 4.029864603842917559e-01 5.356785526355447580e-01
2.560000000000000053e+00 -8.238026689437608630e-01 7.712669595478915952e-02 5.615964035457385872e-01
2.658461538461538431e+00 -7.702347441578090148e-01 -2.530698181319109841e-01 5.853924080075201264e-01
2.756923076923076810e+00 -5.896450136443672774e-01 -5.324858813484455444e-01 6.072626851636347967e-01
2.855384615384615188e+00 -3.128002475895423351e-01 -7.131175434816163783e-01 6.273835053037554177e-01
2.953846153846154010e+00 1.151898993867490895e-02 -7.633081226452322898e-01 6.459248532392797282e-01
3.052307692307692388e+00 3.247560201150285764e-01 -6.744551985381640469e-01 6.630496695337984026e-01
3.150769230769230766e+00 5.692949795996653517e-01 -4.636584787952358067e-01 6.789075806972330041e-01
3.249230769230769145e+00 6.996394882544444416e-01 -1.714100017357764738e-01 6.936243712268389539e-01
3.347692307692307523e+00 6.917364628057823817e-01 1.455533435592368530e-01 7.073236267861281457e-01
3.446153846153846345e+00 5.484734947559734008e-01 4.250294350347735839e-01 7.200824794648025273e-01
3.544615384615384723e+00 2.997910650300050217e-01 6.118197109547035550e-01 7.319796136467734415e-01
3.643076923076923102e+00 -2.777064263358795804e-03 6.692006123847333843e-01 7.430713996135644983e-01
3.741538461538461480e+00 -2.963619349620558174e-01 5.869619552531387674e-01 7.534173903250269699e-01
3.839999999999999858e+00 -5.198070086239271470e-01 3.840789087133202329e-01 7.630705933774537542e-01
