0.000000000000000000e+00 1.793242731798613319e-09 -7.717459282667804550e-10 -1.000000000000000000e+00
9.846153846153846145e-02 -1.086743225712652819e-02 -6.086154287475568393e-03 -9.999223545372167843e-01
1.969230769230769229e-01 -2.152609063743580672e-02 -1.254499016593334584e-02 -9.996894439143018118e-01
2.953846153846153566e-01 -3.175330753561175778e-02 -1.970355730542865114e-02 -9.993013117862162842e-01
3.938461538461538458e-01 -4.128175989125121986e-02 -2.788205698120327369e-02 -9.987581815264865437e-01
4.923076923076923350e-01 -4.979796865570650100e-02 -3.735574265341777556e-02 -9.980601646350195644e-01
5.907692307692307132e-01 -5.692343534642621550e-02 -4.833218612404679287e-02 -9.972075964406207360e-01
6.892307692307692024e-01 -6.220416268479303512e-02 -6.093972210349845459e-02 -9.962008529220213182e-01
7.876923076923076916e-01 -6.512519325065380116e-02 -7.518455941191426462e-02 -9.950402119187388150e-01
8.861538461538461808e-01 -6.510859639833152523e-02 -9.092818945024026822e-02 -9.937262435165956642e-01
9.846153846153846700e-01 -6.154332797433487157e-02 -1.078537378897615473e-01 -9.922594352129234796e-01
1.083076923076923048e+00 -5.381979589907176509e-02 -1.254325439871143699e-01 -9.906405960585494830e-01
1.181538461538461426e+00 -4.138620029725931238e-02 -1.429022590255663028e-01 -9.888704082683418273e-01
1.280000000000000027e+00 -2.381607892328919951e-02 -1.592530386534281583e-01 -9.869496976013720779e-01
1.378461538461538405e+00 -8.800341347081318266e-04 -1.732315560588838232e-01 -9.848798755431001917e-01
1.476923076923077005e+00 2.734048880652703573e-02 -1.833755438828923168e-01 -9.826617440759510824e-01
1.575384615384615383e+00 6.038206738434279131e-02 -1.880725836381618998e-01 -9.802962668619569220e-01
1.673846153846153761e+00 9.729039983345975917e-02 -1.856537774477306779e-01 -9.777858674574272380e-01
1.772307692307692362e+00 1.365644051183941832e-01 -1.745456744814184724e-01 -9.751316815875435973e-01
1.870769230769230740e+00 1.761294722087561326e-01 -1.534276376271100639e-01 -9.723353687522984234e-01
1.969230769230769340e+00 2.133378418736929238e-01 -1.214518300399087952e-01 -9.693987748404094829e-01
2.067692307692307718e+00 2.450699687556515682e-01 -7.845315528297880370e-02 -9.663246130689586710e-01
2.166153846153846096e+00 2.679089269341330404e-01 -2.516294890502870918e-02 -9.631141931418787383e-01
2.264615384615384475e+00 2.783842136982902504e-01 3.661270138937297580e-02 -9.597702443868103561e-01
2.363076923076922853e+00 2.733142400466999633e-01 1.038876883957827180e-01 -9.562968885837583866e-01
2.461538461538461675e+00 2.502220039974056842e-01 1.725076292051918592e-01 -9.526945980645890044e-01
2.560000000000000053e+00 2.077592523320648810e-01 2.372648131143070271e-01 -9.489669696844077462e-01
2.658461538461538431e+00 1.461286206620059369e-01 2.922257944126305240e-01 -9.451175610294969553e-01
2.756923076923076810e+00 6.744865784279585608e-02 3.311884836481130967e-01 -9.411489757797087963e-01
2.855384615384615188e+00 -2.406652760867536434e-02 3.483148214464807935e-01 -9.370667102804521864e-01
2.953846153846154010e+00 -1.220928854615415948e-01 3.388864477282541587e-01 -9.328695399107954644e-01
3.052307692307692388e+00 -2.184715841173600070e-01 3.000556819186351865e-01 -9.285649725242061114e-01
3.150769230769230766e+00 -3.037980187027388146e-01 2.315981309839510172e-01 -9.241564273212518055e-01
3.249230769230769145e+00 -3.682757895805723880e-01 1.364664121902059712e-01 -9.196443659316911878e-01
3.347692307692307523e+00 -4.028206553153488856e-01 2.103780935009666453e-02 -9.150348032983118829e-01
3.446153846153846345e+00 -4.003303497778451514e-01 -1.050189668984886082e-01 -9.103308466146659006e-01
3.544615384615384723e+00 -3.569238143874109426e-01 -2.293586142595086252e-01 -9.055360331947843733e-01
3.643076923076923102e+00 -2.729974271456646617e-01 -3.380628575837241190e-01 -9.006560224617649046e-01
3.741538461538461480e+00 -1.539171380785039622e-01 -4.171828090351024088e-01 -8.956914983462402891e-01
3.839999999999999858e+00 -1.007757348396809416e-02 -4.545760133953480886e-01 -8.906481784579924899e-01
