0.000000000000000000e+00 6.479865153564600831e-09 8.533649681317601125e-10 -1.000000000000000000e+00
9.846153846153846145e-02 4.647743970888286447e-02 -1.754139502105193649e-01 -9.833963859747930636e-01
1.969230769230769229e-01 1.038415470201876634e-01 -3.399715099386215744e-01 -9.346836441217840630e-01
2.953846153846153566e-01 1.809614111477236831e-01 -4.824605477227291161e-01 -8.570183480314463864e-01
3.938461538461538458e-01 2.828983847936921148e-01 -5.912489315980817839e-01 -7.552399222714466509e-01
4.923076923076923350e-01 4.094312727258994644e-01 -6.547849231212394816e-01 -6.353073871395227279e-01
5.907692307692307132e-01 5.541669233657504634e-01 -6.627321316518643979e-01 -5.036633200654931919e-01
6.892307692307692024e-01 7.044811095829088821e-01 -6.077102660731457107e-01 -3.665859684104841865e-01
7.876923076923076916e-01 8.424551452094580783e-01 -4.873432688554359959e-01 -2.296865431154928860e-01
8.861538461538461808e-01 9.469430167054533332e-01 -3.062299248441534560e-01 -9.752890849503759174e-02
9.846153846153846700e-01 9.966512596688678061e-01 -7.727036248560348319e-02 2.655629367022898854e-02
1.083076923076923048e+00 9.739244717089640124e-01 1.781654950952747396e-01 1.404206604838624250e-01
1.181538461538461426e+00 8.686828298566942053e-01 4.316318602663817838e-01 2.430518467588083931e-01
1.280000000000000027e+00 6.817753723144200917e-01 6.507379660697780732e-01 3.342348127910870215e-01
1.378461538461538405e+00 4.268826286278616378e-01 8.037511148529630223e-01 4.144229176741450194e-01
1.476923076923077005e+00 1.303629424922783664e-01 8.650718597987578917e-01 4.844044015834815253e-01
1.575384615384615383e+00 -1.714723547795387049e-01 8.205864241363117761e-01 5.451852945320101451e-01
1.673846153846153761e+00 -4.374523819420987336e-01 6.717383791700289875e-01 5.978255178210762910e-01
1.772307692307692362e+00 -6.284410425851176818e-01 4.372215539020358754e-01 6.433443995896190870e-01
1.870769230769230740e+00 -7.148338002291101390e-01 1.514335814327381069e-01 6.826959515362333031e-01
1.969230769230769340e+00 -6.830575163350424139e-01 -1.403658886743017198e-01 7.167450488190316715e-01
2.067692307692307718e+00 -5.396293796580275970e-01 -3.897421687830752157e-01 7.462540656920200188e-01
2.166153846153846096e+00 -3.114509987008899361e-01 -5.542414902016314926e-01 7.718866573204788972e-01
2.264615384615384475e+00 -4.183149688918202935e-02 -6.061917428158329901e-01 7.942143103083655342e-01
2.363076923076922853e+00 2.173202219452229633e-01 -5.390900703037807551e-01 8.137252457913153325e-01
2.461538461538461675e+00 4.157842612647427716e-01 -3.699296091975712852e-01 8.308253423250148151e-01
2.560000000000000053e+00 5.156400894467414453e-01 -1.365009939673124117e-01 8.458594786247347619e-01
2.658461538461538431e+00 4.997955384840275794e-01 1.101057651538290827e-01 8.591139902458038158e-01
2.756923076923076810e+00 3.762101329726267318e-01 3.164077154699587724e-01 8.708317809622320160e-01
2.855384615384615188e+00 1.765335468428538834e-01 4.384920552961215079e-01 8.812245536565198600e-01
2.953846153846154010e+00 -5.085818752614663929e-02 4.521785487698137262e-01 8.904741955204547033e-01
3.052307692307692388e+00 -2.520305268697912160e-01 3.588225783479517816e-01 8.987343319307233847e-01
3.150769230769230766e+00 -3.803330840999469276e-01 1.850877651008791258e-01 9.061378613057824438e-01
3.249230769230769145e+00 -4.077402657917748030e-01 -2.352959320739086979e-02 9.127929438298948428e-01
3.347692307692307523e+00 -3.317070197012917387e-01 -2.139781805505932277e-01 9.187930331327542888e-01
3.446153846153846345e+00 -1.757114948181493497e-01 -3.390465256331600674e-01 9.242131408805610571e-01
3.544615384615384723e+00 1.694013114671558129e-02 -3.693930193862665634e-01 9.291172746542362137e-01
3.643076923076923102e+00 1.945514050618852298e-01 -3.010008702711944872e-01 9.335659709674093421e-01
3.741538461538461480e+00 3.107256631623271925e-01 -1.559880116932527983e-01 9.376111018755164395e-01
3.839999999999999858e+00 3.367363640741926067e-01 2.362683390381989379e-02 9.413011042691320496e-01
