1.000000000000000056e-01 -2.539289424875319193e-04 -1.892987034664919156e-04 -9.999999498430460765e-01
2.000000000000000111e-01 -5.083262255022206544e-04 -3.763591981784326413e-04 -9.999997999790901648e-01
2.999999999999999889e-01 -7.636387018573724279e-04 -5.593635853711593185e-04 -9.999995519840400027e-01
4.000000000000000222e-01 -1.020219223586209386e-03 -7.359769132109292419e-04 -9.999992087450511047e-01
5.000000000000000000e-01 -1.278319962282980712e-03 -9.039364832900675115e-04 -9.999987743977233334e-01
5.999999999999999778e-01 -1.538061408728911249e-03 -1.061254864298030037e-03 -9.999982540510219398e-01
6.999999999999999556e-01 -1.799267642631106326e-03 -1.205577488430637292e-03 -9.999976546065758587e-01
7.999999999999999334e-01 -2.061626682324982536e-03 -1.334386785957608146e-03 -9.999969845490165321e-01
8.999999999999999112e-01 -2.324768185932441378e-03 -1.446087399543349774e-03 -9.999962521336650534e-01
9.999999999999998890e-01 -2.587271277895203305e-03 -1.538669551222328737e-03 -9.999954692509085419e-01
1.099999999999999867e+00 -2.848371662923483184e-03 -1.608729952567912718e-03 -9.999946493676791226e-01
1.199999999999999956e+00 -3.106046796765947818e-03 -1.655274874593933715e-03 -9.999938062473807676e-01
1.300000000000000044e+00 -3.358291117917799884e-03 -1.675982381635494813e-03 -9.999929564562778372e-01
1.399999999999999911e+00 -3.602832931904658732e-03 -1.668920921804544107e-03 -9.999921171172726497e-01
1.500000000000000000e+00 -3.836766207344926953e-03 -1.632695015178623529e-03 -9.999913067240985276e-01
1.599999999999999867e+00 -4.055974279637999773e-03 -1.566339375447499621e-03 -9.999905477813683108e-01
1.699999999999999956e+00 -4.257091150893062108e-03 -1.468527380554256797e-03 -9.999898602486012589e-01
1.800000000000000044e+00 -4.435376770971379175e-03 -1.338840815756333355e-03 -9.999892674104959855e-01
1.899999999999999911e+00 -4.586148922341476593e-03 -1.178185955315439598e-03 -9.999887894936477784e-01
2.000000000000000000e+00 -4.704659743398374033e-03 -9.879757160321063145e-04 -9.999884449653486662e-01
2.099999999999999645e+00 -4.784189048351803787e-03 -7.680628173564570593e-04 -9.999882607273999913e-01
2.199999999999999734e+00 -4.819523286549214081e-03 -5.230098879022786716e-04 -9.999882492499886366e-01
2.299999999999999822e+00 -4.804893718772022988e-03 -2.562804094710262109e-04 -9.999884235838805147e-01
2.399999999999999911e+00 -4.733688964682556712e-03 2.595695866747794504e-05 -9.999887957040537456e-01
2.500000000000000000e+00 -4.599961899421405043e-03 3.195424488708585305e-04 -9.999893690696372017e-01
