1.000000000000000056e-01 -1.432392272169944998e-03 -1.175398577996774002e-05 -9.999989740565996543e-01
2.000000000000000111e-01 -2.860878275301934753e-03 -1.501157687774507926e-05 -9.999959075668166664e-01
2.999999999999999889e-01 -4.281500045924665696e-03 -2.130742923472112179e-06 -9.999908343346327610e-01
4.000000000000000222e-01 -5.690001905008676593e-03 3.551203905258269559e-05 -9.999838111780180450e-01
5.000000000000000000e-01 -7.081915530212025585e-03 1.053401167450548171e-04 -9.999749173739088670e-01
5.999999999999999778e-01 -8.452104676811683301e-03 2.152771181734959918e-04 -9.999642571534237412e-01
6.999999999999999556e-01 -9.795187061891825336e-03 3.732583626455260317e-04 -9.999519563412898604e-01
7.999999999999999334e-01 -1.110501220304862917e-02 5.849309409864606249e-04 -9.999381663695037226e-01
8.999999999999999112e-01 -1.237470275955955719e-02 8.581589957453416824e-04 -9.999230621883793413e-01
9.999999999999998890e-01 -1.359646534272176965e-02 1.197848086697910408e-03 -9.999068463080218461e-01
1.099999999999999867e+00 -1.476191404322925275e-02 1.609723359792175406e-03 -9.998897412660244788e-01
1.199999999999999956e+00 -1.586177767421438622e-02 2.098080597885429097e-03 -9.998719928416560654e-01
1.300000000000000044e+00 -1.688534793808694340e-02 2.666088767696743467e-03 -9.998538778227988866e-01
1.399999999999999911e+00 -1.782150990023754350e-02 3.315844027870185409e-03 -9.998356859850194844e-01
1.500000000000000000e+00 -1.865811913277783118e-02 4.047920737609671249e-03 -9.998177278555511194e-01
1.599999999999999867e+00 -1.938198910719254875e-02 4.862055114026171861e-03 -9.998003295279945801e-01
1.699999999999999956e+00 -1.997916538612933002e-02 5.755063940256798134e-03 -9.997838327339412245e-01
1.800000000000000044e+00 -2.043519622496708585e-02 6.722984332363612751e-03 -9.997685753376235329e-01
1.899999999999999911e+00 -2.073458869813942299e-02 7.758464566708376045e-03 -9.997549114955255334e-01
2.000000000000000000e+00 -2.086211390026122131e-02 8.852793352849124345e-03 -9.997431671471654901e-01
2.099999999999999645e+00 -2.080215112784498249e-02 9.993574195825681919e-03 -9.997336640236451633e-01
2.199999999999999734e+00 -2.053953966072560172e-02 1.116643924216271025e-02 -9.997266816165921721e-01
2.299999999999999822e+00 -2.005925753709115675e-02 1.235276490867378250e-02 -9.997224791784437015e-01
2.399999999999999911e+00 -1.934765708796175668e-02 1.353250641870101106e-02 -9.997212308544817239e-01
2.500000000000000000e+00 -1.839238765907801748e-02 1.468116850370948349e-02 -9.997230533105162520e-01
