1.000000000000000056e-01 -1.213055216450331392e-03 -1.999434758369514993e-04 -9.999992442595544428e-01
2.000000000000000111e-01 -2.427424098504192291e-03 -4.040601924569184886e-04 -9.999969721692545388e-01
2.999999999999999889e-01 -3.644344628951080769e-03 -6.156510960932794294e-04 -9.999931698397089841e-01
4.000000000000000222e-01 -4.864908502259017616e-03 -8.397807929767567812e-04 -9.999878136424686925e-01
5.000000000000000000e-01 -6.089888753047003993e-03 -1.079642229143728096e-03 -9.999808736307883583e-01
5.999999999999999778e-01 -7.319814145398187422e-03 -1.339309670491678570e-03 -9.999723129018837087e-01
6.999999999999999556e-01 -8.554799292148052361e-03 -1.623893280078244836e-03 -9.999620884710358482e-01
7.999999999999999334e-01 -9.794349221295602440e-03 -1.936878553183898595e-03 -9.999501583701559948e-01
8.999999999999999112e-01 -1.103749853573108425e-02 -2.283348551714769505e-03 -9.999364779547066373e-01
9.999999999999998890e-01 -1.228241073547826565e-02 -2.667303354132574602e-03 -9.999210108197067459e-01
1.099999999999999867e+00 -1.352668663136704676e-02 -3.092991665491621675e-03 -9.999037264411475556e-01
1.199999999999999956e+00 -1.476701791482082707e-02 -3.565082340440086945e-03 -9.998846060267325697e-01
1.300000000000000044e+00 -1.599896109878026773e-02 -4.087284606272158401e-03 -9.998636543789108933e-01
1.399999999999999911e+00 -1.721722010931638763e-02 -4.663256820277158869e-03 -9.998408980262313284e-01
1.500000000000000000e+00 -1.841555344323368357e-02 -5.295953020835574530e-03 -9.998163932806851673e-01
1.599999999999999867e+00 -1.958645461531418122e-02 -5.988590054073249583e-03 -9.997902317908230474e-01
1.699999999999999956e+00 -2.072124314904093961e-02 -6.741318620629222109e-03 -9.997625641650790262e-01
1.800000000000000044e+00 -2.181039596976320355e-02 -7.555676762011093867e-03 -9.997335736963448571e-01
1.899999999999999911e+00 -2.284350389080488583e-02 -8.429682270286549192e-03 -9.997035134413543300e-01
2.000000000000000000e+00 -2.380952836407383352e-02 -9.360433353199866524e-03 -9.996726907492775593e-01
2.099999999999999645e+00 -2.469582300772418110e-02 -1.034394491111234431e-02 -9.996414952778950314e-01
2.199999999999999734e+00 -2.549049750029598604e-02 -1.137211010359974635e-02 -9.996103789163106601e-01
2.299999999999999822e+00 -2.618015213813097708e-02 -1.243521582183554526e-02 -9.995798942984116531e-01
2.399999999999999911e+00 -2.675431677847749448e-02 -1.352187288090380898e-02 -9.995505817622249989e-01
2.500000000000000000e+00 -2.720161705506564387e-02 -1.461489741551256702e-02 -9.995231247061188151e-01
