0.000000000000000000e+00 -7.599028133327282471e-12 1.019831223018306693e-11 -1.000000000000000000e+00
2.105263157894736725e-01 -4.068499717847587349e-01 4.544598582240942930e-01 -7.861098907301661276e-01
4.210526315789473450e-01 -7.419685515103233708e-01 5.478247742256168173e-01 -2.902783102670386528e-01
6.315789473684210176e-01 -8.699710909369451350e-01 2.581818093632957112e-01 2.283403305502377245e-01
8.421052631578946901e-01 -6.918778742704477791e-01 -1.439863287504633549e-01 6.175790807282299788e-01
1.052631578947368363e+00 -3.075422008640493199e-01 -3.436568465595730704e-01 8.472942742703667429e-01
1.263157894736842035e+00 8.608390272859249570e-03 -2.561112733029190514e-01 9.518811028979770050e-01
1.473684210526315708e+00 9.577779638858596734e-02 -7.552642959324722127e-02 9.855048750311178329e-01
1.684210526315789380e+00 4.799930188515157126e-02 1.394375740934519076e-02 9.913974178197140219e-01
1.894736842105263053e+00 4.841619641002319063e-03 1.699383887365615853e-02 9.912281456919569411e-01
2.105263157894736725e+00 -3.777970639050631275e-03 3.813443696330724546e-03 9.916024517957754414e-01
2.315789473684210620e+00 -1.314954364571639493e-03 -4.252666652601479582e-04 9.931056185228223088e-01
2.526315789473684070e+00 -3.358236776491074684e-05 -2.966106371129004085e-04 9.950199352051922741e-01
2.736842105263157521e+00 4.290762049970518006e-05 -2.423200504878291926e-05 9.967634564821974408e-01
2.947368421052631415e+00 2.870599203638143462e-06 4.585473412593615176e-06 9.980842642930332076e-01
3.157894736842105310e+00 1.007346318516821138e-06 7.762426736758051075e-07 9.989602366543870460e-01
3.368421052631578760e+00 5.648603412624002289e-07 -4.881749105712805044e-07 9.994799273010475105e-01
3.578947368421052211e+00 4.538957832522441456e-07 1.307738712551155467e-06 9.997590443045680786e-01
3.789473684210526105e+00 -2.183024972193288530e-07 4.743395823094986029e-07 9.998960125809412958e-01
4.000000000000000000e+00 -1.701901404310223882e-06 -1.745548296526247934e-06 9.999579544745847981e-01
