1.000000000000000056e-01 9.880043884027499557e-01 0.000000000000000000e+00 1.199561159725260999e-02 0.000000000000000000e+00 0.000000000000000000e+00 0.000000000000000000e+00 -7.588776140683446692e-02 7.805616254926302233e-02 0.000000000000000000e+00 0.000000000000000000e+00 0.000000000000000000e+00 0.000000000000000000e+00 0.000000000000000000e+00 0.000000000000000000e+00 0.000000000000000000e+00 0.000000000000000000e+00
2.000000000000000111e-01 9.532835961098093946e-01 0.000000000000000000e+00 4.671640389018907880e-02 0.000000000000000000e+00 0.000000000000000000e+00 0.000000000000000000e+00 -1.505226143799738292e-01 1.479084988842802317e-01 0.000000000000000000e+00 0.000000000000000000e+00 0.000000000000000000e+00 0.000000000000000000e+00 0.000000000000000000e+00 0.000000000000000000e+00 0.000000000000000000e+00 0.000000000000000000e+00
2.999999999999999889e-01 8.995036719816265069e-01 0.000000000000000000e+00 1.004963280183706342e-01 0.000000000000000000e+00 0.000000000000000000e+00 0.000000000000000000e+00 -2.225304127783350183e-01 2.021806900472302992e-01 0.000000000000000000e+00 0.000000000000000000e+00 0.000000000000000000e+00 0.000000000000000000e+00 0.000000000000000000e+00 0.000000000000000000e+00 0.000000000000000000e+00 0.000000000000000000e+00
4.000000000000000222e-01 8.323473016280212855e-01 0.000000000000000000e+00 1.676526983719804353e-01 0.000000000000000000e+00 0.000000000000000000e+00 0.000000000000000000e+00 -2.903240307924490615e-01 2.350685604308423438e-01 0.000000000000000000e+00 0.000000000000000000e+00 0.000000000000000000e+00 0.000000000000000000e+00 0.000000000000000000e+00 0.000000000000000000e+00 0.000000000000000000e+00 0.000000000000000000e+00
5.000000000000000000e-01 7.589253122867609669e-01 0.000000000000000000e+00 2.410746877132377564e-01 0.000000000000000000e+00 0.000000000000000000e+00 0.000000000000000000e+00 -3.520555466195665617e-01 2.429291554930642638e-01 0.000000000000000000e+00 0.000000000000000000e+00 0.000000000000000000e+00 0.000000000000000000e+00 0.000000000000000000e+00 0.000000000000000000e+00 0.000000000000000000e+00 0.000000000000000000e+00
5.999999999999999778e-01 6.870317925312484642e-01 0.000000000000000000e+00 3.129682074687548110e-01 0.000000000000000000e+00 0.000000000000000000e+00 0.000000000000000000e+00 -4.056410087740788262e-01 2.246652633198956139e-01 0.000000000000000000e+00 0.000000000000000000e+00 0.000000000000000000e+00 0.000000000000000000e+00 0.000000000000000000e+00 0.000000000000000000e+00 0.000000000000000000e+00 0.000000000000000000e+00
6.999999999999999556e-01 6.243223378375875043e-01 0.000000000000000000e+00 3.756776621624128842e-01 0.000000000000000000e+00 0.000000000000000000e+00 0.000000000000000000e+00 -4.488572550754171830e-01 1.818546692072866011e-01 0.000000000000000000e+00 0.000000000000000000e+00 0.000000000000000000e+00 0.000000000000000000e+00 0.000000000000000000e+00 0.000000000000000000e+00 0.000000000000000000e+00 0.000000000000000000e+00
7.999999999999999334e-01 5.775194516818702439e-01 0.000000000000000000e+00 4.224805483181288124e-01 0.000000000000000000e+00 0.000000000000000000e+00 0.000000000000000000e+00 -4.794994500913178914e-01 1.186212963270620452e-01 0.000000000000000000e+00 0.000000000000000000e+00 0.000000000000000000e+00 0.000000000000000000e+00 0.000000000000000000e+00 0.000000000000000000e+00 0.000000000000000000e+00 0.000000000000000000e+00
8.999999999999999112e-01 5.516866757981084834e-01 0.000000000000000000e+00 4.483133242018917386e-01 0.000000000000000000e+00 0.000000000000000000e+00 0.000000000000000000e+00 -4.956080200522409163e-01 4.124533581455716580e-02 0.000000000000000000e+00 0.000000000000000000e+00 0.000000000000000000e+00 0.000000000000000000e+00 0.000000000000000000e+00 0.000000000000000000e+00 0.000000000000000000e+00 0.000000000000000000e+00
9.999999999999998890e-01 5.496917015417217556e-01 0.000000000000000000e+00 4.503082984582778558e-01 0.000000000000000000e+00 0.000000000000000000e+00 0.000000000000000000e+00 -4.957126709282734245e-01 -4.242266518335689740e-02 0.000000000000000000e+00 0.000000000000000000e+00 0.000000000000000000e+00 0.000000000000000000e+00 0.000000000000000000e+00 0.000000000000000000e+00 0.000000000000000000e+00 0.000000000000000000e+00
1.099999999999999867e+00 5.718800513080045667e-01 0.000000000000000000e+00 4.281199486919954333e-01 0.000000000000000000e+00 0.000000000000000000e+00 0.000000000000000000e+00 -4.790868790598469817e-01 -1.237296263796453938e-01 0.000000000000000000e+00 0.000000000000000000e+00 0.000000000000000000e+00 0.000000000000000000e+00 0.000000000000000000e+00 0.000000000000000000e+00 0.000000000000000000e+00 0.000000000000000000e+00
1.199999999999999956e+00 6.160097204792290837e-01 0.000000000000000000e+00 3.839902795207739139e-01 0.000000000000000000e+00 0.000000000000000000e+00 0.000000000000000000e+00 -4.459660469745190814e-01 -1.940516153742938010e-01 0.000000000000000000e+00 0.000000000000000000e+00 0.000000000000000000e+00 0.000000000000000000e+00 0.000000000000000000e+00 0.000000000000000000e+00 0.000000000000000000e+00 0.000000000000000000e+00
1.300000000000000044e+00 6.774660622884756123e-01 0.000000000000000000e+00 3.225339377115252759e-01 0.000000000000000000e+00 0.000000000000000000e+00 0.000000000000000000e+00 -3.977012869919662186e-01 -2.456409636234866967e-01 0.000000000000000000e+00 0.000000000000000000e+00 0.000000000000000000e+00 0.000000000000000000e+00 0.000000000000000000e+00 0.000000000000000000e+00 0.000000000000000000e+00 0.000000000000000000e+00
1.399999999999999911e+00 7.497012694238326391e-01 0.000000000000000000e+00 2.502987305761674719e-01 0.000000000000000000e+00 0.000000000000000000e+00 0.000000000000000000e+00 -3.368180119431346542e-01 -2.724020974213736124e-01 0.000000000000000000e+00 0.000000000000000000e+00 0.000000000000000000e+00 0.000000000000000000e+00 0.000000000000000000e+00 0.000000000000000000e+00 0.000000000000000000e+00 0.000000000000000000e+00
1.500000000000000000e+00 8.249018817071882559e-01 0.000000000000000000e+00 1.750981182928089963e-01 0.000000000000000000e+00 0.000000000000000000e+00 0.000000000000000000e+00 -2.669652575133140693e-01 -2.704964293696335842e-01 0.000000000000000000e+00 0.000000000000000000e+00 0.000000000000000000e+00 0.000000000000000000e+00 0.000000000000000000e+00 0.000000000000000000e+00 0.000000000000000000e+00 0.000000000000000000e+00
1.599999999999999867e+00 8.947722253601759768e-01 0.000000000000000000e+00 1.052277746398260910e-01 0.000000000000000000e+00 0.000000000000000000e+00 0.000000000000000000e+00 -1.927442749728754401e-01 -2.387562233320863203e-01 0.000000000000000000e+00 0.000000000000000000e+00 0.000000000000000000e+00 0.000000000000000000e+00 0.000000000000000000e+00 0.000000000000000000e+00 0.000000000000000000e+00 0.000000000000000000e+00
1.699999999999999956e+00 9.513960122543254627e-01 0.000000000000000000e+00 4.860398774567552260e-02 0.000000000000000000e+00 0.000000000000000000e+00 0.000000000000000000e+00 -1.194121298923186691e-01 -1.788361907768924730e-01 0.000000000000000000e+00 0.000000000000000000e+00 0.000000000000000000e+00 0.000000000000000000e+00 0.000000000000000000e+00 0.000000000000000000e+00 0.000000000000000000e+00 0.000000000000000000e+00
1.800000000000000044e+00 9.880608237686389073e-01 0.000000000000000000e+00 1.193917623136232613e-02 0.000000000000000000e+00 0.000000000000000000e+00 0.000000000000000000e+00 -5.250244082985976168e-02 -9.507957725948237848e-02 0.000000000000000000e+00 0.000000000000000000e+00 0.000000000000000000e+00 0.000000000000000000e+00 0.000000000000000000e+00 0.000000000000000000e+00 0.000000000000000000e+00 0.000000000000000000e+00
1.899999999999999911e+00 9.999590919650946930e-01 0.000000000000000000e+00 4.090803490457508191e-05 0.000000000000000000e+00 0.000000000000000000e+00 0.000000000000000000e+00 2.629735792538645620e-03 5.830165117793727030e-03 0.000000000000000000e+00 0.000000000000000000e+00 0.000000000000000000e+00 0.000000000000000000e+00 0.000000000000000000e+00 0.000000000000000000e+00 0.000000000000000000e+00 0.000000000000000000e+00
2.000000000000000000e+00 9.847250581613992138e-01 0.000000000000000000e+00 1.527494183860105513e-02 0.000000000000000000e+00 0.000000000000000000e+00 0.000000000000000000e+00 4.128098946877918618e-02 1.154880848600392668e-01 0.000000000000000000e+00 0.000000000000000000e+00 0.000000000000000000e+00 0.000000000000000000e+00 0.000000000000000000e+00 0.000000000000000000e+00 0.000000000000000000e+00 0.000000000000000000e+00
2.099999999999999645e+00 9.427151336210342070e-01 0.000000000000000000e+00 5.728486637896277461e-02 0.000000000000000000e+00 0.000000000000000000e+00 0.000000000000000000e+00 5.987034703307882177e-02 2.245414269504747706e-01 0.000000000000000000e+00 0.000000000000000000e+00 0.000000000000000000e+00 0.000000000000000000e+00 0.000000000000000000e+00 0.000000000000000000e+00 0.000000000000000000e+00 0.000000000000000000e+00
2.199999999999999734e+00 8.770158150088924742e-01 0.000000000000000000e+00 1.229841849911063184e-01 0.000000000000000000e+00 0.000000000000000000e+00 0.000000000000000000e+00 5.631180531037550951e-02 3.235553367810153347e-01 0.000000000000000000e+00 0.000000000000000000e+00 0.000000000000000000e+00 0.000000000000000000e+00 0.000000000000000000e+00 0.000000000000000000e+00 0.000000000000000000e+00 0.000000000000000000e+00
2.299999999999999822e+00 7.931865418127237444e-01 0.000000000000000000e+00 2.068134581872761446e-01 0.000000000000000000e+00 0.000000000000000000e+00 0.000000000000000000e+00 3.030184980093911934e-02 4.038854413578425451e-01 0.000000000000000000e+00 0.000000000000000000e+00 0.000000000000000000e+00 0.000000000000000000e+00 0.000000000000000000e+00 0.000000000000000000e+00 0.000000000000000000e+00 0.000000000000000000e+00
2.399999999999999911e+00 6.987269010163900118e-01 0.000000000000000000e+00 3.012730989836082673e-01 0.000000000000000000e+00 0.000000000000000000e+00 0.000000000000000000e+00 -1.655751016564985245e-02 4.585122323214983475e-01 0.000000000000000000e+00 0.000000000000000000e+00 0.000000000000000000e+00 0.000000000000000000e+00 0.000000000000000000e+00 0.000000000000000000e+00 0.000000000000000000e+00 0.000000000000000000e+00
2.500000000000000000e+00 6.023726105175187806e-01 0.000000000000000000e+00 3.976273894824787769e-01 0.000000000000000000e+00 0.000000000000000000e+00 0.000000000000000000e+00 -8.079934482170011978e-02 4.826917375965051882e-01 0.000000000000000000e+00 0.000000000000000000e+00 0.000000000000000000e+00 0.000000000000000000e+00 0.000000000000000000e+00 0.000000000000000000e+00 0.000000000000000000e+00 0.000000000000000000e+00
2.600000000000000089e+00 5.132242582009699516e-01 0.000000000000000000e+00 4.867757417990325464e-01 0.000000000000000000e+00 0.000000000000000000e+00 0.000000000000000000e+00 -1.573023555080895752e-01 4.744271152138758718e-01 0.000000000000000000e+00 0.000000000000000000e+00 0.000000000000000000e+00 0.000000000000000000e+00 0.000000000000000000e+00 0.000000000000000000e+00 0.000000000000000000e+00 0.000000000000000000e+00
2.699999999999999734e+00 4.398509189958100252e-01 0.000000000000000000e+00 5.601490810041879209e-01 0.000000000000000000e+00 0.000000000000000000e+00 0.000000000000000000e+00 -2.396757673030539548e-01 4.346695454331095942e-01 0.000000000000000000e+00 0.000000000000000000e+00 0.000000000000000000e+00 0.000000000000000000e+00 0.000000000000000000e+00 0.000000000000000000e+00 0.000000000000000000e+00 0.000000000000000000e+00
2.799999999999999822e+00 3.894261898086582852e-01 0.000000000000000000e+00 6.105738101913436022e-01 0.000000000000000000e+00 0.000000000000000000e+00 0.000000000000000000e+00 -3.207876920546847699e-01 3.672447253788031496e-01 0.000000000000000000e+00 0.000000000000000000e+00 0.000000000000000000e+00 0.000000000000000000e+00 0.000000000000000000e+00 0.000000000000000000e+00 0.000000000000000000e+00 0.000000000000000000e+00
2.899999999999999911e+00 3.669882168105385589e-01 0.000000000000000000e+00 6.330117831894613856e-01 0.000000000000000000e+00 0.000000000000000000e+00 0.000000000000000000e+00 -3.933666343023105028e-01 2.785149113648004437e-01 0.000000000000000000e+00 0.000000000000000000e+00 0.000000000000000000e+00 0.000000000000000000e+00 0.000000000000000000e+00 0.000000000000000000e+00 0.000000000000000000e+00 0.000000000000000000e+00
3.000000000000000000e+00 3.749242164577542558e-01 0.000000000000000000e+00 6.250757835422451336e-01 0.000000000000000000e+00 0.000000000000000000e+00 0.000000000000000000e+00 -4.506627905170160209e-01 1.768024250949775111e-01 0.000000000000000000e+00 0.000000000000000000e+00 0.000000000000000000e+00 0.000000000000000000e+00 0.000000000000000000e+00 0.000000000000000000e+00 0.000000000000000000e+00 0.000000000000000000e+00
