1.000000000000000056e-01 9.864209680812069392e-01 0.000000000000000000e+00 1.357903191879440002e-02 0.000000000000000000e+00 0.000000000000000000e+00 0.000000000000000000e+00 9.208656123556469009e-02 -7.010496691801840208e-02 0.000000000000000000e+00 0.000000000000000000e+00 0.000000000000000000e+00 0.000000000000000000e+00 0.000000000000000000e+00 0.000000000000000000e+00 0.000000000000000000e+00 0.000000000000000000e+00
2.000000000000000111e-01 9.469138552140904386e-01 0.000000000000000000e+00 5.308614478591072716e-02 0.000000000000000000e+00 0.000000000000000000e+00 0.000000000000000000e+00 1.848423069697144316e-01 -1.268909956922984750e-01 0.000000000000000000e+00 0.000000000000000000e+00 0.000000000000000000e+00 0.000000000000000000e+00 0.000000000000000000e+00 0.000000000000000000e+00 0.000000000000000000e+00 0.000000000000000000e+00
2.999999999999999889e-01 8.849741832463214886e-01 0.000000000000000000e+00 1.150258167536770681e-01 0.000000000000000000e+00 0.000000000000000000e+00 0.000000000000000000e+00 2.769448302907244752e-01 -1.584185359461996734e-01 0.000000000000000000e+00 0.000000000000000000e+00 0.000000000000000000e+00 0.000000000000000000e+00 0.000000000000000000e+00 0.000000000000000000e+00 0.000000000000000000e+00 0.000000000000000000e+00
4.000000000000000222e-01 8.058232971114271947e-01 0.000000000000000000e+00 1.941767028885712787e-01 0.000000000000000000e+00 0.000000000000000000e+00 0.000000000000000000e+00 3.636528669354588961e-01 -1.556556797190372377e-01 0.000000000000000000e+00 0.000000000000000000e+00 0.000000000000000000e+00 0.000000000000000000e+00 0.000000000000000000e+00 0.000000000000000000e+00 0.000000000000000000e+00 0.000000000000000000e+00
5.000000000000000000e-01 7.156416087202874809e-01 0.000000000000000000e+00 2.843583912797111313e-01 0.000000000000000000e+00 0.000000000000000000e+00 0.000000000000000000e+00 4.364260203608856248e-01 -1.141534247988026801e-01 0.000000000000000000e+00 0.000000000000000000e+00 0.000000000000000000e+00 0.000000000000000000e+00 0.000000000000000000e+00 0.000000000000000000e+00 0.000000000000000000e+00 0.000000000000000000e+00
5.999999999999999778e-01 6.207346496909683653e-01 0.000000000000000000e+00 3.792653503090319678e-01 0.000000000000000000e+00 0.000000000000000000e+00 0.000000000000000000e+00 4.838948941895331313e-01 -3.562084392294219415e-02 0.000000000000000000e+00 0.000000000000000000e+00 0.000000000000000000e+00 0.000000000000000000e+00 0.000000000000000000e+00 0.000000000000000000e+00 0.000000000000000000e+00 0.000000000000000000e+00
6.999999999999999556e-01 5.267907481589467755e-01 0.000000000000000000e+00 4.732092518410545567e-01 0.000000000000000000e+00 0.000000000000000000e+00 0.000000000000000000e+00 4.941952680921811170e-01 7.108621547190914491e-02 0.000000000000000000e+00 0.000000000000000000e+00 0.000000000000000000e+00 0.000000000000000000e+00 0.000000000000000000e+00 0.000000000000000000e+00 0.000000000000000000e+00 0.000000000000000000e+00
7.999999999999999334e-01 4.383495857813774488e-01 0.000000000000000000e+00 5.616504142186227178e-01 0.000000000000000000e+00 0.000000000000000000e+00 0.000000000000000000e+00 4.582982107370328628e-01 1.901628827637307784e-01 0.000000000000000000e+00 0.000000000000000000e+00 0.000000000000000000e+00 0.000000000000000000e+00 0.000000000000000000e+00 0.000000000000000000e+00 0.000000000000000000e+00 0.000000000000000000e+00
8.999999999999999112e-01 3.585381041608800001e-01 0.000000000000000000e+00 6.414618958391198333e-01 0.000000000000000000e+00 0.000000000000000000e+00 0.000000000000000000e+00 3.735668923247045803e-01 3.007261944133886589e-01 0.000000000000000000e+00 0.000000000000000000e+00 0.000000000000000000e+00 0.000000000000000000e+00 0.000000000000000000e+00 0.000000000000000000e+00 0.000000000000000000e+00 0.000000000000000000e+00
9.999999999999998890e-01 2.890644977925982406e-01 0.000000000000000000e+00 7.109355022074008712e-01 0.000000000000000000e+00 0.000000000000000000e+00 0.000000000000000000e+00 2.464770943420629412e-01 3.804670588124344222e-01 0.000000000000000000e+00 0.000000000000000000e+00 0.000000000000000000e+00 0.000000000000000000e+00 0.000000000000000000e+00 0.000000000000000000e+00 0.000000000000000000e+00 0.000000000000000000e+00
1.099999999999999867e+00 2.304103811971325577e-01 0.000000000000000000e+00 7.695896188028665819e-01 0.000000000000000000e+00 0.000000000000000000e+00 0.000000000000000000e+00 9.340116006328573472e-02 4.106063600189959750e-01 0.000000000000000000e+00 0.000000000000000000e+00 0.000000000000000000e+00 0.000000000000000000e+00 0.000000000000000000e+00 0.000000000000000000e+00 0.000000000000000000e+00 0.000000000000000000e+00
1.199999999999999956e+00 1.821359810974834958e-01 0.000000000000000000e+00 8.178640189025174756e-01 0.000000000000000000e+00 0.000000000000000000e+00 0.000000000000000000e+00 -6.131421231762543972e-02 3.810550531973083133e-01 0.000000000000000000e+00 0.000000000000000000e+00 0.000000000000000000e+00 0.000000000000000000e+00 0.000000000000000000e+00 0.000000000000000000e+00 0.000000000000000000e+00 0.000000000000000000e+00
1.300000000000000044e+00 1.432141324591968690e-01 0.000000000000000000e+00 8.567858675408038804e-01 0.000000000000000000e+00 0.000000000000000000e+00 0.000000000000000000e+00 -1.900425119636235949e-01 2.942577278919858985e-01 0.000000000000000000e+00 0.000000000000000000e+00 0.000000000000000000e+00 0.000000000000000000e+00 0.000000000000000000e+00 0.000000000000000000e+00 0.000000000000000000e+00 0.000000000000000000e+00
1.399999999999999911e+00 1.123289099610224467e-01 0.000000000000000000e+00 8.876710900389773728e-01 0.000000000000000000e+00 0.000000000000000000e+00 0.000000000000000000e+00 -2.684818713211540864e-01 1.662183376382375954e-01 0.000000000000000000e+00 0.000000000000000000e+00 0.000000000000000000e+00 0.000000000000000000e+00 0.000000000000000000e+00 0.000000000000000000e+00 0.000000000000000000e+00 0.000000000000000000e+00
1.500000000000000000e+00 8.810316523813606360e-02 0.000000000000000000e+00 9.118968347618644499e-01 0.000000000000000000e+00 0.000000000000000000e+00 0.000000000000000000e+00 -2.824443421254009268e-01 2.379326440245806834e-02 0.000000000000000000e+00 0.000000000000000000e+00 0.000000000000000000e+00 0.000000000000000000e+00 0.000000000000000000e+00 0.000000000000000000e+00 0.000000000000000000e+00 0.000000000000000000e+00
1.599999999999999867e+00 6.924602193037832087e-02 0.000000000000000000e+00 9.307539780696225673e-01 0.000000000000000000e+00 0.000000000000000000e+00 0.000000000000000000e+00 -2.326632403671608229e-01 -1.015812855512017582e-01 0.000000000000000000e+00 0.000000000000000000e+00 0.000000000000000000e+00 0.000000000000000000e+00 0.000000000000000000e+00 0.000000000000000000e+00 0.000000000000000000e+00 0.000000000000000000e+00
1.699999999999999956e+00 5.463015437677205821e-02 0.000000000000000000e+00 9.453698456232274561e-01 0.000000000000000000e+00 0.000000000000000000e+00 0.000000000000000000e+00 -1.357140792792798922e-01 -1.822836263955294744e-01 0.000000000000000000e+00 0.000000000000000000e+00 0.000000000000000000e+00 0.000000000000000000e+00 0.000000000000000000e+00 0.000000000000000000e+00 0.000000000000000000e+00 0.000000000000000000e+00
1.800000000000000044e+00 4.331763393253814515e-02 0.000000000000000000e+00 9.566823660674603769e-01 0.000000000000000000e+00 0.000000000000000000e+00 0.000000000000000000e+00 -2.017590798465766083e-02 -2.025687021754105366e-01 0.000000000000000000e+00 0.000000000000000000e+00 0.000000000000000000e+00 0.000000000000000000e+00 0.000000000000000000e+00 0.000000000000000000e+00 0.000000000000000000e+00 0.000000000000000000e+00
1.899999999999999911e+00 3.455400402012627492e-02 0.000000000000000000e+00 9.654459959798747937e-01 0.000000000000000000e+00 0.000000000000000000e+00 0.000000000000000000e+00 8.128057450486494973e-02 -1.635647283186305312e-01 0.000000000000000000e+00 0.000000000000000000e+00 0.000000000000000000e+00 0.000000000000000000e+00 0.000000000000000000e+00 0.000000000000000000e+00 0.000000000000000000e+00 0.000000000000000000e+00
2.000000000000000000e+00 2.774641797806025670e-02 0.000000000000000000e+00 9.722535820219396774e-01 0.000000000000000000e+00 0.000000000000000000e+00 0.000000000000000000e+00 1.416220648791900460e-01 -8.318455290437298810e-02 0.000000000000000000e+00 0.000000000000000000e+00 0.000000000000000000e+00 0.000000000000000000e+00 0.000000000000000000e+00 0.000000000000000000e+00 0.000000000000000000e+00 0.000000000000000000e+00
2.099999999999999645e+00 2.243638632340500330e-02 0.000000000000000000e+00 9.775636136765958328e-01 0.000000000000000000e+00 0.000000000000000000e+00 0.000000000000000000e+00 1.477948973976046798e-01 9.465046892168278020e-03 0.000000000000000000e+00 0.000000000000000000e+00 0.000000000000000000e+00 0.000000000000000000e+00 0.000000000000000000e+00 0.000000000000000000e+00 0.000000000000000000e+00 0.000000000000000000e+00
2.199999999999999734e+00 1.827303144172762531e-02 0.000000000000000000e+00 9.817269685582713512e-01 0.000000000000000000e+00 0.000000000000000000e+00 0.000000000000000000e+00 1.046411250108724988e-01 8.360196531148686439e-02 0.000000000000000000e+00 0.000000000000000000e+00 0.000000000000000000e+00 0.000000000000000000e+00 0.000000000000000000e+00 0.000000000000000000e+00 0.000000000000000000e+00 0.000000000000000000e+00
2.299999999999999822e+00 1.498954166890911766e-02 0.000000000000000000e+00 9.850104583310909101e-01 0.000000000000000000e+00 0.000000000000000000e+00 0.000000000000000000e+00 3.272895693349497231e-02 1.170196655507836081e-01 0.000000000000000000e+00 0.000000000000000000e+00 0.000000000000000000e+00 0.000000000000000000e+00 0.000000000000000000e+00 0.000000000000000000e+00 0.000000000000000000e+00 0.000000000000000000e+00
2.399999999999999911e+00 1.238366759519041529e-02 0.000000000000000000e+00 9.876163324048099490e-01 0.000000000000000000e+00 0.000000000000000000e+00 0.000000000000000000e+00 -3.937024127275977337e-02 1.033452316191809522e-01 0.000000000000000000e+00 0.000000000000000000e+00 0.000000000000000000e+00 0.000000000000000000e+00 0.000000000000000000e+00 0.000000000000000000e+00 0.000000000000000000e+00 0.000000000000000000e+00
2.500000000000000000e+00 1.030217760123054022e-02 0.000000000000000000e+00 9.896978223987697998e-01 0.000000000000000000e+00 0.000000000000000000e+00 0.000000000000000000e+00 -8.563820924897222464e-02 5.349852061442596229e-02 0.000000000000000000e+00 0.000000000000000000e+00 0.000000000000000000e+00 0.000000000000000000e+00 0.000000000000000000e+00 0.000000000000000000e+00 0.000000000000000000e+00 0.000000000000000000e+00
2.600000000000000089e+00 8.628783069227447672e-03 0.000000000000000000e+00 9.913712169307736799e-01 0.000000000000000000e+00 0.000000000000000000e+00 0.000000000000000000e+00 -9.201925756444920279e-02 -9.313840292592611911e-03 0.000000000000000000e+00 0.000000000000000000e+00 0.000000000000000000e+00 0.000000000000000000e+00 0.000000000000000000e+00 0.000000000000000000e+00 0.000000000000000000e+00 0.000000000000000000e+00
2.699999999999999734e+00 7.274912026919776870e-03 0.000000000000000000e+00 9.927250879730827871e-01 0.000000000000000000e+00 0.000000000000000000e+00 0.000000000000000000e+00 -6.099979136159273951e-02 -5.916915684019059818e-02 0.000000000000000000e+00 0.000000000000000000e+00 0.000000000000000000e+00 0.000000000000000000e+00 0.000000000000000000e+00 0.000000000000000000e+00 0.000000000000000000e+00 0.000000000000000000e+00
2.799999999999999822e+00 6.172731898357269528e-03 0.000000000000000000e+00 9.938272681016432353e-01 0.000000000000000000e+00 0.000000000000000000e+00 0.000000000000000000e+00 -9.534398011078875149e-03 -7.774130671391912828e-02 0.000000000000000000e+00 0.000000000000000000e+00 0.000000000000000000e+00 0.000000000000000000e+00 0.000000000000000000e+00 0.000000000000000000e+00 0.000000000000000000e+00 0.000000000000000000e+00
2.899999999999999911e+00 5.269922754674976825e-03 0.000000000000000000e+00 9.947300772453246953e-01 0.000000000000000000e+00 0.000000000000000000e+00 0.000000000000000000e+00 3.877750880520168530e-02 -6.114286919190045633e-02 0.000000000000000000e+00 0.000000000000000000e+00 0.000000000000000000e+00 0.000000000000000000e+00 0.000000000000000000e+00 0.000000000000000000e+00 0.000000000000000000e+00 0.000000000000000000e+00
3.000000000000000000e+00 4.525816704560404156e-03 0.000000000000000000e+00 9.954741832954389080e-01 0.000000000000000000e+00 0.000000000000000000e+00 0.000000000000000000e+00 6.391492386365173195e-02 -2.049925193148130487e-02 0.000000000000000000e+00 0.000000000000000000e+00 0.000000000000000000e+00 0.000000000000000000e+00 0.000000000000000000e+00 0.000000000000000000e+00 0.000000000000000000e+00 0.000000000000000000e+00
