1.000000000000000056e-01 9.999999999999970024e-01 0.000000000000000000e+00 5.347042881211859196e-19 0.000000000000000000e+00 0.000000000000000000e+00 0.000000000000000000e+00 8.920554195590842984e-12 6.137514930963799533e-12 0.000000000000000000e+00 0.000000000000000000e+00 0.000000000000000000e+00 0.000000000000000000e+00 0.000000000000000000e+00 0.000000000000000000e+00 0.000000000000000000e+00 0.000000000000000000e+00
2.000000000000000111e-01 1.000000000000001554e+00 0.000000000000000000e+00 2.144202336932307453e-18 0.000000000000000000e+00 0.000000000000000000e+00 0.000000000000000000e+00 1.975612795760646269e-11 -6.012048656467827439e-14 0.000000000000000000e+00 0.000000000000000000e+00 0.000000000000000000e+00 0.000000000000000000e+00 0.000000000000000000e+00 0.000000000000000000e+00 0.000000000000000000e+00 0.000000000000000000e+00
2.999999999999999889e-01 9.999999999999990008e-01 0.000000000000000000e+00 4.819560625362542748e-18 0.000000000000000000e+00 0.000000000000000000e+00 0.000000000000000000e+00 2.847863395861030359e-11 7.350622077573654963e-12 0.000000000000000000e+00 0.000000000000000000e+00 0.000000000000000000e+00 0.000000000000000000e+00 0.000000000000000000e+00 0.000000000000000000e+00 0.000000000000000000e+00 0.000000000000000000e+00
4.000000000000000222e-01 9.999999999999992228e-01 0.000000000000000000e+00 8.583027485547010641e-18 0.000000000000000000e+00 0.000000000000000000e+00 0.000000000000000000e+00 3.742574079547703829e-11 1.375000308050363362e-11 0.000000000000000000e+00 0.000000000000000000e+00 0.000000000000000000e+00 0.000000000000000000e+00 0.000000000000000000e+00 0.000000000000000000e+00 0.000000000000000000e+00 0.000000000000000000e+00
5.000000000000000000e-01 9.999999999999996669e-01 0.000000000000000000e+00 1.343979201603090389e-17 0.000000000000000000e+00 0.000000000000000000e+00 0.000000000000000000e+00 4.731555718403538064e-11 1.358034100394118568e-11 0.000000000000000000e+00 0.000000000000000000e+00 0.000000000000000000e+00 0.000000000000000000e+00 0.000000000000000000e+00 0.000000000000000000e+00 0.000000000000000000e+00 0.000000000000000000e+00
5.999999999999999778e-01 1.000000000000001776e+00 0.000000000000000000e+00 1.923506606516679930e-17 0.000000000000000000e+00 0.000000000000000000e+00 0.000000000000000000e+00 5.753806429827421019e-11 1.218352797552777226e-11 0.000000000000000000e+00 0.000000000000000000e+00 0.000000000000000000e+00 0.000000000000000000e+00 0.000000000000000000e+00 0.000000000000000000e+00 0.000000000000000000e+00 0.000000000000000000e+00
6.999999999999999556e-01 9.999999999999988898e-01 0.000000000000000000e+00 2.618001777950177039e-17 0.000000000000000000e+00 0.000000000000000000e+00 0.000000000000000000e+00 6.541486470083725269e-11 2.372799702576056164e-11 0.000000000000000000e+00 0.000000000000000000e+00 0.000000000000000000e+00 0.000000000000000000e+00 0.000000000000000000e+00 0.000000000000000000e+00 0.000000000000000000e+00 0.000000000000000000e+00
7.999999999999999334e-01 1.000000000000000000e+00 0.000000000000000000e+00 3.424509078407725110e-17 0.000000000000000000e+00 0.000000000000000000e+00 0.000000000000000000e+00 7.509953405941657108e-11 2.575745851789684089e-11 0.000000000000000000e+00 0.000000000000000000e+00 0.000000000000000000e+00 0.000000000000000000e+00 0.000000000000000000e+00 0.000000000000000000e+00 0.000000000000000000e+00 0.000000000000000000e+00
8.999999999999999112e-01 9.999999999999993339e-01 0.000000000000000000e+00 4.336258929330962556e-17 0.000000000000000000e+00 0.000000000000000000e+00 0.000000000000000000e+00 8.558694910229825512e-11 2.170733072746181044e-11 0.000000000000000000e+00 0.000000000000000000e+00 0.000000000000000000e+00 0.000000000000000000e+00 0.000000000000000000e+00 0.000000000000000000e+00 0.000000000000000000e+00 0.000000000000000000e+00
9.999999999999998890e-01 9.999999999999996669e-01 0.000000000000000000e+00 5.349528569754049205e-17 0.000000000000000000e+00 0.000000000000000000e+00 0.000000000000000000e+00 9.517852076394800538e-11 2.310940440114486015e-11 0.000000000000000000e+00 0.000000000000000000e+00 0.000000000000000000e+00 0.000000000000000000e+00 0.000000000000000000e+00 0.000000000000000000e+00 0.000000000000000000e+00 0.000000000000000000e+00
1.099999999999999867e+00 1.000000000000000000e+00 0.000000000000000000e+00 6.477776008980011524e-17 0.000000000000000000e+00 0.000000000000000000e+00 0.000000000000000000e+00 1.038399734128933718e-10 3.060000450316687616e-11 0.000000000000000000e+00 0.000000000000000000e+00 0.000000000000000000e+00 0.000000000000000000e+00 0.000000000000000000e+00 0.000000000000000000e+00 0.000000000000000000e+00 0.000000000000000000e+00
1.199999999999999956e+00 9.999999999999978906e-01 0.000000000000000000e+00 7.675672354939179627e-17 0.000000000000000000e+00 0.000000000000000000e+00 0.000000000000000000e+00 1.120673232911398195e-10 3.831337250951030854e-11 0.000000000000000000e+00 0.000000000000000000e+00 0.000000000000000000e+00 0.000000000000000000e+00 0.000000000000000000e+00 0.000000000000000000e+00 0.000000000000000000e+00 0.000000000000000000e+00
1.300000000000000044e+00 9.999999999999983347e-01 0.000000000000000000e+00 9.038226532215537423e-17 0.000000000000000000e+00 0.000000000000000000e+00 0.000000000000000000e+00 1.206774528335354725e-10 4.200483402771794581e-11 0.000000000000000000e+00 0.000000000000000000e+00 0.000000000000000000e+00 0.000000000000000000e+00 0.000000000000000000e+00 0.000000000000000000e+00 0.000000000000000000e+00 0.000000000000000000e+00
1.399999999999999911e+00 9.999999999999974465e-01 0.000000000000000000e+00 1.051860532121830436e-16 0.000000000000000000e+00 0.000000000000000000e+00 0.000000000000000000e+00 1.307450681109337966e-10 4.225648554084362122e-11 0.000000000000000000e+00 0.000000000000000000e+00 0.000000000000000000e+00 0.000000000000000000e+00 0.000000000000000000e+00 0.000000000000000000e+00 0.000000000000000000e+00 0.000000000000000000e+00
1.500000000000000000e+00 1.000000000000000222e+00 0.000000000000000000e+00 1.206450624210730363e-16 0.000000000000000000e+00 0.000000000000000000e+00 0.000000000000000000e+00 1.407168448340083361e-10 4.130442692002775693e-11 0.000000000000000000e+00 0.000000000000000000e+00 0.000000000000000000e+00 0.000000000000000000e+00 0.000000000000000000e+00 0.000000000000000000e+00 0.000000000000000000e+00 0.000000000000000000e+00
1.599999999999999867e+00 9.999999999999997780e-01 0.000000000000000000e+00 1.367634186964323790e-16 0.000000000000000000e+00 0.000000000000000000e+00 0.000000000000000000e+00 1.501668228357963166e-10 4.129479338197852127e-11 0.000000000000000000e+00 0.000000000000000000e+00 0.000000000000000000e+00 0.000000000000000000e+00 0.000000000000000000e+00 0.000000000000000000e+00 0.000000000000000000e+00 0.000000000000000000e+00
1.699999999999999956e+00 9.999999999999981126e-01 0.000000000000000000e+00 1.544060790592040597e-16 0.000000000000000000e+00 0.000000000000000000e+00 0.000000000000000000e+00 1.593649823397632731e-10 4.440302342550886422e-11 0.000000000000000000e+00 0.000000000000000000e+00 0.000000000000000000e+00 0.000000000000000000e+00 0.000000000000000000e+00 0.000000000000000000e+00 0.000000000000000000e+00 0.000000000000000000e+00
1.800000000000000044e+00 9.999999999999992228e-01 0.000000000000000000e+00 1.735331041085183388e-16 0.000000000000000000e+00 0.000000000000000000e+00 0.000000000000000000e+00 1.679432002915866488e-10 4.979984546051052996e-11 0.000000000000000000e+00 0.000000000000000000e+00 0.000000000000000000e+00 0.000000000000000000e+00 0.000000000000000000e+00 0.000000000000000000e+00 0.000000000000000000e+00 0.000000000000000000e+00
1.899999999999999911e+00 1.000000000000000000e+00 0.000000000000000000e+00 1.933461335405716608e-16 0.000000000000000000e+00 0.000000000000000000e+00 0.000000000000000000e+00 1.760313197193153857e-10 5.638365927600537025e-11 0.000000000000000000e+00 0.000000000000000000e+00 0.000000000000000000e+00 0.000000000000000000e+00 0.000000000000000000e+00 0.000000000000000000e+00 0.000000000000000000e+00 0.000000000000000000e+00
2.000000000000000000e+00 1.000000000000000000e+00 0.000000000000000000e+00 2.143576525637922478e-16 0.000000000000000000e+00 0.000000000000000000e+00 0.000000000000000000e+00 1.840393766805140391e-10 6.301320945611157259e-11 0.000000000000000000e+00 0.000000000000000000e+00 0.000000000000000000e+00 0.000000000000000000e+00 0.000000000000000000e+00 0.000000000000000000e+00 0.000000000000000000e+00 0.000000000000000000e+00
2.099999999999999645e+00 1.000000000000000000e+00 0.000000000000000000e+00 2.360628275082558413e-16 0.000000000000000000e+00 0.000000000000000000e+00 0.000000000000000000e+00 1.922694231131248669e-10 6.875642497607734339e-11 0.000000000000000000e+00 0.000000000000000000e+00 0.000000000000000000e+00 0.000000000000000000e+00 0.000000000000000000e+00 0.000000000000000000e+00 0.000000000000000000e+00 0.000000000000000000e+00
2.199999999999999734e+00 1.000000000000000888e+00 0.000000000000000000e+00 2.587683603133429093e-16 0.000000000000000000e+00 0.000000000000000000e+00 0.000000000000000000e+00 2.007320730613181902e-10 7.255930859695646743e-11 0.000000000000000000e+00 0.000000000000000000e+00 0.000000000000000000e+00 0.000000000000000000e+00 0.000000000000000000e+00 0.000000000000000000e+00 0.000000000000000000e+00 0.000000000000000000e+00
2.299999999999999822e+00 9.999999999999997780e-01 0.000000000000000000e+00 2.836578225488285731e-16 0.000000000000000000e+00 0.000000000000000000e+00 0.000000000000000000e+00 2.096168838496242321e-10 7.498822517831533170e-11 0.000000000000000000e+00 0.000000000000000000e+00 0.000000000000000000e+00 0.000000000000000000e+00 0.000000000000000000e+00 0.000000000000000000e+00 0.000000000000000000e+00 0.000000000000000000e+00
2.399999999999999911e+00 9.999999999999991118e-01 0.000000000000000000e+00 3.074689599077839693e-16 0.000000000000000000e+00 0.000000000000000000e+00 0.000000000000000000e+00 2.182684314763619331e-10 7.696378311174883521e-11 0.000000000000000000e+00 0.000000000000000000e+00 0.000000000000000000e+00 0.000000000000000000e+00 0.000000000000000000e+00 0.000000000000000000e+00 0.000000000000000000e+00 0.000000000000000000e+00
2.500000000000000000e+00 9.999999999999975575e-01 0.000000000000000000e+00 3.349702860087936945e-16 0.000000000000000000e+00 0.000000000000000000e+00 0.000000000000000000e+00 2.276181991361297974e-10 7.814888504257572826e-11 0.000000000000000000e+00 0.000000000000000000e+00 0.000000000000000000e+00 0.000000000000000000e+00 0.000000000000000000e+00 0.000000000000000000e+00 0.000000000000000000e+00 0.000000000000000000e+00
2.600000000000000089e+00 1.000000000000000000e+00 0.000000000000000000e+00 3.611015414206585780e-16 0.000000000000000000e+00 0.000000000000000000e+00 0.000000000000000000e+00 2.362806240857990332e-10 7.962882302363947742e-11 0.000000000000000000e+00 0.000000000000000000e+00 0.000000000000000000e+00 0.000000000000000000e+00 0.000000000000000000e+00 0.000000000000000000e+00 0.000000000000000000e+00 0.000000000000000000e+00
2.699999999999999734e+00 1.000000000000002220e+00 0.000000000000000000e+00 3.904375155264522847e-16 0.000000000000000000e+00 0.000000000000000000e+00 0.000000000000000000e+00 2.446718831214053775e-10 8.247312504580622657e-11 0.000000000000000000e+00 0.000000000000000000e+00 0.000000000000000000e+00 0.000000000000000000e+00 0.000000000000000000e+00 0.000000000000000000e+00 0.000000000000000000e+00 0.000000000000000000e+00
2.799999999999999822e+00 9.999999999999967804e-01 0.000000000000000000e+00 4.179644588668110986e-16 0.000000000000000000e+00 0.000000000000000000e+00 0.000000000000000000e+00 2.526970298242508175e-10 8.539793481064544669e-11 0.000000000000000000e+00 0.000000000000000000e+00 0.000000000000000000e+00 0.000000000000000000e+00 0.000000000000000000e+00 0.000000000000000000e+00 0.000000000000000000e+00 0.000000000000000000e+00
2.899999999999999911e+00 1.000000000000000000e+00 0.000000000000000000e+00 4.499649950282148989e-16 0.000000000000000000e+00 0.000000000000000000e+00 0.000000000000000000e+00 2.604724974012200983e-10 8.965681186289651819e-11 0.000000000000000000e+00 0.000000000000000000e+00 0.000000000000000000e+00 0.000000000000000000e+00 0.000000000000000000e+00 0.000000000000000000e+00 0.000000000000000000e+00 0.000000000000000000e+00
3.000000000000000000e+00 9.999999999999998890e-01 0.000000000000000000e+00 4.795198218056216382e-16 0.000000000000000000e+00 0.000000000000000000e+00 0.000000000000000000e+00 2.684992076123439371e-10 9.508369212363347253e-11 0.000000000000000000e+00 0.000000000000000000e+00 0.000000000000000000e+00 0.000000000000000000e+00 0.000000000000000000e+00 0.000000000000000000e+00 0.000000000000000000e+00 0.000000000000000000e+00
