1.000000000000000056e-01 9.999999999999973355e-01 0.000000000000000000e+00 5.090006920926066333e-19 0.000000000000000000e+00 0.000000000000000000e+00 0.000000000000000000e+00 -1.561229851138809313e-11 -6.723985624224661768e-12 0.000000000000000000e+00 0.000000000000000000e+00 0.000000000000000000e+00 0.000000000000000000e+00 0.000000000000000000e+00 0.000000000000000000e+00 0.000000000000000000e+00 0.000000000000000000e+00
2.000000000000000111e-01 1.000000000000000000e+00 0.000000000000000000e+00 2.008922304397829722e-18 0.000000000000000000e+00 0.000000000000000000e+00 0.000000000000000000e+00 -2.799615962521153762e-11 -2.152805120946839561e-11 0.000000000000000000e+00 0.000000000000000000e+00 0.000000000000000000e+00 0.000000000000000000e+00 0.000000000000000000e+00 0.000000000000000000e+00 0.000000000000000000e+00 0.000000000000000000e+00
2.999999999999999889e-01 1.000000000000000000e+00 0.000000000000000000e+00 4.527260316753273759e-18 0.000000000000000000e+00 0.000000000000000000e+00 0.000000000000000000e+00 -3.487937548595741820e-11 -5.072722133300706952e-11 0.000000000000000000e+00 0.000000000000000000e+00 0.000000000000000000e+00 0.000000000000000000e+00 0.000000000000000000e+00 0.000000000000000000e+00 0.000000000000000000e+00 0.000000000000000000e+00
4.000000000000000222e-01 9.999999999999988898e-01 0.000000000000000000e+00 8.025362755017543388e-18 0.000000000000000000e+00 0.000000000000000000e+00 0.000000000000000000e+00 -5.078484645500929836e-11 -5.570232386670381497e-11 0.000000000000000000e+00 0.000000000000000000e+00 0.000000000000000000e+00 0.000000000000000000e+00 0.000000000000000000e+00 0.000000000000000000e+00 0.000000000000000000e+00 0.000000000000000000e+00
5.000000000000000000e-01 1.000000000000000000e+00 0.000000000000000000e+00 1.263918552425354074e-17 0.000000000000000000e+00 0.000000000000000000e+00 0.000000000000000000e+00 -6.532050170489269817e-11 -6.497260148104590801e-11 0.000000000000000000e+00 0.000000000000000000e+00 0.000000000000000000e+00 0.000000000000000000e+00 0.000000000000000000e+00 0.000000000000000000e+00 0.000000000000000000e+00 0.000000000000000000e+00
5.999999999999999778e-01 1.000000000000000888e+00 0.000000000000000000e+00 1.814843727486921171e-17 0.000000000000000000e+00 0.000000000000000000e+00 0.000000000000000000e+00 -7.413591741659977403e-11 -8.872874391349917609e-11 0.000000000000000000e+00 0.000000000000000000e+00 0.000000000000000000e+00 0.000000000000000000e+00 0.000000000000000000e+00 0.000000000000000000e+00 0.000000000000000000e+00 0.000000000000000000e+00
6.999999999999999556e-01 1.000000000000000000e+00 0.000000000000000000e+00 2.473461101510129694e-17 0.000000000000000000e+00 0.000000000000000000e+00 0.000000000000000000e+00 -8.411669668334457512e-11 -1.092243531941352549e-10 0.000000000000000000e+00 0.000000000000000000e+00 0.000000000000000000e+00 0.000000000000000000e+00 0.000000000000000000e+00 0.000000000000000000e+00 0.000000000000000000e+00 0.000000000000000000e+00
7.999999999999999334e-01 9.999999999999987788e-01 0.000000000000000000e+00 3.224007812994693985e-17 0.000000000000000000e+00 0.000000000000000000e+00 0.000000000000000000e+00 -9.714404869536594145e-11 -1.208254525663348636e-10 0.000000000000000000e+00 0.000000000000000000e+00 0.000000000000000000e+00 0.000000000000000000e+00 0.000000000000000000e+00 0.000000000000000000e+00 0.000000000000000000e+00 0.000000000000000000e+00
8.999999999999999112e-01 9.999999999999952260e-01 0.000000000000000000e+00 4.066575003372182333e-17 0.000000000000000000e+00 0.000000000000000000e+00 0.000000000000000000e+00 -1.119147712914898650e-10 -1.288149636483120797e-10 0.000000000000000000e+00 0.000000000000000000e+00 0.000000000000000000e+00 0.000000000000000000e+00 0.000000000000000000e+00 0.000000000000000000e+00 0.000000000000000000e+00 0.000000000000000000e+00
9.999999999999998890e-01 9.999999999999981126e-01 0.000000000000000000e+00 5.049463116065718216e-17 0.000000000000000000e+00 0.000000000000000000e+00 0.000000000000000000e+00 -1.260448033912895674e-10 -1.384068032230983527e-10 0.000000000000000000e+00 0.000000000000000000e+00 0.000000000000000000e+00 0.000000000000000000e+00 0.000000000000000000e+00 0.000000000000000000e+00 0.000000000000000000e+00 0.000000000000000000e+00
1.099999999999999867e+00 9.999999999999974465e-01 0.000000000000000000e+00 6.045119471042818848e-17 0.000000000000000000e+00 0.000000000000000000e+00 0.000000000000000000e+00 -1.382641300944282395e-10 -1.520816349153766835e-10 0.000000000000000000e+00 0.000000000000000000e+00 0.000000000000000000e+00 0.000000000000000000e+00 0.000000000000000000e+00 0.000000000000000000e+00 0.000000000000000000e+00 0.000000000000000000e+00
1.199999999999999956e+00 1.000000000000000000e+00 0.000000000000000000e+00 7.210236260851067395e-17 0.000000000000000000e+00 0.000000000000000000e+00 0.000000000000000000e+00 -1.488801781706384875e-10 -1.692943793010921068e-10 0.000000000000000000e+00 0.000000000000000000e+00 0.000000000000000000e+00 0.000000000000000000e+00 0.000000000000000000e+00 0.000000000000000000e+00 0.000000000000000000e+00 0.000000000000000000e+00
1.300000000000000044e+00 1.000000000000001554e+00 0.000000000000000000e+00 8.403054580990141039e-17 0.000000000000000000e+00 0.000000000000000000e+00 0.000000000000000000e+00 -1.585052132154644193e-10 -1.882549767298387471e-10 0.000000000000000000e+00 0.000000000000000000e+00 0.000000000000000000e+00 0.000000000000000000e+00 0.000000000000000000e+00 0.000000000000000000e+00 0.000000000000000000e+00 0.000000000000000000e+00
1.399999999999999911e+00 1.000000000000000000e+00 0.000000000000000000e+00 9.854331651948214701e-17 0.000000000000000000e+00 0.000000000000000000e+00 0.000000000000000000e+00 -1.678440986943456806e-10 -2.077864490913671902e-10 0.000000000000000000e+00 0.000000000000000000e+00 0.000000000000000000e+00 0.000000000000000000e+00 0.000000000000000000e+00 0.000000000000000000e+00 0.000000000000000000e+00 0.000000000000000000e+00
1.500000000000000000e+00 9.999999999999977796e-01 0.000000000000000000e+00 1.115867168962959700e-16 0.000000000000000000e+00 0.000000000000000000e+00 0.000000000000000000e+00 -1.778423729121149774e-10 -2.258439420367833581e-10 0.000000000000000000e+00 0.000000000000000000e+00 0.000000000000000000e+00 0.000000000000000000e+00 0.000000000000000000e+00 0.000000000000000000e+00 0.000000000000000000e+00 0.000000000000000000e+00
1.599999999999999867e+00 9.999999999999970024e-01 0.000000000000000000e+00 1.283063968532535121e-16 0.000000000000000000e+00 0.000000000000000000e+00 0.000000000000000000e+00 -1.878884896469263865e-10 -2.423428855887189094e-10 0.000000000000000000e+00 0.000000000000000000e+00 0.000000000000000000e+00 0.000000000000000000e+00 0.000000000000000000e+00 0.000000000000000000e+00 0.000000000000000000e+00 0.000000000000000000e+00
1.699999999999999956e+00 9.999999999999976685e-01 0.000000000000000000e+00 1.452981494577497116e-16 0.000000000000000000e+00 0.000000000000000000e+00 0.000000000000000000e+00 -1.985031397199512209e-10 -2.570428757892989044e-10 0.000000000000000000e+00 0.000000000000000000e+00 0.000000000000000000e+00 0.000000000000000000e+00 0.000000000000000000e+00 0.000000000000000000e+00 0.000000000000000000e+00 0.000000000000000000e+00
1.800000000000000044e+00 9.999999999999991118e-01 0.000000000000000000e+00 1.607761187354611013e-16 0.000000000000000000e+00 0.000000000000000000e+00 0.000000000000000000e+00 -2.096456715001970048e-10 -2.702623301259911296e-10 0.000000000000000000e+00 0.000000000000000000e+00 0.000000000000000000e+00 0.000000000000000000e+00 0.000000000000000000e+00 0.000000000000000000e+00 0.000000000000000000e+00 0.000000000000000000e+00
1.899999999999999911e+00 9.999999999999988898e-01 0.000000000000000000e+00 1.822895790673256858e-16 0.000000000000000000e+00 0.000000000000000000e+00 0.000000000000000000e+00 -2.209747826874221876e-10 -2.829859585911372088e-10 0.000000000000000000e+00 0.000000000000000000e+00 0.000000000000000000e+00 0.000000000000000000e+00 0.000000000000000000e+00 0.000000000000000000e+00 0.000000000000000000e+00 0.000000000000000000e+00
2.000000000000000000e+00 9.999999999999985567e-01 0.000000000000000000e+00 2.005278348197130846e-16 0.000000000000000000e+00 0.000000000000000000e+00 0.000000000000000000e+00 -2.321911994581939034e-10 -2.954294905190404644e-10 0.000000000000000000e+00 0.000000000000000000e+00 0.000000000000000000e+00 0.000000000000000000e+00 0.000000000000000000e+00 0.000000000000000000e+00 0.000000000000000000e+00 0.000000000000000000e+00
2.099999999999999645e+00 9.999999999999997780e-01 0.000000000000000000e+00 2.216130611022851121e-16 0.000000000000000000e+00 0.000000000000000000e+00 0.000000000000000000e+00 -2.429763877239048762e-10 -3.079487537941836066e-10 0.000000000000000000e+00 0.000000000000000000e+00 0.000000000000000000e+00 0.000000000000000000e+00 0.000000000000000000e+00 0.000000000000000000e+00 0.000000000000000000e+00 0.000000000000000000e+00
2.199999999999999734e+00 1.000000000000001554e+00 0.000000000000000000e+00 2.450432788005176518e-16 0.000000000000000000e+00 0.000000000000000000e+00 0.000000000000000000e+00 -2.533117447756813823e-10 -3.210910209970818241e-10 0.000000000000000000e+00 0.000000000000000000e+00 0.000000000000000000e+00 0.000000000000000000e+00 0.000000000000000000e+00 0.000000000000000000e+00 0.000000000000000000e+00 0.000000000000000000e+00
2.299999999999999822e+00 9.999999999999981126e-01 0.000000000000000000e+00 2.648275610932047752e-16 0.000000000000000000e+00 0.000000000000000000e+00 0.000000000000000000e+00 -2.628931505936481181e-10 -3.351027818846082286e-10 0.000000000000000000e+00 0.000000000000000000e+00 0.000000000000000000e+00 0.000000000000000000e+00 0.000000000000000000e+00 0.000000000000000000e+00 0.000000000000000000e+00 0.000000000000000000e+00
2.399999999999999911e+00 1.000000000000000000e+00 0.000000000000000000e+00 2.899779204853720736e-16 0.000000000000000000e+00 0.000000000000000000e+00 0.000000000000000000e+00 -2.719801144315160099e-10 -3.500020669841737253e-10 0.000000000000000000e+00 0.000000000000000000e+00 0.000000000000000000e+00 0.000000000000000000e+00 0.000000000000000000e+00 0.000000000000000000e+00 0.000000000000000000e+00 0.000000000000000000e+00
2.500000000000000000e+00 1.000000000000000000e+00 0.000000000000000000e+00 3.142496617085442257e-16 0.000000000000000000e+00 0.000000000000000000e+00 0.000000000000000000e+00 -2.800255771663742882e-10 -3.655330977175495073e-10 0.000000000000000000e+00 0.000000000000000000e+00 0.000000000000000000e+00 0.000000000000000000e+00 0.000000000000000000e+00 0.000000000000000000e+00 0.000000000000000000e+00 0.000000000000000000e+00
2.600000000000000089e+00 9.999999999999977796e-01 0.000000000000000000e+00 3.357101695557729050e-16 0.000000000000000000e+00 0.000000000000000000e+00 0.000000000000000000e+00 -2.878576377099063327e-10 -3.820802858231410924e-10 0.000000000000000000e+00 0.000000000000000000e+00 0.000000000000000000e+00 0.000000000000000000e+00 0.000000000000000000e+00 0.000000000000000000e+00 0.000000000000000000e+00 0.000000000000000000e+00
2.699999999999999734e+00 1.000000000000000000e+00 0.000000000000000000e+00 3.649474970767814007e-16 0.000000000000000000e+00 0.000000000000000000e+00 0.000000000000000000e+00 -2.947422071224098536e-10 -3.990812578124389375e-10 0.000000000000000000e+00 0.000000000000000000e+00 0.000000000000000000e+00 0.000000000000000000e+00 0.000000000000000000e+00 0.000000000000000000e+00 0.000000000000000000e+00 0.000000000000000000e+00
2.799999999999999822e+00 9.999999999999994449e-01 0.000000000000000000e+00 3.970597661133122267e-16 0.000000000000000000e+00 0.000000000000000000e+00 0.000000000000000000e+00 -3.007981451032762328e-10 -4.165710380544216929e-10 0.000000000000000000e+00 0.000000000000000000e+00 0.000000000000000000e+00 0.000000000000000000e+00 0.000000000000000000e+00 0.000000000000000000e+00 0.000000000000000000e+00 0.000000000000000000e+00
2.899999999999999911e+00 1.000000000000001776e+00 0.000000000000000000e+00 4.194269054499401873e-16 0.000000000000000000e+00 0.000000000000000000e+00 0.000000000000000000e+00 -3.067602280615091874e-10 -4.343215229725260097e-10 0.000000000000000000e+00 0.000000000000000000e+00 0.000000000000000000e+00 0.000000000000000000e+00 0.000000000000000000e+00 0.000000000000000000e+00 0.000000000000000000e+00 0.000000000000000000e+00
3.000000000000000000e+00 1.000000000000000000e+00 0.000000000000000000e+00 4.505987002656581816e-16 0.000000000000000000e+00 0.000000000000000000e+00 0.000000000000000000e+00 -3.117236595190787462e-10 -4.521023073149102331e-10 0.000000000000000000e+00 0.000000000000000000e+00 0.000000000000000000e+00 0.000000000000000000e+00 0.000000000000000000e+00 0.000000000000000000e+00 0.000000000000000000e+00 0.000000000000000000e+00
