1.000000000000000056e-01 1.000000000000000000e+00 0.000000000000000000e+00 4.688481148542724701e-19 0.000000000000000000e+00 0.000000000000000000e+00 0.000000000000000000e+00 2.616394133813000230e-11 1.335372931314655140e-11 0.000000000000000000e+00 0.000000000000000000e+00 0.000000000000000000e+00 0.000000000000000000e+00 0.000000000000000000e+00 0.000000000000000000e+00 0.000000000000000000e+00 0.000000000000000000e+00
2.000000000000000111e-01 1.000000000000001554e+00 0.000000000000000000e+00 1.899514741548677269e-18 0.000000000000000000e+00 0.000000000000000000e+00 0.000000000000000000e+00 5.010677802213744370e-11 4.025514544192537869e-13 0.000000000000000000e+00 0.000000000000000000e+00 0.000000000000000000e+00 0.000000000000000000e+00 0.000000000000000000e+00 0.000000000000000000e+00 0.000000000000000000e+00 0.000000000000000000e+00
2.999999999999999889e-01 1.000000000000003109e+00 0.000000000000000000e+00 4.219160741608440652e-18 0.000000000000000000e+00 0.000000000000000000e+00 0.000000000000000000e+00 7.723799254570650853e-11 1.892615197283675025e-11 0.000000000000000000e+00 0.000000000000000000e+00 0.000000000000000000e+00 0.000000000000000000e+00 0.000000000000000000e+00 0.000000000000000000e+00 0.000000000000000000e+00 0.000000000000000000e+00
4.000000000000000222e-01 9.999999999999993339e-01 0.000000000000000000e+00 7.512296558857564505e-18 0.000000000000000000e+00 0.000000000000000000e+00 0.000000000000000000e+00 1.009699364566223516e-10 5.816947880798670746e-12 0.000000000000000000e+00 0.000000000000000000e+00 0.000000000000000000e+00 0.000000000000000000e+00 0.000000000000000000e+00 0.000000000000000000e+00 0.000000000000000000e+00 0.000000000000000000e+00
5.000000000000000000e-01 1.000000000000001776e+00 0.000000000000000000e+00 1.190213551556937446e-17 0.000000000000000000e+00 0.000000000000000000e+00 0.000000000000000000e+00 1.261049420131191419e-10 5.863766005164291197e-12 0.000000000000000000e+00 0.000000000000000000e+00 0.000000000000000000e+00 0.000000000000000000e+00 0.000000000000000000e+00 0.000000000000000000e+00 0.000000000000000000e+00 0.000000000000000000e+00
5.999999999999999778e-01 9.999999999999996669e-01 0.000000000000000000e+00 1.678622059705576130e-17 0.000000000000000000e+00 0.000000000000000000e+00 0.000000000000000000e+00 1.525082095049783758e-10 1.874684901458177255e-11 0.000000000000000000e+00 0.000000000000000000e+00 0.000000000000000000e+00 0.000000000000000000e+00 0.000000000000000000e+00 0.000000000000000000e+00 0.000000000000000000e+00 0.000000000000000000e+00
6.999999999999999556e-01 9.999999999999998890e-01 0.000000000000000000e+00 2.342638199882750919e-17 0.000000000000000000e+00 0.000000000000000000e+00 0.000000000000000000e+00 1.792187473089506241e-10 3.138467444954836700e-11 0.000000000000000000e+00 0.000000000000000000e+00 0.000000000000000000e+00 0.000000000000000000e+00 0.000000000000000000e+00 0.000000000000000000e+00 0.000000000000000000e+00 0.000000000000000000e+00
7.999999999999999334e-01 9.999999999999991118e-01 0.000000000000000000e+00 3.009503054268879212e-17 0.000000000000000000e+00 0.000000000000000000e+00 0.000000000000000000e+00 2.051626688643025732e-10 3.687002028832157312e-11 0.000000000000000000e+00 0.000000000000000000e+00 0.000000000000000000e+00 0.000000000000000000e+00 0.000000000000000000e+00 0.000000000000000000e+00 0.000000000000000000e+00 0.000000000000000000e+00
8.999999999999999112e-01 9.999999999999994449e-01 0.000000000000000000e+00 3.850425265830543425e-17 0.000000000000000000e+00 0.000000000000000000e+00 0.000000000000000000e+00 2.305629547049038686e-10 3.675642323147322795e-11 0.000000000000000000e+00 0.000000000000000000e+00 0.000000000000000000e+00 0.000000000000000000e+00 0.000000000000000000e+00 0.000000000000000000e+00 0.000000000000000000e+00 0.000000000000000000e+00
9.999999999999998890e-01 9.999999999999988898e-01 0.000000000000000000e+00 4.707099939220048828e-17 0.000000000000000000e+00 0.000000000000000000e+00 0.000000000000000000e+00 2.567989514689521636e-10 3.464240886951537063e-11 0.000000000000000000e+00 0.000000000000000000e+00 0.000000000000000000e+00 0.000000000000000000e+00 0.000000000000000000e+00 0.000000000000000000e+00 0.000000000000000000e+00 0.000000000000000000e+00
1.099999999999999867e+00 9.999999999999991118e-01 0.000000000000000000e+00 5.682819132011073647e-17 0.000000000000000000e+00 0.000000000000000000e+00 0.000000000000000000e+00 2.824854515544551477e-10 3.330375115113913715e-11 0.000000000000000000e+00 0.000000000000000000e+00 0.000000000000000000e+00 0.000000000000000000e+00 0.000000000000000000e+00 0.000000000000000000e+00 0.000000000000000000e+00 0.000000000000000000e+00
1.199999999999999956e+00 1.000000000000002665e+00 0.000000000000000000e+00 6.825007013831671349e-17 0.000000000000000000e+00 0.000000000000000000e+00 0.000000000000000000e+00 3.090790642405062364e-10 3.457367155756944388e-11 0.000000000000000000e+00 0.000000000000000000e+00 0.000000000000000000e+00 0.000000000000000000e+00 0.000000000000000000e+00 0.000000000000000000e+00 0.000000000000000000e+00 0.000000000000000000e+00
1.300000000000000044e+00 1.000000000000000000e+00 0.000000000000000000e+00 8.005068048536704917e-17 0.000000000000000000e+00 0.000000000000000000e+00 0.000000000000000000e+00 3.353986198257790688e-10 3.821247513765627330e-11 0.000000000000000000e+00 0.000000000000000000e+00 0.000000000000000000e+00 0.000000000000000000e+00 0.000000000000000000e+00 0.000000000000000000e+00 0.000000000000000000e+00 0.000000000000000000e+00
1.399999999999999911e+00 9.999999999999974465e-01 0.000000000000000000e+00 9.325208407254452265e-17 0.000000000000000000e+00 0.000000000000000000e+00 0.000000000000000000e+00 3.629641145230411287e-10 4.539114992230476290e-11 0.000000000000000000e+00 0.000000000000000000e+00 0.000000000000000000e+00 0.000000000000000000e+00 0.000000000000000000e+00 0.000000000000000000e+00 0.000000000000000000e+00 0.000000000000000000e+00
1.500000000000000000e+00 9.999999999999995559e-01 0.000000000000000000e+00 1.053288590017404648e-16 0.000000000000000000e+00 0.000000000000000000e+00 0.000000000000000000e+00 3.905542656063450875e-10 5.407597927608360858e-11 0.000000000000000000e+00 0.000000000000000000e+00 0.000000000000000000e+00 0.000000000000000000e+00 0.000000000000000000e+00 0.000000000000000000e+00 0.000000000000000000e+00 0.000000000000000000e+00
1.599999999999999867e+00 1.000000000000000000e+00 0.000000000000000000e+00 1.201360575796899749e-16 0.000000000000000000e+00 0.000000000000000000e+00 0.000000000000000000e+00 4.181503249187738093e-10 6.396589710287446539e-11 0.000000000000000000e+00 0.000000000000000000e+00 0.000000000000000000e+00 0.000000000000000000e+00 0.000000000000000000e+00 0.000000000000000000e+00 0.000000000000000000e+00 0.000000000000000000e+00
1.699999999999999956e+00 9.999999999999998890e-01 0.000000000000000000e+00 1.366377495639517097e-16 0.000000000000000000e+00 0.000000000000000000e+00 0.000000000000000000e+00 4.462854574870858971e-10 7.499863785281729959e-11 0.000000000000000000e+00 0.000000000000000000e+00 0.000000000000000000e+00 0.000000000000000000e+00 0.000000000000000000e+00 0.000000000000000000e+00 0.000000000000000000e+00 0.000000000000000000e+00
1.800000000000000044e+00 1.000000000000000000e+00 0.000000000000000000e+00 1.524761702896157259e-16 0.000000000000000000e+00 0.000000000000000000e+00 0.000000000000000000e+00 4.747697650188840091e-10 8.617234264719011093e-11 0.000000000000000000e+00 0.000000000000000000e+00 0.000000000000000000e+00 0.000000000000000000e+00 0.000000000000000000e+00 0.000000000000000000e+00 0.000000000000000000e+00 0.000000000000000000e+00
1.899999999999999911e+00 9.999999999999993339e-01 0.000000000000000000e+00 1.685149646472495501e-16 0.000000000000000000e+00 0.000000000000000000e+00 0.000000000000000000e+00 5.032091865428707731e-10 9.708956063664962895e-11 0.000000000000000000e+00 0.000000000000000000e+00 0.000000000000000000e+00 0.000000000000000000e+00 0.000000000000000000e+00 0.000000000000000000e+00 0.000000000000000000e+00 0.000000000000000000e+00
2.000000000000000000e+00 9.999999999999998890e-01 0.000000000000000000e+00 1.859481733943853030e-16 0.000000000000000000e+00 0.000000000000000000e+00 0.000000000000000000e+00 5.316867676256103484e-10 1.078297774648196418e-10 0.000000000000000000e+00 0.000000000000000000e+00 0.000000000000000000e+00 0.000000000000000000e+00 0.000000000000000000e+00 0.000000000000000000e+00 0.000000000000000000e+00 0.000000000000000000e+00
2.099999999999999645e+00 9.999999999999997780e-01 0.000000000000000000e+00 2.050540317777592736e-16 0.000000000000000000e+00 0.000000000000000000e+00 0.000000000000000000e+00 5.609099914395777165e-10 1.182620004148080502e-10 0.000000000000000000e+00 0.000000000000000000e+00 0.000000000000000000e+00 0.000000000000000000e+00 0.000000000000000000e+00 0.000000000000000000e+00 0.000000000000000000e+00 0.000000000000000000e+00
2.199999999999999734e+00 9.999999999999982236e-01 0.000000000000000000e+00 2.271773896812168730e-16 0.000000000000000000e+00 0.000000000000000000e+00 0.000000000000000000e+00 5.902336991267071480e-10 1.285939048071061769e-10 0.000000000000000000e+00 0.000000000000000000e+00 0.000000000000000000e+00 0.000000000000000000e+00 0.000000000000000000e+00 0.000000000000000000e+00 0.000000000000000000e+00 0.000000000000000000e+00
2.299999999999999822e+00 9.999999999999950040e-01 0.000000000000000000e+00 2.469898827121652425e-16 0.000000000000000000e+00 0.000000000000000000e+00 0.000000000000000000e+00 6.198319560809959601e-10 1.385408278958792159e-10 0.000000000000000000e+00 0.000000000000000000e+00 0.000000000000000000e+00 0.000000000000000000e+00 0.000000000000000000e+00 0.000000000000000000e+00 0.000000000000000000e+00 0.000000000000000000e+00
2.399999999999999911e+00 9.999999999999993339e-01 0.000000000000000000e+00 2.712932255852159475e-16 0.000000000000000000e+00 0.000000000000000000e+00 0.000000000000000000e+00 6.499766951154333898e-10 1.491043282983445548e-10 0.000000000000000000e+00 0.000000000000000000e+00 0.000000000000000000e+00 0.000000000000000000e+00 0.000000000000000000e+00 0.000000000000000000e+00 0.000000000000000000e+00 0.000000000000000000e+00
2.500000000000000000e+00 9.999999999999984457e-01 0.000000000000000000e+00 2.916997224600089799e-16 0.000000000000000000e+00 0.000000000000000000e+00 0.000000000000000000e+00 6.801909269108720946e-10 1.594087426855371056e-10 0.000000000000000000e+00 0.000000000000000000e+00 0.000000000000000000e+00 0.000000000000000000e+00 0.000000000000000000e+00 0.000000000000000000e+00 0.000000000000000000e+00 0.000000000000000000e+00
2.600000000000000089e+00 1.000000000000000444e+00 0.000000000000000000e+00 3.242935228154614299e-16 0.000000000000000000e+00 0.000000000000000000e+00 0.000000000000000000e+00 7.106867277257006809e-10 1.702204107688516086e-10 0.000000000000000000e+00 0.000000000000000000e+00 0.000000000000000000e+00 0.000000000000000000e+00 0.000000000000000000e+00 0.000000000000000000e+00 0.000000000000000000e+00 0.000000000000000000e+00
2.699999999999999734e+00 9.999999999999992228e-01 0.000000000000000000e+00 3.446296814424802852e-16 0.000000000000000000e+00 0.000000000000000000e+00 0.000000000000000000e+00 7.418642915194564868e-10 1.822274774678007102e-10 0.000000000000000000e+00 0.000000000000000000e+00 0.000000000000000000e+00 0.000000000000000000e+00 0.000000000000000000e+00 0.000000000000000000e+00 0.000000000000000000e+00 0.000000000000000000e+00
2.799999999999999822e+00 1.000000000000000000e+00 0.000000000000000000e+00 3.590712033757213101e-16 0.000000000000000000e+00 0.000000000000000000e+00 0.000000000000000000e+00 7.732182759708907451e-10 1.949666113652842655e-10 0.000000000000000000e+00 0.000000000000000000e+00 0.000000000000000000e+00 0.000000000000000000e+00 0.000000000000000000e+00 0.000000000000000000e+00 0.000000000000000000e+00 0.000000000000000000e+00
2.899999999999999911e+00 1.000000000000000000e+00 0.000000000000000000e+00 3.884115181941766005e-16 0.000000000000000000e+00 0.000000000000000000e+00 0.000000000000000000e+00 8.046224553427375674e-10 2.088022082059845941e-10 0.000000000000000000e+00 0.000000000000000000e+00 0.000000000000000000e+00 0.000000000000000000e+00 0.000000000000000000e+00 0.000000000000000000e+00 0.000000000000000000e+00 0.000000000000000000e+00
3.000000000000000000e+00 1.000000000000000222e+00 0.000000000000000000e+00 4.147464653748606181e-16 0.000000000000000000e+00 0.000000000000000000e+00 0.000000000000000000e+00 8.368895436658551053e-10 2.235689481662513835e-10 0.000000000000000000e+00 0.000000000000000000e+00 0.000000000000000000e+00 0.000000000000000000e+00 0.000000000000000000e+00 0.000000000000000000e+00 0.000000000000000000e+00 0.000000000000000000e+00
