1.000000000000000056e-01 -1.154525385514874464e-01 -2.909198468343706656e-01 -9.497054892327745357e-01
2.000000000000000111e-01 -1.974657627491125944e-01 -5.539743953885740702e-01 -8.071126219978618233e-01
2.999999999999999889e-01 -2.222764346563313453e-01 -7.651764718107865182e-01 -5.943843189048014786e-01
4.000000000000000222e-01 -1.817451005275316778e-01 -9.070518124660988946e-01 -3.409099162444397257e-01
5.000000000000000000e-01 -8.409376813002078510e-02 -9.697792262570652522e-01 -7.603209801913604626e-02
5.999999999999999778e-01 4.947617179766383710e-02 -9.516133234558400433e-01 1.761092182770588321e-01
6.999999999999999556e-01 1.905044352725059342e-01 -8.593862574198721793e-01 3.988575774539984686e-01
7.999999999999999334e-01 3.099436493376723778e-01 -7.089180149180511759e-01 5.830614629476165156e-01
8.999999999999999112e-01 3.849088288678069736e-01 -5.241360557023488909e-01 7.260527314216765893e-01
9.999999999999998890e-01 4.042105534044720394e-01 -3.336773360472103933e-01 8.301467843490196730e-01
1.099999999999999867e+00 3.707929868457221501e-01 -1.649930345233696638e-01 9.010095072741676203e-01
1.199999999999999956e+00 2.997796424188465814e-01 -3.776894680479936373e-02 9.459726425483721002e-01
1.300000000000000044e+00 2.125355990015522778e-01 4.031210843035534785e-02 9.724834657854392050e-01
1.399999999999999911e+00 1.293919477673146079e-01 7.361675271209408566e-02 9.869660909816212468e-01
1.500000000000000000e+00 6.401013957375394081e-02 7.464949600632528326e-02 9.942792356720067115e-01
1.599999999999999867e+00 2.138633886038574655e-02 5.841580566787921841e-02 9.976828473985287493e-01
1.699999999999999956e+00 -7.007710152336765058e-04 3.754812197346935748e-02 9.991381912411314570e-01
1.800000000000000044e+00 -8.367896442825099174e-03 1.984058061421591773e-02 9.997072120184451460e-01
1.899999999999999911e+00 -8.266927809860696169e-03 8.198586310618916767e-03 9.999096694812529273e-01
2.000000000000000000e+00 -5.455078626214684631e-03 2.189021703579087548e-03 9.999747827005921463e-01
2.099999999999999645e+00 -2.734205580754409809e-03 -7.365499478593118439e-05 9.999935936233959044e-01
2.199999999999999734e+00 -1.033259028713119252e-03 -4.918623791963491537e-04 9.999984920418006906e-01
2.299999999999999822e+00 -2.681308923429809700e-04 -3.145788546097929086e-04 9.999996540808829826e-01
2.399999999999999911e+00 -3.185835840252520645e-05 -1.152761529107544376e-04 9.999999169463361648e-01
2.500000000000000000e+00 3.131599100554042055e-06 -2.121532652302451964e-05 9.999999786598536833e-01
2.600000000000000089e+00 2.180680721513807629e-07 4.716904313537488542e-06 9.999999943795170321e-01
2.699999999999999734e+00 -6.289102107740593703e-07 -1.317577077726105714e-07 9.999999985780174683e-01
2.799999999999999822e+00 3.804542250080949042e-07 2.844168393499388739e-07 9.999999996583509576e-01
2.899999999999999911e+00 1.353618026904533785e-06 -1.579773718986286704e-07 9.999999999230495540e-01
3.000000000000000000e+00 -1.002089013534291828e-06 -1.686610107444676631e-06 9.999999999852901000e-01
