0.000000000000000000e+00 -3.369387020936916094e-10 2.418243364139856357e-09 -1.000000000000000000e+00
1.025641025641025605e-01 3.011633411449607944e-01 -1.884393606612057293e-02 -9.533852916479219619e-01
2.051282051282051211e-01 5.721196486872704989e-01 -2.605019825887655571e-02 -8.197537222207248453e-01
3.076923076923077094e-01 7.872835402595285137e-01 -1.366276322157036760e-02 -6.164344343812743210e-01
4.102564102564102422e-01 9.294855133306155759e-01 2.018839084769880055e-02 -3.682945657662101135e-01
5.128205128205127750e-01 9.921614857934627496e-01 7.083520526990455535e-02 -1.029024499673370507e-01
6.153846153846154188e-01 9.796038436021731188e-01 1.286764553398280220e-01 1.543038881758111436e-01
7.179487179487179516e-01 9.052404617321321290e-01 1.821918539533627923e-01 3.838459525088835367e-01
8.205128205128204844e-01 7.883932582369632680e-01 2.212756085471159762e-01 5.739914749731933608e-01
9.230769230769230171e-01 6.502827354529515658e-01 2.397777316219651955e-01 7.208560755864639180e-01
1.025641025641025550e+00 5.102390806680536794e-01 2.366175266421553791e-01 8.268397750100503485e-01
1.128205128205128194e+00 3.829061140468206226e-01 2.152331735457125861e-01 8.983620761885292572e-01
1.230769230769230838e+00 2.769042233094020089e-01 1.819336008715660702e-01 9.435157317574358604e-01
1.333333333333333259e+00 1.950949419672403373e-01 1.437563554770635021e-01 9.701909463417985879e-01
1.435897435897435903e+00 1.358766455570707132e-01 1.067122033271755421e-01 9.849613826318370791e-01
1.538461538461538325e+00 9.510142813678414131e-02 7.472983213228892585e-02 9.926582418979710276e-01
1.641025641025640969e+00 6.783772084046782447e-02 4.950948217914277055e-02 9.964669119879396852e-01
1.743589743589743613e+00 4.964037615369168432e-02 3.098630067756323256e-02 9.982861781002645429e-01
1.846153846153846034e+00 3.716706140291353710e-02 1.810006947183198656e-02 9.991449913302751229e-01
1.948717948717948678e+00 2.823120155027874015e-02 9.464979270629801655e-03 9.995565050393123707e-01
2.051282051282051100e+00 2.155355498673737491e-02 3.828541562950621424e-03 9.997602861010136399e-01
2.153846153846153744e+00 1.642126544547214961e-02 2.366664549416563554e-04 9.998650734759242376e-01
2.256410256410256387e+00 1.241881003787900783e-02 -1.968689789100053558e-03 9.999208981790261852e-01
2.358974358974359031e+00 9.274319104517592116e-03 -3.217543258515003467e-03 9.999517780211092388e-01
2.461538461538461675e+00 6.791829175522554919e-03 -3.833407739487894143e-03 9.999695566038120376e-01
2.564102564102563875e+00 4.827487531876193359e-03 -4.025967659958436945e-03 9.999802177689239846e-01
2.666666666666666519e+00 3.281482280995183347e-03 -3.949409885134141408e-03 9.999867957334764856e-01
2.769230769230769162e+00 2.076749138749179810e-03 -3.710481636206402513e-03 9.999909417552085289e-01
2.871794871794871806e+00 1.152528669489616842e-03 -3.373130253022215384e-03 9.999936315314381652e-01
2.974358974358974450e+00 4.533078055288179264e-04 -2.983278569126620195e-03 9.999954340813894671e-01
3.076923076923076650e+00 -6.955950600293645328e-05 -2.579738815801609682e-03 9.999966585462229940e-01
3.179487179487179294e+00 -4.481102593493777389e-04 -2.173816025903896939e-03 9.999975268336167566e-01
3.282051282051281937e+00 -7.087858350575827315e-04 -1.790837125013112260e-03 9.999981364376352433e-01
3.384615384615384581e+00 -8.793496606484587632e-04 -1.443823272450013616e-03 9.999985632248671319e-01
3.487179487179487225e+00 -9.742449712081654089e-04 -1.122772192050233535e-03 9.999988881319398226e-01
3.589743589743589425e+00 -1.015530944406217891e-03 -8.408374346280180238e-04 9.999991245796790995e-01
3.692307692307692069e+00 -1.014561702509772338e-03 -5.910321767315994228e-04 9.999993050291394736e-01
3.794871794871794712e+00 -9.828724807468354387e-04 -3.787818045030281241e-04 9.999994401249773235e-01
3.897435897435897356e+00 -9.278464217412434566e-04 -1.968871405825491560e-04 9.999995454996213340e-01
4.000000000000000000e+00 -8.558386830590316869e-04 -4.669483790557056764e-05 9.999996284169264671e-01
