0.000000000000000000e+00 2.291070247372374454e-09 -2.745086754021971214e-09 -1.000000000000000000e+00
1.025641025641025605e-01 2.510896093874541712e-01 1.674528685919734750e-01 -9.533673800015262101e-01
2.051282051282051211e-01 4.737979231831052629e-01 3.223959658040276288e-01 -8.194921995974652207e-01
3.076923076923077094e-01 6.449502047744762878e-01 4.533034149114367750e-01 -6.152575149630380436e-01
4.102564102564102422e-01 7.505491409902235178e-01 5.507454467389127917e-01 -3.651556574667919608e-01
5.128205128205127750e-01 7.876611153661104980e-01 6.084469761925042075e-01 -9.676699693646564904e-02
6.153846153846154188e-01 7.638781332357510445e-01 6.241730295423342234e-01 1.639513802336783899e-01
7.179487179487179516e-01 6.946232801358829256e-01 6.002124902097984993e-01 3.965186081718909406e-01
8.205128205128204844e-01 5.991368647871915254e-01 5.431706587825479993e-01 5.882064277826862808e-01
9.230769230769230171e-01 4.961917606039225603e-01 4.629983677334293390e-01 7.344489250844900008e-01
1.025641025641025550e+00 4.006285804862876887e-01 3.713175061632022489e-01 8.376226462957512275e-01
1.128205128205128194e+00 3.213754040259936273e-01 2.794578702911315049e-01 9.047734214610750891e-01
1.230769230769230838e+00 2.612475708052604539e-01 1.965603872366732674e-01 9.450445272813204900e-01
1.333333333333333259e+00 2.182147595073862523e-01 1.283429550859192525e-01 9.674228494104389897e-01
1.435897435897435903e+00 1.875460824563166262e-01 7.671277766016838806e-02 9.792542552259875244e-01
1.538461538461538325e+00 1.640066917245480427e-01 4.031559654475709575e-02 9.856339151632549367e-01
1.641025641025640969e+00 1.435516463099837381e-01 1.575045030120557354e-02 9.895165145712240262e-01
1.743589743589743613e+00 1.240535715243584747e-01 -9.858036559989916126e-04 9.922742011580303334e-01
1.846153846153846034e+00 1.052076012804572108e-01 -1.327563283795942656e-02 9.943609522324055039e-01
1.948717948717948678e+00 8.775258106345404374e-02 -2.319747851259177512e-02 9.958715504098553106e-01
2.051282051282051100e+00 7.261377164820917440e-02 -3.148405361393594171e-02 9.968625435168639859e-01
2.153846153846153744e+00 6.022576862939076070e-02 -3.796532191653148591e-02 9.974620424918201333e-01
2.256410256410256387e+00 5.029530121191911479e-02 -4.222216487643884464e-02 9.978410577691684269e-01
2.358974358974359031e+00 4.200467281313541995e-02 -4.411580948538684765e-02 9.981425607665889155e-01
2.461538461538461675e+00 3.445881833742817091e-02 -4.402687992234684267e-02 9.984355037402335986e-01
2.564102564102563875e+00 2.705947310234091061e-02 -4.273264384980073050e-02 9.987196836184030202e-01
2.666666666666666519e+00 1.973680799570668581e-02 -4.108750132596403898e-02 9.989602794274446973e-01
2.769230769230769162e+00 1.285179162368239869e-02 -3.967157449014863807e-02 9.991298280928267994e-01
2.871794871794871806e+00 6.905582330146674275e-03 -3.862185661943762227e-02 9.992297592312454624e-01
2.974358974358974450e+00 2.231354858396046581e-03 -3.765652595196736230e-02 9.992879825846650022e-01
3.076923076923076650e+00 -1.186683249587559830e-03 -3.633308693634508535e-02 9.993387725188372928e-01
3.179487179487179294e+00 -3.728388669326582888e-03 -3.432879301445015269e-02 9.994033922467312481e-01
3.282051282051281937e+00 -5.910022490398720782e-03 -3.162817178217064429e-02 9.994819999699793289e-01
3.384615384615384581e+00 -8.157406812897902496e-03 -2.852495728600524388e-02 9.995595801651234735e-01
3.487179487179487225e+00 -1.059615379974647616e-02 -2.548766857073821168e-02 9.996187765678025139e-01
3.589743589743589425e+00 -1.304833105356266627e-02 -2.289463211002050122e-02 9.996525354887311199e-01
3.692307692307692069e+00 -1.516130762254271763e-02 -2.088021365374048005e-02 9.996668311641719873e-01
3.794871794871794712e+00 -1.662070671649117093e-02 -1.928088545911939983e-02 9.996757606146638997e-01
3.897435897435897356e+00 -1.732535136416684871e-02 -1.775488982761146486e-02 9.996920682576245776e-01
4.000000000000000000e+00 -1.744431283814955672e-02 -1.596638796307293592e-02 9.997201713416282720e-01
