0.000000000000000000e+00 2.273030121650543450e-09 -5.611274053081853536e-09 -1.000000000000000000e+00
1.025641025641025605e-01 -2.342488659228825487e-01 -1.775792584843570165e-01 -9.558194717628049064e-01
2.051282051282051211e-01 -4.413791816576901339e-01 -3.436267269157540216e-01 -8.289151832804835252e-01
3.076923076923077094e-01 -5.993272509927464187e-01 -4.873515018398614784e-01 -6.350497983358431853e-01
4.102564102564102422e-01 -6.948910789468647486e-01 -5.995982647503637075e-01 -3.969877885676790785e-01
5.128205128205127750e-01 -7.254325563079918604e-01 -6.738523486760438219e-01 -1.402164069045253592e-01
6.153846153846154188e-01 -6.982283900402822541e-01 -7.071452098854922319e-01 1.114123215242568271e-01
7.179487179487179516e-01 -6.277665964648659891e-01 -7.006435497592433670e-01 3.391141315921623045e-01
8.205128205128204844e-01 -5.319384847901036384e-01 -6.595706015469708916e-01 5.310367136219855677e-01
9.230769230769230171e-01 -4.281417650013309983e-01 -5.923725398675865339e-01 6.824827947050262633e-01
1.025641025641025550e+00 -3.302612931743091895e-01 -5.092591070245100493e-01 7.947184661632022973e-01
1.128205128205128194e+00 -2.470710168228141823e-01 -4.204641304304904681e-01 8.730188153204473389e-01
1.230769230769230838e+00 -1.821636899747403893e-01 -3.346648765720406926e-01 9.245608995366193517e-01
1.333333333333333259e+00 -1.349888996951204012e-01 -2.579694381053461716e-01 9.566752714746232789e-01
1.435897435897435903e+00 -1.024999457214053056e-01 -1.935891514628061971e-01 9.757127649132755209e-01
1.538461538461538325e+00 -8.073116647137583424e-02 -1.422067931020781772e-01 9.865386600223131630e-01
1.641025641025640969e+00 -6.600517236874808846e-02 -1.027341484311033726e-01 9.925160596527714540e-01
1.743589743589743613e+00 -5.552660161045992748e-02 -7.316723574388506179e-02 9.957724076273118952e-01
1.846153846153846034e+00 -4.749470318065154850e-02 -5.131272960214564721e-02 9.975523767197147507e-01
1.948717948717948678e+00 -4.088998869996163243e-02 -3.523470926662689018e-02 9.985419972123921184e-01
2.051282051282051100e+00 -3.522016874791152052e-02 -2.340822106885119547e-02 9.991052365996310192e-01
2.153846153846153744e+00 -3.023515239448339859e-02 -1.471918149783791457e-02 9.994343008298867126e-01
2.256410256410256387e+00 -2.582058427201766593e-02 -8.361985038364147527e-03 9.996315127070687367e-01
2.358974358974359031e+00 -2.188635718643393291e-02 -3.744265658661325227e-03 9.997533646066647517e-01
2.461538461538461675e+00 -1.838465762775547824e-02 -4.323985896288210992e-04 9.998308193449618742e-01
2.564102564102563875e+00 -1.528703018969562212e-02 1.906158871490334569e-03 9.998812657135385251e-01
2.666666666666666519e+00 -1.256315744136463422e-02 3.509695200521708788e-03 9.999148658581339388e-01
2.769230769230769162e+00 -1.017911412289527161e-02 4.558314681115815600e-03 9.999377539669437320e-01
2.871794871794871806e+00 -8.114464590909468977e-03 5.180991860121882814e-03 9.999536133835639218e-01
2.974358974358974450e+00 -6.325331484541739206e-03 5.484939975442568172e-03 9.999649152970753185e-01
3.076923076923076650e+00 -4.789252675349908728e-03 5.552771331171101575e-03 9.999730817674695738e-01
3.179487179487179294e+00 -3.480614698795428570e-03 5.448185524080801680e-03 9.999790718233804165e-01
3.282051282051281937e+00 -2.370641842194252859e-03 5.230632370960395031e-03 9.999834838522948521e-01
3.384615384615384581e+00 -1.445259639192337034e-03 4.919812436832671568e-03 9.999868295002385388e-01
3.487179487179487225e+00 -6.811782001350042207e-04 4.557149388768340359e-03 9.999893625018841936e-01
3.589743589743589425e+00 -5.004617139612492840e-05 4.155121672032964335e-03 9.999913464881613478e-01
3.692307692307692069e+00 4.598211457704404377e-04 3.735851647765384836e-03 9.999928978860463946e-01
3.794871794871794712e+00 8.653192421225147733e-04 3.317391718112926591e-03 9.999941064320281292e-01
3.897435897435897356e+00 1.178227690824108428e-03 2.902295621656275117e-03 9.999950788856698525e-01
4.000000000000000000e+00 1.413487866189977547e-03 2.502451350278053679e-03 9.999958556981607405e-01
