0.000000000000000000e+00 0.000000000000000000e+00 -4.589814454780309088e-10 -1.000000000000000000e+00
1.025641025641025605e-01 0.000000000000000000e+00 -3.166680646457405435e-01 -9.485364182942479516e-01
2.051282051282051211e-01 0.000000000000000000e+00 -6.007426963696131939e-01 -7.994424386766750823e-01
3.076923076923077094e-01 0.000000000000000000e+00 -8.229836451326510982e-01 -5.680650665368403018e-01
4.102564102564102422e-01 0.000000000000000000e+00 -9.605178125329434380e-01 -2.782184965785318709e-01
5.128205128205127750e-01 0.000000000000000000e+00 -9.991890512080441322e-01 4.026462544438817737e-02
6.153846153846154188e-01 0.000000000000000000e+00 -9.350168762451729343e-01 3.546032167889117126e-01
7.179487179487179516e-01 0.000000000000000000e+00 -7.746057318675448888e-01 6.324444326237936842e-01
8.205128205128204844e-01 0.000000000000000000e+00 -5.344667075217606200e-01 8.451895278930485755e-01
9.230769230769230171e-01 0.000000000000000000e+00 -2.393182578342020472e-01 9.709411784684990332e-01
1.025641025641025550e+00 0.000000000000000000e+00 8.046515251054686679e-02 9.967574223385814447e-01
1.128205128205128194e+00 0.000000000000000000e+00 3.919627140194730797e-01 9.199811023730737336e-01
1.230769230769230838e+00 0.000000000000000000e+00 6.631209239483287776e-01 7.485122847540474078e-01
1.333333333333333259e+00 0.000000000000000000e+00 8.660247524577364686e-01 5.000011282814993407e-01
1.435897435897435903e+00 0.000000000000000000e+00 9.797901353356873733e-01 2.000282254876245003e-01
1.538461538461538325e+00 0.000000000000000000e+00 9.927091174707793897e-01 -1.205346775316012975e-01
1.641025641025640969e+00 0.000000000000000000e+00 9.034509180204527423e-01 -4.286915427587335015e-01
1.743589743589743613e+00 0.000000000000000000e+00 7.212036041642727602e-01 -6.927231491346798053e-01
1.846153846153846034e+00 0.000000000000000000e+00 4.647251809502487840e-01 -8.854549710347415781e-01
1.948717948717948678e+00 0.000000000000000000e+00 1.604144333777322573e-01 -9.870497504643626074e-01
2.051282051282051100e+00 0.000000000000000000e+00 -1.604066775179678328e-01 -9.870510115437840515e-01
2.153846153846153744e+00 0.000000000000000000e+00 -4.647215085771181364e-01 -8.854568982660477872e-01
2.256410256410256387e+00 0.000000000000000000e+00 -7.212007546228919042e-01 -6.927261159639862553e-01
2.358974358974359031e+00 0.000000000000000000e+00 -9.034502979240361942e-01 -4.286928451405158103e-01
2.461538461538461675e+00 0.000000000000000000e+00 -9.927082987125855906e-01 -1.205414222323434315e-01
2.564102564102563875e+00 0.000000000000000000e+00 -9.797908748869209594e-01 2.000246081831837663e-01
2.666666666666666519e+00 0.000000000000000000e+00 -8.660274835940947602e-01 4.999963963772690589e-01
2.769230769230769162e+00 0.000000000000000000e+00 -6.631261162865103032e-01 7.485076853511926087e-01
2.871794871794871806e+00 0.000000000000000000e+00 -3.919698732791188078e-01 9.199780556300848344e-01
2.974358974358974450e+00 0.000000000000000000e+00 -8.047068705241200437e-02 9.967569755653399310e-01
3.076923076923076650e+00 0.000000000000000000e+00 2.393154369683182514e-01 9.709418733486990805e-01
3.179487179487179294e+00 0.000000000000000000e+00 5.344647469282294283e-01 8.451907677911872918e-01
3.282051282051281937e+00 0.000000000000000000e+00 7.746054512634498179e-01 6.324447710350348251e-01
3.384615384615384581e+00 0.000000000000000000e+00 9.350146634379596922e-01 3.546090405407100188e-01
3.487179487179487225e+00 0.000000000000000000e+00 9.991889102925275434e-01 4.026811735508301071e-02
3.589743589743589425e+00 0.000000000000000000e+00 9.605187317073325959e-01 -2.782153237755192743e-01
3.692307692307692069e+00 0.000000000000000000e+00 8.229854894111655605e-01 -5.680624047083637773e-01
3.794871794871794712e+00 0.000000000000000000e+00 6.007432352873981474e-01 -7.994420338945829041e-01
3.897435897435897356e+00 0.000000000000000000e+00 3.166689462129209098e-01 -9.485361233155336080e-01
4.000000000000000000e+00 0.000000000000000000e+00 1.047512970282144731e-06 -9.999999990160687302e-01
