0.000000000000000000e+00 2.357080412641715391e-12 -3.753628123258613517e-13 -1.000000000000000000e+00
1.025641025641025605e-01 2.908271245976970509e-01 -4.476865342527766578e-02 -9.557276553886876469e-01
2.051282051282051211e-01 5.561755168928832482e-01 -7.647382434845477472e-02 -8.275388501714060485e-01
3.076923076923077094e-01 7.730191808435626921e-01 -8.372509148589744876e-02 -6.288334080667863368e-01
4.102564102564102422e-01 9.229865663950866939e-01 -5.829524622674300827e-02 -3.803911967473894706e-01
5.128205128205127750e-01 9.941224635292138512e-01 3.768910028043415128e-03 -1.081957630924865327e-01
6.153846153846154188e-01 9.820032482013839603e-01 1.015127872641872070e-01 1.592632240413423272e-01
7.179487179487179516e-01 8.901275093991943832e-01 2.290313877054721281e-01 3.939767001590044337e-01
8.205128205128204844e-01 7.295266755143443582e-01 3.759908142814166743e-01 5.713332977640206423e-01
9.230769230769230171e-01 5.176421428918381862e-01 5.286977766695922787e-01 6.726999870224334988e-01
1.025641025641025550e+00 2.765883576757910967e-01 6.715762528769148032e-01 6.873748741628883385e-01
1.128205128205128194e+00 3.095887917849577536e-02 7.889149754386188818e-01 6.137220126124512953e-01
1.230769230769230838e+00 -1.945879908562703209e-01 8.666735595744369247e-01 4.593609199898617823e-01
1.333333333333333259e+00 -3.777398899462370840e-01 8.941610818460682397e-01 2.403924610239288606e-01
1.435897435897435903e+00 -5.006912288686240498e-01 8.653887971213946040e-01 -2.026138012113460132e-02
1.538461538461538325e+00 -5.518401616188922665e-01 7.799451224910356473e-01 -2.952254088619457040e-01
1.641025641025640969e+00 -5.268731164813074130e-01 6.432805067307880709e-01 -5.555131936264641190e-01
1.743589743589743613e+00 -4.291074154429661558e-01 4.663637655192566234e-01 -7.735448692054073261e-01
1.846153846153846034e+00 -2.690884843546341720e-01 2.647293365267506804e-01 -9.260182323228814960e-01
1.948717948717948678e+00 -6.346331457360948614e-02 5.699443824979474188e-02 -9.963553794402409958e-01
2.051282051282051100e+00 1.667314316494643289e-01 -1.369751599317239887e-01 -9.764417210771965117e-01
2.153846153846153744e+00 3.982063998765094648e-01 -2.981030092466130377e-01 -8.675057696752797032e-01
2.256410256410256387e+00 6.077735327524153019e-01 -4.100986542144491320e-01 -6.800223737499291321e-01
2.358974358974359031e+00 7.746514439270655306e-01 -4.612106409219258740e-01 -4.326660202837648850e-01
2.461538461538461675e+00 8.825303202050567286e-01 -4.455561887403992616e-01 -1.503991920353019707e-01
2.564102564102563875e+00 9.211646491598758368e-01 -3.638514232636372858e-01 1.380863214889067880e-01
2.666666666666666519e+00 8.873428096315731928e-01 -2.234846220693954000e-01 4.033328165230218865e-01
2.769230769230769162e+00 7.851569866466125980e-01 -3.789698459147029103e-02 6.181361691214718457e-01
2.871794871794871806e+00 6.255282458738337104e-01 1.746862239430376218e-01 7.603940665551719436e-01
2.974358974358974450e+00 4.250562587111548218e-01 3.930246596066135356e-01 8.153887354630211526e-01
3.076923076923076650e+00 2.043070328741478647e-01 5.949892768579018165e-01 7.773328732628382864e-01
3.179487179487179294e+00 -1.428953978388675106e-02 7.598053149456996946e-01 6.499936094837739375e-01
3.282051282051281937e+00 -2.087053388395103404e-01 8.701892729582852981e-01 4.463325106805005604e-01
3.384615384615384581e+00 -3.595297217792655653e-01 9.141635461282741071e-01 1.871987998142939091e-01
3.487179487179487225e+00 -4.519085046898446700e-01 8.863498851616937735e-01 -1.008095949068727043e-01
3.589743589743589425e+00 -4.769992066747125725e-01 7.885996337578351500e-01 -3.880494463903171320e-01
3.692307692307692069e+00 -4.328258702861129681e-01 6.298906179174397213e-01 -6.449027616321785228e-01
3.794871794871794712e+00 -3.244178571469015782e-01 4.254889409388293853e-01 -8.448148947241528317e-01
3.897435897435897356e+00 -1.632634637740792427e-01 1.954727643761944578e-01 -9.670240135851383423e-01
4.000000000000000000e+00 3.390446444557566885e-02 -3.727892443677376794e-02 -9.987295771235147335e-01
