0.000000000000000000e+00 5.972740921146553143e-09 3.685041539467480519e-10 -1.000000000000000000e+00
1.025641025641025605e-01 -2.320847547126993204e-01 -2.024347535892493388e-01 -9.513960768794540446e-01
2.051282051282051211e-01 -4.322284351462679641e-01 -3.917054360802541546e-01 -8.122440706649562969e-01
3.076923076923077094e-01 -5.749671684390023074e-01 -5.550601241371475592e-01 -6.010935969388430111e-01
4.102564102564102422e-01 -6.461414309388966437e-01 -6.810351258473469338e-01 -3.445041137617617655e-01
5.128205128205127750e-01 -6.449800739378027670e-01 -7.608148822449359860e-01 -7.177224601101703239e-02
6.153846153846154188e-01 -5.830102681207314230e-01 -7.898504026567005898e-01 1.903297106406483530e-01
7.179487179487179516e-01 -4.802800341489077973e-01 -7.691643539211185931e-01 4.215547806560395183e-01
8.205128205128204844e-01 -3.600922137122304911e-01 -7.056816341186857855e-01 6.101963845574654988e-01
9.230769230769230171e-01 -2.437157385846648872e-01 -6.112657322623726852e-01 7.529614779431860194e-01
1.025641025641025550e+00 -1.464577039121711666e-01 -5.004997810647153766e-01 8.532559768360358232e-01
1.128205128205128194e+00 -7.586889624609852167e-02 -3.879101409449045579e-01 9.185676616920496196e-01
1.230769230769230838e+00 -3.220994359534745666e-02 -2.853232752095248292e-01 9.578888180438577260e-01
1.333333333333333259e+00 -1.057820789126196967e-02 -2.001841899745819275e-01 9.797004210921373968e-01
1.435897435897435903e+00 -3.716927237370451498e-03 -1.351726747315145361e-01 9.908145912279816558e-01
1.538461538461538325e+00 -4.550062892426962741e-03 -8.903181159735751304e-02 9.960180625338410643e-01
1.641025641025640969e+00 -7.830771025950200581e-03 -5.813372864940809237e-02 9.982778726863208441e-01
1.743589743589743613e+00 -1.059800088203070520e-02 -3.811391103688404475e-02 9.992170478788025001e-01
1.846153846153846034e+00 -1.184840199919017477e-02 -2.512162416382267283e-02 9.996140754946242213e-01
1.948717948717948678e+00 -1.173925894170238515e-02 -1.640148756154307871e-02 9.997964877668761297e-01
2.051282051282051100e+00 -1.083520652015072978e-02 -1.031671081243633846e-02 9.998880130008269695e-01
2.153846153846153744e+00 -9.607016442892793093e-03 -6.000458262999384604e-03 9.999357989457591245e-01
2.256410256410256387e+00 -8.305126758613827487e-03 -2.992221149899430312e-03 9.999609959971653694e-01
2.358974358974359031e+00 -7.019106740172240122e-03 -9.661963667080834990e-04 9.999748669758583564e-01
2.461538461538461675e+00 -5.762189148856480120e-03 3.533147869260763567e-04 9.999833093537109363e-01
2.564102564102563875e+00 -4.573966902503120470e-03 1.203940599450393101e-03 9.999887923383128374e-01
2.666666666666666519e+00 -3.510343466609630245e-03 1.739728544944703576e-03 9.999923065382620990e-01
2.769230769230769162e+00 -2.601972643745045256e-03 2.045555521061399006e-03 9.999945064905525483e-01
2.871794871794871806e+00 -1.856952037597752641e-03 2.166661342125923793e-03 9.999959144523381527e-01
2.974358974358974450e+00 -1.240589684691303929e-03 2.141716530140895264e-03 9.999969245129326501e-01
3.076923076923076650e+00 -7.283501033610066070e-04 2.015304733874367406e-03 9.999976930599535629e-01
3.179487179487179294e+00 -2.968791711410380830e-04 1.841570279707238980e-03 9.999982505443179015e-01
3.282051282051281937e+00 4.519010043045764390e-05 1.642841717408656923e-03 9.999986408767722601e-01
3.384615384615384581e+00 3.044166258626861740e-04 1.444573901925969234e-03 9.999989024075230937e-01
3.487179487179487225e+00 4.885312555342643777e-04 1.238223343600685332e-03 9.999991068975863096e-01
3.589743589743589425e+00 6.061354080334510445e-04 1.029460652591365332e-03 9.999992798895852575e-01
3.692307692307692069e+00 6.898085695906184655e-04 8.188621283558960694e-04 9.999994209106400911e-01
3.794871794871794712e+00 7.375222210099750819e-04 6.219088448861443460e-04 9.999995292716707951e-01
3.897435897435897356e+00 7.646816107642594998e-04 4.488110138536552255e-04 9.999996019304379091e-01
4.000000000000000000e+00 7.643164871072354255e-04 3.036668359228760199e-04 9.999996571458235062e-01
