0.000000000000000000e+00 1.919092071591030371e-09 -2.318980472111579119e-09 -1.000000000000000000e+00
1.025641025641025605e-01 2.100210283325816829e-01 -2.167750245529318220e-01 -9.533595914996259024e-01
2.051282051282051211e-01 4.122478268390409872e-01 -3.983395014970068648e-01 -8.193694095084687046e-01
3.076923076923077094e-01 5.969067287596291349e-01 -5.155812970516803206e-01 -6.147043722330149951e-01
4.102564102564102422e-01 7.514198334890149766e-01 -5.505335885137424556e-01 -3.636755686011503008e-01
5.128205128205127750e-01 8.611351514161662557e-01 -4.996119904844694148e-01 -9.386696177871672875e-02
6.153846153846154188e-01 9.118569280764481366e-01 -3.743149395751517172e-01 1.684710023167699522e-01
7.179487179487179516e-01 8.935402622804479167e-01 -1.991907259379372963e-01 4.023534214006833643e-01
8.205128205128204844e-01 8.040716893306640856e-01 -7.242957740290517643e-03 5.944737615928459284e-01
9.230769230769230171e-01 6.518590744353490729e-01 1.664338709479911693e-01 7.398417682326348110e-01
1.025641025641025550e+00 4.561355114783947062e-01 2.916093646293390629e-01 8.407698737953838153e-01
1.128205128205128194e+00 2.445215881433879523e-01 3.489968277627997217e-01 9.046560917612987973e-01
1.230769230769230838e+00 4.810011579184397812e-02 3.340865412623450492e-01 9.413111238547062776e-01
1.333333333333333259e+00 -1.049223034654248460e-01 2.576897697923477559e-01 9.605115813851875517e-01
1.435897435897435903e+00 -1.953508649752698223e-01 1.430342634737598317e-01 9.702448804232273183e-01
1.538461538461538325e+00 -2.172732873881227378e-01 1.992064982723074085e-02 9.759056320195272916e-01
1.641025641025640969e+00 -1.792120738866619656e-01 -8.256454307603630638e-02 9.803381150273376976e-01
1.743589743589743613e+00 -1.016721104506432549e-01 -1.430552391399925738e-01 9.844770429026480363e-01
1.846153846153846034e+00 -1.171097507060071818e-02 -1.527050890891802348e-01 9.882011232721829019e-01
1.948717948717948678e+00 6.416590473209013434e-02 -1.166033911290140918e-01 9.911024989277084085e-01
2.051282051282051100e+00 1.066612089932083285e-01 -5.136111985814253295e-02 9.929669914331832326e-01
2.153846153846153744e+00 1.081923379195497137e-01 2.027250344984948827e-02 9.939223327905787331e-01
2.256410256410256387e+00 7.392080591758956598e-02 7.627461685807046532e-02 9.943420530840043625e-01
2.358974358974359031e+00 1.911079852437658211e-02 1.016133573886934399e-01 9.946395174609271583e-01
2.461538461538461675e+00 -3.629576776072047234e-02 9.209322537804126574e-02 9.950878344053516456e-01
2.564102564102563875e+00 -7.413640973068141848e-02 5.472442192043414089e-02 9.957446871271167232e-01
2.666666666666666519e+00 -8.356242363945852458e-02 4.664007404162676812e-03 9.964909213731431015e-01
2.769230769230769162e+00 -6.392080299114252795e-02 -4.024961794363464407e-02 9.971423254049508467e-01
2.871794871794871806e+00 -2.420570383019421401e-02 -6.542617822418625440e-02 9.975631861268750011e-01
2.974358974358974450e+00 2.058186856668000470e-02 -6.409336005180628348e-02 9.977310647069741467e-01
3.076923076923076650e+00 5.483621731852338782e-02 -3.899897331764701908e-02 9.977328901901149072e-01
3.179487179487179294e+00 6.767258628225328310e-02 -8.645363260396804472e-04 9.977066298876530182e-01
3.282051282051281937e+00 5.635260253905116645e-02 3.580455762423327692e-02 9.977681481060862723e-01
3.384615384615384581e+00 2.673158953194500545e-02 5.795929183335255669e-02 9.979604442372683737e-01
3.487179487179487225e+00 -9.260933405357614501e-03 5.850367416786578928e-02 9.982437260144467750e-01
3.589743589743589425e+00 -3.818660837691580795e-02 3.845673388789624253e-02 9.985298812038372329e-01
3.692307692307692069e+00 -4.995536562840566241e-02 6.181510539059291431e-03 9.987318824347541923e-01
3.794871794871794712e+00 -4.124425959660642932e-02 -2.600746098042094542e-02 9.988101279988801373e-01
3.897435897435897356e+00 -1.641606136839686772e-02 -4.647220684258331069e-02 9.987842541392057960e-01
4.000000000000000000e+00 1.447889416815587027e-02 -4.845003333040470705e-02 9.987202192162735193e-01
