0.000000000000000000e+00 -1.295180041513096810e-09 1.356370968964383439e-09 -1.000000000000000000e+00
1.025641025641025605e-01 3.129775265516560045e-01 4.485857415719232688e-02 -9.486986199677739373e-01
2.051282051282051211e-01 5.891499222908344047e-01 9.918934078096022788e-02 -8.019077001700911644e-01
3.076923076923077094e-01 7.974643295094425710e-01 1.680775251752464339e-01 -5.794728646792681737e-01
4.102564102564102422e-01 9.174461707662143750e-01 2.494786734777779125e-01 -3.099005718249385755e-01
5.128205128205127750e-01 9.422637605078265643e-01 3.339291492716227605e-01 -2.479440107061070195e-02
6.153846153846154188e-01 8.794368676716907141e-01 4.069770627479755154e-01 2.468715186628601677e-01
7.179487179487179516e-01 7.489216958098772192e-01 4.534939493975809754e-01 4.831631813456669367e-01
8.205128205128204844e-01 5.788813857661686546e-01 4.624400684252387705e-01 6.715914876039064119e-01
9.230769230769230171e-01 3.999367128301349883e-01 4.304881447477689194e-01 8.091494842280563260e-01
1.025641025641025550e+00 2.391772373808841723e-01 3.632653940543064119e-01 9.004594170305889600e-01
1.128205128205128194e+00 1.153016703756175876e-01 2.738761662387064755e-01 9.548266421633789802e-01
1.230769230769230838e+00 3.605235631443597100e-02 1.791876975932391591e-01 9.831530638726000415e-01
1.333333333333333259e+00 -1.508149783007770028e-03 9.520697717747075850e-02 9.954558180208440410e-01
1.435897435897435903e+00 -8.171414142728056912e-03 3.301572863751349451e-02 9.994212235149830814e-01
1.538461538461538325e+00 1.765719964076148353e-03 -3.419231847641834767e-03 9.999925666174600547e-01
1.641025641025640969e+00 1.516916756075662245e-02 -1.705407146550796949e-02 9.997393516328083596e-01
1.743589743589743613e+00 2.318789493222733755e-02 -1.549591131852232420e-02 9.996108532310002959e-01
1.846153846153846034e+00 2.267550537630967644e-02 -7.712502785423736018e-03 9.997129800720484516e-01
1.948717948717948678e+00 1.534547968580531573e-02 -9.346968070659935138e-04 9.998817148501845109e-01
2.051282051282051100e+00 5.545471990012798037e-03 1.181787815070656049e-03 9.999838847149399301e-01
2.153846153846153744e+00 -2.363383510479561116e-03 -1.244296383544324543e-03 9.999964122191996596e-01
2.256410256410256387e+00 -5.922905898511869084e-03 -5.751891675134698442e-03 9.999658598797905862e-01
2.358974358974359031e+00 -5.208539439035679217e-03 -9.242761074681225125e-03 9.999436483849943880e-01
2.461538461538461675e+00 -2.211851512486040505e-03 -9.777897227611319353e-03 9.999496811301626931e-01
2.564102564102563875e+00 5.178809317453640995e-04 -7.274759874016141145e-03 9.999733534520268696e-01
2.666666666666666519e+00 1.235498343313981432e-03 -3.216034622365930920e-03 9.999940391582354815e-01
2.769230769230769162e+00 -2.801044101148746643e-04 3.746303661488479858e-04 9.999998861763738089e-01
2.871794871794871806e+00 -3.012184148828062069e-03 2.054451951418101961e-03 9.999933254320189091e-01
2.974358974358974450e+00 -5.308021439416469797e-03 1.587647697485495765e-03 9.999846121183036951e-01
3.076923076923076650e+00 -5.964805701582876971e-03 -1.142478562574092069e-04 9.999821612375878743e-01
3.179487179487179294e+00 -4.783779943590706595e-03 -1.643529430274476549e-03 9.999871702350091596e-01
3.282051282051281937e+00 -2.557139303378894862e-03 -1.920909488424198596e-03 9.999948610930596837e-01
3.384615384615384581e+00 -5.186909886444729650e-04 -7.234564670754302330e-04 9.999995959390330924e-01
3.487179487179487225e+00 3.821964877665327961e-04 1.261859543705040132e-03 9.999991196990031250e-01
3.589743589743589425e+00 -9.546097175760462523e-05 3.020208788403284418e-03 9.999954113083582286e-01
3.692307692307692069e+00 -1.367225111473628629e-03 3.670323292703326495e-03 9.999923003582205094e-01
3.794871794871794712e+00 -2.469862678641895036e-03 3.042409455951207171e-03 9.999922923644354311e-01
3.897435897435897356e+00 -2.635635637320412478e-03 1.662561744138189119e-03 9.999951207078584536e-01
4.000000000000000000e+00 -1.699384373777826796e-03 4.099495175414086560e-04 9.999984577104912287e-01
