0.000000000000000000e+00 3.809783426442907294e-09 -1.094124182895266923e-09 -1.000000000000000000e+00
1.025641025641025605e-01 -5.210518735473157470e-02 -3.035360405096214631e-01 -9.513928038473173920e-01
2.051282051282051211e-01 -8.854888879604413954e-02 -5.766243989524372227e-01 -8.121931778628225240e-01
3.076923076923077094e-01 -9.817608864014609749e-02 -7.932922897668770457e-01 -6.008662897492598187e-01
4.102564102564102422e-01 -7.736254985962759401e-02 -9.358106273813922016e-01 -3.438938031754695812e-01
5.128205128205127750e-01 -3.074812794455378251e-02 -9.970271890044841712e-01 -7.056812312049069724e-02
6.153846153846154188e-01 3.051839931982330834e-02 -9.808644423089563080e-01 1.922559537125217710e-01
7.179487179487179516e-01 9.231321357861710375e-02 -9.008682302234216621e-01 4.241516425000858015e-01
8.205128205128204844e-01 1.416188390127791630e-01 -7.771039428123979187e-01 6.132252639913833292e-01
9.230769230769230171e-01 1.698618182828978973e-01 -6.320487043472570177e-01 7.560786095713867283e-01
1.025641025641025550e+00 1.745204705878204976e-01 -4.864728479406467687e-01 8.560852341704457968e-01
1.128205128205128194e+00 1.587872991639263098e-01 -3.561814792034395105e-01 9.208245690119275517e-01
1.230769230769230838e+00 1.296442352486392169e-01 -2.503177970036328803e-01 9.594430566487506251e-01
1.333333333333333259e+00 9.525214278611097984e-02 -1.714172636668591654e-01 9.805822330196265479e-01
1.435897435897435903e+00 6.257926188110099486e-02 -1.168873506165063608e-01 9.911710708419269045e-01
1.538461538461538325e+00 3.599279065643906650e-02 -8.126531295042664638e-02 9.960420330194239558e-01
1.641025641025640969e+00 1.699756783111275316e-02 -5.845985470212591850e-02 9.981447866671590008e-01
1.743589743589743613e+00 4.895550898837062320e-03 -4.333981716825722336e-02 9.990482054932855460e-01
1.846153846153846034e+00 -2.110713480663145743e-03 -3.248821827727561840e-02 9.994697454059208175e-01
1.948717948717948678e+00 -5.912715697515393345e-03 -2.407607228665771537e-02 9.996925315733261597e-01
2.051282051282051100e+00 -7.911381189976200018e-03 -1.738882962926021139e-02 9.998174138026888480e-01
2.153846153846153744e+00 -8.874871857618033336e-03 -1.216759625826895758e-02 9.998865150700968485e-01
2.256410256410256387e+00 -9.125333935701716859e-03 -8.224233100442551042e-03 9.999244826937498942e-01
2.358974358974359031e+00 -8.811972921874799969e-03 -5.292546598195017361e-03 9.999471169148800298e-01
2.461538461538461675e+00 -8.088302870707083161e-03 -3.075675532214020187e-03 9.999625155319921133e-01
2.564102564102563875e+00 -7.144204106551490206e-03 -1.335488754270750585e-03 9.999735507780782573e-01
2.666666666666666519e+00 -6.157233615177183303e-03 4.169172700765107903e-05 9.999810111373143018e-01
2.769230769230769162e+00 -5.242320418298329968e-03 1.073495352469150919e-03 9.999856544088577825e-01
2.871794871794871806e+00 -4.406313038053860653e-03 1.780967681652841864e-03 9.999886807418544299e-01
2.974358974358974450e+00 -3.622386216101137427e-03 2.202852380055114918e-03 9.999909898275247677e-01
3.076923076923076650e+00 -2.859634922303546257e-03 2.417251302318976745e-03 9.999929690797531023e-01
3.179487179487179294e+00 -2.133291847767176605e-03 2.518807749714719203e-03 9.999945338969964403e-01
3.282051282051281937e+00 -1.479935084570616717e-03 2.553647262378190824e-03 9.999956276597402605e-01
3.384615384615384581e+00 -9.340403065779621494e-04 2.532924618876898279e-03 9.999963405584382237e-01
3.487179487179487225e+00 -4.981110582419869459e-04 2.451463308803672816e-03 9.999968567744002002e-01
3.589743589743589425e+00 -1.481479801948352136e-04 2.290846983275438096e-03 9.999973517446719695e-01
3.692307692307692069e+00 1.553294527434669059e-04 2.073162371260679239e-03 9.999978267666682630e-01
3.794871794871794712e+00 4.272733163313776911e-04 1.836586169523855968e-03 9.999982110490256426e-01
3.897435897435897356e+00 6.676649450122972528e-04 1.612053341758814184e-03 9.999984673389300527e-01
4.000000000000000000e+00 8.480730504160316702e-04 1.411005150974130231e-03 9.999986350270784197e-01
