0.000000000000000000e+00 1.077977327384100591e-09 1.998279828141305847e-09 -1.000000000000000000e+00
1.025641025641025605e-01 -1.692387080913657360e-01 -2.405844847927826879e-01 -9.557536842154349399e-01
2.051282051282051211e-01 -3.263467605990438836e-01 -4.560848568716853735e-01 -8.279240926145589041e-01
3.076923076923077094e-01 -4.610044371185593182e-01 -6.243255515965984159e-01 -6.305972892695970167e-01
4.102564102564102422e-01 -5.660407181113967789e-01 -7.288146739520837691e-01 -3.851974940625925159e-01
5.128205128205127750e-01 -6.384212556296210428e-01 -7.605962808273316611e-01 -1.177128589798012714e-01
6.153846153846154188e-01 -6.795489609372238338e-01 -7.191932937934024661e-01 1.446347304300518721e-01
7.179487179487179516e-01 -6.948575520649101778e-01 -6.124833788141044177e-01 3.768114490159302776e-01
8.205128205128204844e-01 -6.927821624050121141e-01 -4.555250127179171216e-01 5.590229114373246322e-01
9.230769230769230171e-01 -6.832649357043378835e-01 -2.685012006987771427e-01 6.789840555662098875e-01
1.025641025641025550e+00 -6.760425107859407978e-01 -7.406832939670625338e-02 7.331078440690063092e-01
1.128205128205128194e+00 -6.790039597546874139e-01 1.055581283029203010e-01 7.264828817310345910e-01
1.230769230769230838e+00 -6.968642251075639615e-01 2.513800479221715012e-01 6.716778249297495895e-01
1.333333333333333259e+00 -7.303840923200926039e-01 3.498964439766233392e-01 5.865745301019331670e-01
1.435897435897435903e+00 -7.762884506680665098e-01 3.946077838260286241e-01 4.915432486199800555e-01
1.538461538461538325e+00 -8.278561178521121056e-01 3.865512338608483311e-01 4.064272405392544973e-01
1.641025641025640969e+00 -8.761254386567906005e-01 3.338349357837878673e-01 3.477173918594691493e-01
1.743589743589743613e+00 -9.114893626179100261e-01 2.502444290870933785e-01 3.263636438375256410e-01
1.846153846153846034e+00 -9.254464941661495470e-01 1.531199438022521897e-01 3.464851714211688583e-01
1.948717948717948678e+00 -9.122001525656245891e-01 6.083657618819227064e-02 4.051425182297276328e-01
2.051282051282051100e+00 -8.698443519551742886e-01 -9.791320710583473197e-03 4.931823511422629425e-01
2.153846153846153744e+00 -8.009334989067673494e-01 -4.582042652478313105e-02 5.969628698378353082e-01
2.256410256410256387e+00 -7.123257020033384457e-01 -3.986389718962052298e-02 7.006907498441896642e-01
2.358974358974359031e+00 -6.143003563197283468e-01 9.018127810080017737e-03 7.890022118690771524e-01
2.461538461538461675e+00 -5.190945139993287105e-01 9.535984029789976169e-02 8.493663428635368495e-01
2.564102564102563875e+00 -4.390596067763266608e-01 2.082432025235885220e-01 8.739791427027117088e-01
2.666666666666666519e+00 -3.847433352443349608e-01 3.329829685130614725e-01 8.608552484411501338e-01
2.769230769230769162e+00 -3.631731419992215715e-01 4.533269563225359455e-01 8.139856752936324158e-01
2.871794871794871806e+00 -3.766593761475869884e-01 5.538130201723237001e-01 7.425538389420921481e-01
2.974358974358974450e+00 -4.222975713585802593e-01 6.219838873751494246e-01 6.593654946780033166e-01
3.076923076923076650e+00 -4.922656489189659590e-01 6.501385862595149279e-01 5.787504505924626619e-01
3.179487179487179294e+00 -5.748989805651097962e-01 6.363717893193037156e-01 5.142731532707269793e-01
3.282051282051281937e+00 -6.563816348304423176e-01 5.847679212771588197e-01 4.766160492058509890e-01
3.384615384615384581e+00 -7.228083933903471925e-01 5.047389425607287095e-01 4.719530487354652304e-01
3.487179487179487225e+00 -7.623040472314547289e-01 4.096013739537806009e-01 5.010723186853369704e-01
3.589743589743589425e+00 -7.668741997133792232e-01 3.146121117761144781e-01 5.593567616971184542e-01
3.692307692307692069e+00 -7.336953635183199873e-01 2.347628360722943675e-01 6.376035924526022303e-01
3.794871794871794712e+00 -6.656393090427684678e-01 1.826050979903092175e-01 7.235646169268453720e-01
3.897435897435897356e+00 -5.709219874720292687e-01 1.664829590251734326e-01 8.039299974547602368e-01
4.000000000000000000e+00 -4.619433740475299421e-01 1.893767942898575696e-01 8.664422222910226346e-01
