0.000000000000000000e+00 -1.676716497430585212e-09 1.789125874328164250e-09 -1.000000000000000000e+00
1.025641025641025605e-01 3.038418113355608186e-01 8.383883823773406740e-02 -9.490253052682233736e-01
2.051282051282051211e-01 5.695195757170884443e-01 1.738461517185050653e-01 -8.033805857192365396e-01
3.076923076923077094e-01 7.653818929135282056e-01 2.719692565425870234e-01 -5.832806950634142895e-01
4.102564102564102422e-01 8.716225050116050976e-01 3.734648699932267002e-01 -3.174738532770078892e-01
5.128205128205127750e-01 8.833484145024791401e-01 4.672158147173047227e-01 -3.736015261542778576e-02
6.153846153846154188e-01 8.107715139277140715e-01 5.387758524506441882e-01 2.288257258113330084e-01
7.179487179487179516e-01 6.763503565693684827e-01 5.749921967316040661e-01 4.603546451537245399e-01
8.205128205128204844e-01 5.095138318232029784e-01 5.685102112031434896e-01 6.458989578470049064e-01
9.230769230769230171e-01 3.401915119679850275e-01 5.204019051214995306e-01 7.832284029685616655e-01
1.025641025641025550e+00 1.928055894570196716e-01 4.400787412278105992e-01 8.770137843202242545e-01
1.128205128205128194e+00 8.221778341416205449e-02 3.425253764007950563e-01 9.359028428175499847e-01
1.230769230769230838e+00 1.255606587142794189e-02 2.440524561482962096e-01 9.696799050265336728e-01
1.333333333333333259e+00 -2.112375982622699544e-02 1.580781056241142291e-01 9.872001064532878178e-01
1.435897435897435903e+00 -2.920355472092843463e-02 9.239756696469941799e-02 9.952935283954487122e-01
1.538461538461538325e+00 -2.335989560884784225e-02 4.859601522706673282e-02 9.985451317919241676e-01
1.641025641025640969e+00 -1.319104725205445458e-02 2.339749199839595561e-02 9.996391156835845448e-01
1.743589743589743613e+00 -4.551659348197729764e-03 1.109991748338895294e-02 9.999279884856608902e-01
1.846153846153846034e+00 4.388041531185439895e-04 5.982013502354503048e-03 9.999819866502953625e-01
1.948717948717948678e+00 2.196961727422873985e-03 3.865646302869951700e-03 9.999900961386886111e-01
2.051282051282051100e+00 2.158948248023999719e-03 2.537646384446247579e-03 9.999944350362718337e-01
2.153846153846153744e+00 1.620820400532078671e-03 1.339872207245547528e-03 9.999977791666118110e-01
2.256410256410256387e+00 1.214304820440162674e-03 3.506284596861043040e-04 9.999991951582920535e-01
2.358974358974359031e+00 1.015597069743124498e-03 -2.393962464918684844e-04 9.999994504916557281e-01
2.461538461538461675e+00 8.634165332022821198e-04 -4.358908337372047930e-04 9.999995274589891237e-01
2.564102564102563875e+00 6.300003906813360496e-04 -4.213347026127145251e-04 9.999997089237926406e-01
2.666666666666666519e+00 3.454472912943423540e-04 -3.685280753986003603e-04 9.999998697443905904e-01
2.769230769230769162e+00 9.714812127778333349e-05 -3.618310015731438629e-04 9.999999277768319983e-01
2.871794871794871806e+00 -4.339201118354627038e-05 -3.750341460232682936e-04 9.999999266740690063e-01
2.974358974358974450e+00 -8.517682411013417798e-05 -3.490134360475912779e-04 9.999999335017961677e-01
3.076923076923076650e+00 -9.253740512087541632e-05 -2.704067500123534919e-04 9.999999575570418520e-01
3.179487179487179294e+00 -1.120869989528663061e-04 -1.615062909147392469e-04 9.999999795350809073e-01
3.282051282051281937e+00 -1.493322847217863083e-04 -7.540296829390194912e-05 9.999999850147459624e-01
3.384615384615384581e+00 -1.744089640996813019e-04 -3.585486318805197335e-05 9.999999831009342977e-01
3.487179487179487225e+00 -1.721596651387997945e-04 -2.185338409161545568e-05 9.999999839178331795e-01
3.589743589743589425e+00 -1.392671994553626197e-04 -6.577544516614701377e-06 9.999999894350367624e-01
3.692307692307692069e+00 -9.490909429169560848e-05 2.341997828672693683e-05 9.999999946058555356e-01
3.794871794871794712e+00 -6.671594640313625293e-05 5.784805331486576592e-05 9.999999955442114841e-01
3.897435897435897356e+00 -6.098311424256498833e-05 8.096610622646658478e-05 9.999999942326693869e-01
4.000000000000000000e+00 -5.636405991566780925e-05 8.405021478786202621e-05 9.999999942477291182e-01
