0.000000000000000000e+00 -2.587416333309796682e-09 5.057332009655590953e-10 -1.000000000000000000e+00
1.025641025641025605e-01 2.944249732295529665e-01 -1.047962352932674257e-01 -9.499094957836341502e-01
2.051282051282051211e-01 5.604242029788544244e-01 -1.884358692271147218e-01 -8.064793316267188095e-01
3.076923076923077094e-01 7.733174176067771910e-01 -2.351066417372010275e-01 -5.888067692180954937e-01
4.102564102564102422e-01 9.154684122086480524e-01 -2.380668752029224122e-01 -3.243877209741496959e-01
5.128205128205127750e-01 9.786221761130028396e-01 -2.009203222049700255e-01 -4.375124398558474792e-02
6.153846153846154188e-01 9.648253639173929308e-01 -1.360008687770820068e-01 2.249462479559609374e-01
7.179487179487179516e-01 8.857304148865234872e-01 -6.055909774566625714e-02 4.602184385668680044e-01
8.205128205128204844e-01 7.602352663428004753e-01 8.045238044896207974e-03 6.495897684756669621e-01
9.230769230769230171e-01 6.108834210960553124e-01 5.673590362261546338e-02 7.896799326488271875e-01
1.025641025641025550e+00 4.597277751754799135e-01 7.940814434121382104e-02 8.844992508939707454e-01
1.128205128205128194e+00 3.245609249811897690e-01 7.734495426645722482e-02 9.426950979484743920e-01
1.230769230769230838e+00 2.164355525623030962e-01 5.752994325798850561e-02 9.745991126255628689e-01
1.333333333333333259e+00 1.389108005168903093e-01 2.961399599922965448e-02 9.898612150595484938e-01
1.435897435897435903e+00 8.913109231049845538e-02 2.681681874836257251e-03 9.960157917510348291e-01
1.538461538461538325e+00 6.019114068949464602e-02 -1.714523202206349323e-02 9.980392567016118655e-01
1.641025641025640969e+00 4.398829073556016073e-02 -2.767349247857894823e-02 9.986483912120996953e-01
1.743589743589743613e+00 3.362874497867582302e-02 -3.011990220689244810e-02 9.989801662533204230e-01
1.846153846153846034e+00 2.482047793689780291e-02 -2.764492826413649657e-02 9.993093924618215995e-01
1.948717948717948678e+00 1.603285273136608943e-02 -2.360180347575950230e-02 9.995926950860984928e-01
2.051282051282051100e+00 7.687964247056427655e-03 -2.026208202618526993e-02 9.997650091904402014e-01
2.153846153846153744e+00 9.336058611890130088e-04 -1.834316022195451451e-02 9.998311980367063923e-01
2.256410256410256387e+00 -3.436680188334645739e-03 -1.731682885210735628e-02 9.998440341372707429e-01
2.358974358974359031e+00 -5.484299447632456914e-03 -1.618400993317536604e-02 9.998538806320969030e-01
2.461538461538461675e+00 -6.018614861244445807e-03 -1.420454044803570043e-02 9.998808973462529615e-01
2.564102564102563875e+00 -6.100563639835378943e-03 -1.131914703194223000e-02 9.999172422743833888e-01
2.666666666666666519e+00 -6.494950868584958500e-03 -8.062740278125936008e-03 9.999463329669974199e-01
2.769230769230769162e+00 -7.378374071219565011e-03 -5.186889961079299560e-03 9.999592654932368818e-01
2.871794871794871806e+00 -8.396108217830395432e-03 -3.207435790103381826e-03 9.999595467745131527e-01
2.974358974358974450e+00 -9.011293245462969476e-03 -2.151499357391262711e-03 9.999570200384586549e-01
3.076923076923076650e+00 -8.852833916239128895e-03 -1.631304548288994155e-03 9.999594208208026913e-01
3.179487179487179294e+00 -7.955117730077317442e-03 -1.099334010978351029e-03 9.999676978627661805e-01
3.282051282051281937e+00 -6.698462790874809732e-03 -2.102330061338319317e-04 9.999774958824511062e-01
3.384615384615384581e+00 -5.579101422156500234e-03 1.060331274364492357e-03 9.999838339070965532e-01
3.487179487179487225e+00 -4.912809075535201978e-03 2.397633617721895479e-03 9.999850184576670742e-01
3.589743589743589425e+00 -4.699683997247839501e-03 3.404951283782098326e-03 9.999831180726735935e-01
3.692307692307692069e+00 -4.654329835416474298e-03 3.849288067262072836e-03 9.999817169900473424e-01
3.794871794871794712e+00 -4.425616851783637819e-03 3.773167049392342660e-03 9.999830469091394169e-01
3.897435897435897356e+00 -3.794369086297147073e-03 3.466058507744168050e-03 9.999867573306349122e-01
4.000000000000000000e+00 -2.814826811551083153e-03 3.268103911835229351e-03 9.999906662594307827e-01
