0.000000000000000000e+00 -1.732917427355665970e-12 -2.732678067626599790e-12 -1.000000000000000000e+00
1.025641025641025605e-01 -1.682081956416616453e-01 -2.639318919164961863e-01 -9.497610011932798857e-01
2.051282051282051211e-01 -3.229426836741751128e-01 -4.989249113687347914e-01 -8.042275522881001670e-01
3.076923076923077094e-01 -4.519682078811133596e-01 -6.790865504846286260e-01 -5.784169741242632945e-01
4.102564102564102422e-01 -5.454105344942364875e-01 -7.843026477857902856e-01 -2.956293382020385163e-01
5.128205128205127750e-01 -5.966502470901464683e-01 -8.023620007889824546e-01 1.495668266253234215e-02
6.153846153846154188e-01 -6.029067567363256552e-01 -7.302599642502822785e-01 3.212846515716000217e-01
7.179487179487179516e-01 -5.654625050481304482e-01 -5.745396937135838211e-01 5.917400574829306814e-01
8.205128205128204844e-01 -4.894951371169566356e-01 -3.506338514561414543e-01 7.984049178105919742e-01
9.230769230769230171e-01 -3.835495051023359858e-01 -8.128442921572914814e-02 9.199362036761695727e-01
1.025641025641025550e+00 -2.586904869970269583e-01 2.058237984255002762e-01 9.437774079053944387e-01
1.128205128205128194e+00 -1.274310504197960214e-01 4.809288743463971949e-01 8.674495636495967998e-01
1.230769230769230838e+00 -2.531897770041004886e-03 7.152989561709601762e-01 6.988139900814331895e-01
1.333333333333333259e+00 1.042098521894928437e-01 8.842378844437399632e-01 4.552621992103026982e-01
1.435897435897435903e+00 1.830590077676805261e-01 9.696746237204021401e-01 1.619275269377269677e-01
1.538461538461538325e+00 2.272314438613752541e-01 9.620788226839498414e-01 -1.508980136969488572e-01
1.641025641025640969e+00 2.334882136043777978e-01 8.614943063914904942e-01 -4.509000058737627215e-01
1.743589743589743613e+00 2.023741064586820626e-01 6.775773753679462663e-01 -7.070598429913104166e-01
1.846153846153846034e+00 1.380912810181685602e-01 4.286439639652986910e-01 -8.928578560357738336e-01
1.948717948717948678e+00 4.801601682835050788e-02 1.398087124161395967e-01 -9.890136434681361388e-01
2.051282051282051100e+00 -5.808553321532054781e-02 -1.595807501625599867e-01 -9.854745334043637506e-01
2.153846153846153744e+00 -1.690615397814027310e-01 -4.389613417862121003e-01 -8.824574408159924221e-01
2.256410256410256387e+00 -2.735019044774995578e-01 -6.697008426835726613e-01 -6.904328279529305945e-01
2.358974358974359031e+00 -3.608711783811471840e-01 -8.280619399128508196e-01 -4.290517643671353798e-01
2.461538461538461675e+00 -4.225401278153121387e-01 -8.976651544968808905e-01 -1.251283772796834837e-01
2.564102564102563875e+00 -4.526142461671736061e-01 -8.712010583073187542e-01 1.901290562303985243e-01
2.666666666666666519e+00 -4.484740779355390061e-01 -7.512133244717980052e-01 4.843031490151144536e-01
2.769230769230769162e+00 -4.109891699014618927e-01 -5.498571970327247316e-01 7.271485166478278694e-01
2.871794871794871806e+00 -3.443777550948077804e-01 -2.876844044077123130e-01 8.936675250465104803e-01
2.974358974358974450e+00 -2.557340042125406110e-01 8.457563555310222692e-03 9.667101861774448635e-01
3.076923076923076650e+00 -1.542764240617422178e-01 3.081765442990034298e-01 9.387363860563100459e-01
3.179487179487179294e+00 -5.039351868520687561e-02 5.806387819302375464e-01 8.126002077446285998e-01
3.282051282051281937e+00 4.541940566348666442e-02 7.977617077471851337e-01 6.012597901964419345e-01
3.384615384615384581e+00 1.236173645357042938e-01 9.370980149049950025e-01 3.264445594928793160e-01
3.487179487179487225e+00 1.765542834205630907e-01 9.841537891666125581e-01 1.642872936313990312e-02
3.589743589743589425e+00 1.992330594090678531e-01 9.338991727151844113e-01 -2.968813281396959769e-01
3.692307692307692069e+00 1.897779364390137780e-01 7.913015815827268984e-01 -5.812281314000780075e-01
3.794871794871794712e+00 1.495869526642539249e-01 5.708274128452636154e-01 -8.073288101313856879e-01
3.897435897435897356e+00 8.315509691254911739e-02 2.949740168323486400e-01 -9.518800116877154105e-01
4.000000000000000000e+00 -2.414838600362899899e-03 -8.030805718325923284e-03 -9.999648354766573766e-01
