0.000000000000000000e+00 9.395008506885940046e-13 -3.235820179076779378e-12 -1.000000000000000000e+00
5.128205128205128027e-02 2.237452234218599914e-02 -7.704172335790851478e-02 -9.967767822374757891e-01
1.025641025641025605e-01 4.463754230362421138e-02 -1.535773439075689695e-01 -9.871278991381504664e-01
1.538461538461538547e-01 6.667729514379396039e-02 -2.291018440831431857e-01 -9.711161018776379716e-01
2.051282051282051211e-01 8.838430759009478777e-02 -3.031183141762357480e-01 -9.488453518817202559e-01
2.564102564102563875e-01 1.096505027161672058e-01 -3.751399809080168124e-01 -9.204600816757426696e-01
3.076923076923077094e-01 1.303707889470001879e-01 -4.446931978515433759e-01 -8.861441288985260067e-01
3.589743589743589758e-01 1.504421430862153963e-01 -5.113181890343094782e-01 -8.461210735095583413e-01
4.102564102564102422e-01 1.697668704987019828e-01 -5.745772362388507082e-01 -8.006498667964304650e-01
4.615384615384615086e-01 1.882500037586399277e-01 -6.340522518880266079e-01 -7.500264515232449858e-01
5.128205128205127750e-01 2.058026882233005839e-01 -6.893520526787396685e-01 -6.945782900545687255e-01
5.641025641025640969e-01 2.223408113368373074e-01 -7.401109067911633144e-01 -6.346655885739074243e-01
6.153846153846154188e-01 2.377861833117722312e-01 -7.859942895874226787e-01 -5.706756589148129777e-01
6.666666666666666297e-01 2.520660936089898496e-01 -8.266956867929247110e-01 -5.030277585579163713e-01
7.179487179487179516e-01 2.651158963328992257e-01 -8.619471079778774358e-01 -4.321582401672902085e-01
7.692307692307691624e-01 2.768774155937012149e-01 -8.915142018308006566e-01 -3.585266024990217959e-01
8.205128205128204844e-01 2.872995293031297970e-01 -9.151995711978070380e-01 -2.826105539523430243e-01
8.717948717948718063e-01 2.963390211633988303e-01 -9.328439667101983135e-01 -2.049031923897904617e-01
9.230769230769230171e-01 3.039603340002822174e-01 -9.443276585503023179e-01 -1.259102403534962666e-01
9.743589743589743390e-01 3.101363433426273519e-01 -9.495715707516391157e-01 -4.614412935004677530e-02
1.025641025641025550e+00 3.148475005027972506e-01 -9.485374821842479376e-01 3.387766402691309853e-02
1.076923076923076872e+00 3.180840219631543286e-01 -9.412269367579216839e-01 1.136415793015051467e-01
1.128205128205128194e+00 3.198422133538437739e-01 -9.276845538421597537e-01 1.926196434134357927e-01
1.179487179487179516e+00 3.201285629491216755e-01 -9.079928727672937905e-01 2.703084276952149034e-01
1.230769230769230838e+00 3.189569516965207741e-01 -8.822782056946167906e-01 3.461959429452423631e-01
1.282051282051281937e+00 3.163498073509018460e-01 -8.507020414140592512e-01 4.197961842105301100e-01
1.333333333333333259e+00 3.123370449584536024e-01 -8.134669389906716841e-01 4.906292997142685519e-01
1.384615384615384581e+00 3.069569235984550559e-01 -7.708121380249862709e-01 5.582348026181835898e-01
1.435897435897435903e+00 3.002554080317557106e-01 -7.230142729374333666e-01 6.221712393193673529e-01
1.487179487179487225e+00 2.922846813624168649e-01 -6.703758623723438115e-01 6.820306946245946467e-01
1.538461538461538325e+00 2.831048918314615359e-01 -6.132408675242622120e-01 7.374193236782762284e-01
1.589743589743589647e+00 2.727821789440529887e-01 -5.519761424491572699e-01 7.879798355417129141e-01
1.641025641025640969e+00 2.613896480022866453e-01 -4.869816531940490689e-01 8.333812583343463976e-01
1.692307692307692291e+00 2.490047978317815880e-01 -4.186740451602167234e-01 8.733319269300310328e-01
1.743589743589743613e+00 2.357112313610047194e-01 -3.474968781418010799e-01 9.075715591801024607e-01
1.794871794871794712e+00 2.215970110776967206e-01 -2.739127305115524047e-01 9.358774390118853592e-01
1.846153846153846034e+00 2.067543291173677966e-01 -1.983964866583443343e-01 9.580665326839213902e-01
1.897435897435897356e+00 1.912788682940969043e-01 -1.214389605307073794e-01 9.739943394203743887e-01
1.948717948717948678e+00 1.752701516652794000e-01 -4.354230438768288969e-02 9.835570351305723547e-01
2.000000000000000000e+00 1.588286759244950386e-01 3.479022797960590330e-02 9.866930078261405557e-01
