0.000000000000000000e+00 -2.586287204053255008e-09 5.205662866344941326e-09 -1.000000000000000000e+00
5.128205128205128027e-02 3.079921099879294119e-02 -7.328428690231912623e-02 -9.968351057636739565e-01
1.025641025641025605e-01 6.171979839338412321e-02 -1.459195878728880569e-01 -9.873687096382686157e-01
1.538461538461538547e-01 9.285731712667320836e-02 -2.172616465896766713e-01 -9.716857026233870487e-01
2.051282051282051211e-01 1.243042016891826029e-01 -2.866837357181323820e-01 -9.499255137226356727e-01
2.564102564102563875e-01 1.561391198069976283e-01 -3.535733595290769804e-01 -9.222816043007395770e-01
3.076923076923077094e-01 1.884157750032714740e-01 -4.173482971964261878e-01 -8.889972400916996698e-01
3.589743589743589758e-01 2.211609920827636577e-01 -4.774541740486840657e-01 -8.503651237290814624e-01
4.102564102564102422e-01 2.543804707789133479e-01 -5.333763398821562696e-01 -8.067187323928473042e-01
4.615384615384615086e-01 2.880365738009668108e-01 -5.846509313109151673e-01 -7.584275745640026711e-01
5.128205128205127750e-01 3.220673339364957810e-01 -6.308495392520252487e-01 -7.059001360289713922e-01
5.641025641025640969e-01 3.563675731751210218e-01 -6.716064755871210545e-01 -6.495688857492946111e-01
6.153846153846154188e-01 3.907970435851787494e-01 -7.066098822645389133e-01 -5.898918616973553020e-01
6.666666666666666297e-01 4.251862750679041292e-01 -7.356063150399932971e-01 -5.273440359533482225e-01
7.179487179487179516e-01 4.593279535017483206e-01 -7.584157626095704430e-01 -4.624008793196661138e-01
7.692307692307691624e-01 4.929835473912536070e-01 -7.749107321770930534e-01 -3.955646705547369857e-01
8.205128205128204844e-01 5.258933020293279359e-01 -7.850449758808962786e-01 -3.273088151763457465e-01
8.717948717948718063e-01 5.577693124861258234e-01 -7.888325780617055916e-01 -2.581215408640607500e-01
9.230769230769230171e-01 5.883116213681403028e-01 -7.863580827650238358e-01 -1.884682780936162150e-01
9.743589743589743390e-01 6.172032610136422015e-01 -7.777755750563336568e-01 -1.188068569631372112e-01
1.025641025641025550e+00 6.441278825343437209e-01 -7.633042259390863116e-01 -4.955389281358182907e-02
1.076923076923076872e+00 6.687664753216752134e-01 -7.432261462674352170e-01 1.886624822226716860e-02
1.128205128205128194e+00 6.908137102377106542e-01 -7.178818716204511396e-01 8.609107970495748219e-02
1.179487179487179516e+00 7.099717174403703535e-01 -6.876702024298461113e-01 1.517880933260528642e-01
1.230769230769230838e+00 7.259725775025679395e-01 -6.530379423667329597e-01 2.156277052299682695e-01
1.282051282051281937e+00 7.385715404879418244e-01 -6.144770502722194383e-01 2.773449298947404662e-01
1.333333333333333259e+00 7.475655741575210067e-01 -5.725127943155272625e-01 3.366975744698751383e-01
1.384615384615384581e+00 7.527758060181553024e-01 -5.277123993935721735e-01 3.934958217153367577e-01
1.435897435897435903e+00 7.540869156856595534e-01 -4.806507806767849056e-01 4.475700298874988881e-01
1.487179487179487225e+00 7.514221854307941983e-01 -4.319260569471888855e-01 4.987946164039669394e-01
1.538461538461538325e+00 7.447518836883710858e-01 -3.821417702901225844e-01 5.470869950687817784e-01
1.589743589743589647e+00 7.341086503713387668e-01 -3.318933511858572216e-01 5.923879901188217056e-01
1.641025641025640969e+00 7.195702108703361244e-01 -2.817757027639222756e-01 6.346763199347299489e-01
1.692307692307692291e+00 7.012800130787878450e-01 -2.323564606267243260e-01 6.739510639382451096e-01
1.743589743589743613e+00 6.794197479672254847e-01 -1.841672820426850099e-01 7.102568636435852012e-01
1.794871794871794712e+00 6.542257585588687752e-01 -1.377263026884262831e-01 7.436491793855857235e-01
1.846153846153846034e+00 6.259824326895343516e-01 -9.349370022622371934e-02 7.742089156868265931e-01
1.897435897435897356e+00 5.950152398563954836e-01 -5.188810397103868488e-02 8.020344748697405546e-01
1.948717948717948678e+00 5.616807150550650052e-01 -1.326872332273559829e-02 8.272447563443525720e-01
2.000000000000000000e+00 5.263730667868685709e-01 2.205739982157453594e-02 8.499649451604059935e-01
