0.000000000000000000e+00 -1.113058676767517540e-09 1.504383464898090478e-09 -1.000000000000000000e+00
5.128205128205128027e-02 7.314375072762380192e-02 -1.485142544288018535e-02 -9.972104660172789181e-01
1.025641025641025605e-01 1.458615851090278026e-01 -2.950444659445024265e-02 -9.888642380423968703e-01
1.538461538461538547e-01 2.177139810924929031e-01 -4.378729181244876700e-02 -9.750288051059126104e-01
2.051282051282051211e-01 2.882763727202155013e-01 -5.752801271175780190e-02 -9.558160805393853821e-01
2.564102564102563875e-01 3.571421599652366830e-01 -7.055606242659315241e-02 -9.313794326886352115e-01
3.076923076923077094e-01 4.239145281207449822e-01 -8.271919593268250992e-02 -9.019143718132048848e-01
3.589743589743589758e-01 4.882227079299037431e-01 -9.386845252271880380e-02 -8.676531570976713237e-01
4.102564102564102422e-01 5.497142873876591507e-01 -1.038879879282477853e-01 -8.288639075409108825e-01
4.615384615384615086e-01 6.080666947414761214e-01 -1.126651648318909987e-01 -7.858463550593847158e-01
5.128205128205127750e-01 6.629839299214451698e-01 -1.201189140801613153e-01 -7.389289435578048071e-01
5.641025641025640969e-01 7.142055851300305180e-01 -1.261769056680690226e-01 -6.884629715002984485e-01
6.153846153846154188e-01 7.614985625738872610e-01 -1.308010060302492450e-01 -6.348241959385551025e-01
6.666666666666666297e-01 8.046749406106077362e-01 -1.339665210738834045e-01 -5.783953995333098730e-01
7.179487179487179516e-01 8.435773154754698799e-01 -1.356757478508378023e-01 -5.195755503237315942e-01
7.692307692307691624e-01 8.780841652356474736e-01 -1.359510482646193452e-01 -4.587748267385293732e-01
8.205128205128204844e-01 9.081179227954635502e-01 -1.348342318859002686e-01 -3.963961299357193213e-01
8.717948717948718063e-01 9.336358322931522791e-01 -1.323862054234945518e-01 -3.328451805135621000e-01
9.230769230769230171e-01 9.546328180594630952e-01 -1.286937578331015519e-01 -2.685174015928092350e-01
9.743589743589743390e-01 9.711397584005425632e-01 -1.238461322173094459e-01 -2.038060590705417785e-01
1.025641025641025550e+00 9.832236033592450797e-01 -1.179580836667363242e-01 -1.390835761481695465e-01
1.076923076923076872e+00 9.909845010895333983e-01 -1.111537452947899407e-01 -7.470910059846955220e-02
1.128205128205128194e+00 9.945555494205767788e-01 -1.035610966969849889e-01 -1.100842376120829934e-02
1.179487179487179516e+00 9.940968086654280444e-01 -9.532215240749941643e-02 5.169208268883895840e-02
1.230769230769230838e+00 9.897960528507254718e-01 -8.658009737597627264e-02 1.131132084414228772e-01
1.282051282051281937e+00 9.818635170850669169e-01 -7.747909513018857997e-02 1.729974997461371511e-01
1.333333333333333259e+00 9.705315048951904666e-01 -6.816140273795290305e-02 2.311059363053922233e-01
1.384615384615384581e+00 9.560489818382746918e-01 -5.876953346786772947e-02 2.872352047171546907e-01
1.435897435897435903e+00 9.386778386862694168e-01 -4.943783858032585465e-02 3.412150244024527712e-01
1.487179487179487225e+00 9.186920878256434886e-01 -4.029400799504073705e-02 3.928988392222368398e-01
1.538461538461538325e+00 8.963712073979259731e-01 -3.145762152287767677e-02 4.421738386741225213e-01
1.589743589743589647e+00 8.720002981371103301e-01 -2.303449676847846295e-02 4.889519107049040136e-01
1.641025641025640969e+00 8.458627204027260316e-01 -1.512090110965708112e-02 5.331764578787012709e-01
1.692307692307692291e+00 8.182452785487893676e-01 -7.797693799374616486e-03 5.748076314144138221e-01
1.743589743589743613e+00 7.894192934800996486e-01 -1.130365938795230285e-03 6.138455402262572580e-01
1.794871794871794712e+00 7.596626454403553330e-01 4.822945377067733297e-03 6.502924885570020574e-01
1.846153846153846034e+00 7.292201888724212377e-01 1.002596714987213922e-02 6.841994290241475429e-01
1.897435897435897356e+00 6.983537911124828579e-01 1.445355446650659070e-02 7.156010958533044475e-01
1.948717948717948678e+00 6.672835918184647497e-01 1.809081864913517079e-02 7.445788291335661002e-01
2.000000000000000000e+00 6.362267471337746949e-01 2.094878045037731895e-02 7.712130465991234862e-01
