0.000000000000000000e+00 -2.157887217035188956e-09 -2.096325178356909495e-09 -1.000000000000000000e+00
5.128205128205128027e-02 -7.578472456127645362e-02 -1.971344058322453685e-02 -9.969286549184555035e-01
1.025641025641025605e-01 -1.510408279611975824e-01 -3.941586245487974094e-02 -9.877400857656220001e-01
1.538461538461538547e-01 -2.252431738836121744e-01 -5.903822262511446151e-02 -9.725102025460260480e-01
2.051282051282051211e-01 -2.978775265917956716e-01 -7.854504582850543870e-02 -9.513644641880415476e-01
2.564102564102563875e-01 -3.684465783126905647e-01 -9.788806116168208282e-02 -9.244773078600146965e-01
3.076923076923077094e-01 -4.364794069912885099e-01 -1.170200639996550329e-01 -8.920671396031540912e-01
3.589743589743589758e-01 -5.015259876646538384e-01 -1.358902630532229372e-01 -8.543978795461427689e-01
4.102564102564102422e-01 -5.631719719329051355e-01 -1.544408711227666375e-01 -8.117721593225777355e-01
4.615384615384615086e-01 -6.210374627516808133e-01 -1.726096887506494704e-01 -7.645296535223223833e-01
5.128205128205127750e-01 -6.747821335607413484e-01 -1.903298724806606335e-01 -7.130423261487902620e-01
5.641025641025640969e-01 -7.241086017060688329e-01 -2.075270447914747129e-01 -6.577108709231431760e-01
6.153846153846154188e-01 -7.687665951139812659e-01 -2.241271196234677632e-01 -5.989557442665199849e-01
6.666666666666666297e-01 -8.085495779440963204e-01 -2.400441351754011299e-01 -5.372226629967161715e-01
7.179487179487179516e-01 -8.433049005802342180e-01 -2.551951346465448078e-01 -4.729618858294206696e-01
7.692307692307691624e-01 -8.729243896210903131e-01 -2.694870796522428336e-01 -4.066440852014443497e-01
8.205128205128204844e-01 -8.973555011274598758e-01 -2.828348840012104293e-01 -3.387275905566221601e-01
8.717948717948718063e-01 -9.165900566318960774e-01 -2.951404380139523442e-01 -2.696905721887327134e-01
9.230769230769230171e-01 -9.306756285340029855e-01 -3.063185688513200278e-01 -1.999736054634708160e-01
9.743589743589743390e-01 -9.396997427856571550e-01 -3.162776273158362517e-01 -1.300389813527522698e-01
1.025641025641025550e+00 -9.437997423238395633e-01 -3.249330162828188984e-01 -6.031293037941692914e-02
1.076923076923076872e+00 -9.431530636061882245e-01 -3.322076909920697596e-01 8.795432272641645968e-03
1.128205128205128194e+00 -9.379776360882995379e-01 -3.380282270798483646e-01 7.688933265496682157e-02
1.179487179487179516e+00 -9.285259726253806134e-01 -3.423316830521521137e-01 1.436170577268906234e-01
1.230769230769230838e+00 -9.150827444585307724e-01 -3.450646935430096152e-01 2.086424222428955033e-01
1.282051282051281937e+00 -8.979619426290231798e-01 -3.461848027051681598e-01 2.716590875105464598e-01
1.333333333333333259e+00 -8.774976630544750744e-01 -3.456653492907821312e-01 3.324035160692843105e-01
1.384615384615384581e+00 -8.540436687961248108e-01 -3.434900387063375415e-01 3.906449374802953289e-01
1.435897435897435903e+00 -8.279648476765872900e-01 -3.396603024423205386e-01 4.461898025589716155e-01
1.487179487179487225e+00 -7.996398437867683340e-01 -3.341906749109096464e-01 4.988725997123640288e-01
1.538461538461538325e+00 -7.694469468981837146e-01 -3.271150184085392931e-01 5.485701091610628577e-01
1.589743589743589647e+00 -7.377623626973373039e-01 -3.184822938688953720e-01 5.951962878921369660e-01
1.641025641025640969e+00 -7.049588051850730341e-01 -3.083561707333670188e-01 6.386966719448856633e-01
1.692307692307692291e+00 -6.714014183260843538e-01 -2.968134733411034731e-01 6.790484448441792553e-01
1.743589743589743613e+00 -6.374380709662230693e-01 -2.839538134688860405e-01 7.162602706953705711e-01
1.794871794871794712e+00 -6.033989953188529931e-01 -2.698813529080550944e-01 7.503735768576946796e-01
1.846153846153846034e+00 -5.695959773772204526e-01 -2.547257411109056235e-01 7.814492498853334856e-01
1.897435897435897356e+00 -5.363096608429738232e-01 -2.386135226670261511e-01 8.095827161334937516e-01
1.948717948717948678e+00 -5.038057458231623986e-01 -2.216896332624205268e-01 8.348790260105448668e-01
2.000000000000000000e+00 -4.723120599343196835e-01 -2.041065941080275059e-01 8.574684685940928697e-01
