0.000000000000000000e+00 1.777648513532413324e-09 -2.716996335524025469e-09 -1.000000000000000000e+00
5.128205128205128027e-02 -2.049562305263794709e-03 7.665283925684550359e-02 -9.970552960575080892e-01
1.025641025641025605e-01 -4.454944533049287614e-03 1.528036983596565423e-01 -9.882456469056239978e-01
1.538461538461538547e-01 -7.533599303152102578e-03 2.279402535218682802e-01 -9.736446362293750267e-01
2.051282051282051211e-01 -1.160434948565178259e-02 3.015644505950316745e-01 -9.533733187290508448e-01
2.564102564102563875e-01 -1.696105993108751320e-02 3.731852910743851948e-01 -9.275993504447594962e-01
3.076923076923077094e-01 -2.388280612129345393e-02 4.423259067421029256e-01 -8.965332643116386002e-01
3.589743589743589758e-01 -3.260290580960450990e-02 5.085184672656519744e-01 -8.604298468354624196e-01
4.102564102564102422e-01 -4.332453705408303990e-02 5.713212020026555704e-01 -8.195776680119912783e-01
4.615384615384615086e-01 -5.620642349167331853e-02 6.303049607406862043e-01 -7.743048440305613234e-01
5.128205128205127750e-01 -7.136081372282979118e-02 6.850710640126376205e-01 -7.249660384922844703e-01
5.641025641025640969e-01 -8.884989380693725236e-02 7.352449527350962688e-01 -6.719450218441016531e-01
6.153846153846154188e-01 -1.086903168410030540e-01 7.804887721834474767e-01 -6.156397236042630006e-01
6.666666666666666297e-01 -1.308318655127117536e-01 8.204886898711010179e-01 -5.564792375532119362e-01
7.179487179487179516e-01 -1.551876091521465217e-01 8.549756784396052023e-01 -4.948945581532928628e-01
7.692307692307691624e-01 -1.816086828058074976e-01 8.837292445512097139e-01 -4.313087918508122232e-01
8.205128205128204844e-01 -2.099024743697120998e-01 9.065521216733786192e-01 -3.661830475140178676e-01
8.717948717948718063e-01 -2.398184428060999296e-01 9.233154524518027984e-01 -2.999349364395040296e-01
9.230769230769230171e-01 -2.710721392805591767e-01 9.339226259515104323e-01 -2.330091333857371716e-01
9.743589743589743390e-01 -3.033266925591160401e-01 9.383385246490971721e-01 -1.658263293347098100e-01
1.025641025641025550e+00 -3.362249985503485417e-01 9.365801643328167669e-01 -9.876609667617007593e-02
1.076923076923076872e+00 -3.693676678677718650e-01 9.287158408732912873e-01 -3.222905785536731710e-02
1.128205128205128194e+00 -4.023398292462786463e-01 9.148711713262996925e-01 3.343200632684380225e-02
1.179487179487179516e+00 -4.347098603224089364e-01 8.952270477275774407e-01 9.787875595368823733e-02
1.230769230769230838e+00 -4.660351104624255170e-01 8.700182688595614611e-01 1.608230952983766004e-01
1.282051282051281937e+00 -4.958762506535098757e-01 8.395347048094612408e-01 2.219754297618643235e-01
1.333333333333333259e+00 -5.237978031732094530e-01 8.041198693738472736e-01 2.810911501207301044e-01
1.384615384615384581e+00 -5.493789095330916528e-01 7.641601290717865425e-01 3.379757902203549547e-01
1.435897435897435903e+00 -5.722234002162212008e-01 7.200939926355366394e-01 3.924423204132377330e-01
1.487179487179487225e+00 -5.919640442659814816e-01 6.723978712137841374e-01 4.443491674200150676e-01
1.538461538461538325e+00 -6.082700737503320410e-01 6.215899452140372095e-01 4.935793022386421591e-01
1.589743589743589647e+00 -6.208570810928120132e-01 5.682129196237698521e-01 5.400538112784304401e-01
1.641025641025640969e+00 -6.294811303321208307e-01 5.128363009422998164e-01 5.837299007423042418e-01
1.692307692307692291e+00 -6.339612924171864616e-01 4.560530656623642543e-01 6.245778530648784521e-01
1.743589743589743613e+00 -6.341722773458277063e-01 3.984587792780960314e-01 6.626050828775867929e-01
1.794871794871794712e+00 -6.300389119933383908e-01 3.406585564527833121e-01 6.978486519250535203e-01
1.846153846153846034e+00 -6.215672934560273477e-01 2.832503845135224685e-01 7.303518980839536212e-01
1.897435897435897356e+00 -6.088060357088734831e-01 2.268211624286000927e-01 7.601963871167906062e-01
1.948717948717948678e+00 -5.918861938675604728e-01 1.719434640841690232e-01 7.874629477390632237e-01
2.000000000000000000e+00 -5.709835142088867110e-01 1.191514158366934611e-01 8.122641379208334067e-01
