0.000000000000000000e+00 -3.027146268686055821e-09 2.558870937846591121e-09 -1.000000000000000000e+00
5.128205128205128027e-02 -1.368269308687194985e-02 -7.710510793218383618e-02 -9.969287503199367739e-01
1.025641025641025605e-01 -2.709248385277000098e-02 -1.537223706196002848e-01 -9.877419417862667306e-01
1.538461538461538547e-01 -3.998346560001220240e-02 -2.293594319967919293e-01 -9.725192142752573377e-01
2.051282051282051211e-01 -5.210595608657098143e-02 -3.035359522382061193e-01 -9.513927915134745561e-01
2.564102564102563875e-01 -6.322717558300308682e-02 -3.757864070718726079e-01 -9.245450356006222892e-01
3.076923076923077094e-01 -7.313132816613626686e-02 -4.456642901108598953e-01 -8.922057061659004473e-01
3.589743589743589758e-01 -8.162926774980744371e-02 -5.127430333717415412e-01 -8.546498537658759886e-01
4.102564102564102422e-01 -8.854933288605658370e-02 -5.766244188858899999e-01 -8.121931155722686979e-01
4.615384615384615086e-01 -9.375476898248998048e-02 -6.369382844709922109e-01 -7.651883712849039121e-01
5.128205128205127750e-01 -9.713966230325565832e-02 -6.933467582315241406e-01 -7.140217236170380843e-01
5.641025641025640969e-01 -9.862590615965691199e-02 -7.455514746099773937e-01 -6.591040010174108454e-01
6.153846153846154188e-01 -9.817606398190020789e-02 -7.932933816879396138e-01 -6.008648177280555558e-01
6.666666666666666297e-01 -9.578207465975097090e-02 -8.363430134178853059e-01 -5.397657160882456395e-01
7.179487179487179516e-01 -9.147015889772752706e-02 -8.745295441626281807e-01 -4.762579775287798522e-01
7.692307692307691624e-01 -8.529961475470698717e-02 -9.077165433790886917e-01 -4.108095588984107538e-01
8.205128205128204844e-01 -7.736425916046124618e-02 -9.358098994145493954e-01 -3.438954041459512667e-01
8.717948717948718063e-01 -6.778129201391963621e-02 -9.587686893327822535e-01 -2.759662353228968246e-01
9.230769230769230171e-01 -5.670086150905101485e-02 -9.765884619607101413e-01 -2.074820934410686324e-01
9.743589743589743390e-01 -4.429353720169404429e-02 -9.893132633343660887e-01 -1.388740065643623012e-01
1.025641025641025550e+00 -3.074856929112179671e-02 -9.970276998140121805e-01 -7.056053337798635916e-02
1.076923076923076872e+00 -1.627231779250198906e-02 -9.998575122196040610e-01 -2.938638410213337618e-03
1.128205128205128194e+00 -1.085088391387767359e-03 -9.979679570558628310e-01 6.361809164953852180e-02
1.179487179487179516e+00 1.458793915645761885e-02 -9.915585571975504831e-01 1.287922062377352683e-01
1.230769230769230838e+00 3.051743454383776255e-02 -9.808645882037597685e-01 1.922553426219403283e-01
1.282051282051281937e+00 4.647640400638025637e-02 -9.661478642962326724e-01 2.537464398440275604e-01
1.333333333333333259e+00 6.223490270348452924e-02 -9.477005641476404785e-01 3.130171527387740626e-01
1.384615384615384581e+00 7.758086277703007960e-02 -9.258300755457150588e-01 3.698776545149145001e-01
1.435897435897435903e+00 9.231295663786820427e-02 -9.008706802516577294e-01 4.241465387169759960e-01
1.487179487179487225e+00 1.062396097098787795e-01 -8.731617050378538414e-01 4.757017705880114966e-01
1.538461538461538325e+00 1.191964209699052923e-01 -8.430599805991136897e-01 5.244356926458300094e-01
1.589743589743589647e+00 1.310302093049992012e-01 -8.109197711549605003e-01 5.702906488206215263e-01
1.641025641025640969e+00 1.416200888459273055e-01 -7.771023129435231658e-01 6.132270395399069818e-01
1.692307692307692291e+00 1.508602027618088370e-01 -7.419628832261997431e-01 6.532414951400006276e-01
1.743589743589743613e+00 1.586797686207001845e-01 -7.058529317233204203e-01 6.903513568411322465e-01
1.794871794871794712e+00 1.650189290580507673e-01 -6.691067879321640488e-01 7.246087794383007097e-01
1.846153846153846034e+00 1.698636721262374027e-01 -6.320484534405989008e-01 7.560783732442739602e-01
1.897435897435897356e+00 1.732025520701625798e-01 -5.949790278875550786e-01 7.848533243138007265e-01
1.948717948717948678e+00 1.750566595569632566e-01 -5.581918325699850580e-01 8.110310423408901848e-01
2.000000000000000000e+00 1.754760413568079713e-01 -5.219442380121501746e-01 8.347317648086043373e-01
