0.000000000000000000e+00 -1.906774380520530380e-09 3.375287632576998298e-09 -1.000000000000000000e+00
5.128205128205128027e-02 5.369198709952139464e-02 -5.959218633464912623e-02 -9.967774396214900134e-01
1.025641025641025605e-01 1.072464382601221039e-01 -1.185475670756961364e-01 -9.871389662920235786e-01
1.538461538461538547e-01 1.604985590912938465e-01 -1.762522325360785791e-01 -9.711711167668580780e-01
2.051282051282051211e-01 2.132929222008065340e-01 -2.320990075172788270e-01 -9.490170822469330414e-01
2.564102564102563875e-01 2.654688674230264445e-01 -2.855011721598874619e-01 -9.208755783804761785e-01
3.076923076923077094e-01 3.168541744347187494e-01 -3.359111568644663759e-01 -8.869965341498001754e-01
3.589743589743589758e-01 3.672722398031481594e-01 -3.828205816450107601e-01 -8.476758991649422370e-01
4.102564102564102422e-01 4.165338923529763870e-01 -4.257583726687574344e-01 -8.032580290878273965e-01
4.615384615384615086e-01 4.644412792632326425e-01 -4.643103116309350575e-01 -7.541243966562778400e-01
5.128205128205127750e-01 5.107933085592020195e-01 -4.981163844856968947e-01 -7.006873888443528875e-01
5.641025641025640969e-01 5.553668176956704228e-01 -5.268767510138201438e-01 -6.433975902683400916e-01
6.153846153846154188e-01 5.979425180696158471e-01 -5.503573157149599382e-01 -5.827201605806142659e-01
6.666666666666666297e-01 6.382893083757896768e-01 -5.683885096408722859e-01 -5.191453589652261780e-01
7.179487179487179516e-01 6.761804216051421346e-01 -5.808765420458925632e-01 -4.531583400662998473e-01
7.692307692307691624e-01 7.113794845471160810e-01 -5.877877766065776610e-01 -3.852717678360748077e-01
8.205128205128204844e-01 7.436627712524721545e-01 -5.891648420031401212e-01 -3.159740472602499128e-01
8.717948717948718063e-01 7.728046873783253057e-01 -5.851156287593370919e-01 -2.457669839557461433e-01
9.230769230769230171e-01 7.985978641040218928e-01 -5.758120069255271423e-01 -1.751300491863556907e-01
9.743589743589743390e-01 8.208451232559823563e-01 -5.614948343873089609e-01 -1.045237187776561771e-01
1.025641025641025550e+00 8.393704471321947747e-01 -5.424595974405861387e-01 -3.439754234085760920e-02
1.076923076923076872e+00 8.540226336604878066e-01 -5.190560712187100023e-01 3.484940320737422992e-02
1.128205128205128194e+00 8.646752944307878330e-01 -4.916831532435844698e-01 1.028238429268271137e-01
1.179487179487179516e+00 8.712343785410464614e-01 -4.607813462478519972e-01 1.691739170972124673e-01
1.230769230769230838e+00 8.736393413178195066e-01 -4.268288219703114672e-01 2.335814167714860834e-01
1.282051282051281937e+00 8.718709924139430578e-01 -3.903263793288347383e-01 2.957622550943433404e-01
1.333333333333333259e+00 8.659395525357804768e-01 -3.517980093870136660e-01 3.554943579136403686e-01
1.384615384615384581e+00 8.559098547015724368e-01 -3.117820662880250726e-01 4.125530646480842223e-01
1.435897435897435903e+00 8.418745546471003705e-01 -2.708181420485836211e-01 4.667922690255559282e-01
1.487179487179487225e+00 8.239827305797330359e-01 -2.294360112104142368e-01 5.180755074001074378e-01
1.538461538461538325e+00 8.024169668892560114e-01 -1.881635222379270389e-01 5.663148681363827652e-01
1.589743589743589647e+00 7.773986261636730566e-01 -1.475019311302760983e-01 6.114621699105831087e-01
1.641025641025640969e+00 7.491872048448869892e-01 -1.079306215055509943e-01 6.534994674458219910e-01
1.692307692307692291e+00 7.180813168343670450e-01 -6.988713429147974665e-02 6.924359597017197832e-01
1.743589743589743613e+00 6.844141400078501691e-01 -3.377621972214175927e-02 7.283058770031769491e-01
1.794871794871794712e+00 6.485302324830077847e-01 4.169236009624044392e-05 7.611846163866506920e-01
1.846153846153846034e+00 6.108118423304426114e-01 3.125798968737211747e-02 7.911546971813391282e-01
1.897435897435897356e+00 5.716443095535630459e-01 5.961341196657109209e-02 8.183296961250073887e-01
1.948717948717948678e+00 5.314385199777130753e-01 8.491200816049415678e-02 8.428273082515822523e-01
2.000000000000000000e+00 4.905907642252591017e-01 1.069986819092968999e-01 8.647931696702225723e-01
