0.000000000000000000e+00 -1.432851025643105201e-09 -1.154751488805772454e-09 -1.000000000000000000e+00
5.128205128205128027e-02 7.873064018781573969e-02 1.098700334524992800e-02 -9.968349947846881776e-01
1.025641025641025605e-01 1.568892987379557347e-01 2.210182341117940957e-02 -9.873680921301452029e-01
1.538461538461538547e-01 2.339070698176270446e-01 3.344170237021155956e-02 -9.716824839854321105e-01
2.051282051282051211e-01 3.092271902287898611e-01 4.510486569872142193e-02 -9.499163118937782313e-01
2.564102564102563875e-01 3.823140322886944276e-01 5.718614515177311564e-02 -9.222590487125904568e-01
3.076923076923077094e-01 4.526506040345731341e-01 6.976404480904394023e-02 -8.889519527945336508e-01
3.589743589743589758e-01 5.197512200032888829e-01 8.290107130824928006e-02 -8.502825255382855385e-01
4.102564102564102422e-01 5.831690252728796153e-01 9.663721577019704356e-02 -8.065782677618097418e-01
4.615384615384615086e-01 6.424885934442172708e-01 1.109974861163988413e-01 -7.582087093123537347e-01
5.128205128205127750e-01 6.973398197601273774e-01 1.259788916628045707e-01 -7.055764648405664641e-01
5.641025641025640969e-01 7.473988370651286628e-01 1.415635397515532801e-01 -6.491113848408689435e-01
6.153846153846154188e-01 7.923916721688631926e-01 1.577012708992522327e-01 -5.892671980117301089e-01
6.666666666666666297e-01 8.320982011995835537e-01 1.743231460362640872e-01 -5.265106119958958830e-01
7.179487179487179516e-01 8.663475279697570031e-01 1.913406437469896137e-01 -4.613235649643816494e-01
7.692307692307691624e-01 8.950226723180363386e-01 2.086385067042765273e-01 -3.941986245344739626e-01
8.205128205128204844e-01 9.180654469019596808e-01 2.260861738054936176e-01 -3.256202953078370932e-01
8.717948717948718063e-01 9.354706192722348490e-01 2.435368045043888596e-01 -2.560700435366598526e-01
9.230769230769230171e-01 9.472860751036881188e-01 2.608308247970272387e-01 -1.860199396699226404e-01
9.743589743589743390e-01 9.536144918341343812e-01 2.777935111490522080e-01 -1.159181260638911248e-01
1.025641025641025550e+00 9.546038214217720252e-01 2.942500801915294839e-01 -4.620798935861016726e-02
1.076923076923076872e+00 9.504541028532449420e-01 3.100132555166714154e-01 2.270499417039376425e-02
1.128205128205128194e+00 9.414060975378051310e-01 3.249041247637764473e-01 9.043593975760770565e-02
1.179487179487179516e+00 9.277408807147098369e-01 3.387454670460238182e-01 1.566374698125756471e-01
1.230769230769230838e+00 9.097762296282370098e-01 3.513646714506446500e-01 2.209914863988591827e-01
1.282051282051281937e+00 8.878585735695634362e-01 3.626047748110657887e-01 2.832180191550156545e-01
1.333333333333333259e+00 8.623644086431621059e-01 3.723211374056016876e-01 3.430633239417272273e-01
1.384615384615384581e+00 8.336862701892175931e-01 3.803831723598873893e-01 4.003299637693286117e-01
1.435897435897435903e+00 8.022317205095371717e-01 3.866888658735602724e-01 4.548458561262991307e-01
1.487179487179487225e+00 7.684254992674384166e-01 3.911512423618619394e-01 5.064702661185925825e-01
1.538461538461538325e+00 7.326863704663073573e-01 3.937109757290164769e-01 5.551143954422832483e-01
1.589743589743589647e+00 6.954387785597185845e-01 3.943313665527609646e-01 6.007144319347224037e-01
1.641025641025640969e+00 6.570945321260837080e-01 3.930031344261457615e-01 6.432465102588599271e-01
1.692307692307692291e+00 6.180640752753143730e-01 3.897453980879402313e-01 6.827053410484708040e-01
1.743589743589743613e+00 5.787293125541072003e-01 3.846000812151751380e-01 7.191293014706305886e-01
1.794871794871794712e+00 5.394628871761876221e-01 3.776336181968270034e-01 7.525723204502651198e-01
1.846153846153846034e+00 5.006085181337468493e-01 3.689396040645722685e-01 7.831140637044291530e-01
1.897435897435897356e+00 4.624833155228569859e-01 3.586326763489205982e-01 8.108546440432594649e-01
1.948717948717948678e+00 4.253718214912776685e-01 3.468410674120857573e-01 8.359151049107146347e-01
2.000000000000000000e+00 3.895292588244091414e-01 3.337170078250443206e-01 8.584255252171556494e-01
