0.000000000000000000e+00 -1.693815863398030259e-09 -1.797563582005033660e-09 -1.000000000000000000e+00
5.128205128205128027e-02 -4.470747006167352655e-02 6.230052355484427817e-02 -9.970553490875765368e-01
1.025641025641025605e-01 -8.946094598154639976e-02 1.239536286462473436e-01 -9.882465341383285251e-01
1.538461538461538547e-01 -1.342855261279836121e-01 1.843226578292996298e-01 -9.736482986528960382e-01
2.051282051282051211e-01 -1.792005676834840799e-01 2.427795353038161852e-01 -9.533850976533615462e-01
2.564102564102563875e-01 -2.242087970181333434e-01 2.987211613117429221e-01 -9.276278581750310170e-01
3.076923076923077094e-01 -2.692958419292515448e-01 3.515680256961358774e-01 -8.965915561783769361e-01
3.589743589743589758e-01 -3.144178996973224227e-01 4.007693174756942756e-01 -8.605356078269855713e-01
4.102564102564102422e-01 -3.595037615649414042e-01 4.458202916372844826e-01 -8.197541603273746924e-01
4.615384615384615086e-01 -4.044489901959573697e-01 4.862529086067344797e-01 -7.745799329387816901e-01
5.128205128205127750e-01 -4.491183069918904258e-01 5.216506865433093720e-01 -7.253741704857541439e-01
5.641025641025640969e-01 -4.933401351407718516e-01 5.516557181456394066e-01 -6.725215624831966110e-01
6.153846153846154188e-01 -5.369064301749648660e-01 5.759628120928784734e-01 -6.164345972754740055e-01
6.666666666666666297e-01 -5.795849101407960502e-01 5.943350158678608608e-01 -5.575302282325034220e-01
7.179487179487179516e-01 -6.210989485037208269e-01 6.066027752461773392e-01 -4.962473768604960256e-01
7.692307692307691624e-01 -6.611602400528933110e-01 6.126583157479541519e-01 -4.330228888138529797e-01
8.205128205128204844e-01 -6.994423927299338040e-01 6.124789303596215317e-01 -3.682953212676790544e-01
8.717948717948718063e-01 -7.356110364758015052e-01 6.061014196265647191e-01 -3.025041427419647433e-01
9.230769230769230171e-01 -7.693173617889494942e-01 5.936456553509122935e-01 -2.360649048314964749e-01
9.743589743589743390e-01 -8.002039678154877489e-01 5.752984764356239289e-01 -1.693990322304642915e-01
1.025641025641025550e+00 -8.279152765045426632e-01 5.513225020603880200e-01 -1.029101749652913123e-01
1.076923076923076872e+00 -8.521119225961868437e-01 5.220442484255120030e-01 -3.695610321375868146e-02
1.128205128205128194e+00 -8.724638449735627743e-01 4.878602323068057522e-01 2.810489251541080022e-02
1.179487179487179516e+00 -8.886681208085024375e-01 4.492254334067098953e-01 9.195746046046683608e-02
1.230769230769230838e+00 -9.004519434693672997e-01 4.066509101077261934e-01 1.543118607575149626e-01
1.282051282051281937e+00 -9.075866331132602660e-01 3.606994563189311331e-01 2.148797868198734640e-01
1.333333333333333259e+00 -9.098824359310024867e-01 3.119695171990422011e-01 2.734594933464902233e-01
1.384615384615384581e+00 -9.072101901209257413e-01 2.610912649449012024e-01 3.298369475428062914e-01
1.435897435897435903e+00 -8.994926985248878903e-01 2.087280717123941032e-01 3.838452134331786225e-01
1.487179487179487225e+00 -8.867113367662926571e-01 1.555493012682395704e-01 4.353614223020815244e-01
1.538461538461538325e+00 -8.689262571751809050e-01 1.022403720455788978e-01 4.842585188640587956e-01
1.589743589743589647e+00 -8.462460810104306397e-01 4.946418635270599662e-02 5.304841448862324116e-01
1.641025641025640969e+00 -8.188513405704320736e-01 -2.112124870427112278e-03 5.739955932202542854e-01
1.692307692307692291e+00 -7.869987000866796034e-01 -5.186368693409521002e-02 6.147653432325936862e-01
1.743589743589743613e+00 -7.509981997069807846e-01 -9.919333533139562675e-02 6.528061910856313155e-01
1.794871794871794712e+00 -7.112197873271248749e-01 -1.435476766745374944e-01 6.881528905412374053e-01
1.846153846153846034e+00 -6.680920612407762471e-01 -1.844289334172490580e-01 7.208559527088991281e-01
1.897435897435897356e+00 -6.220929356541640143e-01 -2.214043154971472582e-01 7.509828108139195990e-01
1.948717948717948678e+00 -5.737416057151937254e-01 -2.540989519419692977e-01 7.786201213197887494e-01
2.000000000000000000e+00 -5.235813387756302895e-01 -2.822232531014077228e-01 8.038706282508228940e-01
