0.000000000000000000e+00 1.372589412216593169e-09 -2.866989639859519390e-09 -1.000000000000000000e+00
5.128205128205128027e-02 7.473839803054391218e-02 -2.707841742925177347e-02 -9.968350093385599520e-01
1.025641025641025605e-01 1.490294190513369033e-01 -5.379284853029407676e-02 -9.873676089975245151e-01
1.538461538461538547e-01 2.224073173141123128e-01 -7.980961277273369847e-02 -9.716803676622710606e-01
2.051282051282051211e-01 2.944256481217063515e-01 -1.047961455154668431e-01 -9.499092909767767878e-01
2.564102564102563875e-01 3.646475998258607021e-01 -1.284338257371188674e-01 -9.222430488328990927e-01
3.076923076923077094e-01 4.326537630403257118e-01 -1.504286642740731983e-01 -8.889186019819675932e-01
3.589743589743589758e-01 4.980386213478646407e-01 -1.705080957261900787e-01 -8.502222169034808763e-01
4.102564102564102422e-01 5.604252162414543603e-01 -1.884370415292921097e-01 -8.064783251024847388e-01
4.615384615384615086e-01 6.194578923969507045e-01 -2.040081276543222466e-01 -7.580526471708952663e-01
5.128205128205127750e-01 6.748092844098595444e-01 -2.170548632343042850e-01 -7.053437826792943177e-01
5.641025641025640969e-01 7.261819701933628357e-01 -2.274505421567951380e-01 -6.487798730936409353e-01
6.153846153846154188e-01 7.733166256962581420e-01 -2.351057575610228101e-01 -5.888081531933697654e-01
6.666666666666666297e-01 8.159827131757066976e-01 -2.399765600687745470e-01 -5.259001833774091805e-01
7.179487179487179516e-01 8.539899208158392430e-01 -2.420610150621303469e-01 -4.605371576935840539e-01
7.692307692307691624e-01 8.871880351526900688e-01 -2.413983717285225206e-01 -3.932052690427372821e-01
8.205128205128204844e-01 9.154690985209836818e-01 -2.380668435835522900e-01 -3.243857384831754787e-01
8.717948717948718063e-01 9.387610309123184393e-01 -2.321848825152194040e-01 -2.545644584855588644e-01
9.230769230769230171e-01 9.570337395008124970e-01 -2.239051308375088478e-01 -1.842220520177132448e-01
9.743589743589743390e-01 9.703034434937831687e-01 -2.134127277977314607e-01 -1.138018945159829237e-01
1.025641025641025550e+00 9.786221039234936914e-01 -2.009207725180907067e-01 -4.375071044971318851e-02
1.076923076923076872e+00 9.820838024059022064e-01 -1.866674104859809002e-01 2.551793270609850270e-02
1.128205128205128194e+00 9.808192119035913370e-01 -1.709146908236937046e-01 9.362920546087578899e-02
1.179487179487179516e+00 9.749988874868384947e-01 -1.539283908136567236e-01 1.602123625874458945e-01
1.230769230769230838e+00 9.648255405519969852e-01 -1.360008717468603745e-01 2.249454274871461323e-01
1.282051282051281937e+00 9.505347648104031100e-01 -1.174118094896493547e-01 2.875474032097967703e-01
1.333333333333333259e+00 9.323910035270690511e-01 -9.845419686404166537e-02 3.477637159532929179e-01
1.384615384615384581e+00 9.106847647383932154e-01 -7.941270724978150009e-02 4.053803121320151970e-01
1.435897435897435903e+00 8.857292343108539301e-01 -6.055915848082155106e-02 4.602207586234204340e-01
1.487179487179487225e+00 8.578555798458971093e-01 -4.215565780741792334e-02 5.121465521789794195e-01
1.538461538461538325e+00 8.274101252020005237e-01 -2.444481236894474607e-02 5.610551808326198486e-01
1.589743589743589647e+00 7.947483744844979769e-01 -7.643817273549069480e-03 6.068815665349525101e-01
1.641025641025640969e+00 7.602339400366432409e-01 8.042647889458687249e-03 6.495913594143385428e-01
1.692307692307692291e+00 7.242316449960071179e-01 2.245309044184107261e-02 6.891837946325488629e-01
1.743589743589743613e+00 6.871020663227936920e-01 3.544096683580957863e-02 7.256895368505162924e-01
1.794871794871794712e+00 6.492048180144202041e-01 4.689672560479468677e-02 7.591607548668061201e-01
1.846153846153846034e+00 6.108822502566337853e-01 5.673575115321560780e-02 7.896808531841190693e-01
1.897435897435897356e+00 5.724719790369349193e-01 6.491182318502430881e-02 8.173461818026747094e-01
1.948717948717948678e+00 5.342795974366533196e-01 7.140727381144551522e-02 8.422822629217660007e-01
2.000000000000000000e+00 4.966082350078024343e-01 7.622383508504901317e-02 8.646177897314073491e-01
