0.000000000000000000e+00 -3.044461266719770325e-09 -1.792572993861105005e-09 -1.000000000000000000e+00
5.128205128205128027e-02 1.060208017760604082e-02 7.975006566479098113e-02 -9.967579598116517170e-01
1.025641025641025605e-01 2.089043364433178229e-02 1.589798406636618033e-01 -9.870597002902468109e-01
1.538461538461538547e-01 3.059335380256505976e-02 2.371470051098156506e-01 -9.709902604108350266e-01
2.051282051282051211e-01 3.943272463888494728e-02 3.137363925338060855e-01 -9.486886244336084628e-01
2.564102564102563875e-01 4.714629565797025246e-02 3.882431227213752334e-01 -9.203471377715845003e-01
3.076923076923077094e-01 5.349566366073121859e-02 4.601782017981194128e-01 -8.862095361780230052e-01
3.589743589743589758e-01 5.826439108322567506e-02 5.290772046359890624e-01 -8.465662445684446480e-01
4.102564102564102422e-01 6.126900450139288745e-02 5.944999062686462388e-01 -8.017521608007750489e-01
4.615384615384615086e-01 6.235719136797601703e-02 6.560369974987408925e-01 -7.521411712012857631e-01
5.128205128205127750e-01 6.141706537344018835e-02 7.133110770556118085e-01 -6.981428032888753465e-01
5.641025641025640969e-01 5.837084832805633505e-02 7.659811915796812531e-01 -6.401973319308092991e-01
6.153846153846154188e-01 5.318450500253685265e-02 8.137490683306354278e-01 -5.787656945606483028e-01
6.666666666666666297e-01 4.586344032801042969e-02 8.563558876731700575e-01 -5.143306736283578262e-01
7.179487179487179516e-01 3.645233632796401890e-02 8.935888513661789379e-01 -4.473859723669778576e-01
7.692307692307691624e-01 2.503894381562310478e-02 9.252803140304730611e-01 -3.784343998438783885e-01
8.205128205128204844e-01 1.174849407782924127e-02 9.513109257234739768e-01 -3.079806287563860989e-01
8.717948717948718063e-01 -3.258789514236748452e-03 9.716119304713388694e-01 -2.365199389275912112e-01
9.230769230769230171e-01 -1.978530606542461268e-02 9.861612703149964521e-01 -1.645484957704133611e-01
9.743589743589743390e-01 -3.761083716036683899e-02 9.949895860610773468e-01 -9.253434756943935968e-02
1.025641025641025550e+00 -5.648278394721395479e-02 9.981748086331000414e-01 -2.093071146099477822e-02
1.076923076923076872e+00 -7.613279149035079296e-02 9.958430145155754420e-01 4.981832929650042291e-02
1.128205128205128194e+00 -9.627086668177148310e-02 9.881674732998747546e-01 1.193252387611155735e-01
1.179487179487179516e+00 -1.166004196978334129e-01 9.753664472457722612e-01 1.872069708423196310e-01
1.230769230769230838e+00 -1.368181257172436660e-01 9.576995807949185702e-01 2.531294062745760853e-01
1.282051282051281937e+00 -1.566206574394228279e-01 9.354650373283998066e-01 3.167929996022227912e-01
1.333333333333333259e+00 -1.757095262522985202e-01 9.089994267689723850e-01 3.779278040199300359e-01
1.384615384615384581e+00 -1.937988606558622151e-01 8.786668838381456181e-01 4.363145352366389340e-01
1.435897435897435903e+00 -2.106129521317853803e-01 8.448634747345639129e-01 4.917646797452284724e-01
1.487179487179487225e+00 -2.259070982858019661e-01 8.080053938566753580e-01 5.441310690788988547e-01
1.538461538461538325e+00 -2.394507137573761435e-01 7.685275068939970700e-01 5.933084846022936842e-01
1.589743589743589647e+00 -2.510513672294056864e-01 7.268763421319803797e-01 6.392268429539202934e-01
1.641025641025640969e+00 -2.605411392131934956e-01 6.835097988784246681e-01 6.818507133712091717e-01
1.692307692307692291e+00 -2.677862421973538076e-01 6.388857967334476973e-01 7.211823740332530264e-01
1.743589743589743613e+00 -2.726969768154940410e-01 5.934580588463481687e-01 7.572538247145181867e-01
1.794871794871794712e+00 -2.752201825866236740e-01 5.476690634114539380e-01 7.901282899196973020e-01
1.846153846153846034e+00 -2.753329869113571582e-01 5.019606795311010172e-01 8.198891958749643383e-01
1.897435897435897356e+00 -2.730609369825883759e-01 4.567383022789314184e-01 8.466520453428314497e-01
1.948717948717948678e+00 -2.684605467915222032e-01 4.124003375214493894e-01 8.705443574099439585e-01
2.000000000000000000e+00 -2.616267294292916601e-01 3.693071641424642282e-01 8.917157503177005617e-01
