0.000000000000000000e+00 3.011765334026950051e-09 5.130829674880804569e-09 -1.000000000000000000e+00
5.128205128205128027e-02 -5.317294283741216820e-02 -5.909220644981889869e-02 -9.968350727022512459e-01
1.025641025641025605e-01 -1.058050688731522332e-01 -1.179290396567502924e-01 -9.873686590190456913e-01
1.538461538461538547e-01 -1.573737669683287488e-01 -1.762371839430381948e-01 -9.716852301844989270e-01
2.051282051282051211e-01 -2.073637749315505596e-01 -2.337521017020974812e-01 -9.499251724369099925e-01
2.564102564102563875e-01 -2.552851794777159511e-01 -2.902093194519471675e-01 -9.222824893741433661e-01
3.076923076923077094e-01 -3.006754066743857479e-01 -3.453586963571010360e-01 -8.889982813531768224e-01
3.589743589743589758e-01 -3.431044477891786459e-01 -3.989407185624311847e-01 -8.503653581264414285e-01
4.102564102564102422e-01 -3.821879149457459435e-01 -4.507054414768049133e-01 -8.067167421539691574e-01
4.615384615384615086e-01 -4.175793105260142135e-01 -5.004104014411698831e-01 -7.584267916670404119e-01
5.128205128205127750e-01 -4.489934801413892895e-01 -5.478208997551037296e-01 -7.058970689511381291e-01
5.641025641025640969e-01 -4.761854205253862604e-01 -5.927079862966867507e-01 -6.495672478654579418e-01
6.153846153846154188e-01 -4.989747360442202684e-01 -6.348589050550923485e-01 -5.898904497245274214e-01
6.666666666666666297e-01 -5.172358345150556147e-01 -6.740695239216785151e-01 -5.273416300313216176e-01
7.179487179487179516e-01 -5.309026512916584783e-01 -7.101538593399965293e-01 -4.624015187819318085e-01
7.692307692307691624e-01 -5.399672472687078173e-01 -7.429373016123492768e-01 -3.955635123937271125e-01
8.205128205128204844e-01 -5.444769697747484649e-01 -7.722724532578770784e-01 -3.273082083152681898e-01
8.717948717948718063e-01 -5.445380066197723634e-01 -7.980252952336640559e-01 -2.581165975863425333e-01
9.230769230769230171e-01 -5.403027993164609688e-01 -8.200867498486708040e-01 -1.884691509323792868e-01
9.743589743589743390e-01 -5.319808352524355577e-01 -8.383745441210448401e-01 -1.188039388675860286e-01
1.025641025641025550e+00 -5.198197864645487387e-01 -8.528314171711811609e-01 -4.955556277327965997e-02
1.076923076923076872e+00 -5.041097744499066780e-01 -8.634274759098037322e-01 1.887084118254065898e-02
1.128205128205128194e+00 -4.851750470812336569e-01 -8.701619711326122886e-01 8.609967683869351740e-02
1.179487179487179516e+00 -4.633686165405460078e-01 -8.730635591682736063e-01 1.517877553731031837e-01
1.230769230769230838e+00 -4.390651168599913334e-01 -8.721914282820142361e-01 2.156246098534626288e-01
1.282051282051281937e+00 -4.126562893668231924e-01 -8.676322952584065717e-01 2.773432965191506838e-01
1.333333333333333259e+00 -3.845451341024891390e-01 -8.595061637250074327e-01 3.366967698917390228e-01
1.384615384615384581e+00 -3.551368455084568110e-01 -8.479564186384711544e-01 3.934954488390931537e-01
1.435897435897435903e+00 -3.248268689394670505e-01 -8.331615840522724747e-01 4.475718560357556663e-01
1.487179487179487225e+00 -2.940168649706558224e-01 -8.153225334160378868e-01 4.987933746343056196e-01
1.538461538461538325e+00 -2.630789033609243766e-01 -7.946544411727791690e-01 5.470885381312661222e-01
1.589743589743589647e+00 -2.323782832271815701e-01 -7.714085677194528756e-01 5.923863385106509227e-01
1.641025641025640969e+00 -2.022479020472991995e-01 -7.458416541356882590e-01 6.346721807392552428e-01
1.692307692307692291e+00 -1.729981120146495965e-01 -7.182302782717764345e-01 6.739511542308516123e-01
1.743589743589743613e+00 -1.449039506674089095e-01 -6.888628735248201185e-01 7.102565697615980111e-01
1.794871794871794712e+00 -1.182036623736514303e-01 -6.580334260651423683e-01 7.436491088695437179e-01
1.846153846153846034e+00 -9.311504278504487142e-02 -6.260409147750592984e-01 7.742072316707283575e-01
1.897435897435897356e+00 -6.979770710930557898e-02 -5.931824707240185290e-01 8.020334759273275438e-01
1.948717948717948678e+00 -4.838654435586603464e-02 -5.597502241397127598e-01 8.272446283133588762e-01
2.000000000000000000e+00 -2.897719560228859126e-02 -5.260380274046297933e-01 8.499646367614794862e-01
