0.000000000000000000e+00 5.023086605719996973e-09 2.789157727928486146e-09 -1.000000000000000000e+00
5.128205128205128027e-02 7.459568294019554291e-02 -1.776238358065701517e-02 -9.970553667638312190e-01
1.025641025641025605e-01 1.488015891432055704e-01 -3.501292787505948245e-02 -9.882464483482643613e-01
1.538461538461538547e-01 2.222153974006076949e-01 -5.127048024712478613e-02 -9.736477440986304188e-01
2.051282051282051211e-01 2.944410052787845844e-01 -6.605813195662602055e-02 -9.533826443690028851e-01
2.564102564102563875e-01 3.650813722116496018e-01 -7.892431072333418174e-02 -9.276225469700805082e-01
3.076923076923077094e-01 4.337470291314244886e-01 -8.945101482345499400e-02 -8.965815006645341256e-01
3.589743589743589758e-01 5.000470836883706971e-01 -9.726024995279394791e-02 -8.605167365818465752e-01
4.102564102564102422e-01 5.635953689613129036e-01 -1.020175620599930444e-01 -8.197241460192205009e-01
4.615384615384615086e-01 6.240111124233311823e-01 -1.034516052820891874e-01 -7.745335545644984609e-01
5.128205128205127750e-01 6.809219651741237334e-01 -1.013352570922986251e-01 -7.253069862122142331e-01
5.641025641025640969e-01 7.339717717395338736e-01 -9.550622311805151421e-02 -6.724263383051209964e-01
6.153846153846154188e-01 7.828122674807929116e-01 -8.587581198696814244e-02 -6.162976051000745858e-01
6.666666666666666297e-01 8.271067626928748640e-01 -7.241561040625354995e-02 -5.573529493902864562e-01
7.179487179487179516e-01 8.665517666823042697e-01 -5.516395468592544260e-02 -4.960206971865364078e-01
7.692307692307691624e-01 9.008670170105651520e-01 -3.423485347603573425e-02 -4.327327390718365696e-01
8.205128205128204844e-01 9.297941265055325033e-01 -9.804511122559977920e-03 -3.679366671827347113e-01
8.717948717948718063e-01 9.531145175756009502e-01 1.788831636391183255e-02 -3.020644558670326774e-01
9.230769230769230171e-01 9.706438249183053646e-01 4.853073441162593371e-02 -2.355532238981206672e-01
9.743589743589743390e-01 9.822479455527322045e-01 8.176657349008711884e-02 -1.687986303287234702e-01
1.025641025641025550e+00 9.878318652778679265e-01 1.171846348542973926e-01 -1.022036030228044706e-01
1.076923076923076872e+00 9.873540079068242603e-01 1.543187671907905734e-01 -3.615762153829864961e-02
1.128205128205128194e+00 9.808272712204719745e-01 1.926807952326840823e-01 2.900939052081485253e-02
1.179487179487179516e+00 9.683200635199925577e-01 2.317396964015711047e-01 9.296564273308204063e-02
1.230769230769230838e+00 9.499589281144324993e-01 2.709503377757633835e-01 1.554144100332394973e-01
1.282051282051281937e+00 9.259302779946199102e-01 3.097526231519570628e-01 2.160934237084805309e-01
1.333333333333333259e+00 8.964815656406575073e-01 3.475850487717396242e-01 2.747645209191817428e-01
1.384615384615384581e+00 8.619151362685952833e-01 3.839016279360051853e-01 3.312283017108777483e-01
1.435897435897435903e+00 8.225966195787067781e-01 4.181564789074078137e-01 3.853188321939390315e-01
1.487179487179487225e+00 7.789393772915103042e-01 4.498443744130236066e-01 4.369033491202245489e-01
1.538461538461538325e+00 7.314146221052658658e-01 4.784954585889961143e-01 4.858663658412068487e-01
1.589743589743589647e+00 6.805258666254340172e-01 5.036847483834094863e-01 5.321446013009295539e-01
1.641025641025640969e+00 6.268365434923204305e-01 5.250228526380323890e-01 5.756901823796357620e-01
1.692307692307692291e+00 5.709238067584160303e-01 5.422043903506541529e-01 6.164843030500161136e-01
1.743589743589743613e+00 5.133990656988949297e-01 5.549771315280984663e-01 6.545338644620644075e-01
1.794871794871794712e+00 4.548818155026890797e-01 5.631560307573314494e-01 6.898775853007325098e-01
1.846153846153846034e+00 3.960129557558164093e-01 5.666338946169098278e-01 7.225603144911854070e-01
1.897435897435897356e+00 3.374224275537490159e-01 5.653740070417503372e-01 7.526569347556639755e-01
1.948717948717948678e+00 2.797283075639238614e-01 5.594260054164476026e-01 7.802494139989653021e-01
2.000000000000000000e+00 2.235318160875952587e-01 5.489016863618308983e-01 8.054410521488694075e-01
