0.000000000000000000e+00 -1.712873401645130664e-09 3.102107236472828933e-09 -1.000000000000000000e+00
5.128205128205128027e-02 3.105066602505793943e-02 7.395764406175217576e-02 -9.967773253202982797e-01
1.025641025641025605e-01 6.169530997637567848e-02 1.474835732283983347e-01 -9.871373500289152281e-01
1.538461538461538547e-01 9.156353457222399239e-02 2.201222978981294820e-01 -9.711637589506472157e-01
2.051282051282051211e-01 1.202851337736952075e-01 2.914405011239052934e-01 -9.489939505431476130e-01
2.564102564102563875e-01 1.475025306862570162e-01 3.610104330027765207e-01 -9.208196547993668934e-01
3.076923076923077094e-01 1.728878129624970006e-01 4.284207430068475153e-01 -8.868813881470716254e-01
3.589743589743589758e-01 1.961355918526984377e-01 4.932749230002929641e-01 -8.474683373543627773e-01
4.102564102564102422e-01 2.169750043838251097e-01 5.552002215726760115e-01 -8.029104536112846580e-01
4.615384615384615086e-01 2.351734870234489794e-01 6.138421165608564101e-01 -7.535785656729072635e-01
5.128205128205127750e-01 2.505376411205624265e-01 6.688703833009236321e-01 -6.998795888462998604e-01
5.641025641025640969e-01 2.629184369596676007e-01 7.199878142833829875e-01 -6.422448231654684925e-01
6.153846153846154188e-01 2.722062840969156072e-01 7.669181355313148263e-01 -5.811421977864884569e-01
6.666666666666666297e-01 2.783442015650369750e-01 8.094324292528042308e-01 -5.170382911343113230e-01
7.179487179487179516e-01 2.813195882914453216e-01 8.473223863063632511e-01 -4.504310720048211314e-01
7.692307692307691624e-01 2.811641177403446101e-01 8.804231143395667702e-01 -3.818182313268865258e-01
8.205128205128204844e-01 2.779578925631744357e-01 9.086082631017164957e-01 -3.116939728140143973e-01
8.717948717948718063e-01 2.718189966336201913e-01 9.317886168280720138e-01 -2.405547215978773024e-01
9.230769230769230171e-01 2.629090327942906757e-01 9.499151986893530353e-01 -1.688835611057472874e-01
9.743589743589743390e-01 2.514300670357466627e-01 9.629764739600576995e-01 -9.716347099685163080e-02
1.025641025641025550e+00 2.376114812448997804e-01 9.710070059265281106e-01 -2.583745793445989952e-02
1.076923076923076872e+00 2.217152346371300542e-01 9.740779881025305453e-01 4.467485744428903449e-02
1.128205128205128194e+00 2.040267494564227957e-01 9.723007508166032764e-01 1.139556862970529522e-01
1.179487179487179516e+00 1.848535154534298175e-01 9.658235421761605100e-01 1.816477227559840646e-01
1.230769230769230838e+00 1.645106162757470902e-01 9.548349926015833322e-01 2.474036670394914594e-01
1.282051282051281937e+00 1.433310956787853252e-01 9.395533034262848471e-01 3.109315441130152124e-01
1.333333333333333259e+00 1.216438844866532532e-01 9.202321099082090283e-01 3.719661763948564071e-01
1.384615384615384581e+00 9.977682328645204324e-02 8.971551957889284390e-01 4.302800634299604465e-01
1.435897435897435903e+00 7.805118004589473024e-02 8.706273246345047623e-01 4.856960097194389925e-01
1.487179487179487225e+00 5.677264432201617472e-02 8.409846365477591235e-01 5.380585035070244437e-01
1.538461538461538325e+00 3.623846704787220263e-02 8.085745103293214830e-01 5.872649685612603143e-01
1.589743589743589647e+00 1.670961000531351326e-02 7.737681737107892088e-01 6.332380498280013592e-01
1.641025641025640969e+00 -1.565668498111350004e-03 7.369372257350178534e-01 6.759502875873817374e-01
1.692307692307692291e+00 -1.837970161322947937e-02 6.984700254092806038e-01 7.153952454149075102e-01
1.743589743589743613e+00 -3.354674411339879370e-02 6.587516720728813224e-01 7.516050590824858713e-01
1.794871794871794712e+00 -4.691947871156919303e-02 6.181674277397378736e-01 7.846386198723492855e-01
1.846153846153846034e+00 -5.838300362677112387e-02 5.770946228675635226e-01 8.145822354363818629e-01
1.897435897435897356e+00 -6.786717956274446184e-02 5.359014726480406665e-01 8.415434391028570049e-01
1.948717948717948678e+00 -7.532567112362892336e-02 4.949414561836816273e-01 8.656508844817505377e-01
2.000000000000000000e+00 -8.075362692374010720e-02 4.545481303553514651e-01 8.870501854196606306e-01
