([('spexman.exe',
   'C:\\Users\\lab_conputer\\programs\\synced_projects\\spex_control\\controller\\build\\spexman\\spexman.exe',
   'EXECUTABLE'),
  ('python310.dll',
   'C:\\Program '
   'Files\\WindowsApps\\PythonSoftwareFoundation.Python.3.10_3.10.2544.0_x64__qbz5n2kfra8p0\\python310.dll',
   'BINARY'),
  ('VCRUNTIME140.dll',
   'C:\\Program '
   'Files\\WindowsApps\\PythonSoftwareFoundation.Python.3.10_3.10.2544.0_x64__qbz5n2kfra8p0\\VCRUNTIME140.dll',
   'BINARY'),
  ('PyQt5\\Qt5\\bin\\libEGL.dll',
   'C:\\Users\\lab_conputer\\programs\\venv3\\Lib\\site-packages\\PyQt5\\Qt5\\bin\\libEGL.dll',
   'BINARY'),
  ('PyQt5\\Qt5\\plugins\\imageformats\\qico.dll',
   'C:\\Users\\lab_conputer\\programs\\venv3\\lib\\site-packages\\PyQt5\\Qt5\\plugins\\imageformats\\qico.dll',
   'BINARY'),
  ('PyQt5\\Qt5\\plugins\\platforms\\qwindows.dll',
   'C:\\Users\\lab_conputer\\programs\\venv3\\lib\\site-packages\\PyQt5\\Qt5\\plugins\\platforms\\qwindows.dll',
   'BINARY'),
  ('PyQt5\\Qt5\\plugins\\imageformats\\qjpeg.dll',
   'C:\\Users\\lab_conputer\\programs\\venv3\\lib\\site-packages\\PyQt5\\Qt5\\plugins\\imageformats\\qjpeg.dll',
   'BINARY'),
  ('PyQt5\\Qt5\\bin\\d3dcompiler_47.dll',
   'C:\\Users\\lab_conputer\\programs\\venv3\\Lib\\site-packages\\PyQt5\\Qt5\\bin\\d3dcompiler_47.dll',
   'BINARY'),
  ('PyQt5\\Qt5\\plugins\\iconengines\\qsvgicon.dll',
   'C:\\Users\\lab_conputer\\programs\\venv3\\lib\\site-packages\\PyQt5\\Qt5\\plugins\\iconengines\\qsvgicon.dll',
   'BINARY'),
  ('PyQt5\\Qt5\\plugins\\imageformats\\qtiff.dll',
   'C:\\Users\\lab_conputer\\programs\\venv3\\lib\\site-packages\\PyQt5\\Qt5\\plugins\\imageformats\\qtiff.dll',
   'BINARY'),
  ('PyQt5\\Qt5\\bin\\libGLESv2.dll',
   'C:\\Users\\lab_conputer\\programs\\venv3\\Lib\\site-packages\\PyQt5\\Qt5\\bin\\libGLESv2.dll',
   'BINARY'),
  ('PyQt5\\Qt5\\plugins\\generic\\qtuiotouchplugin.dll',
   'C:\\Users\\lab_conputer\\programs\\venv3\\lib\\site-packages\\PyQt5\\Qt5\\plugins\\generic\\qtuiotouchplugin.dll',
   'BINARY'),
  ('PyQt5\\Qt5\\plugins\\platforms\\qminimal.dll',
   'C:\\Users\\lab_conputer\\programs\\venv3\\lib\\site-packages\\PyQt5\\Qt5\\plugins\\platforms\\qminimal.dll',
   'BINARY'),
  ('PyQt5\\Qt5\\bin\\opengl32sw.dll',
   'C:\\Users\\lab_conputer\\programs\\venv3\\Lib\\site-packages\\PyQt5\\Qt5\\bin\\opengl32sw.dll',
   'BINARY'),
  ('PyQt5\\Qt5\\plugins\\styles\\qwindowsvistastyle.dll',
   'C:\\Users\\lab_conputer\\programs\\venv3\\lib\\site-packages\\PyQt5\\Qt5\\plugins\\styles\\qwindowsvistastyle.dll',
   'BINARY'),
  ('PyQt5\\Qt5\\plugins\\imageformats\\qsvg.dll',
   'C:\\Users\\lab_conputer\\programs\\venv3\\lib\\site-packages\\PyQt5\\Qt5\\plugins\\imageformats\\qsvg.dll',
   'BINARY'),
  ('PyQt5\\Qt5\\plugins\\platformthemes\\qxdgdesktopportal.dll',
   'C:\\Users\\lab_conputer\\programs\\venv3\\lib\\site-packages\\PyQt5\\Qt5\\plugins\\platformthemes\\qxdgdesktopportal.dll',
   'BINARY'),
  ('PyQt5\\Qt5\\plugins\\imageformats\\qwebp.dll',
   'C:\\Users\\lab_conputer\\programs\\venv3\\lib\\site-packages\\PyQt5\\Qt5\\plugins\\imageformats\\qwebp.dll',
   'BINARY'),
  ('PyQt5\\Qt5\\plugins\\imageformats\\qwbmp.dll',
   'C:\\Users\\lab_conputer\\programs\\venv3\\lib\\site-packages\\PyQt5\\Qt5\\plugins\\imageformats\\qwbmp.dll',
   'BINARY'),
  ('PyQt5\\Qt5\\plugins\\platforms\\qoffscreen.dll',
   'C:\\Users\\lab_conputer\\programs\\venv3\\lib\\site-packages\\PyQt5\\Qt5\\plugins\\platforms\\qoffscreen.dll',
   'BINARY'),
  ('PyQt5\\Qt5\\plugins\\imageformats\\qgif.dll',
   'C:\\Users\\lab_conputer\\programs\\venv3\\lib\\site-packages\\PyQt5\\Qt5\\plugins\\imageformats\\qgif.dll',
   'BINARY'),
  ('PyQt5\\Qt5\\plugins\\imageformats\\qicns.dll',
   'C:\\Users\\lab_conputer\\programs\\venv3\\lib\\site-packages\\PyQt5\\Qt5\\plugins\\imageformats\\qicns.dll',
   'BINARY'),
  ('PyQt5\\Qt5\\plugins\\platforms\\qwebgl.dll',
   'C:\\Users\\lab_conputer\\programs\\venv3\\lib\\site-packages\\PyQt5\\Qt5\\plugins\\platforms\\qwebgl.dll',
   'BINARY'),
  ('PyQt5\\Qt5\\plugins\\imageformats\\qtga.dll',
   'C:\\Users\\lab_conputer\\programs\\venv3\\lib\\site-packages\\PyQt5\\Qt5\\plugins\\imageformats\\qtga.dll',
   'BINARY'),
  ('libopenblas.FB5AE2TYXYH2IJRDKGDGQ3XBKLKTF43H.gfortran-win_amd64.dll',
   'C:\\Users\\lab_conputer\\programs\\venv3\\lib\\site-packages\\numpy\\.libs\\libopenblas.FB5AE2TYXYH2IJRDKGDGQ3XBKLKTF43H.gfortran-win_amd64.dll',
   'BINARY'),
  ('_decimal.pyd',
   'C:\\Program '
   'Files\\WindowsApps\\PythonSoftwareFoundation.Python.3.10_3.10.2544.0_x64__qbz5n2kfra8p0\\DLLs\\_decimal.pyd',
   'EXTENSION'),
  ('select.pyd',
   'C:\\Program '
   'Files\\WindowsApps\\PythonSoftwareFoundation.Python.3.10_3.10.2544.0_x64__qbz5n2kfra8p0\\DLLs\\select.pyd',
   'EXTENSION'),
  ('_socket.pyd',
   'C:\\Program '
   'Files\\WindowsApps\\PythonSoftwareFoundation.Python.3.10_3.10.2544.0_x64__qbz5n2kfra8p0\\DLLs\\_socket.pyd',
   'EXTENSION'),
  ('_lzma.pyd',
   'C:\\Program '
   'Files\\WindowsApps\\PythonSoftwareFoundation.Python.3.10_3.10.2544.0_x64__qbz5n2kfra8p0\\DLLs\\_lzma.pyd',
   'EXTENSION'),
  ('_bz2.pyd',
   'C:\\Program '
   'Files\\WindowsApps\\PythonSoftwareFoundation.Python.3.10_3.10.2544.0_x64__qbz5n2kfra8p0\\DLLs\\_bz2.pyd',
   'EXTENSION'),
  ('_hashlib.pyd',
   'C:\\Program '
   'Files\\WindowsApps\\PythonSoftwareFoundation.Python.3.10_3.10.2544.0_x64__qbz5n2kfra8p0\\DLLs\\_hashlib.pyd',
   'EXTENSION'),
  ('_ssl.pyd',
   'C:\\Program '
   'Files\\WindowsApps\\PythonSoftwareFoundation.Python.3.10_3.10.2544.0_x64__qbz5n2kfra8p0\\DLLs\\_ssl.pyd',
   'EXTENSION'),
  ('_ctypes.pyd',
   'C:\\Program '
   'Files\\WindowsApps\\PythonSoftwareFoundation.Python.3.10_3.10.2544.0_x64__qbz5n2kfra8p0\\DLLs\\_ctypes.pyd',
   'EXTENSION'),
  ('_queue.pyd',
   'C:\\Program '
   'Files\\WindowsApps\\PythonSoftwareFoundation.Python.3.10_3.10.2544.0_x64__qbz5n2kfra8p0\\DLLs\\_queue.pyd',
   'EXTENSION'),
  ('pyexpat.pyd',
   'C:\\Program '
   'Files\\WindowsApps\\PythonSoftwareFoundation.Python.3.10_3.10.2544.0_x64__qbz5n2kfra8p0\\DLLs\\pyexpat.pyd',
   'EXTENSION'),
  ('_multiprocessing.pyd',
   'C:\\Program '
   'Files\\WindowsApps\\PythonSoftwareFoundation.Python.3.10_3.10.2544.0_x64__qbz5n2kfra8p0\\DLLs\\_multiprocessing.pyd',
   'EXTENSION'),
  ('unicodedata.pyd',
   'C:\\Program '
   'Files\\WindowsApps\\PythonSoftwareFoundation.Python.3.10_3.10.2544.0_x64__qbz5n2kfra8p0\\DLLs\\unicodedata.pyd',
   'EXTENSION'),
  ('numpy\\core\\_multiarray_tests.cp310-win_amd64.pyd',
   'C:\\Users\\lab_conputer\\programs\\venv3\\lib\\site-packages\\numpy\\core\\_multiarray_tests.cp310-win_amd64.pyd',
   'EXTENSION'),
  ('numpy\\core\\_multiarray_umath.cp310-win_amd64.pyd',
   'C:\\Users\\lab_conputer\\programs\\venv3\\lib\\site-packages\\numpy\\core\\_multiarray_umath.cp310-win_amd64.pyd',
   'EXTENSION'),
  ('numpy\\linalg\\lapack_lite.cp310-win_amd64.pyd',
   'C:\\Users\\lab_conputer\\programs\\venv3\\lib\\site-packages\\numpy\\linalg\\lapack_lite.cp310-win_amd64.pyd',
   'EXTENSION'),
  ('_overlapped.pyd',
   'C:\\Program '
   'Files\\WindowsApps\\PythonSoftwareFoundation.Python.3.10_3.10.2544.0_x64__qbz5n2kfra8p0\\DLLs\\_overlapped.pyd',
   'EXTENSION'),
  ('_asyncio.pyd',
   'C:\\Program '
   'Files\\WindowsApps\\PythonSoftwareFoundation.Python.3.10_3.10.2544.0_x64__qbz5n2kfra8p0\\DLLs\\_asyncio.pyd',
   'EXTENSION'),
  ('numpy\\random\\mtrand.cp310-win_amd64.pyd',
   'C:\\Users\\lab_conputer\\programs\\venv3\\lib\\site-packages\\numpy\\random\\mtrand.cp310-win_amd64.pyd',
   'EXTENSION'),
  ('numpy\\random\\_sfc64.cp310-win_amd64.pyd',
   'C:\\Users\\lab_conputer\\programs\\venv3\\lib\\site-packages\\numpy\\random\\_sfc64.cp310-win_amd64.pyd',
   'EXTENSION'),
  ('numpy\\random\\_philox.cp310-win_amd64.pyd',
   'C:\\Users\\lab_conputer\\programs\\venv3\\lib\\site-packages\\numpy\\random\\_philox.cp310-win_amd64.pyd',
   'EXTENSION'),
  ('numpy\\random\\_pcg64.cp310-win_amd64.pyd',
   'C:\\Users\\lab_conputer\\programs\\venv3\\lib\\site-packages\\numpy\\random\\_pcg64.cp310-win_amd64.pyd',
   'EXTENSION'),
  ('numpy\\random\\_mt19937.cp310-win_amd64.pyd',
   'C:\\Users\\lab_conputer\\programs\\venv3\\lib\\site-packages\\numpy\\random\\_mt19937.cp310-win_amd64.pyd',
   'EXTENSION'),
  ('numpy\\random\\bit_generator.cp310-win_amd64.pyd',
   'C:\\Users\\lab_conputer\\programs\\venv3\\lib\\site-packages\\numpy\\random\\bit_generator.cp310-win_amd64.pyd',
   'EXTENSION'),
  ('numpy\\random\\_generator.cp310-win_amd64.pyd',
   'C:\\Users\\lab_conputer\\programs\\venv3\\lib\\site-packages\\numpy\\random\\_generator.cp310-win_amd64.pyd',
   'EXTENSION'),
  ('numpy\\random\\_bounded_integers.cp310-win_amd64.pyd',
   'C:\\Users\\lab_conputer\\programs\\venv3\\lib\\site-packages\\numpy\\random\\_bounded_integers.cp310-win_amd64.pyd',
   'EXTENSION'),
  ('numpy\\random\\_common.cp310-win_amd64.pyd',
   'C:\\Users\\lab_conputer\\programs\\venv3\\lib\\site-packages\\numpy\\random\\_common.cp310-win_amd64.pyd',
   'EXTENSION'),
  ('numpy\\fft\\_pocketfft_internal.cp310-win_amd64.pyd',
   'C:\\Users\\lab_conputer\\programs\\venv3\\lib\\site-packages\\numpy\\fft\\_pocketfft_internal.cp310-win_amd64.pyd',
   'EXTENSION'),
  ('numpy\\linalg\\_umath_linalg.cp310-win_amd64.pyd',
   'C:\\Users\\lab_conputer\\programs\\venv3\\lib\\site-packages\\numpy\\linalg\\_umath_linalg.cp310-win_amd64.pyd',
   'EXTENSION'),
  ('matplotlib\\_path.cp310-win_amd64.pyd',
   'C:\\Users\\lab_conputer\\programs\\venv3\\lib\\site-packages\\matplotlib\\_path.cp310-win_amd64.pyd',
   'EXTENSION'),
  ('_uuid.pyd',
   'C:\\Program '
   'Files\\WindowsApps\\PythonSoftwareFoundation.Python.3.10_3.10.2544.0_x64__qbz5n2kfra8p0\\DLLs\\_uuid.pyd',
   'EXTENSION'),
  ('PIL\\_webp.cp310-win_amd64.pyd',
   'C:\\Users\\lab_conputer\\programs\\venv3\\lib\\site-packages\\PIL\\_webp.cp310-win_amd64.pyd',
   'EXTENSION'),
  ('PIL\\_imagingtk.cp310-win_amd64.pyd',
   'C:\\Users\\lab_conputer\\programs\\venv3\\lib\\site-packages\\PIL\\_imagingtk.cp310-win_amd64.pyd',
   'EXTENSION'),
  ('PIL\\_imaging.cp310-win_amd64.pyd',
   'C:\\Users\\lab_conputer\\programs\\venv3\\lib\\site-packages\\PIL\\_imaging.cp310-win_amd64.pyd',
   'EXTENSION'),
  ('matplotlib\\backends\\_backend_agg.cp310-win_amd64.pyd',
   'C:\\Users\\lab_conputer\\programs\\venv3\\lib\\site-packages\\matplotlib\\backends\\_backend_agg.cp310-win_amd64.pyd',
   'EXTENSION'),
  ('matplotlib\\ft2font.cp310-win_amd64.pyd',
   'C:\\Users\\lab_conputer\\programs\\venv3\\lib\\site-packages\\matplotlib\\ft2font.cp310-win_amd64.pyd',
   'EXTENSION'),
  ('matplotlib\\_contour.cp310-win_amd64.pyd',
   'C:\\Users\\lab_conputer\\programs\\venv3\\lib\\site-packages\\matplotlib\\_contour.cp310-win_amd64.pyd',
   'EXTENSION'),
  ('matplotlib\\_tri.cp310-win_amd64.pyd',
   'C:\\Users\\lab_conputer\\programs\\venv3\\lib\\site-packages\\matplotlib\\_tri.cp310-win_amd64.pyd',
   'EXTENSION'),
  ('matplotlib\\_qhull.cp310-win_amd64.pyd',
   'C:\\Users\\lab_conputer\\programs\\venv3\\lib\\site-packages\\matplotlib\\_qhull.cp310-win_amd64.pyd',
   'EXTENSION'),
  ('kiwisolver\\_cext.cp310-win_amd64.pyd',
   'C:\\Users\\lab_conputer\\programs\\venv3\\lib\\site-packages\\kiwisolver\\_cext.cp310-win_amd64.pyd',
   'EXTENSION'),
  ('matplotlib\\_c_internal_utils.cp310-win_amd64.pyd',
   'C:\\Users\\lab_conputer\\programs\\venv3\\lib\\site-packages\\matplotlib\\_c_internal_utils.cp310-win_amd64.pyd',
   'EXTENSION'),
  ('matplotlib\\_image.cp310-win_amd64.pyd',
   'C:\\Users\\lab_conputer\\programs\\venv3\\lib\\site-packages\\matplotlib\\_image.cp310-win_amd64.pyd',
   'EXTENSION'),
  ('PyQt6\\sip.cp310-win_amd64.pyd',
   'C:\\Users\\lab_conputer\\programs\\venv3\\lib\\site-packages\\PyQt6\\sip.cp310-win_amd64.pyd',
   'EXTENSION'),
  ('PyQt5\\QtWidgets.pyd',
   'C:\\Users\\lab_conputer\\programs\\venv3\\lib\\site-packages\\PyQt5\\QtWidgets.pyd',
   'EXTENSION'),
  ('PyQt5\\QtGui.pyd',
   'C:\\Users\\lab_conputer\\programs\\venv3\\lib\\site-packages\\PyQt5\\QtGui.pyd',
   'EXTENSION'),
  ('PyQt5\\QtCore.pyd',
   'C:\\Users\\lab_conputer\\programs\\venv3\\lib\\site-packages\\PyQt5\\QtCore.pyd',
   'EXTENSION'),
  ('PyQt5\\sip.cp310-win_amd64.pyd',
   'C:\\Users\\lab_conputer\\programs\\venv3\\lib\\site-packages\\PyQt5\\sip.cp310-win_amd64.pyd',
   'EXTENSION'),
  ('PyQt5\\Qt5\\bin\\Qt5Core.dll',
   'C:\\Users\\lab_conputer\\programs\\venv3\\lib\\site-packages\\PyQt5\\Qt5\\bin\\Qt5Core.dll',
   'BINARY'),
  ('PyQt5\\Qt5\\bin\\Qt5Gui.dll',
   'C:\\Users\\lab_conputer\\programs\\venv3\\lib\\site-packages\\PyQt5\\Qt5\\bin\\Qt5Gui.dll',
   'BINARY'),
  ('VCRUNTIME140_1.dll',
   'C:\\Program '
   'Files\\WindowsApps\\PythonSoftwareFoundation.Python.3.10_3.10.2544.0_x64__qbz5n2kfra8p0\\VCRUNTIME140_1.dll',
   'BINARY'),
  ('PyQt5\\Qt5\\bin\\MSVCP140.dll',
   'C:\\Users\\lab_conputer\\programs\\venv3\\lib\\site-packages\\PyQt5\\Qt5\\bin\\MSVCP140.dll',
   'BINARY'),
  ('PyQt5\\Qt5\\bin\\Qt5Svg.dll',
   'C:\\Users\\lab_conputer\\programs\\venv3\\lib\\site-packages\\PyQt5\\Qt5\\bin\\Qt5Svg.dll',
   'BINARY'),
  ('PyQt5\\Qt5\\bin\\VCRUNTIME140_1.dll',
   'C:\\Users\\lab_conputer\\programs\\venv3\\Lib\\site-packages\\PyQt5\\Qt5\\bin\\VCRUNTIME140_1.dll',
   'BINARY'),
  ('PyQt5\\Qt5\\bin\\Qt5Network.dll',
   'C:\\Users\\lab_conputer\\programs\\venv3\\lib\\site-packages\\PyQt5\\Qt5\\bin\\Qt5Network.dll',
   'BINARY'),
  ('PyQt5\\Qt5\\bin\\Qt5Widgets.dll',
   'C:\\Users\\lab_conputer\\programs\\venv3\\lib\\site-packages\\PyQt5\\Qt5\\bin\\Qt5Widgets.dll',
   'BINARY'),
  ('PyQt5\\Qt5\\bin\\Qt5DBus.dll',
   'C:\\Users\\lab_conputer\\programs\\venv3\\lib\\site-packages\\PyQt5\\Qt5\\bin\\Qt5DBus.dll',
   'BINARY'),
  ('PyQt5\\Qt5\\bin\\Qt5Quick.dll',
   'C:\\Users\\lab_conputer\\programs\\venv3\\lib\\site-packages\\PyQt5\\Qt5\\bin\\Qt5Quick.dll',
   'BINARY'),
  ('PyQt5\\Qt5\\bin\\Qt5WebSockets.dll',
   'C:\\Users\\lab_conputer\\programs\\venv3\\lib\\site-packages\\PyQt5\\Qt5\\bin\\Qt5WebSockets.dll',
   'BINARY'),
  ('libcrypto-1_1.dll',
   'C:\\Program '
   'Files\\WindowsApps\\PythonSoftwareFoundation.Python.3.10_3.10.2544.0_x64__qbz5n2kfra8p0\\DLLs\\libcrypto-1_1.dll',
   'BINARY'),
  ('libssl-1_1.dll',
   'C:\\Program '
   'Files\\WindowsApps\\PythonSoftwareFoundation.Python.3.10_3.10.2544.0_x64__qbz5n2kfra8p0\\DLLs\\libssl-1_1.dll',
   'BINARY'),
  ('libffi-7.dll',
   'C:\\Program '
   'Files\\WindowsApps\\PythonSoftwareFoundation.Python.3.10_3.10.2544.0_x64__qbz5n2kfra8p0\\DLLs\\libffi-7.dll',
   'BINARY'),
  ('PIL\\MSVCP140.dll',
   'C:\\Users\\lab_conputer\\programs\\venv3\\lib\\site-packages\\PIL\\MSVCP140.dll',
   'BINARY'),
  ('PIL\\VCRUNTIME140_1.dll',
   'C:\\Users\\lab_conputer\\programs\\venv3\\lib\\site-packages\\PIL\\VCRUNTIME140_1.dll',
   'BINARY'),
  ('python3.dll',
   'C:\\Program '
   'Files\\WindowsApps\\PythonSoftwareFoundation.Python.3.10_3.10.2544.0_x64__qbz5n2kfra8p0\\python3.dll',
   'BINARY'),
  ('PyQt5\\Qt5\\bin\\MSVCP140_1.dll',
   'C:\\Users\\lab_conputer\\programs\\venv3\\lib\\site-packages\\PyQt5\\Qt5\\bin\\MSVCP140_1.dll',
   'BINARY'),
  ('PyQt5\\Qt5\\bin\\Qt5Qml.dll',
   'C:\\Users\\lab_conputer\\programs\\venv3\\lib\\site-packages\\PyQt5\\Qt5\\bin\\Qt5Qml.dll',
   'BINARY'),
  ('PyQt5\\Qt5\\bin\\Qt5QmlModels.dll',
   'C:\\Users\\lab_conputer\\programs\\venv3\\lib\\site-packages\\PyQt5\\Qt5\\bin\\Qt5QmlModels.dll',
   'BINARY'),
  ('base_library.zip',
   'C:\\Users\\lab_conputer\\programs\\synced_projects\\spex_control\\controller\\build\\spexman\\base_library.zip',
   'DATA'),
  ('matplotlib\\mpl-data\\stylelib\\seaborn-deep.mplstyle',
   'C:\\Users\\lab_conputer\\programs\\venv3\\lib\\site-packages\\matplotlib\\mpl-data\\stylelib\\seaborn-deep.mplstyle',
   'DATA'),
  ('matplotlib\\mpl-data\\stylelib\\tableau-colorblind10.mplstyle',
   'C:\\Users\\lab_conputer\\programs\\venv3\\lib\\site-packages\\matplotlib\\mpl-data\\stylelib\\tableau-colorblind10.mplstyle',
   'DATA'),
  ('matplotlib\\mpl-data\\matplotlibrc',
   'C:\\Users\\lab_conputer\\programs\\venv3\\lib\\site-packages\\matplotlib\\mpl-data\\matplotlibrc',
   'DATA'),
  ('matplotlib\\mpl-data\\fonts\\afm\\pzdr.afm',
   'C:\\Users\\lab_conputer\\programs\\venv3\\lib\\site-packages\\matplotlib\\mpl-data\\fonts\\afm\\pzdr.afm',
   'DATA'),
  ('matplotlib\\mpl-data\\fonts\\afm\\cmr10.afm',
   'C:\\Users\\lab_conputer\\programs\\venv3\\lib\\site-packages\\matplotlib\\mpl-data\\fonts\\afm\\cmr10.afm',
   'DATA'),
  ('matplotlib\\mpl-data\\images\\move.svg',
   'C:\\Users\\lab_conputer\\programs\\venv3\\lib\\site-packages\\matplotlib\\mpl-data\\images\\move.svg',
   'DATA'),
  ('matplotlib\\mpl-data\\plot_directive\\plot_directive.css',
   'C:\\Users\\lab_conputer\\programs\\venv3\\lib\\site-packages\\matplotlib\\mpl-data\\plot_directive\\plot_directive.css',
   'DATA'),
  ('matplotlib\\mpl-data\\fonts\\afm\\pcrro8a.afm',
   'C:\\Users\\lab_conputer\\programs\\venv3\\lib\\site-packages\\matplotlib\\mpl-data\\fonts\\afm\\pcrro8a.afm',
   'DATA'),
  ('matplotlib\\mpl-data\\stylelib\\seaborn-whitegrid.mplstyle',
   'C:\\Users\\lab_conputer\\programs\\venv3\\lib\\site-packages\\matplotlib\\mpl-data\\stylelib\\seaborn-whitegrid.mplstyle',
   'DATA'),
  ('matplotlib\\mpl-data\\images\\back-symbolic.svg',
   'C:\\Users\\lab_conputer\\programs\\venv3\\lib\\site-packages\\matplotlib\\mpl-data\\images\\back-symbolic.svg',
   'DATA'),
  ('matplotlib\\mpl-data\\fonts\\ttf\\DejaVuSans-Oblique.ttf',
   'C:\\Users\\lab_conputer\\programs\\venv3\\lib\\site-packages\\matplotlib\\mpl-data\\fonts\\ttf\\DejaVuSans-Oblique.ttf',
   'DATA'),
  ('matplotlib\\mpl-data\\fonts\\pdfcorefonts\\Times-Roman.afm',
   'C:\\Users\\lab_conputer\\programs\\venv3\\lib\\site-packages\\matplotlib\\mpl-data\\fonts\\pdfcorefonts\\Times-Roman.afm',
   'DATA'),
  ('matplotlib\\mpl-data\\fonts\\pdfcorefonts\\Helvetica-Bold.afm',
   'C:\\Users\\lab_conputer\\programs\\venv3\\lib\\site-packages\\matplotlib\\mpl-data\\fonts\\pdfcorefonts\\Helvetica-Bold.afm',
   'DATA'),
  ('PyQt5\\Qt5\\translations\\qtbase_es.qm',
   'C:\\Users\\lab_conputer\\programs\\venv3\\lib\\site-packages\\PyQt5\\Qt5\\translations\\qtbase_es.qm',
   'DATA'),
  ('matplotlib\\mpl-data\\fonts\\ttf\\LICENSE_DEJAVU',
   'C:\\Users\\lab_conputer\\programs\\venv3\\lib\\site-packages\\matplotlib\\mpl-data\\fonts\\ttf\\LICENSE_DEJAVU',
   'DATA'),
  ('matplotlib\\mpl-data\\images\\qt4_editor_options_large.png',
   'C:\\Users\\lab_conputer\\programs\\venv3\\lib\\site-packages\\matplotlib\\mpl-data\\images\\qt4_editor_options_large.png',
   'DATA'),
  ('matplotlib\\mpl-data\\fonts\\afm\\pncb8a.afm',
   'C:\\Users\\lab_conputer\\programs\\venv3\\lib\\site-packages\\matplotlib\\mpl-data\\fonts\\afm\\pncb8a.afm',
   'DATA'),
  ('matplotlib\\mpl-data\\images\\filesave.svg',
   'C:\\Users\\lab_conputer\\programs\\venv3\\lib\\site-packages\\matplotlib\\mpl-data\\images\\filesave.svg',
   'DATA'),
  ('PyQt5\\Qt5\\translations\\qtbase_en.qm',
   'C:\\Users\\lab_conputer\\programs\\venv3\\lib\\site-packages\\PyQt5\\Qt5\\translations\\qtbase_en.qm',
   'DATA'),
  ('matplotlib\\mpl-data\\fonts\\pdfcorefonts\\Courier.afm',
   'C:\\Users\\lab_conputer\\programs\\venv3\\lib\\site-packages\\matplotlib\\mpl-data\\fonts\\pdfcorefonts\\Courier.afm',
   'DATA'),
  ('PyQt5\\Qt5\\translations\\qtbase_zh_TW.qm',
   'C:\\Users\\lab_conputer\\programs\\venv3\\lib\\site-packages\\PyQt5\\Qt5\\translations\\qtbase_zh_TW.qm',
   'DATA'),
  ('matplotlib\\mpl-data\\fonts\\afm\\pncbi8a.afm',
   'C:\\Users\\lab_conputer\\programs\\venv3\\lib\\site-packages\\matplotlib\\mpl-data\\fonts\\afm\\pncbi8a.afm',
   'DATA'),
  ('matplotlib\\mpl-data\\images\\subplots.svg',
   'C:\\Users\\lab_conputer\\programs\\venv3\\lib\\site-packages\\matplotlib\\mpl-data\\images\\subplots.svg',
   'DATA'),
  ('matplotlib\\mpl-data\\stylelib\\seaborn-ticks.mplstyle',
   'C:\\Users\\lab_conputer\\programs\\venv3\\lib\\site-packages\\matplotlib\\mpl-data\\stylelib\\seaborn-ticks.mplstyle',
   'DATA'),
  ('matplotlib\\mpl-data\\sample_data\\grace_hopper.jpg',
   'C:\\Users\\lab_conputer\\programs\\venv3\\lib\\site-packages\\matplotlib\\mpl-data\\sample_data\\grace_hopper.jpg',
   'DATA'),
  ('matplotlib\\mpl-data\\fonts\\ttf\\cmss10.ttf',
   'C:\\Users\\lab_conputer\\programs\\venv3\\lib\\site-packages\\matplotlib\\mpl-data\\fonts\\ttf\\cmss10.ttf',
   'DATA'),
  ('matplotlib\\mpl-data\\fonts\\afm\\phvr8an.afm',
   'C:\\Users\\lab_conputer\\programs\\venv3\\lib\\site-packages\\matplotlib\\mpl-data\\fonts\\afm\\phvr8an.afm',
   'DATA'),
  ('PyQt5\\Qt5\\translations\\qtbase_it.qm',
   'C:\\Users\\lab_conputer\\programs\\venv3\\lib\\site-packages\\PyQt5\\Qt5\\translations\\qtbase_it.qm',
   'DATA'),
  ('matplotlib\\mpl-data\\images\\hand.pdf',
   'C:\\Users\\lab_conputer\\programs\\venv3\\lib\\site-packages\\matplotlib\\mpl-data\\images\\hand.pdf',
   'DATA'),
  ('matplotlib\\mpl-data\\sample_data\\goog.npz',
   'C:\\Users\\lab_conputer\\programs\\venv3\\lib\\site-packages\\matplotlib\\mpl-data\\sample_data\\goog.npz',
   'DATA'),
  ('matplotlib\\mpl-data\\fonts\\pdfcorefonts\\Times-Bold.afm',
   'C:\\Users\\lab_conputer\\programs\\venv3\\lib\\site-packages\\matplotlib\\mpl-data\\fonts\\pdfcorefonts\\Times-Bold.afm',
   'DATA'),
  ('matplotlib\\mpl-data\\images\\forward_large.png',
   'C:\\Users\\lab_conputer\\programs\\venv3\\lib\\site-packages\\matplotlib\\mpl-data\\images\\forward_large.png',
   'DATA'),
  ('matplotlib\\mpl-data\\fonts\\afm\\phvb8an.afm',
   'C:\\Users\\lab_conputer\\programs\\venv3\\lib\\site-packages\\matplotlib\\mpl-data\\fonts\\afm\\phvb8an.afm',
   'DATA'),
  ('matplotlib\\mpl-data\\fonts\\ttf\\STIXNonUniBolIta.ttf',
   'C:\\Users\\lab_conputer\\programs\\venv3\\lib\\site-packages\\matplotlib\\mpl-data\\fonts\\ttf\\STIXNonUniBolIta.ttf',
   'DATA'),
  ('matplotlib\\mpl-data\\sample_data\\membrane.dat',
   'C:\\Users\\lab_conputer\\programs\\venv3\\lib\\site-packages\\matplotlib\\mpl-data\\sample_data\\membrane.dat',
   'DATA'),
  ('matplotlib\\mpl-data\\fonts\\ttf\\DejaVuSansMono.ttf',
   'C:\\Users\\lab_conputer\\programs\\venv3\\lib\\site-packages\\matplotlib\\mpl-data\\fonts\\ttf\\DejaVuSansMono.ttf',
   'DATA'),
  ('matplotlib\\mpl-data\\sample_data\\jacksboro_fault_dem.npz',
   'C:\\Users\\lab_conputer\\programs\\venv3\\lib\\site-packages\\matplotlib\\mpl-data\\sample_data\\jacksboro_fault_dem.npz',
   'DATA'),
  ('matplotlib\\mpl-data\\fonts\\ttf\\STIXNonUniIta.ttf',
   'C:\\Users\\lab_conputer\\programs\\venv3\\lib\\site-packages\\matplotlib\\mpl-data\\fonts\\ttf\\STIXNonUniIta.ttf',
   'DATA'),
  ('matplotlib\\mpl-data\\images\\subplots-symbolic.svg',
   'C:\\Users\\lab_conputer\\programs\\venv3\\lib\\site-packages\\matplotlib\\mpl-data\\images\\subplots-symbolic.svg',
   'DATA'),
  ('matplotlib\\mpl-data\\fonts\\afm\\phvl8a.afm',
   'C:\\Users\\lab_conputer\\programs\\venv3\\lib\\site-packages\\matplotlib\\mpl-data\\fonts\\afm\\phvl8a.afm',
   'DATA'),
  ('matplotlib\\mpl-data\\fonts\\afm\\pbkdi8a.afm',
   'C:\\Users\\lab_conputer\\programs\\venv3\\lib\\site-packages\\matplotlib\\mpl-data\\fonts\\afm\\pbkdi8a.afm',
   'DATA'),
  ('matplotlib\\mpl-data\\images\\back.png',
   'C:\\Users\\lab_conputer\\programs\\venv3\\lib\\site-packages\\matplotlib\\mpl-data\\images\\back.png',
   'DATA'),
  ('PyQt5\\Qt5\\translations\\qtbase_ca.qm',
   'C:\\Users\\lab_conputer\\programs\\venv3\\lib\\site-packages\\PyQt5\\Qt5\\translations\\qtbase_ca.qm',
   'DATA'),
  ('matplotlib\\mpl-data\\fonts\\ttf\\DejaVuSerif-Bold.ttf',
   'C:\\Users\\lab_conputer\\programs\\venv3\\lib\\site-packages\\matplotlib\\mpl-data\\fonts\\ttf\\DejaVuSerif-Bold.ttf',
   'DATA'),
  ('PyQt5\\Qt5\\translations\\qtbase_uk.qm',
   'C:\\Users\\lab_conputer\\programs\\venv3\\lib\\site-packages\\PyQt5\\Qt5\\translations\\qtbase_uk.qm',
   'DATA'),
  ('matplotlib\\mpl-data\\fonts\\afm\\psyr.afm',
   'C:\\Users\\lab_conputer\\programs\\venv3\\lib\\site-packages\\matplotlib\\mpl-data\\fonts\\afm\\psyr.afm',
   'DATA'),
  ('matplotlib\\mpl-data\\fonts\\ttf\\DejaVuSansMono-Oblique.ttf',
   'C:\\Users\\lab_conputer\\programs\\venv3\\lib\\site-packages\\matplotlib\\mpl-data\\fonts\\ttf\\DejaVuSansMono-Oblique.ttf',
   'DATA'),
  ('matplotlib\\mpl-data\\fonts\\afm\\pagdo8a.afm',
   'C:\\Users\\lab_conputer\\programs\\venv3\\lib\\site-packages\\matplotlib\\mpl-data\\fonts\\afm\\pagdo8a.afm',
   'DATA'),
  ('matplotlib\\mpl-data\\stylelib\\grayscale.mplstyle',
   'C:\\Users\\lab_conputer\\programs\\venv3\\lib\\site-packages\\matplotlib\\mpl-data\\stylelib\\grayscale.mplstyle',
   'DATA'),
  ('matplotlib\\mpl-data\\fonts\\afm\\pbkl8a.afm',
   'C:\\Users\\lab_conputer\\programs\\venv3\\lib\\site-packages\\matplotlib\\mpl-data\\fonts\\afm\\pbkl8a.afm',
   'DATA'),
  ('matplotlib\\mpl-data\\fonts\\afm\\phvlo8a.afm',
   'C:\\Users\\lab_conputer\\programs\\venv3\\lib\\site-packages\\matplotlib\\mpl-data\\fonts\\afm\\phvlo8a.afm',
   'DATA'),
  ('matplotlib\\mpl-data\\images\\filesave-symbolic.svg',
   'C:\\Users\\lab_conputer\\programs\\venv3\\lib\\site-packages\\matplotlib\\mpl-data\\images\\filesave-symbolic.svg',
   'DATA'),
  ('matplotlib\\mpl-data\\sample_data\\Minduka_Present_Blue_Pack.png',
   'C:\\Users\\lab_conputer\\programs\\venv3\\lib\\site-packages\\matplotlib\\mpl-data\\sample_data\\Minduka_Present_Blue_Pack.png',
   'DATA'),
  ('matplotlib\\mpl-data\\images\\forward-symbolic.svg',
   'C:\\Users\\lab_conputer\\programs\\venv3\\lib\\site-packages\\matplotlib\\mpl-data\\images\\forward-symbolic.svg',
   'DATA'),
  ('matplotlib\\mpl-data\\fonts\\afm\\pcrbo8a.afm',
   'C:\\Users\\lab_conputer\\programs\\venv3\\lib\\site-packages\\matplotlib\\mpl-data\\fonts\\afm\\pcrbo8a.afm',
   'DATA'),
  ('matplotlib\\mpl-data\\fonts\\afm\\phvbo8an.afm',
   'C:\\Users\\lab_conputer\\programs\\venv3\\lib\\site-packages\\matplotlib\\mpl-data\\fonts\\afm\\phvbo8an.afm',
   'DATA'),
  ('matplotlib\\mpl-data\\fonts\\afm\\pncr8a.afm',
   'C:\\Users\\lab_conputer\\programs\\venv3\\lib\\site-packages\\matplotlib\\mpl-data\\fonts\\afm\\pncr8a.afm',
   'DATA'),
  ('matplotlib\\mpl-data\\fonts\\ttf\\cmr10.ttf',
   'C:\\Users\\lab_conputer\\programs\\venv3\\lib\\site-packages\\matplotlib\\mpl-data\\fonts\\ttf\\cmr10.ttf',
   'DATA'),
  ('matplotlib\\mpl-data\\fonts\\afm\\putb8a.afm',
   'C:\\Users\\lab_conputer\\programs\\venv3\\lib\\site-packages\\matplotlib\\mpl-data\\fonts\\afm\\putb8a.afm',
   'DATA'),
  ('matplotlib\\mpl-data\\images\\help.svg',
   'C:\\Users\\lab_conputer\\programs\\venv3\\lib\\site-packages\\matplotlib\\mpl-data\\images\\help.svg',
   'DATA'),
  ('matplotlib\\mpl-data\\images\\qt4_editor_options.svg',
   'C:\\Users\\lab_conputer\\programs\\venv3\\lib\\site-packages\\matplotlib\\mpl-data\\images\\qt4_editor_options.svg',
   'DATA'),
  ('matplotlib\\mpl-data\\fonts\\afm\\pcrr8a.afm',
   'C:\\Users\\lab_conputer\\programs\\venv3\\lib\\site-packages\\matplotlib\\mpl-data\\fonts\\afm\\pcrr8a.afm',
   'DATA'),
  ('matplotlib\\mpl-data\\images\\subplots.pdf',
   'C:\\Users\\lab_conputer\\programs\\venv3\\lib\\site-packages\\matplotlib\\mpl-data\\images\\subplots.pdf',
   'DATA'),
  ('PyQt5\\Qt5\\translations\\qtbase_gd.qm',
   'C:\\Users\\lab_conputer\\programs\\venv3\\lib\\site-packages\\PyQt5\\Qt5\\translations\\qtbase_gd.qm',
   'DATA'),
  ('matplotlib\\mpl-data\\stylelib\\bmh.mplstyle',
   'C:\\Users\\lab_conputer\\programs\\venv3\\lib\\site-packages\\matplotlib\\mpl-data\\stylelib\\bmh.mplstyle',
   'DATA'),
  ('PyQt5\\Qt5\\translations\\qtbase_cs.qm',
   'C:\\Users\\lab_conputer\\programs\\venv3\\lib\\site-packages\\PyQt5\\Qt5\\translations\\qtbase_cs.qm',
   'DATA'),
  ('matplotlib\\mpl-data\\fonts\\afm\\phvr8a.afm',
   'C:\\Users\\lab_conputer\\programs\\venv3\\lib\\site-packages\\matplotlib\\mpl-data\\fonts\\afm\\phvr8a.afm',
   'DATA'),
  ('matplotlib\\mpl-data\\fonts\\ttf\\cmex10.ttf',
   'C:\\Users\\lab_conputer\\programs\\venv3\\lib\\site-packages\\matplotlib\\mpl-data\\fonts\\ttf\\cmex10.ttf',
   'DATA'),
  ('matplotlib\\mpl-data\\images\\move_large.png',
   'C:\\Users\\lab_conputer\\programs\\venv3\\lib\\site-packages\\matplotlib\\mpl-data\\images\\move_large.png',
   'DATA'),
  ('matplotlib\\mpl-data\\images\\move.png',
   'C:\\Users\\lab_conputer\\programs\\venv3\\lib\\site-packages\\matplotlib\\mpl-data\\images\\move.png',
   'DATA'),
  ('matplotlib\\mpl-data\\images\\help-symbolic.svg',
   'C:\\Users\\lab_conputer\\programs\\venv3\\lib\\site-packages\\matplotlib\\mpl-data\\images\\help-symbolic.svg',
   'DATA'),
  ('matplotlib\\mpl-data\\images\\filesave_large.png',
   'C:\\Users\\lab_conputer\\programs\\venv3\\lib\\site-packages\\matplotlib\\mpl-data\\images\\filesave_large.png',
   'DATA'),
  ('matplotlib\\mpl-data\\fonts\\afm\\cmex10.afm',
   'C:\\Users\\lab_conputer\\programs\\venv3\\lib\\site-packages\\matplotlib\\mpl-data\\fonts\\afm\\cmex10.afm',
   'DATA'),
  ('matplotlib\\mpl-data\\fonts\\afm\\pplr8a.afm',
   'C:\\Users\\lab_conputer\\programs\\venv3\\lib\\site-packages\\matplotlib\\mpl-data\\fonts\\afm\\pplr8a.afm',
   'DATA'),
  ('matplotlib\\mpl-data\\images\\back.svg',
   'C:\\Users\\lab_conputer\\programs\\venv3\\lib\\site-packages\\matplotlib\\mpl-data\\images\\back.svg',
   'DATA'),
  ('matplotlib\\mpl-data\\images\\qt4_editor_options.png',
   'C:\\Users\\lab_conputer\\programs\\venv3\\lib\\site-packages\\matplotlib\\mpl-data\\images\\qt4_editor_options.png',
   'DATA'),
  ('matplotlib\\mpl-data\\stylelib\\_mpl-gallery.mplstyle',
   'C:\\Users\\lab_conputer\\programs\\venv3\\lib\\site-packages\\matplotlib\\mpl-data\\stylelib\\_mpl-gallery.mplstyle',
   'DATA'),
  ('matplotlib\\mpl-data\\fonts\\ttf\\STIXSizTwoSymReg.ttf',
   'C:\\Users\\lab_conputer\\programs\\venv3\\lib\\site-packages\\matplotlib\\mpl-data\\fonts\\ttf\\STIXSizTwoSymReg.ttf',
   'DATA'),
  ('matplotlib\\mpl-data\\images\\hand.png',
   'C:\\Users\\lab_conputer\\programs\\venv3\\lib\\site-packages\\matplotlib\\mpl-data\\images\\hand.png',
   'DATA'),
  ('matplotlib\\mpl-data\\fonts\\afm\\ptmb8a.afm',
   'C:\\Users\\lab_conputer\\programs\\venv3\\lib\\site-packages\\matplotlib\\mpl-data\\fonts\\afm\\ptmb8a.afm',
   'DATA'),
  ('matplotlib\\mpl-data\\fonts\\ttf\\DejaVuSansDisplay.ttf',
   'C:\\Users\\lab_conputer\\programs\\venv3\\lib\\site-packages\\matplotlib\\mpl-data\\fonts\\ttf\\DejaVuSansDisplay.ttf',
   'DATA'),
  ('matplotlib\\mpl-data\\stylelib\\_classic_test_patch.mplstyle',
   'C:\\Users\\lab_conputer\\programs\\venv3\\lib\\site-packages\\matplotlib\\mpl-data\\stylelib\\_classic_test_patch.mplstyle',
   'DATA'),
  ('matplotlib\\mpl-data\\fonts\\ttf\\STIXNonUni.ttf',
   'C:\\Users\\lab_conputer\\programs\\venv3\\lib\\site-packages\\matplotlib\\mpl-data\\fonts\\ttf\\STIXNonUni.ttf',
   'DATA'),
  ('matplotlib\\mpl-data\\fonts\\pdfcorefonts\\Courier-Bold.afm',
   'C:\\Users\\lab_conputer\\programs\\venv3\\lib\\site-packages\\matplotlib\\mpl-data\\fonts\\pdfcorefonts\\Courier-Bold.afm',
   'DATA'),
  ('matplotlib\\mpl-data\\fonts\\afm\\cmsy10.afm',
   'C:\\Users\\lab_conputer\\programs\\venv3\\lib\\site-packages\\matplotlib\\mpl-data\\fonts\\afm\\cmsy10.afm',
   'DATA'),
  ('matplotlib\\mpl-data\\stylelib\\ggplot.mplstyle',
   'C:\\Users\\lab_conputer\\programs\\venv3\\lib\\site-packages\\matplotlib\\mpl-data\\stylelib\\ggplot.mplstyle',
   'DATA'),
  ('matplotlib\\mpl-data\\images\\matplotlib.pdf',
   'C:\\Users\\lab_conputer\\programs\\venv3\\lib\\site-packages\\matplotlib\\mpl-data\\images\\matplotlib.pdf',
   'DATA'),
  ('matplotlib\\mpl-data\\fonts\\pdfcorefonts\\readme.txt',
   'C:\\Users\\lab_conputer\\programs\\venv3\\lib\\site-packages\\matplotlib\\mpl-data\\fonts\\pdfcorefonts\\readme.txt',
   'DATA'),
  ('matplotlib\\mpl-data\\images\\help_large.png',
   'C:\\Users\\lab_conputer\\programs\\venv3\\lib\\site-packages\\matplotlib\\mpl-data\\images\\help_large.png',
   'DATA'),
  ('PyQt5\\Qt5\\translations\\qtbase_ja.qm',
   'C:\\Users\\lab_conputer\\programs\\venv3\\lib\\site-packages\\PyQt5\\Qt5\\translations\\qtbase_ja.qm',
   'DATA'),
  ('matplotlib\\mpl-data\\sample_data\\msft.csv',
   'C:\\Users\\lab_conputer\\programs\\venv3\\lib\\site-packages\\matplotlib\\mpl-data\\sample_data\\msft.csv',
   'DATA'),
  ('PyQt5\\Qt5\\translations\\qtbase_de.qm',
   'C:\\Users\\lab_conputer\\programs\\venv3\\lib\\site-packages\\PyQt5\\Qt5\\translations\\qtbase_de.qm',
   'DATA'),
  ('matplotlib\\mpl-data\\images\\matplotlib_128.ppm',
   'C:\\Users\\lab_conputer\\programs\\venv3\\lib\\site-packages\\matplotlib\\mpl-data\\images\\matplotlib_128.ppm',
   'DATA'),
  ('matplotlib\\mpl-data\\fonts\\afm\\pbkd8a.afm',
   'C:\\Users\\lab_conputer\\programs\\venv3\\lib\\site-packages\\matplotlib\\mpl-data\\fonts\\afm\\pbkd8a.afm',
   'DATA'),
  ('matplotlib\\mpl-data\\stylelib\\seaborn-poster.mplstyle',
   'C:\\Users\\lab_conputer\\programs\\venv3\\lib\\site-packages\\matplotlib\\mpl-data\\stylelib\\seaborn-poster.mplstyle',
   'DATA'),
  ('matplotlib\\mpl-data\\images\\help.pdf',
   'C:\\Users\\lab_conputer\\programs\\venv3\\lib\\site-packages\\matplotlib\\mpl-data\\images\\help.pdf',
   'DATA'),
  ('matplotlib\\mpl-data\\stylelib\\seaborn-dark-palette.mplstyle',
   'C:\\Users\\lab_conputer\\programs\\venv3\\lib\\site-packages\\matplotlib\\mpl-data\\stylelib\\seaborn-dark-palette.mplstyle',
   'DATA'),
  ('matplotlib\\mpl-data\\fonts\\afm\\cmmi10.afm',
   'C:\\Users\\lab_conputer\\programs\\venv3\\lib\\site-packages\\matplotlib\\mpl-data\\fonts\\afm\\cmmi10.afm',
   'DATA'),
  ('matplotlib\\mpl-data\\fonts\\ttf\\STIXGeneralItalic.ttf',
   'C:\\Users\\lab_conputer\\programs\\venv3\\lib\\site-packages\\matplotlib\\mpl-data\\fonts\\ttf\\STIXGeneralItalic.ttf',
   'DATA'),
  ('matplotlib\\mpl-data\\fonts\\ttf\\DejaVuSerif-BoldItalic.ttf',
   'C:\\Users\\lab_conputer\\programs\\venv3\\lib\\site-packages\\matplotlib\\mpl-data\\fonts\\ttf\\DejaVuSerif-BoldItalic.ttf',
   'DATA'),
  ('matplotlib\\mpl-data\\fonts\\ttf\\DejaVuSerif-Italic.ttf',
   'C:\\Users\\lab_conputer\\programs\\venv3\\lib\\site-packages\\matplotlib\\mpl-data\\fonts\\ttf\\DejaVuSerif-Italic.ttf',
   'DATA'),
  ('matplotlib\\mpl-data\\images\\forward.svg',
   'C:\\Users\\lab_conputer\\programs\\venv3\\lib\\site-packages\\matplotlib\\mpl-data\\images\\forward.svg',
   'DATA'),
  ('matplotlib\\mpl-data\\images\\hand.svg',
   'C:\\Users\\lab_conputer\\programs\\venv3\\lib\\site-packages\\matplotlib\\mpl-data\\images\\hand.svg',
   'DATA'),
  ('PyQt5\\Qt5\\translations\\qtbase_da.qm',
   'C:\\Users\\lab_conputer\\programs\\venv3\\lib\\site-packages\\PyQt5\\Qt5\\translations\\qtbase_da.qm',
   'DATA'),
  ('matplotlib\\mpl-data\\stylelib\\seaborn-paper.mplstyle',
   'C:\\Users\\lab_conputer\\programs\\venv3\\lib\\site-packages\\matplotlib\\mpl-data\\stylelib\\seaborn-paper.mplstyle',
   'DATA'),
  ('matplotlib\\mpl-data\\images\\help.png',
   'C:\\Users\\lab_conputer\\programs\\venv3\\lib\\site-packages\\matplotlib\\mpl-data\\images\\help.png',
   'DATA'),
  ('matplotlib\\mpl-data\\stylelib\\seaborn-muted.mplstyle',
   'C:\\Users\\lab_conputer\\programs\\venv3\\lib\\site-packages\\matplotlib\\mpl-data\\stylelib\\seaborn-muted.mplstyle',
   'DATA'),
  ('matplotlib\\mpl-data\\fonts\\pdfcorefonts\\Courier-BoldOblique.afm',
   'C:\\Users\\lab_conputer\\programs\\venv3\\lib\\site-packages\\matplotlib\\mpl-data\\fonts\\pdfcorefonts\\Courier-BoldOblique.afm',
   'DATA'),
  ('matplotlib\\mpl-data\\fonts\\ttf\\STIXSizThreeSymReg.ttf',
   'C:\\Users\\lab_conputer\\programs\\venv3\\lib\\site-packages\\matplotlib\\mpl-data\\fonts\\ttf\\STIXSizThreeSymReg.ttf',
   'DATA'),
  ('matplotlib\\mpl-data\\stylelib\\classic.mplstyle',
   'C:\\Users\\lab_conputer\\programs\\venv3\\lib\\site-packages\\matplotlib\\mpl-data\\stylelib\\classic.mplstyle',
   'DATA'),
  ('matplotlib\\mpl-data\\images\\filesave.png',
   'C:\\Users\\lab_conputer\\programs\\venv3\\lib\\site-packages\\matplotlib\\mpl-data\\images\\filesave.png',
   'DATA'),
  ('matplotlib\\mpl-data\\fonts\\ttf\\cmb10.ttf',
   'C:\\Users\\lab_conputer\\programs\\venv3\\lib\\site-packages\\matplotlib\\mpl-data\\fonts\\ttf\\cmb10.ttf',
   'DATA'),
  ('matplotlib\\mpl-data\\fonts\\ttf\\STIXSizFourSymBol.ttf',
   'C:\\Users\\lab_conputer\\programs\\venv3\\lib\\site-packages\\matplotlib\\mpl-data\\fonts\\ttf\\STIXSizFourSymBol.ttf',
   'DATA'),
  ('matplotlib\\mpl-data\\images\\subplots_large.png',
   'C:\\Users\\lab_conputer\\programs\\venv3\\lib\\site-packages\\matplotlib\\mpl-data\\images\\subplots_large.png',
   'DATA'),
  ('PyQt5\\Qt5\\translations\\qtbase_fr.qm',
   'C:\\Users\\lab_conputer\\programs\\venv3\\lib\\site-packages\\PyQt5\\Qt5\\translations\\qtbase_fr.qm',
   'DATA'),
  ('matplotlib\\mpl-data\\fonts\\afm\\phvbo8a.afm',
   'C:\\Users\\lab_conputer\\programs\\venv3\\lib\\site-packages\\matplotlib\\mpl-data\\fonts\\afm\\phvbo8a.afm',
   'DATA'),
  ('matplotlib\\mpl-data\\stylelib\\fast.mplstyle',
   'C:\\Users\\lab_conputer\\programs\\venv3\\lib\\site-packages\\matplotlib\\mpl-data\\stylelib\\fast.mplstyle',
   'DATA'),
  ('matplotlib\\mpl-data\\fonts\\ttf\\DejaVuSansMono-Bold.ttf',
   'C:\\Users\\lab_conputer\\programs\\venv3\\lib\\site-packages\\matplotlib\\mpl-data\\fonts\\ttf\\DejaVuSansMono-Bold.ttf',
   'DATA'),
  ('matplotlib\\mpl-data\\images\\zoom_to_rect.pdf',
   'C:\\Users\\lab_conputer\\programs\\venv3\\lib\\site-packages\\matplotlib\\mpl-data\\images\\zoom_to_rect.pdf',
   'DATA'),
  ('matplotlib\\mpl-data\\fonts\\afm\\pplri8a.afm',
   'C:\\Users\\lab_conputer\\programs\\venv3\\lib\\site-packages\\matplotlib\\mpl-data\\fonts\\afm\\pplri8a.afm',
   'DATA'),
  ('matplotlib\\mpl-data\\stylelib\\seaborn.mplstyle',
   'C:\\Users\\lab_conputer\\programs\\venv3\\lib\\site-packages\\matplotlib\\mpl-data\\stylelib\\seaborn.mplstyle',
   'DATA'),
  ('matplotlib\\mpl-data\\fonts\\ttf\\STIXSizFiveSymReg.ttf',
   'C:\\Users\\lab_conputer\\programs\\venv3\\lib\\site-packages\\matplotlib\\mpl-data\\fonts\\ttf\\STIXSizFiveSymReg.ttf',
   'DATA'),
  ('matplotlib\\mpl-data\\sample_data\\embedding_in_wx3.xrc',
   'C:\\Users\\lab_conputer\\programs\\venv3\\lib\\site-packages\\matplotlib\\mpl-data\\sample_data\\embedding_in_wx3.xrc',
   'DATA'),
  ('matplotlib\\mpl-data\\fonts\\ttf\\STIXSizThreeSymBol.ttf',
   'C:\\Users\\lab_conputer\\programs\\venv3\\lib\\site-packages\\matplotlib\\mpl-data\\fonts\\ttf\\STIXSizThreeSymBol.ttf',
   'DATA'),
  ('matplotlib\\mpl-data\\fonts\\afm\\pzcmi8a.afm',
   'C:\\Users\\lab_conputer\\programs\\venv3\\lib\\site-packages\\matplotlib\\mpl-data\\fonts\\afm\\pzcmi8a.afm',
   'DATA'),
  ('matplotlib\\mpl-data\\images\\home_large.png',
   'C:\\Users\\lab_conputer\\programs\\venv3\\lib\\site-packages\\matplotlib\\mpl-data\\images\\home_large.png',
   'DATA'),
  ('matplotlib\\mpl-data\\images\\matplotlib_large.png',
   'C:\\Users\\lab_conputer\\programs\\venv3\\lib\\site-packages\\matplotlib\\mpl-data\\images\\matplotlib_large.png',
   'DATA'),
  ('matplotlib\\mpl-data\\fonts\\ttf\\DejaVuSans.ttf',
   'C:\\Users\\lab_conputer\\programs\\venv3\\lib\\site-packages\\matplotlib\\mpl-data\\fonts\\ttf\\DejaVuSans.ttf',
   'DATA'),
  ('matplotlib\\mpl-data\\fonts\\ttf\\STIXSizOneSymReg.ttf',
   'C:\\Users\\lab_conputer\\programs\\venv3\\lib\\site-packages\\matplotlib\\mpl-data\\fonts\\ttf\\STIXSizOneSymReg.ttf',
   'DATA'),
  ('matplotlib\\mpl-data\\fonts\\ttf\\DejaVuSans-Bold.ttf',
   'C:\\Users\\lab_conputer\\programs\\venv3\\lib\\site-packages\\matplotlib\\mpl-data\\fonts\\ttf\\DejaVuSans-Bold.ttf',
   'DATA'),
  ('matplotlib\\mpl-data\\fonts\\afm\\ptmbi8a.afm',
   'C:\\Users\\lab_conputer\\programs\\venv3\\lib\\site-packages\\matplotlib\\mpl-data\\fonts\\afm\\ptmbi8a.afm',
   'DATA'),
  ('matplotlib\\mpl-data\\fonts\\pdfcorefonts\\Symbol.afm',
   'C:\\Users\\lab_conputer\\programs\\venv3\\lib\\site-packages\\matplotlib\\mpl-data\\fonts\\pdfcorefonts\\Symbol.afm',
   'DATA'),
  ('matplotlib\\mpl-data\\fonts\\ttf\\STIXGeneral.ttf',
   'C:\\Users\\lab_conputer\\programs\\venv3\\lib\\site-packages\\matplotlib\\mpl-data\\fonts\\ttf\\STIXGeneral.ttf',
   'DATA'),
  ('matplotlib\\mpl-data\\fonts\\pdfcorefonts\\Courier-Oblique.afm',
   'C:\\Users\\lab_conputer\\programs\\venv3\\lib\\site-packages\\matplotlib\\mpl-data\\fonts\\pdfcorefonts\\Courier-Oblique.afm',
   'DATA'),
  ('matplotlib\\mpl-data\\images\\move.pdf',
   'C:\\Users\\lab_conputer\\programs\\venv3\\lib\\site-packages\\matplotlib\\mpl-data\\images\\move.pdf',
   'DATA'),
  ('matplotlib\\mpl-data\\fonts\\ttf\\DejaVuSansMono-BoldOblique.ttf',
   'C:\\Users\\lab_conputer\\programs\\venv3\\lib\\site-packages\\matplotlib\\mpl-data\\fonts\\ttf\\DejaVuSansMono-BoldOblique.ttf',
   'DATA'),
  ('matplotlib\\mpl-data\\fonts\\ttf\\STIXSizOneSymBol.ttf',
   'C:\\Users\\lab_conputer\\programs\\venv3\\lib\\site-packages\\matplotlib\\mpl-data\\fonts\\ttf\\STIXSizOneSymBol.ttf',
   'DATA'),
  ('matplotlib\\mpl-data\\images\\zoom_to_rect_large.png',
   'C:\\Users\\lab_conputer\\programs\\venv3\\lib\\site-packages\\matplotlib\\mpl-data\\images\\zoom_to_rect_large.png',
   'DATA'),
  ('PyQt5\\Qt5\\translations\\qtbase_hu.qm',
   'C:\\Users\\lab_conputer\\programs\\venv3\\lib\\site-packages\\PyQt5\\Qt5\\translations\\qtbase_hu.qm',
   'DATA'),
  ('matplotlib\\mpl-data\\fonts\\afm\\pcrb8a.afm',
   'C:\\Users\\lab_conputer\\programs\\venv3\\lib\\site-packages\\matplotlib\\mpl-data\\fonts\\afm\\pcrb8a.afm',
   'DATA'),
  ('matplotlib\\mpl-data\\fonts\\ttf\\STIXGeneralBol.ttf',
   'C:\\Users\\lab_conputer\\programs\\venv3\\lib\\site-packages\\matplotlib\\mpl-data\\fonts\\ttf\\STIXGeneralBol.ttf',
   'DATA'),
  ('matplotlib\\mpl-data\\images\\back_large.png',
   'C:\\Users\\lab_conputer\\programs\\venv3\\lib\\site-packages\\matplotlib\\mpl-data\\images\\back_large.png',
   'DATA'),
  ('matplotlib\\mpl-data\\fonts\\pdfcorefonts\\Times-BoldItalic.afm',
   'C:\\Users\\lab_conputer\\programs\\venv3\\lib\\site-packages\\matplotlib\\mpl-data\\fonts\\pdfcorefonts\\Times-BoldItalic.afm',
   'DATA'),
  ('matplotlib\\mpl-data\\images\\home.png',
   'C:\\Users\\lab_conputer\\programs\\venv3\\lib\\site-packages\\matplotlib\\mpl-data\\images\\home.png',
   'DATA'),
  ('PyQt5\\Qt5\\translations\\qtbase_bg.qm',
   'C:\\Users\\lab_conputer\\programs\\venv3\\lib\\site-packages\\PyQt5\\Qt5\\translations\\qtbase_bg.qm',
   'DATA'),
  ('matplotlib\\mpl-data\\fonts\\afm\\phvro8an.afm',
   'C:\\Users\\lab_conputer\\programs\\venv3\\lib\\site-packages\\matplotlib\\mpl-data\\fonts\\afm\\phvro8an.afm',
   'DATA'),
  ('matplotlib\\mpl-data\\sample_data\\percent_bachelors_degrees_women_usa.csv',
   'C:\\Users\\lab_conputer\\programs\\venv3\\lib\\site-packages\\matplotlib\\mpl-data\\sample_data\\percent_bachelors_degrees_women_usa.csv',
   'DATA'),
  ('matplotlib\\mpl-data\\sample_data\\data_x_x2_x3.csv',
   'C:\\Users\\lab_conputer\\programs\\venv3\\lib\\site-packages\\matplotlib\\mpl-data\\sample_data\\data_x_x2_x3.csv',
   'DATA'),
  ('PyQt5\\Qt5\\translations\\qtbase_ar.qm',
   'C:\\Users\\lab_conputer\\programs\\venv3\\lib\\site-packages\\PyQt5\\Qt5\\translations\\qtbase_ar.qm',
   'DATA'),
  ('matplotlib\\mpl-data\\sample_data\\eeg.dat',
   'C:\\Users\\lab_conputer\\programs\\venv3\\lib\\site-packages\\matplotlib\\mpl-data\\sample_data\\eeg.dat',
   'DATA'),
  ('matplotlib\\mpl-data\\stylelib\\dark_background.mplstyle',
   'C:\\Users\\lab_conputer\\programs\\venv3\\lib\\site-packages\\matplotlib\\mpl-data\\stylelib\\dark_background.mplstyle',
   'DATA'),
  ('matplotlib\\mpl-data\\fonts\\afm\\pplb8a.afm',
   'C:\\Users\\lab_conputer\\programs\\venv3\\lib\\site-packages\\matplotlib\\mpl-data\\fonts\\afm\\pplb8a.afm',
   'DATA'),
  ('matplotlib\\mpl-data\\fonts\\ttf\\STIXGeneralBolIta.ttf',
   'C:\\Users\\lab_conputer\\programs\\venv3\\lib\\site-packages\\matplotlib\\mpl-data\\fonts\\ttf\\STIXGeneralBolIta.ttf',
   'DATA'),
  ('matplotlib\\mpl-data\\stylelib\\seaborn-colorblind.mplstyle',
   'C:\\Users\\lab_conputer\\programs\\venv3\\lib\\site-packages\\matplotlib\\mpl-data\\stylelib\\seaborn-colorblind.mplstyle',
   'DATA'),
  ('matplotlib\\mpl-data\\images\\home.pdf',
   'C:\\Users\\lab_conputer\\programs\\venv3\\lib\\site-packages\\matplotlib\\mpl-data\\images\\home.pdf',
   'DATA'),
  ('matplotlib\\mpl-data\\fonts\\ttf\\DejaVuSans-BoldOblique.ttf',
   'C:\\Users\\lab_conputer\\programs\\venv3\\lib\\site-packages\\matplotlib\\mpl-data\\fonts\\ttf\\DejaVuSans-BoldOblique.ttf',
   'DATA'),
  ('matplotlib\\mpl-data\\images\\matplotlib.svg',
   'C:\\Users\\lab_conputer\\programs\\venv3\\lib\\site-packages\\matplotlib\\mpl-data\\images\\matplotlib.svg',
   'DATA'),
  ('matplotlib\\mpl-data\\fonts\\afm\\pagko8a.afm',
   'C:\\Users\\lab_conputer\\programs\\venv3\\lib\\site-packages\\matplotlib\\mpl-data\\fonts\\afm\\pagko8a.afm',
   'DATA'),
  ('matplotlib\\mpl-data\\images\\subplots.png',
   'C:\\Users\\lab_conputer\\programs\\venv3\\lib\\site-packages\\matplotlib\\mpl-data\\images\\subplots.png',
   'DATA'),
  ('matplotlib\\mpl-data\\fonts\\afm\\phvb8a.afm',
   'C:\\Users\\lab_conputer\\programs\\venv3\\lib\\site-packages\\matplotlib\\mpl-data\\fonts\\afm\\phvb8a.afm',
   'DATA'),
  ('matplotlib\\mpl-data\\fonts\\ttf\\DejaVuSerifDisplay.ttf',
   'C:\\Users\\lab_conputer\\programs\\venv3\\lib\\site-packages\\matplotlib\\mpl-data\\fonts\\ttf\\DejaVuSerifDisplay.ttf',
   'DATA'),
  ('matplotlib\\mpl-data\\fonts\\pdfcorefonts\\ZapfDingbats.afm',
   'C:\\Users\\lab_conputer\\programs\\venv3\\lib\\site-packages\\matplotlib\\mpl-data\\fonts\\pdfcorefonts\\ZapfDingbats.afm',
   'DATA'),
  ('matplotlib\\mpl-data\\fonts\\afm\\cmtt10.afm',
   'C:\\Users\\lab_conputer\\programs\\venv3\\lib\\site-packages\\matplotlib\\mpl-data\\fonts\\afm\\cmtt10.afm',
   'DATA'),
  ('matplotlib\\mpl-data\\stylelib\\Solarize_Light2.mplstyle',
   'C:\\Users\\lab_conputer\\programs\\venv3\\lib\\site-packages\\matplotlib\\mpl-data\\stylelib\\Solarize_Light2.mplstyle',
   'DATA'),
  ('matplotlib\\mpl-data\\images\\back.pdf',
   'C:\\Users\\lab_conputer\\programs\\venv3\\lib\\site-packages\\matplotlib\\mpl-data\\images\\back.pdf',
   'DATA'),
  ('matplotlib\\mpl-data\\fonts\\afm\\pplbi8a.afm',
   'C:\\Users\\lab_conputer\\programs\\venv3\\lib\\site-packages\\matplotlib\\mpl-data\\fonts\\afm\\pplbi8a.afm',
   'DATA'),
  ('matplotlib\\mpl-data\\sample_data\\axes_grid\\bivariate_normal.npy',
   'C:\\Users\\lab_conputer\\programs\\venv3\\lib\\site-packages\\matplotlib\\mpl-data\\sample_data\\axes_grid\\bivariate_normal.npy',
   'DATA'),
  ('matplotlib\\mpl-data\\fonts\\afm\\pbkli8a.afm',
   'C:\\Users\\lab_conputer\\programs\\venv3\\lib\\site-packages\\matplotlib\\mpl-data\\fonts\\afm\\pbkli8a.afm',
   'DATA'),
  ('matplotlib\\mpl-data\\fonts\\ttf\\STIXSizTwoSymBol.ttf',
   'C:\\Users\\lab_conputer\\programs\\venv3\\lib\\site-packages\\matplotlib\\mpl-data\\fonts\\ttf\\STIXSizTwoSymBol.ttf',
   'DATA'),
  ('matplotlib\\mpl-data\\fonts\\ttf\\LICENSE_STIX',
   'C:\\Users\\lab_conputer\\programs\\venv3\\lib\\site-packages\\matplotlib\\mpl-data\\fonts\\ttf\\LICENSE_STIX',
   'DATA'),
  ('PyQt5\\Qt5\\translations\\qtbase_sk.qm',
   'C:\\Users\\lab_conputer\\programs\\venv3\\lib\\site-packages\\PyQt5\\Qt5\\translations\\qtbase_sk.qm',
   'DATA'),
  ('matplotlib\\mpl-data\\stylelib\\fivethirtyeight.mplstyle',
   'C:\\Users\\lab_conputer\\programs\\venv3\\lib\\site-packages\\matplotlib\\mpl-data\\stylelib\\fivethirtyeight.mplstyle',
   'DATA'),
  ('matplotlib\\mpl-data\\fonts\\afm\\putri8a.afm',
   'C:\\Users\\lab_conputer\\programs\\venv3\\lib\\site-packages\\matplotlib\\mpl-data\\fonts\\afm\\putri8a.afm',
   'DATA'),
  ('matplotlib\\mpl-data\\stylelib\\seaborn-bright.mplstyle',
   'C:\\Users\\lab_conputer\\programs\\venv3\\lib\\site-packages\\matplotlib\\mpl-data\\stylelib\\seaborn-bright.mplstyle',
   'DATA'),
  ('PyQt5\\Qt5\\translations\\qtbase_ru.qm',
   'C:\\Users\\lab_conputer\\programs\\venv3\\lib\\site-packages\\PyQt5\\Qt5\\translations\\qtbase_ru.qm',
   'DATA'),
  ('matplotlib\\mpl-data\\images\\qt4_editor_options.pdf',
   'C:\\Users\\lab_conputer\\programs\\venv3\\lib\\site-packages\\matplotlib\\mpl-data\\images\\qt4_editor_options.pdf',
   'DATA'),
  ('matplotlib\\mpl-data\\fonts\\afm\\pncri8a.afm',
   'C:\\Users\\lab_conputer\\programs\\venv3\\lib\\site-packages\\matplotlib\\mpl-data\\fonts\\afm\\pncri8a.afm',
   'DATA'),
  ('matplotlib\\mpl-data\\fonts\\afm\\ptmri8a.afm',
   'C:\\Users\\lab_conputer\\programs\\venv3\\lib\\site-packages\\matplotlib\\mpl-data\\fonts\\afm\\ptmri8a.afm',
   'DATA'),
  ('matplotlib\\mpl-data\\fonts\\afm\\putbi8a.afm',
   'C:\\Users\\lab_conputer\\programs\\venv3\\lib\\site-packages\\matplotlib\\mpl-data\\fonts\\afm\\putbi8a.afm',
   'DATA'),
  ('matplotlib\\mpl-data\\sample_data\\README.txt',
   'C:\\Users\\lab_conputer\\programs\\venv3\\lib\\site-packages\\matplotlib\\mpl-data\\sample_data\\README.txt',
   'DATA'),
  ('matplotlib\\mpl-data\\images\\matplotlib.png',
   'C:\\Users\\lab_conputer\\programs\\venv3\\lib\\site-packages\\matplotlib\\mpl-data\\images\\matplotlib.png',
   'DATA'),
  ('PyQt5\\Qt5\\translations\\qtbase_lv.qm',
   'C:\\Users\\lab_conputer\\programs\\venv3\\lib\\site-packages\\PyQt5\\Qt5\\translations\\qtbase_lv.qm',
   'DATA'),
  ('matplotlib\\mpl-data\\images\\zoom_to_rect-symbolic.svg',
   'C:\\Users\\lab_conputer\\programs\\venv3\\lib\\site-packages\\matplotlib\\mpl-data\\images\\zoom_to_rect-symbolic.svg',
   'DATA'),
  ('matplotlib\\mpl-data\\stylelib\\seaborn-pastel.mplstyle',
   'C:\\Users\\lab_conputer\\programs\\venv3\\lib\\site-packages\\matplotlib\\mpl-data\\stylelib\\seaborn-pastel.mplstyle',
   'DATA'),
  ('matplotlib\\mpl-data\\fonts\\afm\\putr8a.afm',
   'C:\\Users\\lab_conputer\\programs\\venv3\\lib\\site-packages\\matplotlib\\mpl-data\\fonts\\afm\\putr8a.afm',
   'DATA'),
  ('PyQt5\\Qt5\\translations\\qtbase_pl.qm',
   'C:\\Users\\lab_conputer\\programs\\venv3\\lib\\site-packages\\PyQt5\\Qt5\\translations\\qtbase_pl.qm',
   'DATA'),
  ('matplotlib\\mpl-data\\stylelib\\seaborn-talk.mplstyle',
   'C:\\Users\\lab_conputer\\programs\\venv3\\lib\\site-packages\\matplotlib\\mpl-data\\stylelib\\seaborn-talk.mplstyle',
   'DATA'),
  ('matplotlib\\mpl-data\\images\\zoom_to_rect.png',
   'C:\\Users\\lab_conputer\\programs\\venv3\\lib\\site-packages\\matplotlib\\mpl-data\\images\\zoom_to_rect.png',
   'DATA'),
  ('matplotlib\\mpl-data\\stylelib\\seaborn-white.mplstyle',
   'C:\\Users\\lab_conputer\\programs\\venv3\\lib\\site-packages\\matplotlib\\mpl-data\\stylelib\\seaborn-white.mplstyle',
   'DATA'),
  ('matplotlib\\mpl-data\\images\\filesave.pdf',
   'C:\\Users\\lab_conputer\\programs\\venv3\\lib\\site-packages\\matplotlib\\mpl-data\\images\\filesave.pdf',
   'DATA'),
  ('matplotlib\\mpl-data\\stylelib\\seaborn-notebook.mplstyle',
   'C:\\Users\\lab_conputer\\programs\\venv3\\lib\\site-packages\\matplotlib\\mpl-data\\stylelib\\seaborn-notebook.mplstyle',
   'DATA'),
  ('matplotlib\\mpl-data\\fonts\\ttf\\DejaVuSerif.ttf',
   'C:\\Users\\lab_conputer\\programs\\venv3\\lib\\site-packages\\matplotlib\\mpl-data\\fonts\\ttf\\DejaVuSerif.ttf',
   'DATA'),
  ('PyQt5\\Qt5\\translations\\qtbase_he.qm',
   'C:\\Users\\lab_conputer\\programs\\venv3\\lib\\site-packages\\PyQt5\\Qt5\\translations\\qtbase_he.qm',
   'DATA'),
  ('matplotlib\\mpl-data\\kpsewhich.lua',
   'C:\\Users\\lab_conputer\\programs\\venv3\\lib\\site-packages\\matplotlib\\mpl-data\\kpsewhich.lua',
   'DATA'),
  ('matplotlib\\mpl-data\\fonts\\afm\\phvro8a.afm',
   'C:\\Users\\lab_conputer\\programs\\venv3\\lib\\site-packages\\matplotlib\\mpl-data\\fonts\\afm\\phvro8a.afm',
   'DATA'),
  ('matplotlib\\mpl-data\\images\\move-symbolic.svg',
   'C:\\Users\\lab_conputer\\programs\\venv3\\lib\\site-packages\\matplotlib\\mpl-data\\images\\move-symbolic.svg',
   'DATA'),
  ('matplotlib\\mpl-data\\fonts\\ttf\\cmsy10.ttf',
   'C:\\Users\\lab_conputer\\programs\\venv3\\lib\\site-packages\\matplotlib\\mpl-data\\fonts\\ttf\\cmsy10.ttf',
   'DATA'),
  ('matplotlib\\mpl-data\\fonts\\afm\\pagk8a.afm',
   'C:\\Users\\lab_conputer\\programs\\venv3\\lib\\site-packages\\matplotlib\\mpl-data\\fonts\\afm\\pagk8a.afm',
   'DATA'),
  ('matplotlib\\mpl-data\\fonts\\ttf\\STIXNonUniBol.ttf',
   'C:\\Users\\lab_conputer\\programs\\venv3\\lib\\site-packages\\matplotlib\\mpl-data\\fonts\\ttf\\STIXNonUniBol.ttf',
   'DATA'),
  ('matplotlib\\mpl-data\\stylelib\\_mpl-gallery-nogrid.mplstyle',
   'C:\\Users\\lab_conputer\\programs\\venv3\\lib\\site-packages\\matplotlib\\mpl-data\\stylelib\\_mpl-gallery-nogrid.mplstyle',
   'DATA'),
  ('PyQt5\\Qt5\\translations\\qtbase_tr.qm',
   'C:\\Users\\lab_conputer\\programs\\venv3\\lib\\site-packages\\PyQt5\\Qt5\\translations\\qtbase_tr.qm',
   'DATA'),
  ('matplotlib\\mpl-data\\stylelib\\seaborn-dark.mplstyle',
   'C:\\Users\\lab_conputer\\programs\\venv3\\lib\\site-packages\\matplotlib\\mpl-data\\stylelib\\seaborn-dark.mplstyle',
   'DATA'),
  ('PyQt5\\Qt5\\translations\\qtbase_ko.qm',
   'C:\\Users\\lab_conputer\\programs\\venv3\\lib\\site-packages\\PyQt5\\Qt5\\translations\\qtbase_ko.qm',
   'DATA'),
  ('matplotlib\\mpl-data\\fonts\\afm\\pagd8a.afm',
   'C:\\Users\\lab_conputer\\programs\\venv3\\lib\\site-packages\\matplotlib\\mpl-data\\fonts\\afm\\pagd8a.afm',
   'DATA'),
  ('PyQt5\\Qt5\\translations\\qtbase_fi.qm',
   'C:\\Users\\lab_conputer\\programs\\venv3\\lib\\site-packages\\PyQt5\\Qt5\\translations\\qtbase_fi.qm',
   'DATA'),
  ('matplotlib\\mpl-data\\sample_data\\logo2.png',
   'C:\\Users\\lab_conputer\\programs\\venv3\\lib\\site-packages\\matplotlib\\mpl-data\\sample_data\\logo2.png',
   'DATA'),
  ('matplotlib\\mpl-data\\fonts\\ttf\\cmtt10.ttf',
   'C:\\Users\\lab_conputer\\programs\\venv3\\lib\\site-packages\\matplotlib\\mpl-data\\fonts\\ttf\\cmtt10.ttf',
   'DATA'),
  ('matplotlib\\mpl-data\\fonts\\pdfcorefonts\\Helvetica.afm',
   'C:\\Users\\lab_conputer\\programs\\venv3\\lib\\site-packages\\matplotlib\\mpl-data\\fonts\\pdfcorefonts\\Helvetica.afm',
   'DATA'),
  ('matplotlib\\mpl-data\\fonts\\afm\\ptmr8a.afm',
   'C:\\Users\\lab_conputer\\programs\\venv3\\lib\\site-packages\\matplotlib\\mpl-data\\fonts\\afm\\ptmr8a.afm',
   'DATA'),
  ('matplotlib\\mpl-data\\fonts\\pdfcorefonts\\Helvetica-Oblique.afm',
   'C:\\Users\\lab_conputer\\programs\\venv3\\lib\\site-packages\\matplotlib\\mpl-data\\fonts\\pdfcorefonts\\Helvetica-Oblique.afm',
   'DATA'),
  ('matplotlib\\mpl-data\\sample_data\\s1045.ima.gz',
   'C:\\Users\\lab_conputer\\programs\\venv3\\lib\\site-packages\\matplotlib\\mpl-data\\sample_data\\s1045.ima.gz',
   'DATA'),
  ('matplotlib\\mpl-data\\fonts\\pdfcorefonts\\Times-Italic.afm',
   'C:\\Users\\lab_conputer\\programs\\venv3\\lib\\site-packages\\matplotlib\\mpl-data\\fonts\\pdfcorefonts\\Times-Italic.afm',
   'DATA'),
  ('matplotlib\\mpl-data\\images\\forward.pdf',
   'C:\\Users\\lab_conputer\\programs\\venv3\\lib\\site-packages\\matplotlib\\mpl-data\\images\\forward.pdf',
   'DATA'),
  ('matplotlib\\mpl-data\\stylelib\\seaborn-darkgrid.mplstyle',
   'C:\\Users\\lab_conputer\\programs\\venv3\\lib\\site-packages\\matplotlib\\mpl-data\\stylelib\\seaborn-darkgrid.mplstyle',
   'DATA'),
  ('matplotlib\\mpl-data\\images\\home-symbolic.svg',
   'C:\\Users\\lab_conputer\\programs\\venv3\\lib\\site-packages\\matplotlib\\mpl-data\\images\\home-symbolic.svg',
   'DATA'),
  ('matplotlib\\mpl-data\\sample_data\\topobathy.npz',
   'C:\\Users\\lab_conputer\\programs\\venv3\\lib\\site-packages\\matplotlib\\mpl-data\\sample_data\\topobathy.npz',
   'DATA'),
  ('matplotlib\\mpl-data\\images\\home.svg',
   'C:\\Users\\lab_conputer\\programs\\venv3\\lib\\site-packages\\matplotlib\\mpl-data\\images\\home.svg',
   'DATA'),
  ('matplotlib\\mpl-data\\fonts\\pdfcorefonts\\Helvetica-BoldOblique.afm',
   'C:\\Users\\lab_conputer\\programs\\venv3\\lib\\site-packages\\matplotlib\\mpl-data\\fonts\\pdfcorefonts\\Helvetica-BoldOblique.afm',
   'DATA'),
  ('matplotlib\\mpl-data\\images\\zoom_to_rect.svg',
   'C:\\Users\\lab_conputer\\programs\\venv3\\lib\\site-packages\\matplotlib\\mpl-data\\images\\zoom_to_rect.svg',
   'DATA'),
  ('matplotlib\\mpl-data\\images\\forward.png',
   'C:\\Users\\lab_conputer\\programs\\venv3\\lib\\site-packages\\matplotlib\\mpl-data\\images\\forward.png',
   'DATA'),
  ('matplotlib\\mpl-data\\fonts\\ttf\\cmmi10.ttf',
   'C:\\Users\\lab_conputer\\programs\\venv3\\lib\\site-packages\\matplotlib\\mpl-data\\fonts\\ttf\\cmmi10.ttf',
   'DATA'),
  ('matplotlib\\mpl-data\\fonts\\ttf\\STIXSizFourSymReg.ttf',
   'C:\\Users\\lab_conputer\\programs\\venv3\\lib\\site-packages\\matplotlib\\mpl-data\\fonts\\ttf\\STIXSizFourSymReg.ttf',
   'DATA')],)
