('C:\\Users\\lab_conputer\\programs\\synced_projects\\spex_control\\controller\\build\\spexman\\spexman.pkg',
 {'BINARY': 1,
  'DATA': 1,
  'EXECUTABLE': 1,
  'EXTENSION': 1,
  'PYMODULE': 1,
  'PYSOURCE': 1,
  'PYZ': 0,
  'SPLASH': 1},
 [('PYZ-00.pyz',
   'C:\\Users\\lab_conputer\\programs\\synced_projects\\spex_control\\controller\\build\\spexman\\PYZ-00.pyz',
   'PYZ'),
  ('struct',
   'C:\\Users\\lab_conputer\\programs\\synced_projects\\spex_control\\controller\\build\\spexman\\localpycs\\struct.pyc',
   'PYMODULE'),
  ('pyimod01_archive',
   'C:\\Users\\lab_conputer\\programs\\synced_projects\\spex_control\\controller\\build\\spexman\\localpycs\\pyimod01_archive.pyc',
   'PYMODULE'),
  ('pyimod02_importers',
   'C:\\Users\\lab_conputer\\programs\\synced_projects\\spex_control\\controller\\build\\spexman\\localpycs\\pyimod02_importers.pyc',
   'PYMODULE'),
  ('pyimod03_ctypes',
   'C:\\Users\\lab_conputer\\programs\\synced_projects\\spex_control\\controller\\build\\spexman\\localpycs\\pyimod03_ctypes.pyc',
   'PYMODULE'),
  ('pyimod04_pywin32',
   'C:\\Users\\lab_conputer\\programs\\synced_projects\\spex_control\\controller\\build\\spexman\\localpycs\\pyimod04_pywin32.pyc',
   'PYMODULE'),
  ('pyiboot01_bootstrap',
   'C:\\Users\\lab_conputer\\programs\\venv3\\lib\\site-packages\\PyInstaller\\loader\\pyiboot01_bootstrap.py',
   'PYSOURCE'),
  ('pyi_rth_inspect',
   'C:\\Users\\lab_conputer\\programs\\venv3\\Lib\\site-packages\\PyInstaller\\hooks\\rthooks\\pyi_rth_inspect.py',
   'PYSOURCE'),
  ('pyi_rth_pkgutil',
   'C:\\Users\\lab_conputer\\programs\\venv3\\Lib\\site-packages\\PyInstaller\\hooks\\rthooks\\pyi_rth_pkgutil.py',
   'PYSOURCE'),
  ('pyi_rth_multiprocessing',
   'C:\\Users\\lab_conputer\\programs\\venv3\\Lib\\site-packages\\PyInstaller\\hooks\\rthooks\\pyi_rth_multiprocessing.py',
   'PYSOURCE'),
  ('pyi_rth_pkgres',
   'C:\\Users\\lab_conputer\\programs\\venv3\\Lib\\site-packages\\PyInstaller\\hooks\\rthooks\\pyi_rth_pkgres.py',
   'PYSOURCE'),
  ('pyi_rth_mplconfig',
   'C:\\Users\\lab_conputer\\programs\\venv3\\Lib\\site-packages\\PyInstaller\\hooks\\rthooks\\pyi_rth_mplconfig.py',
   'PYSOURCE'),
  ('pyi_rth_pyqt6',
   'C:\\Users\\lab_conputer\\programs\\venv3\\Lib\\site-packages\\PyInstaller\\hooks\\rthooks\\pyi_rth_pyqt6.py',
   'PYSOURCE'),
  ('pyi_rth_pyqt5',
   'C:\\Users\\lab_conputer\\programs\\venv3\\Lib\\site-packages\\PyInstaller\\hooks\\rthooks\\pyi_rth_pyqt5.py',
   'PYSOURCE'),
  ('spexman',
   'C:\\Users\\lab_conputer\\programs\\synced_projects\\spex_control\\controller\\spexman.py',
   'PYSOURCE')],
 True,
 False,
 False,
 [],
 None,
 None,
 None)
