('C:\\Users\\lab_conputer\\programs\\synced_projects\\spex_control\\controller\\build\\spexman\\PYZ-00.pyz',
 [('tempfile',
   'C:\\Program '
   'Files\\WindowsApps\\PythonSoftwareFoundation.Python.3.10_3.10.2544.0_x64__qbz5n2kfra8p0\\lib\\tempfile.py',
   'PYMODULE'),
  ('random',
   'C:\\Program '
   'Files\\WindowsApps\\PythonSoftwareFoundation.Python.3.10_3.10.2544.0_x64__qbz5n2kfra8p0\\lib\\random.py',
   'PYMODULE'),
  ('_strptime',
   'C:\\Program '
   'Files\\WindowsApps\\PythonSoftwareFoundation.Python.3.10_3.10.2544.0_x64__qbz5n2kfra8p0\\lib\\_strptime.py',
   'PYMODULE'),
  ('datetime',
   'C:\\Program '
   'Files\\WindowsApps\\PythonSoftwareFoundation.Python.3.10_3.10.2544.0_x64__qbz5n2kfra8p0\\lib\\datetime.py',
   'PYMODULE'),
  ('calendar',
   'C:\\Program '
   'Files\\WindowsApps\\PythonSoftwareFoundation.Python.3.10_3.10.2544.0_x64__qbz5n2kfra8p0\\lib\\calendar.py',
   'PYMODULE'),
  ('argparse',
   'C:\\Program '
   'Files\\WindowsApps\\PythonSoftwareFoundation.Python.3.10_3.10.2544.0_x64__qbz5n2kfra8p0\\lib\\argparse.py',
   'PYMODULE'),
  ('textwrap',
   'C:\\Program '
   'Files\\WindowsApps\\PythonSoftwareFoundation.Python.3.10_3.10.2544.0_x64__qbz5n2kfra8p0\\lib\\textwrap.py',
   'PYMODULE'),
  ('copy',
   'C:\\Program '
   'Files\\WindowsApps\\PythonSoftwareFoundation.Python.3.10_3.10.2544.0_x64__qbz5n2kfra8p0\\lib\\copy.py',
   'PYMODULE'),
  ('gettext',
   'C:\\Program '
   'Files\\WindowsApps\\PythonSoftwareFoundation.Python.3.10_3.10.2544.0_x64__qbz5n2kfra8p0\\lib\\gettext.py',
   'PYMODULE'),
  ('struct',
   'C:\\Program '
   'Files\\WindowsApps\\PythonSoftwareFoundation.Python.3.10_3.10.2544.0_x64__qbz5n2kfra8p0\\lib\\struct.py',
   'PYMODULE'),
  ('statistics',
   'C:\\Program '
   'Files\\WindowsApps\\PythonSoftwareFoundation.Python.3.10_3.10.2544.0_x64__qbz5n2kfra8p0\\lib\\statistics.py',
   'PYMODULE'),
  ('decimal',
   'C:\\Program '
   'Files\\WindowsApps\\PythonSoftwareFoundation.Python.3.10_3.10.2544.0_x64__qbz5n2kfra8p0\\lib\\decimal.py',
   'PYMODULE'),
  ('_pydecimal',
   'C:\\Program '
   'Files\\WindowsApps\\PythonSoftwareFoundation.Python.3.10_3.10.2544.0_x64__qbz5n2kfra8p0\\lib\\_pydecimal.py',
   'PYMODULE'),
  ('contextvars',
   'C:\\Program '
   'Files\\WindowsApps\\PythonSoftwareFoundation.Python.3.10_3.10.2544.0_x64__qbz5n2kfra8p0\\lib\\contextvars.py',
   'PYMODULE'),
  ('fractions',
   'C:\\Program '
   'Files\\WindowsApps\\PythonSoftwareFoundation.Python.3.10_3.10.2544.0_x64__qbz5n2kfra8p0\\lib\\fractions.py',
   'PYMODULE'),
  ('numbers',
   'C:\\Program '
   'Files\\WindowsApps\\PythonSoftwareFoundation.Python.3.10_3.10.2544.0_x64__qbz5n2kfra8p0\\lib\\numbers.py',
   'PYMODULE'),
  ('hashlib',
   'C:\\Program '
   'Files\\WindowsApps\\PythonSoftwareFoundation.Python.3.10_3.10.2544.0_x64__qbz5n2kfra8p0\\lib\\hashlib.py',
   'PYMODULE'),
  ('logging',
   'C:\\Program '
   'Files\\WindowsApps\\PythonSoftwareFoundation.Python.3.10_3.10.2544.0_x64__qbz5n2kfra8p0\\lib\\logging\\__init__.py',
   'PYMODULE'),
  ('pickle',
   'C:\\Program '
   'Files\\WindowsApps\\PythonSoftwareFoundation.Python.3.10_3.10.2544.0_x64__qbz5n2kfra8p0\\lib\\pickle.py',
   'PYMODULE'),
  ('pprint',
   'C:\\Program '
   'Files\\WindowsApps\\PythonSoftwareFoundation.Python.3.10_3.10.2544.0_x64__qbz5n2kfra8p0\\lib\\pprint.py',
   'PYMODULE'),
  ('dataclasses',
   'C:\\Program '
   'Files\\WindowsApps\\PythonSoftwareFoundation.Python.3.10_3.10.2544.0_x64__qbz5n2kfra8p0\\lib\\dataclasses.py',
   'PYMODULE'),
  ('inspect',
   'C:\\Program '
   'Files\\WindowsApps\\PythonSoftwareFoundation.Python.3.10_3.10.2544.0_x64__qbz5n2kfra8p0\\lib\\inspect.py',
   'PYMODULE'),
  ('importlib',
   'C:\\Program '
   'Files\\WindowsApps\\PythonSoftwareFoundation.Python.3.10_3.10.2544.0_x64__qbz5n2kfra8p0\\lib\\importlib\\__init__.py',
   'PYMODULE'),
  ('importlib._common',
   'C:\\Program '
   'Files\\WindowsApps\\PythonSoftwareFoundation.Python.3.10_3.10.2544.0_x64__qbz5n2kfra8p0\\lib\\importlib\\_common.py',
   'PYMODULE'),
  ('importlib._adapters',
   'C:\\Program '
   'Files\\WindowsApps\\PythonSoftwareFoundation.Python.3.10_3.10.2544.0_x64__qbz5n2kfra8p0\\lib\\importlib\\_adapters.py',
   'PYMODULE'),
  ('typing',
   'C:\\Program '
   'Files\\WindowsApps\\PythonSoftwareFoundation.Python.3.10_3.10.2544.0_x64__qbz5n2kfra8p0\\lib\\typing.py',
   'PYMODULE'),
  ('contextlib',
   'C:\\Program '
   'Files\\WindowsApps\\PythonSoftwareFoundation.Python.3.10_3.10.2544.0_x64__qbz5n2kfra8p0\\lib\\contextlib.py',
   'PYMODULE'),
  ('importlib.abc',
   'C:\\Program '
   'Files\\WindowsApps\\PythonSoftwareFoundation.Python.3.10_3.10.2544.0_x64__qbz5n2kfra8p0\\lib\\importlib\\abc.py',
   'PYMODULE'),
  ('importlib._abc',
   'C:\\Program '
   'Files\\WindowsApps\\PythonSoftwareFoundation.Python.3.10_3.10.2544.0_x64__qbz5n2kfra8p0\\lib\\importlib\\_abc.py',
   'PYMODULE'),
  ('importlib._bootstrap_external',
   'C:\\Program '
   'Files\\WindowsApps\\PythonSoftwareFoundation.Python.3.10_3.10.2544.0_x64__qbz5n2kfra8p0\\lib\\importlib\\_bootstrap_external.py',
   'PYMODULE'),
  ('importlib.metadata',
   'C:\\Program '
   'Files\\WindowsApps\\PythonSoftwareFoundation.Python.3.10_3.10.2544.0_x64__qbz5n2kfra8p0\\lib\\importlib\\metadata\\__init__.py',
   'PYMODULE'),
  ('importlib.metadata._itertools',
   'C:\\Program '
   'Files\\WindowsApps\\PythonSoftwareFoundation.Python.3.10_3.10.2544.0_x64__qbz5n2kfra8p0\\lib\\importlib\\metadata\\_itertools.py',
   'PYMODULE'),
  ('importlib.metadata._functools',
   'C:\\Program '
   'Files\\WindowsApps\\PythonSoftwareFoundation.Python.3.10_3.10.2544.0_x64__qbz5n2kfra8p0\\lib\\importlib\\metadata\\_functools.py',
   'PYMODULE'),
  ('importlib.metadata._collections',
   'C:\\Program '
   'Files\\WindowsApps\\PythonSoftwareFoundation.Python.3.10_3.10.2544.0_x64__qbz5n2kfra8p0\\lib\\importlib\\metadata\\_collections.py',
   'PYMODULE'),
  ('importlib.metadata._meta',
   'C:\\Program '
   'Files\\WindowsApps\\PythonSoftwareFoundation.Python.3.10_3.10.2544.0_x64__qbz5n2kfra8p0\\lib\\importlib\\metadata\\_meta.py',
   'PYMODULE'),
  ('importlib.metadata._adapters',
   'C:\\Program '
   'Files\\WindowsApps\\PythonSoftwareFoundation.Python.3.10_3.10.2544.0_x64__qbz5n2kfra8p0\\lib\\importlib\\metadata\\_adapters.py',
   'PYMODULE'),
  ('importlib.metadata._text',
   'C:\\Program '
   'Files\\WindowsApps\\PythonSoftwareFoundation.Python.3.10_3.10.2544.0_x64__qbz5n2kfra8p0\\lib\\importlib\\metadata\\_text.py',
   'PYMODULE'),
  ('email.message',
   'C:\\Program '
   'Files\\WindowsApps\\PythonSoftwareFoundation.Python.3.10_3.10.2544.0_x64__qbz5n2kfra8p0\\lib\\email\\message.py',
   'PYMODULE'),
  ('email.policy',
   'C:\\Program '
   'Files\\WindowsApps\\PythonSoftwareFoundation.Python.3.10_3.10.2544.0_x64__qbz5n2kfra8p0\\lib\\email\\policy.py',
   'PYMODULE'),
  ('email.contentmanager',
   'C:\\Program '
   'Files\\WindowsApps\\PythonSoftwareFoundation.Python.3.10_3.10.2544.0_x64__qbz5n2kfra8p0\\lib\\email\\contentmanager.py',
   'PYMODULE'),
  ('email.quoprimime',
   'C:\\Program '
   'Files\\WindowsApps\\PythonSoftwareFoundation.Python.3.10_3.10.2544.0_x64__qbz5n2kfra8p0\\lib\\email\\quoprimime.py',
   'PYMODULE'),
  ('email.headerregistry',
   'C:\\Program '
   'Files\\WindowsApps\\PythonSoftwareFoundation.Python.3.10_3.10.2544.0_x64__qbz5n2kfra8p0\\lib\\email\\headerregistry.py',
   'PYMODULE'),
  ('email._header_value_parser',
   'C:\\Program '
   'Files\\WindowsApps\\PythonSoftwareFoundation.Python.3.10_3.10.2544.0_x64__qbz5n2kfra8p0\\lib\\email\\_header_value_parser.py',
   'PYMODULE'),
  ('email.iterators',
   'C:\\Program '
   'Files\\WindowsApps\\PythonSoftwareFoundation.Python.3.10_3.10.2544.0_x64__qbz5n2kfra8p0\\lib\\email\\iterators.py',
   'PYMODULE'),
  ('email.generator',
   'C:\\Program '
   'Files\\WindowsApps\\PythonSoftwareFoundation.Python.3.10_3.10.2544.0_x64__qbz5n2kfra8p0\\lib\\email\\generator.py',
   'PYMODULE'),
  ('email._encoded_words',
   'C:\\Program '
   'Files\\WindowsApps\\PythonSoftwareFoundation.Python.3.10_3.10.2544.0_x64__qbz5n2kfra8p0\\lib\\email\\_encoded_words.py',
   'PYMODULE'),
  ('base64',
   'C:\\Program '
   'Files\\WindowsApps\\PythonSoftwareFoundation.Python.3.10_3.10.2544.0_x64__qbz5n2kfra8p0\\lib\\base64.py',
   'PYMODULE'),
  ('getopt',
   'C:\\Program '
   'Files\\WindowsApps\\PythonSoftwareFoundation.Python.3.10_3.10.2544.0_x64__qbz5n2kfra8p0\\lib\\getopt.py',
   'PYMODULE'),
  ('email.charset',
   'C:\\Program '
   'Files\\WindowsApps\\PythonSoftwareFoundation.Python.3.10_3.10.2544.0_x64__qbz5n2kfra8p0\\lib\\email\\charset.py',
   'PYMODULE'),
  ('email.encoders',
   'C:\\Program '
   'Files\\WindowsApps\\PythonSoftwareFoundation.Python.3.10_3.10.2544.0_x64__qbz5n2kfra8p0\\lib\\email\\encoders.py',
   'PYMODULE'),
  ('email.base64mime',
   'C:\\Program '
   'Files\\WindowsApps\\PythonSoftwareFoundation.Python.3.10_3.10.2544.0_x64__qbz5n2kfra8p0\\lib\\email\\base64mime.py',
   'PYMODULE'),
  ('email._policybase',
   'C:\\Program '
   'Files\\WindowsApps\\PythonSoftwareFoundation.Python.3.10_3.10.2544.0_x64__qbz5n2kfra8p0\\lib\\email\\_policybase.py',
   'PYMODULE'),
  ('email.header',
   'C:\\Program '
   'Files\\WindowsApps\\PythonSoftwareFoundation.Python.3.10_3.10.2544.0_x64__qbz5n2kfra8p0\\lib\\email\\header.py',
   'PYMODULE'),
  ('email.errors',
   'C:\\Program '
   'Files\\WindowsApps\\PythonSoftwareFoundation.Python.3.10_3.10.2544.0_x64__qbz5n2kfra8p0\\lib\\email\\errors.py',
   'PYMODULE'),
  ('email.utils',
   'C:\\Program '
   'Files\\WindowsApps\\PythonSoftwareFoundation.Python.3.10_3.10.2544.0_x64__qbz5n2kfra8p0\\lib\\email\\utils.py',
   'PYMODULE'),
  ('email._parseaddr',
   'C:\\Program '
   'Files\\WindowsApps\\PythonSoftwareFoundation.Python.3.10_3.10.2544.0_x64__qbz5n2kfra8p0\\lib\\email\\_parseaddr.py',
   'PYMODULE'),
  ('socket',
   'C:\\Program '
   'Files\\WindowsApps\\PythonSoftwareFoundation.Python.3.10_3.10.2544.0_x64__qbz5n2kfra8p0\\lib\\socket.py',
   'PYMODULE'),
  ('selectors',
   'C:\\Program '
   'Files\\WindowsApps\\PythonSoftwareFoundation.Python.3.10_3.10.2544.0_x64__qbz5n2kfra8p0\\lib\\selectors.py',
   'PYMODULE'),
  ('quopri',
   'C:\\Program '
   'Files\\WindowsApps\\PythonSoftwareFoundation.Python.3.10_3.10.2544.0_x64__qbz5n2kfra8p0\\lib\\quopri.py',
   'PYMODULE'),
  ('uu',
   'C:\\Program '
   'Files\\WindowsApps\\PythonSoftwareFoundation.Python.3.10_3.10.2544.0_x64__qbz5n2kfra8p0\\lib\\uu.py',
   'PYMODULE'),
  ('optparse',
   'C:\\Program '
   'Files\\WindowsApps\\PythonSoftwareFoundation.Python.3.10_3.10.2544.0_x64__qbz5n2kfra8p0\\lib\\optparse.py',
   'PYMODULE'),
  ('zipfile',
   'C:\\Program '
   'Files\\WindowsApps\\PythonSoftwareFoundation.Python.3.10_3.10.2544.0_x64__qbz5n2kfra8p0\\lib\\zipfile.py',
   'PYMODULE'),
  ('py_compile',
   'C:\\Program '
   'Files\\WindowsApps\\PythonSoftwareFoundation.Python.3.10_3.10.2544.0_x64__qbz5n2kfra8p0\\lib\\py_compile.py',
   'PYMODULE'),
  ('lzma',
   'C:\\Program '
   'Files\\WindowsApps\\PythonSoftwareFoundation.Python.3.10_3.10.2544.0_x64__qbz5n2kfra8p0\\lib\\lzma.py',
   'PYMODULE'),
  ('_compression',
   'C:\\Program '
   'Files\\WindowsApps\\PythonSoftwareFoundation.Python.3.10_3.10.2544.0_x64__qbz5n2kfra8p0\\lib\\_compression.py',
   'PYMODULE'),
  ('bz2',
   'C:\\Program '
   'Files\\WindowsApps\\PythonSoftwareFoundation.Python.3.10_3.10.2544.0_x64__qbz5n2kfra8p0\\lib\\bz2.py',
   'PYMODULE'),
  ('importlib.util',
   'C:\\Program '
   'Files\\WindowsApps\\PythonSoftwareFoundation.Python.3.10_3.10.2544.0_x64__qbz5n2kfra8p0\\lib\\importlib\\util.py',
   'PYMODULE'),
  ('email',
   'C:\\Program '
   'Files\\WindowsApps\\PythonSoftwareFoundation.Python.3.10_3.10.2544.0_x64__qbz5n2kfra8p0\\lib\\email\\__init__.py',
   'PYMODULE'),
  ('email.parser',
   'C:\\Program '
   'Files\\WindowsApps\\PythonSoftwareFoundation.Python.3.10_3.10.2544.0_x64__qbz5n2kfra8p0\\lib\\email\\parser.py',
   'PYMODULE'),
  ('email.feedparser',
   'C:\\Program '
   'Files\\WindowsApps\\PythonSoftwareFoundation.Python.3.10_3.10.2544.0_x64__qbz5n2kfra8p0\\lib\\email\\feedparser.py',
   'PYMODULE'),
  ('csv',
   'C:\\Program '
   'Files\\WindowsApps\\PythonSoftwareFoundation.Python.3.10_3.10.2544.0_x64__qbz5n2kfra8p0\\lib\\csv.py',
   'PYMODULE'),
  ('importlib.readers',
   'C:\\Program '
   'Files\\WindowsApps\\PythonSoftwareFoundation.Python.3.10_3.10.2544.0_x64__qbz5n2kfra8p0\\lib\\importlib\\readers.py',
   'PYMODULE'),
  ('importlib._bootstrap',
   'C:\\Program '
   'Files\\WindowsApps\\PythonSoftwareFoundation.Python.3.10_3.10.2544.0_x64__qbz5n2kfra8p0\\lib\\importlib\\_bootstrap.py',
   'PYMODULE'),
  ('importlib.machinery',
   'C:\\Program '
   'Files\\WindowsApps\\PythonSoftwareFoundation.Python.3.10_3.10.2544.0_x64__qbz5n2kfra8p0\\lib\\importlib\\machinery.py',
   'PYMODULE'),
  ('dis',
   'C:\\Program '
   'Files\\WindowsApps\\PythonSoftwareFoundation.Python.3.10_3.10.2544.0_x64__qbz5n2kfra8p0\\lib\\dis.py',
   'PYMODULE'),
  ('opcode',
   'C:\\Program '
   'Files\\WindowsApps\\PythonSoftwareFoundation.Python.3.10_3.10.2544.0_x64__qbz5n2kfra8p0\\lib\\opcode.py',
   'PYMODULE'),
  ('ast',
   'C:\\Program '
   'Files\\WindowsApps\\PythonSoftwareFoundation.Python.3.10_3.10.2544.0_x64__qbz5n2kfra8p0\\lib\\ast.py',
   'PYMODULE'),
  ('_compat_pickle',
   'C:\\Program '
   'Files\\WindowsApps\\PythonSoftwareFoundation.Python.3.10_3.10.2544.0_x64__qbz5n2kfra8p0\\lib\\_compat_pickle.py',
   'PYMODULE'),
  ('threading',
   'C:\\Program '
   'Files\\WindowsApps\\PythonSoftwareFoundation.Python.3.10_3.10.2544.0_x64__qbz5n2kfra8p0\\lib\\threading.py',
   'PYMODULE'),
  ('_threading_local',
   'C:\\Program '
   'Files\\WindowsApps\\PythonSoftwareFoundation.Python.3.10_3.10.2544.0_x64__qbz5n2kfra8p0\\lib\\_threading_local.py',
   'PYMODULE'),
  ('string',
   'C:\\Program '
   'Files\\WindowsApps\\PythonSoftwareFoundation.Python.3.10_3.10.2544.0_x64__qbz5n2kfra8p0\\lib\\string.py',
   'PYMODULE'),
  ('bisect',
   'C:\\Program '
   'Files\\WindowsApps\\PythonSoftwareFoundation.Python.3.10_3.10.2544.0_x64__qbz5n2kfra8p0\\lib\\bisect.py',
   'PYMODULE'),
  ('shutil',
   'C:\\Program '
   'Files\\WindowsApps\\PythonSoftwareFoundation.Python.3.10_3.10.2544.0_x64__qbz5n2kfra8p0\\lib\\shutil.py',
   'PYMODULE'),
  ('tarfile',
   'C:\\Program '
   'Files\\WindowsApps\\PythonSoftwareFoundation.Python.3.10_3.10.2544.0_x64__qbz5n2kfra8p0\\lib\\tarfile.py',
   'PYMODULE'),
  ('gzip',
   'C:\\Program '
   'Files\\WindowsApps\\PythonSoftwareFoundation.Python.3.10_3.10.2544.0_x64__qbz5n2kfra8p0\\lib\\gzip.py',
   'PYMODULE'),
  ('pkg_resources',
   'C:\\Users\\lab_conputer\\programs\\venv3\\lib\\site-packages\\pkg_resources\\__init__.py',
   'PYMODULE'),
  ('packaging.version',
   'C:\\Users\\lab_conputer\\programs\\venv3\\lib\\site-packages\\packaging\\version.py',
   'PYMODULE'),
  ('packaging.utils',
   'C:\\Users\\lab_conputer\\programs\\venv3\\lib\\site-packages\\packaging\\utils.py',
   'PYMODULE'),
  ('packaging.tags',
   'C:\\Users\\lab_conputer\\programs\\venv3\\lib\\site-packages\\packaging\\tags.py',
   'PYMODULE'),
  ('packaging.specifiers',
   'C:\\Users\\lab_conputer\\programs\\venv3\\lib\\site-packages\\packaging\\specifiers.py',
   'PYMODULE'),
  ('packaging.requirements',
   'C:\\Users\\lab_conputer\\programs\\venv3\\lib\\site-packages\\packaging\\requirements.py',
   'PYMODULE'),
  ('pyparsing',
   'C:\\Users\\lab_conputer\\programs\\venv3\\lib\\site-packages\\pyparsing\\__init__.py',
   'PYMODULE'),
  ('pyparsing.common',
   'C:\\Users\\lab_conputer\\programs\\venv3\\lib\\site-packages\\pyparsing\\common.py',
   'PYMODULE'),
  ('pyparsing.testing',
   'C:\\Users\\lab_conputer\\programs\\venv3\\lib\\site-packages\\pyparsing\\testing.py',
   'PYMODULE'),
  ('pyparsing.unicode',
   'C:\\Users\\lab_conputer\\programs\\venv3\\lib\\site-packages\\pyparsing\\unicode.py',
   'PYMODULE'),
  ('pyparsing.helpers',
   'C:\\Users\\lab_conputer\\programs\\venv3\\lib\\site-packages\\pyparsing\\helpers.py',
   'PYMODULE'),
  ('html.entities',
   'C:\\Program '
   'Files\\WindowsApps\\PythonSoftwareFoundation.Python.3.10_3.10.2544.0_x64__qbz5n2kfra8p0\\lib\\html\\entities.py',
   'PYMODULE'),
  ('html',
   'C:\\Program '
   'Files\\WindowsApps\\PythonSoftwareFoundation.Python.3.10_3.10.2544.0_x64__qbz5n2kfra8p0\\lib\\html\\__init__.py',
   'PYMODULE'),
  ('pyparsing.results',
   'C:\\Users\\lab_conputer\\programs\\venv3\\lib\\site-packages\\pyparsing\\results.py',
   'PYMODULE'),
  ('pyparsing.core',
   'C:\\Users\\lab_conputer\\programs\\venv3\\lib\\site-packages\\pyparsing\\core.py',
   'PYMODULE'),
  ('pyparsing.diagram',
   'C:\\Users\\lab_conputer\\programs\\venv3\\lib\\site-packages\\pyparsing\\diagram\\__init__.py',
   'PYMODULE'),
  ('pdb',
   'C:\\Program '
   'Files\\WindowsApps\\PythonSoftwareFoundation.Python.3.10_3.10.2544.0_x64__qbz5n2kfra8p0\\lib\\pdb.py',
   'PYMODULE'),
  ('pydoc',
   'C:\\Program '
   'Files\\WindowsApps\\PythonSoftwareFoundation.Python.3.10_3.10.2544.0_x64__qbz5n2kfra8p0\\lib\\pydoc.py',
   'PYMODULE'),
  ('webbrowser',
   'C:\\Program '
   'Files\\WindowsApps\\PythonSoftwareFoundation.Python.3.10_3.10.2544.0_x64__qbz5n2kfra8p0\\lib\\webbrowser.py',
   'PYMODULE'),
  ('http.server',
   'C:\\Program '
   'Files\\WindowsApps\\PythonSoftwareFoundation.Python.3.10_3.10.2544.0_x64__qbz5n2kfra8p0\\lib\\http\\server.py',
   'PYMODULE'),
  ('http',
   'C:\\Program '
   'Files\\WindowsApps\\PythonSoftwareFoundation.Python.3.10_3.10.2544.0_x64__qbz5n2kfra8p0\\lib\\http\\__init__.py',
   'PYMODULE'),
  ('socketserver',
   'C:\\Program '
   'Files\\WindowsApps\\PythonSoftwareFoundation.Python.3.10_3.10.2544.0_x64__qbz5n2kfra8p0\\lib\\socketserver.py',
   'PYMODULE'),
  ('mimetypes',
   'C:\\Program '
   'Files\\WindowsApps\\PythonSoftwareFoundation.Python.3.10_3.10.2544.0_x64__qbz5n2kfra8p0\\lib\\mimetypes.py',
   'PYMODULE'),
  ('http.client',
   'C:\\Program '
   'Files\\WindowsApps\\PythonSoftwareFoundation.Python.3.10_3.10.2544.0_x64__qbz5n2kfra8p0\\lib\\http\\client.py',
   'PYMODULE'),
  ('ssl',
   'C:\\Program '
   'Files\\WindowsApps\\PythonSoftwareFoundation.Python.3.10_3.10.2544.0_x64__qbz5n2kfra8p0\\lib\\ssl.py',
   'PYMODULE'),
  ('pydoc_data.topics',
   'C:\\Program '
   'Files\\WindowsApps\\PythonSoftwareFoundation.Python.3.10_3.10.2544.0_x64__qbz5n2kfra8p0\\lib\\pydoc_data\\topics.py',
   'PYMODULE'),
  ('pydoc_data',
   'C:\\Program '
   'Files\\WindowsApps\\PythonSoftwareFoundation.Python.3.10_3.10.2544.0_x64__qbz5n2kfra8p0\\lib\\pydoc_data\\__init__.py',
   'PYMODULE'),
  ('tty',
   'C:\\Program '
   'Files\\WindowsApps\\PythonSoftwareFoundation.Python.3.10_3.10.2544.0_x64__qbz5n2kfra8p0\\lib\\tty.py',
   'PYMODULE'),
  ('subprocess',
   'C:\\Program '
   'Files\\WindowsApps\\PythonSoftwareFoundation.Python.3.10_3.10.2544.0_x64__qbz5n2kfra8p0\\lib\\subprocess.py',
   'PYMODULE'),
  ('runpy',
   'C:\\Program '
   'Files\\WindowsApps\\PythonSoftwareFoundation.Python.3.10_3.10.2544.0_x64__qbz5n2kfra8p0\\lib\\runpy.py',
   'PYMODULE'),
  ('shlex',
   'C:\\Program '
   'Files\\WindowsApps\\PythonSoftwareFoundation.Python.3.10_3.10.2544.0_x64__qbz5n2kfra8p0\\lib\\shlex.py',
   'PYMODULE'),
  ('signal',
   'C:\\Program '
   'Files\\WindowsApps\\PythonSoftwareFoundation.Python.3.10_3.10.2544.0_x64__qbz5n2kfra8p0\\lib\\signal.py',
   'PYMODULE'),
  ('glob',
   'C:\\Program '
   'Files\\WindowsApps\\PythonSoftwareFoundation.Python.3.10_3.10.2544.0_x64__qbz5n2kfra8p0\\lib\\glob.py',
   'PYMODULE'),
  ('code',
   'C:\\Program '
   'Files\\WindowsApps\\PythonSoftwareFoundation.Python.3.10_3.10.2544.0_x64__qbz5n2kfra8p0\\lib\\code.py',
   'PYMODULE'),
  ('codeop',
   'C:\\Program '
   'Files\\WindowsApps\\PythonSoftwareFoundation.Python.3.10_3.10.2544.0_x64__qbz5n2kfra8p0\\lib\\codeop.py',
   'PYMODULE'),
  ('__future__',
   'C:\\Program '
   'Files\\WindowsApps\\PythonSoftwareFoundation.Python.3.10_3.10.2544.0_x64__qbz5n2kfra8p0\\lib\\__future__.py',
   'PYMODULE'),
  ('bdb',
   'C:\\Program '
   'Files\\WindowsApps\\PythonSoftwareFoundation.Python.3.10_3.10.2544.0_x64__qbz5n2kfra8p0\\lib\\bdb.py',
   'PYMODULE'),
  ('cmd',
   'C:\\Program '
   'Files\\WindowsApps\\PythonSoftwareFoundation.Python.3.10_3.10.2544.0_x64__qbz5n2kfra8p0\\lib\\cmd.py',
   'PYMODULE'),
  ('pyparsing.actions',
   'C:\\Users\\lab_conputer\\programs\\venv3\\lib\\site-packages\\pyparsing\\actions.py',
   'PYMODULE'),
  ('pyparsing.exceptions',
   'C:\\Users\\lab_conputer\\programs\\venv3\\lib\\site-packages\\pyparsing\\exceptions.py',
   'PYMODULE'),
  ('pyparsing.util',
   'C:\\Users\\lab_conputer\\programs\\venv3\\lib\\site-packages\\pyparsing\\util.py',
   'PYMODULE'),
  ('packaging.markers',
   'C:\\Users\\lab_conputer\\programs\\venv3\\lib\\site-packages\\packaging\\markers.py',
   'PYMODULE'),
  ('packaging._structures',
   'C:\\Users\\lab_conputer\\programs\\venv3\\lib\\site-packages\\packaging\\_structures.py',
   'PYMODULE'),
  ('packaging._musllinux',
   'C:\\Users\\lab_conputer\\programs\\venv3\\lib\\site-packages\\packaging\\_musllinux.py',
   'PYMODULE'),
  ('packaging._manylinux',
   'C:\\Users\\lab_conputer\\programs\\venv3\\lib\\site-packages\\packaging\\_manylinux.py',
   'PYMODULE'),
  ('ctypes',
   'C:\\Program '
   'Files\\WindowsApps\\PythonSoftwareFoundation.Python.3.10_3.10.2544.0_x64__qbz5n2kfra8p0\\lib\\ctypes\\__init__.py',
   'PYMODULE'),
  ('ctypes.wintypes',
   'C:\\Program '
   'Files\\WindowsApps\\PythonSoftwareFoundation.Python.3.10_3.10.2544.0_x64__qbz5n2kfra8p0\\lib\\ctypes\\wintypes.py',
   'PYMODULE'),
  ('ctypes._endian',
   'C:\\Program '
   'Files\\WindowsApps\\PythonSoftwareFoundation.Python.3.10_3.10.2544.0_x64__qbz5n2kfra8p0\\lib\\ctypes\\_endian.py',
   'PYMODULE'),
  ('packaging.__about__',
   'C:\\Users\\lab_conputer\\programs\\venv3\\lib\\site-packages\\packaging\\__about__.py',
   'PYMODULE'),
  ('packaging',
   'C:\\Users\\lab_conputer\\programs\\venv3\\lib\\site-packages\\packaging\\__init__.py',
   'PYMODULE'),
  ('pkg_resources._vendor.zipp',
   'C:\\Users\\lab_conputer\\programs\\venv3\\lib\\site-packages\\pkg_resources\\_vendor\\zipp.py',
   'PYMODULE'),
  ('pkg_resources._vendor.pyparsing.util',
   'C:\\Users\\lab_conputer\\programs\\venv3\\lib\\site-packages\\pkg_resources\\_vendor\\pyparsing\\util.py',
   'PYMODULE'),
  ('pkg_resources._vendor.pyparsing.unicode',
   'C:\\Users\\lab_conputer\\programs\\venv3\\lib\\site-packages\\pkg_resources\\_vendor\\pyparsing\\unicode.py',
   'PYMODULE'),
  ('pkg_resources._vendor.pyparsing.testing',
   'C:\\Users\\lab_conputer\\programs\\venv3\\lib\\site-packages\\pkg_resources\\_vendor\\pyparsing\\testing.py',
   'PYMODULE'),
  ('pkg_resources._vendor.pyparsing.results',
   'C:\\Users\\lab_conputer\\programs\\venv3\\lib\\site-packages\\pkg_resources\\_vendor\\pyparsing\\results.py',
   'PYMODULE'),
  ('pkg_resources._vendor.pyparsing.helpers',
   'C:\\Users\\lab_conputer\\programs\\venv3\\lib\\site-packages\\pkg_resources\\_vendor\\pyparsing\\helpers.py',
   'PYMODULE'),
  ('pkg_resources._vendor.pyparsing.exceptions',
   'C:\\Users\\lab_conputer\\programs\\venv3\\lib\\site-packages\\pkg_resources\\_vendor\\pyparsing\\exceptions.py',
   'PYMODULE'),
  ('pkg_resources._vendor.pyparsing.core',
   'C:\\Users\\lab_conputer\\programs\\venv3\\lib\\site-packages\\pkg_resources\\_vendor\\pyparsing\\core.py',
   'PYMODULE'),
  ('pkg_resources._vendor.pyparsing.diagram',
   'C:\\Users\\lab_conputer\\programs\\venv3\\lib\\site-packages\\pkg_resources\\_vendor\\pyparsing\\diagram\\__init__.py',
   'PYMODULE'),
  ('pkg_resources._vendor.pyparsing.common',
   'C:\\Users\\lab_conputer\\programs\\venv3\\lib\\site-packages\\pkg_resources\\_vendor\\pyparsing\\common.py',
   'PYMODULE'),
  ('pkg_resources._vendor.pyparsing.actions',
   'C:\\Users\\lab_conputer\\programs\\venv3\\lib\\site-packages\\pkg_resources\\_vendor\\pyparsing\\actions.py',
   'PYMODULE'),
  ('pkg_resources._vendor.pyparsing',
   'C:\\Users\\lab_conputer\\programs\\venv3\\lib\\site-packages\\pkg_resources\\_vendor\\pyparsing\\__init__.py',
   'PYMODULE'),
  ('pkg_resources._vendor.packaging.version',
   'C:\\Users\\lab_conputer\\programs\\venv3\\lib\\site-packages\\pkg_resources\\_vendor\\packaging\\version.py',
   'PYMODULE'),
  ('pkg_resources._vendor.packaging.utils',
   'C:\\Users\\lab_conputer\\programs\\venv3\\lib\\site-packages\\pkg_resources\\_vendor\\packaging\\utils.py',
   'PYMODULE'),
  ('pkg_resources._vendor.packaging.tags',
   'C:\\Users\\lab_conputer\\programs\\venv3\\lib\\site-packages\\pkg_resources\\_vendor\\packaging\\tags.py',
   'PYMODULE'),
  ('pkg_resources._vendor.packaging.specifiers',
   'C:\\Users\\lab_conputer\\programs\\venv3\\lib\\site-packages\\pkg_resources\\_vendor\\packaging\\specifiers.py',
   'PYMODULE'),
  ('pkg_resources._vendor.packaging.requirements',
   'C:\\Users\\lab_conputer\\programs\\venv3\\lib\\site-packages\\pkg_resources\\_vendor\\packaging\\requirements.py',
   'PYMODULE'),
  ('pkg_resources._vendor.packaging.markers',
   'C:\\Users\\lab_conputer\\programs\\venv3\\lib\\site-packages\\pkg_resources\\_vendor\\packaging\\markers.py',
   'PYMODULE'),
  ('pkg_resources._vendor.packaging._structures',
   'C:\\Users\\lab_conputer\\programs\\venv3\\lib\\site-packages\\pkg_resources\\_vendor\\packaging\\_structures.py',
   'PYMODULE'),
  ('pkg_resources._vendor.packaging._musllinux',
   'C:\\Users\\lab_conputer\\programs\\venv3\\lib\\site-packages\\pkg_resources\\_vendor\\packaging\\_musllinux.py',
   'PYMODULE'),
  ('pkg_resources._vendor.packaging._manylinux',
   'C:\\Users\\lab_conputer\\programs\\venv3\\lib\\site-packages\\pkg_resources\\_vendor\\packaging\\_manylinux.py',
   'PYMODULE'),
  ('pkg_resources._vendor.packaging.__about__',
   'C:\\Users\\lab_conputer\\programs\\venv3\\lib\\site-packages\\pkg_resources\\_vendor\\packaging\\__about__.py',
   'PYMODULE'),
  ('pkg_resources._vendor.packaging',
   'C:\\Users\\lab_conputer\\programs\\venv3\\lib\\site-packages\\pkg_resources\\_vendor\\packaging\\__init__.py',
   'PYMODULE'),
  ('pkg_resources._vendor.more_itertools.recipes',
   'C:\\Users\\lab_conputer\\programs\\venv3\\lib\\site-packages\\pkg_resources\\_vendor\\more_itertools\\recipes.py',
   'PYMODULE'),
  ('pkg_resources._vendor.more_itertools.more',
   'C:\\Users\\lab_conputer\\programs\\venv3\\lib\\site-packages\\pkg_resources\\_vendor\\more_itertools\\more.py',
   'PYMODULE'),
  ('queue',
   'C:\\Program '
   'Files\\WindowsApps\\PythonSoftwareFoundation.Python.3.10_3.10.2544.0_x64__qbz5n2kfra8p0\\lib\\queue.py',
   'PYMODULE'),
  ('pkg_resources._vendor.more_itertools',
   'C:\\Users\\lab_conputer\\programs\\venv3\\lib\\site-packages\\pkg_resources\\_vendor\\more_itertools\\__init__.py',
   'PYMODULE'),
  ('pkg_resources._vendor.jaraco.text',
   'C:\\Users\\lab_conputer\\programs\\venv3\\lib\\site-packages\\pkg_resources\\_vendor\\jaraco\\text\\__init__.py',
   'PYMODULE'),
  ('importlib.resources',
   'C:\\Program '
   'Files\\WindowsApps\\PythonSoftwareFoundation.Python.3.10_3.10.2544.0_x64__qbz5n2kfra8p0\\lib\\importlib\\resources.py',
   'PYMODULE'),
  ('pkg_resources._vendor.jaraco.functools',
   'C:\\Users\\lab_conputer\\programs\\venv3\\lib\\site-packages\\pkg_resources\\_vendor\\jaraco\\functools.py',
   'PYMODULE'),
  ('pkg_resources._vendor.jaraco.context',
   'C:\\Users\\lab_conputer\\programs\\venv3\\lib\\site-packages\\pkg_resources\\_vendor\\jaraco\\context.py',
   'PYMODULE'),
  ('pkg_resources._vendor.jaraco',
   'C:\\Users\\lab_conputer\\programs\\venv3\\lib\\site-packages\\pkg_resources\\_vendor\\jaraco\\__init__.py',
   'PYMODULE'),
  ('pkg_resources._vendor.importlib_resources.simple',
   'C:\\Users\\lab_conputer\\programs\\venv3\\lib\\site-packages\\pkg_resources\\_vendor\\importlib_resources\\simple.py',
   'PYMODULE'),
  ('pkg_resources._vendor.importlib_resources.readers',
   'C:\\Users\\lab_conputer\\programs\\venv3\\lib\\site-packages\\pkg_resources\\_vendor\\importlib_resources\\readers.py',
   'PYMODULE'),
  ('pkg_resources._vendor.importlib_resources.abc',
   'C:\\Users\\lab_conputer\\programs\\venv3\\lib\\site-packages\\pkg_resources\\_vendor\\importlib_resources\\abc.py',
   'PYMODULE'),
  ('pkg_resources._vendor.importlib_resources._legacy',
   'C:\\Users\\lab_conputer\\programs\\venv3\\lib\\site-packages\\pkg_resources\\_vendor\\importlib_resources\\_legacy.py',
   'PYMODULE'),
  ('pkg_resources._vendor.importlib_resources._itertools',
   'C:\\Users\\lab_conputer\\programs\\venv3\\lib\\site-packages\\pkg_resources\\_vendor\\importlib_resources\\_itertools.py',
   'PYMODULE'),
  ('pkg_resources._vendor.importlib_resources._compat',
   'C:\\Users\\lab_conputer\\programs\\venv3\\lib\\site-packages\\pkg_resources\\_vendor\\importlib_resources\\_compat.py',
   'PYMODULE'),
  ('pkg_resources._vendor.importlib_resources._common',
   'C:\\Users\\lab_conputer\\programs\\venv3\\lib\\site-packages\\pkg_resources\\_vendor\\importlib_resources\\_common.py',
   'PYMODULE'),
  ('pkg_resources._vendor.importlib_resources._adapters',
   'C:\\Users\\lab_conputer\\programs\\venv3\\lib\\site-packages\\pkg_resources\\_vendor\\importlib_resources\\_adapters.py',
   'PYMODULE'),
  ('pkg_resources._vendor.importlib_resources',
   'C:\\Users\\lab_conputer\\programs\\venv3\\lib\\site-packages\\pkg_resources\\_vendor\\importlib_resources\\__init__.py',
   'PYMODULE'),
  ('pkg_resources._vendor.appdirs',
   'C:\\Users\\lab_conputer\\programs\\venv3\\lib\\site-packages\\pkg_resources\\_vendor\\appdirs.py',
   'PYMODULE'),
  ('pkg_resources._vendor',
   'C:\\Users\\lab_conputer\\programs\\venv3\\lib\\site-packages\\pkg_resources\\_vendor\\__init__.py',
   'PYMODULE'),
  ('sysconfig',
   'C:\\Program '
   'Files\\WindowsApps\\PythonSoftwareFoundation.Python.3.10_3.10.2544.0_x64__qbz5n2kfra8p0\\lib\\sysconfig.py',
   'PYMODULE'),
  ('_aix_support',
   'C:\\Program '
   'Files\\WindowsApps\\PythonSoftwareFoundation.Python.3.10_3.10.2544.0_x64__qbz5n2kfra8p0\\lib\\_aix_support.py',
   'PYMODULE'),
  ('_bootsubprocess',
   'C:\\Program '
   'Files\\WindowsApps\\PythonSoftwareFoundation.Python.3.10_3.10.2544.0_x64__qbz5n2kfra8p0\\lib\\_bootsubprocess.py',
   'PYMODULE'),
  ('pkg_resources.extern',
   'C:\\Users\\lab_conputer\\programs\\venv3\\lib\\site-packages\\pkg_resources\\extern\\__init__.py',
   'PYMODULE'),
  ('imp',
   'C:\\Program '
   'Files\\WindowsApps\\PythonSoftwareFoundation.Python.3.10_3.10.2544.0_x64__qbz5n2kfra8p0\\lib\\imp.py',
   'PYMODULE'),
  ('plistlib',
   'C:\\Program '
   'Files\\WindowsApps\\PythonSoftwareFoundation.Python.3.10_3.10.2544.0_x64__qbz5n2kfra8p0\\lib\\plistlib.py',
   'PYMODULE'),
  ('xml.parsers.expat',
   'C:\\Program '
   'Files\\WindowsApps\\PythonSoftwareFoundation.Python.3.10_3.10.2544.0_x64__qbz5n2kfra8p0\\lib\\xml\\parsers\\expat.py',
   'PYMODULE'),
  ('xml.parsers',
   'C:\\Program '
   'Files\\WindowsApps\\PythonSoftwareFoundation.Python.3.10_3.10.2544.0_x64__qbz5n2kfra8p0\\lib\\xml\\parsers\\__init__.py',
   'PYMODULE'),
  ('xml',
   'C:\\Program '
   'Files\\WindowsApps\\PythonSoftwareFoundation.Python.3.10_3.10.2544.0_x64__qbz5n2kfra8p0\\lib\\xml\\__init__.py',
   'PYMODULE'),
  ('xml.sax.expatreader',
   'C:\\Program '
   'Files\\WindowsApps\\PythonSoftwareFoundation.Python.3.10_3.10.2544.0_x64__qbz5n2kfra8p0\\lib\\xml\\sax\\expatreader.py',
   'PYMODULE'),
  ('xml.sax.saxutils',
   'C:\\Program '
   'Files\\WindowsApps\\PythonSoftwareFoundation.Python.3.10_3.10.2544.0_x64__qbz5n2kfra8p0\\lib\\xml\\sax\\saxutils.py',
   'PYMODULE'),
  ('xml.sax',
   'C:\\Program '
   'Files\\WindowsApps\\PythonSoftwareFoundation.Python.3.10_3.10.2544.0_x64__qbz5n2kfra8p0\\lib\\xml\\sax\\__init__.py',
   'PYMODULE'),
  ('xml.sax.handler',
   'C:\\Program '
   'Files\\WindowsApps\\PythonSoftwareFoundation.Python.3.10_3.10.2544.0_x64__qbz5n2kfra8p0\\lib\\xml\\sax\\handler.py',
   'PYMODULE'),
  ('xml.sax._exceptions',
   'C:\\Program '
   'Files\\WindowsApps\\PythonSoftwareFoundation.Python.3.10_3.10.2544.0_x64__qbz5n2kfra8p0\\lib\\xml\\sax\\_exceptions.py',
   'PYMODULE'),
  ('xml.sax.xmlreader',
   'C:\\Program '
   'Files\\WindowsApps\\PythonSoftwareFoundation.Python.3.10_3.10.2544.0_x64__qbz5n2kfra8p0\\lib\\xml\\sax\\xmlreader.py',
   'PYMODULE'),
  ('platform',
   'C:\\Program '
   'Files\\WindowsApps\\PythonSoftwareFoundation.Python.3.10_3.10.2544.0_x64__qbz5n2kfra8p0\\lib\\platform.py',
   'PYMODULE'),
  ('pkgutil',
   'C:\\Program '
   'Files\\WindowsApps\\PythonSoftwareFoundation.Python.3.10_3.10.2544.0_x64__qbz5n2kfra8p0\\lib\\pkgutil.py',
   'PYMODULE'),
  ('zipimport',
   'C:\\Program '
   'Files\\WindowsApps\\PythonSoftwareFoundation.Python.3.10_3.10.2544.0_x64__qbz5n2kfra8p0\\lib\\zipimport.py',
   'PYMODULE'),
  ('multiprocessing.popen_spawn_posix',
   'C:\\Program '
   'Files\\WindowsApps\\PythonSoftwareFoundation.Python.3.10_3.10.2544.0_x64__qbz5n2kfra8p0\\lib\\multiprocessing\\popen_spawn_posix.py',
   'PYMODULE'),
  ('multiprocessing.resource_tracker',
   'C:\\Program '
   'Files\\WindowsApps\\PythonSoftwareFoundation.Python.3.10_3.10.2544.0_x64__qbz5n2kfra8p0\\lib\\multiprocessing\\resource_tracker.py',
   'PYMODULE'),
  ('multiprocessing.util',
   'C:\\Program '
   'Files\\WindowsApps\\PythonSoftwareFoundation.Python.3.10_3.10.2544.0_x64__qbz5n2kfra8p0\\lib\\multiprocessing\\util.py',
   'PYMODULE'),
  ('multiprocessing.forkserver',
   'C:\\Program '
   'Files\\WindowsApps\\PythonSoftwareFoundation.Python.3.10_3.10.2544.0_x64__qbz5n2kfra8p0\\lib\\multiprocessing\\forkserver.py',
   'PYMODULE'),
  ('multiprocessing.connection',
   'C:\\Program '
   'Files\\WindowsApps\\PythonSoftwareFoundation.Python.3.10_3.10.2544.0_x64__qbz5n2kfra8p0\\lib\\multiprocessing\\connection.py',
   'PYMODULE'),
  ('multiprocessing.resource_sharer',
   'C:\\Program '
   'Files\\WindowsApps\\PythonSoftwareFoundation.Python.3.10_3.10.2544.0_x64__qbz5n2kfra8p0\\lib\\multiprocessing\\resource_sharer.py',
   'PYMODULE'),
  ('xmlrpc.client',
   'C:\\Program '
   'Files\\WindowsApps\\PythonSoftwareFoundation.Python.3.10_3.10.2544.0_x64__qbz5n2kfra8p0\\lib\\xmlrpc\\client.py',
   'PYMODULE'),
  ('xmlrpc',
   'C:\\Program '
   'Files\\WindowsApps\\PythonSoftwareFoundation.Python.3.10_3.10.2544.0_x64__qbz5n2kfra8p0\\lib\\xmlrpc\\__init__.py',
   'PYMODULE'),
  ('hmac',
   'C:\\Program '
   'Files\\WindowsApps\\PythonSoftwareFoundation.Python.3.10_3.10.2544.0_x64__qbz5n2kfra8p0\\lib\\hmac.py',
   'PYMODULE'),
  ('multiprocessing.process',
   'C:\\Program '
   'Files\\WindowsApps\\PythonSoftwareFoundation.Python.3.10_3.10.2544.0_x64__qbz5n2kfra8p0\\lib\\multiprocessing\\process.py',
   'PYMODULE'),
  ('multiprocessing.context',
   'C:\\Program '
   'Files\\WindowsApps\\PythonSoftwareFoundation.Python.3.10_3.10.2544.0_x64__qbz5n2kfra8p0\\lib\\multiprocessing\\context.py',
   'PYMODULE'),
  ('multiprocessing.popen_forkserver',
   'C:\\Program '
   'Files\\WindowsApps\\PythonSoftwareFoundation.Python.3.10_3.10.2544.0_x64__qbz5n2kfra8p0\\lib\\multiprocessing\\popen_forkserver.py',
   'PYMODULE'),
  ('multiprocessing.sharedctypes',
   'C:\\Program '
   'Files\\WindowsApps\\PythonSoftwareFoundation.Python.3.10_3.10.2544.0_x64__qbz5n2kfra8p0\\lib\\multiprocessing\\sharedctypes.py',
   'PYMODULE'),
  ('multiprocessing.heap',
   'C:\\Program '
   'Files\\WindowsApps\\PythonSoftwareFoundation.Python.3.10_3.10.2544.0_x64__qbz5n2kfra8p0\\lib\\multiprocessing\\heap.py',
   'PYMODULE'),
  ('multiprocessing.pool',
   'C:\\Program '
   'Files\\WindowsApps\\PythonSoftwareFoundation.Python.3.10_3.10.2544.0_x64__qbz5n2kfra8p0\\lib\\multiprocessing\\pool.py',
   'PYMODULE'),
  ('multiprocessing.dummy',
   'C:\\Program '
   'Files\\WindowsApps\\PythonSoftwareFoundation.Python.3.10_3.10.2544.0_x64__qbz5n2kfra8p0\\lib\\multiprocessing\\dummy\\__init__.py',
   'PYMODULE'),
  ('multiprocessing.dummy.connection',
   'C:\\Program '
   'Files\\WindowsApps\\PythonSoftwareFoundation.Python.3.10_3.10.2544.0_x64__qbz5n2kfra8p0\\lib\\multiprocessing\\dummy\\connection.py',
   'PYMODULE'),
  ('multiprocessing.queues',
   'C:\\Program '
   'Files\\WindowsApps\\PythonSoftwareFoundation.Python.3.10_3.10.2544.0_x64__qbz5n2kfra8p0\\lib\\multiprocessing\\queues.py',
   'PYMODULE'),
  ('multiprocessing.synchronize',
   'C:\\Program '
   'Files\\WindowsApps\\PythonSoftwareFoundation.Python.3.10_3.10.2544.0_x64__qbz5n2kfra8p0\\lib\\multiprocessing\\synchronize.py',
   'PYMODULE'),
  ('multiprocessing.managers',
   'C:\\Program '
   'Files\\WindowsApps\\PythonSoftwareFoundation.Python.3.10_3.10.2544.0_x64__qbz5n2kfra8p0\\lib\\multiprocessing\\managers.py',
   'PYMODULE'),
  ('multiprocessing.shared_memory',
   'C:\\Program '
   'Files\\WindowsApps\\PythonSoftwareFoundation.Python.3.10_3.10.2544.0_x64__qbz5n2kfra8p0\\lib\\multiprocessing\\shared_memory.py',
   'PYMODULE'),
  ('secrets',
   'C:\\Program '
   'Files\\WindowsApps\\PythonSoftwareFoundation.Python.3.10_3.10.2544.0_x64__qbz5n2kfra8p0\\lib\\secrets.py',
   'PYMODULE'),
  ('multiprocessing.reduction',
   'C:\\Program '
   'Files\\WindowsApps\\PythonSoftwareFoundation.Python.3.10_3.10.2544.0_x64__qbz5n2kfra8p0\\lib\\multiprocessing\\reduction.py',
   'PYMODULE'),
  ('multiprocessing.popen_fork',
   'C:\\Program '
   'Files\\WindowsApps\\PythonSoftwareFoundation.Python.3.10_3.10.2544.0_x64__qbz5n2kfra8p0\\lib\\multiprocessing\\popen_fork.py',
   'PYMODULE'),
  ('multiprocessing.popen_spawn_win32',
   'C:\\Program '
   'Files\\WindowsApps\\PythonSoftwareFoundation.Python.3.10_3.10.2544.0_x64__qbz5n2kfra8p0\\lib\\multiprocessing\\popen_spawn_win32.py',
   'PYMODULE'),
  ('multiprocessing.spawn',
   'C:\\Program '
   'Files\\WindowsApps\\PythonSoftwareFoundation.Python.3.10_3.10.2544.0_x64__qbz5n2kfra8p0\\lib\\multiprocessing\\spawn.py',
   'PYMODULE'),
  ('multiprocessing',
   'C:\\Program '
   'Files\\WindowsApps\\PythonSoftwareFoundation.Python.3.10_3.10.2544.0_x64__qbz5n2kfra8p0\\lib\\multiprocessing\\__init__.py',
   'PYMODULE'),
  ('getpass',
   'C:\\Program '
   'Files\\WindowsApps\\PythonSoftwareFoundation.Python.3.10_3.10.2544.0_x64__qbz5n2kfra8p0\\lib\\getpass.py',
   'PYMODULE'),
  ('nturl2path',
   'C:\\Program '
   'Files\\WindowsApps\\PythonSoftwareFoundation.Python.3.10_3.10.2544.0_x64__qbz5n2kfra8p0\\lib\\nturl2path.py',
   'PYMODULE'),
  ('ftplib',
   'C:\\Program '
   'Files\\WindowsApps\\PythonSoftwareFoundation.Python.3.10_3.10.2544.0_x64__qbz5n2kfra8p0\\lib\\ftplib.py',
   'PYMODULE'),
  ('netrc',
   'C:\\Program '
   'Files\\WindowsApps\\PythonSoftwareFoundation.Python.3.10_3.10.2544.0_x64__qbz5n2kfra8p0\\lib\\netrc.py',
   'PYMODULE'),
  ('http.cookiejar',
   'C:\\Program '
   'Files\\WindowsApps\\PythonSoftwareFoundation.Python.3.10_3.10.2544.0_x64__qbz5n2kfra8p0\\lib\\http\\cookiejar.py',
   'PYMODULE'),
  ('_py_abc',
   'C:\\Program '
   'Files\\WindowsApps\\PythonSoftwareFoundation.Python.3.10_3.10.2544.0_x64__qbz5n2kfra8p0\\lib\\_py_abc.py',
   'PYMODULE'),
  ('stringprep',
   'C:\\Program '
   'Files\\WindowsApps\\PythonSoftwareFoundation.Python.3.10_3.10.2544.0_x64__qbz5n2kfra8p0\\lib\\stringprep.py',
   'PYMODULE'),
  ('tracemalloc',
   'C:\\Program '
   'Files\\WindowsApps\\PythonSoftwareFoundation.Python.3.10_3.10.2544.0_x64__qbz5n2kfra8p0\\lib\\tracemalloc.py',
   'PYMODULE'),
  ('camera_atmc',
   'C:\\Users\\lab_conputer\\programs\\synced_projects\\spex_control\\controller\\camera_atmc.py',
   'PYMODULE'),
  ('atmcd64m',
   'C:\\Users\\lab_conputer\\programs\\synced_projects\\spex_control\\controller\\atmcd64m.py',
   'PYMODULE'),
  ('numpy',
   'C:\\Users\\lab_conputer\\programs\\venv3\\lib\\site-packages\\numpy\\__init__.py',
   'PYMODULE'),
  ('numpy.core._dtype_ctypes',
   'C:\\Users\\lab_conputer\\programs\\venv3\\lib\\site-packages\\numpy\\core\\_dtype_ctypes.py',
   'PYMODULE'),
  ('numpy.version',
   'C:\\Users\\lab_conputer\\programs\\venv3\\lib\\site-packages\\numpy\\version.py',
   'PYMODULE'),
  ('numpy._version',
   'C:\\Users\\lab_conputer\\programs\\venv3\\lib\\site-packages\\numpy\\_version.py',
   'PYMODULE'),
  ('json',
   'C:\\Program '
   'Files\\WindowsApps\\PythonSoftwareFoundation.Python.3.10_3.10.2544.0_x64__qbz5n2kfra8p0\\lib\\json\\__init__.py',
   'PYMODULE'),
  ('json.encoder',
   'C:\\Program '
   'Files\\WindowsApps\\PythonSoftwareFoundation.Python.3.10_3.10.2544.0_x64__qbz5n2kfra8p0\\lib\\json\\encoder.py',
   'PYMODULE'),
  ('json.decoder',
   'C:\\Program '
   'Files\\WindowsApps\\PythonSoftwareFoundation.Python.3.10_3.10.2544.0_x64__qbz5n2kfra8p0\\lib\\json\\decoder.py',
   'PYMODULE'),
  ('json.scanner',
   'C:\\Program '
   'Files\\WindowsApps\\PythonSoftwareFoundation.Python.3.10_3.10.2544.0_x64__qbz5n2kfra8p0\\lib\\json\\scanner.py',
   'PYMODULE'),
  ('numpy._pytesttester',
   'C:\\Users\\lab_conputer\\programs\\venv3\\lib\\site-packages\\numpy\\_pytesttester.py',
   'PYMODULE'),
  ('numpy.testing',
   'C:\\Users\\lab_conputer\\programs\\venv3\\lib\\site-packages\\numpy\\testing\\__init__.py',
   'PYMODULE'),
  ('numpy.testing._private.nosetester',
   'C:\\Users\\lab_conputer\\programs\\venv3\\lib\\site-packages\\numpy\\testing\\_private\\nosetester.py',
   'PYMODULE'),
  ('doctest',
   'C:\\Program '
   'Files\\WindowsApps\\PythonSoftwareFoundation.Python.3.10_3.10.2544.0_x64__qbz5n2kfra8p0\\lib\\doctest.py',
   'PYMODULE'),
  ('difflib',
   'C:\\Program '
   'Files\\WindowsApps\\PythonSoftwareFoundation.Python.3.10_3.10.2544.0_x64__qbz5n2kfra8p0\\lib\\difflib.py',
   'PYMODULE'),
  ('numpy.testing._private.noseclasses',
   'C:\\Users\\lab_conputer\\programs\\venv3\\lib\\site-packages\\numpy\\testing\\_private\\noseclasses.py',
   'PYMODULE'),
  ('numpy.testing._private.decorators',
   'C:\\Users\\lab_conputer\\programs\\venv3\\lib\\site-packages\\numpy\\testing\\_private\\decorators.py',
   'PYMODULE'),
  ('numpy.testing._private.parameterized',
   'C:\\Users\\lab_conputer\\programs\\venv3\\lib\\site-packages\\numpy\\testing\\_private\\parameterized.py',
   'PYMODULE'),
  ('numpy.testing._private.extbuild',
   'C:\\Users\\lab_conputer\\programs\\venv3\\lib\\site-packages\\numpy\\testing\\_private\\extbuild.py',
   'PYMODULE'),
  ('numpy.testing._private',
   'C:\\Users\\lab_conputer\\programs\\venv3\\lib\\site-packages\\numpy\\testing\\_private\\__init__.py',
   'PYMODULE'),
  ('numpy.testing._private.utils',
   'C:\\Users\\lab_conputer\\programs\\venv3\\lib\\site-packages\\numpy\\testing\\_private\\utils.py',
   'PYMODULE'),
  ('numpy.core.fromnumeric',
   'C:\\Users\\lab_conputer\\programs\\venv3\\lib\\site-packages\\numpy\\core\\fromnumeric.py',
   'PYMODULE'),
  ('numpy.core._methods',
   'C:\\Users\\lab_conputer\\programs\\venv3\\lib\\site-packages\\numpy\\core\\_methods.py',
   'PYMODULE'),
  ('numpy.lib.stride_tricks',
   'C:\\Users\\lab_conputer\\programs\\venv3\\lib\\site-packages\\numpy\\lib\\stride_tricks.py',
   'PYMODULE'),
  ('numpy.core.numeric',
   'C:\\Users\\lab_conputer\\programs\\venv3\\lib\\site-packages\\numpy\\core\\numeric.py',
   'PYMODULE'),
  ('numpy.core._asarray',
   'C:\\Users\\lab_conputer\\programs\\venv3\\lib\\site-packages\\numpy\\core\\_asarray.py',
   'PYMODULE'),
  ('numpy.core.arrayprint',
   'C:\\Users\\lab_conputer\\programs\\venv3\\lib\\site-packages\\numpy\\core\\arrayprint.py',
   'PYMODULE'),
  ('numpy.core._ufunc_config',
   'C:\\Users\\lab_conputer\\programs\\venv3\\lib\\site-packages\\numpy\\core\\_ufunc_config.py',
   'PYMODULE'),
  ('numpy.core.shape_base',
   'C:\\Users\\lab_conputer\\programs\\venv3\\lib\\site-packages\\numpy\\core\\shape_base.py',
   'PYMODULE'),
  ('numpy.core._exceptions',
   'C:\\Users\\lab_conputer\\programs\\venv3\\lib\\site-packages\\numpy\\core\\_exceptions.py',
   'PYMODULE'),
  ('numpy.core.umath',
   'C:\\Users\\lab_conputer\\programs\\venv3\\lib\\site-packages\\numpy\\core\\umath.py',
   'PYMODULE'),
  ('numpy.core.overrides',
   'C:\\Users\\lab_conputer\\programs\\venv3\\lib\\site-packages\\numpy\\core\\overrides.py',
   'PYMODULE'),
  ('numpy.compat._inspect',
   'C:\\Users\\lab_conputer\\programs\\venv3\\lib\\site-packages\\numpy\\compat\\_inspect.py',
   'PYMODULE'),
  ('numpy.core.multiarray',
   'C:\\Users\\lab_conputer\\programs\\venv3\\lib\\site-packages\\numpy\\core\\multiarray.py',
   'PYMODULE'),
  ('numpy.core.numerictypes',
   'C:\\Users\\lab_conputer\\programs\\venv3\\lib\\site-packages\\numpy\\core\\numerictypes.py',
   'PYMODULE'),
  ('numpy.core._dtype',
   'C:\\Users\\lab_conputer\\programs\\venv3\\lib\\site-packages\\numpy\\core\\_dtype.py',
   'PYMODULE'),
  ('numpy.core._type_aliases',
   'C:\\Users\\lab_conputer\\programs\\venv3\\lib\\site-packages\\numpy\\core\\_type_aliases.py',
   'PYMODULE'),
  ('numpy.core._string_helpers',
   'C:\\Users\\lab_conputer\\programs\\venv3\\lib\\site-packages\\numpy\\core\\_string_helpers.py',
   'PYMODULE'),
  ('unittest.case',
   'C:\\Program '
   'Files\\WindowsApps\\PythonSoftwareFoundation.Python.3.10_3.10.2544.0_x64__qbz5n2kfra8p0\\lib\\unittest\\case.py',
   'PYMODULE'),
  ('unittest._log',
   'C:\\Program '
   'Files\\WindowsApps\\PythonSoftwareFoundation.Python.3.10_3.10.2544.0_x64__qbz5n2kfra8p0\\lib\\unittest\\_log.py',
   'PYMODULE'),
  ('unittest.util',
   'C:\\Program '
   'Files\\WindowsApps\\PythonSoftwareFoundation.Python.3.10_3.10.2544.0_x64__qbz5n2kfra8p0\\lib\\unittest\\util.py',
   'PYMODULE'),
  ('unittest.result',
   'C:\\Program '
   'Files\\WindowsApps\\PythonSoftwareFoundation.Python.3.10_3.10.2544.0_x64__qbz5n2kfra8p0\\lib\\unittest\\result.py',
   'PYMODULE'),
  ('unittest',
   'C:\\Program '
   'Files\\WindowsApps\\PythonSoftwareFoundation.Python.3.10_3.10.2544.0_x64__qbz5n2kfra8p0\\lib\\unittest\\__init__.py',
   'PYMODULE'),
  ('unittest.async_case',
   'C:\\Program '
   'Files\\WindowsApps\\PythonSoftwareFoundation.Python.3.10_3.10.2544.0_x64__qbz5n2kfra8p0\\lib\\unittest\\async_case.py',
   'PYMODULE'),
  ('asyncio',
   'C:\\Program '
   'Files\\WindowsApps\\PythonSoftwareFoundation.Python.3.10_3.10.2544.0_x64__qbz5n2kfra8p0\\lib\\asyncio\\__init__.py',
   'PYMODULE'),
  ('asyncio.unix_events',
   'C:\\Program '
   'Files\\WindowsApps\\PythonSoftwareFoundation.Python.3.10_3.10.2544.0_x64__qbz5n2kfra8p0\\lib\\asyncio\\unix_events.py',
   'PYMODULE'),
  ('asyncio.log',
   'C:\\Program '
   'Files\\WindowsApps\\PythonSoftwareFoundation.Python.3.10_3.10.2544.0_x64__qbz5n2kfra8p0\\lib\\asyncio\\log.py',
   'PYMODULE'),
  ('asyncio.windows_events',
   'C:\\Program '
   'Files\\WindowsApps\\PythonSoftwareFoundation.Python.3.10_3.10.2544.0_x64__qbz5n2kfra8p0\\lib\\asyncio\\windows_events.py',
   'PYMODULE'),
  ('asyncio.windows_utils',
   'C:\\Program '
   'Files\\WindowsApps\\PythonSoftwareFoundation.Python.3.10_3.10.2544.0_x64__qbz5n2kfra8p0\\lib\\asyncio\\windows_utils.py',
   'PYMODULE'),
  ('asyncio.selector_events',
   'C:\\Program '
   'Files\\WindowsApps\\PythonSoftwareFoundation.Python.3.10_3.10.2544.0_x64__qbz5n2kfra8p0\\lib\\asyncio\\selector_events.py',
   'PYMODULE'),
  ('asyncio.proactor_events',
   'C:\\Program '
   'Files\\WindowsApps\\PythonSoftwareFoundation.Python.3.10_3.10.2544.0_x64__qbz5n2kfra8p0\\lib\\asyncio\\proactor_events.py',
   'PYMODULE'),
  ('asyncio.base_subprocess',
   'C:\\Program '
   'Files\\WindowsApps\\PythonSoftwareFoundation.Python.3.10_3.10.2544.0_x64__qbz5n2kfra8p0\\lib\\asyncio\\base_subprocess.py',
   'PYMODULE'),
  ('asyncio.threads',
   'C:\\Program '
   'Files\\WindowsApps\\PythonSoftwareFoundation.Python.3.10_3.10.2544.0_x64__qbz5n2kfra8p0\\lib\\asyncio\\threads.py',
   'PYMODULE'),
  ('asyncio.subprocess',
   'C:\\Program '
   'Files\\WindowsApps\\PythonSoftwareFoundation.Python.3.10_3.10.2544.0_x64__qbz5n2kfra8p0\\lib\\asyncio\\subprocess.py',
   'PYMODULE'),
  ('asyncio.streams',
   'C:\\Program '
   'Files\\WindowsApps\\PythonSoftwareFoundation.Python.3.10_3.10.2544.0_x64__qbz5n2kfra8p0\\lib\\asyncio\\streams.py',
   'PYMODULE'),
  ('asyncio.queues',
   'C:\\Program '
   'Files\\WindowsApps\\PythonSoftwareFoundation.Python.3.10_3.10.2544.0_x64__qbz5n2kfra8p0\\lib\\asyncio\\queues.py',
   'PYMODULE'),
  ('asyncio.runners',
   'C:\\Program '
   'Files\\WindowsApps\\PythonSoftwareFoundation.Python.3.10_3.10.2544.0_x64__qbz5n2kfra8p0\\lib\\asyncio\\runners.py',
   'PYMODULE'),
  ('asyncio.base_events',
   'C:\\Program '
   'Files\\WindowsApps\\PythonSoftwareFoundation.Python.3.10_3.10.2544.0_x64__qbz5n2kfra8p0\\lib\\asyncio\\base_events.py',
   'PYMODULE'),
  ('concurrent.futures',
   'C:\\Program '
   'Files\\WindowsApps\\PythonSoftwareFoundation.Python.3.10_3.10.2544.0_x64__qbz5n2kfra8p0\\lib\\concurrent\\futures\\__init__.py',
   'PYMODULE'),
  ('concurrent.futures.thread',
   'C:\\Program '
   'Files\\WindowsApps\\PythonSoftwareFoundation.Python.3.10_3.10.2544.0_x64__qbz5n2kfra8p0\\lib\\concurrent\\futures\\thread.py',
   'PYMODULE'),
  ('concurrent.futures.process',
   'C:\\Program '
   'Files\\WindowsApps\\PythonSoftwareFoundation.Python.3.10_3.10.2544.0_x64__qbz5n2kfra8p0\\lib\\concurrent\\futures\\process.py',
   'PYMODULE'),
  ('concurrent.futures._base',
   'C:\\Program '
   'Files\\WindowsApps\\PythonSoftwareFoundation.Python.3.10_3.10.2544.0_x64__qbz5n2kfra8p0\\lib\\concurrent\\futures\\_base.py',
   'PYMODULE'),
  ('concurrent',
   'C:\\Program '
   'Files\\WindowsApps\\PythonSoftwareFoundation.Python.3.10_3.10.2544.0_x64__qbz5n2kfra8p0\\lib\\concurrent\\__init__.py',
   'PYMODULE'),
  ('asyncio.trsock',
   'C:\\Program '
   'Files\\WindowsApps\\PythonSoftwareFoundation.Python.3.10_3.10.2544.0_x64__qbz5n2kfra8p0\\lib\\asyncio\\trsock.py',
   'PYMODULE'),
  ('asyncio.staggered',
   'C:\\Program '
   'Files\\WindowsApps\\PythonSoftwareFoundation.Python.3.10_3.10.2544.0_x64__qbz5n2kfra8p0\\lib\\asyncio\\staggered.py',
   'PYMODULE'),
  ('asyncio.tasks',
   'C:\\Program '
   'Files\\WindowsApps\\PythonSoftwareFoundation.Python.3.10_3.10.2544.0_x64__qbz5n2kfra8p0\\lib\\asyncio\\tasks.py',
   'PYMODULE'),
  ('asyncio.locks',
   'C:\\Program '
   'Files\\WindowsApps\\PythonSoftwareFoundation.Python.3.10_3.10.2544.0_x64__qbz5n2kfra8p0\\lib\\asyncio\\locks.py',
   'PYMODULE'),
  ('asyncio.base_tasks',
   'C:\\Program '
   'Files\\WindowsApps\\PythonSoftwareFoundation.Python.3.10_3.10.2544.0_x64__qbz5n2kfra8p0\\lib\\asyncio\\base_tasks.py',
   'PYMODULE'),
  ('asyncio.mixins',
   'C:\\Program '
   'Files\\WindowsApps\\PythonSoftwareFoundation.Python.3.10_3.10.2544.0_x64__qbz5n2kfra8p0\\lib\\asyncio\\mixins.py',
   'PYMODULE'),
  ('asyncio.sslproto',
   'C:\\Program '
   'Files\\WindowsApps\\PythonSoftwareFoundation.Python.3.10_3.10.2544.0_x64__qbz5n2kfra8p0\\lib\\asyncio\\sslproto.py',
   'PYMODULE'),
  ('asyncio.transports',
   'C:\\Program '
   'Files\\WindowsApps\\PythonSoftwareFoundation.Python.3.10_3.10.2544.0_x64__qbz5n2kfra8p0\\lib\\asyncio\\transports.py',
   'PYMODULE'),
  ('asyncio.protocols',
   'C:\\Program '
   'Files\\WindowsApps\\PythonSoftwareFoundation.Python.3.10_3.10.2544.0_x64__qbz5n2kfra8p0\\lib\\asyncio\\protocols.py',
   'PYMODULE'),
  ('asyncio.futures',
   'C:\\Program '
   'Files\\WindowsApps\\PythonSoftwareFoundation.Python.3.10_3.10.2544.0_x64__qbz5n2kfra8p0\\lib\\asyncio\\futures.py',
   'PYMODULE'),
  ('asyncio.exceptions',
   'C:\\Program '
   'Files\\WindowsApps\\PythonSoftwareFoundation.Python.3.10_3.10.2544.0_x64__qbz5n2kfra8p0\\lib\\asyncio\\exceptions.py',
   'PYMODULE'),
  ('asyncio.events',
   'C:\\Program '
   'Files\\WindowsApps\\PythonSoftwareFoundation.Python.3.10_3.10.2544.0_x64__qbz5n2kfra8p0\\lib\\asyncio\\events.py',
   'PYMODULE'),
  ('asyncio.coroutines',
   'C:\\Program '
   'Files\\WindowsApps\\PythonSoftwareFoundation.Python.3.10_3.10.2544.0_x64__qbz5n2kfra8p0\\lib\\asyncio\\coroutines.py',
   'PYMODULE'),
  ('asyncio.base_futures',
   'C:\\Program '
   'Files\\WindowsApps\\PythonSoftwareFoundation.Python.3.10_3.10.2544.0_x64__qbz5n2kfra8p0\\lib\\asyncio\\base_futures.py',
   'PYMODULE'),
  ('asyncio.format_helpers',
   'C:\\Program '
   'Files\\WindowsApps\\PythonSoftwareFoundation.Python.3.10_3.10.2544.0_x64__qbz5n2kfra8p0\\lib\\asyncio\\format_helpers.py',
   'PYMODULE'),
  ('asyncio.constants',
   'C:\\Program '
   'Files\\WindowsApps\\PythonSoftwareFoundation.Python.3.10_3.10.2544.0_x64__qbz5n2kfra8p0\\lib\\asyncio\\constants.py',
   'PYMODULE'),
  ('unittest.signals',
   'C:\\Program '
   'Files\\WindowsApps\\PythonSoftwareFoundation.Python.3.10_3.10.2544.0_x64__qbz5n2kfra8p0\\lib\\unittest\\signals.py',
   'PYMODULE'),
  ('unittest.main',
   'C:\\Program '
   'Files\\WindowsApps\\PythonSoftwareFoundation.Python.3.10_3.10.2544.0_x64__qbz5n2kfra8p0\\lib\\unittest\\main.py',
   'PYMODULE'),
  ('unittest.runner',
   'C:\\Program '
   'Files\\WindowsApps\\PythonSoftwareFoundation.Python.3.10_3.10.2544.0_x64__qbz5n2kfra8p0\\lib\\unittest\\runner.py',
   'PYMODULE'),
  ('unittest.loader',
   'C:\\Program '
   'Files\\WindowsApps\\PythonSoftwareFoundation.Python.3.10_3.10.2544.0_x64__qbz5n2kfra8p0\\lib\\unittest\\loader.py',
   'PYMODULE'),
  ('unittest.suite',
   'C:\\Program '
   'Files\\WindowsApps\\PythonSoftwareFoundation.Python.3.10_3.10.2544.0_x64__qbz5n2kfra8p0\\lib\\unittest\\suite.py',
   'PYMODULE'),
  ('numpy.matrixlib',
   'C:\\Users\\lab_conputer\\programs\\venv3\\lib\\site-packages\\numpy\\matrixlib\\__init__.py',
   'PYMODULE'),
  ('numpy.matrixlib.defmatrix',
   'C:\\Users\\lab_conputer\\programs\\venv3\\lib\\site-packages\\numpy\\matrixlib\\defmatrix.py',
   'PYMODULE'),
  ('numpy.ma',
   'C:\\Users\\lab_conputer\\programs\\venv3\\lib\\site-packages\\numpy\\ma\\__init__.py',
   'PYMODULE'),
  ('numpy.ma.extras',
   'C:\\Users\\lab_conputer\\programs\\venv3\\lib\\site-packages\\numpy\\ma\\extras.py',
   'PYMODULE'),
  ('numpy.lib.index_tricks',
   'C:\\Users\\lab_conputer\\programs\\venv3\\lib\\site-packages\\numpy\\lib\\index_tricks.py',
   'PYMODULE'),
  ('numpy.lib.function_base',
   'C:\\Users\\lab_conputer\\programs\\venv3\\lib\\site-packages\\numpy\\lib\\function_base.py',
   'PYMODULE'),
  ('numpy.lib.histograms',
   'C:\\Users\\lab_conputer\\programs\\venv3\\lib\\site-packages\\numpy\\lib\\histograms.py',
   'PYMODULE'),
  ('numpy.lib.twodim_base',
   'C:\\Users\\lab_conputer\\programs\\venv3\\lib\\site-packages\\numpy\\lib\\twodim_base.py',
   'PYMODULE'),
  ('numpy.core.function_base',
   'C:\\Users\\lab_conputer\\programs\\venv3\\lib\\site-packages\\numpy\\core\\function_base.py',
   'PYMODULE'),
  ('numpy.ma.core',
   'C:\\Users\\lab_conputer\\programs\\venv3\\lib\\site-packages\\numpy\\ma\\core.py',
   'PYMODULE'),
  ('numpy.ctypeslib',
   'C:\\Users\\lab_conputer\\programs\\venv3\\lib\\site-packages\\numpy\\ctypeslib.py',
   'PYMODULE'),
  ('numpy.core._internal',
   'C:\\Users\\lab_conputer\\programs\\venv3\\lib\\site-packages\\numpy\\core\\_internal.py',
   'PYMODULE'),
  ('numpy.random',
   'C:\\Users\\lab_conputer\\programs\\venv3\\lib\\site-packages\\numpy\\random\\__init__.py',
   'PYMODULE'),
  ('numpy.random._pickle',
   'C:\\Users\\lab_conputer\\programs\\venv3\\lib\\site-packages\\numpy\\random\\_pickle.py',
   'PYMODULE'),
  ('numpy.polynomial',
   'C:\\Users\\lab_conputer\\programs\\venv3\\lib\\site-packages\\numpy\\polynomial\\__init__.py',
   'PYMODULE'),
  ('numpy.polynomial._polybase',
   'C:\\Users\\lab_conputer\\programs\\venv3\\lib\\site-packages\\numpy\\polynomial\\_polybase.py',
   'PYMODULE'),
  ('numpy.polynomial.laguerre',
   'C:\\Users\\lab_conputer\\programs\\venv3\\lib\\site-packages\\numpy\\polynomial\\laguerre.py',
   'PYMODULE'),
  ('numpy.polynomial.hermite_e',
   'C:\\Users\\lab_conputer\\programs\\venv3\\lib\\site-packages\\numpy\\polynomial\\hermite_e.py',
   'PYMODULE'),
  ('numpy.polynomial.hermite',
   'C:\\Users\\lab_conputer\\programs\\venv3\\lib\\site-packages\\numpy\\polynomial\\hermite.py',
   'PYMODULE'),
  ('numpy.polynomial.legendre',
   'C:\\Users\\lab_conputer\\programs\\venv3\\lib\\site-packages\\numpy\\polynomial\\legendre.py',
   'PYMODULE'),
  ('numpy.polynomial.chebyshev',
   'C:\\Users\\lab_conputer\\programs\\venv3\\lib\\site-packages\\numpy\\polynomial\\chebyshev.py',
   'PYMODULE'),
  ('numpy.polynomial.polynomial',
   'C:\\Users\\lab_conputer\\programs\\venv3\\lib\\site-packages\\numpy\\polynomial\\polynomial.py',
   'PYMODULE'),
  ('numpy.polynomial.polyutils',
   'C:\\Users\\lab_conputer\\programs\\venv3\\lib\\site-packages\\numpy\\polynomial\\polyutils.py',
   'PYMODULE'),
  ('numpy.fft',
   'C:\\Users\\lab_conputer\\programs\\venv3\\lib\\site-packages\\numpy\\fft\\__init__.py',
   'PYMODULE'),
  ('numpy.fft.helper',
   'C:\\Users\\lab_conputer\\programs\\venv3\\lib\\site-packages\\numpy\\fft\\helper.py',
   'PYMODULE'),
  ('numpy.fft._pocketfft',
   'C:\\Users\\lab_conputer\\programs\\venv3\\lib\\site-packages\\numpy\\fft\\_pocketfft.py',
   'PYMODULE'),
  ('numpy.linalg',
   'C:\\Users\\lab_conputer\\programs\\venv3\\lib\\site-packages\\numpy\\linalg\\__init__.py',
   'PYMODULE'),
  ('numpy.linalg.linalg',
   'C:\\Users\\lab_conputer\\programs\\venv3\\lib\\site-packages\\numpy\\linalg\\linalg.py',
   'PYMODULE'),
  ('numpy.lib',
   'C:\\Users\\lab_conputer\\programs\\venv3\\lib\\site-packages\\numpy\\lib\\__init__.py',
   'PYMODULE'),
  ('numpy.lib._version',
   'C:\\Users\\lab_conputer\\programs\\venv3\\lib\\site-packages\\numpy\\lib\\_version.py',
   'PYMODULE'),
  ('numpy.lib.arraypad',
   'C:\\Users\\lab_conputer\\programs\\venv3\\lib\\site-packages\\numpy\\lib\\arraypad.py',
   'PYMODULE'),
  ('numpy.lib.arrayterator',
   'C:\\Users\\lab_conputer\\programs\\venv3\\lib\\site-packages\\numpy\\lib\\arrayterator.py',
   'PYMODULE'),
  ('numpy.lib.npyio',
   'C:\\Users\\lab_conputer\\programs\\venv3\\lib\\site-packages\\numpy\\lib\\npyio.py',
   'PYMODULE'),
  ('numpy.ma.mrecords',
   'C:\\Users\\lab_conputer\\programs\\venv3\\lib\\site-packages\\numpy\\ma\\mrecords.py',
   'PYMODULE'),
  ('numpy.core.records',
   'C:\\Users\\lab_conputer\\programs\\venv3\\lib\\site-packages\\numpy\\core\\records.py',
   'PYMODULE'),
  ('numpy.lib._iotools',
   'C:\\Users\\lab_conputer\\programs\\venv3\\lib\\site-packages\\numpy\\lib\\_iotools.py',
   'PYMODULE'),
  ('numpy.lib._datasource',
   'C:\\Users\\lab_conputer\\programs\\venv3\\lib\\site-packages\\numpy\\lib\\_datasource.py',
   'PYMODULE'),
  ('numpy.lib.format',
   'C:\\Users\\lab_conputer\\programs\\venv3\\lib\\site-packages\\numpy\\lib\\format.py',
   'PYMODULE'),
  ('numpy.lib.arraysetops',
   'C:\\Users\\lab_conputer\\programs\\venv3\\lib\\site-packages\\numpy\\lib\\arraysetops.py',
   'PYMODULE'),
  ('numpy.lib.utils',
   'C:\\Users\\lab_conputer\\programs\\venv3\\lib\\site-packages\\numpy\\lib\\utils.py',
   'PYMODULE'),
  ('numpy.lib.polynomial',
   'C:\\Users\\lab_conputer\\programs\\venv3\\lib\\site-packages\\numpy\\lib\\polynomial.py',
   'PYMODULE'),
  ('numpy.lib.ufunclike',
   'C:\\Users\\lab_conputer\\programs\\venv3\\lib\\site-packages\\numpy\\lib\\ufunclike.py',
   'PYMODULE'),
  ('numpy.lib.shape_base',
   'C:\\Users\\lab_conputer\\programs\\venv3\\lib\\site-packages\\numpy\\lib\\shape_base.py',
   'PYMODULE'),
  ('numpy.lib.nanfunctions',
   'C:\\Users\\lab_conputer\\programs\\venv3\\lib\\site-packages\\numpy\\lib\\nanfunctions.py',
   'PYMODULE'),
  ('numpy.lib.type_check',
   'C:\\Users\\lab_conputer\\programs\\venv3\\lib\\site-packages\\numpy\\lib\\type_check.py',
   'PYMODULE'),
  ('numpy.core.getlimits',
   'C:\\Users\\lab_conputer\\programs\\venv3\\lib\\site-packages\\numpy\\core\\getlimits.py',
   'PYMODULE'),
  ('numpy.core._machar',
   'C:\\Users\\lab_conputer\\programs\\venv3\\lib\\site-packages\\numpy\\core\\_machar.py',
   'PYMODULE'),
  ('numpy.lib.scimath',
   'C:\\Users\\lab_conputer\\programs\\venv3\\lib\\site-packages\\numpy\\lib\\scimath.py',
   'PYMODULE'),
  ('numpy.lib.mixins',
   'C:\\Users\\lab_conputer\\programs\\venv3\\lib\\site-packages\\numpy\\lib\\mixins.py',
   'PYMODULE'),
  ('numpy.compat',
   'C:\\Users\\lab_conputer\\programs\\venv3\\lib\\site-packages\\numpy\\compat\\__init__.py',
   'PYMODULE'),
  ('numpy.compat.py3k',
   'C:\\Users\\lab_conputer\\programs\\venv3\\lib\\site-packages\\numpy\\compat\\py3k.py',
   'PYMODULE'),
  ('numpy.compat._pep440',
   'C:\\Users\\lab_conputer\\programs\\venv3\\lib\\site-packages\\numpy\\compat\\_pep440.py',
   'PYMODULE'),
  ('numpy.core',
   'C:\\Users\\lab_conputer\\programs\\venv3\\lib\\site-packages\\numpy\\core\\__init__.py',
   'PYMODULE'),
  ('numpy.core._add_newdocs_scalars',
   'C:\\Users\\lab_conputer\\programs\\venv3\\lib\\site-packages\\numpy\\core\\_add_newdocs_scalars.py',
   'PYMODULE'),
  ('numpy.core._add_newdocs',
   'C:\\Users\\lab_conputer\\programs\\venv3\\lib\\site-packages\\numpy\\core\\_add_newdocs.py',
   'PYMODULE'),
  ('numpy.core.einsumfunc',
   'C:\\Users\\lab_conputer\\programs\\venv3\\lib\\site-packages\\numpy\\core\\einsumfunc.py',
   'PYMODULE'),
  ('numpy.core.memmap',
   'C:\\Users\\lab_conputer\\programs\\venv3\\lib\\site-packages\\numpy\\core\\memmap.py',
   'PYMODULE'),
  ('numpy.core.defchararray',
   'C:\\Users\\lab_conputer\\programs\\venv3\\lib\\site-packages\\numpy\\core\\defchararray.py',
   'PYMODULE'),
  ('numpy._distributor_init',
   'C:\\Users\\lab_conputer\\programs\\venv3\\lib\\site-packages\\numpy\\_distributor_init.py',
   'PYMODULE'),
  ('numpy.__config__',
   'C:\\Users\\lab_conputer\\programs\\venv3\\lib\\site-packages\\numpy\\__config__.py',
   'PYMODULE'),
  ('numpy.array_api',
   'C:\\Users\\lab_conputer\\programs\\venv3\\lib\\site-packages\\numpy\\array_api\\__init__.py',
   'PYMODULE'),
  ('numpy.array_api._utility_functions',
   'C:\\Users\\lab_conputer\\programs\\venv3\\lib\\site-packages\\numpy\\array_api\\_utility_functions.py',
   'PYMODULE'),
  ('numpy.array_api._array_object',
   'C:\\Users\\lab_conputer\\programs\\venv3\\lib\\site-packages\\numpy\\array_api\\_array_object.py',
   'PYMODULE'),
  ('numpy.typing',
   'C:\\Users\\lab_conputer\\programs\\venv3\\lib\\site-packages\\numpy\\typing\\__init__.py',
   'PYMODULE'),
  ('numpy._typing._add_docstring',
   'C:\\Users\\lab_conputer\\programs\\venv3\\lib\\site-packages\\numpy\\_typing\\_add_docstring.py',
   'PYMODULE'),
  ('numpy._typing._generic_alias',
   'C:\\Users\\lab_conputer\\programs\\venv3\\lib\\site-packages\\numpy\\_typing\\_generic_alias.py',
   'PYMODULE'),
  ('numpy._typing',
   'C:\\Users\\lab_conputer\\programs\\venv3\\lib\\site-packages\\numpy\\_typing\\__init__.py',
   'PYMODULE'),
  ('numpy._typing._array_like',
   'C:\\Users\\lab_conputer\\programs\\venv3\\lib\\site-packages\\numpy\\_typing\\_array_like.py',
   'PYMODULE'),
  ('numpy._typing._dtype_like',
   'C:\\Users\\lab_conputer\\programs\\venv3\\lib\\site-packages\\numpy\\_typing\\_dtype_like.py',
   'PYMODULE'),
  ('numpy._typing._shape',
   'C:\\Users\\lab_conputer\\programs\\venv3\\lib\\site-packages\\numpy\\_typing\\_shape.py',
   'PYMODULE'),
  ('numpy._typing._scalars',
   'C:\\Users\\lab_conputer\\programs\\venv3\\lib\\site-packages\\numpy\\_typing\\_scalars.py',
   'PYMODULE'),
  ('numpy._typing._char_codes',
   'C:\\Users\\lab_conputer\\programs\\venv3\\lib\\site-packages\\numpy\\_typing\\_char_codes.py',
   'PYMODULE'),
  ('numpy._typing._nbit',
   'C:\\Users\\lab_conputer\\programs\\venv3\\lib\\site-packages\\numpy\\_typing\\_nbit.py',
   'PYMODULE'),
  ('numpy._typing._nested_sequence',
   'C:\\Users\\lab_conputer\\programs\\venv3\\lib\\site-packages\\numpy\\_typing\\_nested_sequence.py',
   'PYMODULE'),
  ('numpy.array_api._typing',
   'C:\\Users\\lab_conputer\\programs\\venv3\\lib\\site-packages\\numpy\\array_api\\_typing.py',
   'PYMODULE'),
  ('numpy.array_api._statistical_functions',
   'C:\\Users\\lab_conputer\\programs\\venv3\\lib\\site-packages\\numpy\\array_api\\_statistical_functions.py',
   'PYMODULE'),
  ('numpy.array_api._sorting_functions',
   'C:\\Users\\lab_conputer\\programs\\venv3\\lib\\site-packages\\numpy\\array_api\\_sorting_functions.py',
   'PYMODULE'),
  ('numpy.array_api._set_functions',
   'C:\\Users\\lab_conputer\\programs\\venv3\\lib\\site-packages\\numpy\\array_api\\_set_functions.py',
   'PYMODULE'),
  ('numpy.array_api._searching_functions',
   'C:\\Users\\lab_conputer\\programs\\venv3\\lib\\site-packages\\numpy\\array_api\\_searching_functions.py',
   'PYMODULE'),
  ('numpy.array_api._manipulation_functions',
   'C:\\Users\\lab_conputer\\programs\\venv3\\lib\\site-packages\\numpy\\array_api\\_manipulation_functions.py',
   'PYMODULE'),
  ('numpy.array_api.linalg',
   'C:\\Users\\lab_conputer\\programs\\venv3\\lib\\site-packages\\numpy\\array_api\\linalg.py',
   'PYMODULE'),
  ('numpy.array_api._elementwise_functions',
   'C:\\Users\\lab_conputer\\programs\\venv3\\lib\\site-packages\\numpy\\array_api\\_elementwise_functions.py',
   'PYMODULE'),
  ('numpy.array_api._dtypes',
   'C:\\Users\\lab_conputer\\programs\\venv3\\lib\\site-packages\\numpy\\array_api\\_dtypes.py',
   'PYMODULE'),
  ('numpy.array_api._data_type_functions',
   'C:\\Users\\lab_conputer\\programs\\venv3\\lib\\site-packages\\numpy\\array_api\\_data_type_functions.py',
   'PYMODULE'),
  ('numpy.array_api._creation_functions',
   'C:\\Users\\lab_conputer\\programs\\venv3\\lib\\site-packages\\numpy\\array_api\\_creation_functions.py',
   'PYMODULE'),
  ('numpy.array_api._constants',
   'C:\\Users\\lab_conputer\\programs\\venv3\\lib\\site-packages\\numpy\\array_api\\_constants.py',
   'PYMODULE'),
  ('numpy._globals',
   'C:\\Users\\lab_conputer\\programs\\venv3\\lib\\site-packages\\numpy\\_globals.py',
   'PYMODULE'),
  ('matplotlib.pyplot',
   'C:\\Users\\lab_conputer\\programs\\venv3\\lib\\site-packages\\matplotlib\\pyplot.py',
   'PYMODULE'),
  ('matplotlib.patheffects',
   'C:\\Users\\lab_conputer\\programs\\venv3\\lib\\site-packages\\matplotlib\\patheffects.py',
   'PYMODULE'),
  ('matplotlib.path',
   'C:\\Users\\lab_conputer\\programs\\venv3\\lib\\site-packages\\matplotlib\\path.py',
   'PYMODULE'),
  ('matplotlib.hatch',
   'C:\\Users\\lab_conputer\\programs\\venv3\\lib\\site-packages\\matplotlib\\hatch.py',
   'PYMODULE'),
  ('matplotlib.bezier',
   'C:\\Users\\lab_conputer\\programs\\venv3\\lib\\site-packages\\matplotlib\\bezier.py',
   'PYMODULE'),
  ('matplotlib.transforms',
   'C:\\Users\\lab_conputer\\programs\\venv3\\lib\\site-packages\\matplotlib\\transforms.py',
   'PYMODULE'),
  ('matplotlib.backends',
   'C:\\Users\\lab_conputer\\programs\\venv3\\lib\\site-packages\\matplotlib\\backends\\__init__.py',
   'PYMODULE'),
  ('matplotlib.backends.backend_webagg',
   'C:\\Users\\lab_conputer\\programs\\venv3\\lib\\site-packages\\matplotlib\\backends\\backend_webagg.py',
   'PYMODULE'),
  ('matplotlib.backends.backend_webagg_core',
   'C:\\Users\\lab_conputer\\programs\\venv3\\lib\\site-packages\\matplotlib\\backends\\backend_webagg_core.py',
   'PYMODULE'),
  ('matplotlib.backend_tools',
   'C:\\Users\\lab_conputer\\programs\\venv3\\lib\\site-packages\\matplotlib\\backend_tools.py',
   'PYMODULE'),
  ('uuid',
   'C:\\Program '
   'Files\\WindowsApps\\PythonSoftwareFoundation.Python.3.10_3.10.2544.0_x64__qbz5n2kfra8p0\\lib\\uuid.py',
   'PYMODULE'),
  ('PIL.Image',
   'C:\\Users\\lab_conputer\\programs\\venv3\\lib\\site-packages\\PIL\\Image.py',
   'PYMODULE'),
  ('PIL.XpmImagePlugin',
   'C:\\Users\\lab_conputer\\programs\\venv3\\lib\\site-packages\\PIL\\XpmImagePlugin.py',
   'PYMODULE'),
  ('PIL.ImageFile',
   'C:\\Users\\lab_conputer\\programs\\venv3\\lib\\site-packages\\PIL\\ImageFile.py',
   'PYMODULE'),
  ('PIL.XbmImagePlugin',
   'C:\\Users\\lab_conputer\\programs\\venv3\\lib\\site-packages\\PIL\\XbmImagePlugin.py',
   'PYMODULE'),
  ('PIL.XVThumbImagePlugin',
   'C:\\Users\\lab_conputer\\programs\\venv3\\lib\\site-packages\\PIL\\XVThumbImagePlugin.py',
   'PYMODULE'),
  ('PIL.WmfImagePlugin',
   'C:\\Users\\lab_conputer\\programs\\venv3\\lib\\site-packages\\PIL\\WmfImagePlugin.py',
   'PYMODULE'),
  ('PIL.WebPImagePlugin',
   'C:\\Users\\lab_conputer\\programs\\venv3\\lib\\site-packages\\PIL\\WebPImagePlugin.py',
   'PYMODULE'),
  ('PIL.TgaImagePlugin',
   'C:\\Users\\lab_conputer\\programs\\venv3\\lib\\site-packages\\PIL\\TgaImagePlugin.py',
   'PYMODULE'),
  ('PIL.SunImagePlugin',
   'C:\\Users\\lab_conputer\\programs\\venv3\\lib\\site-packages\\PIL\\SunImagePlugin.py',
   'PYMODULE'),
  ('PIL.SpiderImagePlugin',
   'C:\\Users\\lab_conputer\\programs\\venv3\\lib\\site-packages\\PIL\\SpiderImagePlugin.py',
   'PYMODULE'),
  ('PIL.ImageTk',
   'C:\\Users\\lab_conputer\\programs\\venv3\\lib\\site-packages\\PIL\\ImageTk.py',
   'PYMODULE'),
  ('PIL.SgiImagePlugin',
   'C:\\Users\\lab_conputer\\programs\\venv3\\lib\\site-packages\\PIL\\SgiImagePlugin.py',
   'PYMODULE'),
  ('PIL.PsdImagePlugin',
   'C:\\Users\\lab_conputer\\programs\\venv3\\lib\\site-packages\\PIL\\PsdImagePlugin.py',
   'PYMODULE'),
  ('PIL.PixarImagePlugin',
   'C:\\Users\\lab_conputer\\programs\\venv3\\lib\\site-packages\\PIL\\PixarImagePlugin.py',
   'PYMODULE'),
  ('PIL.PdfImagePlugin',
   'C:\\Users\\lab_conputer\\programs\\venv3\\lib\\site-packages\\PIL\\PdfImagePlugin.py',
   'PYMODULE'),
  ('PIL.PdfParser',
   'C:\\Users\\lab_conputer\\programs\\venv3\\lib\\site-packages\\PIL\\PdfParser.py',
   'PYMODULE'),
  ('PIL.ImageSequence',
   'C:\\Users\\lab_conputer\\programs\\venv3\\lib\\site-packages\\PIL\\ImageSequence.py',
   'PYMODULE'),
  ('PIL.PcxImagePlugin',
   'C:\\Users\\lab_conputer\\programs\\venv3\\lib\\site-packages\\PIL\\PcxImagePlugin.py',
   'PYMODULE'),
  ('PIL.PcdImagePlugin',
   'C:\\Users\\lab_conputer\\programs\\venv3\\lib\\site-packages\\PIL\\PcdImagePlugin.py',
   'PYMODULE'),
  ('PIL.PalmImagePlugin',
   'C:\\Users\\lab_conputer\\programs\\venv3\\lib\\site-packages\\PIL\\PalmImagePlugin.py',
   'PYMODULE'),
  ('PIL.MspImagePlugin',
   'C:\\Users\\lab_conputer\\programs\\venv3\\lib\\site-packages\\PIL\\MspImagePlugin.py',
   'PYMODULE'),
  ('PIL.MpoImagePlugin',
   'C:\\Users\\lab_conputer\\programs\\venv3\\lib\\site-packages\\PIL\\MpoImagePlugin.py',
   'PYMODULE'),
  ('PIL.MpegImagePlugin',
   'C:\\Users\\lab_conputer\\programs\\venv3\\lib\\site-packages\\PIL\\MpegImagePlugin.py',
   'PYMODULE'),
  ('PIL.MicImagePlugin',
   'C:\\Users\\lab_conputer\\programs\\venv3\\lib\\site-packages\\PIL\\MicImagePlugin.py',
   'PYMODULE'),
  ('PIL.McIdasImagePlugin',
   'C:\\Users\\lab_conputer\\programs\\venv3\\lib\\site-packages\\PIL\\McIdasImagePlugin.py',
   'PYMODULE'),
  ('PIL.Jpeg2KImagePlugin',
   'C:\\Users\\lab_conputer\\programs\\venv3\\lib\\site-packages\\PIL\\Jpeg2KImagePlugin.py',
   'PYMODULE'),
  ('PIL.IptcImagePlugin',
   'C:\\Users\\lab_conputer\\programs\\venv3\\lib\\site-packages\\PIL\\IptcImagePlugin.py',
   'PYMODULE'),
  ('PIL.ImtImagePlugin',
   'C:\\Users\\lab_conputer\\programs\\venv3\\lib\\site-packages\\PIL\\ImtImagePlugin.py',
   'PYMODULE'),
  ('PIL.ImImagePlugin',
   'C:\\Users\\lab_conputer\\programs\\venv3\\lib\\site-packages\\PIL\\ImImagePlugin.py',
   'PYMODULE'),
  ('PIL.IcoImagePlugin',
   'C:\\Users\\lab_conputer\\programs\\venv3\\lib\\site-packages\\PIL\\IcoImagePlugin.py',
   'PYMODULE'),
  ('PIL.IcnsImagePlugin',
   'C:\\Users\\lab_conputer\\programs\\venv3\\lib\\site-packages\\PIL\\IcnsImagePlugin.py',
   'PYMODULE'),
  ('PIL.features',
   'C:\\Users\\lab_conputer\\programs\\venv3\\lib\\site-packages\\PIL\\features.py',
   'PYMODULE'),
  ('PIL.Hdf5StubImagePlugin',
   'C:\\Users\\lab_conputer\\programs\\venv3\\lib\\site-packages\\PIL\\Hdf5StubImagePlugin.py',
   'PYMODULE'),
  ('PIL.GribStubImagePlugin',
   'C:\\Users\\lab_conputer\\programs\\venv3\\lib\\site-packages\\PIL\\GribStubImagePlugin.py',
   'PYMODULE'),
  ('PIL.GbrImagePlugin',
   'C:\\Users\\lab_conputer\\programs\\venv3\\lib\\site-packages\\PIL\\GbrImagePlugin.py',
   'PYMODULE'),
  ('PIL.FtexImagePlugin',
   'C:\\Users\\lab_conputer\\programs\\venv3\\lib\\site-packages\\PIL\\FtexImagePlugin.py',
   'PYMODULE'),
  ('PIL.FpxImagePlugin',
   'C:\\Users\\lab_conputer\\programs\\venv3\\lib\\site-packages\\PIL\\FpxImagePlugin.py',
   'PYMODULE'),
  ('PIL.FliImagePlugin',
   'C:\\Users\\lab_conputer\\programs\\venv3\\lib\\site-packages\\PIL\\FliImagePlugin.py',
   'PYMODULE'),
  ('PIL.FitsStubImagePlugin',
   'C:\\Users\\lab_conputer\\programs\\venv3\\lib\\site-packages\\PIL\\FitsStubImagePlugin.py',
   'PYMODULE'),
  ('PIL.FitsImagePlugin',
   'C:\\Users\\lab_conputer\\programs\\venv3\\lib\\site-packages\\PIL\\FitsImagePlugin.py',
   'PYMODULE'),
  ('PIL.EpsImagePlugin',
   'C:\\Users\\lab_conputer\\programs\\venv3\\lib\\site-packages\\PIL\\EpsImagePlugin.py',
   'PYMODULE'),
  ('PIL.DdsImagePlugin',
   'C:\\Users\\lab_conputer\\programs\\venv3\\lib\\site-packages\\PIL\\DdsImagePlugin.py',
   'PYMODULE'),
  ('PIL.DcxImagePlugin',
   'C:\\Users\\lab_conputer\\programs\\venv3\\lib\\site-packages\\PIL\\DcxImagePlugin.py',
   'PYMODULE'),
  ('PIL.CurImagePlugin',
   'C:\\Users\\lab_conputer\\programs\\venv3\\lib\\site-packages\\PIL\\CurImagePlugin.py',
   'PYMODULE'),
  ('PIL.BufrStubImagePlugin',
   'C:\\Users\\lab_conputer\\programs\\venv3\\lib\\site-packages\\PIL\\BufrStubImagePlugin.py',
   'PYMODULE'),
  ('PIL.BlpImagePlugin',
   'C:\\Users\\lab_conputer\\programs\\venv3\\lib\\site-packages\\PIL\\BlpImagePlugin.py',
   'PYMODULE'),
  ('PIL.TiffImagePlugin',
   'C:\\Users\\lab_conputer\\programs\\venv3\\lib\\site-packages\\PIL\\TiffImagePlugin.py',
   'PYMODULE'),
  ('PIL.ImageOps',
   'C:\\Users\\lab_conputer\\programs\\venv3\\lib\\site-packages\\PIL\\ImageOps.py',
   'PYMODULE'),
  ('PIL.ImageShow',
   'C:\\Users\\lab_conputer\\programs\\venv3\\lib\\site-packages\\PIL\\ImageShow.py',
   'PYMODULE'),
  ('PIL.ImageQt',
   'C:\\Users\\lab_conputer\\programs\\venv3\\lib\\site-packages\\PIL\\ImageQt.py',
   'PYMODULE'),
  ('PIL.ImageColor',
   'C:\\Users\\lab_conputer\\programs\\venv3\\lib\\site-packages\\PIL\\ImageColor.py',
   'PYMODULE'),
  ('colorsys',
   'C:\\Program '
   'Files\\WindowsApps\\PythonSoftwareFoundation.Python.3.10_3.10.2544.0_x64__qbz5n2kfra8p0\\lib\\colorsys.py',
   'PYMODULE'),
  ('PIL.ImageFilter',
   'C:\\Users\\lab_conputer\\programs\\venv3\\lib\\site-packages\\PIL\\ImageFilter.py',
   'PYMODULE'),
  ('PIL.PyAccess',
   'C:\\Users\\lab_conputer\\programs\\venv3\\lib\\site-packages\\PIL\\PyAccess.py',
   'PYMODULE'),
  ('PIL.ImagePalette',
   'C:\\Users\\lab_conputer\\programs\\venv3\\lib\\site-packages\\PIL\\ImagePalette.py',
   'PYMODULE'),
  ('PIL.PaletteFile',
   'C:\\Users\\lab_conputer\\programs\\venv3\\lib\\site-packages\\PIL\\PaletteFile.py',
   'PYMODULE'),
  ('PIL.GimpPaletteFile',
   'C:\\Users\\lab_conputer\\programs\\venv3\\lib\\site-packages\\PIL\\GimpPaletteFile.py',
   'PYMODULE'),
  ('PIL.GimpGradientFile',
   'C:\\Users\\lab_conputer\\programs\\venv3\\lib\\site-packages\\PIL\\GimpGradientFile.py',
   'PYMODULE'),
  ('PIL.PngImagePlugin',
   'C:\\Users\\lab_conputer\\programs\\venv3\\lib\\site-packages\\PIL\\PngImagePlugin.py',
   'PYMODULE'),
  ('PIL.ImageChops',
   'C:\\Users\\lab_conputer\\programs\\venv3\\lib\\site-packages\\PIL\\ImageChops.py',
   'PYMODULE'),
  ('PIL.PpmImagePlugin',
   'C:\\Users\\lab_conputer\\programs\\venv3\\lib\\site-packages\\PIL\\PpmImagePlugin.py',
   'PYMODULE'),
  ('PIL.JpegImagePlugin',
   'C:\\Users\\lab_conputer\\programs\\venv3\\lib\\site-packages\\PIL\\JpegImagePlugin.py',
   'PYMODULE'),
  ('PIL.JpegPresets',
   'C:\\Users\\lab_conputer\\programs\\venv3\\lib\\site-packages\\PIL\\JpegPresets.py',
   'PYMODULE'),
  ('PIL.GifImagePlugin',
   'C:\\Users\\lab_conputer\\programs\\venv3\\lib\\site-packages\\PIL\\GifImagePlugin.py',
   'PYMODULE'),
  ('PIL.BmpImagePlugin',
   'C:\\Users\\lab_conputer\\programs\\venv3\\lib\\site-packages\\PIL\\BmpImagePlugin.py',
   'PYMODULE'),
  ('PIL._util',
   'C:\\Users\\lab_conputer\\programs\\venv3\\lib\\site-packages\\PIL\\_util.py',
   'PYMODULE'),
  ('PIL._deprecate',
   'C:\\Users\\lab_conputer\\programs\\venv3\\lib\\site-packages\\PIL\\_deprecate.py',
   'PYMODULE'),
  ('PIL._binary',
   'C:\\Users\\lab_conputer\\programs\\venv3\\lib\\site-packages\\PIL\\_binary.py',
   'PYMODULE'),
  ('PIL.TiffTags',
   'C:\\Users\\lab_conputer\\programs\\venv3\\lib\\site-packages\\PIL\\TiffTags.py',
   'PYMODULE'),
  ('PIL.ImageMode',
   'C:\\Users\\lab_conputer\\programs\\venv3\\lib\\site-packages\\PIL\\ImageMode.py',
   'PYMODULE'),
  ('PIL',
   'C:\\Users\\lab_conputer\\programs\\venv3\\lib\\site-packages\\PIL\\__init__.py',
   'PYMODULE'),
  ('PIL._version',
   'C:\\Users\\lab_conputer\\programs\\venv3\\lib\\site-packages\\PIL\\_version.py',
   'PYMODULE'),
  ('matplotlib.backends.backend_agg',
   'C:\\Users\\lab_conputer\\programs\\venv3\\lib\\site-packages\\matplotlib\\backends\\backend_agg.py',
   'PYMODULE'),
  ('matplotlib.mathtext',
   'C:\\Users\\lab_conputer\\programs\\venv3\\lib\\site-packages\\matplotlib\\mathtext.py',
   'PYMODULE'),
  ('matplotlib._mathtext_data',
   'C:\\Users\\lab_conputer\\programs\\venv3\\lib\\site-packages\\matplotlib\\_mathtext_data.py',
   'PYMODULE'),
  ('matplotlib._mathtext',
   'C:\\Users\\lab_conputer\\programs\\venv3\\lib\\site-packages\\matplotlib\\_mathtext.py',
   'PYMODULE'),
  ('matplotlib.afm',
   'C:\\Users\\lab_conputer\\programs\\venv3\\lib\\site-packages\\matplotlib\\afm.py',
   'PYMODULE'),
  ('matplotlib.font_manager',
   'C:\\Users\\lab_conputer\\programs\\venv3\\lib\\site-packages\\matplotlib\\font_manager.py',
   'PYMODULE'),
  ('matplotlib.fontconfig_pattern',
   'C:\\Users\\lab_conputer\\programs\\venv3\\lib\\site-packages\\matplotlib\\fontconfig_pattern.py',
   'PYMODULE'),
  ('matplotlib.ticker',
   'C:\\Users\\lab_conputer\\programs\\venv3\\lib\\site-packages\\matplotlib\\ticker.py',
   'PYMODULE'),
  ('matplotlib.widgets',
   'C:\\Users\\lab_conputer\\programs\\venv3\\lib\\site-packages\\matplotlib\\widgets.py',
   'PYMODULE'),
  ('matplotlib.patches',
   'C:\\Users\\lab_conputer\\programs\\venv3\\lib\\site-packages\\matplotlib\\patches.py',
   'PYMODULE'),
  ('matplotlib._enums',
   'C:\\Users\\lab_conputer\\programs\\venv3\\lib\\site-packages\\matplotlib\\_enums.py',
   'PYMODULE'),
  ('matplotlib.text',
   'C:\\Users\\lab_conputer\\programs\\venv3\\lib\\site-packages\\matplotlib\\text.py',
   'PYMODULE'),
  ('matplotlib.offsetbox',
   'C:\\Users\\lab_conputer\\programs\\venv3\\lib\\site-packages\\matplotlib\\offsetbox.py',
   'PYMODULE'),
  ('matplotlib.textpath',
   'C:\\Users\\lab_conputer\\programs\\venv3\\lib\\site-packages\\matplotlib\\textpath.py',
   'PYMODULE'),
  ('matplotlib.texmanager',
   'C:\\Users\\lab_conputer\\programs\\venv3\\lib\\site-packages\\matplotlib\\texmanager.py',
   'PYMODULE'),
  ('matplotlib.dviread',
   'C:\\Users\\lab_conputer\\programs\\venv3\\lib\\site-packages\\matplotlib\\dviread.py',
   'PYMODULE'),
  ('matplotlib._text_helpers',
   'C:\\Users\\lab_conputer\\programs\\venv3\\lib\\site-packages\\matplotlib\\_text_helpers.py',
   'PYMODULE'),
  ('matplotlib.lines',
   'C:\\Users\\lab_conputer\\programs\\venv3\\lib\\site-packages\\matplotlib\\lines.py',
   'PYMODULE'),
  ('matplotlib.markers',
   'C:\\Users\\lab_conputer\\programs\\venv3\\lib\\site-packages\\matplotlib\\markers.py',
   'PYMODULE'),
  ('matplotlib.colors',
   'C:\\Users\\lab_conputer\\programs\\venv3\\lib\\site-packages\\matplotlib\\colors.py',
   'PYMODULE'),
  ('matplotlib._color_data',
   'C:\\Users\\lab_conputer\\programs\\venv3\\lib\\site-packages\\matplotlib\\_color_data.py',
   'PYMODULE'),
  ('matplotlib.cm',
   'C:\\Users\\lab_conputer\\programs\\venv3\\lib\\site-packages\\matplotlib\\cm.py',
   'PYMODULE'),
  ('matplotlib._cm_listed',
   'C:\\Users\\lab_conputer\\programs\\venv3\\lib\\site-packages\\matplotlib\\_cm_listed.py',
   'PYMODULE'),
  ('matplotlib._cm',
   'C:\\Users\\lab_conputer\\programs\\venv3\\lib\\site-packages\\matplotlib\\_cm.py',
   'PYMODULE'),
  ('matplotlib.scale',
   'C:\\Users\\lab_conputer\\programs\\venv3\\lib\\site-packages\\matplotlib\\scale.py',
   'PYMODULE'),
  ('matplotlib.mlab',
   'C:\\Users\\lab_conputer\\programs\\venv3\\lib\\site-packages\\matplotlib\\mlab.py',
   'PYMODULE'),
  ('matplotlib.projections',
   'C:\\Users\\lab_conputer\\programs\\venv3\\lib\\site-packages\\matplotlib\\projections\\__init__.py',
   'PYMODULE'),
  ('mpl_toolkits.mplot3d',
   'C:\\Users\\lab_conputer\\programs\\venv3\\lib\\site-packages\\mpl_toolkits\\mplot3d\\__init__.py',
   'PYMODULE'),
  ('mpl_toolkits', '-', 'PYMODULE'),
  ('mpl_toolkits.mplot3d.axes3d',
   'C:\\Users\\lab_conputer\\programs\\venv3\\lib\\site-packages\\mpl_toolkits\\mplot3d\\axes3d.py',
   'PYMODULE'),
  ('matplotlib.tri.triangulation',
   'C:\\Users\\lab_conputer\\programs\\venv3\\lib\\site-packages\\matplotlib\\tri\\triangulation.py',
   'PYMODULE'),
  ('matplotlib.tri',
   'C:\\Users\\lab_conputer\\programs\\venv3\\lib\\site-packages\\matplotlib\\tri\\__init__.py',
   'PYMODULE'),
  ('matplotlib.tri.triplot',
   'C:\\Users\\lab_conputer\\programs\\venv3\\lib\\site-packages\\matplotlib\\tri\\triplot.py',
   'PYMODULE'),
  ('matplotlib.tri.tripcolor',
   'C:\\Users\\lab_conputer\\programs\\venv3\\lib\\site-packages\\matplotlib\\tri\\tripcolor.py',
   'PYMODULE'),
  ('matplotlib.tri.trirefine',
   'C:\\Users\\lab_conputer\\programs\\venv3\\lib\\site-packages\\matplotlib\\tri\\trirefine.py',
   'PYMODULE'),
  ('matplotlib.tri.triinterpolate',
   'C:\\Users\\lab_conputer\\programs\\venv3\\lib\\site-packages\\matplotlib\\tri\\triinterpolate.py',
   'PYMODULE'),
  ('matplotlib.tri.tritools',
   'C:\\Users\\lab_conputer\\programs\\venv3\\lib\\site-packages\\matplotlib\\tri\\tritools.py',
   'PYMODULE'),
  ('matplotlib.tri.tricontour',
   'C:\\Users\\lab_conputer\\programs\\venv3\\lib\\site-packages\\matplotlib\\tri\\tricontour.py',
   'PYMODULE'),
  ('matplotlib.contour',
   'C:\\Users\\lab_conputer\\programs\\venv3\\lib\\site-packages\\matplotlib\\contour.py',
   'PYMODULE'),
  ('matplotlib.tri.trifinder',
   'C:\\Users\\lab_conputer\\programs\\venv3\\lib\\site-packages\\matplotlib\\tri\\trifinder.py',
   'PYMODULE'),
  ('matplotlib.axes._base',
   'C:\\Users\\lab_conputer\\programs\\venv3\\lib\\site-packages\\matplotlib\\axes\\_base.py',
   'PYMODULE'),
  ('matplotlib.table',
   'C:\\Users\\lab_conputer\\programs\\venv3\\lib\\site-packages\\matplotlib\\table.py',
   'PYMODULE'),
  ('matplotlib.spines',
   'C:\\Users\\lab_conputer\\programs\\venv3\\lib\\site-packages\\matplotlib\\spines.py',
   'PYMODULE'),
  ('matplotlib.axis',
   'C:\\Users\\lab_conputer\\programs\\venv3\\lib\\site-packages\\matplotlib\\axis.py',
   'PYMODULE'),
  ('dateutil.tz',
   'C:\\Users\\lab_conputer\\programs\\venv3\\lib\\site-packages\\dateutil\\tz\\__init__.py',
   'PYMODULE'),
  ('dateutil.tz.tz',
   'C:\\Users\\lab_conputer\\programs\\venv3\\lib\\site-packages\\dateutil\\tz\\tz.py',
   'PYMODULE'),
  ('dateutil.zoneinfo',
   'C:\\Users\\lab_conputer\\programs\\venv3\\lib\\site-packages\\dateutil\\zoneinfo\\__init__.py',
   'PYMODULE'),
  ('dateutil.rrule',
   'C:\\Users\\lab_conputer\\programs\\venv3\\lib\\site-packages\\dateutil\\rrule.py',
   'PYMODULE'),
  ('dateutil.easter',
   'C:\\Users\\lab_conputer\\programs\\venv3\\lib\\site-packages\\dateutil\\easter.py',
   'PYMODULE'),
  ('dateutil._common',
   'C:\\Users\\lab_conputer\\programs\\venv3\\lib\\site-packages\\dateutil\\_common.py',
   'PYMODULE'),
  ('dateutil.parser._parser',
   'C:\\Users\\lab_conputer\\programs\\venv3\\lib\\site-packages\\dateutil\\parser\\_parser.py',
   'PYMODULE'),
  ('dateutil.parser',
   'C:\\Users\\lab_conputer\\programs\\venv3\\lib\\site-packages\\dateutil\\parser\\__init__.py',
   'PYMODULE'),
  ('dateutil.parser.isoparser',
   'C:\\Users\\lab_conputer\\programs\\venv3\\lib\\site-packages\\dateutil\\parser\\isoparser.py',
   'PYMODULE'),
  ('dateutil.relativedelta',
   'C:\\Users\\lab_conputer\\programs\\venv3\\lib\\site-packages\\dateutil\\relativedelta.py',
   'PYMODULE'),
  ('dateutil.tz.win',
   'C:\\Users\\lab_conputer\\programs\\venv3\\lib\\site-packages\\dateutil\\tz\\win.py',
   'PYMODULE'),
  ('dateutil.tz._factories',
   'C:\\Users\\lab_conputer\\programs\\venv3\\lib\\site-packages\\dateutil\\tz\\_factories.py',
   'PYMODULE'),
  ('dateutil.tz._common',
   'C:\\Users\\lab_conputer\\programs\\venv3\\lib\\site-packages\\dateutil\\tz\\_common.py',
   'PYMODULE'),
  ('six',
   'C:\\Users\\lab_conputer\\programs\\venv3\\lib\\site-packages\\six.py',
   'PYMODULE'),
  ('dateutil',
   'C:\\Users\\lab_conputer\\programs\\venv3\\lib\\site-packages\\dateutil\\__init__.py',
   'PYMODULE'),
  ('dateutil._version',
   'C:\\Users\\lab_conputer\\programs\\venv3\\lib\\site-packages\\dateutil\\_version.py',
   'PYMODULE'),
  ('matplotlib.units',
   'C:\\Users\\lab_conputer\\programs\\venv3\\lib\\site-packages\\matplotlib\\units.py',
   'PYMODULE'),
  ('matplotlib.container',
   'C:\\Users\\lab_conputer\\programs\\venv3\\lib\\site-packages\\matplotlib\\container.py',
   'PYMODULE'),
  ('matplotlib.collections',
   'C:\\Users\\lab_conputer\\programs\\venv3\\lib\\site-packages\\matplotlib\\collections.py',
   'PYMODULE'),
  ('mpl_toolkits.mplot3d.axis3d',
   'C:\\Users\\lab_conputer\\programs\\venv3\\lib\\site-packages\\mpl_toolkits\\mplot3d\\axis3d.py',
   'PYMODULE'),
  ('mpl_toolkits.mplot3d.art3d',
   'C:\\Users\\lab_conputer\\programs\\venv3\\lib\\site-packages\\mpl_toolkits\\mplot3d\\art3d.py',
   'PYMODULE'),
  ('mpl_toolkits.mplot3d.proj3d',
   'C:\\Users\\lab_conputer\\programs\\venv3\\lib\\site-packages\\mpl_toolkits\\mplot3d\\proj3d.py',
   'PYMODULE'),
  ('matplotlib.projections.polar',
   'C:\\Users\\lab_conputer\\programs\\venv3\\lib\\site-packages\\matplotlib\\projections\\polar.py',
   'PYMODULE'),
  ('matplotlib.projections.geo',
   'C:\\Users\\lab_conputer\\programs\\venv3\\lib\\site-packages\\matplotlib\\projections\\geo.py',
   'PYMODULE'),
  ('matplotlib.axes',
   'C:\\Users\\lab_conputer\\programs\\venv3\\lib\\site-packages\\matplotlib\\axes\\__init__.py',
   'PYMODULE'),
  ('matplotlib.axes._axes',
   'C:\\Users\\lab_conputer\\programs\\venv3\\lib\\site-packages\\matplotlib\\axes\\_axes.py',
   'PYMODULE'),
  ('matplotlib.axes._secondary_axes',
   'C:\\Users\\lab_conputer\\programs\\venv3\\lib\\site-packages\\matplotlib\\axes\\_secondary_axes.py',
   'PYMODULE'),
  ('matplotlib.streamplot',
   'C:\\Users\\lab_conputer\\programs\\venv3\\lib\\site-packages\\matplotlib\\streamplot.py',
   'PYMODULE'),
  ('matplotlib.stackplot',
   'C:\\Users\\lab_conputer\\programs\\venv3\\lib\\site-packages\\matplotlib\\stackplot.py',
   'PYMODULE'),
  ('matplotlib.quiver',
   'C:\\Users\\lab_conputer\\programs\\venv3\\lib\\site-packages\\matplotlib\\quiver.py',
   'PYMODULE'),
  ('matplotlib.legend',
   'C:\\Users\\lab_conputer\\programs\\venv3\\lib\\site-packages\\matplotlib\\legend.py',
   'PYMODULE'),
  ('matplotlib.legend_handler',
   'C:\\Users\\lab_conputer\\programs\\venv3\\lib\\site-packages\\matplotlib\\legend_handler.py',
   'PYMODULE'),
  ('matplotlib.dates',
   'C:\\Users\\lab_conputer\\programs\\venv3\\lib\\site-packages\\matplotlib\\dates.py',
   'PYMODULE'),
  ('matplotlib.category',
   'C:\\Users\\lab_conputer\\programs\\venv3\\lib\\site-packages\\matplotlib\\category.py',
   'PYMODULE'),
  ('matplotlib.axes._subplots',
   'C:\\Users\\lab_conputer\\programs\\venv3\\lib\\site-packages\\matplotlib\\axes\\_subplots.py',
   'PYMODULE'),
  ('matplotlib.artist',
   'C:\\Users\\lab_conputer\\programs\\venv3\\lib\\site-packages\\matplotlib\\artist.py',
   'PYMODULE'),
  ('matplotlib.gridspec',
   'C:\\Users\\lab_conputer\\programs\\venv3\\lib\\site-packages\\matplotlib\\gridspec.py',
   'PYMODULE'),
  ('matplotlib.tight_layout',
   'C:\\Users\\lab_conputer\\programs\\venv3\\lib\\site-packages\\matplotlib\\tight_layout.py',
   'PYMODULE'),
  ('matplotlib.figure',
   'C:\\Users\\lab_conputer\\programs\\venv3\\lib\\site-packages\\matplotlib\\figure.py',
   'PYMODULE'),
  ('matplotlib._constrained_layout',
   'C:\\Users\\lab_conputer\\programs\\venv3\\lib\\site-packages\\matplotlib\\_constrained_layout.py',
   'PYMODULE'),
  ('matplotlib._layoutgrid',
   'C:\\Users\\lab_conputer\\programs\\venv3\\lib\\site-packages\\matplotlib\\_layoutgrid.py',
   'PYMODULE'),
  ('kiwisolver',
   'C:\\Users\\lab_conputer\\programs\\venv3\\lib\\site-packages\\kiwisolver\\__init__.py',
   'PYMODULE'),
  ('matplotlib._blocking_input',
   'C:\\Users\\lab_conputer\\programs\\venv3\\lib\\site-packages\\matplotlib\\_blocking_input.py',
   'PYMODULE'),
  ('matplotlib.backend_bases',
   'C:\\Users\\lab_conputer\\programs\\venv3\\lib\\site-packages\\matplotlib\\backend_bases.py',
   'PYMODULE'),
  ('matplotlib.backend_managers',
   'C:\\Users\\lab_conputer\\programs\\venv3\\lib\\site-packages\\matplotlib\\backend_managers.py',
   'PYMODULE'),
  ('matplotlib.tight_bbox',
   'C:\\Users\\lab_conputer\\programs\\venv3\\lib\\site-packages\\matplotlib\\tight_bbox.py',
   'PYMODULE'),
  ('matplotlib.docstring',
   'C:\\Users\\lab_conputer\\programs\\venv3\\lib\\site-packages\\matplotlib\\docstring.py',
   'PYMODULE'),
  ('matplotlib.cbook',
   'C:\\Users\\lab_conputer\\programs\\venv3\\lib\\site-packages\\matplotlib\\cbook\\__init__.py',
   'PYMODULE'),
  ('matplotlib._api.deprecation',
   'C:\\Users\\lab_conputer\\programs\\venv3\\lib\\site-packages\\matplotlib\\_api\\deprecation.py',
   'PYMODULE'),
  ('matplotlib._pylab_helpers',
   'C:\\Users\\lab_conputer\\programs\\venv3\\lib\\site-packages\\matplotlib\\_pylab_helpers.py',
   'PYMODULE'),
  ('matplotlib.style',
   'C:\\Users\\lab_conputer\\programs\\venv3\\lib\\site-packages\\matplotlib\\style\\__init__.py',
   'PYMODULE'),
  ('matplotlib.style.core',
   'C:\\Users\\lab_conputer\\programs\\venv3\\lib\\site-packages\\matplotlib\\style\\core.py',
   'PYMODULE'),
  ('matplotlib.rcsetup',
   'C:\\Users\\lab_conputer\\programs\\venv3\\lib\\site-packages\\matplotlib\\rcsetup.py',
   'PYMODULE'),
  ('matplotlib._api',
   'C:\\Users\\lab_conputer\\programs\\venv3\\lib\\site-packages\\matplotlib\\_api\\__init__.py',
   'PYMODULE'),
  ('matplotlib.image',
   'C:\\Users\\lab_conputer\\programs\\venv3\\lib\\site-packages\\matplotlib\\image.py',
   'PYMODULE'),
  ('matplotlib.colorbar',
   'C:\\Users\\lab_conputer\\programs\\venv3\\lib\\site-packages\\matplotlib\\colorbar.py',
   'PYMODULE'),
  ('matplotlib',
   'C:\\Users\\lab_conputer\\programs\\venv3\\lib\\site-packages\\matplotlib\\__init__.py',
   'PYMODULE'),
  ('matplotlib._version',
   'C:\\Users\\lab_conputer\\programs\\venv3\\lib\\site-packages\\matplotlib\\_version.py',
   'PYMODULE'),
  ('cycler',
   'C:\\Users\\lab_conputer\\programs\\venv3\\lib\\site-packages\\cycler.py',
   'PYMODULE'),
  ('matplotlib.backends.backend_qt5agg',
   'C:\\Users\\lab_conputer\\programs\\venv3\\lib\\site-packages\\matplotlib\\backends\\backend_qt5agg.py',
   'PYMODULE'),
  ('matplotlib.backends.backend_qtagg',
   'C:\\Users\\lab_conputer\\programs\\venv3\\lib\\site-packages\\matplotlib\\backends\\backend_qtagg.py',
   'PYMODULE'),
  ('PyQt6', '-', 'PYMODULE'),
  ('matplotlib.backends.backend_qt',
   'C:\\Users\\lab_conputer\\programs\\venv3\\lib\\site-packages\\matplotlib\\backends\\backend_qt.py',
   'PYMODULE'),
  ('matplotlib.backends.qt_editor.figureoptions',
   'C:\\Users\\lab_conputer\\programs\\venv3\\lib\\site-packages\\matplotlib\\backends\\qt_editor\\figureoptions.py',
   'PYMODULE'),
  ('matplotlib.backends.qt_editor._formlayout',
   'C:\\Users\\lab_conputer\\programs\\venv3\\lib\\site-packages\\matplotlib\\backends\\qt_editor\\_formlayout.py',
   'PYMODULE'),
  ('matplotlib.backends.qt_editor',
   'C:\\Users\\lab_conputer\\programs\\venv3\\lib\\site-packages\\matplotlib\\backends\\qt_editor\\__init__.py',
   'PYMODULE'),
  ('matplotlib.backends.qt_compat',
   'C:\\Users\\lab_conputer\\programs\\venv3\\lib\\site-packages\\matplotlib\\backends\\qt_compat.py',
   'PYMODULE'),
  ('PyQt5',
   'C:\\Users\\lab_conputer\\programs\\venv3\\lib\\site-packages\\PyQt5\\__init__.py',
   'PYMODULE')])
