1.000000000000000056e-01 9.890973461473369088e-01 0.000000000000000000e+00 1.090265385266473395e-02 0.000000000000000000e+00 0.000000000000000000e+00 0.000000000000000000e+00 -9.073024310642274770e-02 5.051542949844490399e-02 0.000000000000000000e+00 0.000000000000000000e+00 0.000000000000000000e+00 0.000000000000000000e+00 0.000000000000000000e+00 0.000000000000000000e+00 0.000000000000000000e+00 0.000000000000000000e+00
2.000000000000000111e-01 9.571342789762966596e-01 0.000000000000000000e+00 4.286572102369989173e-02 0.000000000000000000e+00 0.000000000000000000e+00 0.000000000000000000e+00 -1.775765995115908547e-01 9.744127434244821695e-02 0.000000000000000000e+00 0.000000000000000000e+00 0.000000000000000000e+00 0.000000000000000000e+00 0.000000000000000000e+00 0.000000000000000000e+00 0.000000000000000000e+00 0.000000000000000000e+00
2.999999999999999889e-01 9.062548245971175920e-01 0.000000000000000000e+00 9.374517540288490602e-02 0.000000000000000000e+00 0.000000000000000000e+00 0.000000000000000000e+00 -2.569491312048352016e-01 1.376014563529074086e-01 0.000000000000000000e+00 0.000000000000000000e+00 0.000000000000000000e+00 0.000000000000000000e+00 0.000000000000000000e+00 0.000000000000000000e+00 0.000000000000000000e+00 0.000000000000000000e+00
4.000000000000000222e-01 8.397506135645351755e-01 0.000000000000000000e+00 1.602493864354658515e-01 0.000000000000000000e+00 0.000000000000000000e+00 0.000000000000000000e+00 -3.258068550253387929e-01 1.685805868270287000e-01 0.000000000000000000e+00 0.000000000000000000e+00 0.000000000000000000e+00 0.000000000000000000e+00 0.000000000000000000e+00 0.000000000000000000e+00 0.000000000000000000e+00 0.000000000000000000e+00
5.000000000000000000e-01 7.617079303187825889e-01 0.000000000000000000e+00 2.382920696812169392e-01 0.000000000000000000e+00 0.000000000000000000e+00 0.000000000000000000e+00 -3.818505523746939523e-01 1.889420947543623275e-01 0.000000000000000000e+00 0.000000000000000000e+00 0.000000000000000000e+00 0.000000000000000000e+00 0.000000000000000000e+00 0.000000000000000000e+00 0.000000000000000000e+00 0.000000000000000000e+00
5.999999999999999778e-01 6.765650372395559664e-01 0.000000000000000000e+00 3.234349627604471977e-01 0.000000000000000000e+00 0.000000000000000000e+00 0.000000000000000000e+00 -4.236644271906290227e-01 1.983260957334947450e-01 0.000000000000000000e+00 0.000000000000000000e+00 0.000000000000000000e+00 0.000000000000000000e+00 0.000000000000000000e+00 0.000000000000000000e+00 0.000000000000000000e+00 0.000000000000000000e+00
6.999999999999999556e-01 5.887003468547032936e-01 0.000000000000000000e+00 4.112996531452959292e-01 0.000000000000000000e+00 0.000000000000000000e+00 0.000000000000000000e+00 -4.507520874544481138e-01 1.973697121681091682e-01 0.000000000000000000e+00 0.000000000000000000e+00 0.000000000000000000e+00 0.000000000000000000e+00 0.000000000000000000e+00 0.000000000000000000e+00 0.000000000000000000e+00 0.000000000000000000e+00
7.999999999999999334e-01 5.020598829253197781e-01 0.000000000000000000e+00 4.979401170746793337e-01 0.000000000000000000e+00 0.000000000000000000e+00 0.000000000000000000e+00 -4.635008779146306268e-01 1.875171798602527362e-01 0.000000000000000000e+00 0.000000000000000000e+00 0.000000000000000000e+00 0.000000000000000000e+00 0.000000000000000000e+00 0.000000000000000000e+00 0.000000000000000000e+00 0.000000000000000000e+00
8.999999999999999112e-01 4.198974087482420514e-01 0.000000000000000000e+00 5.801025912517566718e-01 0.000000000000000000e+00 0.000000000000000000e+00 0.000000000000000000e+00 -4.630552584455251419e-01 1.707729541510931148e-01 0.000000000000000000e+00 0.000000000000000000e+00 0.000000000000000000e+00 0.000000000000000000e+00 0.000000000000000000e+00 0.000000000000000000e+00 0.000000000000000000e+00 0.000000000000000000e+00
9.999999999999998890e-01 3.446075153174340544e-01 0.000000000000000000e+00 6.553924846825691652e-01 0.000000000000000000e+00 0.000000000000000000e+00 0.000000000000000000e+00 -4.511531378109331358e-01 1.493787848078717562e-01 0.000000000000000000e+00 0.000000000000000000e+00 0.000000000000000000e+00 0.000000000000000000e+00 0.000000000000000000e+00 0.000000000000000000e+00 0.000000000000000000e+00 0.000000000000000000e+00
1.099999999999999867e+00 2.777321174845189811e-01 0.000000000000000000e+00 7.222678825154841276e-01 0.000000000000000000e+00 0.000000000000000000e+00 0.000000000000000000e+00 -4.299195336844832127e-01 1.255634633123097754e-01 0.000000000000000000e+00 0.000000000000000000e+00 0.000000000000000000e+00 0.000000000000000000e+00 0.000000000000000000e+00 0.000000000000000000e+00 0.000000000000000000e+00 0.000000000000000000e+00
1.199999999999999956e+00 2.199808477893525627e-01 0.000000000000000000e+00 7.800191522106411091e-01 0.000000000000000000e+00 0.000000000000000000e+00 0.000000000000000000e+00 -4.016538071596491566e-01 1.013088999262875545e-01 0.000000000000000000e+00 0.000000000000000000e+00 0.000000000000000000e+00 0.000000000000000000e+00 0.000000000000000000e+00 0.000000000000000000e+00 0.000000000000000000e+00 0.000000000000000000e+00
1.300000000000000044e+00 1.713888220179996813e-01 0.000000000000000000e+00 8.286111779820029000e-01 0.000000000000000000e+00 0.000000000000000000e+00 0.000000000000000000e+00 -3.686434780359644781e-01 7.820920521038672579e-02 0.000000000000000000e+00 0.000000000000000000e+00 0.000000000000000000e+00 0.000000000000000000e+00 0.000000000000000000e+00 0.000000000000000000e+00 0.000000000000000000e+00 0.000000000000000000e+00
1.399999999999999911e+00 1.314664932125747809e-01 0.000000000000000000e+00 8.685335067874242476e-01 0.000000000000000000e+00 0.000000000000000000e+00 0.000000000000000000e+00 -3.330008541369537944e-01 5.738889425542036127e-02 0.000000000000000000e+00 0.000000000000000000e+00 0.000000000000000000e+00 0.000000000000000000e+00 0.000000000000000000e+00 0.000000000000000000e+00 0.000000000000000000e+00 0.000000000000000000e+00
1.500000000000000000e+00 9.938710650761187204e-02 0.000000000000000000e+00 9.006128934923840479e-01 0.000000000000000000e+00 0.000000000000000000e+00 0.000000000000000000e+00 -2.965552190723054204e-01 3.955137282766445217e-02 0.000000000000000000e+00 0.000000000000000000e+00 0.000000000000000000e+00 0.000000000000000000e+00 0.000000000000000000e+00 0.000000000000000000e+00 0.000000000000000000e+00 0.000000000000000000e+00
1.599999999999999867e+00 7.412012762547898204e-02 0.000000000000000000e+00 9.258798723745245152e-01 0.000000000000000000e+00 0.000000000000000000e+00 0.000000000000000000e+00 -2.607746940700473304e-01 2.495782825729728899e-02 0.000000000000000000e+00 0.000000000000000000e+00 0.000000000000000000e+00 0.000000000000000000e+00 0.000000000000000000e+00 0.000000000000000000e+00 0.000000000000000000e+00 0.000000000000000000e+00
1.699999999999999956e+00 5.459539244518821915e-02 0.000000000000000000e+00 9.454046075548143691e-01 0.000000000000000000e+00 0.000000000000000000e+00 0.000000000000000000e+00 -2.267821924230102038e-01 1.358575684490431756e-02 0.000000000000000000e+00 0.000000000000000000e+00 0.000000000000000000e+00 0.000000000000000000e+00 0.000000000000000000e+00 0.000000000000000000e+00 0.000000000000000000e+00 0.000000000000000000e+00
1.800000000000000044e+00 3.975962810725274660e-02 0.000000000000000000e+00 9.602403718927480236e-01 0.000000000000000000e+00 0.000000000000000000e+00 0.000000000000000000e+00 -1.953257074829220785e-01 5.164154257949787191e-03 0.000000000000000000e+00 0.000000000000000000e+00 0.000000000000000000e+00 0.000000000000000000e+00 0.000000000000000000e+00 0.000000000000000000e+00 0.000000000000000000e+00 0.000000000000000000e+00
1.899999999999999911e+00 2.866319921314099475e-02 0.000000000000000000e+00 9.713368007868610210e-01 0.000000000000000000e+00 0.000000000000000000e+00 0.000000000000000000e+00 -1.668566347663250071e-01 -6.955160769313885327e-04 0.000000000000000000e+00 0.000000000000000000e+00 0.000000000000000000e+00 0.000000000000000000e+00 0.000000000000000000e+00 0.000000000000000000e+00 0.000000000000000000e+00 0.000000000000000000e+00
2.000000000000000000e+00 2.047991944030275874e-02 0.000000000000000000e+00 9.795200805596995242e-01 0.000000000000000000e+00 0.000000000000000000e+00 0.000000000000000000e+00 -1.415649323840072471e-01 -4.456708566952537198e-03 0.000000000000000000e+00 0.000000000000000000e+00 0.000000000000000000e+00 0.000000000000000000e+00 0.000000000000000000e+00 0.000000000000000000e+00 0.000000000000000000e+00 0.000000000000000000e+00
2.099999999999999645e+00 1.451681543484113074e-02 0.000000000000000000e+00 9.854831845651612632e-01 0.000000000000000000e+00 0.000000000000000000e+00 0.000000000000000000e+00 -1.194273053459586897e-01 -6.572392533659369984e-03 0.000000000000000000e+00 0.000000000000000000e+00 0.000000000000000000e+00 0.000000000000000000e+00 0.000000000000000000e+00 0.000000000000000000e+00 0.000000000000000000e+00 0.000000000000000000e+00
2.199999999999999734e+00 1.022152176004270663e-02 0.000000000000000000e+00 9.897784782399607906e-01 0.000000000000000000e+00 0.000000000000000000e+00 0.000000000000000000e+00 -1.003058166846756555e-01 -7.468958077320692751e-03 0.000000000000000000e+00 0.000000000000000000e+00 0.000000000000000000e+00 0.000000000000000000e+00 0.000000000000000000e+00 0.000000000000000000e+00 0.000000000000000000e+00 0.000000000000000000e+00
2.299999999999999822e+00 7.157529396559747861e-03 0.000000000000000000e+00 9.928424706034375546e-01 0.000000000000000000e+00 0.000000000000000000e+00 0.000000000000000000e+00 -8.396430216596052765e-02 -7.503015342336620888e-03 0.000000000000000000e+00 0.000000000000000000e+00 0.000000000000000000e+00 0.000000000000000000e+00 0.000000000000000000e+00 0.000000000000000000e+00 0.000000000000000000e+00 0.000000000000000000e+00
2.399999999999999911e+00 4.989842934451115854e-03 0.000000000000000000e+00 9.950101570655484062e-01 0.000000000000000000e+00 0.000000000000000000e+00 0.000000000000000000e+00 -7.011573742468404924e-02 -6.980532727763260475e-03 0.000000000000000000e+00 0.000000000000000000e+00 0.000000000000000000e+00 0.000000000000000000e+00 0.000000000000000000e+00 0.000000000000000000e+00 0.000000000000000000e+00 0.000000000000000000e+00
2.500000000000000000e+00 3.466187039235096422e-03 0.000000000000000000e+00 9.965338129607617113e-01 0.000000000000000000e+00 0.000000000000000000e+00 0.000000000000000000e+00 -5.845177224628889112e-02 -6.128877420152100200e-03 0.000000000000000000e+00 0.000000000000000000e+00 0.000000000000000000e+00 0.000000000000000000e+00 0.000000000000000000e+00 0.000000000000000000e+00 0.000000000000000000e+00 0.000000000000000000e+00
2.600000000000000089e+00 2.402501777306023396e-03 0.000000000000000000e+00 9.975974982226940568e-01 0.000000000000000000e+00 0.000000000000000000e+00 0.000000000000000000e+00 -4.868908446749958124e-02 -5.109111739906174905e-03 0.000000000000000000e+00 0.000000000000000000e+00 0.000000000000000000e+00 0.000000000000000000e+00 0.000000000000000000e+00 0.000000000000000000e+00 0.000000000000000000e+00 0.000000000000000000e+00
2.699999999999999734e+00 1.662669183435976777e-03 0.000000000000000000e+00 9.983373308165695015e-01 0.000000000000000000e+00 0.000000000000000000e+00 0.000000000000000000e+00 -4.053962743677733127e-02 -4.055064934513165353e-03 0.000000000000000000e+00 0.000000000000000000e+00 0.000000000000000000e+00 0.000000000000000000e+00 0.000000000000000000e+00 0.000000000000000000e+00 0.000000000000000000e+00 0.000000000000000000e+00
2.799999999999999822e+00 1.149993784152953486e-03 0.000000000000000000e+00 9.988500062158545134e-01 0.000000000000000000e+00 0.000000000000000000e+00 0.000000000000000000e+00 -3.375545719549700313e-02 -3.039817125686427625e-03 0.000000000000000000e+00 0.000000000000000000e+00 0.000000000000000000e+00 0.000000000000000000e+00 0.000000000000000000e+00 0.000000000000000000e+00 0.000000000000000000e+00 0.000000000000000000e+00
2.899999999999999911e+00 7.957826768467701241e-04 0.000000000000000000e+00 9.992042173231534541e-01 0.000000000000000000e+00 0.000000000000000000e+00 0.000000000000000000e+00 -2.811971502038418391e-02 -2.105021454098496107e-03 0.000000000000000000e+00 0.000000000000000000e+00 0.000000000000000000e+00 0.000000000000000000e+00 0.000000000000000000e+00 0.000000000000000000e+00 0.000000000000000000e+00 0.000000000000000000e+00
3.000000000000000000e+00 5.507754920954491176e-04 0.000000000000000000e+00 9.994492245079075188e-01 0.000000000000000000e+00 0.000000000000000000e+00 0.000000000000000000e+00 -2.342689334745282417e-02 -1.285694463776444318e-03 0.000000000000000000e+00 0.000000000000000000e+00 0.000000000000000000e+00 0.000000000000000000e+00 0.000000000000000000e+00 0.000000000000000000e+00 0.000000000000000000e+00 0.000000000000000000e+00
