1.000000000000000056e-01 9.785909044323152228e-01 0.000000000000000000e+00 2.140909556768649802e-02 0.000000000000000000e+00 0.000000000000000000e+00 0.000000000000000000e+00 -1.554105302078024643e-02 -1.439069910150143627e-01 0.000000000000000000e+00 0.000000000000000000e+00 0.000000000000000000e+00 0.000000000000000000e+00 0.000000000000000000e+00 0.000000000000000000e+00 0.000000000000000000e+00 0.000000000000000000e+00
2.000000000000000111e-01 9.170457066177484240e-01 0.000000000000000000e+00 8.295429338225338012e-02 0.000000000000000000e+00 0.000000000000000000e+00 0.000000000000000000e+00 -2.322529939965836329e-02 -2.748335214116156555e-01 0.000000000000000000e+00 0.000000000000000000e+00 0.000000000000000000e+00 0.000000000000000000e+00 0.000000000000000000e+00 0.000000000000000000e+00 0.000000000000000000e+00 0.000000000000000000e+00
2.999999999999999889e-01 8.228637038718581431e-01 0.000000000000000000e+00 1.771362961281449377e-01 0.000000000000000000e+00 0.000000000000000000e+00 0.000000000000000000e+00 -1.738468110047840937e-02 -3.813879934140695371e-01 0.000000000000000000e+00 0.000000000000000000e+00 0.000000000000000000e+00 0.000000000000000000e+00 0.000000000000000000e+00 0.000000000000000000e+00 0.000000000000000000e+00 0.000000000000000000e+00
4.000000000000000222e-01 7.068844859060644525e-01 0.000000000000000000e+00 2.931155140939334380e-01 0.000000000000000000e+00 0.000000000000000000e+00 0.000000000000000000e+00 3.894306858023419832e-03 -4.551743005689883881e-01 0.000000000000000000e+00 0.000000000000000000e+00 0.000000000000000000e+00 0.000000000000000000e+00 0.000000000000000000e+00 0.000000000000000000e+00 0.000000000000000000e+00 0.000000000000000000e+00
5.000000000000000000e-01 5.812511579113089910e-01 0.000000000000000000e+00 4.187488420886923968e-01 0.000000000000000000e+00 0.000000000000000000e+00 0.000000000000000000e+00 3.835622839244973159e-02 -4.918608025348613633e-01 0.000000000000000000e+00 0.000000000000000000e+00 0.000000000000000000e+00 0.000000000000000000e+00 0.000000000000000000e+00 0.000000000000000000e+00 0.000000000000000000e+00 0.000000000000000000e+00
5.999999999999999778e-01 4.573564879084092150e-01 0.000000000000000000e+00 5.426435120915870103e-01 0.000000000000000000e+00 0.000000000000000000e+00 0.000000000000000000e+00 8.031640954868127236e-02 -4.916612708437164692e-01 0.000000000000000000e+00 0.000000000000000000e+00 0.000000000000000000e+00 0.000000000000000000e+00 0.000000000000000000e+00 0.000000000000000000e+00 0.000000000000000000e+00 0.000000000000000000e+00
6.999999999999999556e-01 3.442662436422414540e-01 0.000000000000000000e+00 6.557337563577598782e-01 0.000000000000000000e+00 0.000000000000000000e+00 0.000000000000000000e+00 1.223092471492024658e-01 -4.591159387154428728e-01 0.000000000000000000e+00 0.000000000000000000e+00 0.000000000000000000e+00 0.000000000000000000e+00 0.000000000000000000e+00 0.000000000000000000e+00 0.000000000000000000e+00 0.000000000000000000e+00
7.999999999999999334e-01 2.478106487269598479e-01 0.000000000000000000e+00 7.521893512730448705e-01 0.000000000000000000e+00 0.000000000000000000e+00 0.000000000000000000e+00 1.570600614562596142e-01 -4.021600033164302590e-01 0.000000000000000000e+00 0.000000000000000000e+00 0.000000000000000000e+00 0.000000000000000000e+00 0.000000000000000000e+00 0.000000000000000000e+00 0.000000000000000000e+00 0.000000000000000000e+00
8.999999999999999112e-01 1.705229820411512942e-01 0.000000000000000000e+00 8.294770179588489833e-01 0.000000000000000000e+00 0.000000000000000000e+00 0.000000000000000000e+00 1.792384349181674608e-01 -3.306334496683235868e-01 0.000000000000000000e+00 0.000000000000000000e+00 0.000000000000000000e+00 0.000000000000000000e+00 0.000000000000000000e+00 0.000000000000000000e+00 0.000000000000000000e+00 0.000000000000000000e+00
9.999999999999998890e-01 1.121228632004423048e-01 0.000000000000000000e+00 8.878771367995568209e-01 0.000000000000000000e+00 0.000000000000000000e+00 0.000000000000000000e+00 1.864511547384838097e-01 -2.545334823325028917e-01 0.000000000000000000e+00 0.000000000000000000e+00 0.000000000000000000e+00 0.000000000000000000e+00 0.000000000000000000e+00 0.000000000000000000e+00 0.000000000000000000e+00 0.000000000000000000e+00
1.099999999999999867e+00 7.041731605899742563e-02 0.000000000000000000e+00 9.295826839410008535e-01 0.000000000000000000e+00 0.000000000000000000e+00 0.000000000000000000e+00 1.793639558433053893e-01 -1.824480446304508063e-01 0.000000000000000000e+00 0.000000000000000000e+00 0.000000000000000000e+00 0.000000000000000000e+00 0.000000000000000000e+00 0.000000000000000000e+00 0.000000000000000000e+00 0.000000000000000000e+00
1.199999999999999956e+00 4.222783719785026119e-02 0.000000000000000000e+00 9.577721628021460543e-01 0.000000000000000000e+00 0.000000000000000000e+00 0.000000000000000000e+00 1.610304095976100303e-01 -1.204734583915326868e-01 0.000000000000000000e+00 0.000000000000000000e+00 0.000000000000000000e+00 0.000000000000000000e+00 0.000000000000000000e+00 0.000000000000000000e+00 0.000000000000000000e+00 0.000000000000000000e+00
1.300000000000000044e+00 2.417293107158227303e-02 0.000000000000000000e+00 9.758270689284176402e-01 0.000000000000000000e+00 0.000000000000000000e+00 0.000000000000000000e+00 1.357809186782540922e-01 -7.177842735313448574e-02 0.000000000000000000e+00 0.000000000000000000e+00 0.000000000000000000e+00 0.000000000000000000e+00 0.000000000000000000e+00 0.000000000000000000e+00 0.000000000000000000e+00 0.000000000000000000e+00
1.399999999999999911e+00 1.320776942851151041e-02 0.000000000000000000e+00 9.867922305714909026e-01 0.000000000000000000e+00 0.000000000000000000e+00 0.000000000000000000e+00 1.080521697809982001e-01 -3.685176853215286347e-02 0.000000000000000000e+00 0.000000000000000000e+00 0.000000000000000000e+00 0.000000000000000000e+00 0.000000000000000000e+00 0.000000000000000000e+00 0.000000000000000000e+00 0.000000000000000000e+00
1.500000000000000000e+00 6.887215411720750725e-03 0.000000000000000000e+00 9.931127845882801175e-01 0.000000000000000000e+00 0.000000000000000000e+00 0.000000000000000000e+00 8.147528550956935345e-02 -1.419716564742349620e-02 0.000000000000000000e+00 0.000000000000000000e+00 0.000000000000000000e+00 0.000000000000000000e+00 0.000000000000000000e+00 0.000000000000000000e+00 0.000000000000000000e+00 0.000000000000000000e+00
1.599999999999999867e+00 3.429618289832645460e-03 0.000000000000000000e+00 9.965703817101667639e-01 0.000000000000000000e+00 0.000000000000000000e+00 0.000000000000000000e+00 5.844957337145680748e-02 -1.226117417391470003e-03 0.000000000000000000e+00 0.000000000000000000e+00 0.000000000000000000e+00 0.000000000000000000e+00 0.000000000000000000e+00 0.000000000000000000e+00 0.000000000000000000e+00 0.000000000000000000e+00
1.699999999999999956e+00 1.631538262924902205e-03 0.000000000000000000e+00 9.983684617370747194e-01 0.000000000000000000e+00 0.000000000000000000e+00 0.000000000000000000e+00 4.005629972806049044e-02 4.936516547501867795e-03 0.000000000000000000e+00 0.000000000000000000e+00 0.000000000000000000e+00 0.000000000000000000e+00 0.000000000000000000e+00 0.000000000000000000e+00 0.000000000000000000e+00 0.000000000000000000e+00
1.800000000000000044e+00 7.428434021418653561e-04 0.000000000000000000e+00 9.992571565978606296e-01 0.000000000000000000e+00 0.000000000000000000e+00 0.000000000000000000e+00 2.636240388919257674e-02 6.878607536844818723e-03 0.000000000000000000e+00 0.000000000000000000e+00 0.000000000000000000e+00 0.000000000000000000e+00 0.000000000000000000e+00 0.000000000000000000e+00 0.000000000000000000e+00 0.000000000000000000e+00
1.899999999999999911e+00 3.241848224635290160e-04 0.000000000000000000e+00 9.996758151775394508e-01 0.000000000000000000e+00 0.000000000000000000e+00 0.000000000000000000e+00 1.676084369958800654e-02 6.569154200669605724e-03 0.000000000000000000e+00 0.000000000000000000e+00 0.000000000000000000e+00 0.000000000000000000e+00 0.000000000000000000e+00 0.000000000000000000e+00 0.000000000000000000e+00 0.000000000000000000e+00
2.000000000000000000e+00 1.359580202835670233e-04 0.000000000000000000e+00 9.998640419797181211e-01 0.000000000000000000e+00 0.000000000000000000e+00 0.000000000000000000e+00 1.037341757190544597e-02 5.322754103260793866e-03 0.000000000000000000e+00 0.000000000000000000e+00 0.000000000000000000e+00 0.000000000000000000e+00 0.000000000000000000e+00 0.000000000000000000e+00 0.000000000000000000e+00 0.000000000000000000e+00
2.099999999999999645e+00 5.508365619184527366e-05 0.000000000000000000e+00 9.999449163438058896e-01 0.000000000000000000e+00 0.000000000000000000e+00 0.000000000000000000e+00 6.313722052840241641e-03 3.900967103082159972e-03 0.000000000000000000e+00 0.000000000000000000e+00 0.000000000000000000e+00 0.000000000000000000e+00 0.000000000000000000e+00 0.000000000000000000e+00 0.000000000000000000e+00 0.000000000000000000e+00
2.199999999999999734e+00 2.166762816299540957e-05 0.000000000000000000e+00 9.999783323718391959e-01 0.000000000000000000e+00 0.000000000000000000e+00 0.000000000000000000e+00 3.816252782882524446e-03 2.665209968125741881e-03 0.000000000000000000e+00 0.000000000000000000e+00 0.000000000000000000e+00 0.000000000000000000e+00 0.000000000000000000e+00 0.000000000000000000e+00 0.000000000000000000e+00 0.000000000000000000e+00
2.299999999999999822e+00 8.319052492773572040e-06 0.000000000000000000e+00 9.999916809475098978e-01 0.000000000000000000e+00 0.000000000000000000e+00 0.000000000000000000e+00 2.314396658362648067e-03 1.721198405798163690e-03 0.000000000000000000e+00 0.000000000000000000e+00 0.000000000000000000e+00 0.000000000000000000e+00 0.000000000000000000e+00 0.000000000000000000e+00 0.000000000000000000e+00 0.000000000000000000e+00
2.399999999999999911e+00 3.147117737188429867e-06 0.000000000000000000e+00 9.999968528822662517e-01 0.000000000000000000e+00 0.000000000000000000e+00 0.000000000000000000e+00 1.420595630545329465e-03 1.062550333463065317e-03 0.000000000000000000e+00 0.000000000000000000e+00 0.000000000000000000e+00 0.000000000000000000e+00 0.000000000000000000e+00 0.000000000000000000e+00 0.000000000000000000e+00 0.000000000000000000e+00
2.500000000000000000e+00 1.183490681496576824e-06 0.000000000000000000e+00 9.999988165093190995e-01 0.000000000000000000e+00 0.000000000000000000e+00 0.000000000000000000e+00 8.907344969980200092e-04 6.245572341672741981e-04 0.000000000000000000e+00 0.000000000000000000e+00 0.000000000000000000e+00 0.000000000000000000e+00 0.000000000000000000e+00 0.000000000000000000e+00 0.000000000000000000e+00 0.000000000000000000e+00
2.600000000000000089e+00 4.418558038430926918e-07 0.000000000000000000e+00 9.999995581441967207e-01 0.000000000000000000e+00 0.000000000000000000e+00 0.000000000000000000e+00 5.662158559370639686e-04 3.482336062157367733e-04 0.000000000000000000e+00 0.000000000000000000e+00 0.000000000000000000e+00 0.000000000000000000e+00 0.000000000000000000e+00 0.000000000000000000e+00 0.000000000000000000e+00 0.000000000000000000e+00
2.699999999999999734e+00 1.671751799423469449e-07 0.000000000000000000e+00 9.999998328248163038e-01 0.000000000000000000e+00 0.000000000000000000e+00 0.000000000000000000e+00 3.643341077167272057e-04 1.855113489713679361e-04 0.000000000000000000e+00 0.000000000000000000e+00 0.000000000000000000e+00 0.000000000000000000e+00 0.000000000000000000e+00 0.000000000000000000e+00 0.000000000000000000e+00 0.000000000000000000e+00
2.799999999999999822e+00 6.601903136265703433e-08 0.000000000000000000e+00 9.999999339809674259e-01 0.000000000000000000e+00 0.000000000000000000e+00 0.000000000000000000e+00 2.401279827609216597e-04 9.118256281740679708e-05 0.000000000000000000e+00 0.000000000000000000e+00 0.000000000000000000e+00 0.000000000000000000e+00 0.000000000000000000e+00 0.000000000000000000e+00 0.000000000000000000e+00 0.000000000000000000e+00
2.899999999999999911e+00 2.667215035147793650e-08 0.000000000000000000e+00 9.999999733278505110e-01 0.000000000000000000e+00 0.000000000000000000e+00 0.000000000000000000e+00 1.585030645478321097e-04 3.908069870924811833e-05 0.000000000000000000e+00 0.000000000000000000e+00 0.000000000000000000e+00 0.000000000000000000e+00 0.000000000000000000e+00 0.000000000000000000e+00 0.000000000000000000e+00 0.000000000000000000e+00
3.000000000000000000e+00 1.134961166604683091e-08 0.000000000000000000e+00 9.999999886503899704e-01 0.000000000000000000e+00 0.000000000000000000e+00 0.000000000000000000e+00 1.058401793202886422e-04 1.002253148670362968e-05 0.000000000000000000e+00 0.000000000000000000e+00 0.000000000000000000e+00 0.000000000000000000e+00 0.000000000000000000e+00 0.000000000000000000e+00 0.000000000000000000e+00 0.000000000000000000e+00
