1.000000000000000056e-01 7.463123262474599890e-04 3.256672595919018185e-05 -9.999997209786228858e-01
2.000000000000000111e-01 1.353586468094406491e-03 5.051769409754063749e-05 -9.999990826253977172e-01
2.999999999999999889e-01 1.688664829969523107e-03 4.530000049374642487e-05 -9.999985731784868381e-01
4.000000000000000222e-01 1.630206691666935461e-03 1.987474381950342332e-05 -9.999986710146864244e-01
5.000000000000000000e-01 1.074693434697931559e-03 -7.021286851010480193e-06 -9.999994224921950892e-01
5.999999999999999778e-01 -5.756879836299701783e-05 1.686825371775467466e-06 -9.999999983414943339e-01
6.999999999999999556e-01 -1.816629686629774249e-03 1.018679355024534628e-04 -9.999983447383797852e-01
7.999999999999999334e-01 -4.217560952708349249e-03 3.662627881239815066e-04 -9.999910389754399498e-01
8.999999999999999112e-01 -7.236025478802118709e-03 8.800804483055651864e-04 -9.999734323439193329e-01
9.999999999999998890e-01 -1.080525527691056191e-02 1.734203623911848317e-03 -9.999401177051522316e-01
1.099999999999999867e+00 -1.481498876601804876e-02 3.016305594802771214e-03 -9.998857024722485054e-01
1.199999999999999956e+00 -1.911290285618883616e-02 4.800399973105612048e-03 -9.998058076969266184e-01
1.300000000000000044e+00 -2.350899094073181234e-02 7.135553394771556798e-03 -9.996981600576726468e-01
1.399999999999999911e+00 -2.778318062137839425e-02 1.003467208237557827e-02 -9.995636048950357067e-01
1.500000000000000000e+00 -3.169625900612285663e-02 1.346440548806765967e-02 -9.994068525629967725e-01
1.599999999999999867e+00 -3.500389110136622323e-02 1.733727398206532863e-02 -9.992367820184755445e-01
1.699999999999999956e+00 -3.747319826877734683e-02 2.150710521364870495e-02 -9.990661658953577939e-01
1.800000000000000044e+00 -3.890103579392512750e-02 2.576874251621187953e-02 -9.989107474260678909e-01
1.899999999999999911e+00 -3.913280295524244196e-02 2.986276316199161854e-02 -9.987876847004155678e-01
2.000000000000000000e+00 -3.808036952834722294e-02 3.348561800935172944e-02 -9.987134718442223225e-01
2.099999999999999645e+00 -3.573754262335707838e-02 3.630519100109887154e-02 -9.987015375744870971e-01
2.199999999999999734e+00 -3.219145606673796262e-02 3.798130183759283740e-02 -9.987597963810176394e-01
2.299999999999999822e+00 -2.762836292910656258e-02 3.819017224296644003e-02 -9.988884744083998957e-01
2.399999999999999911e+00 -2.233256110238961839e-02 3.665138794454356891e-02 -9.990785416954842679e-01
2.500000000000000000e+00 -1.667758043238639493e-02 3.315546176090184566e-02 -9.993110495067919485e-01
2.600000000000000089e+00 -1.110929163084539185e-02 2.758978582127401269e-02 -9.995575958181774912e-01
2.699999999999999734e+00 -6.121231244826927376e-03 1.996059683975738921e-02 -9.997820287952063900e-01
2.799999999999999822e+00 -2.223129589784412618e-03 1.040860281643723496e-02 -9.999433577369476467e-01
2.899999999999999911e+00 9.567551077790358287e-05 -7.838454001349681559e-04 -9.999996882162389689e-01
3.000000000000000000e+00 4.056186942165975699e-04 -1.319570354255620616e-02 -9.999128506432315433e-01
