1.000000000000000056e-01 6.787942584351242782e-11 1.706623299409706041e-11 -1.000000000000000000e+00
2.000000000000000111e-01 1.438462322368820181e-11 3.605693780337880418e-12 -9.999999999999994449e-01
2.999999999999999889e-01 -2.578488765541700495e-11 -6.957477708600184551e-12 -1.000000000000000000e+00
4.000000000000000222e-01 -3.192924166735181932e-11 -8.514874320337063454e-12 -9.999999999999983347e-01
5.000000000000000000e-01 1.137877509451778870e-11 3.436830688003050214e-12 -1.000000000000000000e+00
5.999999999999999778e-01 1.273036850675115771e-10 3.459067030707452302e-11 -9.999999999999981126e-01
6.999999999999999556e-01 3.468906856169509328e-10 9.746792652064416856e-11 -9.999999999999996669e-01
7.999999999999999334e-01 6.993986751591254331e-10 2.054833803537065243e-10 -9.999999999999985567e-01
8.999999999999999112e-01 1.209940474202778429e-09 3.701226059774107597e-10 -9.999999999999988898e-01
9.999999999999998890e-01 1.883161595426037834e-09 6.020698792455444382e-10 -1.000000000000000000e+00
1.099999999999999867e+00 2.687529023283520636e-09 9.010012685285527713e-10 -9.999999999999966693e-01
1.199999999999999956e+00 3.556771006833676758e-09 1.253205631340154012e-09 -9.999999999999990008e-01
1.300000000000000044e+00 4.364273506789817495e-09 1.619727798378968023e-09 -9.999999999999978906e-01
1.399999999999999911e+00 4.927466508126153543e-09 1.930087461801538740e-09 -9.999999999999973355e-01
1.500000000000000000e+00 4.995843397281394232e-09 2.069022809723991607e-09 -9.999999999999993339e-01
1.599999999999999867e+00 4.260161992199323812e-09 1.867423535456943131e-09 -9.999999999999998890e-01
1.699999999999999956e+00 2.352136266219748449e-09 1.092540043921698445e-09 -9.999999999999984457e-01
1.800000000000000044e+00 -1.126720695206680079e-09 -5.555836611318266070e-10 -1.000000000000001110e+00
1.899999999999999911e+00 -6.588630910506184020e-09 -3.449500158138637260e-09 -9.999999999999998890e-01
2.000000000000000000e+00 -1.442289348908620412e-08 -8.027716850999640216e-09 -1.000000000000000888e+00
2.099999999999999645e+00 -2.495704597430672248e-08 -1.478454226184711586e-08 -9.999999999999971134e-01
2.199999999999999734e+00 -3.841151681826893063e-08 -2.424144056576413262e-08 -9.999999999999977796e-01
2.299999999999999822e+00 -5.485658643657340695e-08 -3.691632940350444689e-08 -9.999999999999960032e-01
2.399999999999999911e+00 -7.416180867730930705e-08 -5.327952854627112844e-08 -9.999999999999946709e-01
2.500000000000000000e+00 -9.596475877966141073e-08 -7.368704735711875378e-08 -9.999999999999913403e-01
2.600000000000000089e+00 -1.196350094312658243e-07 -9.832031157145952563e-08 -9.999999999999851230e-01
2.699999999999999734e+00 -1.442699021433612488e-07 -1.270968776370732727e-07 -9.999999999999810152e-01
2.799999999999999822e+00 -1.686952124513240004e-07 -1.595961677837780277e-07 -9.999999999999709122e-01
2.899999999999999911e+00 -1.914999613247000003e-07 -1.949699150649381391e-07 -9.999999999999619194e-01
3.000000000000000000e+00 -2.110987562666446664e-07 -2.318655971644146144e-07 -9.999999999999515943e-01
