1.000000000000000056e-01 1.477182186223496673e-09 -5.358155232406785889e-10 -1.000000000000000000e+00
2.000000000000000111e-01 1.137484545372459129e-08 -4.092840102676611017e-09 -9.999999999999993339e-01
2.999999999999999889e-01 3.555066815765799619e-08 -1.260868001482091715e-08 -9.999999999999991118e-01
4.000000000000000222e-01 7.534090913618909416e-08 -2.617911580918093011e-08 -1.000000000000000888e+00
5.000000000000000000e-01 1.254964101527740711e-07 -4.245338491929579598e-08 -9.999999999999908962e-01
5.999999999999999778e-01 1.727476116964934322e-07 -5.650924902726521958e-08 -9.999999999999825695e-01
6.999999999999999556e-01 1.949701997592847399e-07 -6.122900422174957260e-08 -9.999999999999816813e-01
7.999999999999999334e-01 1.611073913651169435e-07 -4.818610985211497007e-08 -9.999999999999862332e-01
8.999999999999999112e-01 3.191429979069595523e-08 -9.009636405994582048e-09 -9.999999999999972244e-01
9.999999999999998890e-01 -2.383639922142693986e-07 6.287507419801175496e-08 -9.999999999999695799e-01
1.099999999999999867e+00 -6.993785322189550275e-07 1.703127321257956738e-07 -9.999999999997394307e-01
1.199999999999999956e+00 -1.401162110337233263e-06 3.104862276534469499e-07 -9.999999999989717114e-01
1.300000000000000044e+00 -2.389765764059876207e-06 4.732614666561931037e-07 -9.999999999970317077e-01
1.399999999999999911e+00 -3.702249844253153020e-06 6.400953455223301423e-07 -9.999999999929426453e-01
1.500000000000000000e+00 -5.361229088329655984e-06 7.837630032988307483e-07 -9.999999999853271815e-01
1.599999999999999867e+00 -7.369305886641596404e-06 8.691969617173470829e-07 -9.999999999724727973e-01
1.699999999999999956e+00 -9.703761484083161479e-06 8.556081354553082482e-07 -9.999999999525521766e-01
1.800000000000000044e+00 -1.231195439344416552e-05 7.000261104031535102e-07 -9.999999999239651549e-01
1.899999999999999911e+00 -1.510789215792321429e-05 3.622728197634562951e-07 -9.999999998858118966e-01
2.000000000000000000e+00 -1.797048114786119327e-05 -1.887615270363600386e-07 -9.999999998385141753e-01
2.099999999999999645e+00 -2.074391878630661311e-05 -9.677970224145600209e-07 -9.999999997843775912e-01
2.199999999999999734e+00 -2.324063194848870767e-05 -1.965230225464023387e-06 -9.999999997280065722e-01
2.299999999999999822e+00 -2.524707286165460039e-05 -3.139136671662737508e-06 -9.999999996763625498e-01
2.399999999999999911e+00 -2.653251829664925410e-05 -4.407924350528811348e-06 -9.999999996382997747e-01
2.500000000000000000e+00 -2.686082945236078614e-05 -5.644447879047651795e-06 -9.999999996233165378e-01
2.600000000000000089e+00 -2.600492074301022051e-05 -6.672405332272582956e-06 -9.999999996396128354e-01
2.699999999999999734e+00 -2.376339466997557043e-05 -7.265903036755120312e-06 -9.999999996912536382e-01
2.799999999999999822e+00 -1.997857829925742324e-05 -7.152917176278188698e-06 -9.999999997748463265e-01
2.899999999999999911e+00 -1.455491461410441973e-05 -6.023315341859094756e-06 -9.999999998759394604e-01
3.000000000000000000e+00 -7.476436908553354506e-06 -3.541777587188961433e-06 -9.999999999657798178e-01
