0.000000000000000000e+00 -2.446213472074286828e-09 9.873944100323754758e-10 -1.000000000000000000e+00
6.974358974358975394e-02 7.332335117238761302e-02 1.200235578755912969e-01 -9.900590981918124811e-01
1.394871794871795079e-01 1.432808433095677791e-01 2.385073000389205111e-01 -9.605117353938250613e-01
2.092307692307692757e-01 2.066654338868801344e-01 3.538711923325574826e-01 -9.121739727609730064e-01
2.789743589743590158e-01 2.605481779562772715e-01 4.645139373417297990e-01 -8.463669627176646504e-01
3.487179487179487558e-01 3.024130375364254553e-01 5.687939896889262492e-01 -7.648621573229468229e-01
4.184615384615385514e-01 3.302715860501617695e-01 6.650329706063264901e-01 -6.698097329961310020e-01
4.882051282051282914e-01 3.427429734813333129e-01 7.515455000975911348e-01 -5.636478011873135019e-01
5.579487179487180315e-01 3.391262100785815692e-01 8.266642871687799321e-01 -4.490110370500360326e-01
6.276923076923077716e-01 3.194364662280496647e-01 8.887943129027846556e-01 -3.286269327800689921e-01
6.974358974358975116e-01 2.843983068941299819e-01 9.364799171299363900e-01 -2.052149126303906834e-01
7.671794871794872517e-01 2.354261613918919305e-01 9.684731869278289107e-01 -8.138879754570177427e-02
8.369230769230771028e-01 1.745647331164799643e-01 9.838104395210440778e-01 4.042367001912829799e-02
9.066666666666668428e-01 1.043978055714891440e-01 9.818908637856029742e-01 1.580553601738960423e-01
9.764102564102565829e-01 2.793070880012782364e-02 9.625443691514601330e-01 2.696639072356800115e-01
1.046153846153846212e+00 -5.153947414996257192e-02 9.260894053954863425e-01 3.737552312547244848e-01
1.115897435897436063e+00 -1.305823335341563252e-01 8.733658509208461762e-01 4.692247341166397856e-01
1.185641025641025914e+00 -2.057866651532000435e-01 8.057577692460774488e-01 5.553363154318654571e-01
1.255384615384615543e+00 -2.739391064199916404e-01 7.251743118386165809e-01 6.317217971059626569e-01
1.325128205128205394e+00 -3.321538008195139557e-01 6.340026738824325880e-01 6.983609540278810091e-01
1.394871794871795023e+00 -3.780373215167712186e-01 5.350551767371722889e-01 7.555117342813842951e-01
1.464615384615384874e+00 -4.097850069283126562e-01 4.314468967384765818e-01 8.036944390078896161e-01
1.534358974358974503e+00 -4.262872857746730082e-01 3.265048672594906276e-01 8.436049064146727838e-01
1.604102564102564354e+00 -4.271638846850355775e-01 2.235901303705510601e-01 8.760904951599327584e-01
1.673846153846154206e+00 -4.127960832046357886e-01 1.259915237031362656e-01 9.020654625951953776e-01
1.743589743589743835e+00 -3.842969950501485821e-01 3.674259129744525398e-02 9.224764376419457568e-01
1.813333333333333686e+00 -3.434367955892757007e-01 -4.150198184970704807e-02 9.382569445737887204e-01
1.883076923076923315e+00 -2.925589142157893896e-01 -1.066168600204743383e-01 9.502840439879809420e-01
1.952820512820513166e+00 -2.344435015442245529e-01 -1.570750639250684810e-01 9.593547628461442933e-01
2.022564102564103017e+00 -1.721500772161179138e-01 -1.920570728253056803e-01 9.661658834929279793e-01
2.092307692307692424e+00 -1.088535160707206906e-01 -2.114592895566896613e-01 9.713053761912461281e-01
2.162051282051282275e+00 -4.765632553853640929e-02 -2.159132599955147502e-01 9.752480312296251119e-01
2.231794871794872126e+00 8.558076834508286657e-03 -2.067239256007059878e-01 9.783611152250283327e-01
2.301538461538461977e+00 5.729910170258656343e-02 -1.857970480812283498e-01 9.809153162221330158e-01
2.371282051282051828e+00 9.660885530667423504e-02 -1.555143965171950915e-01 9.830974859584373782e-01
2.441025641025641235e+00 1.251245869682031941e-01 -1.186063605106977698e-01 9.850254411221308626e-01
2.510769230769231086e+00 1.421697824903675744e-01 -7.797800053101201778e-02 9.867654298297372506e-01
2.580512820512820937e+00 1.477707243596653730e-01 -3.654515300429989066e-02 9.883456716171905576e-01
2.650256410256410788e+00 1.426085752667931028e-01 2.949026301646534565e-03 9.897742539525746786e-01
2.720000000000000195e+00 1.279787477986314148e-01 3.806531116367220524e-02 9.910456644466530962e-01
