0.000000000000000000e+00 1.470777062945543318e-09 -2.646552028047980594e-09 -1.000000000000000000e+00
6.974358974358975394e-02 9.310633457221109688e-02 8.762422842799424960e-02 -9.917918102724250229e-01
1.394871794871795079e-01 1.848119733693938116e-01 1.733202147842778373e-01 -9.673676445110976907e-01
2.092307692307692757e-01 2.737822989254072303e-01 2.551650947679085513e-01 -9.273225468874887190e-01
2.789743589743590158e-01 3.587569512159143881e-01 3.313700241735944019e-01 -8.726270009050097753e-01
3.487179487179487558e-01 4.386002741910821068e-01 4.003031668203996807e-01 -8.045962431806373827e-01
4.184615384615385514e-01 5.123322101221490232e-01 4.605400522639273575e-01 -7.248475611266834706e-01
4.882051282051282914e-01 5.791592162384412434e-01 5.108965794854241071e-01 -6.352498390473472201e-01
5.579487179487180315e-01 6.384956135288342161e-01 5.504602130315058295e-01 -5.378641808848475536e-01
6.276923076923077716e-01 6.899709656166709282e-01 5.786148661596106635e-01 -4.348840080724331036e-01
6.974358974358975116e-01 7.334420970294198705e-01 5.950539168612796193e-01 -3.285594450220845619e-01
7.671794871794872517e-01 7.689839410812564502e-01 5.997816818589523091e-01 -2.211388875763472261e-01
8.369230769230771028e-01 7.968821900040627959e-01 5.931080788016894756e-01 -1.147943980103999922e-01
9.066666666666668428e-01 8.176111666849591453e-01 5.756337314068816768e-01 -1.156446559279534006e-02
9.764102564102565829e-01 8.318104926895287798e-01 5.482238496662471539e-01 8.670632877445179354e-02
1.046153846153846212e+00 8.402519742456633356e-01 5.119784876316869626e-01 1.784128126919991841e-01
1.115897435897436063e+00 8.438058624486166615e-01 4.681928943010059685e-01 2.622292642382243466e-01
1.185641025641025914e+00 8.434019247889045223e-01 4.183115903900751498e-01 3.371446047219002207e-01
1.255384615384615543e+00 8.399925767164245771e-01 3.638822399722648759e-01 4.024684970543344065e-01
1.325128205128205394e+00 8.345106450966949252e-01 3.065041038002656593e-01 4.578501520049091944e-01
1.394871794871795023e+00 8.278367344691888174e-01 2.477811053537427033e-01 5.032605532732559173e-01
1.464615384615384874e+00 8.207627382431139651e-01 1.892625082347529353e-01 5.389890702326328720e-01
1.534358974358974503e+00 8.139699884624992388e-01 1.324093397447871356e-01 5.655989260769864746e-01
1.604102564102564354e+00 8.079985563990265129e-01 7.854076158247569328e-02 5.839105978641784267e-01
1.673846153846154206e+00 8.032403340937936953e-01 2.880234857892444156e-02 5.949433000520348847e-01
1.743589743589743835e+00 7.999245758280009166e-01 -1.586594004499308763e-02 5.998759877255516182e-01
1.813333333333333686e+00 7.981221387975607762e-01 -5.475211943958158134e-02 5.999879275518963384e-01
1.883076923076923315e+00 7.977475634402504401e-01 -8.738285436351050928e-02 5.966114711126843106e-01
1.952820512820513166e+00 7.985756515768949182e-01 -1.135332304331144737e-01 5.910746124794833412e-01
2.022564102564103017e+00 8.002605543787947306e-01 -1.332257901294261471e-01 5.846501996050700312e-01
2.092307692307692424e+00 8.023583768187457776e-01 -1.467100541501212829e-01 5.785144656329582746e-01
2.162051282051282275e+00 8.043591766465788551e-01 -1.544522328207152406e-01 5.737007103041499301e-01
2.231794871794872126e+00 8.057157098382030647e-01 -1.571048592383360587e-01 5.710708320456554521e-01
2.301538461538461977e+00 8.058780356503102427e-01 -1.554769477884672679e-01 5.712872767242018757e-01
2.371282051282051828e+00 8.043193800867426413e-01 -1.504949663121236125e-01 5.748072011851567131e-01
2.441025641025641235e+00 8.005774831715986029e-01 -1.431655333913423034e-01 5.818601027979335427e-01
2.510769230769231086e+00 7.942695427816530707e-01 -1.345305065126299882e-01 5.924690109863378629e-01
2.580512820512820937e+00 7.851219711853554273e-01 -1.256300732747727689e-01 6.064511363771993846e-01
2.650256410256410788e+00 7.729873145748354935e-01 -1.174584330526332043e-01 6.234395897302243972e-01
2.720000000000000195e+00 7.578508329510259545e-01 -1.109289385018134011e-01 6.429153460440071299e-01
