0.000000000000000000e+00 2.662697585041334849e-09 -1.394916746333449738e-10 -1.000000000000000000e+00
6.974358974358975394e-02 5.162091010458400714e-02 -1.593944518171222513e-02 -9.985389893761694724e-01
1.394871794871795079e-01 1.028247429256757411e-01 -3.189466016568879431e-02 -9.941869448547785426e-01
2.092307692307692757e-01 1.531669206039521502e-01 -4.792706276591301995e-02 -9.870358331039490452e-01
2.789743589743590158e-01 2.022425792019448831e-01 -6.406367859814290910e-02 -9.772356795164647281e-01
3.487179487179487558e-01 2.496766394188219551e-01 -8.032052501065671535e-02 -9.649895881137476872e-01
4.184615384615385514e-01 2.951312234043471650e-01 -9.669439214064504129e-02 -9.505479427956469163e-01
4.882051282051282914e-01 3.383155396047067276e-01 -1.131655096983004011e-01 -9.341995077812642601e-01
5.579487179487180315e-01 3.789909679943914145e-01 -1.296936958833795894e-01 -9.162624536640537887e-01
6.276923076923077716e-01 4.169723639002252957e-01 -1.462141184247528758e-01 -8.970763231164724516e-01
6.974358974358975116e-01 4.521374629834478687e-01 -1.626455160824306634e-01 -8.769877947678530461e-01
7.671794871794872517e-01 4.844214027466077765e-01 -1.788843674477960111e-01 -8.563438341930947884e-01
8.369230769230771028e-01 5.138214371169131933e-01 -1.948103485721103534e-01 -8.354783177119101678e-01
9.066666666666668428e-01 5.403911819741922251e-01 -2.102882072395795277e-01 -8.147042046173359475e-01
9.764102564102565829e-01 5.642383978676461798e-01 -2.251745559578388067e-01 -7.943030571902216508e-01
1.046153846153846212e+00 5.855198053965404714e-01 -2.393183150958685113e-01 -7.745182097342588889e-01
1.115897435897436063e+00 6.044325717933092257e-01 -2.525731912792218425e-01 -7.555478342333518116e-01
1.185641025641025914e+00 6.212107547855968415e-01 -2.647927038521493692e-01 -7.375404276297525819e-01
1.255384615384615543e+00 6.361131361271972207e-01 -2.758467509867683076e-01 -7.205913881593094539e-01
1.325128205128205394e+00 6.494148174532379247e-01 -2.856200607905555744e-01 -7.047441870674145958e-01
1.394871794871795023e+00 6.614008005453573258e-01 -2.940211983376428417e-01 -6.899875757146004540e-01
1.464615384615384874e+00 6.723540121968055727e-01 -3.009854940097753673e-01 -6.762615902262165690e-01
1.534358974358974503e+00 6.825467443123742761e-01 -3.064774499041796330e-01 -6.634629356044708937e-01
1.604102564102564354e+00 6.922356396574012027e-01 -3.104990118937266952e-01 -6.514456175133830351e-01
1.673846153846154206e+00 7.016511883943795658e-01 -3.130849026201576457e-01 -6.400346470464673976e-01
1.743589743589743835e+00 7.109916576644874642e-01 -3.143074010536868745e-01 -6.290328448229066671e-01
1.813333333333333686e+00 7.204212777034721960e-01 -3.142742516575295908e-01 -6.182274577295457929e-01
1.883076923076923315e+00 7.300635501411295580e-01 -3.131295378341769076e-01 -6.074019562347190426e-01
1.952820512820513166e+00 7.400017862138164038e-01 -3.110427947181562125e-01 -5.963467846712635634e-01
2.022564102564103017e+00 7.502748745875427172e-01 -3.082142506724129261e-01 -5.848684102147313491e-01
2.092307692307692424e+00 7.608830677631543971e-01 -3.048649232731661107e-01 -5.727944782407713431e-01
2.162051282051282275e+00 7.717867776641900157e-01 -3.012271389462267690e-01 -5.599877302900487797e-01
2.231794871794872126e+00 7.829128285216656602e-01 -2.975442668514384770e-01 -5.463455662849191485e-01
2.301538461538461977e+00 7.941563366070861774e-01 -2.940580110454110163e-01 -5.318118494947835506e-01
2.371282051282051828e+00 8.053894160751252640e-01 -2.910024153574103933e-01 -5.163752528510474615e-01
2.441025641025641235e+00 8.164659140330926546e-01 -2.885978339784202040e-01 -5.000722790149558783e-01
2.510769230769231086e+00 8.272301576844518500e-01 -2.870394235603524469e-01 -4.829864166544795001e-01
2.580512820512820937e+00 8.375215483127094185e-01 -2.864962326367167522e-01 -4.652466753576162128e-01
2.650256410256410788e+00 8.471842962685267597e-01 -2.870986097068778942e-01 -4.470231850538154417e-01
2.720000000000000195e+00 8.560716636817962133e-01 -2.889404778153778497e-01 -4.285218268648166573e-01
