0.000000000000000000e+00 -2.196554085726536026e-09 1.924574335501840220e-10 -1.000000000000000000e+00
6.974358974358975394e-02 -7.055484937481186491e-02 1.458924914827336786e-02 -9.974008608371981444e-01
1.394871794871795079e-01 -1.408484431508132129e-01 2.783587809845955441e-02 -9.896390910319781131e-01
2.092307692307692757e-01 -2.105737307785323364e-01 3.845109094736318817e-02 -9.768204424687013665e-01
2.789743589743590158e-01 -2.793726455938874143e-01 4.518243948328026782e-02 -9.591176767695299699e-01
3.487179487179487558e-01 -3.467998292888554990e-01 4.685960728592201974e-02 -9.367660119333550695e-01
4.184615384615385514e-01 -4.123042142123616305e-01 4.242009386179329544e-02 -9.100557759161956861e-01
4.882051282051282914e-01 -4.752069812708299978e-01 3.093211227952899489e-02 -8.793273034098306740e-01
5.579487179487180315e-01 -5.347005709175873811e-01 1.164591705691153667e-02 -8.449579335417739534e-01
6.276923076923077716e-01 -5.898425766248389657e-01 -1.601086932171486010e-02 -8.073554795291250086e-01
6.974358974358975116e-01 -6.395649275925934241e-01 -5.236265645075521835e-02 -7.669469123896814899e-01
7.671794871794872517e-01 -6.826917413030291204e-01 -9.749362950638024161e-02 -7.241678094852329606e-01
8.369230769230771028e-01 -7.179596660199271119e-01 -1.511973205267681530e-01 -6.794590889831024771e-01
9.066666666666668428e-01 -7.440672461891058020e-01 -2.129711081264423767e-01 -6.332440037201049199e-01
9.764102564102565829e-01 -7.597034850726935851e-01 -2.819819575768649500e-01 -5.859410948244138106e-01
1.046153846153846212e+00 -7.636140441048723249e-01 -3.570848865430207297e-01 -5.379345804706207046e-01
1.115897435897436063e+00 -7.546552886908298730e-01 -4.367993179963048922e-01 -4.895823255288434539e-01
1.185641025641025914e+00 -7.318474427071836041e-01 -5.193387133460132254e-01 -4.412202617579997765e-01
1.255384615384615543e+00 -6.944615225541153070e-01 -6.026257151014300373e-01 -3.931331944494502184e-01
1.325128205128205394e+00 -6.420643363911472390e-01 -6.843330798380056201e-01 -3.455858648150437196e-01
1.394871794871795023e+00 -5.745914919158374712e-01 -7.619437661523692507e-01 -2.987875358662387404e-01
1.464615384615384874e+00 -4.923942794373149523e-01 -8.328024744813780078e-01 -2.529334751158242023e-01
1.534358974358974503e+00 -3.962843424247866064e-01 -8.942109909662234735e-01 -2.081649967778653187e-01
1.604102564102564354e+00 -2.875705855075819106e-01 -9.435012768932881100e-01 -1.646074812105314256e-01
1.673846153846154206e+00 -1.680617849898685123e-01 -9.781492426643724203e-01 -1.223366592017630788e-01
1.743589743589743835e+00 -4.006837897375309376e-02 -9.958657900753579151e-01 -8.144185502060226345e-02
1.813333333333333686e+00 9.362747503637935953e-02 -9.947165671552298249e-01 -4.194897981534716214e-02
1.883076923076923315e+00 2.298222112011955587e-01 -9.732181195677611640e-01 -3.886612543067083717e-03
1.952820512820513166e+00 3.649694001372231211e-01 -9.304365362080647683e-01 3.274251460023937937e-02
2.022564102564103017e+00 4.952622600943915598e-01 -8.660758913520058000e-01 6.793204880005229707e-02
2.092307692307692424e+00 6.167603267731116556e-01 -7.805461043644275065e-01 1.016928551564512256e-01
2.162051282051282275e+00 7.255297484338936176e-01 -6.749968165190801672e-01 1.340631381412375756e-01
2.231794871794872126e+00 8.177700022203724384e-01 -5.513567478878161898e-01 1.650606696176395161e-01
2.301538461538461977e+00 8.899828886820396745e-01 -4.123067792842949886e-01 1.947326630888836507e-01
2.371282051282051828e+00 9.391281459537669241e-01 -2.612440645097500735e-01 2.231080881978086405e-01
2.441025641025641235e+00 9.627705860809488980e-01 -1.022055219171110196e-01 2.502284704891572509e-01
2.510769230769231086e+00 9.592203411637435506e-01 6.024727125600276567e-02 2.761416011899766043e-01
2.580512820512820937e+00 9.276515324922688377e-01 2.211687975557662389e-01 3.008897693860917433e-01
2.650256410256410788e+00 8.681918359207796421e-01 3.753815807132798166e-01 3.245295899415615026e-01
2.720000000000000195e+00 7.819825887727368530e-01 5.177020011629674956e-01 3.470963095502433426e-01
