0.000000000000000000e+00 2.504552909596854439e-09 5.538707199309347338e-12 -1.000000000000000000e+00
6.974358974358975394e-02 -2.283794911872386035e-02 3.116631278527663348e-02 -9.992528989672914141e-01
1.394871794871795079e-01 -4.603466044707072574e-02 6.186637787608192246e-02 -9.970215479568902417e-01
2.092307692307692757e-01 -6.988045489338903793e-02 9.164653998458588413e-02 -9.933355819147592358e-01
2.789743589743590158e-01 -9.466910060368714797e-02 1.200420364852999439e-01 -9.882433662559212406e-01
3.487179487179487558e-01 -1.206576380186891728e-01 1.465845096215150356e-01 -9.818102264068100382e-01
4.184615384615385514e-01 -1.480554313418822043e-01 1.708004954065033831e-01 -9.741163677673900789e-01
4.882051282051282914e-01 -1.770066366136562874e-01 1.922138008592337854e-01 -9.652552667259026720e-01
5.579487179487180315e-01 -2.075925923790413741e-01 2.103469087567375606e-01 -9.553292782739096767e-01
6.276923076923077716e-01 -2.398116829742974465e-01 2.247258420772862975e-01 -9.444482576705049981e-01
6.974358974358975116e-01 -2.735815186496611262e-01 2.348850848099192090e-01 -9.327246775944247892e-01
7.671794871794872517e-01 -3.087218517964988029e-01 2.403817018852429377e-01 -9.202716796914967023e-01
8.369230769230771028e-01 -3.449606451237957616e-01 2.407940496513739370e-01 -9.072002031009248624e-01
9.066666666666668428e-01 -3.819296469022802065e-01 2.357397027058677208e-01 -8.936149631300075447e-01
9.764102564102565829e-01 -4.191599069877158801e-01 2.248851530998419723e-01 -8.796147934273526037e-01
1.046153846153846212e+00 -4.560934828714343636e-01 2.079634441329934469e-01 -8.652860031190614531e-01
1.115897435897436063e+00 -4.920790303689825951e-01 1.847799988336070731e-01 -8.507078882886429660e-01
1.185641025641025914e+00 -5.263911385360198203e-01 1.552306481894887291e-01 -8.359453139026108426e-01
1.255384615384615543e+00 -5.582332687698110529e-01 1.193232124398523608e-01 -8.210516255941417985e-01
1.325128205128205394e+00 -5.867560627112711202e-01 7.717630175320892849e-02 -8.060699615965862819e-01
1.394871794871795023e+00 -6.110762749178195730e-01 2.904033172893155657e-02 -7.910306918555892741e-01
1.464615384615384874e+00 -6.302933657015651336e-01 -2.469644747537505514e-02 -7.759554925032321471e-01
1.534358974358974503e+00 -6.435100562425839499e-01 -8.349270891613699841e-02 -7.608612767277135314e-01
1.604102564102564354e+00 -6.498665738365597688e-01 -1.466689319031986294e-01 -7.457528351344623330e-01
1.673846153846154206e+00 -6.485573591288326112e-01 -2.133791670408355934e-01 -7.306352287102770848e-01
1.743589743589743835e+00 -6.388576251448661036e-01 -2.826465782034133234e-01 -7.155114075468597123e-01
1.813333333333333686e+00 -6.201588749644220133e-01 -3.533432826160148310e-01 -7.003825964577952146e-01
1.883076923076923315e+00 -5.919869729737247122e-01 -4.242154328537740549e-01 -6.852565656995396326e-01
1.952820512820513166e+00 -5.540362446038942235e-01 -4.939080359918652241e-01 -6.701359202457092268e-01
2.022564102564103017e+00 -5.061847282928628733e-01 -5.609696202332832282e-01 -6.550367645565476904e-01
2.092307692307692424e+00 -4.485216938245004115e-01 -6.238930324210691936e-01 -6.399753177426640294e-01
2.162051282051282275e+00 -3.813605128967454960e-01 -6.811372336617385059e-01 -6.249788289989858248e-01
2.231794871794872126e+00 -3.052535489526730927e-01 -7.311714889861457012e-01 -6.100741779537878218e-01
2.301538461538461977e+00 -2.209942560970099001e-01 -7.725055208942785967e-01 -5.952968773591449381e-01
2.371282051282051828e+00 -1.296264313665235202e-01 -8.037299719566638467e-01 -5.806861519458441645e-01
2.441025641025641235e+00 -3.242998365538662942e-02 -8.235593459538746997e-01 -5.662855564817086407e-01
2.510769230769231086e+00 6.908661619741941762e-02 -8.308770571911919811e-01 -5.521331871547485726e-01
2.580512820512820937e+00 1.732079863172180101e-01 -8.247654410360801824e-01 -5.382763140139132929e-01
2.650256410256410788e+00 2.780457379153820074e-01 -8.045545060974161888e-01 -5.247501655135846654e-01
2.720000000000000195e+00 3.815544317185490253e-01 -7.698511763331669089e-01 -5.115909149868500538e-01
