0.000000000000000000e+00 1.438770335734212676e-09 2.212323535433900689e-09 -1.000000000000000000e+00
6.974358974358975394e-02 -3.813612661545325022e-02 3.829480585711531049e-02 -9.985380850424481203e-01
1.394871794871795079e-01 -7.665874344326936707e-02 7.577675596980318340e-02 -9.941728769505231433e-01
2.092307692307692757e-01 -1.158957120957734288e-01 1.116538609117940367e-01 -9.869646379975132167e-01
2.789743589743590158e-01 -1.561448774745418100e-01 1.451282800618752811e-01 -9.770124590199001924e-01
3.487179487179487558e-01 -1.976452970466689718e-01 1.754094814217578846e-01 -9.644500029343485714e-01
4.184615384615385514e-01 -2.405466655570129286e-01 2.017199652334307203e-01 -9.494427117941646177e-01
4.882051282051282914e-01 -2.848997325284444160e-01 2.232992937519435450e-01 -9.321822917292342803e-01
5.579487179487180315e-01 -3.306366533560429755e-01 2.394183038231867955e-01 -9.128809735420085891e-01
6.276923076923077716e-01 -3.775595755529690956e-01 2.493844572163554651e-01 -8.917671846659885881e-01
6.974358974358975116e-01 -4.253373303506232661e-01 2.525610822474134709e-01 -8.690757999414208124e-01
7.671794871794872517e-01 -4.734916392661986384e-01 2.483776096447055937e-01 -8.450474060425761103e-01
8.369230769230771028e-01 -5.214055892692766037e-01 2.363548202675340715e-01 -8.199162577646870176e-01
9.066666666666668428e-01 -5.683176582599444027e-01 2.161220309558706254e-01 -7.939115768350948343e-01
9.764102564102565829e-01 -6.133434411028393374e-01 1.874337148329996428e-01 -7.672463430032078202e-01
1.046153846153846212e+00 -6.554799476984243256e-01 1.501913330857804763e-01 -7.401191717835358119e-01
1.115897435897436063e+00 -6.936267295214276762e-01 1.044711068817241184e-01 -7.127095159839216265e-01
1.185641025641025914e+00 -7.266152400638112852e-01 5.053564301042223761e-02 -6.851736416967539878e-01
1.255384615384615543e+00 -7.532390483190006814e-01 -1.115343497687187879e-02 -6.576414824907069745e-01
1.325128205128205394e+00 -7.722732706125784441e-01 -7.991337334175263596e-02 -6.302325774662423941e-01
1.394871794871795023e+00 -7.825354265299441225e-01 -1.548429072504286519e-01 -6.030312551601241244e-01
1.464615384615384874e+00 -7.829055887279670056e-01 -2.348100089159905202e-01 -5.761139961904272466e-01
1.534358974358974503e+00 -7.723851098012345373e-01 -3.184726972572506920e-01 -5.495272021507130455e-01
1.604102564102564354e+00 -7.501287472736301032e-01 -4.042668946648884098e-01 -5.233148880082681975e-01
1.673846153846154206e+00 -7.154920531321258270e-01 -4.904587160238597088e-01 -4.974980030889162297e-01
1.743589743589743835e+00 -6.680738829936729850e-01 -5.751328409974763023e-01 -4.721038809203784159e-01
1.813333333333333686e+00 -6.077538786462766129e-01 -6.562698270358834352e-01 -4.471323118470417191e-01
1.883076923076923315e+00 -5.347188976685908202e-01 -7.317535635637283375e-01 -4.226041779017307709e-01
1.952820512820513166e+00 -4.494999019967867993e-01 -7.994470586212880647e-01 -3.985169888761911361e-01
2.022564102564103017e+00 -3.529750964097141952e-01 -8.572327348402959402e-01 -3.748892504736855980e-01
2.092307692307692424e+00 -2.463904535727075573e-01 -9.030848940722149276e-01 -3.517250501702327559e-01
2.162051282051282275e+00 -1.313480255361795523e-01 -9.351254464795264454e-01 -3.290424349244482349e-01
2.231794871794872126e+00 -9.795401040743528798e-03 -9.516965291713123110e-01 -3.068523514294193011e-01
2.301538461538461977e+00 1.160042504284841403e-01 -9.514168026886558049e-01 -2.851833432323536699e-01
2.371282051282051828e+00 2.435105652754932237e-01 -9.332540147496130034e-01 -2.640450405511358678e-01
2.441025641025641235e+00 3.699542399077800914e-01 -8.965689601220698801e-01 -2.434708923206001241e-01
2.510769230769231086e+00 4.924085084262297407e-01 -8.411741259711587038e-01 -2.234724929099984048e-01
2.580512820512820937e+00 6.078531892898741962e-01 -7.673685395323676106e-01 -2.040584471114313958e-01
2.650256410256410788e+00 7.132650353388803044e-01 -6.759523078766072057e-01 -1.852598292554833714e-01
2.720000000000000195e+00 8.056974300809828238e-01 -5.682599546699207416e-01 -1.670685586772779896e-01
