0.000000000000000000e+00 -2.458114426298297265e-09 1.611964934909007492e-09 -1.000000000000000000e+00
6.974358974358975394e-02 9.357693779175572935e-02 5.929495920846179768e-02 -9.938436827295259457e-01
1.394871794871795079e-01 1.860904400352199339e-01 1.171548460717963536e-01 -9.755207235905235530e-01
2.092307692307692757e-01 2.765193258230002615e-01 1.721230373221491194e-01 -9.454649418841281072e-01
2.789743589743590158e-01 3.638855165420967208e-01 2.228560307258954376e-01 -9.043855835197098791e-01
3.487179487179487558e-01 4.472874193251359376e-01 2.681292786642420767e-01 -8.532460952638382112e-01
4.184615384615385514e-01 5.259191803653113784e-01 3.068715020068260024e-01 -7.932368127050207773e-01
4.882051282051282914e-01 5.990907077981967310e-01 3.381943700928495833e-01 -7.257397784264605356e-01
5.579487179487180315e-01 6.662409557351088862e-01 3.614150621279568765e-01 -6.522907534510380412e-01
6.276923076923077716e-01 7.269512948052311296e-01 3.760746481693479359e-01 -5.745334838336005889e-01
6.974358974358975116e-01 7.809498971815972412e-01 3.819521603020700207e-01 -4.941731354396750597e-01
7.671794871794872517e-01 8.281166826743838749e-01 3.790625714692018589e-01 -4.129287136898830424e-01
8.369230769230771028e-01 8.684780220595427203e-01 3.676588489715315600e-01 -3.324868511275011485e-01
9.066666666666668428e-01 9.022033653924096397e-01 3.482214382041978196e-01 -2.544496704122031216e-01
9.764102564102565829e-01 9.295932461118078249e-01 3.214383618267341314e-01 -1.802966028529697506e-01
1.046153846153846212e+00 9.510647553351899708e-01 2.881856113454656088e-01 -1.113444710482487526e-01
1.115897435897436063e+00 9.671354979202321234e-01 2.494964621741745381e-01 -4.871300917440419403e-02
1.185641025641025914e+00 9.784029298037599798e-01 2.065313648568437022e-01 6.706148294730718447e-03
1.255384615384615543e+00 9.855224716098255344e-01 1.605415698838115190e-01 5.426221365960134241e-02
1.325128205128205394e+00 9.891857102993044659e-01 1.128271927582615297e-01 9.356437985353516229e-02
1.394871794871795023e+00 9.900963139724966444e-01 6.470229040371355822e-02 1.244816236949544686e-01
1.464615384615384874e+00 9.889478372524149741e-01 1.745225333852001848e-02 1.471410337368808108e-01
1.534358974358974503e+00 9.864018045405175128e-01 -2.770058259324359451e-02 1.619170601471205118e-01
1.604102564102564354e+00 9.830680590408147346e-01 -6.964001012464715590e-02 1.694121776187092199e-01
1.673846153846154206e+00 9.794886035418182146e-01 -1.073800421568514296e-01 1.704248642088335985e-01
1.743589743589743835e+00 9.761215805534804169e-01 -1.400962313315800012e-01 1.659298327910440074e-01
1.813333333333333686e+00 9.733323663902028189e-01 -1.671480223340790494e-01 1.570305426611345589e-01
1.883076923076923315e+00 9.713851333815300970e-01 -1.880942242901776362e-01 1.449288271709030795e-01
1.952820512820513166e+00 9.704412545906607734e-01 -2.027054219696929893e-01 1.308704936948633102e-01
2.022564102564103017e+00 9.705588613383223651e-01 -2.109611722259265298e-01 1.161189607258139578e-01
2.092307692307692424e+00 9.716982267943242713e-01 -2.130541771980087318e-01 1.018977224578938023e-01
2.162051282051282275e+00 9.737303253586101492e-01 -2.093729436383514608e-01 8.935799730516419404e-02
2.231794871794872126e+00 9.764468924290545804e-01 -2.004921764988046307e-01 7.954212466398773163e-02
2.301538461538461977e+00 9.795760835289698543e-01 -1.871461100923690335e-01 7.334580847623395350e-02
2.371282051282051828e+00 9.827975916988613836e-01 -1.702052262094625457e-01 7.149578215808513604e-02
2.441025641025641235e+00 9.857617237361248064e-01 -1.506393722506733646e-01 7.452640101516509741e-02
2.510769230769231086e+00 9.881060371784745611e-01 -1.294944781397760480e-01 8.276620742399683206e-02
2.580512820512820937e+00 9.894758293562077034e-01 -1.078481481103221173e-01 9.632762526598256936e-02
2.650256410256410788e+00 9.895412199666455688e-01 -8.677622743835383679e-02 1.151120647002143171e-01
2.720000000000000195e+00 9.880137599215216282e-01 -6.731959733203524143e-02 1.388154469624835186e-01
