0.000000000000000000e+00 1.381770739653105540e-09 3.871201113341022006e-09 -1.000000000000000000e+00
6.974358974358975394e-02 -4.477419887775641039e-02 -3.029085780591164040e-02 -9.985375651720852508e-01
1.394871794871795079e-01 -8.886189087760799910e-02 -6.117539442113404530e-02 -9.941630825605194399e-01
2.092307692307692757e-01 -1.315740139951133703e-01 -9.319392373567091103e-02 -9.869153067845722882e-01
2.789743589743590158e-01 -1.722008274622672808e-01 -1.268591585367104257e-01 -9.768581372567882726e-01
3.487179487179487558e-01 -2.100159325928873388e-01 -1.626141669785519384e-01 -9.640786594125810849e-01
4.184615384615385514e-01 -2.442670252492470384e-01 -2.008140714009264416e-01 -9.486856981552318491e-01
4.882051282051282914e-01 -2.741777580302782180e-01 -2.417017489350314352e-01 -9.308080150914026518e-01
5.579487179487180315e-01 -2.989542618534287710e-01 -2.853877417531098803e-01 -9.105912504598996371e-01
6.276923076923077716e-01 -3.177907527193226667e-01 -3.318359210378614144e-01 -8.881946129824855873e-01
6.974358974358975116e-01 -3.298814386398228882e-01 -3.808368659709281401e-01 -8.637920757292291141e-01
7.671794871794872517e-01 -3.344445787585513807e-01 -4.320073971518365585e-01 -8.375626192116334412e-01
8.369230769230771028e-01 -3.307418682373433616e-01 -4.847734292685959567e-01 -8.096905398306453172e-01
9.066666666666668428e-01 -3.181036150206586477e-01 -5.383625049977452948e-01 -7.803650805753472586e-01
9.764102564102565829e-01 -2.959646787124475265e-01 -5.918052166758650534e-01 -7.497765023363907044e-01
1.046153846153846212e+00 -2.639023396620903128e-01 -6.439498809553420022e-01 -7.181064865319225499e-01
1.115897435897436063e+00 -2.216619047093257300e-01 -6.934647124718166245e-01 -6.855400057813260117e-01
1.185641025641025914e+00 -1.691949274002636228e-01 -7.388738346046722638e-01 -6.522503800157012366e-01
1.255384615384615543e+00 -1.067183777628394059e-01 -7.785765194661227184e-01 -6.184022718275591357e-01
1.325128205128205394e+00 -3.471654715487895726e-02 -8.108940964746588209e-01 -5.841547126137048851e-01
1.394871794871795023e+00 4.601108178381083103e-02 -8.341176506166073645e-01 -5.496558842882780516e-01
1.464615384615384874e+00 1.343389805954727789e-01 -8.465686381529148319e-01 -5.150389769043072219e-01
1.534358974358974503e+00 2.287945502986397650e-01 -8.466598922977135455e-01 -4.804272075913226803e-01
1.604102564102564354e+00 3.275747310212966945e-01 -8.329599350657398427e-01 -4.459400599627772466e-01
1.673846153846154206e+00 4.285308445735086513e-01 -8.042881764389123722e-01 -4.116692932602099009e-01
1.743589743589743835e+00 5.292406970022871526e-01 -7.597554339559798864e-01 -3.777108184905218491e-01
1.813333333333333686e+00 6.270016708389318794e-01 -6.988707177472918142e-01 -3.441480732827776334e-01
1.883076923076923315e+00 7.189391138586540553e-01 -6.215853265582749199e-01 -3.110423554540522884e-01
1.952820512820513166e+00 8.020503049799794226e-01 -5.283583829520224207e-01 -2.784633778357815115e-01
2.022564102564103017e+00 8.733155696372743027e-01 -4.202034054675412578e-01 -2.464504876994169924e-01
2.092307692307692424e+00 9.297934477778226903e-01 -2.987057304197965335e-01 -2.150528281964655675e-01
2.162051282051282275e+00 9.687359504072388106e-01 -1.660470704671174746e-01 -1.843028916419464092e-01
2.231794871794872126e+00 9.877124952450525575e-01 -2.497767940045814150e-02 -1.542357046491114048e-01
2.301538461538461977e+00 9.847335617641589378e-01 1.212320511762624564e-01 -1.248639809791051020e-01
2.371282051282051828e+00 9.583634475781235285e-01 2.688356179734057716e-01 -9.620447154040469295e-02
2.441025641025641235e+00 9.078291264223362633e-01 4.137314585834749869e-01 -6.827074172431646382e-02
2.510769230769231086e+00 8.331219373835699882e-01 5.515518772067331543e-01 -4.106956493941415348e-02
2.580512820512820937e+00 7.350531114479941230e-01 6.778436778386497386e-01 -1.460134705062187017e-02
2.650256410256410788e+00 6.153111998059037635e-01 7.881981622370493046e-01 1.114025685274561660e-02
2.720000000000000195e+00 4.764654902775218859e-01 8.784430369285765039e-01 3.614977971400014367e-02
