0.000000000000000000e+00 -2.396474462105779106e-13 -2.416770620019915873e-13 -1.000000000000000000e+00
6.974358974358975394e-02 -2.471037549174918795e-03 -2.488913969260156660e-03 -9.999938496207384508e-01
1.394871794871795079e-01 -4.911615439323262916e-03 -4.928559477155338570e-03 -9.999757923741480203e-01
2.092307692307692757e-01 -7.290424244645323307e-03 -7.270351897164351040e-03 -9.999469944447413328e-01
2.789743589743590158e-01 -9.576551450894798048e-03 -9.467469681170837675e-03 -9.999093242185230768e-01
3.487179487179487558e-01 -1.173795490144350501e-02 -1.147517106256795531e-02 -9.998652613465456307e-01
4.184615384615385514e-01 -1.374113501422967454e-02 -1.325207337880880340e-02 -9.998177652587884046e-01
4.882051282051282914e-01 -1.555224217203114018e-02 -1.476018700169285519e-02 -9.997701058838451837e-01
5.579487179487180315e-01 -1.713791647155112063e-02 -1.596731897506317374e-02 -9.997256306065558373e-01
6.276923076923077716e-01 -1.846014927901627051e-02 -1.684401046061990981e-02 -9.996877023215757774e-01
6.974358974358975116e-01 -1.948402778075098221e-02 -1.736957867858122603e-02 -9.996592771462297078e-01
7.671794871794872517e-01 -2.017343701329250144e-02 -1.752743120152260026e-02 -9.996428469812005391e-01
8.369230769230771028e-01 -2.048875289460134336e-02 -1.730924826010197398e-02 -9.996402357509877046e-01
9.066666666666668428e-01 -2.039483315074186801e-02 -1.671194778438281348e-02 -9.996523203320432094e-01
9.764102564102565829e-01 -1.985483938889175820e-02 -1.574117120333140551e-02 -9.996789488796509193e-01
1.046153846153846212e+00 -1.883345993947561567e-02 -1.441106820184386711e-02 -9.997187713675785847e-01
1.115897435897436063e+00 -1.729666788760899493e-02 -1.274192080203780109e-02 -9.997692077041809844e-01
1.185641025641025914e+00 -1.521553232146688125e-02 -1.076190841793986386e-02 -9.998263193741283583e-01
1.255384615384615543e+00 -1.256249670132505991e-02 -8.507838206515697110e-03 -9.998848935663271487e-01
1.325128205128205394e+00 -9.314692729372957281e-03 -6.022730045557007396e-03 -9.999384797307517836e-01
1.394871794871795023e+00 -5.454550425686481574e-03 -3.356984862143020092e-03 -9.999794890469192454e-01
1.464615384615384874e+00 -9.704247045376603129e-04 -5.666488336995195762e-04 -9.999993685869371651e-01
1.534358974358974503e+00 4.142162949135290775e-03 2.285720170689535188e-03 -9.999888089281423476e-01
1.604102564102564354e+00 9.880497287488188007e-03 5.131893167150467297e-03 -9.999380177876865394e-01
1.673846153846154206e+00 1.623560364643376885e-02 7.902291026408846120e-03 -9.998369661886532533e-01
1.743589743589743835e+00 2.318511186539893784e-02 1.052081226225741982e-02 -9.996758290188715312e-01
1.813333333333333686e+00 3.070196971305997821e-02 1.291634878947563181e-02 -9.994451245262577777e-01
1.883076923076923315e+00 3.874602910366119896e-02 1.500860392965227587e-02 -9.991363706145057755e-01
1.952820512820513166e+00 4.726923429735756937e-02 1.672581816326767362e-02 -9.987421421086533080e-01
2.022564102564103017e+00 5.621194694856302548e-02 1.799402522125565992e-02 -9.982566964355155115e-01
2.092307692307692424e+00 6.550766967455133594e-02 1.874460318226167307e-02 -9.976759920434614681e-01
2.162051282051282275e+00 7.507824747956418077e-02 1.891515773299310213e-02 -9.969982314810450497e-01
2.231794871794872126e+00 8.483489731184389038e-02 1.845016916120189795e-02 -9.962241872950070576e-01
2.301538461538461977e+00 9.468260947462142640e-02 1.730154331039199245e-02 -9.953571519510575616e-01
2.371282051282051828e+00 1.045200682471656012e-01 1.543026949380171819e-02 -9.944030682777755814e-01
2.441025641025641235e+00 1.142389924869426782e-01 1.281194225785099727e-02 -9.933706793862591145e-01
2.510769230769231086e+00 1.237250297013485489e-01 9.430880579939349140e-03 -9.922717245883050374e-01
2.580512820512820937e+00 1.328612232483728228e-01 5.284259534112191459e-03 -9.911205639021622993e-01
2.650256410256410788e+00 1.415305888815220348e-01 3.898751041771786330e-04 -9.899338059598324913e-01
2.720000000000000195e+00 1.496143761875225742e-01 -5.229054967958453315e-03 -9.887305978724044708e-01
