0.000000000000000000e+00 -3.191968743025764500e-10 4.071032207618001774e-09 -1.000000000000000000e+00
6.974358974358975394e-02 3.122772520302802973e-02 2.271781499305665364e-02 -9.992537201310682793e-01
1.394871794871795079e-01 6.195184936075294468e-02 4.563453373211628916e-02 -9.970346362041662136e-01
2.092307692307692757e-01 9.168946273186279194e-02 6.888398679123243495e-02 -9.934012250325164883e-01
2.789743589743590158e-01 1.199553003800120365e-01 9.260705481855105448e-02 -9.884492713193556712e-01
3.487179487179487558e-01 1.462797488009970337e-01 1.169163753511581472e-01 -9.823082236022450120e-01
4.184615384615385514e-01 1.702058659639933968e-01 1.418845731757971129e-01 -9.751383152050415726e-01
4.882051282051282914e-01 1.913023153539942789e-01 1.675407899237944809e-01 -9.671240234806964819e-01
5.579487179487180315e-01 2.091614782795033767e-01 1.938609999333795186e-01 -9.584696854398964128e-01
6.276923076923077716e-01 2.234058420164322933e-01 2.207646892404657168e-01 -9.493929313397723169e-01
6.974358974358975116e-01 2.336991240827792082e-01 2.481103230626522937e-01 -9.401167897248154937e-01
7.671794871794872517e-01 2.397420701099454987e-01 2.756952071614321431e-01 -9.308646287813470144e-01
8.369230769230771028e-01 2.412862190032621645e-01 3.032563385091883723e-01 -9.218509251938139526e-01
9.066666666666668428e-01 2.381362522113376623e-01 3.304673640180011418e-01 -9.132768348998413499e-01
9.764102564102565829e-01 2.301568716102417866e-01 3.569503848085909814e-01 -9.053209241833310994e-01
1.046153846153846212e+00 2.172757805544783816e-01 3.822746842964438452e-01 -8.981362325881175890e-01
1.115897435897436063e+00 1.994917487589807359e-01 4.059667875719231711e-01 -8.918436513405217925e-01
1.185641025641025914e+00 1.768781902706105524e-01 4.275180351924899869e-01 -8.865287838668953757e-01
1.255384615384615543e+00 1.495848337784351778e-01 4.464011222889972541e-01 -8.822364000955157382e-01
1.325128205128205394e+00 1.178439009393827952e-01 4.620699242554299202e-01 -8.789736653857093129e-01
1.394871794871795023e+00 8.196824273462699484e-02 4.739830165002039686e-01 -8.767050363805596325e-01
1.464615384615384874e+00 4.235124034441348218e-02 4.816148280978810869e-01 -8.753535706877688671e-01
1.534358974358974503e+00 -5.246060319518686121e-04 4.844617013782722137e-01 -8.748067843231932539e-01
1.604102564102564354e+00 -4.610736463698439369e-02 4.820695027586435200e-01 -8.749133892702228854e-01
1.673846153846154206e+00 -9.376248987092219989e-02 4.740312732653311212e-01 -8.754960341898795351e-01
1.743589743589743835e+00 -1.427923138503441602e-01 4.600191524020786349e-01 -8.763464698254819218e-01
1.813333333333333686e+00 -1.924354180561611560e-01 4.397805724910675007e-01 -8.772411846641833266e-01
1.883076923076923315e+00 -2.418811855872227967e-01 4.131568066817480345e-01 -8.779438555730043614e-01
1.952820512820513166e+00 -2.902780131087150384e-01 3.800932556345908431e-01 -8.782131151711164430e-01
2.022564102564103017e+00 -3.367463465679607082e-01 3.406498365747470669e-01 -8.778098042053351646e-01
2.092307692307692424e+00 -3.803947616827418332e-01 2.950014208525241211e-01 -8.765069240113927407e-01
2.162051282051282275e+00 -4.203356914935407196e-01 2.434444821028320938e-01 -8.740955271690930006e-01
2.231794871794872126e+00 -4.556983698818366513e-01 1.863982469883708193e-01 -8.703934896930436427e-01
2.301538461538461977e+00 -4.856488704219664165e-01 1.244112384267839211e-01 -8.652496426562579224e-01
2.371282051282051828e+00 -5.094110057576036743e-01 5.814262187733737486e-02 -8.585508176100694611e-01
2.441025641025641235e+00 -5.262740180746332541e-01 -1.163009873411019468e-02 -8.502292043715414804e-01
2.510769230769231086e+00 -5.356216845989972830e-01 -8.402629756138685346e-02 -8.402606120305402548e-01
2.580512820512820937e+00 -5.369363479355954150e-01 -1.580742055643111765e-01 -8.286738598475459350e-01
2.650256410256410788e+00 -5.298274522910845219e-01 -2.327216047207650851e-01 -8.155436864724865398e-01
2.720000000000000195e+00 -5.140332755007281929e-01 -3.068580409586805224e-01 -8.009964977902074290e-01
