0.000000000000000000e+00 -1.523476536297428001e-09 -3.052762353921464385e-09 -1.000000000000000000e+00
6.974358974358975394e-02 8.243189999851480848e-03 -6.635857434979261157e-03 -9.999438812033523138e-01
1.394871794871795079e-01 1.651806368568410274e-02 -1.322447714708535962e-02 -9.997758762799821008e-01
2.092307692307692757e-01 2.480312337201442258e-02 -1.974684961149075074e-02 -9.994969725800838534e-01
2.789743589743590158e-01 3.310339725171784764e-02 -2.617142655907933255e-02 -9.991087794245971931e-01
3.487179487179487558e-01 4.142312779338441775e-02 -3.246901000608284904e-02 -9.986134502950009262e-01
4.184615384615385514e-01 4.977028949319420303e-02 -3.861182590588790875e-02 -9.980134197977719168e-01
4.882051282051282914e-01 5.815048774528799869e-02 -4.457238079817991971e-02 -9.973115723177864433e-01
5.579487179487180315e-01 6.656963430040355179e-02 -5.032972653084737125e-02 -9.965107926177719788e-01
6.276923076923077716e-01 7.503554475189175288e-02 -5.586243539940807107e-02 -9.956139930121623571e-01
6.974358974358975116e-01 8.355583604509400630e-02 -6.115526734106595252e-02 -9.946237651505361876e-01
7.671794871794872517e-01 9.213642462182476678e-02 -6.619445307516880206e-02 -9.935426330625801716e-01
8.369230769230771028e-01 1.007862862716254193e-01 -7.097077818899896751e-02 -9.923723471062922963e-01
9.066666666666668428e-01 1.095101956443245428e-01 -7.547992930870467410e-02 -9.911143788888679973e-01
9.764102564102565829e-01 1.183147661141210616e-01 -7.972050248433558417e-02 -9.897694097045430794e-01
1.046153846153846212e+00 1.272026499570945990e-01 -8.369350979844081273e-02 -9.883379591188766744e-01
1.115897435897436063e+00 1.361791356803488673e-01 -8.740448655309944470e-02 -9.868194106777484764e-01
1.185641025641025914e+00 1.452439597873856902e-01 -9.086290379001975281e-02 -9.852130667550713650e-01
1.255384615384615543e+00 1.543968496771926380e-01 -9.407920832064109451e-02 -9.835177619036328256e-01
1.325128205128205394e+00 1.636332918246049539e-01 -9.706975946310525405e-02 -9.817320860038222241e-01
1.394871794871795023e+00 1.729501168488458140e-01 -9.984830092239821431e-02 -9.798544088805167807e-01
1.464615384615384874e+00 1.823365952770822918e-01 -1.024334824396735399e-01 -9.778837570055535222e-01
1.534358974358974503e+00 1.917813390249760719e-01 -1.048431098830368835e-01 -9.758194195768395973e-01
1.604102564102564354e+00 2.012710513573252036e-01 -1.070966253133274204e-01 -9.736610186092730101e-01
1.673846153846154206e+00 2.107875018166369963e-01 -1.092122335597827815e-01 -9.714096054417012960e-01
1.743589743589743835e+00 2.203127896448171530e-01 -1.112079317041572424e-01 -9.690666515689349003e-01
1.813333333333333686e+00 2.298243917020553195e-01 -1.130983588938465623e-01 -9.666356157894985257e-01
1.883076923076923315e+00 2.393004144933069122e-01 -1.149001493950789765e-01 -9.641203086526070054e-01
1.952820512820513166e+00 2.487139449746090525e-01 -1.166212499468218117e-01 -9.615276166621070653e-01
2.022564102564103017e+00 2.580421207380501070e-01 -1.182725673211722645e-01 -9.588639962890439516e-01
2.092307692307692424e+00 2.672580590971502246e-01 -1.198590103720082595e-01 -9.561386125783183365e-01
2.162051282051282275e+00 2.763371006414095943e-01 -1.213810905296069664e-01 -9.533615979530515316e-01
2.231794871794872126e+00 2.852559974678109400e-01 -1.228378577846710173e-01 -9.505438330941559100e-01
2.301538461538461977e+00 2.939927634059210648e-01 -1.242224350208654682e-01 -9.476974986943900170e-01
2.371282051282051828e+00 3.025273421370887617e-01 -1.255283068900503174e-01 -9.448349942603433416e-01
2.441025641025641235e+00 3.108452931964130750e-01 -1.267379066916529406e-01 -9.419691256530471346e-01
2.510769230769231086e+00 3.189334264900939853e-01 -1.278397643500164271e-01 -9.391120315033304466e-01
2.580512820512820937e+00 3.267820219615680810e-01 -1.288153413726701169e-01 -9.362760714738967982e-01
2.650256410256410788e+00 3.343895543565378325e-01 -1.296444450522564740e-01 -9.334712279251680123e-01
2.720000000000000195e+00 3.417562278535287712e-01 -1.303066283657152713e-01 -9.307068733643588665e-01
