0.000000000000000000e+00 6.617235356229052541e-10 2.409663414155550486e-09 -1.000000000000000000e+00
6.974358974358975394e-02 -1.439044377379679607e-01 3.244261112660407065e-02 -9.890589708230107524e-01
1.394871794871795079e-01 -2.846241198703179931e-01 6.328794557596706394e-02 -9.565463870846737660e-01
2.092307692307692757e-01 -4.190554083688095566e-01 9.105613845128474049e-02 -9.033809079539102393e-01
2.789743589743590158e-01 -5.442910592803044123e-01 1.144272079668307018e-01 -8.310522156497021085e-01
3.487179487179487558e-01 -6.577010966753717991e-01 1.323290649495477145e-01 -7.415597401298971159e-01
4.184615384615385514e-01 -7.570077420829552928e-01 1.440025524015795533e-01 -6.373332228182702064e-01
4.882051282051282914e-01 -8.403556027083516344e-01 1.490361424103149868e-01 -5.211338318433857975e-01
5.579487179487180315e-01 -9.063589727761485193e-01 1.473886227895635503e-01 -3.959529045356630084e-01
6.276923076923077716e-01 -9.541440539669845400e-01 1.393874699889191549e-01 -2.648927782374130846e-01
6.974358974358975116e-01 -9.833673602072623421e-01 1.257087639733333873e-01 -1.310473043428241058e-01
7.671794871794872517e-01 -9.942132579148983407e-01 1.073338551103974747e-01 2.595439937655893634e-03
8.369230769230771028e-01 -9.873817660160412180e-01 8.548733102354011404e-02 1.332539374112070574e-01
9.066666666666668428e-01 -9.640536516332287587e-01 6.156542516060650727e-02 2.584533748083445159e-01
9.764102564102565829e-01 -9.258386931969555533e-01 3.705256954340617470e-02 3.760829578427163367e-01
1.046153846153846212e+00 -8.747110129693718150e-01 1.343428230601528828e-02 4.844477267456268610e-01
1.115897435897436063e+00 -8.129325929872107670e-01 -7.884939715782801617e-03 5.822961705284078748e-01
1.185641025641025914e+00 -7.429566981985018526e-01 -2.566707071586959987e-02 6.688408191542490888e-01
1.255384615384615543e+00 -6.673531156815661891e-01 -3.890555726176642137e-02 7.437195450413873754e-01
1.325128205128205394e+00 -5.886959195125762712e-01 -4.687905352816976179e-02 8.069901663497088817e-01
1.394871794871795023e+00 -5.094705552776060964e-01 -4.918104125342864785e-02 8.590783867331640566e-01
1.464615384615384874e+00 -4.319990004680217544e-01 -4.574764285554239196e-02 9.007106566576984497e-01
1.534358974358974503e+00 -3.583460598772612027e-01 -3.684835083912602061e-02 9.328594775675977946e-01
1.604102564102564354e+00 -2.902599100283866917e-01 -2.305505123026072023e-02 9.566686469255648584e-01
1.673846153846154206e+00 -2.291157607391109963e-01 -5.208153386549247560e-03 9.733841620816666707e-01
1.743589743589743835e+00 -1.758973807059973082e-01 1.564194008846431228e-02 9.842834085628956453e-01
1.813333333333333686e+00 -1.311634917660530752e-01 3.830829168158982750e-02 9.906196898803072415e-01
1.883076923076923315e+00 -9.506454654293595985e-02 6.153586864576242321e-02 9.935668262544292695e-01
1.952820512820513166e+00 -6.737125493181110591e-02 8.407682437363300787e-02 9.941786668119503290e-01
2.022564102564103017e+00 -4.749764757610624999e-02 1.047758751326068882e-01 9.933604292702821192e-01
2.092307692307692424e+00 -3.457111193822576256e-02 1.226205269240936979e-01 9.918507384605211863e-01
2.162051282051282275e+00 -2.749707909484769980e-02 1.368074199036017347e-01 9.902153163571065786e-01
2.231794871794872126e+00 -2.502524762530509289e-02 1.467807393510652536e-01 9.888517560106732107e-01
2.301538461538461977e+00 -2.584009241629051101e-02 1.522455042211980913e-01 9.880041463492937881e-01
2.371282051282051828e+00 -2.863090494840445088e-02 1.531909206041595639e-01 9.877810455463356121e-01
2.441025641025641235e+00 -3.216363548782784354e-02 1.498629268789517244e-01 9.881827824976660013e-01
2.510769230769231086e+00 -3.534451257737123570e-02 1.427481508588561154e-01 9.891270864572885291e-01
2.580512820512820937e+00 -3.727595791590407326e-02 1.325232495474913674e-01 9.904780877036960529e-01
2.650256410256410788e+00 -3.729392859587403464e-02 1.200099188030627623e-01 9.920713888677281656e-01
2.720000000000000195e+00 -3.497771701430528457e-02 1.061093253827515293e-01 9.937385744649498420e-01
