0.000000000000000000e+00 2.593083659044041916e-09 6.081549486585278446e-10 -1.000000000000000000e+00
6.974358974358975394e-02 -3.288807498154998343e-02 -2.029240540717485233e-02 -9.992527094806957777e-01
1.394871794871795079e-01 -6.536650303768436199e-02 -4.099801586174102452e-02 -9.970181596772019761e-01
2.092307692307692757e-01 -9.702644648515114378e-02 -6.246791655857596159e-02 -9.933186298607461495e-01
2.789743589743590158e-01 -1.274485404405788225e-01 -8.505952597959906547e-02 -9.881899873111942290e-01
3.487179487179487558e-01 -1.561995064559292268e-01 -1.090848110573218455e-01 -9.816818988828097670e-01
4.184615384615385514e-01 -1.828334555326494582e-01 -1.348142425638107211e-01 -9.738550188929936402e-01
4.882051282051282914e-01 -2.068872553547680404e-01 -1.624587234270156166e-01 -9.647801746015933766e-01
5.579487179487180315e-01 -2.278818857624612670e-01 -1.921572573184409660e-01 -9.545369551444854439e-01
6.276923076923077716e-01 -2.453277640664921488e-01 -2.239685079521991640e-01 -9.432110880840171019e-01
6.974358974358975116e-01 -2.587270620773254870e-01 -2.578638356441100288e-01 -9.308924334678176926e-01
7.671794871794872517e-01 -2.675841297101556604e-01 -2.937109220237059115e-01 -9.176743461412559810e-01
8.369230769230771028e-01 -2.714126569002517364e-01 -3.312837250653438703e-01 -9.036477488994193452e-01
9.066666666666668428e-01 -2.697486125427860371e-01 -3.702362114192390141e-01 -8.889056419262784114e-01
9.764102564102565829e-01 -2.621566015226560187e-01 -4.101222740739817740e-01 -8.735361888393485819e-01
1.046153846153846212e+00 -2.482650366308995771e-01 -4.503740578935972461e-01 -8.576240119684220842e-01
1.115897435897436063e+00 -2.277618489294741255e-01 -4.903227807654761405e-01 -8.412483628578567574e-01
1.185641025641025914e+00 -2.004217258432667292e-01 -5.291949471501118385e-01 -8.244840970428898297e-01
1.255384615384615543e+00 -1.661260619591802268e-01 -5.661282431521511560e-01 -8.073974273523494283e-01
1.325128205128205394e+00 -1.248801355580417549e-01 -6.001791244393086533e-01 -7.900500489162847195e-01
1.394871794871795023e+00 -7.682777938848636690e-02 -6.303442848551482625e-01 -7.724973846951820322e-01
1.464615384615384874e+00 -2.226721493721298128e-02 -6.555799870899150505e-01 -7.547894997988692234e-01
1.534358974358974503e+00 3.833332652650767169e-02 -6.748241397435601474e-01 -7.369739648499250562e-01
1.604102564102564354e+00 1.043256730507086116e-01 -6.870342963473875519e-01 -7.190877988330320880e-01
1.673846153846154206e+00 1.748794114735681693e-01 -6.912078469298089667e-01 -7.011673668797328007e-01
1.743589743589743835e+00 2.489804215167429335e-01 -6.864144765510337143e-01 -6.832497869772243826e-01
1.813333333333333686e+00 3.254301148680046052e-01 -6.718421189652297176e-01 -6.653641007510253669e-01
1.883076923076923315e+00 4.028710462666283965e-01 -6.468181648264185180e-01 -6.475390172567715430e-01
1.952820512820513166e+00 4.797743064260853729e-01 -6.108555822776142730e-01 -6.298073573782415613e-01
2.022564102564103017e+00 5.545061309916817782e-01 -5.636770368003978238e-01 -6.121895146398781407e-01
2.092307692307692424e+00 6.253133312739453942e-01 -5.052511202156495518e-01 -5.947176356913815853e-01
2.162051282051282275e+00 6.903978005636530746e-01 -4.358108176857392047e-01 -5.774114648626134105e-01
2.231794871794872126e+00 7.479259745924885516e-01 -3.558843910522563880e-01 -5.603007527288472733e-01
2.301538461538461977e+00 7.961068426911698248e-01 -2.662965313890768293e-01 -5.434000918068011554e-01
2.371282051282051828e+00 8.332145825395913530e-01 -1.681874363243866799e-01 -5.267350128447673141e-01
2.441025641025641235e+00 8.576647028405874895e-01 -6.300020124439560665e-02 -5.103187971564263625e-01
2.510769230769231086e+00 8.680547824118012290e-01 4.753052414585245966e-02 -4.941705886706849737e-01
2.580512820512820937e+00 8.632284901294881019e-01 1.613972882531405917e-01 -4.782991790578641766e-01
2.650256410256410788e+00 8.423245259901590565e-01 2.763567552355976065e-01 -4.627080037392894973e-01
2.720000000000000195e+00 8.048187735700197409e-01 3.899694070953853564e-01 -4.474067467252142993e-01
