0.000000000000000000e+00 1.158879742893078992e-09 -4.429332066886678253e-09 -1.000000000000000000e+00
6.974358974358975394e-02 5.593856811667881346e-02 9.563946826691152592e-02 -9.938425924627457553e-01
1.394871794871795079e-01 1.111822465639208668e-01 1.898207364696601340e-01 -9.755023553331506614e-01
2.092307692307692757e-01 1.650738190306635378e-01 2.811080910335259642e-01 -9.453709219986882184e-01
2.789743589743590158e-01 2.169893512297822458e-01 3.681584209031308896e-01 -9.040859032414017005e-01
3.487179487179487558e-01 2.663662669234123093e-01 4.497506916890072759e-01 -8.525072652253307126e-01
4.184615384615385514e-01 3.127194435141026352e-01 5.248183451434224045e-01 -7.916858938119335498e-01
4.882051282051282914e-01 3.556492764541772100e-01 5.924725528767257332e-01 -7.228299814165597414e-01
5.579487179487180315e-01 3.948553684746795578e-01 6.520209026965799737e-01 -6.472637757560766314e-01
6.276923076923077716e-01 4.301314020103583213e-01 7.029876217725392618e-01 -5.663805709511605668e-01
6.974358974358975116e-01 4.613772428674611792e-01 7.451058999696367202e-01 -4.816005391116646717e-01
7.671794871794872517e-01 4.885832787404587041e-01 7.783172461698930622e-01 -3.943334525613506059e-01
8.369230769230771028e-01 5.118245575978599415e-01 8.027641035338396458e-01 -3.059332643700504173e-01
9.066666666666668428e-01 5.312546469174996844e-01 8.187681748540865945e-01 -2.176615892752936932e-01
9.764102564102565829e-01 5.470867086848246741e-01 8.268097281176349789e-01 -1.306558708022285964e-01
1.046153846153846212e+00 5.595830232774334778e-01 8.274940115295117415e-01 -4.592969760356467590e-02
1.115897435897436063e+00 5.690371083187986123e-01 8.215308071356383079e-01 3.567817426880178638e-02
1.185641025641025914e+00 5.757578902470776860e-01 8.096986538429979952e-01 1.134903312189648600e-01
1.255384615384615543e+00 5.800646219868943465e-01 7.928111151548479230e-01 1.869889089419360106e-01
1.325128205128205394e+00 5.822654867836196679e-01 7.716928023132769709e-01 2.558254312526997976e-01
1.394871794871795023e+00 5.826538564168840528e-01 7.471541077481136384e-01 3.197890521349265325e-01
1.464615384615384874e+00 5.814984554360405067e-01 7.199612464876639084e-01 3.788211834507932418e-01
1.534358974358974503e+00 5.790396216185657030e-01 6.908265547058357603e-01 4.329691412755845015e-01
1.604102564102564354e+00 5.754920394196620936e-01 6.603898456630775682e-01 4.823743499831569248e-01
1.673846153846154206e+00 5.710317708598828812e-01 6.292088002244857758e-01 5.272667398442262288e-01
1.743589743589743835e+00 5.658119371636197714e-01 5.977554350053341237e-01 5.679233161932709661e-01
1.813333333333333686e+00 5.599605074808872152e-01 5.664236437130902857e-01 6.046490168789513397e-01
1.883076923076923315e+00 5.535778478109065759e-01 5.355208771212981445e-01 6.377783746379551699e-01
1.952820512820513166e+00 5.467512149139016620e-01 5.052809692306491351e-01 6.676427802375103360e-01
2.022564102564103017e+00 5.395534078043685566e-01 4.758705442195017565e-01 6.945662612388102675e-01
2.092307692307692424e+00 5.320454205150737526e-01 4.474064319876234763e-01 7.188521619845744670e-01
2.162051282051282275e+00 5.242840981313955373e-01 4.199522341140995985e-01 7.407832828013821702e-01
2.231794871794872126e+00 5.163199157570670383e-01 3.935411634956063609e-01 7.606135195345949951e-01
2.301538461538461977e+00 5.082012127250800093e-01 3.681796329303498316e-01 7.785688065414756442e-01
2.371282051282051828e+00 4.999709359043056356e-01 3.438617645336891071e-01 7.948474617217786697e-01
2.441025641025641235e+00 4.916737663490629573e-01 3.205623857147190670e-01 8.096241302705103893e-01
2.510769230769231086e+00 4.833474771779792123e-01 2.982611058273900717e-01 8.230494018720494465e-01
2.580512820512820937e+00 4.750338136513337917e-01 2.769295184897667683e-01 8.352532054619895563e-01
2.650256410256410788e+00 4.667546168429435594e-01 2.565447838749316811e-01 8.463569529610854847e-01
2.720000000000000195e+00 4.585399851446542163e-01 2.370836354808748825e-01 8.564623722345159340e-01
