0.000000000000000000e+00 3.484081315762106307e-10 -4.102520668369882923e-09 -1.000000000000000000e+00
6.974358974358975394e-02 8.785639946544448325e-03 -5.912246219441253704e-03 -9.999438639656719197e-01
1.394871794871795079e-01 1.758370597700448928e-02 -1.181386274623211739e-02 -9.997754795497907354e-01
2.092307692307692757e-01 2.637920484913802363e-02 -1.771031417727471705e-02 -9.994949426795505243e-01
2.789743589743590158e-01 3.517167502590362593e-02 -2.359925330931264206e-02 -9.991023890064907320e-01
3.487179487179487558e-01 4.396056792502282817e-02 -2.947950004905237203e-02 -9.985979573547322241e-01
4.184615384615385514e-01 5.274323003925446285e-02 -3.534896673031447806e-02 -9.979819405360278450e-01
4.882051282051282914e-01 6.151914309945242382e-02 -4.120308295523186087e-02 -9.972547072563399118e-01
5.579487179487180315e-01 7.028704845898282871e-02 -4.704077725460607817e-02 -9.964166019564467680e-01
6.276923076923077716e-01 7.904642774923897885e-02 -5.285946172169077306e-02 -9.954680237128756826e-01
6.974358974358975116e-01 8.779470959445800915e-02 -5.865773757351496615e-02 -9.944095248946620558e-01
7.671794871794872517e-01 9.653288080123099968e-02 -6.443228673534603934e-02 -9.932415241921839222e-01
8.369230769230771028e-01 1.052575055862436104e-01 -7.018021975532853785e-02 -9.919648851337972140e-01
9.066666666666668428e-01 1.139673947434004103e-01 -7.590234310966692544e-02 -9.905800840233881521e-01
9.764102564102565829e-01 1.226623159220433523e-01 -8.159294044170486981e-02 -9.890880041113934151e-01
1.046153846153846212e+00 1.313407328770758997e-01 -8.725221111094433324e-02 -9.874892858887668323e-01
1.115897435897436063e+00 1.399998485115148961e-01 -9.287683378420211189e-02 -9.857850969478888503e-01
1.185641025641025914e+00 1.486388225875231450e-01 -9.846509891077176446e-02 -9.839762903348560075e-01
1.255384615384615543e+00 1.572542996260222758e-01 -1.040147881045948020e-01 -9.820642126521187398e-01
1.325128205128205394e+00 1.658485016529756273e-01 -1.095244007053675361e-01 -9.800493262780257675e-01
1.394871794871795023e+00 1.744159292243616655e-01 -1.149913526520411761e-01 -9.779335189912199411e-01
1.464615384615384874e+00 1.829578773264159963e-01 -1.204148093524888691e-01 -9.757174162599835388e-01
1.534358974358974503e+00 1.914709354418042964e-01 -1.257921834524191040e-01 -9.734027358615606751e-01
1.604102564102564354e+00 1.999552518448888261e-01 -1.311198059550940653e-01 -9.709907640383057537e-01
1.673846153846154206e+00 2.084075682891309289e-01 -1.364008783183364992e-01 -9.684825999406561081e-01
1.743589743589743835e+00 2.168253503003383376e-01 -1.416309381448057070e-01 -9.658803216152197502e-01
1.813333333333333686e+00 2.252085484741002674e-01 -1.468068874541329505e-01 -9.631853862595185500e-01
1.883076923076923315e+00 2.335545833413522898e-01 -1.519299224064358245e-01 -9.603992322886538702e-01
1.952820512820513166e+00 2.418621195680820957e-01 -1.569987949509100700e-01 -9.575234267876824301e-01
2.022564102564103017e+00 2.501285990813095772e-01 -1.620101087492692715e-01 -9.545602739809220250e-01
2.092307692307692424e+00 2.583517176071216670e-01 -1.669652297410966768e-01 -9.515113236434946664e-01
2.162051282051282275e+00 2.665347171171143503e-01 -1.718622808889985476e-01 -9.483771858109901753e-01
2.231794871794872126e+00 2.746696254076949062e-01 -1.766992927481408904e-01 -9.451616429242301054e-01
2.301538461538461977e+00 2.827584198859829923e-01 -1.814771635991467569e-01 -9.418652653825475562e-01
2.371282051282051828e+00 2.907974322673690382e-01 -1.861933354249676320e-01 -9.384909414137161399e-01
2.441025641025641235e+00 2.987875430828072498e-01 -1.908476665174259623e-01 -9.350397919457910101e-01
2.510769230769231086e+00 3.067243217691926205e-01 -1.954397711270141613e-01 -9.315146885870083659e-01
2.580512820512820937e+00 3.146069565102481702e-01 -1.999713213130749623e-01 -9.279169958829995846e-01
2.650256410256410788e+00 3.224363173088638512e-01 -2.044382257509544665e-01 -9.242487434246166034e-01
2.720000000000000195e+00 3.302098060183586981e-01 -2.088409665785159464e-01 -9.205122102940642703e-01
