0.000000000000000000e+00 -6.733293095531374139e-14 1.849661471608864895e-13 -1.000000000000000000e+00
6.974358974358975394e-02 3.610042215566386294e-03 -9.941382828277963921e-03 -9.999440666860001103e-01
1.394871794871795079e-01 7.133541259804612039e-03 -1.978859497981843782e-02 -9.997787375733373505e-01
2.092307692307692757e-01 1.048652389106820987e-02 -2.944785800245544247e-02 -9.995113088227349785e-01
2.789743589743590158e-01 1.358902037844050836e-02 -3.882647233177703022e-02 -9.991535635394432902e-01
3.487179487179487558e-01 1.636624185992496816e-02 -4.782713534277747980e-02 -9.987215383930674317e-01
4.184615384615385514e-01 1.875359889885500064e-02 -5.635805582937834790e-02 -9.982344774715832258e-01
4.882051282051282914e-01 2.069359459515127120e-02 -6.432264788204666850e-02 -9.977145744570863339e-01
5.579487179487180315e-01 2.214136923825449355e-02 -7.162696283335281966e-02 -9.971857089587918832e-01
6.276923076923077716e-01 2.306656267420969034e-02 -7.817656312434208277e-02 -9.966726437023636365e-01
6.974358974358975116e-01 2.344966230751920414e-02 -8.388099011072658318e-02 -9.961998257265594070e-01
7.671794871794872517e-01 2.328833026282332505e-02 -8.864909090948505654e-02 -9.957906367604821840e-01
8.369230769230771028e-01 2.259494085846534828e-02 -9.239369632101396279e-02 -9.954661588378552750e-01
9.066666666666668428e-01 2.139829492817712370e-02 -9.503320372246779058e-02 -9.952440922547077795e-01
9.764102564102565829e-01 1.974275356480891322e-02 -9.649359391327888558e-02 -9.951377843804725121e-01
1.046153846153846212e+00 1.768916107838838445e-02 -9.670435406052779737e-02 -9.951559482770405696e-01
1.115897435897436063e+00 1.531192998319695978e-02 -9.560608833884370883e-02 -9.953014722190186570e-01
1.185641025641025914e+00 1.270330444216627441e-02 -9.315341493562438735e-02 -9.955707243601983336e-01
1.255384615384615543e+00 9.966125415174206803e-03 -8.930781048512702325e-02 -9.959542114006303404e-01
1.325128205128205394e+00 7.216222824605468544e-03 -8.404894651394562155e-02 -9.964354975058681285e-01
1.394871794871795023e+00 4.578211189433595979e-03 -7.737099183551708614e-02 -9.969918603074435781e-01
1.464615384615384874e+00 2.185892457651533033e-03 -6.928529008946808510e-02 -9.975944919885758599e-01
1.534358974358974503e+00 1.803406884114261421e-04 -5.982357774467216005e-02 -9.982089496073563994e-01
1.604102564102564354e+00 -1.298978773260631853e-03 -4.903519385396537533e-02 -9.987962066384274973e-01
1.673846153846154206e+00 -2.106429483829573568e-03 -3.699211229583623112e-02 -9.993133375490507175e-01
1.743589743589743835e+00 -2.103118506541184173e-03 -2.378499331804830724e-02 -9.997148848166286239e-01
1.813333333333333686e+00 -1.152106801183214787e-03 -9.528008902743148600e-03 -9.999539437511321127e-01
1.883076923076923315e+00 8.718578392241432742e-04 5.644877441188024016e-03 -9.999836874452291413e-01
1.952820512820513166e+00 4.086291884978581444e-03 2.158038657052739964e-02 -9.997587654240124300e-01
2.022564102564103017e+00 8.590964822648983201e-03 3.810388039891002970e-02 -9.992368536229301323e-01
2.092307692307692424e+00 1.447042617474007462e-02 5.502615155710952749e-02 -9.983800526217172511e-01
2.162051282051282275e+00 2.178995096459357753e-02 7.213951789750880361e-02 -9.971565012528811334e-01
2.231794871794872126e+00 3.059125841835537082e-02 8.922733820469366806e-02 -9.955413889462273458e-01
2.301538461538461977e+00 4.089081210029509722e-02 1.060595535212581486e-01 -9.935186523838859252e-01
2.371282051282051828e+00 5.268227513913237292e-02 1.224016110566909787e-01 -9.910814413487041286e-01
2.441025641025641235e+00 6.592859679917217886e-02 1.380145869776323586e-01 -9.882334713650365865e-01
2.510769230769231086e+00 8.056631698848801260e-02 1.526623138685624659e-01 -9.849889779012265256e-01
2.580512820512820937e+00 9.649907852919220597e-02 1.661123198025029613e-01 -9.813738457215720468e-01
2.650256410256410788e+00 1.136066795470321578e-01 1.781408239938460925e-01 -9.774248662564302137e-01
2.720000000000000195e+00 1.317348512739663358e-01 1.885397416242256541e-01 -9.731899583128894582e-01
