0.000000000000000000e+00 -1.491222961668978435e-09 -1.778461868426845096e-09 -1.000000000000000000e+00
6.974358974358975394e-02 -3.257763833625530736e-02 1.368271080463090150e-01 -9.900583692844666661e-01
1.394871794871795079e-01 -6.466737405828373864e-02 2.706546164957973066e-01 -9.605005030859745663e-01
2.092307692307692757e-01 -9.574755744177236572e-02 3.985863477071648897e-01 -9.121165926154514159e-01
2.789743589743590158e-01 -1.253117553047133348e-01 5.179290102312317234e-01 -8.461915492527989358e-01
3.487179487179487558e-01 -1.528552868282009314e-01 6.262904722168324279e-01 -7.644523617762580825e-01
4.184615384615385514e-01 -1.778730513989567330e-01 7.216545981814947996e-01 -6.690037994997012349e-01
4.882051282051282914e-01 -1.998754806935645612e-01 8.024409240299416046e-01 -5.622518445190984870e-01
5.579487179487180315e-01 -2.183948011503931697e-01 8.675578313178624601e-01 -4.468049156546579082e-01
6.276923076923077716e-01 -2.329961941238292145e-01 9.164159992500602314e-01 -3.253936365713491763e-01
6.974358974358975116e-01 -2.432971446927959525e-01 9.489398389684408075e-01 -2.007624128491949933e-01
7.671794871794872517e-01 -2.489818697715654450e-01 9.655470244605686148e-01 -7.558094768596439195e-02
8.369230769230771028e-01 -2.498185134523042139e-01 9.671123167120843078e-01 4.764396646924810852e-02
9.066666666666668428e-01 -2.456779173278345607e-01 9.549127204193404994e-01 1.666427135882397048e-01
9.764102564102565829e-01 -2.365483140067144996e-01 9.305611795416108833e-01 2.794405847633518736e-01
1.046153846153846212e+00 -2.225438084559975827e-01 8.959247490122246305e-01 3.844217436281918143e-01
1.115897435897436063e+00 -2.039103079041479361e-01 8.530412940789595666e-01 4.803425837702143264e-01
1.185641025641025914e+00 -1.810363923243368256e-01 8.040229720852702933e-01 5.663582991650794041e-01
1.255384615384615543e+00 -1.544326581805795517e-01 7.509816400320431518e-01 6.420023227718087977e-01
1.325128205128205394e+00 -1.247324867470330917e-01 6.959324586255009049e-01 7.071850626425290054e-01
1.394871794871795023e+00 -9.266731424120572269e-02 6.407237996531913726e-01 7.621532911476720518e-01
1.464615384615384874e+00 -5.904548634518941297e-02 5.869845378966418448e-01 8.074376466257168206e-01
1.534358974358974503e+00 -2.472140831386804294e-02 5.360591636078201327e-01 8.438145602305515691e-01
1.604102564102564354e+00 9.435977617707758114e-03 4.889925270160366821e-01 8.722336402448708226e-01
1.673846153846154206e+00 4.257665339375199531e-02 4.465018378429334578e-01 8.937662761890650120e-01
1.743589743589743835e+00 7.390875075286092166e-02 4.089832397594482249e-01 9.095413601381303614e-01
1.813333333333333686e+00 1.027255289337753313e-01 3.765348014652517006e-01 9.206870379997419418e-01
1.883076923076923315e+00 1.284354322506481572e-01 3.489736186645391314e-01 9.282874588783016634e-01
1.952820512820513166e+00 1.505914603017296793e-01 3.258839231789284474e-01 9.333369640706926651e-01
2.022564102564103017e+00 1.689027583505052776e-01 3.066721947183742580e-01 9.367070776395113318e-01
2.092307692307692424e+00 1.832445138796408024e-01 2.906140016615285648e-01 9.391278713208798257e-01
2.162051282051282275e+00 1.936561893565942882e-01 2.769186833091162869e-01 9.411745891504875727e-01
2.231794871794872126e+00 2.003408358575929360e-01 2.647802448658839181e-01 9.432663091445031567e-01
2.301538461538461977e+00 2.036423947313038552e-01 2.534368558434900720e-01 9.456722344136788694e-01
2.371282051282051828e+00 2.040244117446623762e-01 2.422069717367808794e-01 9.485285228798581159e-01
2.441025641025641235e+00 2.020417815271456363e-01 2.305377649708128251e-01 9.518550960255255378e-01
2.510769230769231086e+00 1.983060619617978138e-01 2.180122184436462107e-01 9.555847376304409391e-01
2.580512820512820937e+00 1.934447589774254406e-01 2.043874001322996681e-01 9.595842248927001217e-01
2.650256410256410788e+00 1.880793865257678332e-01 1.895747524366503400e-01 9.636828797673507863e-01
2.720000000000000195e+00 1.827777307615626456e-01 1.736478509959138439e-01 9.676962509323302486e-01
