0.000000000000000000e+00 -4.431104991121042139e-09 2.817816548802418902e-10 -1.000000000000000000e+00
6.974358974358975394e-02 -3.422348797298496725e-02 -1.053649425410263102e-01 -9.938435636223972303e-01
1.394871794871795079e-01 -6.633310973624526041e-02 -2.096645429093833557e-01 -9.755187245956593589e-01
2.092307692307692757e-01 -9.432673864552798548e-02 -3.117907444587609822e-01 -9.454538490803371387e-01
2.789743589743590158e-01 -1.163113750292006643e-01 -4.106300056929370057e-01 -9.043486382310693683e-01
3.487179487179487558e-01 -1.305842427451971155e-01 -5.050481564042943461e-01 -8.531492597948053813e-01
4.184615384615385514e-01 -1.356942723679252505e-01 -5.938790585578210823e-01 -7.930208333410446730e-01
4.882051282051282914e-01 -1.304860880337618267e-01 -6.759333837879062390e-01 -7.253086345118263667e-01
5.579487179487180315e-01 -1.141430553742308063e-01 -7.500035520664481981e-01 -6.514976575039119755e-01
6.276923076923077716e-01 -8.622372897220798027e-02 -8.148805372135305980e-01 -5.731636249580730480e-01
6.974358974358975116e-01 -4.667337293781304020e-02 -8.693753880054966299e-01 -4.919225497460287810e-01
7.671794871794872517e-01 4.150620804980353906e-03 -9.123370262042236334e-01 -4.093926565508693716e-01
8.369230769230771028e-01 6.549557259290623989e-02 -9.426920349681796596e-01 -3.271382262906605276e-01
9.066666666666668428e-01 1.362134179227882380e-01 -9.594800607166774631e-01 -2.466180982847036018e-01
9.764102564102565829e-01 2.147905164635869057e-01 -9.618869476478195679e-01 -1.691583211522028340e-01
1.046153846153846212e+00 2.993808664227184946e-01 -9.492872011991316805e-01 -9.591969892625012983e-02
1.115897435897436063e+00 3.878575613384179777e-01 -9.212853089631819481e-01 -2.784654867003042919e-02
1.185641025641025914e+00 4.778639158434626610e-01 -8.777492774772088779e-01 3.431963528925253970e-02
1.255384615384615543e+00 5.668757134326097846e-01 -8.188483048433583544e-01 9.008359126978285336e-02
1.325128205128205394e+00 6.522788560301100436e-01 -7.450754153387944001e-01 1.391789776773698917e-01
1.394871794871795023e+00 7.314400717420200815e-01 -6.572711170364670119e-01 1.815659585862620662e-01
1.464615384615384874e+00 8.017872014131063318e-01 -5.566306175087997188e-01 2.174303933861891636e-01
1.534358974358974503e+00 8.608902947302398134e-01 -4.447033614678791991e-01 2.471505814406887436e-01
1.604102564102564354e+00 9.065369233788527215e-01 -3.233841824740271154e-01 2.712752772169992332e-01
1.673846153846154206e+00 9.368098252041857643e-01 -1.948845858269607212e-01 2.904897980305613525e-01
1.743589743589743835e+00 9.501499913933953989e-01 -6.169983920602786776e-02 3.055900009808590334e-01
1.813333333333333686e+00 9.454191825365124702e-01 7.343962609993041901e-02 3.174373545639028737e-01
1.883076923076923315e+00 9.219527695523693778e-01 2.076318719762619003e-01 3.269089481479016124e-01
1.952820512820513166e+00 8.795859823264740029e-01 3.378691289349552429e-01 3.348886468343142409e-01
2.022564102564103017e+00 8.186870245892320375e-01 4.611112356273522894e-01 3.422068351660780827e-01
2.092307692307692424e+00 7.401561465701679277e-01 5.743788430532850153e-01 3.496218861675827183e-01
2.162051282051282275e+00 6.454241916014981095e-01 6.748301927056229443e-01 3.577842420955870129e-01
2.231794871794872126e+00 5.364238999702620747e-01 7.598527157239671759e-01 3.672207500866456753e-01
2.301538461538461977e+00 4.155491152435986102e-01 8.271446197650251797e-01 3.783235593123077667e-01
2.371282051282051828e+00 2.856013167152600118e-01 8.747986282992461504e-01 3.913277631498814357e-01
2.441025641025641235e+00 1.497155865269795827e-01 9.013679506962432031e-01 4.063243097606649701e-01
2.510769230769231086e+00 1.128294753426112296e-02 9.059287683771071187e-01 4.232545040083560139e-01
2.580512820512820937e+00 -1.261473270289527882e-01 8.881236156094075573e-01 4.419300967928974644e-01
2.650256410256410788e+00 -2.589650014178418447e-01 8.481935657199199952e-01 4.620433630964493332e-01
2.720000000000000195e+00 -3.836057871483878334e-01 7.869973826866265565e-01 4.831783883096336107e-01
