0.000000000000000000e+00 9.395008506885940046e-13 -3.235820179076779378e-12 -1.000000000000000000e+00
6.974358974358975394e-02 4.119219705673795445e-02 -1.416930177082767750e-01 -9.890532299331968868e-01
1.394871794871795079e-01 8.176851175755547874e-02 -2.801895858817865514e-01 -9.564558047599653889e-01
2.092307692307692757e-01 1.211244964213536446e-01 -4.123646429865063801e-01 -9.029309262654821033e-01
2.789743589743590158e-01 1.586776269705079401e-01 -5.352342302446824185e-01 -8.296660349148344826e-01
3.487179487179487558e-01 1.938783338952408952e-01 -6.460213864817290208e-01 -7.382869089252732664e-01
4.184615384615385514e-01 2.262194022367139401e-01 -7.422204071832232408e-01 -6.308198231291842761e-01
4.882051282051282914e-01 2.552455633230293897e-01 -8.216489321385999078e-01 -5.096496196239180820e-01
5.579487179487180315e-01 2.805608844105810240e-01 -8.824997797802635047e-01 -3.774648709831398552e-01
6.276923076923077716e-01 3.018365332721505423e-01 -9.233807942077438824e-01 -2.371974200176033554e-01
6.974358974358975116e-01 3.188159460523391497e-01 -9.433449595385273723e-01 -9.196020788803968560e-02
7.671794871794872517e-01 3.313196713609561916e-01 -9.419125895425216610e-01 5.502680437977745115e-02
8.369230769230771028e-01 3.392468511349980842e-01 -9.190823827299123838e-01 2.004972512901847526e-01
9.066666666666668428e-01 3.425785623601907970e-01 -8.753304890093759338e-01 3.412278764402149056e-01
9.764102564102565829e-01 3.413761332809636118e-01 -8.116013506084510665e-01 4.740944877313075234e-01
1.046153846153846212e+00 3.357795193568333114e-01 -7.292847952070167228e-01 5.961508214144889406e-01
1.115897435897436063e+00 3.260044683311293934e-01 -6.301894371703593567e-01 7.046860007931964320e-01
1.185641025641025914e+00 3.123385458762317768e-01 -5.164993409815943348e-01 7.972910783961657533e-01
1.255384615384615543e+00 2.951331930962806660e-01 -3.907242155203867195e-01 8.719122582078162598e-01
1.325128205128205394e+00 2.747983914198464106e-01 -2.556463690065977068e-01 9.268930778826998118e-01
1.394871794871795023e+00 2.517941162189143989e-01 -1.142611452843414338e-01 9.610120257655979659e-01
1.464615384615384874e+00 2.266206154675534379e-01 3.029640107965592480e-02 9.735117999135356470e-01
1.534358974358974503e+00 1.998083666302618855e-01 1.748166117838319822e-01 9.641139812338037629e-01
1.604102564102564354e+00 1.719094298848700686e-01 3.160849873585377945e-01 9.330259528943763980e-01
1.673846153846154206e+00 1.434852654155445717e-01 4.509563767822959424e-01 8.809371856955382496e-01
1.743589743589743835e+00 1.150961169433205172e-01 5.764273798158918716e-01 8.090020762550222955e-01
1.813333333333333686e+00 8.729078529081921167e-02 6.896990604425187188e-01 7.188153620639567976e-01
1.883076923076923315e+00 6.059717078678959756e-02 7.882373180040463945e-01 6.123805300729185941e-01
1.952820512820513166e+00 3.550976334064333273e-02 8.698406310975601574e-01 4.920531812336771949e-01
2.022564102564103017e+00 1.248424451779365542e-02 9.326711635149899093e-01 3.605116429282286816e-01
2.092307692307692424e+00 -8.073668264228561764e-03 9.753160002742858881e-01 2.206660726006882955e-01
2.162051282051282275e+00 -2.581450380115804175e-02 9.968021688446498940e-01 7.562438568003533590e-02
2.231794871794872126e+00 -4.045022468822993128e-02 9.966276235399456063e-01 -7.139439226820792905e-02
2.301538461538461977e+00 -5.175988325939284013e-02 9.747705290471299078e-01 -2.171251493055046944e-01
2.371282051282051828e+00 -5.959297066167349582e-02 9.316894658875319868e-01 -3.583342246027103606e-01
2.441025641025641235e+00 -6.387089534801075608e-02 8.683146148221160265e-01 -4.918843749948231259e-01
2.510769230769231086e+00 -6.458785215168208471e-02 7.860248527114743755e-01 -6.148116296337580167e-01
2.580512820512820937e+00 -6.180960992768476381e-02 6.866223558925261816e-01 -7.243820209660606357e-01
2.650256410256410788e+00 -5.567196532161883260e-02 5.722871580510694445e-01 -8.181613781635562743e-01
2.720000000000000195e+00 -4.637526689909297201e-02 4.455329068275469817e-01 -8.940636237765260397e-01
