0.000000000000000000e+00 -2.376392028917372414e-09 -7.462417765347615036e-10 -1.000000000000000000e+00
6.974358974358975394e-02 2.657159682708156584e-02 4.705221556407399031e-02 -9.985384535604389100e-01
1.394871794871795079e-01 5.225596944112824438e-02 9.421339543772912217e-02 -9.941786719704065467e-01
2.092307692307692757e-01 7.621317607317418252e-02 1.415311903468429444e-01 -9.869942320198579200e-01
2.789743589743590158e-01 9.760354613266475354e-02 1.890372935965787815e-01 -9.771052318740748310e-01
3.487179487179487558e-01 1.156188049864495249e-01 2.367092693240442913e-01 -9.646741490338148761e-01
4.184615384615385514e-01 1.294922839418439220e-01 2.844555569340550538e-01 -9.499005177255075427e-01
4.882051282051282914e-01 1.385085780392492083e-01 3.321005936437161354e-01 -9.330154234688465831e-01
5.579487179487180315e-01 1.420216223218969953e-01 3.793762697485044688e-01 -9.142733282068021827e-01
6.276923076923077716e-01 1.394585003130380252e-01 4.259165216153641964e-01 -8.939450086925792016e-01
6.974358974358975116e-01 1.303477549367582089e-01 4.712519858580115351e-01 -8.723080245464414073e-01
7.671794871794872517e-01 1.143183739489221917e-01 5.148111904930223748e-01 -8.496411332317530540e-01
8.369230769230771028e-01 9.112612711892215112e-02 5.559247735553345393e-01 -8.262155125456663862e-01
9.066666666666668428e-01 6.065886935569371474e-02 5.938426610228906277e-01 -8.022835752476794591e-01
9.764102564102565829e-01 2.295357493367738977e-02 6.277335778821521162e-01 -7.780812324532633273e-01
1.046153846153846212e+00 -2.178793434901049597e-02 6.567144272295815099e-01 -7.538152034906266952e-01
1.115897435897436063e+00 -7.319847297686635224e-02 6.798697709644689890e-01 -7.296603623226998181e-01
1.185641025641025914e+00 -1.307335251728440895e-01 6.962690223661265332e-01 -7.057638894324403944e-01
1.255384615384615543e+00 -1.936669189737525998e-01 7.050068456125064831e-01 -6.822333443664336805e-01
1.325128205128205394e+00 -2.610922478687391912e-01 7.052266229696851907e-01 -6.591429852369059539e-01
1.394871794871795023e+00 -3.319317113624751237e-01 6.961478675343631961e-01 -6.365391753236762096e-01
1.464615384615384874e+00 -4.049413048845610374e-01 6.771104484057247630e-01 -6.144315044024503125e-01
1.534358974358974503e+00 -4.787214229834175216e-01 6.475948136300488933e-01 -5.928139576687456724e-01
1.604102564102564354e+00 -5.517518731166217716e-01 6.072590046388683938e-01 -5.716533232011558052e-01
1.673846153846154206e+00 -6.224033920761681271e-01 5.559686653023163672e-01 -5.509025241467548906e-01
1.743589743589743835e+00 -6.889767403241695565e-01 4.938152717004088976e-01 -5.305071701357196856e-01
1.813333333333333686e+00 -7.497355558311848966e-01 4.211465023678190311e-01 -5.104039136156302003e-01
1.883076923076923315e+00 -8.029479816521252200e-01 3.385665215638061221e-01 -4.905372995009785742e-01
1.952820512820513166e+00 -8.469266599088436376e-01 2.469664012590290780e-01 -4.708524588805773625e-01
2.022564102564103017e+00 -8.800812240886599636e-01 1.474954803576787876e-01 -4.513103002008260756e-01
2.092307692307692424e+00 -9.009541885078080625e-01 4.158430054599587811e-02 -4.318922281997317203e-01
2.162051282051282275e+00 -9.082862584264844719e-01 -6.908495581847620692e-02 -4.125792788799256261e-01
2.231794871794872126e+00 -9.010450594486627551e-01 -1.826062615835757907e-01 -3.933837128919423498e-01
2.301538461538461977e+00 -8.784741319777920054e-01 -2.968697377274656102e-01 -3.743385077537768613e-01
2.371282051282051828e+00 -8.401388630896948762e-01 -4.096071584240923991e-01 -3.554801613731201626e-01
2.441025641025641235e+00 -7.859459257696259638e-01 -5.184407597726332639e-01 -3.368760334263413148e-01
2.510769230769231086e+00 -7.161798503006625571e-01 -6.209363352578445294e-01 -3.185930513987272339e-01
2.580512820512820937e+00 -6.315137800474851515e-01 -7.146569550845887075e-01 -3.007202899942027496e-01
2.650256410256410788e+00 -5.330214193215114804e-01 -7.972380263662792732e-01 -2.833309224176684404e-01
2.720000000000000195e+00 -4.221662731663616830e-01 -8.664418565484435231e-01 -2.665158243403039640e-01
