0.000000000000000000e+00 -2.390866352373835190e-13 -4.063040820998440473e-13 -1.000000000000000000e+00
6.974358974358975394e-02 2.746223449962392066e-02 4.651911355117569619e-02 -9.985398328133847645e-01
1.394871794871795079e-01 5.506407178913351463e-02 9.238100772618736134e-02 -9.942000288433885391e-01
2.092307692307692757e-01 8.293486887607316727e-02 1.369406525953752729e-01 -9.871013449249592675e-01
2.789743589743590158e-01 1.111829328408021067e-01 1.795726498017926609e-01 -9.774415679808736712e-01
3.487179487179487558e-01 1.398851702172423939e-01 2.196839273256597780e-01 -9.654900885009294331e-01
4.184615384615385514e-01 1.690786451518631051e-01 2.567213407010505710e-01 -9.515810868720222526e-01
4.882051282051282914e-01 1.987540046993137299e-01 2.901847345176860049e-01 -9.361034479368851580e-01
5.579487179487180315e-01 2.288460962888753947e-01 3.196301444245073231e-01 -9.194922699856246107e-01
6.276923076923077716e-01 2.592351733157831628e-01 3.446789072416909239e-01 -9.022159252740420410e-01
6.974358974358975116e-01 2.897409478011787609e-01 3.650304554970479898e-01 -8.847615212579953425e-01
7.671794871794872517e-01 3.201194624580164794e-01 3.804563154104552702e-01 -8.676269483192886600e-01
8.369230769230771028e-01 3.500704183363715916e-01 3.908151052071022757e-01 -8.513015065841953444e-01
9.066666666666668428e-01 3.792399116793494507e-01 3.960482216338335748e-01 -8.362552811263005426e-01
9.764102564102565829e-01 4.072220786209823085e-01 3.961843843988894776e-01 -8.229265530496097103e-01
1.046153846153846212e+00 4.335664007995134184e-01 3.913436123929195931e-01 -8.117082928121486241e-01
1.115897435897436063e+00 4.577967390238982248e-01 3.817271555358370261e-01 -8.029361892593509520e-01
1.185641025641025914e+00 4.794101372048961140e-01 3.676248830402079060e-01 -7.968800823443882297e-01
1.255384615384615543e+00 4.978963183803867265e-01 3.494021935243987742e-01 -7.937363304951066123e-01
1.325128205128205394e+00 5.127466500126861559e-01 3.275047553710992432e-01 -7.936192461109394802e-01
1.394871794871795023e+00 5.234744071973869151e-01 3.024415656645667028e-01 -7.965573700215160535e-01
1.464615384615384874e+00 5.296204354729920905e-01 2.747851512850859601e-01 -8.024931866239461975e-01
1.534358974358974503e+00 5.307738579287303304e-01 2.451596563200891532e-01 -8.112803792098750577e-01
1.604102564102564354e+00 5.265828578700004758e-01 2.142310766827389967e-01 -8.226879963088132852e-01
1.673846153846154206e+00 5.167700875370543345e-01 1.826957438351171636e-01 -8.364035757151370154e-01
1.743589743589743835e+00 5.011409918357657700e-01 1.512707989172997203e-01 -8.520415783350205885e-01
1.813333333333333686e+00 4.795939822593592861e-01 1.206796549086262132e-01 -8.691524796655504259e-01
1.883076923076923315e+00 4.521359201222494573e-01 9.164236296522712544e-02 -8.872287117578314675e-01
1.952820512820513166e+00 4.188805841050521339e-01 6.486364175911590868e-02 -9.057216812960199315e-01
2.022564102564103017e+00 3.800551923403203136e-01 4.101531344044180571e-02 -9.240539998622885332e-01
2.092307692307692424e+00 3.359991433804734307e-01 2.072880867395947291e-02 -9.416341603059404930e-01
2.162051282051282275e+00 2.871736748885169721e-01 4.581601494938684904e-03 -9.578675739432395142e-01
2.231794871794872126e+00 2.341440420226054142e-01 -6.910930391625907943e-03 -9.721773535037402381e-01
2.301538461538461977e+00 1.775825039428879371e-01 -1.331158230678090165e-02 -9.840158819761815057e-01
2.371282051282051828e+00 1.182568374681947782e-01 -1.426518167144975868e-02 -9.928805692965835261e-01
2.441025641025641235e+00 5.701404926433269876e-02 -9.509674423902672591e-03 -9.983280846820685728e-01
2.510769230769231086e+00 -5.225866819774038600e-03 1.116942194309810971e-03 -9.999857213359245600e-01
2.580512820512820937e+00 -6.749015818383619081e-02 1.767761680255121315e-02 -9.975633214602103171e-01
2.650256410256410788e+00 -1.287734195081039756e-01 4.012563523919925740e-02 -9.908619175361640385e-01
2.720000000000000195e+00 -1.880491165451662616e-01 6.830564985559246793e-02 -9.797815405687239076e-01
