0.000000000000000000e+00 2.508432201208853813e-09 6.718969444999602871e-10 -1.000000000000000000e+00
6.974358974358975394e-02 9.389996342260568951e-02 -5.881567868592869203e-02 -9.938424125172041768e-01
1.394871794871795079e-01 1.863909363155514531e-01 -1.168614283858487313e-01 -9.755000114176974879e-01
2.092307692307692757e-01 2.760864114378842604e-01 -1.734027386531591386e-01 -9.453599269384068693e-01
2.789743589743590158e-01 3.616879434085847889e-01 -2.277505918104173188e-01 -9.040510097155091129e-01
3.487179487179487558e-01 4.420143186686509851e-01 -2.792779314368149524e-01 -8.524218445889202300e-01
4.184615384615385514e-01 5.160252329068653054e-01 -3.274428479915257872e-01 -7.915137848392013176e-01
4.882051282051282914e-01 5.828571871562641116e-01 -3.718074710193819410e-01 -7.225169560420787729e-01
5.579487179487180315e-01 6.418305636380883250e-01 -4.120345857737713891e-01 -6.467412661874649693e-01
6.276923076923077716e-01 6.924685975934583571e-01 -4.478998793040905313e-01 -5.655664811709424367e-01
6.974358974358975116e-01 7.345008350220365578e-01 -4.792912478211032168e-01 -4.803959385096790435e-01
7.671794871794872517e-01 7.678501807041774319e-01 -5.062017223292245571e-01 -3.926285834046988610e-01
8.369230769230771028e-01 7.926344447443187669e-01 -5.287202381625433212e-01 -3.036056619174321014e-01
9.066666666666668428e-01 8.091415055534454392e-01 -5.470222753696456497e-01 -2.145860998490953242e-01
9.764102564102565829e-01 8.178151034461628166e-01 -5.613509370206266613e-01 -1.267040259835400806e-01
1.046153846153846212e+00 8.192198083103170436e-01 -5.720054958924134514e-01 -4.097380092689475312e-02
1.115897435897436063e+00 8.140216077697922659e-01 -5.793233544071636487e-01 4.175531127811515919e-02
1.185641025641025914e+00 8.029554398041480745e-01 -5.836620679230415387e-01 1.207951973208216678e-01
1.255384615384615543e+00 7.867968365252325791e-01 -5.853864558593253609e-01 1.956116723101981592e-01
1.325128205128205394e+00 7.663339845237739922e-01 -5.848575974497534080e-01 2.658280120812924752e-01
1.394871794871795023e+00 7.423472162203452740e-01 -5.824163711457766013e-01 3.312140702546010895e-01
1.464615384615384874e+00 7.155815885145987432e-01 -5.783788472379548518e-01 3.916786682882718029e-01
1.534358974358974503e+00 6.867320008761527150e-01 -5.730302003816823975e-01 4.472439723247657595e-01
1.604102564102564354e+00 6.564304909423220868e-01 -5.666267040931256549e-01 4.980212442322282107e-01
1.673846153846154206e+00 6.252388769058931928e-01 -5.593807962715898752e-01 5.442074839731569913e-01
1.743589743589743835e+00 5.936392393863656469e-01 -5.514740793499550708e-01 5.860558594765352680e-01
1.813333333333333686e+00 5.620388745967013211e-01 -5.430590487052588955e-01 6.238527031645664245e-01
1.883076923076923315e+00 5.307684867500619408e-01 -5.342601025350183219e-01 6.579090459724886708e-01
1.952820512820513166e+00 5.000869607460816102e-01 -5.251743136576676463e-01 6.885482149769689419e-01
2.022564102564103017e+00 4.701902141398825452e-01 -5.158823096291779153e-01 7.160870024216697827e-01
2.092307692307692424e+00 4.412195371669077604e-01 -5.064540190366089156e-01 7.408265115357758335e-01
2.162051282051282275e+00 4.132694592744483586e-01 -4.969347212930188551e-01 7.630588350804959896e-01
2.231794871794872126e+00 3.863977741436339652e-01 -4.873751214948415234e-01 7.830434660320577667e-01
2.301538461538461977e+00 3.606322774542756737e-01 -4.778084468767976323e-01 8.010234157906250818e-01
2.371282051282051828e+00 3.359832003520452082e-01 -4.682718738536110203e-01 8.172098991657135159e-01
2.441025641025641235e+00 3.124360574196262674e-01 -4.587895124633774024e-01 8.318000931026546807e-01
2.510769230769231086e+00 2.899774111005323785e-01 -4.493892364338805123e-01 8.449604248390559791e-01
2.580512820512820937e+00 2.685784784214441112e-01 -4.400918868804713502e-01 8.568434124909583005e-01
2.650256410256410788e+00 2.482116771532666966e-01 -4.309104599838373684e-01 8.675846977049950226e-01
2.720000000000000195e+00 2.288464648196306683e-01 -4.218591692723376863e-01 8.773029039174381483e-01
