0.000000000000000000e+00 1.219187083900955670e-09 2.622978766806264418e-09 -1.000000000000000000e+00
6.974358974358975394e-02 -2.009984393942470041e-03 -1.698989373409908604e-02 -9.998535429465083002e-01
1.394871794871795079e-01 -4.002487416027170064e-03 -3.397809380251275158e-02 -9.994143793529034481e-01
2.092307692307692757e-01 -5.987655494493666214e-03 -5.094263468129870548e-02 -9.986833642120717114e-01
2.789743589743590158e-01 -7.962513180152404335e-03 -6.787614419240461938e-02 -9.976616305025765019e-01
3.487179487179487558e-01 -9.923153902026258036e-03 -8.476848319989245539e-02 -9.963508278075312585e-01
4.184615384615385514e-01 -1.186640529486440027e-02 -1.016071274178429046e-01 -9.947533118315703415e-01
4.882051282051282914e-01 -1.378932396430568308e-02 -1.183832727832485054e-01 -9.928716235571239945e-01
5.579487179487180315e-01 -1.568940843024797110e-02 -1.350867969841442195e-01 -9.907088563084595068e-01
6.276923076923077716e-01 -1.756287354781669099e-02 -1.517062757002357043e-01 -9.882687998998311851e-01
6.974358974358975116e-01 -1.940624620800137506e-02 -1.682334502845785063e-01 -9.855552766050853508e-01
7.671794871794872517e-01 -2.122021224634458580e-02 -1.846578345600820570e-01 -9.825728035440989272e-01
8.369230769230771028e-01 -2.300124194424831015e-02 -2.009729319334573328e-01 -9.793256751909691360e-01
9.066666666666668428e-01 -2.474384393467551901e-02 -2.171664693514928635e-01 -9.758197825863115238e-01
9.764102564102565829e-01 -2.645176324510754851e-02 -2.332326652018774094e-01 -9.720598920785211705e-01
1.046153846153846212e+00 -2.812114828671295752e-02 -2.491603017613696625e-01 -9.680525679629348179e-01
1.115897435897436063e+00 -2.974889007810425923e-02 -2.649434248911691769e-01 -9.638035258256825166e-01
1.185641025641025914e+00 -3.133636106597328941e-02 -2.805743210292940271e-01 -9.593191110428981316e-01
1.255384615384615543e+00 -3.288380574649298060e-02 -2.960447376625242599e-01 -9.546062343943136907e-01
1.325128205128205394e+00 -3.438645703470218085e-02 -3.113484255784619847e-01 -9.496717565301026065e-01
1.394871794871795023e+00 -3.584692858554383577e-02 -3.264786774712671868e-01 -9.445227402402578409e-01
1.464615384615384874e+00 -3.726591516420180161e-02 -3.414300230760070054e-01 -9.391661979882472977e-01
1.534358974358974503e+00 -3.864166468184981884e-02 -3.561952004871257738e-01 -9.336101844715284370e-01
1.604102564102564354e+00 -3.997525588260911200e-02 -3.707717233096462506e-01 -9.278611451210005967e-01
1.673846153846154206e+00 -4.126378429715440999e-02 -3.851529855206680120e-01 -9.219274880996632948e-01
1.743589743589743835e+00 -4.251424887208640757e-02 -3.993344199627524294e-01 -9.158166824069493561e-01
1.813333333333333686e+00 -4.371803057297740658e-02 -4.133139901323015231e-01 -9.095360001222967394e-01
1.883076923076923315e+00 -4.488370056718588019e-02 -4.270852113502985326e-01 -9.030940996527228037e-01
1.952820512820513166e+00 -4.601037480241310096e-02 -4.406463471494249662e-01 -8.964981547778851922e-01
2.022564102564103017e+00 -4.709747869473243642e-02 -4.539953133043445055e-01 -8.897555872781585107e-01
2.092307692307692424e+00 -4.814527712834532763e-02 -4.671292624248555847e-01 -8.828743006221909662e-01
2.162051282051282275e+00 -4.915878162208836555e-02 -4.800478292636649047e-01 -8.758607557530024845e-01
2.231794871794872126e+00 -5.013565649686757553e-02 -4.927466953677781536e-01 -8.687240668020008716e-01
2.301538461538461977e+00 -5.107736673375386227e-02 -5.052257997829885383e-01 -8.614709612272444250e-01
2.371282051282051828e+00 -5.198842424261428119e-02 -5.174833069274382691e-01 -8.541090565281943547e-01
2.441025641025641235e+00 -5.286509617515600112e-02 -5.295218827684585738e-01 -8.466438066736825530e-01
2.510769230769231086e+00 -5.371111805354811253e-02 -5.413387798849356169e-01 -8.390835187196188372e-01
2.580512820512820937e+00 -5.453161758994862218e-02 -5.529329590920545323e-01 -8.314354993717631981e-01
2.650256410256410788e+00 -5.532285939208717029e-02 -5.643073168451968602e-01 -8.237050511525715324e-01
2.720000000000000195e+00 -5.608688673767447952e-02 -5.754595737392581567e-01 -8.159005790945967895e-01
