0.000000000000000000e+00 2.213575173545627300e-09 1.528668789398259236e-09 -1.000000000000000000e+00
6.974358974358975394e-02 1.344557491411126592e-02 -1.055969601020644716e-02 -9.998536518582211707e-01
1.394871794871795079e-01 2.689551227239265346e-02 -2.104706085812534100e-02 -9.994162972210535179e-01
2.092307692307692757e-01 4.029954420840112239e-02 -3.142033050312032644e-02 -9.986929812873603929e-01
2.789743589743590158e-01 5.363848620050556959e-02 -4.162472612726943189e-02 -9.976918064847651868e-01
3.487179487179487558e-01 6.689323205008668172e-02 -5.160782840468455812e-02 -9.964237357308884935e-01
4.184615384615385514e-01 8.004938536634889634e-02 -6.131934395099589846e-02 -9.949020346942111237e-01
4.882051282051282914e-01 9.309580142256912438e-02 -7.071188214833534769e-02 -9.931418427600446908e-01
5.579487179487180315e-01 1.060251728722326620e-01 -7.974424228745866094e-02 -9.911593883498842628e-01
6.276923076923077716e-01 1.188331946075545931e-01 -8.837897225967264458e-02 -9.889716591160991888e-01
6.974358974358975116e-01 1.315216682833897643e-01 -9.658222858404377775e-02 -9.865955297879570596e-01
7.671794871794872517e-01 1.440953681002008213e-01 -1.043299756175967152e-01 -9.840469005690531956e-01
8.369230769230771028e-01 1.565641535494082526e-01 -1.115993694106633405e-01 -9.813406530108852444e-01
9.066666666666668428e-01 1.689370978030727277e-01 -1.183779479870820939e-01 -9.784900926002224608e-01
9.764102564102565829e-01 1.812300240902710302e-01 -1.246581005178720447e-01 -9.755058664255328305e-01
1.046153846153846212e+00 1.934591797961065784e-01 -1.304387981162662691e-01 -9.723963409756025689e-01
1.115897435897436063e+00 2.056408743780619164e-01 -1.357270818662134892e-01 -9.691672148458223557e-01
1.185641025641025914e+00 2.177911355703383012e-01 -1.405368419843325278e-01 -9.658215373679697180e-01
1.255384615384615543e+00 2.299263423280606955e-01 -1.448854726583544417e-01 -9.623599263105812041e-01
1.325128205128205394e+00 2.420589712800921833e-01 -1.487984252528879447e-01 -9.587808725430935208e-01
1.394871794871795023e+00 2.542001133878132313e-01 -1.523075571239859149e-01 -9.550804768267336931e-01
1.464615384615384874e+00 2.663563410456981084e-01 -1.554463048998216412e-01 -9.512541622619999915e-01
1.534358974358974503e+00 2.785288854069224440e-01 -1.582540005642613101e-01 -9.472965715436377776e-01
1.604102564102564354e+00 2.907151095842929744e-01 -1.607734223408649465e-01 -9.432018987195476267e-01
1.673846153846154206e+00 3.029073303379851145e-01 -1.630438090785905070e-01 -9.389658041085786611e-01
1.743589743589743835e+00 3.150905630624268872e-01 -1.651133756417558773e-01 -9.345844795292950202e-01
1.813333333333333686e+00 3.272444695319363661e-01 -1.670241884092503182e-01 -9.300571698887654115e-01
1.883076923076923315e+00 3.393466640511107468e-01 -1.688160425128120701e-01 -9.253848217283286992e-01
1.952820512820513166e+00 3.513659529956483230e-01 -1.705289187891575742e-01 -9.205724620967946636e-01
2.022564102564103017e+00 3.632682493532207180e-01 -1.721979554651718314e-01 -9.156285086528030970e-01
2.092307692307692424e+00 3.750188313955372665e-01 -1.738534989957078725e-01 -9.105641548022128662e-01
2.162051282051282275e+00 3.865764387659621493e-01 -1.755151249369131528e-01 -9.053971844671204749e-01
2.231794871794872126e+00 3.979028413726218849e-01 -1.772035228262241746e-01 -9.001460576838250516e-01
2.301538461538461977e+00 4.089589231918752676e-01 -1.789283061091022642e-01 -8.948338786049827576e-01
2.371282051282051828e+00 4.197045517450098129e-01 -1.806891803107818772e-01 -8.894884198278787402e-01
2.441025641025641235e+00 4.301063297306518263e-01 -1.824815587095442726e-01 -8.841373751119840918e-01
2.510769230769231086e+00 4.401348138550725819e-01 -1.842933667231614336e-01 -8.788099418118436867e-01
2.580512820512820937e+00 4.497601899584389717e-01 -1.861002371179496240e-01 -8.735398292986328306e-01
2.650256410256410788e+00 4.589677920320993088e-01 -1.878784926774551278e-01 -8.683543943535779741e-01
2.720000000000000195e+00 4.677431012399904109e-01 -1.895920618177741601e-01 -8.632844970005195684e-01
