0.000000000000000000e+00 4.029470860978137196e-09 1.336891655641683450e-09 -1.000000000000000000e+00
6.974358974358975394e-02 3.152491648629490717e-02 -1.062183471208805324e-01 -9.938425082743402861e-01
1.394871794871795079e-01 6.454619159821997632e-02 -2.103034068835930859e-01 -9.755021437539158624e-01
2.092307692307692757e-01 1.004436534283269372e-01 -3.101314149488552108e-01 -9.453712302916291721e-01
2.789743589743590158e-01 1.404320712756989831e-01 -4.036125883690416805e-01 -9.040862067602878360e-01
3.487179487179487558e-01 1.854586191139537821e-01 -4.887042682829515483e-01 -8.525070933798035711e-01
4.184615384615385514e-01 2.361453470192656501e-01 -5.634391151558446609e-01 -7.916854124950986060e-01
4.882051282051282914e-01 2.927223541801952100e-01 -6.259583020238407292e-01 -7.228297501592291230e-01
5.579487179487180315e-01 3.549838506650762615e-01 -6.745588233843688997e-01 -6.472626437170378999e-01
6.276923076923077716e-01 4.222761065029880800e-01 -7.077355126843546396e-01 -5.663784395756525925e-01
6.974358974358975116e-01 4.934809145707386158e-01 -7.242434509652544428e-01 -4.815998724623982707e-01
7.671794871794872517e-01 5.670448841484148073e-01 -7.231543287242849782e-01 -3.943319452055494279e-01
8.369230769230771028e-01 6.410111060714951403e-01 -7.039172894708685124e-01 -3.059321282085830651e-01
9.066666666666668428e-01 7.130933409460030736e-01 -6.664163256832643656e-01 -2.176604614145991323e-01
9.764102564102565829e-01 7.807463525539211080e-01 -6.110259092206118403e-01 -1.306565125318685794e-01
1.046153846153846212e+00 8.412755079831539806e-01 -5.386420266414310154e-01 -4.592181194621257345e-02
1.115897435897436063e+00 8.919481650808376294e-01 -4.507149356875845836e-01 3.567985066809657713e-02
1.185641025641025914e+00 9.301266322421043453e-01 -3.492465542532234846e-01 1.134896887735204057e-01
1.255384615384615543e+00 9.533945196676770761e-01 -2.367733120632172228e-01 1.869921833694853652e-01
1.325128205128205394e+00 9.596929652020287360e-01 -1.163285144869762866e-01 2.558244239050434521e-01
1.394871794871795023e+00 9.474436302457384107e-01 8.636678405953668314e-03 3.197895184638697152e-01
1.464615384615384874e+00 9.156618025114126036e-01 1.343404140541778480e-01 3.788216196619133003e-01
1.534358974358974503e+00 8.640499326183412876e-01 2.568003335438250323e-01 4.329680984959453638e-01
1.604102564102564354e+00 7.930625649575039349e-01 3.719613698596719864e-01 4.823763793227082153e-01
1.673846153846154206e+00 7.039410292456436125e-01 4.758652956292771519e-01 5.272665599114468860e-01
1.743589743589743835e+00 5.987086040637954465e-01 5.648026625684483548e-01 5.679235891091719557e-01
1.813333333333333686e+00 4.801467995778320730e-01 6.354926438859024307e-01 6.046484139891180609e-01
1.883076923076923315e+00 3.516963884687655528e-01 6.852291533008735280e-01 6.377794657045976479e-01
1.952820512820513166e+00 2.173640422686900497e-01 7.120383626760136142e-01 6.676425329470985215e-01
2.022564102564103017e+00 8.155312794424421363e-02 7.147878135438142655e-01 6.945646851449841508e-01
2.092307692307692424e+00 -5.110258422725372229e-02 6.932776677135931154e-01 7.188515625222231531e-01
2.162051282051282275e+00 -1.759334521343071389e-01 6.482914757292052021e-01 7.407825793643563195e-01
2.231794871794872126e+00 -2.884572014377690952e-01 5.815961305890717803e-01 7.606128734972203986e-01
2.301538461538461977e+00 -3.845877664165563425e-01 4.959013297477753990e-01 7.785678874704768937e-01
2.371282051282051828e+00 -4.608432395058102982e-01 3.947609726701495347e-01 7.948467515136455885e-01
2.441025641025641235e+00 -5.145150574546224487e-01 2.824487406350941754e-01 8.096241625412318177e-01
2.510769230769231086e+00 -5.438438695096107223e-01 1.637681332377361465e-01 8.230482440437665304e-01
2.580512820512820937e+00 -5.481111566252678813e-01 4.383893215675904731e-02 8.352526953726794323e-01
2.650256410256410788e+00 -5.277067637906808217e-01 -7.212935823321442452e-02 8.463556544077196486e-01
2.720000000000000195e+00 -4.841372091895295160e-01 -1.791038624680159619e-01 8.564625618695758114e-01
