0.000000000000000000e+00 1.455522996159034846e-12 6.278217820640867463e-13 -1.000000000000000000e+00
6.974358974358975394e-02 1.016589498358597410e-01 4.404867051807584422e-02 -9.938436358701553397e-01
1.394871794871795079e-01 2.013475269503464948e-01 8.843400694495119618e-02 -9.755196562902650470e-01
2.092307692307692757e-01 2.971366145955563476e-01 1.334745335921476705e-01 -9.454598781290552978e-01
2.789743589743590158e-01 3.871775839540435582e-01 1.794495437597474208e-01 -9.043734736224494641e-01
3.487179487179487558e-01 4.697439589098718615e-01 2.265860313506118384e-01 -8.532287989814607565e-01
4.184615384615385514e-01 5.432638874893543912e-01 2.750372262228283349e-01 -7.932331767484133156e-01
4.882051282051282914e-01 6.063551851818868021e-01 3.248755648909600890e-01 -7.258024914830956131e-01
5.579487179487180315e-01 6.578543205374217662e-01 3.760763418331050101e-01 -6.525291395261257898e-01
6.276923076923077716e-01 6.968385129467471462e-01 4.285123983464484976e-01 -5.751462519946247687e-01
6.974358974358975116e-01 7.226491651699074037e-01 4.819487465572899199e-01 -4.954831880196079452e-01
7.671794871794872517e-01 7.348999056595545420e-01 5.360429133635504773e-01 -4.154276392445704902e-01
8.369230769230771028e-01 7.334900447020283876e-01 5.903434534550900947e-01 -3.368782587160178976e-01
9.066666666666668428e-01 7.186036991676550967e-01 6.442994390304828123e-01 -2.617001264852107378e-01
9.764102564102565829e-01 6.907044757763045606e-01 6.972701141623158794e-01 -1.916812846009649240e-01
1.046153846153846212e+00 6.505313707853777050e-01 7.485307390844054831e-01 -1.284938445667230533e-01
1.115897435897436063e+00 5.990750531123187894e-01 7.972986876145538027e-01 -7.364701459492305202e-02
1.185641025641025914e+00 5.375663516141825360e-01 8.427409352159886957e-01 -2.846284373521203517e-02
1.255384615384615543e+00 4.674399465579894830e-01 8.840046576773625819e-01 5.971691288351528744e-03
1.325128205128205394e+00 3.903139143166268754e-01 9.202307789396155790e-01 2.881599375786124753e-02
1.394871794871795023e+00 3.079510651235234375e-01 9.505817709637676138e-01 3.950238070845740745e-02
1.464615384615384874e+00 2.222200994297247600e-01 9.742654127058114621e-01 3.775093173175592121e-02
1.534358974358974503e+00 1.350607467770065240e-01 9.905567812057413102e-01 2.357663538048715424e-02
1.604102564102564354e+00 4.844333249557000731e-02 9.988222589889342862e-01 -2.708972565694763197e-03
1.673846153846154206e+00 -3.567821443194019171e-02 9.985419278335999627e-01 -4.051028636489591161e-02
1.743589743589743835e+00 -1.154022751999855267e-01 9.893284593144783257e-01 -8.894669304867118542e-02
1.813333333333333686e+00 -1.889204642094979292e-01 9.709449944665896615e-01 -1.468838857463495851e-01
1.883076923076923315e+00 -2.545559744427191573e-01 9.433181747392807015e-01 -2.129602711157008166e-01
1.952820512820513166e+00 -3.107977878513471515e-01 9.065516250732525982e-01 -2.856026717286459515e-01
2.022564102564103017e+00 -3.563346239780252889e-01 8.609297546064451634e-01 -3.630779436947790817e-01
2.092307692307692424e+00 -3.900804110635223143e-01 8.069213079874230088e-01 -4.435259581068684009e-01
2.162051282051282275e+00 -4.111947080665580012e-01 7.451806010369279587e-01 -5.249997939485161469e-01
2.231794871794872126e+00 -4.191067616863363154e-01 6.765373731346074893e-01 -6.055135877450481541e-01
2.301538461538461977e+00 -4.135207005541162717e-01 6.019871576600783758e-01 -6.830901054583004006e-01
2.371282051282051828e+00 -3.944257777932361764e-01 5.226833554441354668e-01 -7.557978670670402188e-01
2.441025641025641235e+00 -3.620933711512286379e-01 4.399030785993549575e-01 -8.218112143844701345e-01
2.510769230769231086e+00 -3.170768070443670261e-01 3.550441924407738981e-01 -8.794350003314109765e-01
2.580512820512820937e+00 -2.601933264372411903e-01 2.695809308088077949e-01 -9.271599401232037962e-01
2.650256410256410788e+00 -1.925103105885001831e-01 1.850516037930348967e-01 -9.636885825402414785e-01
2.720000000000000195e+00 -1.153222673914127000e-01 1.030128902046106021e-01 -9.879722258492945608e-01
