0.000000000000000000e+00 2.184215909333310945e-09 5.495542658006135405e-10 -1.000000000000000000e+00
6.974358974358975394e-02 1.525833248464143060e-02 9.023567442955937601e-02 -9.958031162282501292e-01
1.394871794871795079e-01 2.870404248729181360e-02 1.797785181227010420e-01 -9.832873713481606881e-01
2.092307692307692757e-01 3.860372499395400836e-02 2.678833384069835843e-01 -9.626763037767969156e-01
2.789743589743590158e-01 4.331679286355299280e-02 3.537556724729857827e-01 -9.343323979201559881e-01
3.487179487179487558e-01 4.135830218991545792e-02 4.365052104637728303e-01 -8.987481151487602959e-01
4.184615384615385514e-01 3.145091665943641757e-02 5.151346603417299441e-01 -8.565288305021022675e-01
4.882051282051282914e-01 1.257587228756279485e-02 5.885315065490802633e-01 -8.083724691156872755e-01
5.579487179487180315e-01 -1.599415307715229551e-02 6.554638832392687409e-01 -7.550522312075458320e-01
6.276923076923077716e-01 -5.464251336706488216e-02 7.146022050790598046e-01 -6.973876318911911287e-01
6.974358974358975116e-01 -1.033824101518239919e-01 7.645339792526347766e-01 -6.362316436884800641e-01
7.671794871794872517e-01 -1.618278408147738046e-01 8.038181218582096665e-01 -5.724318690932228559e-01
8.369230769230771028e-01 -2.291847999868754648e-01 8.310203858414216826e-01 -5.068222784033874495e-01
9.066666666666668428e-01 -3.042416546802133581e-01 8.447791821550144631e-01 -4.401975699383073315e-01
9.764102564102565829e-01 -3.853778713975751780e-01 8.438717685486781805e-01 -3.732995335916807211e-01
1.046153846153846212e+00 -4.705876815779881372e-01 8.272905190993513624e-01 -3.067986401558053799e-01
1.115897435897436063e+00 -5.575301507354331054e-01 7.943076458769544601e-01 -2.412942845699340977e-01
1.185641025641025914e+00 -6.435719180915685511e-01 7.445607385516395116e-01 -1.772897662963539567e-01
1.255384615384615543e+00 -7.258662209924741093e-01 6.781088222235528429e-01 -1.152116168033652105e-01
1.325128205128205394e+00 -8.014414433698522355e-01 5.954926996591157762e-01 -5.538062249837096690e-02
1.394871794871795023e+00 -8.672961110897232651e-01 4.977756529266265106e-01 1.947688210175056766e-03
1.464615384615384874e+00 -9.205173404253162994e-01 3.865645270043075454e-01 5.659193257304651753e-02
1.534358974358974503e+00 -9.583914954769265915e-01 2.640182911085692252e-01 1.084764074099012487e-01
1.604102564102564354e+00 -9.785328714877487011e-01 1.328203828418325072e-01 1.575414145078085637e-01
1.673846153846154206e+00 -9.789943052084277841e-01 -3.864295283399765690e-03 2.038198327233686769e-01
1.743589743589743835e+00 -9.583889361311556110e-01 -1.424681225756825875e-01 2.473477238789267840e-01
1.813333333333333686e+00 -9.159735030931531741e-01 -2.791124778149271513e-01 2.882298378649172377e-01
1.883076923076923315e+00 -8.517408556523899943e-01 -4.097295497968996836e-01 3.265687085076148244e-01
1.952820512820513166e+00 -7.664700005482244505e-01 -5.302070445248318054e-01 3.624808430170792795e-01
2.022564102564103017e+00 -6.617415080259725357e-01 -6.365431097662466176e-01 3.961052995296281964e-01
2.092307692307692424e+00 -5.399450738172958397e-01 -7.250012376595090791e-01 4.275759378556246437e-01
2.162051282051282275e+00 -4.042244398204533073e-01 -7.922889658799883161e-01 4.570227057122096537e-01
2.231794871794872126e+00 -2.584060454796839323e-01 -8.357090736178327539e-01 4.845675997492147058e-01
2.301538461538461977e+00 -1.068838566992764139e-01 -8.532974232754149124e-01 5.103417632068395493e-01
2.371282051282051828e+00 4.553277895853860557e-02 -8.439670081689080172e-01 5.344493047703804400e-01
2.441025641025641235e+00 1.937931525792282450e-01 -8.075773761106644910e-01 5.570034475966382237e-01
2.510769230769231086e+00 3.327921762827268926e-01 -7.450058340684213576e-01 5.781053422885777948e-01
2.580512820512820937e+00 4.576008004055390765e-01 -6.581604178252875581e-01 5.978433602552334358e-01
2.650256410256410788e+00 5.636617488567779999e-01 -5.499443530780246947e-01 6.163093112422433073e-01
2.720000000000000195e+00 6.470062655373736149e-01 -4.241832831725316777e-01 6.335947201797602624e-01
