0.000000000000000000e+00 3.324404830328282783e-09 4.817752267203848097e-10 -1.000000000000000000e+00
6.974358974358975394e-02 -1.682528421063408941e-02 7.005073815057626108e-02 -9.974011299148585197e-01
1.394871794871795079e-01 -3.473426436556689700e-02 1.392837431889546729e-01 -9.896423699893279746e-01
2.092307692307692757e-01 -5.473903956419848282e-02 2.068609164855624849e-01 -9.768366604759161076e-01
2.789743589743590158e-01 -7.779506904581171001e-02 2.719167994846738434e-01 -9.591694486211513881e-01
3.487179487179487558e-01 -1.047575996510925478e-01 3.335567875804147375e-01 -9.368893760833121309e-01
4.184615384615385514e-01 -1.363313769133480957e-01 3.908319862535057920e-01 -9.103072293070152421e-01
4.882051282051282914e-01 -1.730516409252912946e-01 4.427528620949010563e-01 -8.797825201222254643e-01
5.579487179487180315e-01 -2.152508081728370937e-01 4.882914601310628933e-01 -8.457138485155183405e-01
6.276923076923077716e-01 -2.630318564311900920e-01 5.263856930484133168e-01 -8.085325518259430799e-01
6.974358974358975116e-01 -3.162463997914353175e-01 5.559728754634247760e-01 -7.686833638590232498e-01
7.671794871794872517e-01 -3.744819183476635893e-01 5.759995414525639346e-01 -7.266214439661288216e-01
8.369230769230771028e-01 -4.370429419383938252e-01 5.854655823616570220e-01 -6.827984388678944860e-01
9.066666666666668428e-01 -5.029611574796903906e-01 5.834570175315183516e-01 -6.376499223383029769e-01
9.764102564102565829e-01 -5.709855861503523311e-01 5.691885235521539910e-01 -5.915984164160525971e-01
1.046153846153846212e+00 -6.396155313854559044e-01 5.420535141062743367e-01 -5.450304265974567075e-01
1.115897435897436063e+00 -7.071149912837411122e-01 5.016708043889331892e-01 -4.982995518235260324e-01
1.185641025641025914e+00 -7.715527334576477436e-01 4.479268831811996088e-01 -4.517244693042881676e-01
1.255384615384615543e+00 -8.308479639005296180e-01 3.810243276734678886e-01 -4.055845215041187224e-01
1.325128205128205394e+00 -8.828341037883594700e-01 3.015168457414361125e-01 -3.601081229717329468e-01
1.394871794871795023e+00 -9.253097216605703501e-01 2.103418966985324268e-01 -3.155062551354633760e-01
1.464615384615384874e+00 -9.561360963200215002e-01 1.088336235145390685e-01 -2.719278356300073307e-01
1.534358974358974503e+00 -9.733015033139148509e-01 -1.264752316609829563e-03 -2.294953340069522674e-01
1.604102564102564354e+00 -9.750108998145757822e-01 -1.178185098556585597e-01 -1.883026323718331174e-01
1.673846153846154206e+00 -9.597723528872668108e-01 -2.383205510950553441e-01 -1.484100352188399974e-01
1.743589743589743835e+00 -9.264787122324162905e-01 -3.599344831740141082e-01 -1.098609881887469275e-01
1.813333333333333686e+00 -8.744855437103015161e-01 -4.795611270774452484e-01 -7.267156005943432862e-02
1.883076923076923315e+00 -8.036779619675065156e-01 -5.939097532869410667e-01 -3.684979368286048912e-02
1.952820512820513166e+00 -7.145207379779597856e-01 -6.995994294351356446e-01 -2.389015840075117518e-03
2.022564102564103017e+00 -6.081010457668563074e-01 -7.932549710437843959e-01 3.073498773115940566e-02
2.092307692307692424e+00 -4.861385330478326106e-01 -8.716329881441217120e-01 6.253200125525468223e-02
2.162051282051282275e+00 -3.509757787404216844e-01 -9.317419949967984394e-01 9.304794678085333282e-02
2.231794871794872126e+00 -2.055508940051903322e-01 -9.709669008860314365e-01 1.222996760689829127e-01
2.301538461538461977e+00 -5.334171838895895856e-02 -9.871895354902976427e-01 1.503218238049193189e-01
2.371282051282051828e+00 1.017318307389094567e-01 -9.789037762960346445e-01 1.771531915836458138e-01
2.441025641025641235e+00 2.554015167601045855e-01 -9.453107723146269015e-01 2.028373483072084815e-01
2.510769230769231086e+00 4.031949016600935298e-01 -8.864031590534005023e-01 2.273956890006992859e-01
2.580512820512820937e+00 5.405722243756012624e-01 -8.030096140758749002e-01 2.508842628399983177e-01
2.650256410256410788e+00 6.631033001329764698e-01 -6.968287348392943059e-01 2.733303616281743120e-01
2.720000000000000195e+00 7.666274654627989182e-01 -5.704093680658652854e-01 2.947903018400220843e-01
