0.000000000000000000e+00 -1.916793752560649578e-09 -4.619006011773766366e-12 -1.000000000000000000e+00
6.974358974358975394e-02 -3.609390079044431932e-02 4.023844108158311506e-02 -9.985376953503697361e-01
1.394871794871795079e-01 -7.198275673595563862e-02 8.031706194079034355e-02 -9.941662602420019423e-01
2.092307692307692757e-01 -1.074378566382501177e-01 1.200892709636911249e-01 -9.869316252581248339e-01
2.789743589743590158e-01 -1.422507165740190260e-01 1.594087702449817068e-01 -9.769090946632149608e-01
3.487179487179487558e-01 -1.762292676352574250e-01 1.981341781715825479e-01 -9.642008714089920218e-01
4.184615384615385514e-01 -2.091890753146222748e-01 2.361329206112010026e-01 -9.489350952926870475e-01
4.882051282051282914e-01 -2.409700257596134876e-01 2.732818758004051940e-01 -9.312607083902011418e-01
5.579487179487180315e-01 -2.714240860073598438e-01 3.094716276838083702e-01 -9.113461015576349578e-01
6.276923076923077716e-01 -3.004322212087027211e-01 3.446002343393130829e-01 -8.893739332313460588e-01
6.974358974358975116e-01 -3.278939589338806249e-01 3.785844002783440021e-01 -8.655366165677160772e-01
7.671794871794872517e-01 -3.537297176092727424e-01 4.113515075449123981e-01 -8.400350347493502623e-01
8.369230769230771028e-01 -3.778842923034412271e-01 4.428426371703121922e-01 -8.130725138806783603e-01
9.066666666666668428e-01 -4.003247020355136798e-01 4.730145685332705074e-01 -7.848501981271539529e-01
9.764102564102565829e-01 -4.210336313337431635e-01 5.018343783763542509e-01 -7.555692392401881508e-01
1.046153846153846212e+00 -4.400198247506422189e-01 5.292850091026074510e-01 -7.254180435322858944e-01
1.115897435897436063e+00 -4.572979563360427546e-01 5.553597339594641413e-01 -6.945826376503119182e-01
1.185641025641025914e+00 -4.729045323859960570e-01 5.800624870417853129e-01 -6.632339116098786569e-01
1.255384615384615543e+00 -4.868865422844697033e-01 6.034052771822613348e-01 -6.315326763443467328e-01
1.325128205128205394e+00 -4.992997237712845648e-01 6.254150865168706108e-01 -5.996209403881554989e-01
1.394871794871795023e+00 -5.102040477019391673e-01 6.461175256560945934e-01 -5.676381683979605519e-01
1.464615384615384874e+00 -5.196712480239331633e-01 6.655511691786676343e-01 -5.356978341452054426e-01
1.534358974358974503e+00 -5.277700645562728443e-01 6.837547811420289223e-01 -5.039112491889395917e-01
1.604102564102564354e+00 -5.345779417752680729e-01 7.007749750791761878e-01 -4.723652410860387785e-01
1.673846153846154206e+00 -5.401678364362595408e-01 7.166564871825097383e-01 -4.411461901126097485e-01
1.743589743589743835e+00 -5.446155131385088666e-01 7.314518476556969295e-01 -4.103164983537594956e-01
1.813333333333333686e+00 -5.479907096065129712e-01 7.452075188341722445e-01 -3.799462844519461147e-01
1.883076923076923315e+00 -5.503667879262007512e-01 7.579758384339035926e-01 -3.500800662611831537e-01
1.952820512820513166e+00 -5.518139067946883358e-01 7.698073814882883115e-01 -3.207566570028380082e-01
2.022564102564103017e+00 -5.523973056250249813e-01 7.807500924683586918e-01 -2.920156752480697615e-01
2.092307692307692424e+00 -5.521825130023294559e-01 7.908523166857029940e-01 -2.638817398438282336e-01
2.162051282051282275e+00 -5.512297575913319703e-01 8.001598994934981945e-01 -2.363815564159066906e-01
2.231794871794872126e+00 -5.495983199705309907e-01 8.087189557534957274e-01 -2.095270230093475294e-01
2.301538461538461977e+00 -5.473470481110314090e-01 8.165711886512252438e-01 -1.833271079653736035e-01
2.371282051282051828e+00 -5.445269815600266572e-01 8.237582965281371461e-01 -1.577931624400753796e-01
2.441025641025641235e+00 -5.411874459113830138e-01 8.303208780011528400e-01 -1.329261483166739033e-01
2.510769230769231086e+00 -5.373797482409709003e-01 8.362941720682505187e-01 -1.087243186909492842e-01
2.580512820512820937e+00 -5.331483954654525625e-01 8.417142643732478113e-01 -8.518070221348700288e-02
2.650256410256410788e+00 -5.285347887864539906e-01 8.466146108135343962e-01 -6.229376045434489167e-02
2.720000000000000195e+00 -5.235780389209647723e-01 8.510275451941331504e-01 -4.004953790128505664e-02
