0.000000000000000000e+00 -4.434879358359558503e-09 -6.354919813216844598e-10 -1.000000000000000000e+00
6.974358974358975394e-02 6.818969926166244810e-02 1.230152502116963475e-01 -9.900587334761189462e-01
1.394871794871795079e-01 1.345553770260033422e-01 2.435477642344740234e-01 -9.605087451249425534e-01
2.092307692307692757e-01 1.973720997601339788e-01 3.591750354231642572e-01 -9.121589741950784092e-01
2.789743589743590158e-01 2.550670145315843129e-01 4.676295995520986515e-01 -8.463205702789282636e-01
3.487179487179487558e-01 3.062942422094606654e-01 5.668591384584100723e-01 -7.647537916515150247e-01
4.184615384615385514e-01 3.499948091238551662e-01 6.550835650514548192e-01 -6.695981794149691302e-01
4.882051282051282914e-01 3.854326076204509510e-01 7.308531355414957797e-01 -5.632821839288423282e-01
5.579487179487180315e-01 4.122218993677718712e-01 7.930753189590152852e-01 -4.484363087804114634e-01
6.276923076923077716e-01 4.303263996674832614e-01 8.410506118854088609e-01 -3.277846402170790374e-01
6.974358974358975116e-01 4.400458816798115680e-01 8.744771094357612906e-01 -2.040553997162384836e-01
7.671794871794872517e-01 4.419904118530044723e-01 8.934501776908412296e-01 -7.987601870563761086e-02
8.369230769230771028e-01 4.370276409654693106e-01 8.984465509575577657e-01 4.230283918987618602e-02
9.066666666666668428e-01 4.262244012737385623e-01 8.902974057043819833e-01 1.602883544414953620e-01
9.764102564102565829e-01 4.107884313097054374e-01 8.701396461014435646e-01 2.722118760856453434e-01
1.046153846153846212e+00 3.919897018714841308e-01 8.393720139081386478e-01 3.765483918122660700e-01
1.115897435897436063e+00 3.710992860280171723e-01 7.995901218908749719e-01 4.721563424439108592e-01
1.185641025641025914e+00 3.493213396111354285e-01 7.525255183442020046e-01 5.582753055333258274e-01
1.255384615384615543e+00 3.277331537916191029e-01 6.999742422256022278e-01 6.345228006282577216e-01
1.325128205128205394e+00 3.072475525423462028e-01 6.437328133182729228e-01 7.008565943982407731e-01
1.394871794871795023e+00 2.885715420933512854e-01 5.855356447404315157e-01 7.575408906921579089e-01
1.464615384615384874e+00 2.721975365557883775e-01 5.269950675416730235e-01 8.050957276667548568e-01
1.534358974358974503e+00 2.583925460870258872e-01 4.695492878102791590e-01 8.442463183559875128e-01
1.604102564102564354e+00 2.472104448644442121e-01 4.144262070389629904e-01 8.758616273016602838e-01
1.673846153846154206e+00 2.385183379392281644e-01 3.626139727454337769e-01 9.008975021942874362e-01
1.743589743589743835e+00 2.320221567801042384e-01 3.148536172204318695e-01 9.203420845206998768e-01
1.813333333333333686e+00 2.273165189923425367e-01 2.716199657659715272e-01 9.351720663278623169e-01
1.883076923076923315e+00 2.239139594955394663e-01 2.331449033253744363e-01 9.463103583624061788e-01
1.952820512820513166e+00 2.213016749391372162e-01 1.994376754211170388e-01 9.545929583816573638e-01
2.022564102564103017e+00 2.189772847589048499e-01 1.703022067354951208e-01 9.607517008286615701e-01
2.092307692307692424e+00 2.164925744837597199e-01 1.453896630140983914e-01 9.653966439714540826e-01
2.162051282051282275e+00 2.134694762259589929e-01 1.242231378584092161e-01 9.690187737430232540e-01
2.231794871794872126e+00 2.096347574976679118e-01 1.062551930327094996e-01 9.719882723933290780e-01
2.301538461538461977e+00 2.048255580927973163e-01 9.090360904289657151e-02 9.745671954868081466e-01
2.371282051282051828e+00 1.989860762647088221e-01 7.759426942764234558e-02 9.769247423563506283e-01
2.441025641025641235e+00 1.921716157844237660e-01 6.579651434698298440e-02 9.791523171055230845e-01
2.510769230769231086e+00 1.845225960050475567e-01 5.504031432128241724e-02 9.812850947531183143e-01
2.580512820512820937e+00 1.762505995708117945e-01 4.495364664427978219e-02 9.833175715066807543e-01
2.650256410256410788e+00 1.676104234993019693e-01 3.525882850996308465e-02 9.852219020100301261e-01
2.720000000000000195e+00 1.588712725475009413e-01 2.578305924504895041e-02 9.869619407955290136e-01
