1.000000000000000056e-01 1.851056968825930127e-01 2.070461264331695944e-02 -8.811999045975538181e-01
2.000000000000000111e-01 3.582934479639244274e-01 4.841311123732516125e-02 -8.236907852274821806e-01
2.999999999999999889e-01 5.085657459207157949e-01 8.908402549724786512e-02 -7.346758893623106523e-01
4.000000000000000222e-01 6.266970502941836552e-01 1.467066785636655102e-01 -6.236507784301115187e-01
5.000000000000000000e-01 7.059376727333173118e-01 2.226118215896918107e-01 -5.024851428760506167e-01
5.999999999999999778e-01 7.425362042670219376e-01 3.150948377790915300e-01 -3.841645912441116195e-01
6.999999999999999556e-01 7.360097109515294500e-01 4.194034712020654476e-01 -2.814283175830656902e-01
7.999999999999999334e-01 6.891684155680303236e-01 5.281069338437260896e-01 -2.054083154850290804e-01
8.999999999999999112e-01 6.078748025067033378e-01 6.318013239777092727e-01 -1.644394390218452129e-01
9.999999999999998890e-01 5.005644610180441934e-01 7.200908988367510366e-01 -1.631437249211369345e-01
1.099999999999999867e+00 3.775638971610301153e-01 7.827357970700120626e-01 -2.019120516188390724e-01
1.199999999999999956e+00 2.502605379612665715e-01 8.108523813790838863e-01 -2.768012525407227420e-01
1.300000000000000044e+00 1.301900446917320098e-01 7.980267625384839247e-01 -3.798965818626969249e-01
1.399999999999999911e+00 2.811259892008433070e-02 7.412169785387829890e-01 -5.000935661238903318e-01
1.500000000000000000e+00 -4.684403561798079763e-02 6.413440825227741948e-01 -6.242062515441731962e-01
1.599999999999999867e+00 -8.790689551036048877e-02 5.034867191106600082e-01 -7.383200384556042328e-01
1.699999999999999956e+00 -9.119493520151836230e-02 3.366480187871082608e-01 -8.292307157156101338e-01
1.800000000000000044e+00 -5.601690695214966292e-02 1.531085042940731611e-01 -8.858274264370215034e-01
1.899999999999999911e+00 1.509289081958592460e-02 -3.260081084559361686e-02 -9.002871049802652070e-01
2.000000000000000000e+00 1.165948144003227660e-01 -2.049954667193637781e-01 -8.689409138664259125e-01
2.099999999999999645e+00 2.404052111608601661e-01 -3.490811864082427607e-01 -7.927352173040359551e-01
2.199999999999999734e+00 3.765879234910928242e-01 -4.518317025276028520e-01 -6.772206070674017253e-01
2.299999999999999822e+00 5.141629359096236973e-01 -5.035062812308241931e-01 -5.320828446503970133e-01
2.399999999999999911e+00 6.420346907743162967e-01 -4.987079681453178703e-01 -3.702358892907356980e-01
2.500000000000000000e+00 7.499044678990128832e-01 -4.370559688923307817e-01 -2.065796485059392118e-01
2.600000000000000089e+00 8.291347462175617800e-01 -3.233773675532084502e-01 -5.653968105124451693e-02
2.699999999999999734e+00 8.734627462934191344e-01 -1.674208896552284442e-01 6.546320260201007879e-02
2.799999999999999822e+00 8.795290166063945980e-01 1.692556772016490241e-02 1.474819948315959639e-01
2.899999999999999911e+00 8.471570630421395576e-01 2.128437630961395322e-01 1.812698247284994790e-01
3.000000000000000000e+00 7.793691958920471174e-01 4.020850551398325590e-01 1.631562209206660619e-01
