1.000000000000000056e-01 1.579083857368242805e-01 -1.306853856816770632e-01 -8.769484601046478867e-01
2.000000000000000111e-01 2.997164033970216579e-01 -2.596395241121716158e-01 -8.070841816628948617e-01
2.999999999999999889e-01 4.109248041321161837e-01 -3.848702449531231640e-01 -6.987708435867701073e-01
4.000000000000000222e-01 4.800871614319173197e-01 -5.039134790483242865e-01 -5.633174183904441357e-01
5.000000000000000000e-01 4.999569431979572487e-01 -6.137215098663321156e-01 -4.148864513827902334e-01
5.999999999999999778e-01 4.682282469895313048e-01 -7.106788423679232247e-01 -2.690305354805605509e-01
6.999999999999999556e-01 3.877978341138928475e-01 -7.907595139178061894e-01 -1.410793203853195343e-01
7.999999999999999334e-01 2.665150320440726750e-01 -8.498242722808478922e-01 -4.454362184735397023e-02
8.999999999999999112e-01 1.164415085949719736e-01 -8.840293102622180932e-01 1.029914975113913923e-02
9.999999999999998890e-01 -4.728871782154119019e-02 -8.902985562982508316e-01 1.749507482635848446e-02
1.099999999999999867e+00 -2.079367974454974788e-01 -8.668139423310731173e-01 -2.393549654486985465e-02
1.199999999999999956e+00 -3.487754091323372885e-01 -8.134492655174173636e-01 -1.098468420663931688e-01
1.300000000000000044e+00 -4.547221657685087681e-01 -7.320925110963596438e-01 -2.313578592685724689e-01
1.399999999999999911e+00 -5.138273908676052049e-01 -6.267974814610118850e-01 -3.757127114990460037e-01
1.500000000000000000e+00 -5.184630577967987985e-01 -5.037316630069840206e-01 -5.275578460509543488e-01
1.599999999999999867e+00 -4.661127317215738031e-01 -3.708972981409496827e-01 -6.704891649354735028e-01
1.699999999999999956e+00 -3.596633362057152783e-01 -2.376324208161493257e-01 -7.887326368664958620e-01
1.800000000000000044e+00 -2.071960757439526013e-01 -1.139319393324022406e-01 -8.687598477869367120e-01
1.899999999999999911e+00 -2.126488361075782110e-02 -9.626474037214975341e-03 -9.007094403224386037e-01
2.000000000000000000e+00 1.822494325776275181e-01 6.648691771843867615e-02 -8.794417375853453844e-01
2.099999999999999645e+00 3.856179507767014125e-01 1.074986054527520135e-01 -8.051290514089987083e-01
2.199999999999999734e+00 5.709130956047017147e-01 1.091177004329453859e-01 -6.833178355856200925e-01
2.299999999999999822e+00 7.217058702084980792e-01 7.021420471549044695e-02 -5.244457653338537861e-01
2.399999999999999911e+00 8.246151752594630402e-01 -6.904087741198203232e-03 -3.428681939397453249e-01
2.500000000000000000e+00 8.705901530406339184e-01 -1.165190521245451916e-01 -1.554664783755249913e-01
2.600000000000000089e+00 8.557772083880813563e-01 -2.498506071706557141e-01 1.999548335336916519e-02
2.699999999999999734e+00 7.819082112775631588e-01 -3.957112740605082668e-01 1.666407282961990810e-01
2.799999999999999822e+00 6.561618663597655887e-01 -5.414169042704520818e-01 2.701524290946491491e-01
2.899999999999999911e+00 4.905144422192684872e-01 -6.738762871591298387e-01 3.202449420401151103e-01
3.000000000000000000e+00 3.006262124936328051e-01 -7.807776247072666376e-01 3.117243470247412773e-01
