1.000000000000000056e-01 -1.727458310530778085e-01 2.026112540461298683e-01 -8.599077219782255144e-01
2.000000000000000111e-01 -3.241485660409988978e-01 3.903713988589449513e-01 -7.406100429345567893e-01
2.999999999999999889e-01 -4.381064227564441804e-01 5.489259483264283812e-01 -5.545875434409088811e-01
4.000000000000000222e-01 -4.995941535595877503e-01 6.669297996435574749e-01 -3.202333289259545190e-01
5.000000000000000000e-01 -4.996216379451039469e-01 7.364449205610299476e-01 -6.078006228771400815e-02
5.999999999999999778e-01 -4.360435402065003796e-01 7.536786841470490828e-01 1.981996629782147579e-01
6.999999999999999556e-01 -3.133781808769391386e-01 7.193177441147342588e-01 4.311686135968602063e-01
7.999999999999999334e-01 -1.424308714134440712e-01 6.384128759774378992e-01 6.151397774689451037e-01
8.999999999999999112e-01 6.073508103205695063e-02 5.198816758247692960e-01 7.319428619758434618e-01
9.999999999999998890e-01 2.763856832758299076e-01 3.756720590274847393e-01 7.700234119661989451e-01
1.099999999999999867e+00 4.830999582352871746e-01 2.196542990176759136e-01 7.255883730483370098e-01
1.199999999999999956e+00 6.599231383748054292e-01 6.636635848873422006e-02 6.029830971022017705e-01
1.300000000000000044e+00 7.885068192985902336e-01 -7.029905040536819916e-02 4.142715591310967005e-01
1.399999999999999911e+00 8.549932722693298626e-01 -1.783234646900438425e-01 1.780596444673694378e-01
1.500000000000000000e+00 8.514726971265039746e-01 -2.486134919694208412e-01 -8.233242777899174580e-02
1.599999999999999867e+00 7.768520272010467353e-01 -2.757650027071262833e-01 -3.411589855106529345e-01
1.699999999999999956e+00 6.370484731329369987e-01 -2.584856173676660096e-01 -5.727818692979818049e-01
1.800000000000000044e+00 4.444871732215683879e-01 -1.996303800942947071e-01 -7.541902798456514567e-01
1.899999999999999911e+00 2.169411607019696153e-01 -1.058593984710222702e-01 -8.672714473406785141e-01
2.000000000000000000e+00 -2.416080554696987612e-02 1.304465769785724885e-02 -9.005961743269311759e-01
2.099999999999999645e+00 -2.558272099450951131e-01 1.451532270394924329e-01 -8.505581822463716968e-01
2.199999999999999734e+00 -4.557366650028092936e-01 2.775318144504032580e-01 -7.217364938152420750e-01
2.299999999999999822e+00 -6.044521072992961042e-01 3.974692408673986543e-01 -5.264611027459223935e-01
2.399999999999999911e+00 -6.873508683277215203e-01 4.936684061912191557e-01 -2.836111419511065379e-01
2.500000000000000000e+00 -6.960996324910279087e-01 5.572760403085488257e-01 -1.677816961460640993e-02
2.600000000000000089e+00 -6.295210652882295976e-01 5.826833122798824594e-01 2.480480484763153692e-01
2.699999999999999734e+00 -4.937613890486245438e-01 5.679999616126747419e-01 4.850223721160569212e-01
2.799999999999999822e+00 -3.017392373947831441e-01 5.151779039631992907e-01 6.709791162415388310e-01
2.899999999999999911e+00 -7.192739942591611091e-02 4.297694051639784352e-01 7.877082078322408254e-01
3.000000000000000000e+00 1.734197869821750004e-01 3.203487560679486590e-01 8.237484985997050035e-01
