1.000000000000000056e-01 1.238895900340636902e-01 -1.143847899436285925e-01 -8.848192259724484421e-01
2.000000000000000111e-01 2.461403239554888489e-01 -2.171113412415599242e-01 -8.378216972667270612e-01
2.999999999999999889e-01 3.648478133127543432e-01 -2.976834487602136869e-01 -7.652035579427993728e-01
4.000000000000000222e-01 4.776292208939768025e-01 -3.478137141072379368e-01 -6.748906650089092629e-01
5.000000000000000000e-01 5.815095154011249434e-01 -3.622637555288918954e-01 -5.767639509827938715e-01
5.999999999999999778e-01 6.729334380807961979e-01 -3.393899009255252341e-01 -4.815996359221415002e-01
6.999999999999999556e-01 7.479257872244732264e-01 -2.813414887984011514e-01 -3.999080404356145091e-01
7.999999999999999334e-01 8.023927332903058041e-01 -1.938925703783180299e-01 -3.407858854896976819e-01
8.999999999999999112e-01 8.325248174566387549e-01 -8.592533101852629918e-02 -3.109267321664777040e-01
9.999999999999998890e-01 8.352828505206171261e-01 3.139252883109455716e-02 -3.138547063295928363e-01
1.099999999999999867e+00 8.088848290407618657e-01 1.456631524990837923e-01 -3.495083393971824548e-01
1.199999999999999956e+00 7.532452478284761277e-01 2.444369547428782430e-01 -4.141870152939128857e-01
1.300000000000000044e+00 6.702982600701626881e-01 3.164119717822901912e-01 -5.008874468901862720e-01
1.399999999999999911e+00 5.641485672894752668e-01 3.525396743363189977e-01 -5.999957107441269422e-01
1.500000000000000000e+00 4.410174444521576254e-01 3.469274462763997091e-01 -7.002599080158187217e-01
1.599999999999999867e+00 3.089563413677453019e-01 2.974588640804761708e-01 -7.899551506942592560e-01
1.699999999999999956e+00 1.773488724395175797e-01 2.060567355936214207e-01 -8.581159551066411817e-01
1.800000000000000044e+00 5.621002322508158316e-02 7.858613958382096309e-02 -8.957113016796414140e-01
1.899999999999999911e+00 -4.463635824962923493e-02 -7.563210529729683107e-02 -8.966391192179421488e-01
2.000000000000000000e+00 -1.164369406539448315e-01 -2.446159530264103432e-01 -8.584339187192253640e-01
2.099999999999999645e+00 -1.523728967692592473e-01 -4.147936441752890224e-01 -7.826119451864907983e-01
2.199999999999999734e+00 -1.482976589792496802e-01 -5.722102860432308757e-01 -6.746157539348588417e-01
2.299999999999999822e+00 -1.032797890207887009e-01 -7.038062676995062716e-01 -5.433504381836412600e-01
2.399999999999999911e+00 -1.987810042678728184e-02 -7.986158404407855960e-01 -4.003540161093783190e-01
2.500000000000000000e+00 9.588848393290633210e-02 -8.487792355422099089e-01 -2.586958737564900024e-01
2.600000000000000089e+00 2.349133659519403450e-01 -8.502925746276698282e-01 -1.316809847400564060e-01
2.699999999999999734e+00 3.856598486395777514e-01 -8.034021970017568570e-01 -3.152149715427284005e-02
2.799999999999999822e+00 5.351042064443101154e-01 -7.126187108127780556e-01 3.191142024678486622e-02
2.899999999999999911e+00 6.698535580064337580e-01 -5.863385808803094346e-01 5.212658035614145535e-02
3.000000000000000000e+00 7.773398648285564372e-01 -4.361195899900895956e-01 2.672873818996776563e-02
