1.000000000000000056e-01 9.756165535285025170e-01 1.219865800330739714e-02 1.218478846818959842e-02 0.000000000000000000e+00 -5.864489680267803706e-02 9.198906872642739763e-02 1.090247370480196265e-01 1.134923089918252019e-03 -6.446532614532323076e-03 -1.034796040806462529e-02 0.000000000000000000e+00 0.000000000000000000e+00 0.000000000000000000e+00 0.000000000000000000e+00 0.000000000000000000e+00 0.000000000000000000e+00
2.000000000000000111e-01 9.058249238583138130e-01 4.720833152706386399e-02 4.696674461462369693e-02 0.000000000000000000e+00 -1.165865975066610327e-01 1.707924137442230483e-01 2.060817070106243099e-01 8.601040624694957989e-03 -2.490257437814172303e-02 -3.996352636907079398e-02 0.000000000000000000e+00 0.000000000000000000e+00 0.000000000000000000e+00 0.000000000000000000e+00 0.000000000000000000e+00 0.000000000000000000e+00
2.999999999999999889e-01 7.999726616278560742e-01 1.006042311212049789e-01 9.942310725093531087e-02 0.000000000000000000e+00 -1.720134863296434724e-01 2.255925421030956501e-01 2.807731665135996257e-01 2.649899416171809866e-02 -5.290030249698986914e-02 -8.487604642261421806e-02 0.000000000000000000e+00 0.000000000000000000e+00 0.000000000000000000e+00 0.000000000000000000e+00 0.000000000000000000e+00 0.000000000000000000e+00
4.000000000000000222e-01 6.714252930179112067e-01 1.660275736504408794e-01 1.625471333316503841e-01 0.000000000000000000e+00 -2.214475409112325599e-01 2.498721651687838274e-01 3.257168516313955764e-01 5.519772825842084868e-02 -8.688504969567241443e-02 -1.394212834901563391e-01 0.000000000000000000e+00 0.000000000000000000e+00 0.000000000000000000e+00 0.000000000000000000e+00 0.000000000000000000e+00 0.000000000000000000e+00
5.000000000000000000e-01 5.348841604221287183e-01 2.364234414375805948e-01 2.286923981402887440e-01 0.000000000000000000e+00 -2.600665398039405107e-01 2.425377266484738947e-01 3.376876123088146664e-01 9.105502662280103021e-02 -1.228994510880251634e-01 -1.973929297640971414e-01 0.000000000000000000e+00 0.000000000000000000e+00 0.000000000000000000e+00 0.000000000000000000e+00 0.000000000000000000e+00 0.000000000000000000e+00
5.999999999999999778e-01 4.037628294308342469e-01 3.052545907993797214e-01 2.909825797697851435e-01 0.000000000000000000e+00 -2.828621114214821541e-01 2.079410569517418927e-01 3.181856052040038518e-01 1.274592889648514527e-01 -1.572671584161398073e-01 -2.531616266358661660e-01 0.000000000000000000e+00 0.000000000000000000e+00 0.000000000000000000e+00 0.000000000000000000e+00 0.000000000000000000e+00 0.000000000000000000e+00
6.999999999999999556e-01 2.881541959928085594e-01 3.674602487470387535e-01 3.443855552601506886e-01 0.000000000000000000e+00 -2.862247234041074284e-01 1.547921840128235749e-01 2.732103544709429399e-01 1.568191474128219076e-01 -1.871400124376829677e-01 -3.025336634905199662e-01 0.000000000000000000e+00 0.000000000000000000e+00 0.000000000000000000e+00 0.000000000000000000e+00 0.000000000000000000e+00 0.000000000000000000e+00
7.999999999999999334e-01 1.938690540386021621e-01 4.199287976631648767e-01 3.862021482982329057e-01 0.000000000000000000e+00 -2.693518005290693185e-01 9.413185602736147406e-02 2.121237679150017874e-01 1.728471933301616026e-01 -2.107891427544288654e-01 -3.431404101611331137e-01 0.000000000000000000e+00 0.000000000000000000e+00 0.000000000000000000e+00 0.000000000000000000e+00 0.000000000000000000e+00 0.000000000000000000e+00
8.999999999999999112e-01 1.225150810799139067e-01 4.614990201727520724e-01 4.159858987473355474e-01 0.000000000000000000e+00 -2.349085509538253735e-01 3.685868353321269247e-02 1.457666188421924691e-01 1.723851470667119579e-01 -2.276285938969761502e-01 -3.743825689274217217e-01 0.000000000000000000e+00 0.000000000000000000e+00 0.000000000000000000e+00 0.000000000000000000e+00 0.000000000000000000e+00 0.000000000000000000e+00
9.999999999999998890e-01 7.238118857412563500e-02 4.925933458218734184e-01 4.350254656040012380e-01 0.000000000000000000e+00 -1.886304352584536326e-01 -8.546970933210112573e-03 8.425813836764886600e-02 1.561673024331799164e-01 -2.380232635908092753e-01 -3.970334691275327899e-01 0.000000000000000000e+00 0.000000000000000000e+00 0.000000000000000000e+00 0.000000000000000000e+00 0.000000000000000000e+00 0.000000000000000000e+00
1.099999999999999867e+00 3.973543109519512423e-02 5.146513763545088604e-01 4.456131925502946900e-01 0.000000000000000000e+00 -1.379890202259554111e-01 -3.753564376538878755e-02 3.504834797054882933e-02 1.283676188518716454e-01 -2.429732902460254307e-01 -4.126735066522005946e-01 0.000000000000000000e+00 0.000000000000000000e+00 0.000000000000000000e+00 0.000000000000000000e+00 0.000000000000000000e+00 0.000000000000000000e+00
1.199999999999999956e+00 2.010779746042441057e-02 5.295578052694482896e-01 4.503343972701256415e-01 0.000000000000000000e+00 -9.034845453570378160e-02 -4.985376443499218990e-02 1.754551134575885836e-03 9.514281044284374211e-02 -2.437735044943161733e-01 -4.231460428275832242e-01 0.000000000000000000e+00 0.000000000000000000e+00 0.000000000000000000e+00 0.000000000000000000e+00 0.000000000000000000e+00 0.000000000000000000e+00
1.300000000000000044e+00 9.277872480019036180e-03 5.391956410566255409e-01 4.515264864633569686e-01 0.000000000000000000e+00 -5.127562196719272908e-02 -4.871754250613911236e-02 -1.587732042650054701e-02 6.274644071442506132e-02 -2.417292258941471927e-01 -4.301489215012711531e-01 0.000000000000000000e+00 0.000000000000000000e+00 0.000000000000000000e+00 0.000000000000000000e+00 0.000000000000000000e+00 0.000000000000000000e+00
1.399999999999999911e+00 3.845630930068820192e-03 5.451674364164947884e-01 4.509869326534363676e-01 0.000000000000000000e+00 -2.352294900771087841e-02 -3.928337558738855678e-02 -2.107782106800217339e-02 3.591733193174029282e-02 -2.379691548836506687e-01 -4.350104266042409962e-01 0.000000000000000000e+00 0.000000000000000000e+00 0.000000000000000000e+00 0.000000000000000000e+00 0.000000000000000000e+00 0.000000000000000000e+00
1.500000000000000000e+00 1.399597340871178977e-03 5.487008945905664792e-01 4.498995080685633252e-01 0.000000000000000000e+00 -6.938393400679278983e-03 -2.682944252526034065e-02 -1.849687137653712940e-02 1.695711899472791828e-02 -2.333610386902503220e-01 -4.386375362106645914e-01 0.000000000000000000e+00 0.000000000000000000e+00 0.000000000000000000e+00 0.000000000000000000e+00 0.000000000000000000e+00 0.000000000000000000e+00
1.599999999999999867e+00 4.317037106376948180e-04 5.506571863747390383e-01 4.489111099146209649e-01 0.000000000000000000e+00 7.414729622563268844e-04 -1.540035541352953452e-02 -1.265717690582751458e-02 5.795899137292405065e-03 -2.284990093265194533e-01 -4.415703018241389777e-01 0.000000000000000000e+00 0.000000000000000000e+00 0.000000000000000000e+00 0.000000000000000000e+00 0.000000000000000000e+00 0.000000000000000000e+00
1.699999999999999956e+00 1.057727289141562098e-04 5.516094319765660892e-01 4.482847952945219761e-01 0.000000000000000000e+00 2.732710604197394980e-03 -7.132846278817272200e-03 -6.850968593616177729e-03 6.931880918078003667e-04 -2.237451166739529429e-01 -4.440903557367341659e-01 0.000000000000000000e+00 0.000000000000000000e+00 0.000000000000000000e+00 0.000000000000000000e+00 0.000000000000000000e+00 0.000000000000000000e+00
1.800000000000000044e+00 1.793062653596439203e-05 5.519311468967641465e-01 4.480509224767010856e-01 0.000000000000000000e+00 2.043084937615133236e-03 -2.392120757761996563e-03 -2.746153093269832271e-03 -7.017476447661638150e-04 -2.192880575910994556e-01 -4.463250018839011179e-01 0.000000000000000000e+00 0.000000000000000000e+00 0.000000000000000000e+00 0.000000000000000000e+00 0.000000000000000000e+00 0.000000000000000000e+00
1.899999999999999911e+00 1.336815438729845883e-06 5.518643753835282828e-01 4.481342878010350916e-01 0.000000000000000000e+00 7.718529587319483860e-04 -3.767790527493395021e-04 -6.070780368494911681e-04 -4.801163747202305348e-04 -2.152021272022272280e-01 -4.483273282672592952e-01 0.000000000000000000e+00 0.000000000000000000e+00 0.000000000000000000e+00 0.000000000000000000e+00 0.000000000000000000e+00 0.000000000000000000e+00
2.000000000000000000e+00 2.572517496172095977e-08 5.515702371033758267e-01 4.484297371714485725e-01 0.000000000000000000e+00 -7.145413368887448889e-05 9.516929635223358866e-05 1.050635401118868765e-04 2.182114366668246288e-05 -2.114902531439637190e-01 -4.501248374381970341e-01 0.000000000000000000e+00 0.000000000000000000e+00 0.000000000000000000e+00 0.000000000000000000e+00 0.000000000000000000e+00 0.000000000000000000e+00
2.099999999999999645e+00 1.910993897602979028e-07 5.511563132204573279e-01 4.488434956801493625e-01 0.000000000000000000e+00 -3.243443044137450898e-04 1.004499018575704484e-05 1.307079744321265212e-04 2.620464997786171369e-04 -2.081208089332123590e-01 -4.517395877924020309e-01 0.000000000000000000e+00 0.000000000000000000e+00 0.000000000000000000e+00 0.000000000000000000e+00 0.000000000000000000e+00 0.000000000000000000e+00
2.199999999999999734e+00 1.071200606531570069e-07 5.506919202276356895e-01 4.493079726523053763e-01 0.000000000000000000e+00 -2.225832167335244310e-04 -9.712188884631121736e-05 2.950140345313815602e-06 2.193390283086925027e-04 -2.050461261720822881e-01 -4.531957153082896705e-01 0.000000000000000000e+00 0.000000000000000000e+00 0.000000000000000000e+00 0.000000000000000000e+00 0.000000000000000000e+00 0.000000000000000000e+00
2.299999999999999822e+00 1.532810918984337524e-08 5.502184490243203774e-01 4.497815356475701187e-01 0.000000000000000000e+00 -5.988241723382375101e-05 -6.937341343713724229e-05 -3.529900653715356519e-05 7.496316088601788063e-05 -2.022172670225325930e-01 -4.545176298662511050e-01 0.000000000000000000e+00 0.000000000000000000e+00 0.000000000000000000e+00 0.000000000000000000e+00 0.000000000000000000e+00 0.000000000000000000e+00
2.399999999999999911e+00 9.228531841663586879e-10 5.497572606608954748e-01 4.502427384162516200e-01 0.000000000000000000e+00 1.805045893499186851e-05 1.135263330990088557e-05 2.857659434805465009e-06 -1.908472516289995218e-05 -1.995907965733041411e-01 -4.557276910882876453e-01 0.000000000000000000e+00 0.000000000000000000e+00 0.000000000000000000e+00 0.000000000000000000e+00 0.000000000000000000e+00 0.000000000000000000e+00
2.500000000000000000e+00 8.192301733874675685e-09 5.493167830089659143e-01 4.506832087987331370e-01 0.000000000000000000e+00 1.532940652349252359e-05 6.509129672224785060e-05 4.863262616347358139e-05 -3.610791746338384806e-05 -1.971313482849811893e-01 -4.568447022070184493e-01 0.000000000000000000e+00 0.000000000000000000e+00 0.000000000000000000e+00 0.000000000000000000e+00 0.000000000000000000e+00 0.000000000000000000e+00
2.600000000000000089e+00 6.996150286487175210e-09 5.488969809549166801e-01 4.511030120489331052e-01 0.000000000000000000e+00 -1.266959550547819997e-05 6.022770886494205751e-05 5.473792173771629873e-05 -1.080682919368359957e-05 -1.948115944361862029e-01 -4.578837451619627852e-01 0.000000000000000000e+00 0.000000000000000000e+00 0.000000000000000000e+00 0.000000000000000000e+00 0.000000000000000000e+00 0.000000000000000000e+00
2.699999999999999734e+00 1.415044271002422654e-09 5.484957652471196266e-01 4.515042333378362915e-01 0.000000000000000000e+00 -1.773843174614475796e-05 2.036552646850101910e-05 2.326635271779863690e-05 7.687803771485059902e-06 -1.926130134279436246e-01 -4.588555186900481475e-01 0.000000000000000000e+00 0.000000000000000000e+00 0.000000000000000000e+00 0.000000000000000000e+00 0.000000000000000000e+00 0.000000000000000000e+00
2.799999999999999822e+00 1.131877047833875690e-10 5.481095130125521742e-01 4.518904868742607550e-01 0.000000000000000000e+00 1.385865678664972056e-06 -4.645561146219467425e-06 -4.378528695541132184e-06 4.523213013374203102e-07 -1.905210160084301330e-01 -4.597686561221143720e-01 0.000000000000000000e+00 0.000000000000000000e+00 0.000000000000000000e+00 0.000000000000000000e+00 0.000000000000000000e+00 0.000000000000000000e+00
2.899999999999999911e+00 8.333279912777152826e-10 5.477359436463761222e-01 4.522640555202963042e-01 0.000000000000000000e+00 1.886698834377295114e-05 -7.652190043953788497e-06 -1.292912475974574490e-05 -1.323270757855591928e-05 -1.885264215262384135e-01 -4.606289912841730616e-01 0.000000000000000000e+00 0.000000000000000000e+00 0.000000000000000000e+00 0.000000000000000000e+00 0.000000000000000000e+00 0.000000000000000000e+00
3.000000000000000000e+00 1.044824194952201048e-09 5.473745966080405534e-01 4.526254023471340537e-01 0.000000000000000000e+00 2.272837302095415203e-05 5.339388084276160528e-07 -7.298874164840193573e-06 -1.934223476643101545e-05 -1.866209196238374779e-01 -4.614415232511854814e-01 0.000000000000000000e+00 0.000000000000000000e+00 0.000000000000000000e+00 0.000000000000000000e+00 0.000000000000000000e+00 0.000000000000000000e+00
