1.000000000000000056e-01 -2.708041920177060580e-01 -1.487527080921504374e-01 -9.511068420319437333e-01
2.000000000000000111e-01 -4.978837750397447359e-01 -3.047074874179147574e-01 -8.117037777341319371e-01
2.999999999999999889e-01 -6.453704223273830642e-01 -4.681991222181905998e-01 -6.015774871136295721e-01
4.000000000000000222e-01 -6.914872592308972665e-01 -6.286151927511631765e-01 -3.479784642837714381e-01
5.000000000000000000e-01 -6.324866410385171500e-01 -7.649740754431240131e-01 -7.978277718585838341e-02
5.999999999999999778e-01 -4.839916720474067846e-01 -8.514317383144404117e-01 1.774093140644003308e-01
6.999999999999999556e-01 -2.787967452548921754e-01 -8.662424630992346941e-01 4.045948620592910716e-01
7.999999999999999334e-01 -6.014523869190246952e-02 -8.008255306380243077e-01 5.908940131762546732e-01
8.999999999999999112e-01 1.288172880152929078e-01 -6.648425654847446298e-01 7.333567263813622894e-01
9.999999999999998890e-01 2.562666529200560150e-01 -4.846023221525139202e-01 8.352422467684830210e-01
1.099999999999999867e+00 3.092309911618431051e-01 -2.951880185666311829e-01 9.035490676155483181e-01
1.199999999999999956e+00 2.947786477459570231e-01 -1.297063151294921002e-01 9.465454048391382935e-01
1.300000000000000044e+00 2.345932049300596400e-01 -1.016994637179061134e-02 9.719798167005594403e-01
1.399999999999999911e+00 1.558593542660160480e-01 5.681178320719434960e-02 9.861252479269446702e-01
1.500000000000000000e+00 8.218265448254118144e-02 7.845838111566511008e-02 9.935188278329734057e-01
1.599999999999999867e+00 2.782160335321249428e-02 7.011821382536742586e-02 9.971492619743428376e-01
1.699999999999999956e+00 -3.378729624441891011e-03 4.840840517915389468e-02 9.988215890090483828e-01
1.800000000000000044e+00 -1.534247166861112122e-02 2.604210560688271017e-02 9.995430355432540770e-01
1.899999999999999911e+00 -1.541309124986275057e-02 9.694563240220045036e-03 9.998341986663257241e-01
2.000000000000000000e+00 -1.056614335674402674e-02 7.570601602049000650e-04 9.999438877545442361e-01
2.099999999999999645e+00 -5.399922785349728534e-03 -2.481156425392937008e-03 9.999823417721893648e-01
2.199999999999999734e+00 -1.883977345249635308e-03 -2.598954094585067751e-03 9.999948479615954344e-01
2.299999999999999822e+00 -1.727435984174793566e-04 -1.658076569254970066e-03 9.999986104632164752e-01
2.399999999999999911e+00 3.497269072028439535e-04 -7.524150656796199307e-04 9.999996557867022462e-01
2.500000000000000000e+00 3.276799492521963696e-04 -2.209388502904182663e-04 9.999999219110566884e-01
2.600000000000000089e+00 1.816442044112233378e-04 -7.105235317197619842e-06 9.999999834825096245e-01
2.699999999999999734e+00 6.418516158543084997e-05 3.907263228435344979e-05 9.999999971844603097e-01
2.799999999999999822e+00 1.475588940946391788e-05 2.589262754242590027e-05 9.999999995622517179e-01
2.899999999999999911e+00 -6.621604988609427648e-07 1.143156386445178466e-05 9.999999999406034012e-01
3.000000000000000000e+00 -6.410374371964706108e-07 5.341703346215831720e-06 9.999999999913637971e-01
