1.000000000000000056e-01 1.197623575310596128e-01 -1.266463084595670363e-01 -9.845435170021890059e-01
2.000000000000000111e-01 2.459849320689507235e-01 -2.371826273524015316e-01 -9.390643087201101524e-01
2.999999999999999889e-01 3.824000490797664353e-01 -3.157842160099923468e-01 -8.661270126951401416e-01
4.000000000000000222e-01 5.276406454573072669e-01 -3.476440326348633758e-01 -7.696663035580366685e-01
5.000000000000000000e-01 6.735607846345814664e-01 -3.204754604452123568e-01 -6.545511456934387517e-01
5.999999999999999778e-01 8.047180021618387524e-01 -2.268884838460270836e-01 -5.260793378813867216e-01
6.999999999999999556e-01 8.994376258829273052e-01 -6.737455251183628591e-02 -3.895499349218972118e-01
7.999999999999999334e-01 9.329231662244042989e-01 1.466954245919441513e-01 -2.498666763515412226e-01
8.999999999999999112e-01 8.824277932879981412e-01 3.911880017301800905e-01 -1.112728962156099566e-01
9.999999999999998890e-01 7.340285910977056849e-01 6.296271613589430327e-01 2.277504725067223956e-02
1.099999999999999867e+00 4.897826919876923091e-01 8.171886205931617742e-01 1.496105087812228396e-01
1.199999999999999956e+00 1.731216915413684998e-01 9.088320885972549501e-01 2.673790315261876382e-01
1.300000000000000044e+00 -1.701258625987982498e-01 8.708433035178058113e-01 3.748748364234488761e-01
1.399999999999999911e+00 -4.774385697057574873e-01 6.932928005234593183e-01 4.715128612537859421e-01
1.500000000000000000e+00 -6.828257967471021983e-01 3.992866781525528652e-01 5.571709775008515386e-01
1.599999999999999867e+00 -7.355645433607101991e-01 4.618649970521911119e-02 6.321071258094347334e-01
1.699999999999999956e+00 -6.192752128999979844e-01 -2.846778223102892080e-01 6.968457071787980128e-01
1.800000000000000044e+00 -3.637190771766849462e-01 -5.096306353159247848e-01 7.521190366408625483e-01
1.899999999999999911e+00 -4.232871309053853892e-02 -5.701938532868721099e-01 7.987820414121643564e-01
2.000000000000000000e+00 2.474606197248414852e-01 -4.566711485371280355e-01 8.377536193561913036e-01
2.099999999999999645e+00 4.167347030009094788e-01 -2.166372998088085811e-01 8.699791198981254858e-01
2.199999999999999734e+00 4.189434048656704435e-01 5.851389444126511852e-02 8.963781304236013714e-01
2.299999999999999822e+00 2.700448910324220186e-01 2.668676657600902447e-01 9.178169086040102176e-01
2.399999999999999911e+00 4.363960611959216696e-02 3.369363883953845340e-01 9.350921491885855197e-01
2.500000000000000000e+00 -1.597467118417606469e-01 2.578065640329844088e-01 9.489144423797534200e-01
2.600000000000000089e+00 -2.571227141059972965e-01 8.300422312047853191e-02 9.599067110395939073e-01
2.699999999999999734e+00 -2.202836975227450700e-01 -9.604876543877072237e-02 9.686018668954089472e-01
2.799999999999999822e+00 -8.651438408860265272e-02 -1.951631473531788563e-01 9.754483182914626127e-01
2.899999999999999911e+00 6.378215100091612355e-02 -1.784067510869229711e-01 9.808213918200561210e-01
3.000000000000000000e+00 1.513909786590818540e-01 -7.297166190810319697e-02 9.850237180579937135e-01
