1.000000000000000056e-01 9.756172052159505226e-01 0.000000000000000000e+00 2.422846052910309494e-02 1.543342549433006318e-04 0.000000000000000000e+00 0.000000000000000000e+00 -6.521746891420038186e-04 1.537441954126775034e-01 0.000000000000000000e+00 0.000000000000000000e+00 0.000000000000000000e+00 0.000000000000000000e+00 -1.096140816612662912e-03 1.593033809110205911e-03 -1.007925475633098325e-02 -6.998555446474996784e-03
2.000000000000000111e-01 9.058580751174942769e-01 0.000000000000000000e+00 9.175647666467744157e-02 2.385448217828143192e-03 0.000000000000000000e+00 0.000000000000000000e+00 -4.897157122175861514e-03 2.882609289929119467e-01 0.000000000000000000e+00 0.000000000000000000e+00 0.000000000000000000e+00 0.000000000000000000e+00 -8.541976638355828003e-03 1.207952643708534030e-02 -3.749298399907773083e-02 -2.748005974865928500e-02
3.000000000000000444e-01 8.001416848143056981e-01 0.000000000000000000e+00 1.884542935199683411e-01 1.140402166572544382e-02 0.000000000000000000e+00 0.000000000000000000e+00 -1.485928252104309205e-02 3.880326502420474166e-01 0.000000000000000000e+00 0.000000000000000000e+00 0.000000000000000000e+00 0.000000000000000000e+00 -2.757056201775868673e-02 3.726930313407830070e-02 -7.456464605959323144e-02 -5.970717432324167823e-02
4.000000000000000222e-01 6.718982350148309246e-01 0.000000000000000000e+00 2.948147599158403853e-01 3.328700506932784353e-02 0.000000000000000000e+00 0.000000000000000000e+00 -3.032878106677866156e-02 4.440334242993482783e-01 0.000000000000000000e+00 0.000000000000000000e+00 0.000000000000000000e+00 0.000000000000000000e+00 -6.128444054918774642e-02 7.783134173558425850e-02 -1.109206161260522655e-01 -1.003100039124774495e-01
5.000000000000000000e-01 5.358462167863389247e-01 0.000000000000000000e+00 3.906983236593140618e-01 7.345545955434754082e-02 0.000000000000000000e+00 0.000000000000000000e+00 -4.880094301779169114e-02 4.549425091066345850e-01 0.000000000000000000e+00 0.000000000000000000e+00 0.000000000000000000e+00 0.000000000000000000e+00 -1.098958534578206442e-01 1.289256619173518303e-01 -1.363986984515199452e-01 -1.440702091117217198e-01
5.999999999999999778e-01 4.053227573986990517e-01 0.000000000000000000e+00 4.598085680778240536e-01 1.348686745234757567e-01 0.000000000000000000e+00 0.000000000000000000e+00 -6.639093337194133804e-02 4.265713547067359057e-01 0.000000000000000000e+00 0.000000000000000000e+00 0.000000000000000000e+00 0.000000000000000000e+00 -1.704121577146069932e-01 1.815859812596130052e-01 -1.438545525189618146e-01 -1.843128067251199043e-01
7.000000000000000666e-01 2.903031494996115014e-01 0.000000000000000000e+00 4.927222862833668948e-01 2.169745642170217981e-01 0.000000000000000000e+00 0.000000000000000000e+00 -7.919624407738300176e-02 3.698199379834390954e-01 0.000000000000000000e+00 0.000000000000000000e+00 0.000000000000000000e+00 0.000000000000000000e+00 -2.369271318792753878e-01 2.253302853873722644e-01 -1.310431758435147975e-01 -2.140469235105493251e-01
8.000000000000000444e-01 1.964536410452545623e-01 0.000000000000000000e+00 4.878536079210942789e-01 3.156927510336512421e-01 0.000000000000000000e+00 0.000000000000000000e+00 -8.457514459413320584e-02 2.978047388655202798e-01 0.000000000000000000e+00 0.000000000000000000e+00 0.000000000000000000e+00 0.000000000000000000e+00 -3.015866790724142099e-01 2.511121712912771087e-01 -1.010050080684975621e-01 -2.276334305872799446e-01
9.000000000000000222e-01 1.252738452982837536e-01 0.000000000000000000e+00 4.504210066052603545e-01 4.243051480964553646e-01 0.000000000000000000e+00 0.000000000000000000e+00 -8.185349254746551728e-02 2.229932224591467671e-01 0.000000000000000000e+00 0.000000000000000000e+00 0.000000000000000000e+00 0.000000000000000000e+00 -3.560422209041382291e-01 2.536727986388420120e-01 -6.088529430471303211e-02 -2.223675299617950685e-01
1.000000000000000000e+00 7.502900597027409302e-02 0.000000000000000000e+00 3.900664322002040940e-01 5.349045618295256155e-01 0.000000000000000000e+00 0.000000000000000000e+00 -7.230519856710161675e-02 1.550427518788045078e-01 0.000000000000000000e+00 0.000000000000000000e+00 0.000000000000000000e+00 0.000000000000000000e+00 -3.930919361298501058e-01 2.326521948202222578e-01 -1.960806003027441152e-02 -1.993712152984628283e-01
1.100000000000000089e+00 4.203017074696765998e-02 0.000000000000000000e+00 3.180026853517810004e-01 6.399671439012519780e-01 0.000000000000000000e+00 0.000000000000000000e+00 -5.850120542644485222e-02 9.971617795000631279e-02 0.000000000000000000e+00 0.000000000000000000e+00 0.000000000000000000e+00 0.000000000000000000e+00 -4.080861784622134558e-01 1.922938927318197655e-01 1.477572845709720049e-02 -1.633389305405960057e-01
1.200000000000000178e+00 2.190919491676258934e-02 0.000000000000000000e+00 2.445429322709222475e-01 7.335478728123151493e-01 0.000000000000000000e+00 0.000000000000000000e+00 -4.338571248615150089e-02 5.895268202574602268e-02 0.000000000000000000e+00 0.000000000000000000e+00 0.000000000000000000e+00 0.000000000000000000e+00 -3.997200119841340382e-01 1.400280679242316140e-01 3.715955836531461415e-02 -1.212048288444293603e-01
1.300000000000000266e+00 1.055826536393975924e-02 0.000000000000000000e+00 1.774661158544922901e-01 8.119756187815687642e-01 0.000000000000000000e+00 0.000000000000000000e+00 -2.944495038008434346e-02 3.172899686549484483e-02 0.000000000000000000e+00 0.000000000000000000e+00 0.000000000000000000e+00 0.000000000000000000e+00 -3.700901105580673978e-01 8.444802696870773451e-02 4.630649454507160950e-02 -8.017956478447554880e-02
1.400000000000000133e+00 4.664820977775085802e-03 0.000000000000000000e+00 1.214101403777026189e-01 8.739250386445246432e-01 0.000000000000000000e+00 0.000000000000000000e+00 -1.821184306189543162e-02 1.531944321861294922e-02 0.000000000000000000e+00 0.000000000000000000e+00 0.000000000000000000e+00 0.000000000000000000e+00 -3.240145836932052936e-01 3.343517936598664614e-02 4.438422040679584901e-02 -4.589928990149221011e-02
1.500000000000000222e+00 1.868648928505575041e-03 0.000000000000000000e+00 7.806709800247804698e-02 9.200642530690172904e-01 0.000000000000000000e+00 0.000000000000000000e+00 -1.019330114908184072e-02 6.478936004358481701e-03 0.000000000000000000e+00 0.000000000000000000e+00 0.000000000000000000e+00 0.000000000000000000e+00 -2.679059098062067101e-01 -7.291752366978724621e-03 3.558590591910510553e-02 -2.128192644433729921e-02
1.600000000000000089e+00 6.686823571624877149e-04 0.000000000000000000e+00 4.692267871491857117e-02 9.524086389279173837e-01 0.000000000000000000e+00 0.000000000000000000e+00 -5.107340851181261035e-03 2.300312335259970063e-03 0.000000000000000000e+00 0.000000000000000000e+00 0.000000000000000000e+00 0.000000000000000000e+00 -2.085227893314990644e-01 -3.475357374429369206e-02 2.440058949614420242e-02 -6.439726281866159537e-03
1.700000000000000178e+00 2.092986730932448378e-04 0.000000000000000000e+00 2.611864797971745131e-02 9.736720533471899808e-01 0.000000000000000000e+00 0.000000000000000000e+00 -2.253400002401097137e-03 6.235279887703136948e-04 0.000000000000000000e+00 0.000000000000000000e+00 0.000000000000000000e+00 0.000000000000000000e+00 -1.518594514414375596e-01 -4.867961185819182773e-02 1.426387734787048708e-02 5.745327234641754970e-04
1.800000000000000266e+00 5.555023582931927715e-05 0.000000000000000000e+00 1.325805373725411247e-02 9.866863960269144362e-01 0.000000000000000000e+00 0.000000000000000000e+00 -8.534182463507426417e-04 9.036260423934010840e-05 0.000000000000000000e+00 0.000000000000000000e+00 0.000000000000000000e+00 0.000000000000000000e+00 -1.024208248533934190e-01 -5.090693364177244912e-02 6.939773015958711558e-03 2.578802398198375145e-03
1.900000000000000133e+00 1.189880001659123277e-05 0.000000000000000000e+00 5.975244957877146740e-03 9.940128562421067793e-01 0.000000000000000000e+00 0.000000000000000000e+00 -2.659278722386452468e-04 -1.951086017276947330e-05 0.000000000000000000e+00 0.000000000000000000e+00 0.000000000000000000e+00 0.000000000000000000e+00 -6.286246770904858894e-02 -4.458453122465668578e-02 2.652108945484934512e-03 2.189494962350037495e-03
2.000000000000000000e+00 1.886641937572271603e-06 0.000000000000000000e+00 2.274164595067263220e-03 9.977239487629965264e-01 0.000000000000000000e+00 0.000000000000000000e+00 -6.304242787597527555e-05 -1.778220567446549269e-05 0.000000000000000000e+00 0.000000000000000000e+00 0.000000000000000000e+00 0.000000000000000000e+00 -3.405494398692344993e-02 -3.330539227231568700e-02 6.836199720011486248e-04 1.189544897777560038e-03
2.100000000000000089e+00 1.856720561869851845e-07 0.000000000000000000e+00 6.534657649479812518e-04 9.993463485629971998e-01 0.000000000000000000e+00 0.000000000000000000e+00 -9.493958997193131441e-06 -5.585855580937620129e-06 0.000000000000000000e+00 0.000000000000000000e+00 0.000000000000000000e+00 0.000000000000000000e+00 -1.535250041967178847e-02 -2.042888225180853820e-02 4.842304849910179581e-05 4.280362046368011764e-04
2.200000000000000178e+00 7.569223203803829579e-09 0.000000000000000000e+00 9.961820622321554072e-05 9.999003742245573534e-01 0.000000000000000000e+00 0.000000000000000000e+00 -4.429416677784965798e-07 -7.475111108836751735e-07 0.000000000000000000e+00 0.000000000000000000e+00 0.000000000000000000e+00 0.000000000000000000e+00 -5.044613698712469702e-03 -8.611620885100777778e-03 -4.220489336360968278e-05 7.614638287180645600e-05
2.300000000000000266e+00 3.690311714345928372e-10 0.000000000000000000e+00 9.609240402928552311e-07 9.999990387069273012e-01 0.000000000000000000e+00 0.000000000000000000e+00 1.154658765219813405e-08 1.514861797199745424e-08 0.000000000000000000e+00 0.000000000000000000e+00 0.000000000000000000e+00 0.000000000000000000e+00 -8.696069431118180065e-04 4.522654565784596449e-04 -1.771278463721929187e-05 -8.207132071977756951e-06
2.400000000000000355e+00 2.224081460629861719e-10 0.000000000000000000e+00 3.697505855658936411e-05 9.999630247190340882e-01 0.000000000000000000e+00 0.000000000000000000e+00 -2.044868952190238054e-09 9.379296964716998279e-08 0.000000000000000000e+00 0.000000000000000000e+00 0.000000000000000000e+00 0.000000000000000000e+00 -4.574504018974942673e-04 6.063354402326338009e-03 -1.536046935191472701e-05 -1.465715785017335781e-06
2.500000000000000444e+00 9.305629893603212993e-10 0.000000000000000000e+00 7.319232509940785676e-05 9.999268067443376484e-01 0.000000000000000000e+00 0.000000000000000000e+00 8.626907935462782514e-08 2.481592341561164248e-07 0.000000000000000000e+00 0.000000000000000000e+00 0.000000000000000000e+00 0.000000000000000000e+00 -1.745981485408626454e-03 8.374864403247733041e-03 -3.044518417179421343e-05 3.968974866258240566e-06
2.600000000000000089e+00 1.230856787997081406e-09 0.000000000000000000e+00 7.590413128491690822e-05 9.999240946378586958e-01 0.000000000000000000e+00 0.000000000000000000e+00 6.833824520397892896e-08 3.002991112376073135e-07 0.000000000000000000e+00 0.000000000000000000e+00 0.000000000000000000e+00 0.000000000000000000e+00 -3.185356830750946631e-03 8.108740874083981975e-03 -3.492317903168481292e-05 -5.299100166611480473e-06
2.700000000000000178e+00 7.338837494051373112e-10 0.000000000000000000e+00 5.458826792431146645e-05 9.999454109981938954e-01 0.000000000000000000e+00 0.000000000000000000e+00 6.912281644078711696e-09 2.024159363548992447e-07 0.000000000000000000e+00 0.000000000000000000e+00 0.000000000000000000e+00 0.000000000000000000e+00 -3.880184164250164748e-03 6.287231770679043916e-03 -2.379792111375978968e-05 -1.360473613530742368e-05
2.800000000000000266e+00 2.097660649959372893e-10 0.000000000000000000e+00 2.792443417711101768e-05 9.999720753560570330e-01 0.000000000000000000e+00 0.000000000000000000e+00 -1.608094939949947032e-08 7.868512324584255375e-08 0.000000000000000000e+00 0.000000000000000000e+00 0.000000000000000000e+00 0.000000000000000000e+00 -3.528676515053317825e-03 3.933428922061274653e-03 -9.056975732666722837e-06 -1.219558665880117655e-05
2.900000000000000355e+00 3.703914975256204413e-12 0.000000000000000000e+00 8.788660646182002808e-06 9.999912113356504983e-01 0.000000000000000000e+00 0.000000000000000000e+00 -8.598922664296934219e-09 1.423383312849244796e-08 0.000000000000000000e+00 0.000000000000000000e+00 0.000000000000000000e+00 0.000000000000000000e+00 -2.309748593143252319e-03 1.858340681860415127e-03 -7.275190151747722977e-07 -5.425323955116863586e-06
3.000000000000000444e+00 -2.195286132473208939e-11 0.000000000000000000e+00 6.747899276429371517e-07 9.999993252320229509e-01 0.000000000000000000e+00 0.000000000000000000e+00 -8.132373393147911008e-10 -1.309684691695743288e-10 0.000000000000000000e+00 0.000000000000000000e+00 0.000000000000000000e+00 0.000000000000000000e+00 -6.365491730416701112e-04 5.190046306851968773e-04 9.185764189999980848e-07 -5.322017031988483938e-07
3.100000000000000089e+00 -2.444302537120517733e-11 0.000000000000000000e+00 9.419631407660605751e-07 9.999990580613014046e-01 0.000000000000000000e+00 0.000000000000000000e+00 4.641963780078592240e-10 1.859368785470606291e-10 0.000000000000000000e+00 0.000000000000000000e+00 0.000000000000000000e+00 0.000000000000000000e+00 9.701515016385806522e-04 2.471549228212635837e-05 7.313639323115162998e-07 2.599356769887228402e-07
3.200000000000000178e+00 -2.141830299287758864e-11 0.000000000000000000e+00 4.589473689801915330e-06 9.999954105477276700e-01 0.000000000000000000e+00 0.000000000000000000e+00 3.598939244856955067e-09 -1.225468273640074930e-09 0.000000000000000000e+00 0.000000000000000000e+00 0.000000000000000000e+00 0.000000000000000000e+00 2.131403825531577156e-03 2.153197782410100770e-04 1.749350244116799136e-06 -4.841425104379801887e-07
3.300000000000000266e+00 -2.431666260977617846e-11 0.000000000000000000e+00 7.479121501721307911e-06 9.999925209028172057e-01 0.000000000000000000e+00 0.000000000000000000e+00 8.094103387385013666e-09 -2.904568726131139748e-09 0.000000000000000000e+00 0.000000000000000000e+00 0.000000000000000000e+00 0.000000000000000000e+00 2.631455410698805251e-03 7.444525054812980340e-04 3.250508076100450607e-06 -1.961274459012797888e-07
3.400000000000000355e+00 -2.275102718051197762e-11 0.000000000000000000e+00 7.921716165508804205e-06 9.999920783065868735e-01 0.000000000000000000e+00 0.000000000000000000e+00 1.029574862075429007e-08 -1.083176369853555673e-09 0.000000000000000000e+00 0.000000000000000000e+00 0.000000000000000000e+00 0.000000000000000000e+00 2.505799692997614982e-03 1.281542412315608620e-03 3.522346818188791716e-06 1.156636843650628025e-06
3.500000000000000444e+00 -1.157348259125479046e-11 0.000000000000000000e+00 6.132928914562859148e-06 9.999938670826594711e-01 0.000000000000000000e+00 0.000000000000000000e+00 7.657959200311420313e-09 4.463855345330960003e-10 0.000000000000000000e+00 0.000000000000000000e+00 0.000000000000000000e+00 0.000000000000000000e+00 1.939717425331028951e-03 1.539542462466095881e-03 2.271978736092323164e-06 2.033814637838571893e-06
3.600000000000000089e+00 -3.024729180829046240e-11 0.000000000000000000e+00 3.393573740232160753e-06 9.999966064565083412e-01 0.000000000000000000e+00 0.000000000000000000e+00 3.013514794123101104e-09 8.376453385543952982e-10 0.000000000000000000e+00 0.000000000000000000e+00 0.000000000000000000e+00 0.000000000000000000e+00 1.192056143582976169e-03 1.404377053666404059e-03 6.888446398808715024e-07 1.672813714967669796e-06
3.700000000000000178e+00 -2.817970280167613568e-11 0.000000000000000000e+00 1.144097918377427557e-06 9.999988559302643853e-01 0.000000000000000000e+00 0.000000000000000000e+00 7.390623365196822519e-10 5.217244455956283407e-10 0.000000000000000000e+00 0.000000000000000000e+00 0.000000000000000000e+00 0.000000000000000000e+00 5.377736587276376115e-04 9.244572580664276590e-04 -1.130527621232588020e-07 6.830106793249731379e-07
3.800000000000000266e+00 -3.158247474184242673e-11 0.000000000000000000e+00 8.352626703386108708e-08 9.999999165053131689e-01 0.000000000000000000e+00 0.000000000000000000e+00 -2.550866742684758149e-10 -2.563485586190014377e-10 0.000000000000000000e+00 0.000000000000000000e+00 0.000000000000000000e+00 0.000000000000000000e+00 1.522625494323198584e-04 2.452531511456982434e-04 -1.555927076628264472e-07 3.638385196909747950e-09
3.900000000000000355e+00 -4.396457035252261586e-11 0.000000000000000000e+00 1.894334891702592869e-07 9.999998106104737161e-01 0.000000000000000000e+00 0.000000000000000000e+00 -2.580363241246277800e-10 -7.999086038359670365e-11 0.000000000000000000e+00 0.000000000000000000e+00 0.000000000000000000e+00 0.000000000000000000e+00 8.642703497292329772e-05 -4.261646797583271899e-04 -1.141347324033726569e-07 -8.076311841056536421e-08
4.000000000000000000e+00 -3.943325666956524893e-11 0.000000000000000000e+00 9.230577686666997501e-07 9.999990769816634595e-01 0.000000000000000000e+00 0.000000000000000000e+00 5.387639758553547426e-11 -5.060686250458406610e-10 0.000000000000000000e+00 0.000000000000000000e+00 0.000000000000000000e+00 0.000000000000000000e+00 2.829768146434045420e-04 -9.180312706901671465e-04 -3.534961291662060448e-07 -3.856499183592653413e-08
4.099999999999999645e+00 -3.531802862726844824e-11 0.000000000000000000e+00 1.636324348166185668e-06 9.999983637109677304e-01 0.000000000000000000e+00 0.000000000000000000e+00 -1.267374650890042691e-10 -6.166454036011856154e-10 0.000000000000000000e+00 0.000000000000000000e+00 0.000000000000000000e+00 0.000000000000000000e+00 6.044897012586218556e-04 -1.127242808513015523e-03 -6.613912303911800215e-07 -2.531973716875586230e-07
4.200000000000000178e+00 -3.325390851391086353e-11 0.000000000000000000e+00 1.924905606474232775e-06 9.999980751276471569e-01 0.000000000000000000e+00 0.000000000000000000e+00 1.755363150723229545e-10 -1.458937867399663397e-09 0.000000000000000000e+00 0.000000000000000000e+00 0.000000000000000000e+00 0.000000000000000000e+00 8.964223857262225729e-04 -1.058837907592244170e-03 -6.419037406572092226e-07 -5.951335773293092192e-07
4.299999999999999822e+00 -4.237888661470386264e-11 0.000000000000000000e+00 1.657567481394625563e-06 9.999983424748954963e-01 0.000000000000000000e+00 0.000000000000000000e+00 3.188169863722252745e-10 -6.836038869826570452e-10 0.000000000000000000e+00 0.000000000000000000e+00 0.000000000000000000e+00 0.000000000000000000e+00 1.021699377664988737e-03 -7.832457983795135551e-04 -2.936846254998902733e-07 -7.579876035226370236e-07
4.399999999999999467e+00 -4.351487501109701890e-11 0.000000000000000000e+00 1.079143993708115937e-06 9.999989208995204715e-01 0.000000000000000000e+00 0.000000000000000000e+00 3.260523155214466446e-10 -5.795717850937518086e-10 0.000000000000000000e+00 0.000000000000000000e+00 0.000000000000000000e+00 0.000000000000000000e+00 9.393088971682309008e-04 -4.432944303371501391e-04 5.863400189044686439e-08 -5.500367539171189360e-07
4.500000000000000000e+00 -3.396386235783413709e-11 0.000000000000000000e+00 4.652012556141373304e-07 9.999995348327053168e-01 0.000000000000000000e+00 0.000000000000000000e+00 2.053617612996891234e-11 9.206371232080110180e-11 0.000000000000000000e+00 0.000000000000000000e+00 0.000000000000000000e+00 0.000000000000000000e+00 6.620787204027715886e-04 -1.628921517068166629e-04 1.560228889201112021e-07 -1.974524887057612820e-07
4.599999999999999645e+00 -3.950476906108552980e-11 0.000000000000000000e+00 7.906026370864444857e-08 9.999999209792423960e-01 0.000000000000000000e+00 0.000000000000000000e+00 1.636847209926662961e-10 -7.517217436824553036e-11 0.000000000000000000e+00 0.000000000000000000e+00 0.000000000000000000e+00 0.000000000000000000e+00 2.784588287851475353e-04 -3.517508506033471962e-05 8.424708176106510111e-08 -3.870722480947668499e-09
4.700000000000000178e+00 -4.008558545945184071e-11 0.000000000000000000e+00 1.664010622572209060e-08 9.999999833999771992e-01 0.000000000000000000e+00 0.000000000000000000e+00 -1.307808358148658936e-10 8.922693389725811839e-11 0.000000000000000000e+00 0.000000000000000000e+00 0.000000000000000000e+00 0.000000000000000000e+00 -1.015759629035119596e-04 -7.790132475916266208e-05 9.668929723537243524e-09 5.096488997991159930e-08
4.799999999999999822e+00 -4.010635463222757713e-11 0.000000000000000000e+00 2.071293802310669915e-07 9.999997929107258265e-01 0.000000000000000000e+00 0.000000000000000000e+00 2.008488685474373082e-10 2.447819413885992763e-10 0.000000000000000000e+00 0.000000000000000000e+00 0.000000000000000000e+00 0.000000000000000000e+00 -3.689652148301505920e-04 -2.659210746544523425e-04 5.158730142909905335e-08 5.702682440222440975e-08
4.900000000000000355e+00 -4.175979910021699609e-11 0.000000000000000000e+00 4.806352464720896387e-07 9.999995194065141035e-01 0.000000000000000000e+00 0.000000000000000000e+00 -7.595910568158266795e-11 -2.606221441858479131e-10 0.000000000000000000e+00 0.000000000000000000e+00 0.000000000000000000e+00 0.000000000000000000e+00 -4.748722057799778453e-04 -5.047908553241857964e-04 1.018501895368502756e-07 1.687980071252391146e-07
5.000000000000000000e+00 -3.139982040483898318e-11 0.000000000000000000e+00 6.687973421886286784e-07 9.999993312340538232e-01 0.000000000000000000e+00 0.000000000000000000e+00 -3.164778053208592964e-10 -4.371757482539018716e-12 0.000000000000000000e+00 0.000000000000000000e+00 0.000000000000000000e+00 0.000000000000000000e+00 -4.195955587183230009e-04 -7.018106100762675848e-04 4.893501690271293556e-08 2.964469609968498034e-07
5.099999999999999645e+00 -4.626401646830678708e-11 0.000000000000000000e+00 6.855736612346755698e-07 9.999993144726051497e-01 0.000000000000000000e+00 0.000000000000000000e+00 -5.972483617911031912e-10 -2.248124359333174886e-10 0.000000000000000000e+00 0.000000000000000000e+00 0.000000000000000000e+00 0.000000000000000000e+00 -2.574972096363288901e-04 -7.868070266958204035e-04 -8.992658922708081122e-08 3.098937280319082090e-07
5.200000000000000178e+00 -3.691905958120988817e-11 0.000000000000000000e+00 5.316278796401289888e-07 9.999994684090394159e-01 0.000000000000000000e+00 0.000000000000000000e+00 2.396764577621954003e-10 -5.378524605050990818e-10 0.000000000000000000e+00 0.000000000000000000e+00 0.000000000000000000e+00 0.000000000000000000e+00 -5.968573237187757520e-05 -7.265430685736112663e-04 -1.778849422545654116e-07 1.995869409702789607e-07
5.299999999999999822e+00 -3.256112215619748123e-11 0.000000000000000000e+00 3.068395245200001244e-07 9.999996931930369426e-01 0.000000000000000000e+00 0.000000000000000000e+00 -1.938872448544490875e-10 -2.603151331844310399e-11 0.000000000000000000e+00 0.000000000000000000e+00 0.000000000000000000e+00 0.000000000000000000e+00 7.125324226885884095e-05 -5.490527178557304397e-04 -1.571433799567657923e-07 4.841921134793262289e-08
5.400000000000000355e+00 -6.090386387137250885e-11 0.000000000000000000e+00 1.037798911046939425e-07 9.999998962810126013e-01 0.000000000000000000e+00 0.000000000000000000e+00 5.164910262357695734e-11 9.985726220715667074e-11 0.000000000000000000e+00 0.000000000000000000e+00 0.000000000000000000e+00 0.000000000000000000e+00 1.028787550441897548e-04 -3.047487267635996897e-04 -5.894558208389035782e-08 -1.683102175697002877e-08
5.500000000000000000e+00 -3.371592381535704121e-11 0.000000000000000000e+00 6.283040898310923375e-09 9.999999937506743874e-01 0.000000000000000000e+00 0.000000000000000000e+00 2.602697762918552307e-11 -3.191606238133222004e-10 0.000000000000000000e+00 0.000000000000000000e+00 0.000000000000000000e+00 0.000000000000000000e+00 2.355469767279954574e-05 -7.378744552041444148e-05 2.514280031584748244e-09 -1.594869122028322987e-08
5.599999999999999645e+00 -5.887896060520280663e-11 0.000000000000000000e+00 2.983682300697275297e-08 9.999999702220585540e-01 0.000000000000000000e+00 0.000000000000000000e+00 4.070920430595974615e-12 -2.404802843088176085e-10 0.000000000000000000e+00 0.000000000000000000e+00 0.000000000000000000e+00 0.000000000000000000e+00 -1.519634231680398566e-04 8.081617808729299327e-05 6.219429339745399447e-09 -2.485542185440885896e-08
5.700000000000000178e+00 -5.974588478093669525e-11 0.000000000000000000e+00 1.348684590916025215e-07 9.999998651912862524e-01 0.000000000000000000e+00 0.000000000000000000e+00 5.534035790409989756e-11 -8.002257496495340964e-11 0.000000000000000000e+00 0.000000000000000000e+00 0.000000000000000000e+00 0.000000000000000000e+00 -3.456205105007769470e-04 1.228457796269134361e-04 2.082133943741959351e-08 -5.291848866715347154e-08
5.799999999999999822e+00 -5.353786239954908681e-11 0.000000000000000000e+00 2.564668179795580421e-07 9.999997435867206130e-01 0.000000000000000000e+00 0.000000000000000000e+00 -1.670565463410631093e-10 -4.752321907420266797e-11 0.000000000000000000e+00 0.000000000000000000e+00 0.000000000000000000e+00 0.000000000000000000e+00 -5.016583491565018748e-04 6.774481578424676215e-05 6.754109911754707424e-08 -1.013828349601650718e-07
5.900000000000000355e+00 -5.169846169100068246e-11 0.000000000000000000e+00 3.201912079449176047e-07 9.999996798604906534e-01 0.000000000000000000e+00 0.000000000000000000e+00 1.871780571888854809e-10 -4.059057577234636380e-10 0.000000000000000000e+00 0.000000000000000000e+00 0.000000000000000000e+00 0.000000000000000000e+00 -5.625727529347709617e-04 -5.945273173424296730e-05 1.335107965722372592e-07 -6.080470075104670170e-08
6.000000000000000000e+00 -4.546279084485013918e-11 0.000000000000000000e+00 3.134764100496409208e-07 9.999996865690531367e-01 0.000000000000000000e+00 0.000000000000000000e+00 -3.644976114532084631e-11 3.467605913524658839e-10 0.000000000000000000e+00 0.000000000000000000e+00 0.000000000000000000e+00 0.000000000000000000e+00 -5.278019921201887888e-04 -1.865277131996906281e-04 1.581399640024302570e-07 -7.429590172892820915e-09
