1.000000000000000056e-01 9.774579136026080306e-01 0.000000000000000000e+00 2.254208639739571640e-02 0.000000000000000000e+00 0.000000000000000000e+00 0.000000000000000000e+00 -4.538225934712180470e-02 -1.413307867342872559e-01 0.000000000000000000e+00 0.000000000000000000e+00 0.000000000000000000e+00 0.000000000000000000e+00 0.000000000000000000e+00 0.000000000000000000e+00 0.000000000000000000e+00 0.000000000000000000e+00
2.000000000000000111e-01 9.124508331969871655e-01 0.000000000000000000e+00 8.754916680301158549e-02 0.000000000000000000e+00 0.000000000000000000e+00 0.000000000000000000e+00 -8.573953350066748635e-02 -2.693195919264256832e-01 0.000000000000000000e+00 0.000000000000000000e+00 0.000000000000000000e+00 0.000000000000000000e+00 0.000000000000000000e+00 0.000000000000000000e+00 0.000000000000000000e+00 0.000000000000000000e+00
2.999999999999999889e-01 8.124152645037654441e-01 0.000000000000000000e+00 1.875847354962372204e-01 0.000000000000000000e+00 0.000000000000000000e+00 0.000000000000000000e+00 -1.171000386884794159e-01 -3.724033880234952631e-01 0.000000000000000000e+00 0.000000000000000000e+00 0.000000000000000000e+00 0.000000000000000000e+00 0.000000000000000000e+00 0.000000000000000000e+00 0.000000000000000000e+00 0.000000000000000000e+00
4.000000000000000222e-01 6.884204013871930705e-01 0.000000000000000000e+00 3.115795986128063744e-01 0.000000000000000000e+00 0.000000000000000000e+00 0.000000000000000000e+00 -1.373724883316079781e-01 -4.422969045526797816e-01 0.000000000000000000e+00 0.000000000000000000e+00 0.000000000000000000e+00 0.000000000000000000e+00 0.000000000000000000e+00 0.000000000000000000e+00 0.000000000000000000e+00 0.000000000000000000e+00
5.000000000000000000e-01 5.534389908622819876e-01 0.000000000000000000e+00 4.465610091377174018e-01 0.000000000000000000e+00 0.000000000000000000e+00 0.000000000000000000e+00 -1.467012798810758967e-01 -4.749979038630973704e-01 0.000000000000000000e+00 0.000000000000000000e+00 0.000000000000000000e+00 0.000000000000000000e+00 0.000000000000000000e+00 0.000000000000000000e+00 0.000000000000000000e+00 0.000000000000000000e+00
5.999999999999999778e-01 4.204209067533957733e-01 0.000000000000000000e+00 5.795790932466013956e-01 0.000000000000000000e+00 0.000000000000000000e+00 0.000000000000000000e+00 -1.473440971029086888e-01 -4.711230039022129557e-01 0.000000000000000000e+00 0.000000000000000000e+00 0.000000000000000000e+00 0.000000000000000000e+00 0.000000000000000000e+00 0.000000000000000000e+00 0.000000000000000000e+00 0.000000000000000000e+00
6.999999999999999556e-01 3.004570789502901129e-01 0.000000000000000000e+00 6.995429210497079442e-01 0.000000000000000000e+00 0.000000000000000000e+00 0.000000000000000000e+00 -1.430471308018561594e-01 -4.355687557422845413e-01 0.000000000000000000e+00 0.000000000000000000e+00 0.000000000000000000e+00 0.000000000000000000e+00 0.000000000000000000e+00 0.000000000000000000e+00 0.000000000000000000e+00 0.000000000000000000e+00
7.999999999999999334e-01 2.014258488332555386e-01 0.000000000000000000e+00 7.985741511667482362e-01 0.000000000000000000e+00 0.000000000000000000e+00 0.000000000000000000e+00 -1.380822079628943877e-01 -3.765458539104872271e-01 0.000000000000000000e+00 0.000000000000000000e+00 0.000000000000000000e+00 0.000000000000000000e+00 0.000000000000000000e+00 0.000000000000000000e+00 0.000000000000000000e+00 0.000000000000000000e+00
8.999999999999999112e-01 1.272700315188956266e-01 0.000000000000000000e+00 8.727299684811034020e-01 0.000000000000000000e+00 0.000000000000000000e+00 0.000000000000000000e+00 -1.362366643414942846e-01 -3.041577581895894555e-01 0.000000000000000000e+00 0.000000000000000000e+00 0.000000000000000000e+00 0.000000000000000000e+00 0.000000000000000000e+00 0.000000000000000000e+00 0.000000000000000000e+00 0.000000000000000000e+00
9.999999999999998890e-01 7.799609743303641263e-02 0.000000000000000000e+00 9.220039025669612975e-01 0.000000000000000000e+00 0.000000000000000000e+00 0.000000000000000000e+00 -1.398946208690338422e-01 -2.287841805611824930e-01 0.000000000000000000e+00 0.000000000000000000e+00 0.000000000000000000e+00 0.000000000000000000e+00 0.000000000000000000e+00 0.000000000000000000e+00 0.000000000000000000e+00 0.000000000000000000e+00
1.099999999999999867e+00 5.034376742514204417e-02 0.000000000000000000e+00 9.496562325748573175e-01 0.000000000000000000e+00 0.000000000000000000e+00 0.000000000000000000e+00 -1.495323363976388542e-01 -1.595285331803286133e-01 0.000000000000000000e+00 0.000000000000000000e+00 0.000000000000000000e+00 0.000000000000000000e+00 0.000000000000000000e+00 0.000000000000000000e+00 0.000000000000000000e+00 0.000000000000000000e+00
1.199999999999999956e+00 3.890599446040531734e-02 0.000000000000000000e+00 9.610940055395940096e-01 0.000000000000000000e+00 0.000000000000000000e+00 0.000000000000000000e+00 -1.636651485924385530e-01 -1.029856167052542182e-01 0.000000000000000000e+00 0.000000000000000000e+00 0.000000000000000000e+00 0.000000000000000000e+00 0.000000000000000000e+00 0.000000000000000000e+00 0.000000000000000000e+00 0.000000000000000000e+00
1.300000000000000044e+00 3.745302677677878750e-02 0.000000000000000000e+00 9.625469732232242448e-01 0.000000000000000000e+00 0.000000000000000000e+00 0.000000000000000000e+00 -1.792761452089448315e-01 -6.253288221603200969e-02 0.000000000000000000e+00 0.000000000000000000e+00 0.000000000000000000e+00 0.000000000000000000e+00 0.000000000000000000e+00 0.000000000000000000e+00 0.000000000000000000e+00 0.000000000000000000e+00
1.399999999999999911e+00 4.018425019083221583e-02 0.000000000000000000e+00 9.598157498091700601e-01 0.000000000000000000e+00 0.000000000000000000e+00 0.000000000000000000e+00 -1.926363268357464964e-01 -3.821939077828721831e-02 0.000000000000000000e+00 0.000000000000000000e+00 0.000000000000000000e+00 0.000000000000000000e+00 0.000000000000000000e+00 0.000000000000000000e+00 0.000000000000000000e+00 0.000000000000000000e+00
1.500000000000000000e+00 4.266148259679719557e-02 0.000000000000000000e+00 9.573385174032021938e-01 0.000000000000000000e+00 0.000000000000000000e+00 0.000000000000000000e+00 -2.002488422822013558e-01 -2.723750470150147762e-02 0.000000000000000000e+00 0.000000000000000000e+00 0.000000000000000000e+00 0.000000000000000000e+00 0.000000000000000000e+00 0.000000000000000000e+00 0.000000000000000000e+00 0.000000000000000000e+00
1.599999999999999867e+00 4.231334406531448572e-02 0.000000000000000000e+00 9.576866559346859376e-01 0.000000000000000000e+00 0.000000000000000000e+00 0.000000000000000000e+00 -1.997593648311382364e-01 -2.488214624155117571e-02 0.000000000000000000e+00 0.000000000000000000e+00 0.000000000000000000e+00 0.000000000000000000e+00 0.000000000000000000e+00 0.000000000000000000e+00 0.000000000000000000e+00 0.000000000000000000e+00
1.699999999999999956e+00 3.844429353839155100e-02 0.000000000000000000e+00 9.615557064616122585e-01 0.000000000000000000e+00 0.000000000000000000e+00 0.000000000000000000e+00 -1.905357634070927453e-01 -2.573815746357816653e-02 0.000000000000000000e+00 0.000000000000000000e+00 0.000000000000000000e+00 0.000000000000000000e+00 0.000000000000000000e+00 0.000000000000000000e+00 0.000000000000000000e+00 0.000000000000000000e+00
1.800000000000000044e+00 3.185578292140745643e-02 0.000000000000000000e+00 9.681442170785924395e-01 0.000000000000000000e+00 0.000000000000000000e+00 0.000000000000000000e+00 -1.738414881075538154e-01 -2.490239176410350558e-02 0.000000000000000000e+00 0.000000000000000000e+00 0.000000000000000000e+00 0.000000000000000000e+00 0.000000000000000000e+00 0.000000000000000000e+00 0.000000000000000000e+00 0.000000000000000000e+00
1.899999999999999911e+00 2.421010105959162800e-02 0.000000000000000000e+00 9.757898989404117929e-01 0.000000000000000000e+00 0.000000000000000000e+00 0.000000000000000000e+00 -1.525285087358153602e-01 -1.894798464722681486e-02 0.000000000000000000e+00 0.000000000000000000e+00 0.000000000000000000e+00 0.000000000000000000e+00 0.000000000000000000e+00 0.000000000000000000e+00 0.000000000000000000e+00 0.000000000000000000e+00
2.000000000000000000e+00 1.733428125768983474e-02 0.000000000000000000e+00 9.826657187423086803e-01 0.000000000000000000e+00 0.000000000000000000e+00 0.000000000000000000e+00 -1.303508021597346023e-01 -6.517089072688505604e-03 0.000000000000000000e+00 0.000000000000000000e+00 0.000000000000000000e+00 0.000000000000000000e+00 0.000000000000000000e+00 0.000000000000000000e+00 0.000000000000000000e+00 0.000000000000000000e+00
2.099999999999999645e+00 1.262884038232767875e-02 0.000000000000000000e+00 9.873711596176766303e-01 0.000000000000000000e+00 0.000000000000000000e+00 0.000000000000000000e+00 -1.110587555505035823e-01 1.163209287606409292e-02 0.000000000000000000e+00 0.000000000000000000e+00 0.000000000000000000e+00 0.000000000000000000e+00 0.000000000000000000e+00 0.000000000000000000e+00 0.000000000000000000e+00 0.000000000000000000e+00
2.199999999999999734e+00 1.071591467771694332e-02 0.000000000000000000e+00 9.892840853222821806e-01 0.000000000000000000e+00 0.000000000000000000e+00 0.000000000000000000e+00 -9.752852286641797153e-02 3.300410682657391875e-02 0.000000000000000000e+00 0.000000000000000000e+00 0.000000000000000000e+00 0.000000000000000000e+00 0.000000000000000000e+00 0.000000000000000000e+00 0.000000000000000000e+00 0.000000000000000000e+00
2.299999999999999822e+00 1.135929446894163447e-02 0.000000000000000000e+00 9.886407055310565406e-01 0.000000000000000000e+00 0.000000000000000000e+00 0.000000000000000000e+00 -9.108898702670097103e-02 5.415770779123074696e-02 0.000000000000000000e+00 0.000000000000000000e+00 0.000000000000000000e+00 0.000000000000000000e+00 0.000000000000000000e+00 0.000000000000000000e+00 0.000000000000000000e+00 0.000000000000000000e+00
2.399999999999999911e+00 1.365294256227181716e-02 0.000000000000000000e+00 9.863470574377291022e-01 0.000000000000000000e+00 0.000000000000000000e+00 0.000000000000000000e+00 -9.129130280454098023e-02 7.164103423386450342e-02 0.000000000000000000e+00 0.000000000000000000e+00 0.000000000000000000e+00 0.000000000000000000e+00 0.000000000000000000e+00 0.000000000000000000e+00 0.000000000000000000e+00 0.000000000000000000e+00
2.500000000000000000e+00 1.635673591329740717e-02 0.000000000000000000e+00 9.836432640867043276e-01 0.000000000000000000e+00 0.000000000000000000e+00 0.000000000000000000e+00 -9.606335676883748231e-02 8.283130184526027451e-02 0.000000000000000000e+00 0.000000000000000000e+00 0.000000000000000000e+00 0.000000000000000000e+00 0.000000000000000000e+00 0.000000000000000000e+00 0.000000000000000000e+00 0.000000000000000000e+00
2.600000000000000089e+00 1.829991569724663536e-02 0.000000000000000000e+00 9.817000843027517965e-01 0.000000000000000000e+00 0.000000000000000000e+00 0.000000000000000000e+00 -1.022902568354186054e-01 8.661254012311137007e-02 0.000000000000000000e+00 0.000000000000000000e+00 0.000000000000000000e+00 0.000000000000000000e+00 0.000000000000000000e+00 0.000000000000000000e+00 0.000000000000000000e+00 0.000000000000000000e+00
2.699999999999999734e+00 1.870454227884922604e-02 0.000000000000000000e+00 9.812954577211534524e-01 0.000000000000000000e+00 0.000000000000000000e+00 0.000000000000000000e+00 -1.066375300737370385e-01 8.356506222756106272e-02 0.000000000000000000e+00 0.000000000000000000e+00 0.000000000000000000e+00 0.000000000000000000e+00 0.000000000000000000e+00 0.000000000000000000e+00 0.000000000000000000e+00 0.000000000000000000e+00
2.799999999999999822e+00 1.736562309718839639e-02 0.000000000000000000e+00 9.826343769028119679e-01 0.000000000000000000e+00 0.000000000000000000e+00 0.000000000000000000e+00 -1.063928099969909807e-01 7.579332635801536155e-02 0.000000000000000000e+00 0.000000000000000000e+00 0.000000000000000000e+00 0.000000000000000000e+00 0.000000000000000000e+00 0.000000000000000000e+00 0.000000000000000000e+00 0.000000000000000000e+00
2.899999999999999911e+00 1.464616544601197480e-02 0.000000000000000000e+00 9.853538345539888388e-01 0.000000000000000000e+00 0.000000000000000000e+00 0.000000000000000000e+00 -1.001433882840785383e-01 6.635478071898387453e-02 0.000000000000000000e+00 0.000000000000000000e+00 0.000000000000000000e+00 0.000000000000000000e+00 0.000000000000000000e+00 0.000000000000000000e+00 0.000000000000000000e+00 0.000000000000000000e+00
3.000000000000000000e+00 1.130703448630006498e-02 0.000000000000000000e+00 9.886929655136967865e-01 0.000000000000000000e+00 0.000000000000000000e+00 0.000000000000000000e+00 -8.808343940221168011e-02 5.848498267845032850e-02 0.000000000000000000e+00 0.000000000000000000e+00 0.000000000000000000e+00 0.000000000000000000e+00 0.000000000000000000e+00 0.000000000000000000e+00 0.000000000000000000e+00 0.000000000000000000e+00
