1.000000000000000056e-01 9.947044769277259002e-01 0.000000000000000000e+00 5.295523072275180529e-03 0.000000000000000000e+00 0.000000000000000000e+00 0.000000000000000000e+00 5.327095946709861640e-02 4.929183943693461051e-02 0.000000000000000000e+00 0.000000000000000000e+00 0.000000000000000000e+00 0.000000000000000000e+00 0.000000000000000000e+00 0.000000000000000000e+00 0.000000000000000000e+00 0.000000000000000000e+00
2.000000000000000111e-01 9.791791600409776031e-01 0.000000000000000000e+00 2.082083995902319837e-02 0.000000000000000000e+00 0.000000000000000000e+00 0.000000000000000000e+00 1.052673509445475192e-01 9.646821766645705121e-02 0.000000000000000000e+00 0.000000000000000000e+00 0.000000000000000000e+00 0.000000000000000000e+00 0.000000000000000000e+00 0.000000000000000000e+00 0.000000000000000000e+00 0.000000000000000000e+00
2.999999999999999889e-01 9.544635554808580391e-01 0.000000000000000000e+00 4.553644451914433400e-02 0.000000000000000000e+00 0.000000000000000000e+00 0.000000000000000000e+00 1.548092595125699078e-01 1.396315494742085828e-01 0.000000000000000000e+00 0.000000000000000000e+00 0.000000000000000000e+00 0.000000000000000000e+00 0.000000000000000000e+00 0.000000000000000000e+00 0.000000000000000000e+00 0.000000000000000000e+00
4.000000000000000222e-01 9.221309441345221236e-01 0.000000000000000000e+00 7.786905586547565594e-02 0.000000000000000000e+00 0.000000000000000000e+00 0.000000000000000000e+00 2.009113147502449570e-01 1.773135919822259321e-01 0.000000000000000000e+00 0.000000000000000000e+00 0.000000000000000000e+00 0.000000000000000000e+00 0.000000000000000000e+00 0.000000000000000000e+00 0.000000000000000000e+00 0.000000000000000000e+00
5.000000000000000000e-01 8.840906386842153353e-01 0.000000000000000000e+00 1.159093613157863994e-01 0.000000000000000000e+00 0.000000000000000000e+00 0.000000000000000000e+00 2.428349521740913453e-01 2.085798819414437233e-01 0.000000000000000000e+00 0.000000000000000000e+00 0.000000000000000000e+00 0.000000000000000000e+00 0.000000000000000000e+00 0.000000000000000000e+00 0.000000000000000000e+00 0.000000000000000000e+00
5.999999999999999778e-01 8.423570691694121093e-01 0.000000000000000000e+00 1.576429308305868082e-01 0.000000000000000000e+00 0.000000000000000000e+00 0.000000000000000000e+00 2.801201517726544243e-01 2.330758191714535632e-01 0.000000000000000000e+00 0.000000000000000000e+00 0.000000000000000000e+00 0.000000000000000000e+00 0.000000000000000000e+00 0.000000000000000000e+00 0.000000000000000000e+00 0.000000000000000000e+00
6.999999999999999556e-01 7.988274633388813273e-01 0.000000000000000000e+00 2.011725366611201715e-01 0.000000000000000000e+00 0.000000000000000000e+00 0.000000000000000000e+00 3.125900782832600200e-01 2.509772705469948129e-01 0.000000000000000000e+00 0.000000000000000000e+00 0.000000000000000000e+00 0.000000000000000000e+00 0.000000000000000000e+00 0.000000000000000000e+00 0.000000000000000000e+00 0.000000000000000000e+00
7.999999999999999334e-01 7.551213939712704271e-01 0.000000000000000000e+00 2.448786060287284627e-01 0.000000000000000000e+00 0.000000000000000000e+00 0.000000000000000000e+00 3.403096520204598185e-01 2.628733816156726411e-01 0.000000000000000000e+00 0.000000000000000000e+00 0.000000000000000000e+00 0.000000000000000000e+00 0.000000000000000000e+00 0.000000000000000000e+00 0.000000000000000000e+00 0.000000000000000000e+00
8.999999999999999112e-01 7.124643324050096149e-01 0.000000000000000000e+00 2.875356675949931606e-01 0.000000000000000000e+00 0.000000000000000000e+00 0.000000000000000000e+00 3.635435812948626944e-01 2.696200506024065691e-01 0.000000000000000000e+00 0.000000000000000000e+00 0.000000000000000000e+00 0.000000000000000000e+00 0.000000000000000000e+00 0.000000000000000000e+00 0.000000000000000000e+00 0.000000000000000000e+00
9.999999999999998890e-01 6.716764102281400639e-01 0.000000000000000000e+00 3.283235897718603247e-01 0.000000000000000000e+00 0.000000000000000000e+00 0.000000000000000000e+00 3.826923707150832188e-01 2.721649494283087112e-01 0.000000000000000000e+00 0.000000000000000000e+00 0.000000000000000000e+00 0.000000000000000000e+00 0.000000000000000000e+00 0.000000000000000000e+00 0.000000000000000000e+00 0.000000000000000000e+00
1.099999999999999867e+00 6.331963625599021928e-01 0.000000000000000000e+00 3.668036374400963640e-01 0.000000000000000000e+00 0.000000000000000000e+00 0.000000000000000000e+00 3.982318108870901430e-01 2.714224631798983767e-01 0.000000000000000000e+00 0.000000000000000000e+00 0.000000000000000000e+00 0.000000000000000000e+00 0.000000000000000000e+00 0.000000000000000000e+00 0.000000000000000000e+00 0.000000000000000000e+00
1.199999999999999956e+00 5.971859564792642017e-01 0.000000000000000000e+00 4.028140435207348546e-01 0.000000000000000000e+00 0.000000000000000000e+00 0.000000000000000000e+00 4.106585737073784048e-01 2.681686506918865565e-01 0.000000000000000000e+00 0.000000000000000000e+00 0.000000000000000000e+00 0.000000000000000000e+00 0.000000000000000000e+00 0.000000000000000000e+00 0.000000000000000000e+00 0.000000000000000000e+00
1.300000000000000044e+00 5.636281462846228774e-01 0.000000000000000000e+00 4.363718537153775667e-01 0.000000000000000000e+00 0.000000000000000000e+00 0.000000000000000000e+00 4.204544613874378056e-01 2.630009592982099909e-01 0.000000000000000000e+00 0.000000000000000000e+00 0.000000000000000000e+00 0.000000000000000000e+00 0.000000000000000000e+00 0.000000000000000000e+00 0.000000000000000000e+00 0.000000000000000000e+00
1.399999999999999911e+00 5.324173842760117070e-01 0.000000000000000000e+00 4.675826157239866832e-01 0.000000000000000000e+00 0.000000000000000000e+00 0.000000000000000000e+00 4.280578600566438130e-01 2.563505049166419636e-01 0.000000000000000000e+00 0.000000000000000000e+00 0.000000000000000000e+00 0.000000000000000000e+00 0.000000000000000000e+00 0.000000000000000000e+00 0.000000000000000000e+00 0.000000000000000000e+00
1.500000000000000000e+00 5.034468826931222107e-01 0.000000000000000000e+00 4.965531173068745141e-01 0.000000000000000000e+00 0.000000000000000000e+00 0.000000000000000000e+00 4.338529018340551158e-01 2.485151472183551591e-01 0.000000000000000000e+00 0.000000000000000000e+00 0.000000000000000000e+00 0.000000000000000000e+00 0.000000000000000000e+00 0.000000000000000000e+00 0.000000000000000000e+00 0.000000000000000000e+00
1.599999999999999867e+00 4.766250503547942996e-01 0.000000000000000000e+00 5.233749496452065886e-01 0.000000000000000000e+00 0.000000000000000000e+00 0.000000000000000000e+00 4.381613250525552838e-01 2.397253944980655138e-01 0.000000000000000000e+00 0.000000000000000000e+00 0.000000000000000000e+00 0.000000000000000000e+00 0.000000000000000000e+00 0.000000000000000000e+00 0.000000000000000000e+00 0.000000000000000000e+00
1.699999999999999956e+00 4.519023472452460832e-01 0.000000000000000000e+00 5.480976527547537502e-01 0.000000000000000000e+00 0.000000000000000000e+00 0.000000000000000000e+00 4.412459897639104400e-01 2.301925109746026654e-01 0.000000000000000000e+00 0.000000000000000000e+00 0.000000000000000000e+00 0.000000000000000000e+00 0.000000000000000000e+00 0.000000000000000000e+00 0.000000000000000000e+00 0.000000000000000000e+00
1.800000000000000044e+00 4.292360603319295143e-01 0.000000000000000000e+00 5.707639396680699306e-01 0.000000000000000000e+00 0.000000000000000000e+00 0.000000000000000000e+00 4.433216884871108432e-01 2.201325629731177569e-01 0.000000000000000000e+00 0.000000000000000000e+00 0.000000000000000000e+00 0.000000000000000000e+00 0.000000000000000000e+00 0.000000000000000000e+00 0.000000000000000000e+00 0.000000000000000000e+00
1.899999999999999911e+00 4.085308132816582449e-01 0.000000000000000000e+00 5.914691867183404783e-01 0.000000000000000000e+00 0.000000000000000000e+00 0.000000000000000000e+00 4.445494692773805934e-01 2.097835962853662195e-01 0.000000000000000000e+00 0.000000000000000000e+00 0.000000000000000000e+00 0.000000000000000000e+00 0.000000000000000000e+00 0.000000000000000000e+00 0.000000000000000000e+00 0.000000000000000000e+00
2.000000000000000000e+00 3.896633236281653034e-01 0.000000000000000000e+00 6.103366763718346411e-01 0.000000000000000000e+00 0.000000000000000000e+00 0.000000000000000000e+00 4.450529591301762844e-01 1.993832521065958541e-01 0.000000000000000000e+00 0.000000000000000000e+00 0.000000000000000000e+00 0.000000000000000000e+00 0.000000000000000000e+00 0.000000000000000000e+00 0.000000000000000000e+00 0.000000000000000000e+00
2.099999999999999645e+00 3.724407293483871784e-01 0.000000000000000000e+00 6.275592706516084363e-01 0.000000000000000000e+00 0.000000000000000000e+00 0.000000000000000000e+00 4.449259196071551070e-01 1.891284187726031685e-01 0.000000000000000000e+00 0.000000000000000000e+00 0.000000000000000000e+00 0.000000000000000000e+00 0.000000000000000000e+00 0.000000000000000000e+00 0.000000000000000000e+00 0.000000000000000000e+00
2.199999999999999734e+00 3.566266800670931381e-01 0.000000000000000000e+00 6.433733199329075836e-01 0.000000000000000000e+00 0.000000000000000000e+00 0.000000000000000000e+00 4.442362885310793263e-01 1.791597357614690966e-01 0.000000000000000000e+00 0.000000000000000000e+00 0.000000000000000000e+00 0.000000000000000000e+00 0.000000000000000000e+00 0.000000000000000000e+00 0.000000000000000000e+00 0.000000000000000000e+00
2.299999999999999822e+00 3.419765917842228498e-01 0.000000000000000000e+00 6.580234082157746522e-01 0.000000000000000000e+00 0.000000000000000000e+00 0.000000000000000000e+00 4.430448699333547902e-01 1.695283042167541332e-01 0.000000000000000000e+00 0.000000000000000000e+00 0.000000000000000000e+00 0.000000000000000000e+00 0.000000000000000000e+00 0.000000000000000000e+00 0.000000000000000000e+00 0.000000000000000000e+00
2.399999999999999911e+00 3.282640560579176414e-01 0.000000000000000000e+00 6.717359439420824696e-01 0.000000000000000000e+00 0.000000000000000000e+00 0.000000000000000000e+00 4.414103813559008271e-01 1.601987532548017068e-01 0.000000000000000000e+00 0.000000000000000000e+00 0.000000000000000000e+00 0.000000000000000000e+00 0.000000000000000000e+00 0.000000000000000000e+00 0.000000000000000000e+00 0.000000000000000000e+00
2.500000000000000000e+00 3.153355373941774120e-01 0.000000000000000000e+00 6.846644626058261407e-01 0.000000000000000000e+00 0.000000000000000000e+00 0.000000000000000000e+00 4.393976998142802848e-01 1.510916877484650145e-01 0.000000000000000000e+00 0.000000000000000000e+00 0.000000000000000000e+00 0.000000000000000000e+00 0.000000000000000000e+00 0.000000000000000000e+00 0.000000000000000000e+00 0.000000000000000000e+00
2.600000000000000089e+00 3.031059559569445616e-01 0.000000000000000000e+00 6.968940440430524408e-01 0.000000000000000000e+00 0.000000000000000000e+00 0.000000000000000000e+00 4.370834406371632008e-01 1.420943407138973713e-01 0.000000000000000000e+00 0.000000000000000000e+00 0.000000000000000000e+00 0.000000000000000000e+00 0.000000000000000000e+00 0.000000000000000000e+00 0.000000000000000000e+00 0.000000000000000000e+00
2.699999999999999734e+00 2.915743340871946310e-01 0.000000000000000000e+00 7.084256659128014277e-01 0.000000000000000000e+00 0.000000000000000000e+00 0.000000000000000000e+00 4.345559966241419048e-01 1.331158417444548991e-01 0.000000000000000000e+00 0.000000000000000000e+00 0.000000000000000000e+00 0.000000000000000000e+00 0.000000000000000000e+00 0.000000000000000000e+00 0.000000000000000000e+00 0.000000000000000000e+00
2.799999999999999822e+00 2.807725378071627698e-01 0.000000000000000000e+00 7.192274621928362865e-01 0.000000000000000000e+00 0.000000000000000000e+00 0.000000000000000000e+00 4.318934600030880921e-01 1.241263827638859479e-01 0.000000000000000000e+00 0.000000000000000000e+00 0.000000000000000000e+00 0.000000000000000000e+00 0.000000000000000000e+00 0.000000000000000000e+00 0.000000000000000000e+00 0.000000000000000000e+00
2.899999999999999911e+00 2.707692442498664809e-01 0.000000000000000000e+00 7.292307557501356285e-01 0.000000000000000000e+00 0.000000000000000000e+00 0.000000000000000000e+00 4.291749828712892456e-01 1.151611675546688890e-01 0.000000000000000000e+00 0.000000000000000000e+00 0.000000000000000000e+00 0.000000000000000000e+00 0.000000000000000000e+00 0.000000000000000000e+00 0.000000000000000000e+00 0.000000000000000000e+00
3.000000000000000000e+00 2.615963709712077478e-01 0.000000000000000000e+00 7.384036290287921966e-01 0.000000000000000000e+00 0.000000000000000000e+00 0.000000000000000000e+00 4.264504903252610002e-01 1.063188100652450868e-01 0.000000000000000000e+00 0.000000000000000000e+00 0.000000000000000000e+00 0.000000000000000000e+00 0.000000000000000000e+00 0.000000000000000000e+00 0.000000000000000000e+00 0.000000000000000000e+00
