1.000000000000000056e-01 9.879950032431354945e-01 0.000000000000000000e+00 1.200499675686002472e-02 0.000000000000000000e+00 0.000000000000000000e+00 0.000000000000000000e+00 -1.068839836486596556e-01 -2.089714956907598453e-02 0.000000000000000000e+00 0.000000000000000000e+00 0.000000000000000000e+00 0.000000000000000000e+00 0.000000000000000000e+00 0.000000000000000000e+00 0.000000000000000000e+00 0.000000000000000000e+00
2.000000000000000111e-01 9.531215951499002470e-01 0.000000000000000000e+00 4.687840485009893421e-02 0.000000000000000000e+00 0.000000000000000000e+00 0.000000000000000000e+00 -2.057616646420531992e-01 -4.840410393236406483e-02 0.000000000000000000e+00 0.000000000000000000e+00 0.000000000000000000e+00 0.000000000000000000e+00 0.000000000000000000e+00 0.000000000000000000e+00 0.000000000000000000e+00 0.000000000000000000e+00
2.999999999999999889e-01 8.986365548207010390e-01 0.000000000000000000e+00 1.013634451792966851e-01 0.000000000000000000e+00 0.000000000000000000e+00 0.000000000000000000e+00 -2.887843647483454568e-01 -8.770682810207758306e-02 0.000000000000000000e+00 0.000000000000000000e+00 0.000000000000000000e+00 0.000000000000000000e+00 0.000000000000000000e+00 0.000000000000000000e+00 0.000000000000000000e+00 0.000000000000000000e+00
4.000000000000000222e-01 8.294216143830515087e-01 0.000000000000000000e+00 1.705783856169468538e-01 0.000000000000000000e+00 0.000000000000000000e+00 0.000000000000000000e+00 -3.485660421911278561e-01 -1.413616436553323252e-01 0.000000000000000000e+00 0.000000000000000000e+00 0.000000000000000000e+00 0.000000000000000000e+00 0.000000000000000000e+00 0.000000000000000000e+00 0.000000000000000000e+00 0.000000000000000000e+00
5.000000000000000000e-01 7.512639977631974109e-01 0.000000000000000000e+00 2.487360022367988421e-01 0.000000000000000000e+00 0.000000000000000000e+00 0.000000000000000000e+00 -3.786903999814608679e-01 -2.084705834369073862e-01 0.000000000000000000e+00 0.000000000000000000e+00 0.000000000000000000e+00 0.000000000000000000e+00 0.000000000000000000e+00 0.000000000000000000e+00 0.000000000000000000e+00 0.000000000000000000e+00
5.999999999999999778e-01 6.700742600746638633e-01 0.000000000000000000e+00 3.299257399253374690e-01 0.000000000000000000e+00 0.000000000000000000e+00 0.000000000000000000e+00 -3.744207221945080599e-01 -2.844008941339083996e-01 0.000000000000000000e+00 0.000000000000000000e+00 0.000000000000000000e+00 0.000000000000000000e+00 0.000000000000000000e+00 0.000000000000000000e+00 0.000000000000000000e+00 0.000000000000000000e+00
6.999999999999999556e-01 5.911089060953428342e-01 0.000000000000000000e+00 4.088910939046621063e-01 0.000000000000000000e+00 0.000000000000000000e+00 0.000000000000000000e+00 -3.335838762880011243e-01 -3.611384285358861246e-01 0.000000000000000000e+00 0.000000000000000000e+00 0.000000000000000000e+00 0.000000000000000000e+00 0.000000000000000000e+00 0.000000000000000000e+00 0.000000000000000000e+00 0.000000000000000000e+00
7.999999999999999334e-01 5.184063344032247000e-01 0.000000000000000000e+00 4.815936655967797964e-01 0.000000000000000000e+00 0.000000000000000000e+00 0.000000000000000000e+00 -2.574011577077929269e-01 -4.282590930150860231e-01 0.000000000000000000e+00 0.000000000000000000e+00 0.000000000000000000e+00 0.000000000000000000e+00 0.000000000000000000e+00 0.000000000000000000e+00 0.000000000000000000e+00 0.000000000000000000e+00
8.999999999999999112e-01 4.544825420046713083e-01 0.000000000000000000e+00 5.455174579953266933e-01 0.000000000000000000e+00 0.000000000000000000e+00 0.000000000000000000e+00 -1.510910712209767859e-01 -4.744466769051428057e-01 0.000000000000000000e+00 0.000000000000000000e+00 0.000000000000000000e+00 0.000000000000000000e+00 0.000000000000000000e+00 0.000000000000000000e+00 0.000000000000000000e+00 0.000000000000000000e+00
9.999999999999998890e-01 4.002788894586739588e-01 0.000000000000000000e+00 5.997211105413250420e-01 0.000000000000000000e+00 0.000000000000000000e+00 0.000000000000000000e+00 -2.399536990509069934e-02 -4.893668585947587579e-01 0.000000000000000000e+00 0.000000000000000000e+00 0.000000000000000000e+00 0.000000000000000000e+00 0.000000000000000000e+00 0.000000000000000000e+00 0.000000000000000000e+00 0.000000000000000000e+00
1.099999999999999867e+00 3.554042891480949651e-01 0.000000000000000000e+00 6.445957108519078105e-01 0.000000000000000000e+00 0.000000000000000000e+00 0.000000000000000000e+00 1.109136783313109803e-01 -4.656073842178834465e-01 0.000000000000000000e+00 0.000000000000000000e+00 0.000000000000000000e+00 0.000000000000000000e+00 0.000000000000000000e+00 0.000000000000000000e+00 0.000000000000000000e+00 0.000000000000000000e+00
1.199999999999999956e+00 3.185514484726201245e-01 0.000000000000000000e+00 6.814485515273800420e-01 0.000000000000000000e+00 0.000000000000000000e+00 0.000000000000000000e+00 2.382487031783554754e-01 -4.003922809809217220e-01 0.000000000000000000e+00 0.000000000000000000e+00 0.000000000000000000e+00 0.000000000000000000e+00 0.000000000000000000e+00 0.000000000000000000e+00 0.000000000000000000e+00 0.000000000000000000e+00
1.300000000000000044e+00 2.879657583541229138e-01 0.000000000000000000e+00 7.120342416458738111e-01 0.000000000000000000e+00 0.000000000000000000e+00 0.000000000000000000e+00 3.420612248065547090e-01 -2.967079348603438582e-01 0.000000000000000000e+00 0.000000000000000000e+00 0.000000000000000000e+00 0.000000000000000000e+00 0.000000000000000000e+00 0.000000000000000000e+00 0.000000000000000000e+00 0.000000000000000000e+00
1.399999999999999911e+00 2.619025376036182018e-01 0.000000000000000000e+00 7.380974623963847403e-01 0.000000000000000000e+00 0.000000000000000000e+00 0.000000000000000000e+00 4.081023751203973760e-01 -1.635911054646452811e-01 0.000000000000000000e+00 0.000000000000000000e+00 0.000000000000000000e+00 0.000000000000000000e+00 0.000000000000000000e+00 0.000000000000000000e+00 0.000000000000000000e+00 0.000000000000000000e+00
1.500000000000000000e+00 2.389654724392605845e-01 0.000000000000000000e+00 7.610345275607384163e-01 0.000000000000000000e+00 0.000000000000000000e+00 0.000000000000000000e+00 4.261732246379177913e-01 -1.540643261553897164e-02 0.000000000000000000e+00 0.000000000000000000e+00 0.000000000000000000e+00 0.000000000000000000e+00 0.000000000000000000e+00 0.000000000000000000e+00 0.000000000000000000e+00 0.000000000000000000e+00
1.599999999999999867e+00 2.182749574073466203e-01 0.000000000000000000e+00 7.817250425926532964e-01 0.000000000000000000e+00 0.000000000000000000e+00 0.000000000000000000e+00 3.921218131521496120e-01 1.298902761141165763e-01 0.000000000000000000e+00 0.000000000000000000e+00 0.000000000000000000e+00 0.000000000000000000e+00 0.000000000000000000e+00 0.000000000000000000e+00 0.000000000000000000e+00 0.000000000000000000e+00
1.699999999999999956e+00 1.994699410291888575e-01 0.000000000000000000e+00 8.005300589708109760e-01 0.000000000000000000e+00 0.000000000000000000e+00 0.000000000000000000e+00 3.090774878278680915e-01 2.532840100732708377e-01 0.000000000000000000e+00 0.000000000000000000e+00 0.000000000000000000e+00 0.000000000000000000e+00 0.000000000000000000e+00 0.000000000000000000e+00 0.000000000000000000e+00 0.000000000000000000e+00
1.800000000000000044e+00 1.825744956810493036e-01 0.000000000000000000e+00 8.174255043189476710e-01 0.000000000000000000e+00 0.000000000000000000e+00 0.000000000000000000e+00 1.875908677527128587e-01 3.377139552832582603e-01 0.000000000000000000e+00 0.000000000000000000e+00 0.000000000000000000e+00 0.000000000000000000e+00 0.000000000000000000e+00 0.000000000000000000e+00 0.000000000000000000e+00 0.000000000000000000e+00
1.899999999999999911e+00 1.677818047568428450e-01 0.000000000000000000e+00 8.322181952431580987e-01 0.000000000000000000e+00 0.000000000000000000e+00 0.000000000000000000e+00 4.451627293889308390e-02 3.710112829176147597e-01 0.000000000000000000e+00 0.000000000000000000e+00 0.000000000000000000e+00 0.000000000000000000e+00 0.000000000000000000e+00 0.000000000000000000e+00 0.000000000000000000e+00 0.000000000000000000e+00
2.000000000000000000e+00 1.552629508891392729e-01 0.000000000000000000e+00 8.447370491108581181e-01 0.000000000000000000e+00 0.000000000000000000e+00 0.000000000000000000e+00 -9.928661773342123409e-02 3.482793911917311247e-01 0.000000000000000000e+00 0.000000000000000000e+00 0.000000000000000000e+00 0.000000000000000000e+00 0.000000000000000000e+00 0.000000000000000000e+00 0.000000000000000000e+00 0.000000000000000000e+00
2.099999999999999645e+00 1.449993226598831897e-01 0.000000000000000000e+00 8.550006773401177540e-01 0.000000000000000000e+00 0.000000000000000000e+00 0.000000000000000000e+00 -2.221470168773891640e-01 2.731761732225831962e-01 0.000000000000000000e+00 0.000000000000000000e+00 0.000000000000000000e+00 0.000000000000000000e+00 0.000000000000000000e+00 0.000000000000000000e+00 0.000000000000000000e+00 0.000000000000000000e+00
2.199999999999999734e+00 1.367137778872583587e-01 0.000000000000000000e+00 8.632862221127397540e-01 0.000000000000000000e+00 0.000000000000000000e+00 0.000000000000000000e+00 -3.051696954608071888e-01 1.577801544472622608e-01 0.000000000000000000e+00 0.000000000000000000e+00 0.000000000000000000e+00 0.000000000000000000e+00 0.000000000000000000e+00 0.000000000000000000e+00 0.000000000000000000e+00 0.000000000000000000e+00
2.299999999999999822e+00 1.299266498939307402e-01 0.000000000000000000e+00 8.700733501060710084e-01 0.000000000000000000e+00 0.000000000000000000e+00 0.000000000000000000e+00 -3.355672103513643312e-01 2.098481857952937818e-02 0.000000000000000000e+00 0.000000000000000000e+00 0.000000000000000000e+00 0.000000000000000000e+00 0.000000000000000000e+00 0.000000000000000000e+00 0.000000000000000000e+00 0.000000000000000000e+00
2.399999999999999911e+00 1.240386681479303810e-01 0.000000000000000000e+00 8.759613318520713676e-01 0.000000000000000000e+00 0.000000000000000000e+00 0.000000000000000000e+00 -3.091045717031605800e-01 -1.144877294701975856e-01 0.000000000000000000e+00 0.000000000000000000e+00 0.000000000000000000e+00 0.000000000000000000e+00 0.000000000000000000e+00 0.000000000000000000e+00 0.000000000000000000e+00 0.000000000000000000e+00
2.500000000000000000e+00 1.184930379489444047e-01 0.000000000000000000e+00 8.815069620510570525e-01 0.000000000000000000e+00 0.000000000000000000e+00 0.000000000000000000e+00 -2.311460458378391813e-01 -2.258848000075401319e-01 0.000000000000000000e+00 0.000000000000000000e+00 0.000000000000000000e+00 0.000000000000000000e+00 0.000000000000000000e+00 0.000000000000000000e+00 0.000000000000000000e+00 0.000000000000000000e+00
2.600000000000000089e+00 1.128942653499644122e-01 0.000000000000000000e+00 8.871057346500363927e-01 0.000000000000000000e+00 0.000000000000000000e+00 0.000000000000000000e+00 -1.159943671895432293e-01 -2.944392239094859032e-01 0.000000000000000000e+00 0.000000000000000000e+00 0.000000000000000000e+00 0.000000000000000000e+00 0.000000000000000000e+00 0.000000000000000000e+00 0.000000000000000000e+00 0.000000000000000000e+00
2.699999999999999734e+00 1.070855800733309660e-01 0.000000000000000000e+00 8.929144199266716431e-01 0.000000000000000000e+00 0.000000000000000000e+00 0.000000000000000000e+00 1.544326546232014513e-02 -3.088361436330461784e-01 0.000000000000000000e+00 0.000000000000000000e+00 0.000000000000000000e+00 0.000000000000000000e+00 0.000000000000000000e+00 0.000000000000000000e+00 0.000000000000000000e+00 0.000000000000000000e+00
2.799999999999999822e+00 1.011658560273058782e-01 0.000000000000000000e+00 8.988341439726966753e-01 0.000000000000000000e+00 0.000000000000000000e+00 0.000000000000000000e+00 1.393077125535373828e-01 -2.674409958022688216e-01 0.000000000000000000e+00 0.000000000000000000e+00 0.000000000000000000e+00 0.000000000000000000e+00 0.000000000000000000e+00 0.000000000000000000e+00 0.000000000000000000e+00 0.000000000000000000e+00
2.899999999999999911e+00 9.540807153222258252e-02 0.000000000000000000e+00 9.045919284677735872e-01 0.000000000000000000e+00 0.000000000000000000e+00 0.000000000000000000e+00 2.331348032885939836e-01 -1.787555150239410473e-01 0.000000000000000000e+00 0.000000000000000000e+00 0.000000000000000000e+00 0.000000000000000000e+00 0.000000000000000000e+00 0.000000000000000000e+00 0.000000000000000000e+00 0.000000000000000000e+00
3.000000000000000000e+00 9.016510698206235686e-02 0.000000000000000000e+00 9.098348930179356309e-01 0.000000000000000000e+00 0.000000000000000000e+00 0.000000000000000000e+00 2.800603509532367807e-01 -6.001299825017625267e-02 0.000000000000000000e+00 0.000000000000000000e+00 0.000000000000000000e+00 0.000000000000000000e+00 0.000000000000000000e+00 0.000000000000000000e+00 0.000000000000000000e+00 0.000000000000000000e+00
