1.000000000000000056e-01 1.389340493034355029e-01 -1.282677417036658385e-01 -9.819596307155872283e-01
2.000000000000000111e-01 2.760309459790253883e-01 -2.434622084093869265e-01 -9.298027048060895083e-01
2.999999999999999889e-01 4.091534658827968851e-01 -3.338114929060540526e-01 -8.492133586423019631e-01
4.000000000000000222e-01 5.356300593465341819e-01 -3.900251182097795311e-01 -7.489865461711204819e-01
5.000000000000000000e-01 6.521232578750627562e-01 -4.062270886625905519e-01 -6.400896880420143820e-01
5.999999999999999778e-01 7.546473933417624513e-01 -3.805751550015508133e-01 -5.344809283583926707e-01
6.999999999999999556e-01 8.387456402462656335e-01 -3.154774290547142090e-01 -4.438239992725094285e-01
7.999999999999999334e-01 8.998242824272095763e-01 -2.174119869953966000e-01 -3.782172500703715468e-01
8.999999999999999112e-01 9.336141197349535625e-01 -9.633745395703513514e-02 -3.450851633912570549e-01
9.999999999999998890e-01 9.367054604586010358e-01 3.522175781887873502e-02 -3.483422279176434655e-01
1.099999999999999867e+00 9.071011863696499811e-01 1.633643016128151215e-01 -3.879169269248188279e-01
1.199999999999999956e+00 8.447050654807251036e-01 2.741265056778555698e-01 -4.597042647184192976e-01
1.300000000000000044e+00 7.516857264347177603e-01 3.548368153441772144e-01 -5.559311135133251369e-01
1.399999999999999911e+00 6.326479906280650933e-01 3.953475978771179844e-01 -6.659255186428066908e-01
1.500000000000000000e+00 4.945676674745510537e-01 3.890504263304357391e-01 -7.772017680059948308e-01
1.599999999999999867e+00 3.464749089313114983e-01 3.335711119655527801e-01 -8.767470848271123884e-01
1.699999999999999956e+00 1.988914200958557532e-01 2.310702052871830281e-01 -9.523910768860235354e-01
1.800000000000000044e+00 6.304494126481129113e-02 8.812072290528419338e-02 -9.941127066247238409e-01
1.899999999999999911e+00 -5.004180232985581261e-02 -8.482263534017669970e-02 -9.951386529720953611e-01
2.000000000000000000e+00 -1.305570242168453965e-01 -2.743252640127964992e-01 -9.527331804876311150e-01
2.099999999999999645e+00 -1.708545645032817084e-01 -4.651645133686106437e-01 -8.685796987413607617e-01
2.199999999999999734e+00 -1.662813718537259344e-01 -6.416924808076706066e-01 -7.487197508603365970e-01
2.299999999999999822e+00 -1.157949642716163408e-01 -7.892661475460044374e-01 -6.030343888538320929e-01
2.399999999999999911e+00 -2.226567302791374048e-02 -8.955858362822517460e-01 -4.443312386115333967e-01
2.500000000000000000e+00 1.075568779855135826e-01 -9.518383188533927619e-01 -2.871155391617765673e-01
2.600000000000000089e+00 2.634607971525681491e-01 -9.535345975958456899e-01 -1.461512223335652283e-01
2.699999999999999734e+00 4.325076141999431023e-01 -9.009508818273508357e-01 -3.499531627291996988e-02
2.799999999999999822e+00 6.000959771525086195e-01 -7.991442739978035226e-01 3.540121885968076226e-02
2.899999999999999911e+00 7.512041405215780232e-01 -6.575316183131922898e-01 5.783173212635987076e-02
3.000000000000000000e+00 8.717374739585986854e-01 -4.890759292652632206e-01 2.963970473956040880e-02
