1.000000000000000056e-01 -2.037401909894290264e-01 -1.572660245898055420e-01 -9.633551881781863280e-01
2.000000000000000111e-01 -3.703795198559340363e-01 -3.231441368436702155e-01 -8.579900793022662286e-01
2.999999999999999889e-01 -4.674977637137556208e-01 -4.984272930367535936e-01 -6.965648031232952730e-01
4.000000000000000222e-01 -4.725225529232303101e-01 -6.711832626065663554e-01 -4.970474491232133585e-01
5.000000000000000000e-01 -3.781028435411727395e-01 -8.167611626088298049e-01 -2.791182761442941307e-01
5.999999999999999778e-01 -1.962198893573894598e-01 -9.033218419183823844e-01 -6.082666705997504669e-02
6.999999999999999556e-01 4.096699735758543848e-02 -9.016235863104000714e-01 1.436923598699960947e-01
7.999999999999999334e-01 2.854087295195436580e-01 -7.963099838935784325e-01 3.252064464298980440e-01
8.999999999999999112e-01 4.830814377525999848e-01 -5.948310332486713703e-01 4.792269714582022000e-01
9.999999999999998890e-01 5.878872838745846652e-01 -3.302934381526477781e-01 6.050895127903259674e-01
1.099999999999999867e+00 5.759330018223075554e-01 -5.578926320245852777e-02 7.047449101934413207e-01
1.199999999999999956e+00 4.549502726718799850e-01 1.696003300690676618e-01 7.816236167515070443e-01
1.300000000000000044e+00 2.641240961577073776e-01 2.993686108832706583e-01 8.397039001715497220e-01
1.399999999999999911e+00 6.234790507629791451e-02 3.160449698458164813e-01 8.828885910198068787e-01
1.500000000000000000e+00 -9.233561982294261061e-02 2.380556373958212235e-01 9.146458326122440807e-01
1.599999999999999867e+00 -1.642087660279778760e-01 1.123129108871176590e-01 9.378518726992024490e-01
1.699999999999999956e+00 -1.523369679746434113e-01 -5.586394645944420950e-03 9.547720263451640044e-01
1.800000000000000044e+00 -8.726743980682324930e-02 -7.475874708533096491e-02 9.671203328275691513e-01
1.899999999999999911e+00 -1.324784022403472511e-02 -8.419934308799569000e-02 9.761558931855731647e-01
2.000000000000000000e+00 3.434961094893547451e-02 -5.190527578872865255e-02 9.827826974957479811e-01
2.099999999999999645e+00 4.375518197149139143e-02 -9.402012321901973349e-03 9.876479949146884652e-01
2.199999999999999734e+00 2.623787017723548318e-02 1.781014600214762822e-02 9.912128578302057402e-01
2.299999999999999822e+00 2.942792899779368698e-03 2.195360689698609702e-02 9.938123979596890090e-01
2.399999999999999911e+00 -1.030523225307798836e-02 1.125780382536742397e-02 9.956928802424056535e-01
2.500000000000000000e+00 -1.035234653331509706e-02 -8.005835093346739401e-04 9.970388380182881871e-01
2.600000000000000089e+00 -3.675448452695921544e-03 -5.934591304414635338e-03 9.979903361346301738e-01
2.699999999999999734e+00 1.882008016373890209e-03 -4.242198997196796467e-03 9.986538962970507027e-01
2.799999999999999822e+00 3.020502954822694864e-03 -4.544573853841700137e-04 9.991100228754793422e-01
2.899999999999999911e+00 1.264404997952659968e-03 1.544253644698677461e-03 9.994190499607183975e-01
3.000000000000000000e+00 -4.788688491578112563e-04 1.197893180828841705e-03 9.996254386552405613e-01
