1.000000000000000056e-01 9.755780687256059291e-01 0.000000000000000000e+00 2.427091272637279737e-02 1.510185480208694304e-04 0.000000000000000000e+00 0.000000000000000000e+00 -1.969557424345236028e-05 1.538771255799301074e-01 0.000000000000000000e+00 0.000000000000000000e+00 0.000000000000000000e+00 0.000000000000000000e+00 -1.065580335500098189e-03 1.590564848944585460e-03 -1.008328620549682648e-02 -6.757049799518297269e-03
2.000000000000000111e-01 9.052736396320025802e-01 0.000000000000000000e+00 9.236914687440374305e-02 2.357213493591925075e-03 0.000000000000000000e+00 0.000000000000000000e+00 -1.494869990929395900e-04 2.891700735843404924e-01 0.000000000000000000e+00 0.000000000000000000e+00 0.000000000000000000e+00 0.000000000000000000e+00 -8.214179626162852743e-03 1.225810150008877289e-02 -3.836181581637428117e-02 -2.573507966595297777e-02
3.000000000000000444e-01 7.974814978997739612e-01 0.000000000000000000e+00 1.910688455053164703e-01 1.144965659491035438e-02 0.000000000000000000e+00 0.000000000000000000e+00 -4.630881026384753643e-04 3.903506816496846166e-01 0.000000000000000000e+00 0.000000000000000000e+00 0.000000000000000000e+00 0.000000000000000000e+00 -2.604424926966453571e-02 3.885060804213543578e-02 -7.930806565402404029e-02 -5.330215754583613602e-02
4.000000000000000222e-01 6.646568310102570765e-01 0.000000000000000000e+00 3.012029148945424839e-01 3.414025409519676896e-02 0.000000000000000000e+00 0.000000000000000000e+00 -9.707713707600472766e-04 4.474322658592120860e-01 0.000000000000000000e+00 0.000000000000000000e+00 0.000000000000000000e+00 0.000000000000000000e+00 -5.648621167693987366e-02 8.421669623912915459e-02 -1.249205440575232862e-01 -8.418082153027410530e-02
5.000000000000000000e-01 5.213158379910890483e-01 0.000000000000000000e+00 4.013836947735780480e-01 7.730046723533465225e-02 0.000000000000000000e+00 0.000000000000000000e+00 -1.613480248003353349e-03 4.574331359732370372e-01 0.000000000000000000e+00 0.000000000000000000e+00 0.000000000000000000e+00 0.000000000000000000e+00 -9.816106252442194369e-02 1.462585140995882327e-01 -1.662875465506773176e-01 -1.124562568658791506e-01
5.999999999999999778e-01 3.817666906527811821e-01 0.000000000000000000e+00 4.721605346935246472e-01 1.460727746536931160e-01 0.000000000000000000e+00 0.000000000000000000e+00 -2.274535213702696870e-03 4.245585841576404174e-01 0.000000000000000000e+00 0.000000000000000000e+00 0.000000000000000000e+00 0.000000000000000000e+00 -1.464193279339590370e-01 2.180164666396666728e-01 -1.953312902871525147e-01 -1.327079755112187676e-01
7.000000000000000666e-01 2.579990979630839565e-01 0.000000000000000000e+00 4.997943757570784129e-01 2.422065262798354657e-01 0.000000000000000000e+00 0.000000000000000000e+00 -2.813173381679901202e-03 3.590801921002756969e-01 0.000000000000000000e+00 0.000000000000000000e+00 0.000000000000000000e+00 0.000000000000000000e+00 -1.940617924010528128e-01 2.887792931246109807e-01 -2.063828637790242060e-01 -1.410502705171063076e-01
8.000000000000000444e-01 1.580980850205652710e-01 0.000000000000000000e+00 4.789260026724107555e-01 3.629759123070253612e-01 0.000000000000000000e+00 0.000000000000000000e+00 -3.104339573998028592e-03 2.751502264749552396e-01 0.000000000000000000e+00 0.000000000000000000e+00 0.000000000000000000e+00 0.000000000000000000e+00 -2.326137175045870642e-01 3.460194516747256976e-01 -1.972856308264103187e-01 -1.358829518261536751e-01
9.000000000000000222e-01 8.545837313074618191e-02 0.000000000000000000e+00 4.136156969320241572e-01 5.009259299372287311e-01 0.000000000000000000e+00 0.000000000000000000e+00 -3.076169158001265409e-03 1.879826105945071879e-01 0.000000000000000000e+00 0.000000000000000000e+00 0.000000000000000000e+00 0.000000000000000000e+00 -2.539126084346960410e-01 3.777819670916678363e-01 -1.698082613632743432e-01 -1.182094312521189544e-01
1.000000000000000000e+00 3.891156774194938495e-02 0.000000000000000000e+00 3.165512650350466028e-01 6.445371672230064686e-01 0.000000000000000000e+00 0.000000000000000000e+00 -2.732417505737614986e-03 1.109506195415875252e-01 0.000000000000000000e+00 0.000000000000000000e+00 0.000000000000000000e+00 0.000000000000000000e+00 -2.517071335278998623e-01 3.750634272051309170e-01 -1.292863282479363995e-01 -9.146035907973391887e-02
1.100000000000000089e+00 1.370432083538753419e-02 0.000000000000000000e+00 2.065728145728993048e-01 7.797228645917124723e-01 0.000000000000000000e+00 0.000000000000000000e+00 -2.150804273052612722e-03 5.316309068953032485e-02 0.000000000000000000e+00 0.000000000000000000e+00 0.000000000000000000e+00 0.000000000000000000e+00 -2.229553157109786798e-01 3.337071674274088018e-01 -8.356071102089447644e-02 -6.085376031509263928e-02
1.200000000000000178e+00 3.103896190847771699e-03 0.000000000000000000e+00 1.050332189965626634e-01 8.918628848125901287e-01 0.000000000000000000e+00 0.000000000000000000e+00 -1.453424005487047267e-03 1.799721560548926333e-02 0.000000000000000000e+00 0.000000000000000000e+00 0.000000000000000000e+00 0.000000000000000000e+00 -1.685775382105967612e-01 2.554541898715243509e-01 -4.143878989750597597e-02 -3.242031038824073202e-02
1.300000000000000266e+00 2.690504264941426900e-04 0.000000000000000000e+00 3.162590293296860949e-02 9.681050466405363153e-01 0.000000000000000000e+00 0.000000000000000000e+00 -7.540858257513280340e-04 2.817856796073179692e-03 0.000000000000000000e+00 0.000000000000000000e+00 0.000000000000000000e+00 0.000000000000000000e+00 -9.349295784783159813e-02 1.479062643472643657e-01 -1.094915596633958856e-02 -1.185685580002215217e-02
1.400000000000000133e+00 1.688320071098709050e-05 0.000000000000000000e+00 5.845838572445535104e-04 9.993985329420460584e-01 0.000000000000000000e+00 0.000000000000000000e+00 -9.416267850874771928e-05 -3.167137295152103405e-05 0.000000000000000000e+00 0.000000000000000000e+00 0.000000000000000000e+00 0.000000000000000000e+00 -5.951426876089876972e-03 2.342675557804687128e-02 2.227827499776623230e-03 -3.451066617147321991e-03
1.500000000000000222e+00 1.045707128843483376e-04 0.000000000000000000e+00 1.791627093667990875e-02 9.819791583504362542e-01 0.000000000000000000e+00 0.000000000000000000e+00 6.176145974679346637e-04 -1.221502776312187455e-03 0.000000000000000000e+00 0.000000000000000000e+00 0.000000000000000000e+00 0.000000000000000000e+00 8.375441010819684173e-02 -1.028523399838107283e-01 -4.125100410824799127e-03 -9.255793132220885289e-03
1.600000000000000089e+00 1.770927015777733118e-03 0.000000000000000000e+00 8.024521190790398495e-02 9.179838610763150220e-01 0.000000000000000000e+00 0.000000000000000000e+00 1.642873377140172814e-03 -1.180717450852467390e-02 0.000000000000000000e+00 0.000000000000000000e+00 0.000000000000000000e+00 0.000000000000000000e+00 1.649443084777936774e-01 -2.155392881231976143e-01 -2.833723281813235392e-02 -2.868245769272557283e-02
1.700000000000000178e+00 9.425276956412941692e-03 0.000000000000000000e+00 1.754780190003245588e-01 8.150967040432625099e-01 0.000000000000000000e+00 0.000000000000000000e+00 3.414121270910722237e-03 -4.052496274129573778e-02 0.000000000000000000e+00 0.000000000000000000e+00 0.000000000000000000e+00 0.000000000000000000e+00 2.282790210290282784e-01 -3.015298403697080909e-01 -6.519399389491117858e-02 -5.858544551139677203e-02
1.800000000000000266e+00 2.954880022987748864e-02 0.000000000000000000e+00 2.851689796048329506e-01 6.852822201652895018e-01 0.000000000000000000e+00 0.000000000000000000e+00 6.489775445430080551e-03 -9.156573570315702792e-02 0.000000000000000000e+00 0.000000000000000000e+00 0.000000000000000000e+00 0.000000000000000000e+00 2.672469137501277126e-01 -3.521367900193777545e-01 -1.069867126414797559e-01 -9.382489245523557841e-02
1.900000000000000133e+00 6.903608140076317179e-02 0.000000000000000000e+00 3.881123209820073749e-01 5.428515976172292312e-01 0.000000000000000000e+00 0.000000000000000000e+00 1.146500918495239017e-02 -1.632859673144411161e-01 0.000000000000000000e+00 0.000000000000000000e+00 0.000000000000000000e+00 0.000000000000000000e+00 2.791312224848806478e-01 -3.643805080380076444e-01 -1.450558987011411061e-01 -1.281995820194593294e-01
2.000000000000000000e+00 1.333119893068763495e-01 0.000000000000000000e+00 4.644549209827461556e-01 4.022330897103774672e-01 0.000000000000000000e+00 0.000000000000000000e+00 1.884938199851719440e-02 -2.481171283923292448e-01 0.000000000000000000e+00 0.000000000000000000e+00 0.000000000000000000e+00 0.000000000000000000e+00 2.652965107360954478e-01 -3.412285165434625345e-01 -1.715214124376487903e-01 -1.555728045847827312e-01
2.100000000000000089e+00 2.246294144162993001e-01 0.000000000000000000e+00 4.995674507640401329e-01 2.758031348196606225e-01 0.000000000000000000e+00 0.000000000000000000e+00 2.893373935574760150e-02 -3.337369973578002691e-01 0.000000000000000000e+00 0.000000000000000000e+00 0.000000000000000000e+00 0.000000000000000000e+00 2.307519357897286072e-01 -2.907504312797925539e-01 -1.808717918017820614e-01 -1.709938381665266349e-01
2.200000000000000178e+00 3.409106930715600781e-01 0.000000000000000000e+00 4.868708755093076879e-01 1.722184314191314847e-01 0.000000000000000000e+00 0.000000000000000000e+00 4.167282489104499887e-02 -4.052688774646859837e-01 0.000000000000000000e+00 0.000000000000000000e+00 0.000000000000000000e+00 0.000000000000000000e+00 1.830722069136669072e-01 -2.243495171975482538e-01 -1.710776824487352243e-01 -1.715911758134409104e-01
2.300000000000000266e+00 4.753596593959257266e-01 0.000000000000000000e+00 4.290996234850272262e-01 9.554071711904693620e-02 0.000000000000000000e+00 0.000000000000000000e+00 5.660560351397102286e-02 -4.480763908023638331e-01 0.000000000000000000e+00 0.000000000000000000e+00 0.000000000000000000e+00 0.000000000000000000e+00 1.309137209197416829e-01 -1.544606264399636941e-01 -1.440218239762433017e-01 -1.570793377424543058e-01
2.400000000000000355e+00 6.170140773189617400e-01 0.000000000000000000e+00 3.377616610080036441e-01 4.522426167303440769e-02 0.000000000000000000e+00 0.000000000000000000e+00 7.284259009828114584e-02 -4.506635729691365611e-01 0.000000000000000000e+00 0.000000000000000000e+00 0.000000000000000000e+00 0.000000000000000000e+00 8.238629367935856873e-02 -9.212774039301871443e-02 -1.051551728648073974e-01 -1.297936677801148353e-01
2.500000000000000444e+00 7.521395954250161831e-01 0.000000000000000000e+00 2.308706248930686433e-01 1.698977968191620058e-02 0.000000000000000000e+00 0.000000000000000000e+00 8.912957063000931379e-02 -4.070661591431182780e-01 0.000000000000000000e+00 0.000000000000000000e+00 0.000000000000000000e+00 0.000000000000000000e+00 4.360431253116137801e-02 -4.495670252277550460e-02 -6.243288335602311528e-02 -9.423811208383295335e-02
2.600000000000000089e+00 8.662159267240673310e-01 0.000000000000000000e+00 1.294250669203981519e-01 4.359006355534504953e-03 0.000000000000000000e+00 0.000000000000000000e+00 1.039816273744997577e-01 -3.182732667414105432e-01 0.000000000000000000e+00 0.000000000000000000e+00 0.000000000000000000e+00 0.000000000000000000e+00 1.769403440053145607e-02 -1.584569591681450618e-02 -2.475106100366727610e-02 -5.624258434363051118e-02
2.700000000000000178e+00 9.461749976002925555e-01 0.000000000000000000e+00 5.331840927763552285e-02 5.065931220734651123e-04 0.000000000000000000e+00 0.000000000000000000e+00 1.158725130257943770e-01 -1.924112905144486074e-01 0.000000000000000000e+00 0.000000000000000000e+00 0.000000000000000000e+00 0.000000000000000000e+00 4.429178661768068924e-03 -2.719036756171026598e-03 -1.866814126109717401e-04 -2.189273894090501202e-02
2.800000000000000266e+00 9.825070871675767314e-01 0.000000000000000000e+00 1.744769849354714866e-02 4.521433887226070114e-05 0.000000000000000000e+00 0.000000000000000000e+00 1.234543493571422235e-01 -4.360630407951963244e-02 0.000000000000000000e+00 0.000000000000000000e+00 0.000000000000000000e+00 0.000000000000000000e+00 5.479476671155211536e-04 6.990333914388040595e-04 5.624170341809199385e-03 3.576660853456320108e-03
2.900000000000000355e+00 9.708084496595084101e-01 0.000000000000000000e+00 2.881376794669536848e-02 3.777823937946839911e-04 0.000000000000000000e+00 0.000000000000000000e+00 1.257703244739561410e-01 1.102473351309291444e-01 0.000000000000000000e+00 0.000000000000000000e+00 0.000000000000000000e+00 0.000000000000000000e+00 6.841983052506012825e-04 3.227570215387550161e-03 -9.362848305653688127e-03 1.670602324092053045e-02
3.000000000000000444e+00 9.125083616809920306e-01 0.000000000000000000e+00 8.515702835843405594e-02 2.334609960577019045e-03 0.000000000000000000e+00 0.000000000000000000e+00 1.224134117289146090e-01 2.504425264781124927e-01 0.000000000000000000e+00 0.000000000000000000e+00 0.000000000000000000e+00 0.000000000000000000e+00 -1.289427256837382416e-03 1.404085962707505089e-02 -4.314699197739010894e-02 1.639162826612329191e-02
3.100000000000000089e+00 8.146324925882266754e-01 0.000000000000000000e+00 1.754013925878130098e-01 9.966114823960802241e-03 0.000000000000000000e+00 0.000000000000000000e+00 1.136169317034231296e-01 3.605258221033420529e-01 0.000000000000000000e+00 0.000000000000000000e+00 0.000000000000000000e+00 0.000000000000000000e+00 -1.077889212830660491e-02 4.039660190922143845e-02 -9.001455967591195928e-02 4.011768502773589880e-03
3.200000000000000178e+00 6.886392442425260940e-01 0.000000000000000000e+00 2.818254321940588669e-01 2.953532356341866463e-02 0.000000000000000000e+00 0.000000000000000000e+00 1.002336776993251466e-01 4.289863251526638832e-01 0.000000000000000000e+00 0.000000000000000000e+00 0.000000000000000000e+00 0.000000000000000000e+00 -3.115007679281370928e-02 8.575241596133104105e-02 -1.416085730740669624e-01 -1.691712360642748728e-02
3.300000000000000266e+00 5.485789906120716042e-01 0.000000000000000000e+00 3.835073115697364976e-01 6.791369781819180107e-02 0.000000000000000000e+00 0.000000000000000000e+00 8.363442678452001622e-02 4.509870781340106216e-01 0.000000000000000000e+00 0.000000000000000000e+00 0.000000000000000000e+00 0.000000000000000000e+00 -6.283441235534258096e-02 1.486513810336597963e-01 -1.885100123825076135e-01 -4.147282879331760236e-02
3.400000000000000355e+00 4.088665959137479100e-01 0.000000000000000000e+00 4.604199159547266995e-01 1.307134881315249741e-01 0.000000000000000000e+00 0.000000000000000000e+00 6.550512878485181822e-02 4.289048854104075548e-01 0.000000000000000000e+00 0.000000000000000000e+00 0.000000000000000000e+00 0.000000000000000000e+00 -1.030484629256503831e-01 2.226299794315447222e-01 -2.220522720640923375e-01 -6.432081395022912207e-02
3.500000000000000444e+00 2.820880876058867170e-01 0.000000000000000000e+00 4.973490027344171227e-01 2.205629096596978811e-01 0.000000000000000000e+00 0.000000000000000000e+00 4.759910306761042792e-02 3.715246377951728074e-01 0.000000000000000000e+00 0.000000000000000000e+00 0.000000000000000000e+00 0.000000000000000000e+00 -1.461935650061077230e-01 2.971938459827727641e-01 -2.359982966315800901e-01 -8.076491538628753630e-02
3.600000000000000089e+00 1.773154136736947162e-01 0.000000000000000000e+00 4.868454816853072797e-01 3.358391046409985314e-01 0.000000000000000000e+00 0.000000000000000000e+00 3.148699809935681659e-02 2.921194578394775698e-01 0.000000000000000000e+00 0.000000000000000000e+00 0.000000000000000000e+00 0.000000000000000000e+00 -1.848343371584602324e-01 3.596359498174682146e-01 -2.277448210315087540e-01 -8.764556899784685384e-02
3.700000000000000178e+00 9.906996299683056006e-02 0.000000000000000000e+00 4.307056322072444488e-01 4.702244047959223683e-01 0.000000000000000000e+00 0.000000000000000000e+00 1.833243252123213651e-02 2.057520815346212950e-01 0.000000000000000000e+00 0.000000000000000000e+00 0.000000000000000000e+00 0.000000000000000000e+00 -2.111148529503290572e-01 3.974403154430914964e-01 -1.988467665066384060e-01 -8.393498912051684802e-02
3.800000000000000266e+00 4.724664007028417378e-02 0.000000000000000000e+00 3.396277835458587635e-01 6.131255763838577844e-01 0.000000000000000000e+00 0.000000000000000000e+00 8.747406626182004791e-03 1.263714999960342811e-01 0.000000000000000000e+00 0.000000000000000000e+00 0.000000000000000000e+00 0.000000000000000000e+00 -2.183022471786618957e-01 4.007226016542324021e-01 -1.547267280053553629e-01 -7.090674063066787491e-02
3.900000000000000355e+00 1.788195269574201565e-02 0.000000000000000000e+00 2.311363317992653210e-01 7.509817155049909321e-01 0.000000000000000000e+00 0.000000000000000000e+00 2.752552728308900291e-03 6.423078721019803705e-02 0.000000000000000000e+00 0.000000000000000000e+00 0.000000000000000000e+00 0.000000000000000000e+00 -2.021709477518417453e-01 3.642884215831942440e-01 -1.036402208393163854e-01 -5.184332933502860258e-02
4.000000000000000000e+00 4.622944532953163731e-03 0.000000000000000000e+00 1.261785775478055927e-01 8.691984779192408750e-01 0.000000000000000000e+00 0.000000000000000000e+00 -1.571202433917304490e-04 2.415147090886394024e-02 0.000000000000000000e+00 0.000000000000000000e+00 0.000000000000000000e+00 0.000000000000000000e+00 -1.619581499857152551e-01 2.888663348106088047e-01 -5.508943108315263182e-02 -3.135965727154425148e-02
4.099999999999999645e+00 5.587328304063249101e-04 0.000000000000000000e+00 4.506325751976660715e-02 9.543780096498297727e-01 0.000000000000000000e+00 0.000000000000000000e+00 -8.481388766418835592e-04 4.945624775591561488e-03 0.000000000000000000e+00 0.000000000000000000e+00 0.000000000000000000e+00 0.000000000000000000e+00 -1.006979202561483488e-01 1.812934055569352110e-01 -1.800148265966455829e-02 -1.446360482196027558e-02
4.200000000000000178e+00 3.178481856488937969e-05 0.000000000000000000e+00 3.498902040781525207e-03 9.964693131406545668e-01 0.000000000000000000e+00 0.000000000000000000e+00 -3.225564985502949529e-04 8.475396134455189011e-05 0.000000000000000000e+00 0.000000000000000000e+00 0.000000000000000000e+00 0.000000000000000000e+00 -2.485654311943333999e-02 5.356017448764364280e-02 9.938455670826856422e-04 -5.539801939081031266e-03
4.299999999999999822e+00 5.754829794385122991e-05 0.000000000000000000e+00 9.553314995167068793e-03 9.903891367068927698e-01 0.000000000000000000e+00 0.000000000000000000e+00 5.281958716261859078e-04 -5.203903037810049320e-04 0.000000000000000000e+00 0.000000000000000000e+00 0.000000000000000000e+00 0.000000000000000000e+00 5.665638795624501622e-02 -7.906672718080218210e-02 -1.174204874830849996e-03 -7.457585835954390861e-03
4.399999999999999467e+00 1.055724729223415665e-03 0.000000000000000000e+00 6.207689767842421852e-02 9.368673775923536118e-01 0.000000000000000000e+00 0.000000000000000000e+00 1.138042214494651124e-03 -8.015043023624232252e-03 0.000000000000000000e+00 0.000000000000000000e+00 0.000000000000000000e+00 0.000000000000000000e+00 1.339322691102284024e-01 -2.005491627622961737e-01 -2.343844705703912110e-02 -2.096922208599875243e-02
4.500000000000000000e+00 6.745974617620954447e-03 0.000000000000000000e+00 1.509346808264243334e-01 8.423193445559536974e-01 0.000000000000000000e+00 0.000000000000000000e+00 1.406381987539703175e-03 -3.187826025447754869e-02 0.000000000000000000e+00 0.000000000000000000e+00 0.000000000000000000e+00 0.000000000000000000e+00 1.977058070970944270e-01 -2.967281850240186536e-01 -6.082847643634009538e-02 -4.452144022924680450e-02
4.599999999999999645e+00 2.322961116783790053e-02 0.000000000000000000e+00 2.589751976662869049e-01 7.177951911658765338e-01 0.000000000000000000e+00 0.000000000000000000e+00 1.732560999484075107e-03 -7.754281902387542835e-02 0.000000000000000000e+00 0.000000000000000000e+00 0.000000000000000000e+00 0.000000000000000000e+00 2.408541525071054568e-01 -3.576037504225442198e-01 -1.054629953809396864e-01 -7.450935401972853811e-02
4.700000000000000178e+00 5.744271643839746200e-02 0.000000000000000000e+00 3.653555441712486029e-01 5.772017393903525750e-01 0.000000000000000000e+00 0.000000000000000000e+00 2.935759829863721169e-03 -1.448391854750524788e-01 0.000000000000000000e+00 0.000000000000000000e+00 0.000000000000000000e+00 0.000000000000000000e+00 2.595214625682046861e-01 -3.788568140895939296e-01 -1.481061670157561294e-01 -1.059272344979288877e-01
4.799999999999999822e+00 1.153071708321205535e-01 0.000000000000000000e+00 4.496086821636192665e-01 4.350841470042590697e-01 0.000000000000000000e+00 0.000000000000000000e+00 6.072468368452120513e-03 -2.276098005926820989e-01 0.000000000000000000e+00 0.000000000000000000e+00 0.000000000000000000e+00 0.000000000000000000e+00 2.536423449497809401e-01 -3.623302144833498994e-01 -1.800002261603431408e-01 -1.332975061524308280e-01
4.900000000000000355e+00 1.999501864885491753e-01 0.000000000000000000e+00 4.956024652936340535e-01 3.044473482178160495e-01 0.000000000000000000e+00 0.000000000000000000e+00 1.218458126689766531e-02 -3.145589452014870280e-01 0.000000000000000000e+00 0.000000000000000000e+00 0.000000000000000000e+00 0.000000000000000000e+00 2.267714283183225044e-01 -3.153721387321162251e-01 -1.945914559690465062e-01 -1.516853902020568745e-01
5.000000000000000000e+00 3.104031525093283728e-01 0.000000000000000000e+00 4.946775325965259706e-01 1.949193148941449905e-01 0.000000000000000000e+00 0.000000000000000000e+00 2.203122638525830887e-02 -3.912340103404323699e-01 0.000000000000000000e+00 0.000000000000000000e+00 0.000000000000000000e+00 0.000000000000000000e+00 1.852706876662603974e-01 -2.491927124002769889e-01 -1.888319428054606175e-01 -1.576263408014332568e-01
5.099999999999999645e+00 4.409907115306166414e-01 0.000000000000000000e+00 4.473104086784505107e-01 1.116988797909322095e-01 0.000000000000000000e+00 0.000000000000000000e+00 3.585102217919328843e-02 -4.426899711219370315e-01 0.000000000000000000e+00 0.000000000000000000e+00 0.000000000000000000e+00 0.000000000000000000e+00 1.370318417770329811e-01 -1.765965995362591412e-01 -1.637896426507399195e-01 -1.497702442664884948e-01
5.200000000000000178e+00 5.816969975525502212e-01 0.000000000000000000e+00 3.630084857715073499e-01 5.529451667593942438e-02 0.000000000000000000e+00 0.000000000000000000e+00 5.321448190701493636e-02 -4.564308598016146856e-01 0.000000000000000000e+00 0.000000000000000000e+00 0.000000000000000000e+00 0.000000000000000000e+00 8.994312340553177465e-02 -1.094651671030490575e-01 -1.244516549961306867e-01 -1.291373384887404274e-01
5.299999999999999822e+00 7.193202399164791982e-01 0.000000000000000000e+00 2.584499406107632624e-01 2.222981947275843445e-02 0.000000000000000000e+00 0.000000000000000000e+00 7.299090285952540558e-02 -4.249477210163066232e-01 0.000000000000000000e+00 0.000000000000000000e+00 0.000000000000000000e+00 0.000000000000000000e+00 5.045368128860114321e-02 -5.656613377813508869e-02 -7.875798252854403214e-02 -9.893209099986847999e-02
5.400000000000000355e+00 8.393796017112313823e-01 0.000000000000000000e+00 1.542016733593046807e-01 6.418724929467299785e-03 0.000000000000000000e+00 0.000000000000000000e+00 9.345581556046053673e-02 -3.474186458132752509e-01 0.000000000000000000e+00 0.000000000000000000e+00 0.000000000000000000e+00 0.000000000000000000e+00 2.245477136808603572e-02 -2.203551470974169507e-02 -3.603737899728078065e-02 -6.394584784394903576e-02
5.500000000000000000e+00 9.282895252512790574e-01 0.000000000000000000e+00 7.073225327691676223e-02 9.782214718038954697e-04 0.000000000000000000e+00 0.000000000000000000e+00 1.125094814012835842e-01 -2.302207339833393929e-01 0.000000000000000000e+00 0.000000000000000000e+00 0.000000000000000000e+00 0.000000000000000000e+00 6.733880334322911616e-03 -4.883440976474060641e-03 -5.183607318401890589e-03 -2.968543099624552234e-02
5.599999999999999645e+00 9.755551636216072131e-01 0.000000000000000000e+00 2.439104920477466742e-02 5.378717361771250389e-05 0.000000000000000000e+00 0.000000000000000000e+00 1.279895648003004649e-01 -8.610134889738087216e-02 0.000000000000000000e+00 0.000000000000000000e+00 0.000000000000000000e+00 0.000000000000000000e+00 1.053769966731666046e-03 4.494991501845020014e-04 7.116261159191060101e-03 -1.361497146072910853e-03
5.700000000000000178e+00 9.754610324478354411e-01 0.000000000000000000e+00 2.423604149436704366e-02 3.029260577959242079e-04 0.000000000000000000e+00 0.000000000000000000e+00 1.380087556438551188e-01 6.778559617929237613e-02 0.000000000000000000e+00 0.000000000000000000e+00 0.000000000000000000e+00 0.000000000000000000e+00 8.607459122567815086e-04 2.569237228251974869e-03 -2.284409488555314092e-03 1.703751297111977953e-02
5.799999999999999822e+00 9.280199417752300617e-01 0.000000000000000000e+00 7.026123536608008813e-02 1.718822858688304547e-03 0.000000000000000000e+00 0.000000000000000000e+00 1.412654307113429264e-01 2.127155371746384804e-01 0.000000000000000000e+00 0.000000000000000000e+00 0.000000000000000000e+00 0.000000000000000000e+00 4.505924808537198367e-04 1.098014721577033649e-02 -3.233628230590900737e-02 2.344056363057640119e-02
5.900000000000000355e+00 8.389688639963831518e-01 0.000000000000000000e+00 1.534018024940264346e-01 7.629333509594863998e-03 0.000000000000000000e+00 0.000000000000000000e+00 1.372703992658804717e-01 3.314455750095116060e-01 0.000000000000000000e+00 0.000000000000000000e+00 0.000000000000000000e+00 0.000000000000000000e+00 -5.639867514637002949e-03 3.374233395407071068e-02 -7.795165565143950814e-02 1.800836323070971468e-02
6.000000000000000000e+00 7.188229441224930349e-01 0.000000000000000000e+00 2.573061872359678759e-01 2.387086864154085511e-02 0.000000000000000000e+00 0.000000000000000000e+00 1.264342179189339166e-01 4.110620443792025736e-01 0.000000000000000000e+00 0.000000000000000000e+00 0.000000000000000000e+00 0.000000000000000000e+00 -2.130344090889042113e-02 7.542068645703936536e-02 -1.309569526904559023e-01 3.026459436039571644e-03
