1.000000000000000056e-01 9.755827105287676604e-01 0.000000000000000000e+00 2.426568980332243636e-02 1.515996679095960216e-04 0.000000000000000000e+00 0.000000000000000000e+00 -1.323395388833682480e-04 1.538608784426860054e-01 0.000000000000000000e+00 0.000000000000000000e+00 0.000000000000000000e+00 0.000000000000000000e+00 -1.069391158837360196e-03 1.592191274019584329e-03 -1.008973686615127069e-02 -6.789346351745988162e-03
2.000000000000000111e-01 9.053399493932472453e-01 0.000000000000000000e+00 9.229634165296737858e-02 2.363708953787425730e-03 0.000000000000000000e+00 0.000000000000000000e+00 -1.001589720897573619e-03 2.890649789381248280e-01 0.000000000000000000e+00 0.000000000000000000e+00 0.000000000000000000e+00 0.000000000000000000e+00 -8.264045326345103096e-03 1.224202774334211784e-02 -3.825140020319280076e-02 -2.601519766658240765e-02
3.000000000000000444e-01 7.977846095170036955e-01 0.000000000000000000e+00 1.907548144189406270e-01 1.146057606405920422e-02 0.000000000000000000e+00 0.000000000000000000e+00 -3.062738746104431455e-03 3.900921362617718602e-01 0.000000000000000000e+00 0.000000000000000000e+00 0.000000000000000000e+00 0.000000000000000000e+00 -2.631250174308431486e-02 3.864986820320061300e-02 -7.861621412152847155e-02 -5.442942289792782051e-02
4.000000000000000222e-01 6.654869686948753360e-01 0.000000000000000000e+00 3.004231163277704675e-01 3.408991497735368997e-02 0.000000000000000000e+00 0.000000000000000000e+00 -6.303256629557383792e-03 4.470882887827896668e-01 0.000000000000000000e+00 0.000000000000000000e+00 0.000000000000000000e+00 0.000000000000000000e+00 -5.741475361994310966e-02 8.333633392204441159e-02 -1.228161116298145394e-01 -8.719287166357871099e-02
5.000000000000000000e-01 5.229895474618276863e-01 0.000000000000000000e+00 4.000510859834915389e-01 7.695936655467826293e-02 0.000000000000000000e+00 0.000000000000000000e+00 -1.020776769878792810e-02 4.572945854773628471e-01 0.000000000000000000e+00 0.000000000000000000e+00 0.000000000000000000e+00 0.000000000000000000e+00 -1.005897983578525196e-01 1.437684618282794036e-01 -1.617736937072922210e-01 -1.186516593645152301e-01
5.999999999999999778e-01 3.844892614210472792e-01 0.000000000000000000e+00 4.705676425767180149e-01 1.449430960022356218e-01 0.000000000000000000e+00 0.000000000000000000e+00 -1.390268478044796689e-02 4.251292988959265995e-01 0.000000000000000000e+00 0.000000000000000000e+00 0.000000000000000000e+00 0.000000000000000000e+00 -1.516314574746769894e-01 2.126345034522815758e-01 -1.876224904493455636e-01 -1.432719965357319714e-01
7.000000000000000666e-01 2.617191928983624849e-01 0.000000000000000000e+00 4.987935385317792680e-01 2.394872685698590797e-01 0.000000000000000000e+00 0.000000000000000000e+00 -1.642529202554155604e-02 3.609349694815978116e-01 0.000000000000000000e+00 0.000000000000000000e+00 0.000000000000000000e+00 0.000000000000000000e+00 -2.036915521483443903e-01 2.792211554619957181e-01 -1.953413155871872586e-01 -1.565892240597950846e-01
8.000000000000000444e-01 1.624482743530067108e-01 0.000000000000000000e+00 4.798916146849316888e-01 3.576601109620631824e-01 0.000000000000000000e+00 0.000000000000000000e+00 -1.704420641108983156e-02 2.786881048123148186e-01 0.000000000000000000e+00 0.000000000000000000e+00 0.000000000000000000e+00 0.000000000000000000e+00 -2.483802392099135892e-01 3.315800730629382964e-01 -1.837372761021649481e-01 -1.560188489470347439e-01
9.000000000000000222e-01 8.981167976346027260e-02 0.000000000000000000e+00 4.181011217560402504e-01 4.920871984805000876e-01 0.000000000000000000e+00 0.000000000000000000e+00 -1.552798440257356465e-02 1.931560142483535469e-01 0.000000000000000000e+00 0.000000000000000000e+00 0.000000000000000000e+00 0.000000000000000000e+00 -2.772061415757055558e-01 3.590250191272829072e-01 -1.555685591455921724e-01 -1.413987316247106718e-01
1.000000000000000000e+00 4.257366605699158119e-02 0.000000000000000000e+00 3.256450063023090258e-01 6.317813276406976097e-01 0.000000000000000000e+00 0.000000000000000000e+00 -1.225454551662532449e-02 1.171056270879385630e-01 0.000000000000000000e+00 0.000000000000000000e+00 0.000000000000000000e+00 0.000000000000000000e+00 -2.830737143222201713e-01 3.544089537580641935e-01 -1.167969486823454695e-01 -1.151334882115618019e-01
1.100000000000000089e+00 1.617363171497589874e-02 0.000000000000000000e+00 2.200839465897763969e-01 7.637424216952460876e-01 0.000000000000000000e+00 0.000000000000000000e+00 -8.121636669782519163e-03 5.910664737204970182e-02 0.000000000000000000e+00 0.000000000000000000e+00 0.000000000000000000e+00 0.000000000000000000e+00 -2.615896928345839423e-01 3.156869945250551091e-01 -7.512889411738372936e-02 -8.190322442789535473e-02
1.200000000000000178e+00 4.295155342305119299e-03 0.000000000000000000e+00 1.207430374353039848e-01 8.749618072223941390e-01 0.000000000000000000e+00 0.000000000000000000e+00 -4.249349501206397053e-03 2.237304530789305940e-02 0.000000000000000000e+00 0.000000000000000000e+00 0.000000000000000000e+00 0.000000000000000000e+00 -2.119197458805313072e-01 2.464458700219056553e-01 -3.820695387357582462e-02 -4.794085783452003979e-02
1.300000000000000266e+00 5.647332365618661131e-04 0.000000000000000000e+00 4.494247144432830104e-02 9.544927953191119085e-01 0.000000000000000000e+00 0.000000000000000000e+00 -1.548990389776273846e-03 4.793865233002391271e-03 0.000000000000000000e+00 0.000000000000000000e+00 0.000000000000000000e+00 0.000000000000000000e+00 -1.370473229872405385e-01 1.552910050717985768e-01 -1.184089885658982065e-02 -1.997065879670480160e-02
1.400000000000000133e+00 1.763089510421897164e-05 0.000000000000000000e+00 4.849740519563832883e-03 9.951326285853319131e-01 0.000000000000000000e+00 0.000000000000000000e+00 -2.738013191326434917e-04 1.026565227303347539e-04 0.000000000000000000e+00 0.000000000000000000e+00 0.000000000000000000e+00 0.000000000000000000e+00 -4.339366606785828584e-02 5.425057363267719174e-02 1.301522973421772927e-03 -3.981355950690932018e-03
1.500000000000000222e+00 2.147240823061832645e-05 0.000000000000000000e+00 5.539386345671408474e-03 9.944391412460981128e-01 0.000000000000000000e+00 0.000000000000000000e+00 3.126760273284157478e-04 -1.455252488624338614e-04 0.000000000000000000e+00 0.000000000000000000e+00 0.000000000000000000e+00 0.000000000000000000e+00 6.016366640413847722e-02 -4.346166059293744832e-02 2.254219292171517029e-03 -4.033784464344864970e-03
1.600000000000000089e+00 4.988324849096711705e-04 0.000000000000000000e+00 4.461196414672830707e-02 9.548892033683609171e-01 0.000000000000000000e+00 0.000000000000000000e+00 2.028028051463696448e-03 -4.259224493697775192e-03 0.000000000000000000e+00 0.000000000000000000e+00 0.000000000000000000e+00 0.000000000000000000e+00 1.636321248207449897e-01 -1.257935240051659687e-01 -4.571246017456311733e-03 -2.134088041319573067e-02
1.700000000000000178e+00 3.455710180796381197e-03 0.000000000000000000e+00 1.133355232924865286e-01 8.832087665267155385e-01 0.000000000000000000e+00 0.000000000000000000e+00 7.555321139561302878e-03 -1.829130447443649832e-02 0.000000000000000000e+00 0.000000000000000000e+00 0.000000000000000000e+00 0.000000000000000000e+00 2.574658191184185929e-01 -1.838757195318966309e-01 -1.251231531069634147e-02 -5.381036231293601785e-02
1.800000000000000266e+00 1.198270316900894479e-02 0.000000000000000000e+00 1.989638720986185716e-01 7.890534247323706118e-01 0.000000000000000000e+00 0.000000000000000000e+00 1.992619860495492903e-02 -4.457658089409187452e-02 0.000000000000000000e+00 0.000000000000000000e+00 0.000000000000000000e+00 0.000000000000000000e+00 3.339376353898991234e-01 -2.132575457679331821e-01 -1.433518852885412587e-02 -9.617429401505819819e-02
1.900000000000000133e+00 2.900935391789185094e-02 0.000000000000000000e+00 2.876589558948826619e-01 6.833316901872268367e-01 0.000000000000000000e+00 0.000000000000000000e+00 4.179511827286370301e-02 -8.122787958762202332e-02 0.000000000000000000e+00 0.000000000000000000e+00 0.000000000000000000e+00 0.000000000000000000e+00 3.882008167641887719e-01 -2.141649058993339849e-01 -4.071704462304714250e-03 -1.407353243823027678e-01
2.000000000000000000e+00 5.613677166397912366e-02 0.000000000000000000e+00 3.673310441541043914e-01 5.765321841819135429e-01 0.000000000000000000e+00 0.000000000000000000e+00 7.465886595151603744e-02 -1.226655305861807932e-01 0.000000000000000000e+00 0.000000000000000000e+00 0.000000000000000000e+00 0.000000000000000000e+00 4.187754864831613189e-01 -1.908016301940770598e-01 2.139900624839102469e-02 -1.786245711714324058e-01
2.100000000000000089e+00 9.283756616361744929e-02 0.000000000000000000e+00 4.297778389474560257e-01 4.773845948889271495e-01 0.000000000000000000e+00 0.000000000000000000e+00 1.182099568632187653e-01 -1.610153236455340031e-01 0.000000000000000000e+00 0.000000000000000000e+00 0.000000000000000000e+00 0.000000000000000000e+00 4.274336211499004667e-01 -1.498993649649053295e-01 6.140571344025975986e-02 -2.013667351017839335e-01
2.200000000000000178e+00 1.362190153140183657e-01 0.000000000000000000e+00 4.717201647577817791e-01 3.920608199282022421e-01 0.000000000000000000e+00 0.000000000000000000e+00 1.700028014196081905e-01 -1.880327196531110245e-01 0.000000000000000000e+00 0.000000000000000000e+00 0.000000000000000000e+00 0.000000000000000000e+00 4.185188708124413792e-01 -9.891890678205371434e-02 1.113994968382578526e-01 -2.024754083599726584e-01
2.300000000000000266e+00 1.814004685867255662e-01 0.000000000000000000e+00 4.945837302924959711e-01 3.240158011207782129e-01 0.000000000000000000e+00 0.000000000000000000e+00 2.255514611021360860e-01 -1.970894677424760433e-01 0.000000000000000000e+00 0.000000000000000000e+00 0.000000000000000000e+00 0.000000000000000000e+00 3.978529857944244630e-01 -4.433899020759871773e-02 1.637691834301728822e-01 -1.787631742740257712e-01
2.400000000000000355e+00 2.223951162593744701e-01 0.000000000000000000e+00 5.031919395500155101e-01 2.744129441906101863e-01 0.000000000000000000e+00 0.000000000000000000e+00 2.788758261286450879e-01 -1.847585002768960538e-01 0.000000000000000000e+00 0.000000000000000000e+00 0.000000000000000000e+00 0.000000000000000000e+00 3.714713849735613027e-01 9.559926546253509280e-03 2.093846474410086256e-01 -1.310960269111631493e-01
2.500000000000000444e+00 2.533026925064641999e-01 0.000000000000000000e+00 5.037921256838235884e-01 2.429051818097124060e-01 0.000000000000000000e+00 0.000000000000000000e+00 3.234352389195304656e-01 -1.516626116678508884e-01 0.000000000000000000e+00 0.000000000000000000e+00 0.000000000000000000e+00 0.000000000000000000e+00 3.444317207220535804e-01 6.115969293643920557e-02 2.395372775397147380e-01 -6.442382445134632596e-02
2.600000000000000089e+00 2.695162993178011335e-01 0.000000000000000000e+00 5.019419959597875014e-01 2.285417047224122533e-01 0.000000000000000000e+00 0.000000000000000000e+00 3.532657729351468268e-01 -1.023955221109850156e-01 0.000000000000000000e+00 0.000000000000000000e+00 0.000000000000000000e+00 0.000000000000000000e+00 3.199388902773290799e-01 1.111475868410387174e-01 2.478463161280202165e-01 1.295832559077889946e-02
2.700000000000000178e+00 2.686491973085205487e-01 0.000000000000000000e+00 5.008115372459404080e-01 2.305392654455392099e-01 0.000000000000000000e+00 0.000000000000000000e+00 3.640846207133288104e-01 -4.455341022782911831e-02 0.000000000000000000e+00 0.000000000000000000e+00 0.000000000000000000e+00 0.000000000000000000e+00 2.989614283363731806e-01 1.614892823275854983e-01 2.317082337407165016e-01 9.080464111573711972e-02
2.800000000000000266e+00 2.510035428198678642e-01 0.000000000000000000e+00 5.003143286738708229e-01 2.486821285062603415e-01 0.000000000000000000e+00 0.000000000000000000e+00 3.541399339988796635e-01 1.286765373720032309e-02 0.000000000000000000e+00 0.000000000000000000e+00 0.000000000000000000e+00 0.000000000000000000e+00 2.803744730370359428e-01 2.140312756285127627e-01 1.929541326294575143e-01 1.587097923444423520e-01
2.900000000000000355e+00 2.194532662028229331e-01 0.000000000000000000e+00 4.972546227230500993e-01 2.832921110741287163e-01 0.000000000000000000e+00 0.000000000000000000e+00 3.245937771009151374e-01 6.134355340734388984e-02 0.000000000000000000e+00 0.000000000000000000e+00 0.000000000000000000e+00 0.000000000000000000e+00 2.615951608576153053e-01 2.691398957668582059e-01 1.375596349670162866e-01 2.079584726434930420e-01
3.000000000000000444e+00 1.788187599299818353e-01 0.000000000000000000e+00 4.864190083324088643e-01 3.347622317376085510e-01 0.000000000000000000e+00 0.000000000000000000e+00 2.793666664089465845e-01 9.452570980164527736e-02 0.000000000000000000e+00 0.000000000000000000e+00 0.000000000000000000e+00 0.000000000000000000e+00 2.395338821612622016e-01 3.247433321419545549e-01 7.446499393111823129e-02 2.330595028584526995e-01
3.100000000000000089e+00 1.348350002774235668e-01 0.000000000000000000e+00 4.622989202460432989e-01 4.028660794765343556e-01 0.000000000000000000e+00 0.000000000000000000e+00 2.244205754881597736e-01 1.094051228050596791e-01 0.000000000000000000e+00 0.000000000000000000e+00 0.000000000000000000e+00 0.000000000000000000e+00 2.116608965801994868e-01 3.760907042520429400e-01 1.374610858842534311e-02 2.326617565951169253e-01
3.200000000000000178e+00 9.302708703848278082e-02 0.000000000000000000e+00 4.209851446613543935e-01 4.859877683001620485e-01 0.000000000000000000e+00 0.000000000000000000e+00 1.666772984766367038e-01 1.066850525490088963e-01 0.000000000000000000e+00 0.000000000000000000e+00 0.000000000000000000e+00 0.000000000000000000e+00 1.769175982671002123e-01 4.162857105847110328e-01 -3.544855435951764500e-02 2.096507259872388840e-01
3.300000000000000266e+00 5.769714119140773034e-02 0.000000000000000000e+00 3.617303385550186268e-01 5.805725202535738649e-01 0.000000000000000000e+00 0.000000000000000000e+00 1.127549191966661646e-01 9.031686030446939295e-02 0.000000000000000000e+00 0.000000000000000000e+00 0.000000000000000000e+00 0.000000000000000000e+00 1.362768392324441025e-01 4.375377870156298976e-01 -6.676563145876468486e-02 1.704104639598260085e-01
3.400000000000000355e+00 3.126648715463614669e-02 0.000000000000000000e+00 2.877614691385300683e-01 6.809720437068322862e-01 0.000000000000000000e+00 0.000000000000000000e+00 6.781138608071263230e-02 6.632425169281425115e-02 0.000000000000000000e+00 0.000000000000000000e+00 0.000000000000000000e+00 0.000000000000000000e+00 9.281753017669457095e-02 4.328307069798278395e-01 -7.788772868341078959e-02 1.233900557786053176e-01
3.500000000000000444e+00 1.410386928363501283e-02 0.000000000000000000e+00 2.061336514356127969e-01 7.797624792807551497e-01 0.000000000000000000e+00 0.000000000000000000e+00 3.475001642163465243e-02 4.122764325334168922e-02 0.000000000000000000e+00 0.000000000000000000e+00 0.000000000000000000e+00 0.000000000000000000e+00 5.129056809557050456e-02 3.976236449842296405e-01 -7.087992433725483210e-02 7.728974744393631024e-02
3.600000000000000089e+00 4.835085784133590775e-03 0.000000000000000000e+00 1.266290023310838175e-01 8.685359118847819637e-01 0.000000000000000000e+00 0.000000000000000000e+00 1.394034185017189488e-02 2.044331433328263822e-02 0.000000000000000000e+00 0.000000000000000000e+00 0.000000000000000000e+00 0.000000000000000000e+00 1.727283662765362673e-02 3.311849676614509463e-01 -5.156582999332679634e-02 3.924808830812676064e-02
3.700000000000000178e+00 1.031197027599273534e-03 0.000000000000000000e+00 5.994849283945712787e-02 9.390203101329454016e-01 0.000000000000000000e+00 0.000000000000000000e+00 3.506705778677693223e-03 7.037171377088063950e-03 0.000000000000000000e+00 0.000000000000000000e+00 0.000000000000000000e+00 0.000000000000000000e+00 -3.925124262198981598e-03 2.372286714229347726e-01 -2.807716067797404874e-02 1.341601442985186458e-02
3.800000000000000266e+00 8.032555619834614278e-05 0.000000000000000000e+00 1.560669419577816013e-02 9.843129802480241608e-01 0.000000000000000000e+00 0.000000000000000000e+00 1.047376056467388798e-04 1.114748392101977880e-03 0.000000000000000000e+00 0.000000000000000000e+00 0.000000000000000000e+00 0.000000000000000000e+00 -8.336813875927379450e-03 1.236623015800685510e-01 -8.888874229654905937e-03 2.344518823363442284e-04
3.900000000000000355e+00 1.239566678838555582e-05 0.000000000000000000e+00 3.600248382400681038e-05 9.999516018493869174e-01 0.000000000000000000e+00 0.000000000000000000e+00 -9.794210894532590699e-06 -1.872307768124240323e-05 0.000000000000000000e+00 0.000000000000000000e+00 0.000000000000000000e+00 0.000000000000000000e+00 5.809173661690250276e-03 1.501476799819230880e-03 -7.993561153805524245e-04 -3.428776188767315280e-03
4.000000000000000000e+00 6.523688785853008786e-05 0.000000000000000000e+00 1.531209180048306341e-02 9.846226713116609242e-01 0.000000000000000000e+00 0.000000000000000000e+00 1.143594175085259823e-04 -9.928912628042216131e-04 0.000000000000000000e+00 0.000000000000000000e+00 0.000000000000000000e+00 0.000000000000000000e+00 3.765993757838870942e-02 -1.168689856347797651e-01 -7.296902798560715893e-03 -3.314858155078252277e-03
4.099999999999999645e+00 8.563253057395805827e-04 0.000000000000000000e+00 5.879584705533526939e-02 9.403478276389254376e-01 0.000000000000000000e+00 0.000000000000000000e+00 -1.021290329586831570e-03 -7.021773723452136989e-03 0.000000000000000000e+00 0.000000000000000000e+00 0.000000000000000000e+00 0.000000000000000000e+00 8.384769805490896455e-02 -2.196772891760145341e-01 -2.769168828760502563e-02 -6.197802142513112074e-03
4.200000000000000178e+00 4.127223776587887055e-03 0.000000000000000000e+00 1.237529361983969317e-01 8.721198400250166349e-01 0.000000000000000000e+00 0.000000000000000000e+00 -2.960980071242512099e-03 -2.240509838475830684e-02 0.000000000000000000e+00 0.000000000000000000e+00 0.000000000000000000e+00 0.000000000000000000e+00 1.390759522870307352e-01 -2.976327784034065171e-01 -5.721311205309941722e-02 -1.805795494848627669e-02
4.299999999999999822e+00 1.213850557146043188e-02 0.000000000000000000e+00 2.007915470767132893e-01 7.870699473518278921e-01 0.000000000000000000e+00 0.000000000000000000e+00 -3.442495351875217175e-03 -4.924893743519125761e-02 0.000000000000000000e+00 0.000000000000000000e+00 0.000000000000000000e+00 0.000000000000000000e+00 1.970859844584909315e-01 -3.452449978770432137e-01 -8.805855706351840839e-02 -4.242095594819607351e-02
4.399999999999999467e+00 2.687768938043663333e-02 0.000000000000000000e+00 2.797482342859986537e-01 6.933740763335677348e-01 0.000000000000000000e+00 0.000000000000000000e+00 9.385688260481146522e-04 -8.670700437862664811e-02 0.000000000000000000e+00 0.000000000000000000e+00 0.000000000000000000e+00 0.000000000000000000e+00 2.517831360232178906e-01 -3.613522195499589973e-01 -1.111551299210575411e-01 -7.925166762043960034e-02
4.500000000000000000e+00 4.929992323631953582e-02 0.000000000000000000e+00 3.516435767076588337e-01 5.990565000560233999e-01 0.000000000000000000e+00 0.000000000000000000e+00 1.370620009969802412e-02 -1.309509063557779684e-01 0.000000000000000000e+00 0.000000000000000000e+00 0.000000000000000000e+00 0.000000000000000000e+00 2.982932581393974991e-01 -3.488201623887242642e-01 -1.182727366539622349e-01 -1.246795659236223514e-01
4.599999999999999645e+00 7.879770740430140641e-02 0.000000000000000000e+00 4.101792345034213083e-01 5.110230580922777710e-01 0.000000000000000000e+00 0.000000000000000000e+00 3.738110661581718619e-02 -1.758517324244637525e-01 0.000000000000000000e+00 0.000000000000000000e+00 0.000000000000000000e+00 0.000000000000000000e+00 3.336995847551822991e-01 -3.134575558688504904e-01 -1.039740453242633533e-01 -1.716299306966115601e-01
4.700000000000000178e+00 1.130392080838292929e-01 0.000000000000000000e+00 4.525102752501239389e-01 4.344505166660470041e-01 0.000000000000000000e+00 0.000000000000000000e+00 7.252968294510178660e-02 -2.142214877858005795e-01 0.000000000000000000e+00 0.000000000000000000e+00 0.000000000000000000e+00 0.000000000000000000e+00 3.573329388720959399e-01 -2.625004677411842957e-01 -6.699515727112503871e-02 -2.112382235036657230e-01
4.799999999999999822e+00 1.482535269288047519e-01 0.000000000000000000e+00 4.791828971193910491e-01 3.725635759518053924e-01 0.000000000000000000e+00 0.000000000000000000e+00 1.172485966392253914e-01 -2.393602273366837174e-01 0.000000000000000000e+00 0.000000000000000000e+00 0.000000000000000000e+00 0.000000000000000000e+00 3.705673701880622950e-01 -2.029924125705127314e-01 -1.072619174815177441e-02 -2.347739534369904513e-01
4.900000000000000355e+00 1.798774675491185693e-01 0.000000000000000000e+00 4.932527457263204962e-01 3.268697867245611843e-01 0.000000000000000000e+00 0.000000000000000000e+00 1.672153618568803513e-01 -2.465036970244727232e-01 0.000000000000000000e+00 0.000000000000000000e+00 0.000000000000000000e+00 0.000000000000000000e+00 3.761636373902142449e-01 -1.404647298272872213e-01 5.732407724368990265e-02 -2.356065660008037632e-01
5.000000000000000000e+00 2.034184848758106012e-01 0.000000000000000000e+00 4.988959350538188509e-01 2.976855800703711030e-01 0.000000000000000000e+00 0.000000000000000000e+00 2.163125317939540992e-01 -2.338665065993942582e-01 0.000000000000000000e+00 0.000000000000000000e+00 0.000000000000000000e+00 0.000000000000000000e+00 3.773552878252022236e-01 -7.821198543237897760e-02 1.269513428165657820e-01 -2.108034764138934924e-01
5.099999999999999645e+00 2.153868792954885258e-01 0.000000000000000000e+00 4.999007112793859564e-01 2.847124094251260451e-01 0.000000000000000000e+00 0.000000000000000000e+00 2.577545277837640647e-01 -2.030631784412564034e-01 0.000000000000000000e+00 0.000000000000000000e+00 0.000000000000000000e+00 0.000000000000000000e+00 3.768692802258766794e-01 -1.724768428000531331e-02 1.873119707453338167e-01 -1.619800574447278485e-01
5.200000000000000178e+00 2.139726191687527368e-01 0.000000000000000000e+00 4.984084134001261490e-01 2.876189674311189770e-01 0.000000000000000000e+00 0.000000000000000000e+00 2.853770485906362842e-01 -1.587630039666458881e-01 0.000000000000000000e+00 0.000000000000000000e+00 0.000000000000000000e+00 0.000000000000000000e+00 3.761663106739202567e-01 4.301883633871578932e-02 2.290872772084646125e-01 -9.519243290950903102e-02
5.299999999999999822e+00 1.994440555278470528e-01 0.000000000000000000e+00 4.942666126168560603e-01 3.062893318552950550e-01 0.000000000000000000e+00 0.000000000000000000e+00 2.949122282364544101e-01 -1.077279595343697272e-01 0.000000000000000000e+00 0.000000000000000000e+00 0.000000000000000000e+00 0.000000000000000000e+00 3.750153206991247434e-01 1.036923253232287789e-01 2.463592703648594950e-01 -1.986682657063367635e-02
5.400000000000000355e+00 1.740604454545771063e-01 0.000000000000000000e+00 4.851246526241402290e-01 3.408149019212829978e-01 0.000000000000000000e+00 0.000000000000000000e+00 2.848570171633185155e-01 -5.742380891402579235e-02 0.000000000000000000e+00 0.000000000000000000e+00 0.000000000000000000e+00 0.000000000000000000e+00 3.715788561264907197e-01 1.651268090911769126e-01 2.377307649446517290e-01 5.297618416568254662e-02
5.500000000000000000e+00 1.416001393928731367e-01 0.000000000000000000e+00 4.672525512050603735e-01 3.911473094020684882e-01 0.000000000000000000e+00 0.000000000000000000e+00 2.568123263345457041e-01 -1.450713270252515161e-02 0.000000000000000000e+00 0.000000000000000000e+00 0.000000000000000000e+00 0.000000000000000000e+00 3.629257000042332426e-01 2.259413870013212144e-01 2.064869557792746446e-01 1.129143434548847275e-01
5.599999999999999645e+00 1.065751202005129489e-01 0.000000000000000000e+00 4.368499735954494700e-01 4.565749062040381223e-01 0.000000000000000000e+00 0.000000000000000000e+00 2.151471069394219060e-01 1.640312297530906530e-02 0.000000000000000000e+00 0.000000000000000000e+00 0.000000000000000000e+00 0.000000000000000000e+00 3.459077171683386798e-01 2.824935079884368649e-01 1.597511179903225165e-01 1.521154346486886522e-01
5.700000000000000178e+00 7.334702526504591202e-02 0.000000000000000000e+00 3.915045486196334634e-01 5.351484261153212074e-01 0.000000000000000000e+00 0.000000000000000000e+00 1.661162132378845580e-01 3.348281640754902783e-02 0.000000000000000000e+00 0.000000000000000000e+00 0.000000000000000000e+00 0.000000000000000000e+00 3.181361304847255544e-01 3.290933531336420192e-01 1.068406527202869771e-01 1.668430915438014472e-01
5.799999999999999822e+00 4.531584648338229243e-02 0.000000000000000000e+00 3.313836784491898668e-01 6.233004750674296934e-01 0.000000000000000000e+00 0.000000000000000000e+00 1.165766361745581292e-01 3.777332228215793397e-02 0.000000000000000000e+00 0.000000000000000000e+00 0.000000000000000000e+00 0.000000000000000000e+00 2.788641448534470713e-01 3.588681907027080342e-01 5.719475427685717650e-02 1.580321390207131693e-01
5.900000000000000355e+00 2.440514296555271190e-02 0.000000000000000000e+00 2.598857715051698380e-01 7.157090855292782550e-01 0.000000000000000000e+00 0.000000000000000000e+00 7.265685730940209253e-02 3.261182710599864337e-02 0.000000000000000000e+00 0.000000000000000000e+00 0.000000000000000000e+00 0.000000000000000000e+00 2.295240753514337928e-01 3.651318878724145178e-01 1.834992048123847488e-02 1.308826349035187575e-01
6.000000000000000000e+00 1.089241743079154799e-02 0.000000000000000000e+00 1.834573809525782140e-01 8.056502016166282587e-01 0.000000000000000000e+00 0.000000000000000000e+00 3.859695118494862326e-02 2.255155868034585190e-02 0.000000000000000000e+00 0.000000000000000000e+00 0.000000000000000000e+00 0.000000000000000000e+00 1.738107870069726946e-01 3.429172860083453123e-01 -5.585753817735399952e-03 9.351094629106916634e-02
