1.000000000000000056e-01 -1.102151051111163182e-01 8.413823633073155839e-02 -8.745698201984679621e-01
2.000000000000000111e-01 -2.091813770918482251e-01 1.670938760089288322e-01 -7.977880988904607618e-01
2.999999999999999889e-01 -2.867708592168384807e-01 2.475275172387230438e-01 -6.786527092726979404e-01
4.000000000000000222e-01 -3.349865987962863945e-01 3.238193356429230896e-01 -5.294646057097395220e-01
5.000000000000000000e-01 -3.487645451701414379e-01 3.940033430880302001e-01 -3.656458301015504397e-01
5.999999999999999778e-01 -3.264918093381199982e-01 4.557800598761487798e-01 -2.041590947588771132e-01
6.999999999999999556e-01 -2.701841112137860490e-01 5.066190479976845351e-01 -6.176496015889107460e-02
7.999999999999999334e-01 -1.853072045856635486e-01 5.439436643400951121e-01 4.670269408378230347e-02
8.999999999999999112e-01 -8.026417988743207721e-02 5.653822030786169739e-01 1.098713725273813280e-01
9.999999999999998890e-01 3.441269963412681848e-02 5.690627626439337394e-01 1.210246846714264080e-01
1.099999999999999867e+00 1.470825157122383209e-01 5.539123520305381243e-01 7.881533559652216525e-02
1.199999999999999956e+00 2.461239073593986804e-01 5.199227101329096934e-01 -1.255134499350350936e-02
1.300000000000000044e+00 3.210776355182566877e-01 4.683442461597340234e-01 -1.437110344241853965e-01
1.399999999999999911e+00 3.636727731317387913e-01 4.017782345442317271e-01 -3.010492817778144814e-01
1.500000000000000000e+00 3.686577182865899971e-01 3.241335184654169366e-01 -4.680654561760363430e-01
1.599999999999999867e+00 3.343358602448315842e-01 2.404526508382938410e-01 -6.270185768269022075e-01
1.699999999999999956e+00 2.627628259488193896e-01 1.565973879192543716e-01 -7.607342115140364180e-01
1.800000000000000044e+00 1.595877869901446977e-01 7.882222735482913301e-02 -8.543513671441756996e-01
1.899999999999999911e+00 3.354180613391537918e-02 1.326203244814967187e-02 -8.968633282806002249e-01
2.000000000000000000e+00 -1.043708284598394154e-01 -3.460569724354170540e-02 -8.822748326117083595e-01
2.099999999999999645e+00 -2.419016822261127464e-01 -6.049228767834809173e-02 -8.102692817554205673e-01
2.199999999999999734e+00 -3.667149442676067572e-01 -6.174873305788734779e-02 -6.863115594862464475e-01
2.299999999999999822e+00 -4.675614530520474932e-01 -3.770036522048150762e-02 -5.211650896024631052e-01
2.399999999999999911e+00 -5.353449536502928874e-01 1.018514073638272094e-02 -3.298860475170267703e-01
2.500000000000000000e+00 -5.640007479174017346e-01 7.832049278367476941e-02 -1.303627322089474239e-01
2.600000000000000089e+00 -5.510802154742200365e-01 1.612188226414875969e-01 5.842618815672775273e-02
2.699999999999999734e+00 -4.979991466986707360e-01 2.519012354026533007e-01 2.182969526384269665e-01
2.799999999999999822e+00 -4.099162329247862946e-01 3.424705615308071271e-01 3.336615434357515508e-01
2.899999999999999911e+00 -2.952594753969957631e-01 4.247876942893812346e-01 3.931073369640375459e-01
3.000000000000000000e+00 -1.649398556003310867e-01 4.912046537521698730e-01 3.905696150736890360e-01
