1.000000000000000056e-01 9.245021849442207340e-02 -4.145004152570121170e-02 -9.948541858626639423e-01
2.000000000000000111e-01 1.798058044513594911e-01 -8.449638185822583303e-02 -9.800664436931233459e-01
2.999999999999999889e-01 2.572873998256334782e-01 -1.303161817440262327e-01 -9.575076429618496476e-01
4.000000000000000222e-01 3.207312122089704398e-01 -1.793043471709454273e-01 -9.300437839891840808e-01
5.000000000000000000e-01 3.668575177728600756e-01 -2.308090853867502679e-01 -9.011896178816763969e-01
5.999999999999999778e-01 3.935004125212687165e-01 -2.830166008982127335e-01 -8.746765278344220684e-01
6.999999999999999556e-01 3.997691386048606854e-01 -3.329859677938525331e-01 -8.539935481964633368e-01
7.999999999999999334e-01 3.861512808510839667e-01 -3.768588966469569312e-01 -8.419409479853023903e-01
8.999999999999999112e-01 3.545251259908828723e-01 -4.102127891115654457e-01 -8.402603179105250231e-01
9.999999999999998890e-01 3.080899180756523359e-01 -4.285206894925646104e-01 -8.493824936538988402e-01
1.099999999999999867e+00 2.511931477118641842e-01 -4.276944233337268697e-01 -8.683199195039867924e-01
1.199999999999999956e+00 1.890883608811210759e-01 -4.046188371734337763e-01 -8.947229666883381727e-01
1.300000000000000044e+00 1.275984871443507918e-01 -3.576348162565389788e-01 -9.251032181451691594e-01
1.399999999999999911e+00 7.272246178828091490e-02 -2.869216654543829126e-01 -9.551897200682313294e-01
1.500000000000000000e+00 3.020041832642834240e-02 -1.947007353056431633e-01 -9.803976529186259059e-01
1.599999999999999867e+00 5.075267532741484233e-03 -8.526096386169781938e-02 -9.963457280762434420e-01
1.699999999999999956e+00 1.255867124753312636e-03 3.524189484534583083e-02 -9.993780223757141590e-01
1.800000000000000044e+00 2.116087224681666157e-02 1.591794061985284392e-01 -9.870228638044286074e-01
1.899999999999999911e+00 6.543822126505979830e-02 2.780276715771962115e-01 -9.583415116896761843e-01
2.000000000000000000e+00 1.328032809116996005e-01 3.830702000286144160e-01 -9.141228087632429222e-01
2.099999999999999645e+00 2.200276091705038184e-01 4.661686518647893962e-01 -8.568982664382502890e-01
2.199999999999999734e+00 3.220760577405246128e-01 5.205392604702898662e-01 -7.907628540000839479e-01
2.299999999999999822e+00 4.324048221843031503e-01 5.414296834124910918e-01 -7.210270232028506143e-01
2.399999999999999911e+00 5.433967048212630102e-01 5.266636301754584748e-01 -6.537166367383598908e-01
2.500000000000000000e+00 6.469173167504581601e-01 4.769619211554327887e-01 -5.949834547235630655e-01
2.600000000000000089e+00 7.349493602138973403e-01 3.960318696841734765e-01 -5.504618022528218191e-01
2.699999999999999734e+00 8.002539100505537961e-01 2.903639578421856604e-01 -5.246736607676524278e-01
2.799999999999999822e+00 8.370089348497675719e-01 1.687881821338206301e-01 -5.205060929462244079e-01
2.899999999999999911e+00 8.413631080465371337e-01 4.178629253218221762e-02 -5.388525079769869164e-01
3.000000000000000000e+00 8.118638465974972185e-01 -7.937119256373298404e-02 -5.784265789211522346e-01
