1.000000000000000056e-01 1.501806926945711829e-01 2.487685970744908937e-01 -9.568489664778980774e-01
2.000000000000000111e-01 2.936989904595933010e-01 4.712314951517373451e-01 -8.316740833873864647e-01
2.999999999999999889e-01 4.242456959805309125e-01 6.437297191339291791e-01 -6.368890312835809864e-01
4.000000000000000222e-01 5.362047577973182433e-01 7.476402025533123163e-01 -3.918144780937609095e-01
5.000000000000000000e-01 6.249581563089775527e-01 7.712609853674528004e-01 -1.207633858132482890e-01
5.999999999999999778e-01 6.871363950621645067e-01 7.110099711176124382e-01 1.493599528574749979e-01
6.999999999999999556e-01 7.208157553891589853e-01 5.718132922416669928e-01 3.917323136055649302e-01
7.999999999999999334e-01 7.256289650255435264e-01 3.666530599652513267e-01 5.822612288718888029e-01
8.999999999999999112e-01 7.027995020424732120e-01 1.153039805361761039e-01 7.019813757846419255e-01
9.999999999999998890e-01 6.550819051183972563e-01 -1.575993115350573515e-01 7.389385323236792313e-01
1.099999999999999867e+00 5.866136577307247135e-01 -4.250083655135382665e-01 6.893854552134717206e-01
1.199999999999999956e+00 5.026788003791466952e-01 -6.601242900265634761e-01 5.581665930209912529e-01
1.300000000000000044e+00 4.093954019394653310e-01 -8.390775826480434407e-01 3.582516089643626445e-01
1.399999999999999911e+00 3.133449256164262398e-01 -9.433087161742913507e-01 1.094697371161611615e-01
1.500000000000000000e+00 2.211567592988098463e-01 -9.614465729004992856e-01 -1.634324791686823930e-01
1.599999999999999867e+00 1.390806761136827163e-01 -8.904825724013960553e-01 -4.332405263531201034e-01
1.699999999999999956e+00 7.257229125955909355e-02 -7.361219360759467811e-01 -6.729470689918248816e-01
1.800000000000000044e+00 2.592020733168075991e-02 -5.122803550831421804e-01 -8.584270385775951695e-01
1.899999999999999911e+00 1.941131238008266327e-03 -2.397686167342953090e-01 -9.708281220581337356e-01
2.000000000000000000e+00 1.773694803834061952e-03 5.570299420454434547e-02 -9.984458073761232066e-01
2.099999999999999645e+00 2.478667716929700351e-02 3.460159440186601487e-01 -9.379011607036422671e-01
2.199999999999999734e+00 6.861277311616617580e-02 6.033790413514477091e-01 -7.944973375540624883e-01
2.299999999999999822e+00 1.293084585890911520e-01 8.030382596109082449e-01 -5.817292118145064306e-01
2.399999999999999911e+00 2.016485869044992163e-01 9.257208505556914213e-01 -3.199668008331919555e-01
2.500000000000000000e+00 2.795107419499278656e-01 9.595231781777892044e-01 -3.448211121911839289e-02
2.600000000000000089e+00 3.563474379311786788e-01 9.011069240803764036e-01 2.470279647624429031e-01
2.699999999999999734e+00 4.256965713970546905e-01 7.560567043554522471e-01 4.971525813138575334e-01
2.799999999999999822e+00 4.817036745021874289e-01 5.383654458504324447e-01 6.914652670664286349e-01
2.899999999999999911e+00 5.195972952495057084e-01 2.691002853518875138e-01 8.109276703946062259e-01
3.000000000000000000e+00 5.360893074005774750e-01 -2.561831981620615525e-02 8.437724549668000895e-01
