1.000000000000000056e-01 -1.431140532887916275e-02 -3.043184175466301378e-01 -9.516156304011160749e-01
2.000000000000000111e-01 -3.195055592714857173e-02 -5.737799028462162720e-01 -8.118424460188253811e-01
2.999999999999999889e-01 -2.513113398097925957e-02 -7.939851735093593765e-01 -5.908743463719943190e-01
4.000000000000000222e-01 -2.008831915133289792e-02 -9.364819557407724204e-01 -3.116782782355996262e-01
5.000000000000000000e-01 -1.790440477436422428e-02 -9.861546030534591445e-01 -2.370380151438260426e-03
5.999999999999999778e-01 -1.663398148593313655e-02 -9.387331971119634577e-01 3.069749265281589978e-01
6.999999999999999556e-01 -1.576627549548706431e-02 -7.990330418024547132e-01 5.861482913984935594e-01
7.999999999999999334e-01 -1.512278094987358837e-02 -5.808032732613407356e-01 8.078509431831173426e-01
8.999999999999999112e-01 -1.462009980000870610e-02 -3.054555581312206058e-01 9.504003046702824697e-01
9.999999999999998890e-01 -1.421273415118614811e-02 5.594140570359326557e-06 9.998546620385011519e-01
1.099999999999999867e+00 -1.387362417372531125e-02 3.056340661680354009e-01 9.513878196071395843e-01
1.199999999999999956e+00 -1.358529920206109042e-02 5.814698199052256156e-01 8.097571590789666152e-01
1.300000000000000044e+00 -1.333592350685705412e-02 8.004722706902686058e-01 5.888369215906080756e-01
1.399999999999999911e+00 -1.311741810641181560e-02 9.411661850587268452e-01 3.102596267836134625e-01
1.500000000000000000e+00 -1.292371823046499849e-02 9.897439253220958744e-01 1.309178595361157327e-03
1.599999999999999867e+00 -1.275036286431743826e-02 9.414249440982667139e-01 -3.077695067175693633e-01
1.699999999999999956e+00 -1.259392087536681179e-02 8.009179475885449540e-01 -5.867151085521457032e-01
1.800000000000000044e+00 -1.245174492554234139e-02 5.819624505838675299e-01 -8.082184353617842820e-01
1.899999999999999911e+00 -1.232174906391767834e-02 3.059851056161109195e-01 -9.505942110103720033e-01
2.000000000000000000e+00 -1.220225534159027903e-02 -1.255322075194317197e-06 -9.999058907367610605e-01
2.099999999999999645e+00 -1.209184272971332297e-02 -3.060419903555715027e-01 -9.513269155603087945e-01
2.199999999999999734e+00 -1.198939464522062043e-02 -5.821710550276405494e-01 -8.096134531332709328e-01
2.299999999999999822e+00 -1.189382455635659176e-02 -8.013453969609914962e-01 -5.886424501714907498e-01
2.399999999999999911e+00 -1.180468316504723787e-02 -9.421005231822626724e-01 -3.100476725908555831e-01
2.500000000000000000e+00 -1.172101583479711294e-02 -9.906473750356566965e-01 -1.092083484549860291e-03
2.600000000000000089e+00 -1.164211082212206032e-02 -9.422181296762484060e-01 3.079649444107917522e-01
2.699999999999999734e+00 -1.156797290653156264e-02 -8.015446974723400286e-01 5.868737137031769802e-01
2.799999999999999822e+00 -1.149789082122738143e-02 -5.823883380139358579e-01 8.083316134748226300e-01
2.899999999999999911e+00 -1.143146041262981145e-02 -3.061962599175784283e-01 9.506590570386698191e-01
3.000000000000000000e+00 -1.136834953343989971e-02 1.065662020775665654e-06 9.999230762673037010e-01
