1.000000000000000056e-01 5.807875763933034730e-02 -3.018387724678507911e-01 -9.517486022209095120e-01
2.000000000000000111e-01 7.924085757210347358e-02 -5.678344185324537552e-01 -8.167911722366512084e-01
2.999999999999999889e-01 4.010007786568109411e-02 -7.679611691185742606e-01 -6.204802928825886577e-01
4.000000000000000222e-01 -6.208614316615068685e-02 -8.821696208200904277e-01 -3.940580754819601461e-01
5.000000000000000000e-01 -2.104089758015314504e-01 -9.013496786084811419e-01 -1.653144479001431022e-01
5.999999999999999778e-01 -3.737840535244070228e-01 -8.259289406584963134e-01 4.480843287377170303e-02
6.999999999999999556e-01 -5.132066991779374865e-01 -6.673042497793939543e-01 2.205782776546154067e-01
7.999999999999999334e-01 -5.921497274526582588e-01 -4.541028837639830007e-01 3.536244269964652909e-01
8.999999999999999112e-01 -5.924453454711030576e-01 -2.305855726277470930e-01 4.495313626903880699e-01
9.999999999999998890e-01 -5.214270958941105150e-01 -3.975758731433604032e-02 5.239818385999467365e-01
1.099999999999999867e+00 -4.046627942968396008e-01 9.166283930918547873e-02 5.909633871343925593e-01
1.199999999999999956e+00 -2.742632600287067124e-01 1.573084633260868059e-01 6.578318335070109102e-01
1.300000000000000044e+00 -1.577365478053283365e-01 1.679447632576634986e-01 7.256874345819173122e-01
1.399999999999999911e+00 -7.091538825958454417e-02 1.435526033683611480e-01 7.913932209071380397e-01
1.500000000000000000e+00 -1.706101528527775163e-02 1.045661875130591834e-01 8.504010690818718521e-01
1.599999999999999867e+00 9.344704834599018919e-03 6.605508154174383195e-02 8.991270922949580191e-01
1.699999999999999956e+00 1.741032483875794637e-02 3.592586704240325474e-02 9.361198767558787104e-01
1.800000000000000044e+00 1.582786871600433062e-02 1.620296277178757960e-02 9.620117088860717924e-01
1.899999999999999911e+00 1.086313863711840452e-02 5.387167123438233590e-03 9.787770617283698682e-01
2.000000000000000000e+00 6.037263154737886744e-03 6.491731302658816996e-04 9.888538808790547918e-01
2.099999999999999645e+00 2.709508211558849661e-03 -7.302140882496693710e-04 9.944925852036061720e-01
2.199999999999999734e+00 9.253376459603393977e-04 -7.100730386346240132e-04 9.974377381466418280e-01
2.299999999999999822e+00 2.002684711775404801e-04 -3.699108479604771584e-04 9.988766725997205720e-01
2.399999999999999911e+00 6.511041431210288686e-06 -1.240590926175655394e-04 9.995355522442823659e-01
2.500000000000000000e+00 -1.104729926709358367e-05 -1.575103703613744776e-05 9.998187625494372455e-01
