1.000000000000000056e-01 9.756185172399548522e-01 0.000000000000000000e+00 2.438148276003981180e-02 0.000000000000000000e+00 0.000000000000000000e+00 0.000000000000000000e+00 -1.789461181641861061e-03 1.538246041716621604e-01 0.000000000000000000e+00 0.000000000000000000e+00 0.000000000000000000e+00 0.000000000000000000e+00 0.000000000000000000e+00 0.000000000000000000e+00 0.000000000000000000e+00 0.000000000000000000e+00
2.000000000000000111e-01 9.058764390410614098e-01 0.000000000000000000e+00 9.412356095893961716e-02 0.000000000000000000e+00 0.000000000000000000e+00 0.000000000000000000e+00 -1.345810784633029271e-02 2.887084928765598080e-01 0.000000000000000000e+00 0.000000000000000000e+00 0.000000000000000000e+00 0.000000000000000000e+00 0.000000000000000000e+00 0.000000000000000000e+00 0.000000000000000000e+00 0.000000000000000000e+00
2.999999999999999889e-01 8.002301901401042139e-01 0.000000000000000000e+00 1.997698098598983951e-01 0.000000000000000000e+00 0.000000000000000000e+00 0.000000000000000000e+00 -4.093801666615511092e-02 3.885388280035055875e-01 0.000000000000000000e+00 0.000000000000000000e+00 0.000000000000000000e+00 0.000000000000000000e+00 0.000000000000000000e+00 0.000000000000000000e+00 0.000000000000000000e+00 0.000000000000000000e+00
4.000000000000000222e-01 6.721493084491330094e-01 0.000000000000000000e+00 3.278506915508684338e-01 0.000000000000000000e+00 0.000000000000000000e+00 0.000000000000000000e+00 -8.376587855937982219e-02 4.426873412207828484e-01 0.000000000000000000e+00 0.000000000000000000e+00 0.000000000000000000e+00 0.000000000000000000e+00 0.000000000000000000e+00 0.000000000000000000e+00 0.000000000000000000e+00 0.000000000000000000e+00
5.000000000000000000e-01 5.363963353635288200e-01 0.000000000000000000e+00 4.636036646364704028e-01 0.000000000000000000e+00 0.000000000000000000e+00 0.000000000000000000e+00 -1.350158022331177654e-01 4.477144981821691849e-01 0.000000000000000000e+00 0.000000000000000000e+00 0.000000000000000000e+00 0.000000000000000000e+00 0.000000000000000000e+00 0.000000000000000000e+00 0.000000000000000000e+00 0.000000000000000000e+00
5.999999999999999778e-01 4.063366903131645502e-01 0.000000000000000000e+00 5.936633096868343396e-01 0.000000000000000000e+00 0.000000000000000000e+00 0.000000000000000000e+00 -1.836594959989361342e-01 4.081821385120400492e-01 0.000000000000000000e+00 0.000000000000000000e+00 0.000000000000000000e+00 0.000000000000000000e+00 0.000000000000000000e+00 0.000000000000000000e+00 0.000000000000000000e+00 0.000000000000000000e+00
6.999999999999999556e-01 2.919473141646782288e-01 0.000000000000000000e+00 7.080526858353229924e-01 0.000000000000000000e+00 0.000000000000000000e+00 0.000000000000000000e+00 -2.183546609603966848e-01 3.355869984784632942e-01 0.000000000000000000e+00 0.000000000000000000e+00 0.000000000000000000e+00 0.000000000000000000e+00 0.000000000000000000e+00 0.000000000000000000e+00 0.000000000000000000e+00 0.000000000000000000e+00
7.999999999999999334e-01 1.988992215070161385e-01 0.000000000000000000e+00 8.011007784929838893e-01 0.000000000000000000e+00 0.000000000000000000e+00 0.000000000000000000e+00 -2.312107714842667472e-01 2.457754060160700638e-01 0.000000000000000000e+00 0.000000000000000000e+00 0.000000000000000000e+00 0.000000000000000000e+00 0.000000000000000000e+00 0.000000000000000000e+00 0.000000000000000000e+00 0.000000000000000000e+00
8.999999999999999112e-01 1.287005318146791921e-01 0.000000000000000000e+00 8.712994681853192258e-01 0.000000000000000000e+00 0.000000000000000000e+00 0.000000000000000000e+00 -2.201742175241498123e-01 1.552886631272608065e-01 0.000000000000000000e+00 0.000000000000000000e+00 0.000000000000000000e+00 0.000000000000000000e+00 0.000000000000000000e+00 0.000000000000000000e+00 0.000000000000000000e+00 0.000000000000000000e+00
9.999999999999998890e-01 7.963675112714332927e-02 0.000000000000000000e+00 9.203632488728580308e-01 0.000000000000000000e+00 0.000000000000000000e+00 0.000000000000000000e+00 -1.891362107753472022e-01 7.767380388296239724e-02 0.000000000000000000e+00 0.000000000000000000e+00 0.000000000000000000e+00 0.000000000000000000e+00 0.000000000000000000e+00 0.000000000000000000e+00 0.000000000000000000e+00 0.000000000000000000e+00
1.099999999999999867e+00 4.803083862701610501e-02 0.000000000000000000e+00 9.519691613729844848e-01 0.000000000000000000e+00 0.000000000000000000e+00 0.000000000000000000e+00 -1.464159433806533628e-01 2.110564996246582642e-02 0.000000000000000000e+00 0.000000000000000000e+00 0.000000000000000000e+00 0.000000000000000000e+00 0.000000000000000000e+00 0.000000000000000000e+00 0.000000000000000000e+00 0.000000000000000000e+00
1.199999999999999956e+00 2.954480260254302784e-02 0.000000000000000000e+00 9.704551973974556711e-01 0.000000000000000000e+00 0.000000000000000000e+00 0.000000000000000000e+00 -1.013180599134860388e-01 -1.261926568723969674e-02 0.000000000000000000e+00 0.000000000000000000e+00 0.000000000000000000e+00 0.000000000000000000e+00 0.000000000000000000e+00 0.000000000000000000e+00 0.000000000000000000e+00 0.000000000000000000e+00
1.300000000000000044e+00 2.008099687726761992e-02 0.000000000000000000e+00 9.799190031227313913e-01 0.000000000000000000e+00 0.000000000000000000e+00 0.000000000000000000e+00 -6.168282366708716102e-02 -2.681392342835102471e-02 0.000000000000000000e+00 0.000000000000000000e+00 0.000000000000000000e+00 0.000000000000000000e+00 0.000000000000000000e+00 0.000000000000000000e+00 0.000000000000000000e+00 0.000000000000000000e+00
1.399999999999999911e+00 1.637003489654618310e-02 0.000000000000000000e+00 9.836299651034537961e-01 0.000000000000000000e+00 0.000000000000000000e+00 0.000000000000000000e+00 -3.186402370791868027e-02 -2.760204019559516289e-02 0.000000000000000000e+00 0.000000000000000000e+00 0.000000000000000000e+00 0.000000000000000000e+00 0.000000000000000000e+00 0.000000000000000000e+00 0.000000000000000000e+00 0.000000000000000000e+00
1.500000000000000000e+00 1.604613321291684450e-02 0.000000000000000000e+00 9.839538667870857402e-01 0.000000000000000000e+00 0.000000000000000000e+00 0.000000000000000000e+00 -1.281878134866276144e-02 -2.154156503197552155e-02 0.000000000000000000e+00 0.000000000000000000e+00 0.000000000000000000e+00 0.000000000000000000e+00 0.000000000000000000e+00 0.000000000000000000e+00 0.000000000000000000e+00 0.000000000000000000e+00
1.599999999999999867e+00 1.761004246296744152e-02 0.000000000000000000e+00 9.823899575370338422e-01 0.000000000000000000e+00 0.000000000000000000e+00 0.000000000000000000e+00 -2.816594133268943579e-03 -1.378384137718356196e-02 0.000000000000000000e+00 0.000000000000000000e+00 0.000000000000000000e+00 0.000000000000000000e+00 0.000000000000000000e+00 0.000000000000000000e+00 0.000000000000000000e+00 0.000000000000000000e+00
1.699999999999999956e+00 2.020159400512400519e-02 0.000000000000000000e+00 9.797984059948769975e-01 0.000000000000000000e+00 0.000000000000000000e+00 0.000000000000000000e+00 1.092556567148956874e-03 -7.309088060733536299e-03 0.000000000000000000e+00 0.000000000000000000e+00 0.000000000000000000e+00 0.000000000000000000e+00 0.000000000000000000e+00 0.000000000000000000e+00 0.000000000000000000e+00 0.000000000000000000e+00
1.800000000000000044e+00 2.338203305236284321e-02 0.000000000000000000e+00 9.766179669476408032e-01 0.000000000000000000e+00 0.000000000000000000e+00 0.000000000000000000e+00 1.762412866506598338e-03 -3.126746229901786970e-03 0.000000000000000000e+00 0.000000000000000000e+00 0.000000000000000000e+00 0.000000000000000000e+00 0.000000000000000000e+00 0.000000000000000000e+00 0.000000000000000000e+00 0.000000000000000000e+00
1.899999999999999911e+00 2.695280974301189278e-02 0.000000000000000000e+00 9.730471902569881593e-01 0.000000000000000000e+00 0.000000000000000000e+00 0.000000000000000000e+00 1.232369945269629801e-03 -9.885283614356470561e-04 0.000000000000000000e+00 0.000000000000000000e+00 0.000000000000000000e+00 0.000000000000000000e+00 0.000000000000000000e+00 0.000000000000000000e+00 0.000000000000000000e+00 0.000000000000000000e+00
2.000000000000000000e+00 3.083589631387991664e-02 0.000000000000000000e+00 9.691641036861177172e-01 0.000000000000000000e+00 0.000000000000000000e+00 0.000000000000000000e+00 5.878867976111831848e-04 -1.633595162021721995e-04 0.000000000000000000e+00 0.000000000000000000e+00 0.000000000000000000e+00 0.000000000000000000e+00 0.000000000000000000e+00 0.000000000000000000e+00 0.000000000000000000e+00 0.000000000000000000e+00
2.099999999999999645e+00 3.500506857637722402e-02 0.000000000000000000e+00 9.649949314236222486e-01 0.000000000000000000e+00 0.000000000000000000e+00 0.000000000000000000e+00 1.878689969079294685e-04 3.236968578908710662e-05 0.000000000000000000e+00 0.000000000000000000e+00 0.000000000000000000e+00 0.000000000000000000e+00 0.000000000000000000e+00 0.000000000000000000e+00 0.000000000000000000e+00 0.000000000000000000e+00
2.199999999999999734e+00 3.945264236242813916e-02 0.000000000000000000e+00 9.605473576375682665e-01 0.000000000000000000e+00 0.000000000000000000e+00 0.000000000000000000e+00 2.927600097490593570e-05 2.594809627373292590e-05 0.000000000000000000e+00 0.000000000000000000e+00 0.000000000000000000e+00 0.000000000000000000e+00 0.000000000000000000e+00 0.000000000000000000e+00 0.000000000000000000e+00 0.000000000000000000e+00
2.299999999999999822e+00 4.417559418190696030e-02 0.000000000000000000e+00 9.558244058180930258e-01 0.000000000000000000e+00 0.000000000000000000e+00 0.000000000000000000e+00 -6.378432324865761415e-06 -6.207063803334345213e-07 0.000000000000000000e+00 0.000000000000000000e+00 0.000000000000000000e+00 0.000000000000000000e+00 0.000000000000000000e+00 0.000000000000000000e+00 0.000000000000000000e+00 0.000000000000000000e+00
2.399999999999999911e+00 4.917102501205072168e-02 0.000000000000000000e+00 9.508289749879474950e-01 0.000000000000000000e+00 0.000000000000000000e+00 0.000000000000000000e+00 -3.664152913638522423e-06 -6.984238971793115909e-06 0.000000000000000000e+00 0.000000000000000000e+00 0.000000000000000000e+00 0.000000000000000000e+00 0.000000000000000000e+00 0.000000000000000000e+00 0.000000000000000000e+00 0.000000000000000000e+00
2.500000000000000000e+00 5.443496218447878288e-02 0.000000000000000000e+00 9.455650378155198155e-01 0.000000000000000000e+00 0.000000000000000000e+00 0.000000000000000000e+00 -3.216669771603942651e-08 -3.243654625707105228e-06 0.000000000000000000e+00 0.000000000000000000e+00 0.000000000000000000e+00 0.000000000000000000e+00 0.000000000000000000e+00 0.000000000000000000e+00 0.000000000000000000e+00 0.000000000000000000e+00
2.600000000000000089e+00 5.996241831080667550e-02 0.000000000000000000e+00 9.400375816891926029e-01 0.000000000000000000e+00 0.000000000000000000e+00 0.000000000000000000e+00 1.033955483204465232e-06 -6.239036833785189213e-08 0.000000000000000000e+00 0.000000000000000000e+00 0.000000000000000000e+00 0.000000000000000000e+00 0.000000000000000000e+00 0.000000000000000000e+00 0.000000000000000000e+00 0.000000000000000000e+00
2.699999999999999734e+00 6.574726416255961825e-02 0.000000000000000000e+00 9.342527358374412838e-01 0.000000000000000000e+00 0.000000000000000000e+00 0.000000000000000000e+00 -3.083028319496562567e-07 1.075696087217089698e-06 0.000000000000000000e+00 0.000000000000000000e+00 0.000000000000000000e+00 0.000000000000000000e+00 0.000000000000000000e+00 0.000000000000000000e+00 0.000000000000000000e+00 0.000000000000000000e+00
2.799999999999999822e+00 7.178246934815470104e-02 0.000000000000000000e+00 9.282175306518481994e-01 0.000000000000000000e+00 0.000000000000000000e+00 0.000000000000000000e+00 -8.189056062897959259e-07 -5.675174535960513685e-08 0.000000000000000000e+00 0.000000000000000000e+00 0.000000000000000000e+00 0.000000000000000000e+00 0.000000000000000000e+00 0.000000000000000000e+00 0.000000000000000000e+00 0.000000000000000000e+00
2.899999999999999911e+00 7.806009447332884488e-02 0.000000000000000000e+00 9.219399055266753740e-01 0.000000000000000000e+00 0.000000000000000000e+00 0.000000000000000000e+00 -6.497287505091497051e-07 -2.298026553353305986e-08 0.000000000000000000e+00 0.000000000000000000e+00 0.000000000000000000e+00 0.000000000000000000e+00 0.000000000000000000e+00 0.000000000000000000e+00 0.000000000000000000e+00 0.000000000000000000e+00
3.000000000000000000e+00 8.457133367736280327e-02 0.000000000000000000e+00 9.154286663226421927e-01 0.000000000000000000e+00 0.000000000000000000e+00 0.000000000000000000e+00 -7.370632062403268516e-08 2.604981141202499565e-07 0.000000000000000000e+00 0.000000000000000000e+00 0.000000000000000000e+00 0.000000000000000000e+00 0.000000000000000000e+00 0.000000000000000000e+00 0.000000000000000000e+00 0.000000000000000000e+00
