1.000000000000000056e-01 9.774354857880579450e-01 0.000000000000000000e+00 2.256451421194187110e-02 0.000000000000000000e+00 0.000000000000000000e+00 0.000000000000000000e+00 -1.310472232378806778e-01 6.987118209646234201e-02 0.000000000000000000e+00 0.000000000000000000e+00 0.000000000000000000e+00 0.000000000000000000e+00 0.000000000000000000e+00 0.000000000000000000e+00 0.000000000000000000e+00 0.000000000000000000e+00
2.000000000000000111e-01 9.127272794852978599e-01 0.000000000000000000e+00 8.727272051470101599e-02 0.000000000000000000e+00 0.000000000000000000e+00 0.000000000000000000e+00 -2.521042578803526779e-01 1.268843406397886509e-01 0.000000000000000000e+00 0.000000000000000000e+00 0.000000000000000000e+00 0.000000000000000000e+00 0.000000000000000000e+00 0.000000000000000000e+00 0.000000000000000000e+00 0.000000000000000000e+00
2.999999999999999889e-01 8.141895115574522279e-01 0.000000000000000000e+00 1.858104884425517689e-01 0.000000000000000000e+00 0.000000000000000000e+00 0.000000000000000000e+00 -3.540128602089097631e-01 1.611205934321311428e-01 0.000000000000000000e+00 0.000000000000000000e+00 0.000000000000000000e+00 0.000000000000000000e+00 0.000000000000000000e+00 0.000000000000000000e+00 0.000000000000000000e+00 0.000000000000000000e+00
4.000000000000000222e-01 6.937266993033640583e-01 0.000000000000000000e+00 3.062733006966384952e-01 0.000000000000000000e+00 0.000000000000000000e+00 0.000000000000000000e+00 -4.293428612879662820e-01 1.677339365863619591e-01 0.000000000000000000e+00 0.000000000000000000e+00 0.000000000000000000e+00 0.000000000000000000e+00 0.000000000000000000e+00 0.000000000000000000e+00 0.000000000000000000e+00 0.000000000000000000e+00
5.000000000000000000e-01 5.644850439375346252e-01 0.000000000000000000e+00 4.355149560624620997e-01 0.000000000000000000e+00 0.000000000000000000e+00 0.000000000000000000e+00 -4.733028951291720632e-01 1.477364158197825295e-01 0.000000000000000000e+00 0.000000000000000000e+00 0.000000000000000000e+00 0.000000000000000000e+00 0.000000000000000000e+00 0.000000000000000000e+00 0.000000000000000000e+00 0.000000000000000000e+00
5.999999999999999778e-01 4.385654924809392896e-01 0.000000000000000000e+00 5.614345075190603218e-01 0.000000000000000000e+00 0.000000000000000000e+00 0.000000000000000000e+00 -4.844819290082792995e-01 1.072523272938972205e-01 0.000000000000000000e+00 0.000000000000000000e+00 0.000000000000000000e+00 0.000000000000000000e+00 0.000000000000000000e+00 0.000000000000000000e+00 0.000000000000000000e+00 0.000000000000000000e+00
6.999999999999999556e-01 3.252536562777983975e-01 0.000000000000000000e+00 6.747463437222034344e-01 0.000000000000000000e+00 0.000000000000000000e+00 0.000000000000000000e+00 -4.651557463815979010e-01 5.562235956535281634e-02 0.000000000000000000e+00 0.000000000000000000e+00 0.000000000000000000e+00 0.000000000000000000e+00 0.000000000000000000e+00 0.000000000000000000e+00 0.000000000000000000e+00 0.000000000000000000e+00
7.999999999999999334e-01 2.302052247695793030e-01 0.000000000000000000e+00 7.697947752304225011e-01 0.000000000000000000e+00 0.000000000000000000e+00 0.000000000000000000e+00 -4.209539365565719282e-01 2.926191690422463854e-03 0.000000000000000000e+00 0.000000000000000000e+00 0.000000000000000000e+00 0.000000000000000000e+00 0.000000000000000000e+00 0.000000000000000000e+00 0.000000000000000000e+00 0.000000000000000000e+00
8.999999999999999112e-01 1.554605592996500252e-01 0.000000000000000000e+00 8.445394407003516957e-01 0.000000000000000000e+00 0.000000000000000000e+00 0.000000000000000000e+00 -3.598662058864194324e-01 -4.229524181693310875e-02 0.000000000000000000e+00 0.000000000000000000e+00 0.000000000000000000e+00 0.000000000000000000e+00 0.000000000000000000e+00 0.000000000000000000e+00 0.000000000000000000e+00 0.000000000000000000e+00
9.999999999999998890e-01 1.001380762562555649e-01 0.000000000000000000e+00 8.998619237437397445e-01 0.000000000000000000e+00 0.000000000000000000e+00 0.000000000000000000e+00 -2.907701442475945086e-01 -7.458662850258328259e-02 0.000000000000000000e+00 0.000000000000000000e+00 0.000000000000000000e+00 0.000000000000000000e+00 0.000000000000000000e+00 0.000000000000000000e+00 0.000000000000000000e+00 0.000000000000000000e+00
1.099999999999999867e+00 6.152127277971831260e-02 0.000000000000000000e+00 9.384787272202812503e-01 0.000000000000000000e+00 0.000000000000000000e+00 0.000000000000000000e+00 -2.219443514352780755e-01 -9.207122579863440126e-02 0.000000000000000000e+00 0.000000000000000000e+00 0.000000000000000000e+00 0.000000000000000000e+00 0.000000000000000000e+00 0.000000000000000000e+00 0.000000000000000000e+00 0.000000000000000000e+00
1.199999999999999956e+00 3.604499018613270545e-02 0.000000000000000000e+00 9.639550098138657264e-01 0.000000000000000000e+00 0.000000000000000000e+00 0.000000000000000000e+00 -1.597998495555003895e-01 -9.596747831399264628e-02 0.000000000000000000e+00 0.000000000000000000e+00 0.000000000000000000e+00 0.000000000000000000e+00 0.000000000000000000e+00 0.000000000000000000e+00 0.000000000000000000e+00 0.000000000000000000e+00
1.300000000000000044e+00 2.014228805482279339e-02 0.000000000000000000e+00 9.798577119451811202e-01 0.000000000000000000e+00 0.000000000000000000e+00 0.000000000000000000e+00 -1.082633976828138306e-01 -8.952995570316919782e-02 0.000000000000000000e+00 0.000000000000000000e+00 0.000000000000000000e+00 0.000000000000000000e+00 0.000000000000000000e+00 0.000000000000000000e+00 0.000000000000000000e+00 0.000000000000000000e+00
1.399999999999999911e+00 1.074045607828053028e-02 0.000000000000000000e+00 9.892595439217202191e-01 0.000000000000000000e+00 0.000000000000000000e+00 0.000000000000000000e+00 -6.876141188420428763e-02 -7.679171069101742297e-02 0.000000000000000000e+00 0.000000000000000000e+00 0.000000000000000000e+00 0.000000000000000000e+00 0.000000000000000000e+00 0.000000000000000000e+00 0.000000000000000000e+00 0.000000000000000000e+00
1.500000000000000000e+00 5.467330371633969538e-03 0.000000000000000000e+00 9.945326696283691703e-01 0.000000000000000000e+00 0.000000000000000000e+00 0.000000000000000000e+00 -4.069657739149748488e-02 -6.149168434898346497e-02 0.000000000000000000e+00 0.000000000000000000e+00 0.000000000000000000e+00 0.000000000000000000e+00 0.000000000000000000e+00 0.000000000000000000e+00 0.000000000000000000e+00 0.000000000000000000e+00
1.599999999999999867e+00 2.660021630248592291e-03 0.000000000000000000e+00 9.973399783697537435e-01 0.000000000000000000e+00 0.000000000000000000e+00 0.000000000000000000e+00 -2.223367001702429915e-02 -4.646084164278525136e-02 0.000000000000000000e+00 0.000000000000000000e+00 0.000000000000000000e+00 0.000000000000000000e+00 0.000000000000000000e+00 0.000000000000000000e+00 0.000000000000000000e+00 0.000000000000000000e+00
1.699999999999999956e+00 1.239405775774497440e-03 0.000000000000000000e+00 9.987605942242275825e-01 0.000000000000000000e+00 0.000000000000000000e+00 0.000000000000000000e+00 -1.101736862635547751e-02 -3.341387760095386461e-02 0.000000000000000000e+00 0.000000000000000000e+00 0.000000000000000000e+00 0.000000000000000000e+00 0.000000000000000000e+00 0.000000000000000000e+00 0.000000000000000000e+00 0.000000000000000000e+00
1.800000000000000044e+00 5.538772992274983934e-04 0.000000000000000000e+00 9.994461227007681581e-01 0.000000000000000000e+00 0.000000000000000000e+00 0.000000000000000000e+00 -4.786114728126164564e-03 -2.303613770686688614e-02 0.000000000000000000e+00 0.000000000000000000e+00 0.000000000000000000e+00 0.000000000000000000e+00 0.000000000000000000e+00 0.000000000000000000e+00 0.000000000000000000e+00 0.000000000000000000e+00
1.899999999999999911e+00 2.384917984278798727e-04 0.000000000000000000e+00 9.997615082015710586e-01 0.000000000000000000e+00 0.000000000000000000e+00 0.000000000000000000e+00 -1.667426768995785083e-03 -1.535104559098885747e-02 0.000000000000000000e+00 0.000000000000000000e+00 0.000000000000000000e+00 0.000000000000000000e+00 0.000000000000000000e+00 0.000000000000000000e+00 0.000000000000000000e+00 0.000000000000000000e+00
2.000000000000000000e+00 9.932550240050562603e-05 0.000000000000000000e+00 9.999006744976082217e-01 0.000000000000000000e+00 0.000000000000000000e+00 0.000000000000000000e+00 -3.133760077716889756e-04 -9.960793966952034839e-03 0.000000000000000000e+00 0.000000000000000000e+00 0.000000000000000000e+00 0.000000000000000000e+00 0.000000000000000000e+00 0.000000000000000000e+00 0.000000000000000000e+00 0.000000000000000000e+00
2.099999999999999645e+00 4.015760549103306010e-05 0.000000000000000000e+00 9.999598423945109671e-01 0.000000000000000000e+00 0.000000000000000000e+00 0.000000000000000000e+00 1.439468870167388620e-04 -6.335238390284550318e-03 0.000000000000000000e+00 0.000000000000000000e+00 0.000000000000000000e+00 0.000000000000000000e+00 0.000000000000000000e+00 0.000000000000000000e+00 0.000000000000000000e+00 0.000000000000000000e+00
2.199999999999999734e+00 1.591850647374643530e-05 0.000000000000000000e+00 9.999840814935282429e-01 0.000000000000000000e+00 0.000000000000000000e+00 0.000000000000000000e+00 2.042915450228531831e-04 -3.984530125304472543e-03 0.000000000000000000e+00 0.000000000000000000e+00 0.000000000000000000e+00 0.000000000000000000e+00 0.000000000000000000e+00 0.000000000000000000e+00 0.000000000000000000e+00 0.000000000000000000e+00
2.299999999999999822e+00 6.196365083061917422e-06 0.000000000000000000e+00 9.999938036349149684e-01 0.000000000000000000e+00 0.000000000000000000e+00 0.000000000000000000e+00 1.329927402023340136e-04 -2.485679595097401665e-03 0.000000000000000000e+00 0.000000000000000000e+00 0.000000000000000000e+00 0.000000000000000000e+00 0.000000000000000000e+00 0.000000000000000000e+00 0.000000000000000000e+00 0.000000000000000000e+00
2.399999999999999911e+00 2.407438855622640412e-06 0.000000000000000000e+00 9.999975925611451766e-01 0.000000000000000000e+00 0.000000000000000000e+00 0.000000000000000000e+00 4.900912479206965394e-05 -1.550806992904663929e-03 0.000000000000000000e+00 0.000000000000000000e+00 0.000000000000000000e+00 0.000000000000000000e+00 0.000000000000000000e+00 0.000000000000000000e+00 0.000000000000000000e+00 0.000000000000000000e+00
2.500000000000000000e+00 9.335061521496626917e-07 0.000000000000000000e+00 9.999990664938503970e-01 0.000000000000000000e+00 0.000000000000000000e+00 0.000000000000000000e+00 -1.695936454163075304e-05 -9.660222857482014423e-04 0.000000000000000000e+00 0.000000000000000000e+00 0.000000000000000000e+00 0.000000000000000000e+00 0.000000000000000000e+00 0.000000000000000000e+00 0.000000000000000000e+00 0.000000000000000000e+00
2.600000000000000089e+00 3.665837722108180987e-07 0.000000000000000000e+00 9.999996334162257750e-01 0.000000000000000000e+00 0.000000000000000000e+00 0.000000000000000000e+00 -5.970122811899601330e-05 -6.024988066360905271e-04 0.000000000000000000e+00 0.000000000000000000e+00 0.000000000000000000e+00 0.000000000000000000e+00 0.000000000000000000e+00 0.000000000000000000e+00 0.000000000000000000e+00 0.000000000000000000e+00
2.699999999999999734e+00 1.445465877357868838e-07 0.000000000000000000e+00 9.999998554534136330e-01 0.000000000000000000e+00 0.000000000000000000e+00 0.000000000000000000e+00 -7.805924981641038909e-05 -3.720772796671138576e-04 0.000000000000000000e+00 0.000000000000000000e+00 0.000000000000000000e+00 0.000000000000000000e+00 0.000000000000000000e+00 0.000000000000000000e+00 0.000000000000000000e+00 0.000000000000000000e+00
2.799999999999999822e+00 6.028917370820944550e-08 0.000000000000000000e+00 9.999999397108266797e-01 0.000000000000000000e+00 0.000000000000000000e+00 0.000000000000000000e+00 -7.680112436588842234e-05 -2.331512311283169428e-04 0.000000000000000000e+00 0.000000000000000000e+00 0.000000000000000000e+00 0.000000000000000000e+00 0.000000000000000000e+00 0.000000000000000000e+00 0.000000000000000000e+00 0.000000000000000000e+00
2.899999999999999911e+00 2.459987022416337198e-08 0.000000000000000000e+00 9.999999754001295260e-01 0.000000000000000000e+00 0.000000000000000000e+00 0.000000000000000000e+00 -7.272557755098486691e-05 -1.388501502245993756e-04 0.000000000000000000e+00 0.000000000000000000e+00 0.000000000000000000e+00 0.000000000000000000e+00 0.000000000000000000e+00 0.000000000000000000e+00 0.000000000000000000e+00 0.000000000000000000e+00
3.000000000000000000e+00 1.035646612564848842e-08 0.000000000000000000e+00 9.999999896435370905e-01 0.000000000000000000e+00 0.000000000000000000e+00 0.000000000000000000e+00 -5.977901015695705379e-05 -8.214459444602435127e-05 0.000000000000000000e+00 0.000000000000000000e+00 0.000000000000000000e+00 0.000000000000000000e+00 0.000000000000000000e+00 0.000000000000000000e+00 0.000000000000000000e+00 0.000000000000000000e+00
