0.000000000000000000e+00 -5.343292106072797658e-09 -2.029138789972115403e-09 -1.000000000000000000e+00
8.615384615384615030e-02 1.214202321482442046e-02 1.067059472893489014e-02 -9.998692752365581082e-01
1.723076923076923006e-01 2.403832902847958045e-02 2.161064155378457710e-02 -9.994772995799721116e-01
2.584615384615384648e-01 3.544436095078899729e-02 3.305741659483432682e-02 -9.988245683832057686e-01
3.446153846153846012e-01 4.609602660177550271e-02 4.524271678310402833e-02 -9.979116917469906811e-01
4.307692307692307376e-01 5.569881342058079221e-02 5.836599588148833756e-02 -9.967398991495267646e-01
5.169230769230769296e-01 6.393585798832426836e-02 7.258548531314565344e-02 -9.953104088091427881e-01
6.030769230769230660e-01 7.045002874312755736e-02 8.800767498019249069e-02 -9.936249666651462142e-01
6.892307692307692024e-01 7.485576833835197452e-02 1.046695063751240384e-01 -9.916853965572648422e-01
7.753846153846153388e-01 7.673510128523072793e-02 1.225255629150813208e-01 -9.894938601590729244e-01
8.615384615384614753e-01 7.565038232356045833e-02 1.414268105395762587e-01 -9.870533147446659550e-01
9.476923076923076117e-01 7.115035324731489030e-02 1.611192851171565077e-01 -9.843662177236844890e-01
1.033846153846153859e+00 6.279568728833066771e-02 1.812162019800542812e-01 -9.814356458250658166e-01
1.119999999999999885e+00 5.018237169629313071e-02 2.011929636947927813e-01 -9.782645441135070508e-01
1.206153846153846132e+00 3.296582412608928259e-02 2.203758631405954849e-01 -9.748569144579984913e-01
1.292307692307692157e+00 1.090702637079166148e-02 2.379417570732404730e-01 -9.712172338172775365e-01
1.378461538461538405e+00 -1.609118878832313526e-02 2.529362335318224853e-01 -9.673480989487004411e-01
1.464615384615384652e+00 -4.794216688119029568e-02 2.642703480038723907e-01 -9.632552173737944923e-01
1.550769230769230678e+00 -8.432027516072773676e-02 2.707715914551768743e-01 -9.589424279280317487e-01
1.636923076923076925e+00 -1.246253512581819156e-01 2.712183838800747426e-01 -9.544143375702708321e-01
1.723076923076922951e+00 -1.679509919451990518e-01 2.643953129426998561e-01 -9.496762913824070562e-01
1.809230769230769198e+00 -2.130271594490658893e-01 2.491885467014774425e-01 -9.447337641346891246e-01
1.895384615384615223e+00 -2.582653732499645693e-01 2.246489899081942632e-01 -9.395898294065244682e-01
1.981538461538461471e+00 -3.017074442849743132e-01 1.901101857438136644e-01 -9.342525579021654369e-01
2.067692307692307718e+00 -3.411072178177667058e-01 1.452931441202192087e-01 -9.287263965546034283e-01
2.153846153846153744e+00 -3.739790867764761217e-01 9.041368323038104227e-02 -9.230177915590184190e-01
2.239999999999999769e+00 -3.977116438589920477e-01 2.627533968780665363e-02 -9.171323463641708473e-01
2.326153846153846239e+00 -4.097020836068062111e-01 -4.564434797475318273e-02 -9.110748416546468054e-01
2.412307692307692264e+00 -4.075246739486176883e-01 -1.231432151018463372e-01 -9.048512495735644423e-01
2.498461538461538289e+00 -3.891324984379572749e-01 -2.032891390206922888e-01 -8.984685597867299034e-01
2.584615384615384315e+00 -3.530689850127614604e-01 -2.824786014612541418e-01 -8.919328985510933672e-01
2.670769230769230784e+00 -2.986957459930155157e-01 -3.565211181005220054e-01 -8.852511607742538091e-01
2.756923076923076810e+00 -2.263906417039078800e-01 -4.208456282308518093e-01 -8.784259251173932581e-01
2.843076923076922835e+00 -1.377147735701971243e-01 -4.707168115033386613e-01 -8.714677694287905618e-01
2.929230769230769305e+00 -3.552575140331870607e-02 -5.015812613203000092e-01 -8.643782553084313758e-01
3.015384615384615330e+00 7.599254330579355288e-02 -5.093926694850934300e-01 -8.571696161930155711e-01
3.101538461538461355e+00 1.914224469320933431e-01 -4.910417629525224426e-01 -8.498416225562700488e-01
3.187692307692307381e+00 3.042578222428132806e-01 -4.447235206567836108e-01 -8.424033355537390300e-01
3.273846153846153850e+00 4.072837065377357124e-01 -3.702987773438638497e-01 -8.348616279393243911e-01
3.359999999999999876e+00 4.929747884582826867e-01 -2.695904788179386280e-01 -8.272193395087162893e-01
