0.000000000000000000e+00 4.488841233937640980e-09 8.424720197653054821e-10 -1.000000000000000000e+00
8.615384615384615030e-02 -7.803321010375341427e-04 1.097367274063183462e-01 -9.939596873697851276e-01
1.723076923076923006e-01 -5.809175249892092885e-03 2.174135180945793999e-01 -9.760608821361336229e-01
2.584615384615384648e-01 -1.903192792393652855e-02 3.207954174095836164e-01 -9.469550434548451578e-01
3.446153846153846012e-01 -4.388550824785689142e-02 4.173670237083215717e-01 -9.076745458502940567e-01
4.307692307692307376e-01 -8.302840569455488540e-02 5.042349822778131596e-01 -8.595615777632911181e-01
5.169230769230769296e-01 -1.381001416325879916e-01 5.781212941267872552e-01 -8.041736904227255733e-01
6.030769230769230660e-01 -2.095192612794332387e-01 6.354219586905461847e-01 -7.431893366423539815e-01
6.892307692307692024e-01 -2.963340970858244772e-01 6.723739927224895441e-01 -6.782977297170021957e-01
7.753846153846153388e-01 -3.961063936711572975e-01 6.853021372273092604e-01 -6.111039040226458052e-01
8.615384615384614753e-01 -5.049118013623656864e-01 6.709207828842178589e-01 -5.430613297422345331e-01
9.476923076923076117e-01 -6.174167739231257723e-01 6.267157883521471406e-01 -4.754041891354913174e-01
1.033846153846153859e+00 -7.270787751827680889e-01 5.513275475012483495e-01 -4.091196864406717038e-01
1.119999999999999885e+00 -8.264660201691167440e-01 4.449182470547679014e-01 -3.449429268835227935e-01
1.206153846153846132e+00 -9.076932103903139204e-01 3.094846368173525542e-01 -2.833650353293027946e-01
1.292307692307692157e+00 -9.629557676132144417e-01 1.490710791403638547e-01 -2.246711426221376096e-01
1.378461538461538405e+00 -9.851503030499330071e-01 -3.017631716001233089e-02 -1.689708036175432138e-01
1.464615384615384652e+00 -9.685155500503747072e-01 -2.201032786830338650e-01 -1.162533931078440913e-01
1.550769230769230678e+00 -9.092624952111564296e-01 -4.108639188927281083e-01 -6.644616489567112261e-02
1.636923076923076925e+00 -8.061369413490122593e-01 -5.913950161653859228e-01 -1.943354602246825241e-02
1.723076923076922951e+00 -6.608339776771320340e-01 -7.501070133051068733e-01 2.490821505005985995e-02
1.809230769230769198e+00 -4.782319914879824552e-01 -8.756879672820621074e-01 6.668796169506524540e-02
1.895384615384615223e+00 -2.663745375120008529e-01 -9.580151824899402202e-01 1.059912792000125698e-01
1.981538461538461471e+00 -3.619594130709853641e-02 -9.890676649269449783e-01 1.428906085585286978e-01
2.067692307692307718e+00 1.990457684668902327e-01 -9.637794249513330636e-01 1.774622589068050593e-01
2.153846153846153744e+00 4.245930571258490493e-01 -8.807377926353234798e-01 2.097730364200378339e-01
2.239999999999999769e+00 6.252233422751907188e-01 -7.426417465799294293e-01 2.399212624799342830e-01
2.326153846153846239e+00 7.864543725578857503e-01 -5.564516304574882444e-01 2.680195576343373798e-01
2.412307692307692264e+00 8.957696690742702472e-01 -3.331872277584662090e-01 2.942219756887667903e-01
2.498461538461538289e+00 9.438127192508301011e-01 -8.735243650803925508e-02 3.187018308203647954e-01
2.584615384615384315e+00 9.253987280629855094e-01 1.639990832453623315e-01 3.416511364741285917e-01
2.670769230769230784e+00 8.402468344645273035e-01 4.025118851762845007e-01 3.632541678745315750e-01
2.756923076923076810e+00 6.933223137805000214e-01 6.099696843575299621e-01 3.836997118727333844e-01
2.843076923076922835e+00 4.947563158734885613e-01 7.698550079541175428e-01 4.031425935344942757e-01
2.929230769230769305e+00 2.592706540960413863e-01 8.688707622324727264e-01 4.216954093731238307e-01
3.015384615384615330e+00 5.157640584543182749e-03 8.982480891211493956e-01 4.394413145157390344e-01
3.101538461538461355e+00 -2.471257946451419496e-01 8.547562767351877255e-01 4.564051118712675326e-01
3.187692307692307381e+00 -4.766524742628998057e-01 7.412444925338456114e-01 4.725931860745060664e-01
3.273846153846153850e+00 -6.638962715058640551e-01 5.666618627807918918e-01 4.879770119999966571e-01
3.359999999999999876e+00 -7.925130770169697136e-01 3.455011712041707872e-01 5.025312122087964850e-01
