0.000000000000000000e+00 2.378910831410564819e-09 9.162560646832481879e-10 -1.000000000000000000e+00
8.615384615384615030e-02 -1.771158424799985365e-01 1.193858669329842942e-01 -9.769212043337377471e-01
1.723076923076923006e-01 -3.459382395037348679e-01 2.319255840454296780e-01 -9.091386825369008884e-01
2.584615384615384648e-01 -4.987136066161397263e-01 3.314647398539093404e-01 -8.008804283853557804e-01
3.446153846153846012e-01 -6.287817077938294696e-01 4.131113300103764763e-01 -6.587594441701849490e-01
4.307692307692307376e-01 -7.310043516292425991e-01 4.736832193935834878e-01 -4.911683839692966846e-01
5.169230769230769296e-01 -8.020735188189304088e-01 5.119407488281372265e-01 -3.075433847869271653e-01
6.030769230769230660e-01 -8.406878070482198817e-01 5.285930529332433236e-01 -1.175622515156925924e-01
6.892307692307692024e-01 -8.475671563832326560e-01 5.260857197530826035e-01 6.965010526289575066e-02
7.753846153846153388e-01 -8.253037340479830730e-01 5.081992255222439470e-01 2.461609201833377947e-01
8.615384615384614753e-01 -7.780777118576898133e-01 4.795246280079659695e-01 4.057585897453366841e-01
9.476923076923076117e-01 -7.112453343849604037e-01 4.448816143010541624e-01 5.442430478567464869e-01
1.033846153846153859e+00 -6.308617150598934131e-01 4.087594400099933134e-01 6.594851356389286323e-01
1.119999999999999885e+00 -5.431487645537753650e-01 3.748551168259652844e-01 7.513094035592826625e-01
1.206153846153846132e+00 -4.539931621054328903e-01 3.457502355468055066e-01 8.211826588391222259e-01
1.292307692307692157e+00 -3.685057491467778612e-01 3.227756615284259611e-01 8.717880487237431586e-01
1.378461538461538405e+00 -2.906762728462204404e-01 3.060338597126738835e-01 9.065574505675054739e-01
1.464615384615384652e+00 -2.231755184702045869e-01 2.946124698384305907e-01 9.291892194533919458e-01
1.550769230769230678e+00 -1.672860546119863123e-01 2.868947773749186969e-01 9.432410085382889608e-01
1.636923076923076925e+00 -1.230006398398563738e-01 2.809169678231059342e-01 9.518159516044943924e-01
1.723076923076922951e+00 -8.922928336177687880e-02 2.747736476189386878e-01 9.573582752073375168e-01
1.809230769230769198e+00 -6.411626360108800549e-02 2.669046042735502833e-01 9.615864356122912904e-01
1.895384615384615223e+00 -4.538052574387953231e-02 2.563453889964436572e-01 9.655181162797430439e-01
1.981538461538461471e+00 -3.069566900853368946e-02 2.428035471906524745e-01 9.695885479118693251e-01
2.067692307692307718e+00 -1.799164678531326583e-02 2.266497521304465246e-01 9.738090677363642200e-01
2.153846153846153744e+00 -5.698740436529903253e-03 2.087693057430776711e-01 9.779473350816986210e-01
2.239999999999999769e+00 7.117072729659418284e-03 1.903547063333229650e-01 9.816886985578158198e-01
2.326153846153846239e+00 2.073610994015437359e-02 1.726688931618108325e-01 9.847608285751295876e-01
2.412307692307692264e+00 3.486697079874595540e-02 1.567841230523708829e-01 9.870165036334084263e-01
2.498461538461538289e+00 4.881668696009166392e-02 1.434315941016702789e-01 9.884548229824660082e-01
2.584615384615384315e+00 6.168366068126737017e-02 1.328752774705352913e-01 9.892107771263799476e-01
2.670769230769230784e+00 7.259607300999829094e-02 1.248970008463608367e-01 9.895095980745099995e-01
2.756923076923076810e+00 8.089555117482705171e-02 1.188850581693701031e-01 9.896064637824035781e-01
2.843076923076922835e+00 8.626584641791035235e-02 1.139682621975425386e-01 9.897313511836010047e-01
2.929230769230769305e+00 8.879972298282641507e-02 1.091915376973906504e-01 9.900457284325401286e-01
3.015384615384615330e+00 8.896925646411749100e-02 1.037070992500726679e-01 9.906200463415788526e-01
3.101538461538461355e+00 8.753231227330125763e-02 9.693024427257360132e-02 9.914340326222961242e-01
3.187692307692307381e+00 8.539770278910101264e-02 8.861644942751975562e-02 9.923977245163595473e-01
3.273846153846153850e+00 8.344109295171540930e-02 7.891167545173073672e-02 9.933828537989112251e-01
3.359999999999999876e+00 8.237412960594771294e-02 6.828736508903569813e-02 9.942587037657014681e-01
