0.000000000000000000e+00 -3.277983464397450121e-09 -2.775818588633828253e-09 -1.000000000000000000e+00
8.615384615384615030e-02 -3.679492247361378088e-02 1.602706960425108809e-02 -9.991938727857022640e-01
1.723076923076923006e-01 -7.369761092644301625e-02 3.076220184047671197e-02 -9.968052439146146693e-01
2.584615384615384648e-01 -1.107159160865473779e-01 4.298560640081667411e-02 -9.929208398202867825e-01
3.446153846153846012e-01 -1.477759532604225878e-01 5.150453825293346138e-02 -9.876772516263218060e-01
4.307692307692307376e-01 -1.846574884267884187e-01 5.520584768612411819e-02 -9.812491870243502667e-01
5.169230769230769296e-01 -2.209541979353126240e-01 5.308827156185211282e-02 -9.738358008712442171e-01
6.030769230769230660e-01 -2.560524108058386816e-01 4.430861077621530558e-02 -9.656440742975257452e-01
6.892307692307692024e-01 -2.891254087881358625e-01 2.820942100705693678e-02 -9.568722934325526452e-01
7.753846153846153388e-01 -3.191341998639299349e-01 4.375317609423862164e-03 -9.476958375036238502e-01
8.615384615384614753e-01 -3.448526752498158321e-01 -2.732750343176312824e-02 -9.382549594012453698e-01
9.476923076923076117e-01 -3.649119468801527710e-01 -6.670198544381752970e-02 -9.286452652166949928e-01
1.033846153846153859e+00 -3.778586074966870378e-01 -1.131931907355558514e-01 -9.189132061985563205e-01
1.119999999999999885e+00 -3.822182869913675618e-01 -1.658517310773359454e-01 -9.090616640335420495e-01
1.206153846153846132e+00 -3.765955425753071961e-01 -2.233274991888822003e-01 -8.990499486262225615e-01
1.292307692307692157e+00 -3.597643791011716496e-01 -2.838693854959803420e-01 -8.888067249795748026e-01
1.378461538461538405e+00 -3.307605815969618113e-01 -3.453538013750280800e-01 -8.782467104019829884e-01
1.464615384615384652e+00 -2.889968300116962929e-01 -4.053335187617042035e-01 -8.672797285408337942e-01
1.550769230769230678e+00 -2.343410060788724270e-01 -4.611075800554173543e-01 -8.558341549263664971e-01
1.636923076923076925e+00 -1.672083720325517053e-01 -5.098219887670891737e-01 -8.438663098885389457e-01
1.723076923076922951e+00 -8.861537402715752298e-02 -5.485903612535312224e-01 -8.313740572090659864e-01
1.809230769230769198e+00 -2.147056566542682177e-04 -5.746284289695783309e-01 -8.184060422424133119e-01
1.895384615384615223e+00 9.569613325128323300e-02 -5.854039063881903981e-01 -8.050653909025877741e-01
1.981538461538461471e+00 1.962123473340890989e-01 -5.787969649524851157e-01 -7.915048960502257813e-01
2.067692307692307718e+00 2.978899162948807633e-01 -5.532485761952323777e-01 -7.779217962708767642e-01
2.153846153846153744e+00 3.968509827866139039e-01 -5.079087462531626240e-01 -7.645405213115753496e-01
2.239999999999999769e+00 4.889290786208465023e-01 -4.427486790758307644e-01 -7.516020833659714517e-01
2.326153846153846239e+00 5.698512246404888737e-01 -3.586508857174401932e-01 -7.393391778662399272e-01
2.412307692307692264e+00 6.354300841318298865e-01 -2.574686864787677498e-01 -7.279570021993481133e-01
2.498461538461538289e+00 6.817948108314874078e-01 -1.420100939369751125e-01 -7.176151666784753580e-01
2.584615384615384315e+00 7.056100894190246997e-01 -1.600662714103505413e-02 -7.084069513547576191e-01
2.670769230769230784e+00 7.042947408784759888e-01 1.160021409524591568e-01 -7.003530606996148933e-01
2.756923076923076810e+00 6.762249436709855122e-01 2.488252407757300111e-01 -6.933884696671410719e-01
2.843076923076922835e+00 6.208992095104188813e-01 3.768174535011902249e-01 -6.873677035524251577e-01
2.929230769230769305e+00 5.390576085835098175e-01 4.941483645468954800e-01 -6.820672229713825585e-01
3.015384615384615330e+00 4.327466046776624609e-01 5.950675454100123885e-01 -6.772047411196657762e-01
3.101538461538461355e+00 3.053151526891328960e-01 6.742160842967488410e-01 -6.724554981597793413e-01
3.187692307692307381e+00 1.613453733270920065e-01 7.269228244924994531e-01 -6.674816941756943622e-01
3.273846153846153850e+00 6.507927841473915009e-03 7.495077251595827494e-01 -6.619490771438764076e-01
3.359999999999999876e+00 -1.526683397200919168e-01 7.395258813133618325e-01 -6.555718557504657262e-01
