0.000000000000000000e+00 1.663258653456082491e-09 3.710351285978911541e-09 -1.000000000000000000e+00
8.615384615384615030e-02 5.364623603846943589e-02 -2.445393204501370224e-02 -9.982602750301085015e-01
1.723076923076923006e-01 1.077792671141408753e-01 -4.698851575795750385e-02 -9.930633017800302165e-01
2.584615384615384648e-01 1.627580254995112663e-01 -6.570230966054607658e-02 -9.844752658461720651e-01
3.446153846153846012e-01 2.187438661731939682e-01 -7.869807863266242709e-02 -9.726025616949742769e-01
4.307692307692307376e-01 2.755760472612546197e-01 -8.411094047442937982e-02 -9.575910861608905034e-01
5.169230769230769296e-01 3.327003717884384759e-01 -8.016495104900552005e-02 -9.396174750643738749e-01
6.030769230769230660e-01 3.890837895502321508e-01 -6.521686882784386019e-02 -9.188889880088844109e-01
6.892307692307692024e-01 4.431741507359202581e-01 -3.788579067013964075e-02 -8.956322928551821994e-01
7.753846153846153388e-01 4.928776669319975268e-01 2.843601877163315361e-03 -8.700912781312172273e-01
8.615384615384614753e-01 5.355887712682646518e-01 5.746980559172298886e-02 -8.425180455300577131e-01
9.476923076923076117e-01 5.682595847930632660e-01 1.258238367643419453e-01 -8.131689275727482791e-01
1.033846153846153859e+00 5.875323391132803996e-01 2.069003771813752723e-01 -7.822990150588602365e-01
1.119999999999999885e+00 5.899325256678720208e-01 2.987236938813275788e-01 -7.501580155584692822e-01
1.206153846153846132e+00 5.721207826405150243e-01 3.982535342224192698e-01 -7.169830103395674614e-01
1.292307692307692157e+00 5.311975555715049424e-01 5.013208726252837977e-01 -6.830072195094426535e-01
1.378461538461538405e+00 4.650585807382574544e-01 6.026942792786518233e-01 -6.484381344695894223e-01
1.464615384615384652e+00 3.727490968008834171e-01 6.962063065647818849e-01 -6.134707093492409724e-01
1.550769230769230678e+00 2.548162133351663527e-01 7.750102033816035352e-01 -5.782897358884928618e-01
1.636923076923076925e+00 1.136192960066339519e-01 8.319728580982231891e-01 -5.430493153036090037e-01
1.723076923076922951e+00 -4.647990573607763132e-02 8.601539069546672023e-01 -5.079030365308629946e-01
1.809230769230769198e+00 -2.190347620725598410e-01 8.534172071719861030e-01 -4.729619292963758159e-01
1.895384615384615223e+00 -3.956196458921467651e-01 8.070421560612703882e-01 -4.383584089503727577e-01
1.981538461538461471e+00 -5.661329625542679267e-01 7.184220374958296684e-01 -4.041692997055563175e-01
2.067692307692307718e+00 -7.193331686183843665e-01 5.876138525220500064e-01 -3.704851282632847242e-01
2.153846153846153744e+00 -8.435560818934889626e-01 4.178359117290306735e-01 -3.373654561048031186e-01
2.239999999999999769e+00 -9.276396101566242169e-01 2.156959716285395401e-01 -3.048753817548917056e-01
2.326153846153846239e+00 -9.619511975453083341e-01 -8.800579462790003582e-03 -2.730590585012842575e-01
2.412307692307692264e+00 -9.394617579310529099e-01 -2.426154219837760029e-01 -2.419463222777416822e-01
2.498461538461538289e+00 -8.567428777985557353e-01 -4.703354571236472714e-01 -2.115770736223416271e-01
2.584615384615384315e+00 -7.147867868892069376e-01 -6.752495498975805699e-01 -1.819517102982702583e-01
2.670769230769230784e+00 -5.195133214903571162e-01 -8.406285113936706743e-01 -1.530948731237923299e-01
2.756923076923076810e+00 -2.818850298796511389e-01 -9.512627562554579752e-01 -1.250135065713131599e-01
2.843076923076922835e+00 -1.751136711877648855e-02 -9.950551213316379817e-01 -9.770874106367391509e-02
2.929230769230769305e+00 2.542454756751949541e-01 -9.645112995661737632e-01 -7.117215410429086897e-02
3.015384615384615330e+00 5.116775766339880516e-01 -8.579701517489219942e-01 -4.540387480391170488e-02
3.101538461538461355e+00 7.325537772772545697e-01 -6.803948394121799303e-01 -2.039777890407875466e-02
3.187692307692307381e+00 8.962255700068714193e-01 -4.435685881567673072e-01 3.857982782770222156e-03
3.273846153846153850e+00 9.858047661549236285e-01 -1.656118934561290335e-01 2.738482655815240377e-02
3.359999999999999876e+00 9.902039075345592245e-01 1.302497373862575025e-01 5.019462132635092028e-02
