0.000000000000000000e+00 4.279539052533125231e-09 1.152789004465003486e-09 -1.000000000000000000e+00
8.615384615384615030e-02 3.579159314683076631e-02 2.210423433692347006e-01 -9.746062929787573381e-01
1.723076923076923006e-01 6.641460647485127045e-02 4.305499918693496131e-01 -9.001177487386007314e-01
2.584615384615384648e-01 8.745192791208628025e-02 6.178029993808727971e-01 -7.814509760234071845e-01
3.446153846153846012e-01 9.583926042754392638e-02 7.736874048375641522e-01 -6.262704344834045811e-01
4.307692307692307376e-01 9.029860457168797927e-02 8.913342465772033929e-01 -4.442519418337960158e-01
5.169230769230769296e-01 7.151315428361479376e-02 9.665729803433275036e-01 -2.461946951666879047e-01
6.030769230769230660e-01 4.201189832930624091e-02 9.981837747627961832e-01 -4.304612783816958582e-02
6.892307692307692024e-01 5.797833930703433225e-03 9.878941889702759216e-01 1.549853280947143808e-01
7.753846153846153388e-01 -3.223576919617066050e-02 9.401469114961030771e-01 3.392261148236549451e-01
8.615384615384614753e-01 -6.699056918594786803e-02 8.616286695992243505e-01 5.030895976500920908e-01
9.476923076923076117e-01 -9.388576559139079347e-02 7.606277154097892401e-01 6.423574931231883500e-01
1.033846153846153859e+00 -1.094703729885028731e-01 6.462532535766635222e-01 7.552261989903241712e-01
1.119999999999999885e+00 -1.118712358534043882e-01 5.276159316383851605e-01 8.420815167565587345e-01
1.206153846153846132e+00 -1.009920292183517088e-01 4.130485956446456886e-01 9.050899027579426548e-01
1.292307692307692157e+00 -7.846158477664588737e-02 3.094155756549845648e-01 9.476830196536637496e-01
1.378461538461538405e+00 -4.733746511672695667e-02 2.216360904943154020e-01 9.739788333587893199e-01
1.464615384615384652e+00 -1.160643049934453885e-02 1.524164343113710851e-01 9.882475891095545695e-01
1.550769230769230678e+00 2.441274259303359215e-02 1.022439287479285086e-01 9.944593271650891131e-01
1.636923076923076925e+00 5.668230605160602675e-02 6.963078089719716701e-02 9.959608160894617424e-01
1.723076923076922951e+00 8.199613057290458529e-02 5.154913871874004794e-02 9.952982177666084285e-01
1.809230769230769198e+00 9.835953012035693332e-02 4.400204969707267877e-02 9.941772271294611052e-01
1.895384615384615223e+00 1.051583975429931234e-01 4.268061158749301282e-02 9.935387101094689255e-01
1.981538461538461471e+00 1.031434664988613581e-01 4.355198303561915590e-02 9.937121082659670090e-01
2.067692307692307718e+00 9.416159517461093753e-02 4.337290135025748117e-02 9.946112569845201312e-01
2.153846153846153744e+00 8.078615464967585369e-02 4.001050856460527938e-02 9.959277240230316464e-01
2.239999999999999769e+00 6.582972392457557553e-02 3.258381592820817213e-02 9.972984240446599591e-01
2.326153846153846239e+00 5.188237920295351441e-02 2.138044168919477420e-02 9.984240745338288647e-01
2.412307692307692264e+00 4.092163771494379543e-02 7.615228379708632520e-03 9.991331629685222815e-01
2.498461538461538289e+00 3.406267018039832450e-02 -6.935092211084903369e-03 9.993954885117636300e-01
2.584615384615384315e+00 3.146503462961980357e-02 -2.036490826486216793e-02 9.992972051396916688e-01
2.670769230769230784e+00 3.243006053644856973e-02 -3.101104968705246934e-02 9.989926077531267046e-01
2.756923076923076810e+00 3.562528783590551001e-02 -3.777965630567348826e-02 9.986506425373902207e-01
2.843076923076922835e+00 3.940853835792540449e-02 -4.030498124568412249e-02 9.984097411181249715e-01
2.929230769230769305e+00 4.217815648914591264e-02 -3.897555225909195287e-02 9.983493563941022719e-01
3.015384615384615330e+00 4.268438200875164512e-02 -3.481513699917082594e-02 9.984815946755607463e-01
3.101538461538461355e+00 4.025041416995951693e-02 -2.923515329956054981e-02 9.987616315256359067e-01
3.187692307692307381e+00 3.486528517876266720e-02 -2.374499095885206079e-02 9.991097199913846483e-01
3.273846153846153850e+00 2.714443625376231767e-02 -1.966375993731504790e-02 9.994379567626727745e-01
3.359999999999999876e+00 1.816238673097661516e-02 -1.787669118183694839e-02 9.996751112865022160e-01
