0.000000000000000000e+00 1.158879742893078992e-09 -4.429332066886678253e-09 -1.000000000000000000e+00
8.615384615384615030e-02 8.512324142408431160e-02 1.454484767522098987e-01 -9.856964286820184551e-01
1.723076923076923006e-01 1.678221266530435518e-01 2.857414410022162676e-01 -9.434960620004805287e-01
2.584615384615384648e-01 2.458643303846302919e-01 4.160448072500999572e-01 -8.754731218122742131e-01
3.446153846153846012e-01 3.173421126096273581e-01 5.322014296275678902e-01 -7.848884048794951829e-01
4.307692307692307376e-01 3.807881695156792867e-01 6.309541311637549832e-01 -6.759363814618637445e-01
5.169230769230769296e-01 4.352632000042035987e-01 7.101323113344875093e-01 -5.533981343673923803e-01
6.030769230769230660e-01 4.803580965253189672e-01 7.687052310277456835e-01 -4.223017621415686706e-01
6.892307692307692024e-01 5.161656464838062508e-01 8.067671970350438482e-01 -2.875575969939349608e-01
7.753846153846153388e-01 5.432067259167728812e-01 8.254126775429393437e-01 -1.536540593506953434e-01
8.615384615384614753e-01 5.623166541539855734e-01 8.265546682533123635e-01 -2.442102215579642494e-02
9.476923076923076117e-01 5.745300053166190191e-01 8.126908687422798039e-01 9.714896237810384527e-02
1.033846153846153859e+00 5.809622130410860841e-01 7.866492938627417386e-01 2.089381299970597683e-01
1.119999999999999885e+00 5.827029238816402446e-01 7.513448093078858303e-01 3.097225086885901368e-01
1.206153846153846132e+00 5.807438491500729327e-01 7.095660873672806623e-01 3.990523976733730271e-01
1.292307692307692157e+00 5.759334246169787175e-01 6.638053008888051831e-01 4.771310221847372413e-01
1.378461538461538405e+00 5.689484305711118850e-01 6.161558912674282018e-01 5.446475616407462361e-01
1.464615384615384652e+00 5.603195326152559108e-01 5.682582041965857922e-01 6.025915502143754932e-01
1.550769230769230678e+00 5.504392343148519773e-01 5.213002992052087059e-01 6.521158725921124555e-01
1.636923076923076925e+00 5.396044243099976656e-01 4.760711498426850596e-01 6.943891443627830951e-01
1.723076923076922951e+00 5.280464569723395396e-01 4.330270131993984584e-01 7.305121273109025370e-01
1.809230769230769198e+00 5.159594135448868357e-01 3.923757018363579485e-01 7.614598095022586666e-01
1.895384615384615223e+00 5.035135970956380325e-01 3.541706692701256376e-01 7.880554761195436297e-01
1.981538461538461471e+00 4.908668642478162258e-01 3.183604412903362491e-01 8.109814717376896409e-01
2.067692307692307718e+00 4.781677756983325200e-01 2.848627296534784192e-01 8.307850042455250383e-01
2.153846153846153744e+00 4.655293280925249522e-01 2.535911176858507421e-01 8.479205218382014353e-01
2.239999999999999769e+00 4.530402466735507505e-01 2.244594070680632214e-01 8.627676416956072680e-01
2.326153846153846239e+00 4.407583290704764623e-01 1.973926542643084647e-01 8.756505926613042945e-01
2.412307692307692264e+00 4.286993162512769406e-01 1.723079313077077734e-01 8.868612259898970285e-01
2.498461538461538289e+00 4.168552006801332643e-01 1.491096639644054478e-01 8.966572402382829710e-01
2.584615384615384315e+00 4.051978176303187018e-01 1.276885508513609935e-01 9.052660936978230710e-01
2.670769230769230784e+00 3.936988024385179585e-01 1.079028230633856805e-01 9.128826530974835096e-01
2.756923076923076810e+00 3.823328907952684430e-01 8.960586913739226889e-02 9.196678822553225885e-01
2.843076923076922835e+00 3.710924796387898295e-01 7.264005971829833042e-02 9.257486741076920156e-01
2.929230769230769305e+00 3.599934468103255791e-01 5.685923170273055050e-02 9.312189289625305566e-01
3.015384615384615330e+00 3.490658682539410362e-01 4.212985156300103062e-02 9.361491117746375545e-01
3.101538461538461355e+00 3.383538408612153936e-01 2.835822125274709005e-02 9.405900671693065984e-01
3.187692307692307381e+00 3.278976143122879217e-01 1.546881914463674179e-02 9.445851753211996771e-01
3.273846153846153850e+00 3.177299520806941557e-01 3.424571190173641977e-03 9.481736820509557573e-01
3.359999999999999876e+00 3.078677542155476843e-01 -7.796483540526755185e-03 9.513958859072544350e-01
