0.000000000000000000e+00 -1.420355105123653839e-09 2.690800077123665327e-09 -1.000000000000000000e+00
8.615384615384615030e-02 -7.863789500024083445e-02 2.097645757440763092e-01 -9.745821533891361188e-01
1.723076923076923006e-01 -1.537530564248717480e-01 4.084241318087717953e-01 -8.997445021195379367e-01
2.584615384615384648e-01 -2.218564752843419918e-01 5.855963156005429271e-01 -7.796420813260404037e-01
3.446153846153846012e-01 -2.796869958655601174e-01 7.322842894292166394e-01 -6.208985267561663024e-01
4.307692307692307376e-01 -3.242813634692879865e-01 8.414513571435550121e-01 -4.321772250113800062e-01
5.169230769230769296e-01 -3.530726015347114832e-01 9.084628263261617098e-01 -2.236252742506016078e-01
6.030769230769230660e-01 -3.639994474963970106e-01 9.313634857623024343e-01 -6.222669814766243306e-03
6.892307692307692024e-01 -3.556028849838795969e-01 9.109738807747529421e-01 2.089169272633207841e-01
7.753846153846153388e-01 -3.271175469621623311e-01 8.507995288306262616e-01 4.112296852115518986e-01
8.615384615384614753e-01 -2.785498639165918666e-01 7.567565624422393222e-01 5.913618078802423961e-01
9.476923076923076117e-01 -2.107320586264162521e-01 6.367451091721239020e-01 7.417084432314111631e-01
1.033846153846153859e+00 -1.253469958826541331e-01 5.000808458298785508e-01 8.568521422422876732e-01
1.119999999999999885e+00 -2.491242163006440746e-02 3.568494982359075585e-01 9.338255858792005037e-01
1.206153846153846132e+00 8.726396209954558059e-02 2.172029408726637023e-01 9.722155806702407199e-01
1.292307692307692157e+00 2.071876809781020568e-01 9.068602703778355645e-02 9.740866145902734585e-01
1.378461538461538405e+00 3.303597079502723077e-01 -1.441360219257682707e-02 9.437413711731528210e-01
1.464615384615384652e+00 4.519146988302753520e-01 -9.164121063792421418e-02 8.873357797687323467e-01
1.550769230769230678e+00 5.668629531341069505e-01 -1.367525040880306908e-01 8.123740141600493958e-01
1.636923076923076925e+00 6.703452429624678910e-01 -1.479663650308071232e-01 7.271357915834476549e-01
1.723076923076922951e+00 7.579013261827922676e-01 -1.260554289760335567e-01 6.400595367229062749e-01
1.809230769230769198e+00 8.257336246723295803e-01 -7.422714607444712287e-02 5.591357959685578916e-01
1.895384615384615223e+00 8.709386753354079191e-01 2.136736356139840032e-03 4.913637180695548667e-01
1.981538461538461471e+00 8.917161447777912642e-01 9.591420663563521298e-02 4.422882567332017123e-01
2.067692307692307718e+00 8.875198092742497824e-01 1.987867329836066899e-01 4.156537979624609358e-01
2.153846153846153744e+00 8.591370171285717117e-01 3.018529534852026908e-01 4.132118064819804704e-01
2.239999999999999769e+00 8.086880620719788526e-01 3.962912659785953751e-01 4.346870562442604613e-01
2.326153846153846239e+00 7.395528464459265594e-01 4.740016261231904671e-01 4.778711463596739817e-01
2.412307692307692264e+00 6.562081178470453580e-01 5.281856487497164077e-01 5.388774315514852642e-01
2.498461538461538289e+00 5.639851063096198436e-01 5.538338237220323812e-01 6.125102035648937182e-01
2.584615384615384315e+00 4.687710301957165315e-01 5.480758686423258252e-01 6.927111318971337361e-01
2.670769230769230784e+00 3.766555079676100481e-01 5.103719969698278236e-01 7.730691584587183751e-01
2.756923076923076810e+00 2.935579692779496375e-01 4.425359922333141904e-01 8.473331678841360404e-01
2.843076923076922835e+00 2.248433424460052898e-01 3.485868250201403229e-01 9.099031238669749166e-01
2.929230769230769305e+00 1.749757581772106163e-01 2.344445535725739327e-01 9.562495425446275732e-01
3.015384615384615330e+00 1.472078667292111842e-01 1.074901106754234253e-01 9.832456806391403070e-01
3.101538461538461355e+00 1.433466680795016657e-01 -2.397589433133334724e-02 9.893806089833886430e-01
3.187692307692307381e+00 1.636506906627990809e-01 -1.513470897374540325e-01 9.748374240539848801e-01
3.273846153846153850e+00 2.067359289549884904e-01 -2.663529074524636497e-01 9.414400107674357754e-01
3.359999999999999876e+00 2.696511204102812198e-01 -3.616200807351362401e-01 8.924736699795020600e-01
