0.000000000000000000e+00 -1.215644592756122359e-15 3.652388690577727266e-14 -1.000000000000000000e+00
8.615384615384615030e-02 -3.242566744423837355e-03 1.095900983944802926e-01 -9.939715770799593120e-01
1.723076923076923006e-01 -4.004472880098593202e-03 2.166101977484526930e-01 -9.762499610128408944e-01
2.584615384615384648e-01 1.353656731205299391e-05 3.185540912777167222e-01 -9.479046843808398570e-01
3.446153846153846012e-01 1.076547743134217971e-02 4.130417506253688531e-01 -9.106484593760181268e-01
4.307692307692307376e-01 2.970638030770528237e-02 4.978795750429645950e-01 -8.667372494254933502e-01
5.169230769230769296e-01 5.767769091243894752e-02 5.711223555644890926e-01 -8.188360878284994815e-01
6.030769230769230660e-01 9.482094200702161080e-02 6.311242891690502788e-01 -7.698643516674047449e-01
6.892307692307692024e-01 1.405386482697047468e-01 6.765931449030447853e-01 -7.228212810828825718e-01
7.753846153846153388e-01 1.935004141027484859e-01 7.066346061556852964e-01 -6.806064375241281939e-01
8.615384615384614753e-01 2.516854042008800363e-01 7.207898160012764510e-01 -6.458455682320907165e-01
9.476923076923076117e-01 3.124818085354678643e-01 7.190584775001553908e-01 -6.207334568850976231e-01
1.033846153846153859e+00 3.728104269473692667e-01 7.019201533589322084e-01 -6.068941286765787702e-01
1.119999999999999885e+00 4.292922341513325524e-01 6.703354664069463009e-01 -6.052755894593365715e-01
1.206153846153846132e+00 4.784304912487255534e-01 6.257341519463313073e-01 -6.160852501019210559e-01
1.292307692307692157e+00 5.168128500746383969e-01 5.699877557776890091e-01 -6.387632077892154703e-01
1.378461538461538405e+00 5.413064436750095743e-01 5.053664926924938960e-01 -6.720059833590656950e-01
1.464615384615384652e+00 5.492592219871148540e-01 4.344824127328065777e-01 -7.138202433165647953e-01
1.550769230769230678e+00 5.386690731808426724e-01 3.602084236740611956e-01 -7.616334558669124455e-01
1.636923076923076925e+00 5.083292596186818058e-01 2.855938933003188129e-01 -8.124269145790471436e-01
1.723076923076922951e+00 4.579301313305278454e-01 2.137633067377049667e-01 -8.629051184139310271e-01
1.809230769230769198e+00 3.881271625279896775e-01 1.478003853353063723e-01 -9.096770589169866916e-01
1.895384615384615223e+00 3.005511725735742212e-01 9.064019640554141222e-02 -9.494489703836306305e-01
1.981538461538461471e+00 1.977661430780878193e-01 4.494515753153656423e-02 -9.792183032807072474e-01
2.067692307692307718e+00 8.318366013469294384e-02 1.299822621888883055e-02 -9.964494592227689518e-01
2.153846153846153744e+00 -3.907524049979567426e-02 -3.404973729925127660e-03 -9.992304697886593701e-01
2.239999999999999769e+00 -1.643552029449640295e-01 -3.043437947378657693e-03 -9.863965251436807025e-01
2.326153846153846239e+00 -2.876781281181325367e-01 1.465409547913838761e-02 -9.576150332271825549e-01
2.412307692307692264e+00 -4.039766591899885406e-01 4.956863498290262071e-02 -9.134253165777960204e-01
2.498461538461538289e+00 -5.083334854993611929e-01 1.008629769516238006e-01 -8.552331422439996000e-01
2.584615384615384315e+00 -5.962320507611830189e-01 1.669839358530985363e-01 -7.852539121502852826e-01
2.670769230769230784e+00 -6.637796659975783164e-01 2.457188375461967222e-01 -7.064126324471881047e-01
2.756923076923076810e+00 -7.079126892394504988e-01 3.342397907246752453e-01 -6.222084746595248905e-01
2.843076923076922835e+00 -7.265696821872413835e-01 4.292218248562867378e-01 -5.365306358316044300e-01
2.929230769230769305e+00 -7.188129193751149337e-01 5.269525163775621301e-01 -4.534633759226364136e-01
3.015384615384615330e+00 -6.848957236041379737e-01 6.234834692299149328e-01 -3.770758688419350024e-01
3.101538461538461355e+00 -6.262788790553414087e-01 7.147939173519596290e-01 -3.111983639745909413e-01
3.187692307692307381e+00 -5.455896110194592419e-01 7.969562269637053831e-01 -2.592156391515783587e-01
3.273846153846153850e+00 -4.465079678853509093e-01 8.663189089449139235e-01 -2.238798407264794010e-01
3.359999999999999876e+00 -3.336329103806676688e-01 9.196620331106397650e-01 -2.071492849400498881e-01
