0.000000000000000000e+00 4.623505035001882871e-09 4.480826506987213499e-09 -1.000000000000000000e+00
8.615384615384615030e-02 5.069995569717299089e-02 1.297237626266189159e-01 -9.902521207802950087e-01
1.723076923076923006e-01 1.011319355876513365e-01 2.556058675544291559e-01 -9.614748608236461935e-01
2.584615384615384648e-01 1.510576445933859979e-01 3.740221360456407185e-01 -9.150315627345750880e-01
3.446153846153846012e-01 2.002118779577575503e-01 4.818355696352440432e-01 -8.530774619856985597e-01
4.307692307692307376e-01 2.483147829111895799e-01 5.765691052050627707e-01 -7.783939163139064199e-01
5.169230769230769296e-01 2.950765742550418014e-01 6.565277415352761547e-01 -6.941817625451387475e-01
6.030769230769230660e-01 3.401915608213754716e-01 7.208642030419674107e-01 -6.038293002590722214e-01
6.892307692307692024e-01 3.833479784644328037e-01 7.695692990712988957e-01 -5.106771803415346422e-01
7.753846153846153388e-01 4.242302114039459005e-01 8.034018112498230169e-01 -4.177998943071522531e-01
8.615384615384614753e-01 4.625346808610057980e-01 8.237557216553269557e-01 -3.278257348759044953e-01
9.476923076923076117e-01 4.979824519728837662e-01 8.324890689008592748e-01 -2.428091370402951088e-01
1.033846153846153859e+00 5.303276789988036199e-01 8.317364157080660014e-01 -1.641568950282792094e-01
1.119999999999999885e+00 5.593832633726125714e-01 8.237065434248407314e-01 -9.261767070569779103e-02
1.206153846153846132e+00 5.850280292666456550e-01 8.105055289341845937e-01 -2.833770088204556198e-02
1.292307692307692157e+00 6.072279441085324247e-01 7.939837083465554057e-01 2.905388008766991020e-02
1.378461538461538405e+00 6.260408577397966745e-01 7.756320255892668047e-01 8.029891906349825859e-02
1.464615384615384652e+00 6.416180627115123380e-01 7.565287736568599986e-01 1.263753261764232749e-01
1.550769230769230678e+00 6.542133483718082232e-01 7.373267127935205778e-01 1.683289445297884990e-01
1.636923076923076925e+00 6.641604399899563305e-01 7.183020387609748703e-01 2.071562506063824305e-01
1.723076923076922951e+00 6.718638600556741114e-01 6.994265628804041679e-01 2.436848114174050284e-01
1.809230769230769198e+00 6.777754740105124132e-01 6.804701983645354835e-01 2.784992340296066904e-01
1.895384615384615223e+00 6.823631971216862491e-01 6.611103684061769847e-01 3.119213673238439566e-01
1.981538461538461471e+00 6.860795449723016137e-01 6.410389855975207052e-01 3.440139159037824967e-01
2.067692307692307718e+00 6.893375197094577800e-01 6.200424964867868871e-01 3.746239408976746454e-01
2.153846153846153744e+00 6.924707057477106353e-01 5.980700446302782414e-01 4.034586417234358735e-01
2.239999999999999769e+00 6.957212765154290324e-01 5.752506942963676595e-01 4.301641511181399369e-01
2.326153846153846239e+00 6.992163198000936886e-01 5.518920921278749336e-01 4.544168002398296102e-01
2.412307692307692264e+00 7.029718154823501042e-01 5.284424191950358729e-01 4.759858169439312170e-01
2.498461538461538289e+00 7.068959246768640181e-01 5.054247595063086074e-01 4.948004573122481431e-01
2.584615384615384315e+00 7.108052674451994513e-01 4.833689814149286779e-01 5.109736577272119273e-01
2.670769230769230784e+00 7.144574414076910740e-01 4.627366719580056076e-01 5.247945537402732841e-01
2.756923076923076810e+00 7.175772486003385575e-01 4.438564431871506732e-01 5.367108422453440442e-01
2.843076923076922835e+00 7.198994476743505455e-01 4.268761187938793222e-01 5.472713265804495242e-01
2.929230769230769305e+00 7.212003396867683325e-01 4.117382503714560049e-01 5.570692880555753179e-01
3.015384615384615330e+00 7.213341004044070415e-01 3.981947308461071255e-01 5.666592887796574329e-01
3.101538461538461355e+00 7.202546447526004814e-01 3.858323341723096656e-01 5.764993508816443901e-01
3.187692307692307381e+00 7.180175620054618513e-01 3.741286189471609291e-01 5.869102055343254909e-01
3.273846153846153850e+00 7.147947421893994235e-01 3.625275526483024424e-01 5.980196320012290956e-01
3.359999999999999876e+00 7.108443695804216311e-01 3.505077018986512694e-01 6.097787176796040098e-01
