0.000000000000000000e+00 -4.917914296501787588e-09 5.305992684657673851e-10 -1.000000000000000000e+00
8.615384615384615030e-02 -1.433774613771757883e-03 1.609991237207365408e-02 -9.998692906379204048e-01
1.723076923076923006e-01 -2.880237390877629644e-03 3.219559515254798859e-02 -9.994773071359276395e-01
2.584615384615384648e-01 -4.328102236533154512e-03 4.827385689766930388e-02 -9.988245713367559508e-01
3.446153846153846012e-01 -5.776928172552861507e-03 6.432878406551484352e-02 -9.979117895093779778e-01
4.307692307692307376e-01 -7.230740551716324793e-03 8.035125309575052999e-02 -9.967400768840691816e-01
5.169230769230769296e-01 -8.686345276850936103e-03 9.633368745665384092e-02 -9.953108257605318698e-01
6.030769230769230660e-01 -1.014744045006186340e-02 1.122673060354905106e-01 -9.936258026057050996e-01
6.892307692307692024e-01 -1.161457140976707159e-02 1.281451273395022572e-01 -9.916869282037507061e-01
7.753846153846153388e-01 -1.308625352895805005e-02 1.439601496909120870e-01 -9.894964079474591889e-01
8.615384615384614753e-01 -1.456485640624198552e-02 1.597025464331105482e-01 -9.870571195353367022e-01
9.476923076923076117e-01 -1.604993134390353404e-02 1.753634859487382125e-01 -9.843722476639119590e-01
1.033846153846153859e+00 -1.754181583203891226e-02 1.909419660714943845e-01 -9.814438357540155033e-01
1.119999999999999885e+00 -1.903969160670021532e-02 2.064227830057015767e-01 -9.782768291520829163e-01
1.206153846153846132e+00 -2.054732976570951622e-02 2.218053795847345633e-01 -9.748735738839199305e-01
1.292307692307692157e+00 -2.206353537288854860e-02 2.370767124787535318e-01 -9.712394203834372464e-01
1.378461538461538405e+00 -2.358433901043907599e-02 2.522325819152985704e-01 -9.673781866630130066e-01
1.464615384615384652e+00 -2.511521806111890326e-02 2.672662539975204643e-01 -9.632942961931841852e-01
1.550769230769230678e+00 -2.665262883939724381e-02 2.821731569353235769e-01 -9.589920462705578963e-01
1.636923076923076925e+00 -2.819572004694181899e-02 2.969412919076432900e-01 -9.544781499509074063e-01
1.723076923076922951e+00 -2.974750572385566338e-02 3.115704721305160851e-01 -9.497560043817745434e-01
1.809230769230769198e+00 -3.130632649198944462e-02 3.260553526355836618e-01 -9.448307954171289991e-01
1.895384615384615223e+00 -3.286709197812501260e-02 3.403834993939275910e-01 -9.397106518216264970e-01
1.981538461538461471e+00 -3.443608006442250291e-02 3.545556984841766734e-01 -9.343990400518896733e-01
2.067692307692307718e+00 -3.600823521944468419e-02 3.685636290365112977e-01 -9.289032682860876022e-01
2.153846153846153744e+00 -3.758308574627927667e-02 3.824047680582198794e-01 -9.232285729039440003e-01
2.239999999999999769e+00 -3.916094038616307893e-02 3.960754102674008958e-01 -9.173807569140982610e-01
2.326153846153846239e+00 -4.074055775724419459e-02 4.095707267002172136e-01 -9.113663700063697748e-01
2.412307692307692264e+00 -4.231923990453848039e-02 4.228847328692290630e-01 -9.051928466411409691e-01
2.498461538461538289e+00 -4.389927570183860261e-02 4.360155404986623684e-01 -8.988657721695114677e-01
2.584615384615384315e+00 -4.547431470993981706e-02 4.489630536306820630e-01 -8.923903338946308494e-01
2.670769230769230784e+00 -4.704914475887439496e-02 4.617206619854120064e-01 -8.857745334408955173e-01
2.756923076923076810e+00 -4.861884010618910956e-02 4.742871269451479077e-01 -8.790244137396293622e-01
2.843076923076922835e+00 -5.018224656686595675e-02 4.866607969482352747e-01 -8.721461308891802489e-01
2.929230769230769305e+00 -5.173623358655693449e-02 4.988402845689732246e-01 -8.651459220913291226e-01
3.015384615384615330e+00 -5.328532338389843637e-02 5.108211647659787191e-01 -8.580314799693928851e-01
3.101538461538461355e+00 -5.482471489764145778e-02 5.226054888400518683e-01 -8.508074035963260062e-01
3.187692307692307381e+00 -5.635134568926196408e-02 5.341922691728664407e-01 -8.434799973437459020e-01
3.273846153846153850e+00 -5.786622069152094761e-02 5.455792917473057946e-01 -8.360562011144114791e-01
3.359999999999999876e+00 -5.936891246195323546e-02 5.567671903749912277e-01 -8.285413327985416965e-01
