0.000000000000000000e+00 -3.640929843714132219e-09 -1.739421091123716459e-09 -1.000000000000000000e+00
8.615384615384615030e-02 -3.843547927905072159e-02 -1.164665771998949287e-02 -9.991928280058720580e-01
1.723076923076923006e-01 -7.626336924474949597e-02 -2.439871511835749532e-02 -9.967884184610665832e-01
2.584615384615384648e-01 -1.128338654079812930e-01 -3.925759493947662826e-02 -9.928369573189879116e-01
3.446153846153846012e-01 -1.474297807602332755e-01 -5.716278801209159072e-02 -9.874178704658533867e-01
4.307692307692307376e-01 -1.792372394923073542e-01 -7.890647490854175994e-02 -9.806346228484145167e-01
5.169230769230769296e-01 -2.073320493789548857e-01 -1.050944704149090747e-01 -9.726069907742598275e-01
6.030769230769230660e-01 -2.306755422891609564e-01 -1.360915751713468180e-01 -9.634640470648929700e-01
6.892307692307692024e-01 -2.481291884772357514e-01 -1.719753492073752554e-01 -9.533366562423665203e-01
7.753846153846153388e-01 -2.584889575119433958e-01 -2.124957293344223175e-01 -9.423495814670612702e-01
8.615384615384614753e-01 -2.605293921531944834e-01 -2.570366828458441333e-01 -9.306178673875008522e-01
9.476923076923076117e-01 -2.530725121866255201e-01 -3.045925543552105985e-01 -9.182429128091188497e-01
1.033846153846153859e+00 -2.350704728677776023e-01 -3.537630774389395327e-01 -9.053094834072564767e-01
1.119999999999999885e+00 -2.056941267649010086e-01 -4.027574589807328964e-01 -8.918898094716471991e-01
1.206153846153846132e+00 -1.644324769211853443e-01 -4.494342835351889942e-01 -8.780439857426191042e-01
1.292307692307692157e+00 -1.111970011066408526e-01 -4.913587509425146882e-01 -8.638238436005776233e-01
1.378461538461538405e+00 -4.640749425732948463e-02 -5.258890104877398386e-01 -8.492798874895853833e-01
1.464615384615384652e+00 2.892120099150172902e-02 -5.502952054842672469e-01 -8.344623498651310145e-01
1.550769230769230678e+00 1.131319565931786369e-01 -5.618952844598290586e-01 -8.194284083133002161e-01
1.636923076923076925e+00 2.038978331177285774e-01 -5.582209134887849977e-01 -8.042403833936933033e-01
1.723076923076922951e+00 2.982300078678914446e-01 -5.371863072415450358e-01 -7.889719540518989049e-01
1.809230769230769198e+00 3.925510403671557125e-01 -4.972710759254488355e-01 -7.736999756128577488e-01
1.895384615384615223e+00 4.827842510646541130e-01 -4.376936813841554308e-01 -7.585048439902413175e-01
1.981538461538461471e+00 5.645143472880875812e-01 -3.585552926287757236e-01 -7.434696773362028388e-01
2.067692307692307718e+00 6.331859167896003449e-01 -2.609724808794680051e-01 -7.286659181153224418e-01
2.153846153846153744e+00 6.843363347568852673e-01 -1.471397602040273034e-01 -7.141556627397452894e-01
2.239999999999999769e+00 7.138618179592363111e-01 -2.036385582470789934e-02 -6.999791878911932885e-01
2.326153846153846239e+00 7.182955776212007759e-01 1.150003750812163550e-01 -6.861561222360109680e-01
2.412307692307692264e+00 6.950792779587502412e-01 2.536619306028145004e-01 -6.726841103129361787e-01
2.498461538461538289e+00 6.428267479205304058e-01 3.895805605717093112e-01 -6.595330945829829261e-01
2.584615384615384315e+00 5.615272218005052940e-01 5.162447375319711984e-01 -6.466539685207882693e-01
2.670769230769230784e+00 4.526998066353034034e-01 6.269852762808572066e-01 -6.339833218598260878e-01
2.756923076923076810e+00 3.194754874679421874e-01 7.153478518164573252e-01 -6.214459277182254882e-01
2.843076923076922835e+00 1.665670435636075197e-01 7.754944721399560370e-01 -6.089709823633915331e-01
2.929230769230769305e+00 1.608484037850521631e-04 8.026035826301112230e-01 -5.964973796246052506e-01
3.015384615384615330e+00 -1.723167815834144023e-01 7.932620025555209287e-01 -5.839723044002644858e-01
3.101538461538461355e+00 -3.425242821552658135e-01 7.457775319963420024e-01 -5.713790733412340561e-01
3.187692307692307381e+00 -5.016159134423041621e-01 6.604439144123156469e-01 -5.587272134246309419e-01
3.273846153846153850e+00 -6.407370875579825320e-01 5.396907938010713224e-01 -5.460497632686079905e-01
3.359999999999999876e+00 -7.515485856404179321e-01 3.881053273034547058e-01 -5.334128761787295669e-01
