0.000000000000000000e+00 3.388261063175658257e-10 -3.004059354519590650e-09 -1.000000000000000000e+00
8.615384615384615030e-02 3.993381097714070183e-02 4.275678987390420932e-03 -9.991928168714162561e-01
1.723076923076923006e-01 7.960834575952066561e-02 8.595480562226046062e-03 -9.967884684140164708e-01
2.584615384615384648e-01 1.187635494216409404e-01 1.295660435467886618e-02 -9.928370037781413249e-01
3.446153846153846012e-01 1.571651897278686372e-01 1.738286712592783390e-02 -9.874179728002927536e-01
4.307692307692307376e-01 1.946090826510298577e-01 2.190138293935835895e-02 -9.806346347490271231e-01
5.169230769230769296e-01 2.309263994608210802e-01 2.654585284377686261e-02 -9.726069637605996299e-01
6.030769230769230660e-01 2.659879133801150708e-01 3.135006368805871857e-02 -9.634640268373232397e-01
6.892307692307692024e-01 2.997048480910049495e-01 3.634553260301065514e-02 -9.533366013087072321e-01
7.753846153846153388e-01 3.320294670917460222e-01 4.156136801267507064e-02 -9.423497775779939856e-01
8.615384615384614753e-01 3.629497813229364267e-01 4.701794183103782249e-02 -9.306181511990914146e-01
9.476923076923076117e-01 3.924826553524135009e-01 5.272208557613874969e-02 -9.182431532109183170e-01
1.033846153846153859e+00 4.206713651035094426e-01 5.866656162587344236e-02 -9.053098677412274586e-01
1.119999999999999885e+00 4.475733618462764962e-01 6.482492232528619391e-02 -8.918897506162580813e-01
1.206153846153846132e+00 4.732513388350897410e-01 7.115571869260020610e-02 -8.780438201009259647e-01
1.292307692307692157e+00 4.977716012951932667e-01 7.759858630095312071e-02 -8.638241855897595967e-01
1.378461538461538405e+00 5.211943439996225003e-01 8.407952655331465963e-02 -8.492801965291978394e-01
1.464615384615384652e+00 5.435679323714704969e-01 9.052366030711544997e-02 -8.344630468307453475e-01
1.550769230769230678e+00 5.649299532469510554e-01 9.684505237379423259e-02 -8.194289779683328057e-01
1.636923076923076925e+00 5.853048112975212103e-01 1.029705310944699637e-01 -8.042409375950234640e-01
1.723076923076922951e+00 6.047031845850199261e-01 1.088341100319208943e-01 -7.889720049518945677e-01
1.809230769230769198e+00 6.231297691596362487e-01 1.143953810013317862e-01 -7.736989892956610548e-01
1.895384615384615223e+00 6.405818421623001857e-01 1.196312732873661133e-01 -7.585050626197679113e-01
1.981538461538461471e+00 6.570592855120238607e-01 1.245445290217042644e-01 -7.434702206600253271e-01
2.067692307692307718e+00 6.725666170788056064e-01 1.291689014826146731e-01 -7.286668162235502288e-01
2.153846153846153744e+00 6.871172180219862202e-01 1.335526696471227570e-01 -7.141561402375341538e-01
2.239999999999999769e+00 7.007379879455806204e-01 1.377680603069803000e-01 -6.999794471149444197e-01
2.326153846153846239e+00 7.134703850619824594e-01 1.418926857167137623e-01 -6.861567622917081888e-01
2.412307692307692264e+00 7.253710122141969752e-01 1.460038733233217090e-01 -6.726842071479066654e-01
2.498461538461538289e+00 7.365102829277719865e-01 1.501755876140771218e-01 -6.595330506425416406e-01
2.584615384615384315e+00 7.469696607448313985e-01 1.544601521745189443e-01 -6.466544849978632659e-01
2.670769230769230784e+00 7.568392450803864691e-01 1.588830615867459495e-01 -6.339825432914678593e-01
2.756923076923076810e+00 7.662068304437827937e-01 1.634473066540839126e-01 -6.214459892159770460e-01
2.843076923076922835e+00 7.751602241165345131e-01 1.681177800954261892e-01 -6.089711024189863320e-01
2.929230769230769305e+00 7.837758144448297992e-01 1.728373085939456932e-01 -5.964941154824427993e-01
3.015384615384615330e+00 7.921156350070098773e-01 1.775173383024999108e-01 -5.839714378727871580e-01
3.101538461538461355e+00 8.002262961616861681e-01 1.820575167871625044e-01 -5.713798181169399415e-01
3.187692307692307381e+00 8.081340401823765562e-01 1.863476211407221195e-01 -5.587268050175047129e-01
3.273846153846153850e+00 8.158443391999031791e-01 1.902843243121373762e-01 -5.460506781624091532e-01
3.359999999999999876e+00 8.233457869958960007e-01 1.937810475242786046e-01 -5.334152559561634588e-01
