0.000000000000000000e+00 -1.455522996168090616e-12 6.278217820556128908e-13 -1.000000000000000000e+00
8.615384615384615030e-02 -1.544597841313241071e-01 6.733033828305917678e-02 -9.857021865743640365e-01
1.723076923076923006e-01 -3.019668272866978254e-01 1.358355429284212323e-01 -9.435914054707996712e-01
2.584615384615384648e-01 -4.359052702363669374e-01 2.065338704348790300e-01 -8.759739469319925975e-01
3.446153846153846012e-01 -5.503199525677909820e-01 2.801456282008855103e-01 -7.865534799397235766e-01
4.307692307692307376e-01 -6.402023127175889838e-01 3.569659203372150813e-01 -6.802325562234819989e-01
5.169230769230769296e-01 -7.017365475579786516e-01 4.367738114026911145e-01 -5.628449656925665900e-01
6.030769230769230660e-01 -7.324830563228824643e-01 5.187757477710622789e-01 -4.408404423747108725e-01
6.892307692307692024e-01 -7.314967199443013213e-01 6.015936221842842491e-01 -3.209324888693284583e-01
7.753846153846153388e-01 -6.993725323419700546e-01 6.832926126008800338e-01 -2.097361828871606437e-01
8.615384615384614753e-01 -6.382162708429924836e-01 7.614590319985428124e-01 -1.134025309459694292e-01
9.476923076923076117e-01 -5.515394239142014099e-01 8.333152155663325900e-01 -3.728290521734888008e-02
1.033846153846153859e+00 -4.440914821844941240e-01 8.958663634769973294e-01 1.436015118983680929e-02
1.119999999999999885e+00 -3.216251498564202116e-01 9.460796441951727642e-01 3.860789366630699992e-02
1.206153846153846132e+00 -1.906155470157145093e-01 9.810748310894639168e-01 3.402776646780268643e-02
1.292307692307692157e+00 -5.794586707754381671e-02 9.983194212032253656e-01 7.807196497315739125e-04
1.378461538461538405e+00 6.942153334044921797e-02 9.958180204887153719e-01 -5.938956607805730842e-02
1.464615384615384652e+00 1.847980816255889724e-01 9.722824070519496820e-01 -1.432361333465531905e-01
1.550769230769230678e+00 2.820825019026296787e-01 9.272676733841624941e-01 -2.461790479616439431e-01
1.636923076923076925e+00 3.560587764276428868e-01 8.612752474733850194e-01 -3.625287514855324300e-01
1.723076923076922951e+00 4.026586199413921818e-01 7.757928840388850222e-01 -4.858100830675491921e-01
1.809230769230769198e+00 4.191473917701534768e-01 6.733020608159990816e-01 -6.090811101168779329e-01
1.895384615384615223e+00 4.042622544888325176e-01 5.572130288959702415e-01 -7.253176337992637279e-01
1.981538461538461471e+00 3.582763886208392701e-01 4.317500716255948667e-01 -8.277861469954103102e-01
2.067692307692307718e+00 2.829789192052640789e-01 3.017884558309580911e-01 -9.104101598698242093e-01
2.153846153846153744e+00 1.815929331186980356e-01 1.726490655994599999e-01 -9.680993269820971081e-01
2.239999999999999769e+00 5.861650877047460545e-02 4.985081000176073973e-02 -9.970351055358023240e-01
2.326153846153846239e+00 -8.039652867780053280e-02 -6.114772786080433647e-02 -9.948855984577189560e-01
2.412307692307692264e+00 -2.291044633649731710e-01 -1.552277476377626475e-01 -9.609451030594002852e-01
2.498461538461538289e+00 -3.806834854675518187e-01 -2.278702128163326845e-01 -8.961892936069186799e-01
2.584615384615384315e+00 -5.281643397096565939e-01 -2.754054412782789285e-01 -8.032398604681674215e-01
2.670769230769230784e+00 -6.647669316487587743e-01 -2.952279889483055975e-01 -6.862400172535039200e-01
2.756923076923076810e+00 -7.842206140959262495e-01 -2.859576209682306303e-01 -5.506598477655114676e-01
2.843076923076922835e+00 -8.810791820528094398e-01 -2.475527414448536190e-01 -4.030100685067481425e-01
2.929230769230769305e+00 -9.509736916205169255e-01 -1.813491985432572617e-01 -2.505224663538780927e-01
3.015384615384615330e+00 -9.908271905920942313e-01 -9.004249451219988043e-02 -1.007662048852712711e-01
3.101538461538461355e+00 -9.989982062487425818e-01 2.240745585236816884e-02 3.873615695078874016e-02
3.187692307692307381e+00 -9.753598235580479558e-01 1.509389673072306648e-01 1.609056903067543343e-01
3.273846153846153850e+00 -9.213012338383756994e-01 2.896081134085126685e-01 2.594825189039174917e-01
3.359999999999999876e+00 -8.396606403884536718e-01 4.318518605182549153e-01 3.293538825106132051e-01
