0.000000000000000000e+00 -2.624265865260909476e-09 -1.199071635133131432e-09 -1.000000000000000000e+00
8.615384615384615030e-02 2.376063586522883520e-02 1.080404989924799511e-02 -9.996590775343994206e-01
1.723076923076923006e-01 4.718269850823571948e-02 2.223056348456640616e-02 -9.986384621361117375e-01
2.584615384615384648e-01 6.990693541934510369e-02 3.483559896705210046e-02 -9.969444851770998817e-01
3.446153846153846012e-01 9.153054021104242710e-02 4.915760732427375268e-02 -9.945874111595418565e-01
4.307692307692307376e-01 1.115866710044887689e-01 6.567140184672330683e-02 -9.915814316365851866e-01
5.169230769230769296e-01 1.295389959223155196e-01 8.476486127710838869e-02 -9.879434375224327436e-01
6.030769230769230660e-01 1.447643029747569532e-01 1.067092221912566419e-01 -9.836939126442816317e-01
6.892307692307692024e-01 1.565635171458939490e-01 1.316334874756326934e-01 -9.788551410415766707e-01
7.753846153846153388e-01 1.641648098780666420e-01 1.594902677267040492e-01 -9.734522440056603276e-01
8.615384615384614753e-01 1.667487136112077162e-01 1.900354090613607383e-01 -9.675109899977145655e-01
9.476923076923076117e-01 1.634792208379929335e-01 2.227865134309063300e-01 -9.610600541987881495e-01
1.033846153846153859e+00 1.535419804135473576e-01 2.570233317036861864e-01 -9.541274440109092092e-01
1.119999999999999885e+00 1.362082057362745680e-01 2.917487548846504630e-01 -9.467443758557030353e-01
1.206153846153846132e+00 1.108882887891775026e-01 3.257096792960775256e-01 -9.389417006501897811e-01
1.292307692307692157e+00 7.720457640482523975e-02 3.574027615961992144e-01 -9.307506863492467364e-01
1.378461538461538405e+00 3.507248930291305411e-02 3.851016692903359018e-01 -9.222040767966431796e-01
1.464615384615384652e+00 -1.524193339830551275e-02 4.069167335248955464e-01 -9.133344370322912242e-01
1.550769230769230678e+00 -7.304038105917196044e-02 4.208636361670547998e-01 -9.041746942566627476e-01
1.636923076923076925e+00 -1.371490113220779072e-01 4.249691578084190957e-01 -8.947535686236656183e-01
1.723076923076922951e+00 -2.058829935863331628e-01 4.173677878062005964e-01 -8.851037033705200230e-01
1.809230769230769198e+00 -2.770452404016872650e-01 3.964505072359639781e-01 -8.752512671470230599e-01
1.895384615384615223e+00 -3.479345699614752041e-01 3.609981093945036079e-01 -8.652244959769401778e-01
1.981538461538461471e+00 -4.154363428058691077e-01 3.103265433225199654e-01 -8.550445642746110630e-01
2.067692307692307718e+00 -4.761007244758498347e-01 2.444200975485130989e-01 -8.447352713791496104e-01
2.153846153846153744e+00 -5.263023159141038132e-01 1.640561598432725421e-01 -8.343152082254701174e-01
2.239999999999999769e+00 -5.624184795147598726e-01 7.087831439509462150e-02 -8.238032683285549940e-01
2.326153846153846239e+00 -5.810450192347443865e-01 -3.254616926955763989e-02 -8.132141114840417684e-01
2.412307692307692264e+00 -5.792331890578001907e-01 -1.427394192775585102e-01 -8.025607777246573926e-01
2.498461538461538289e+00 -5.547277286585204914e-01 -2.553865298380981752e-01 -7.918610852333829442e-01
2.584615384615384315e+00 -5.062138932415257697e-01 -3.654757946658157008e-01 -7.811297847954046247e-01
2.670769230769230784e+00 -4.335297420270936564e-01 -4.674969555794444287e-01 -7.703811282745386402e-01
2.756923076923076810e+00 -3.378352331932106267e-01 -5.557125921748191644e-01 -7.596308854579882919e-01
2.843076923076922835e+00 -2.217008712023234296e-01 -6.244920981820416550e-01 -7.488966921385276088e-01
2.929230769230769305e+00 -8.915466132291338663e-02 -6.686609980067181880e-01 -7.381947924341404343e-01
3.015384615384615330e+00 5.440936988512801165e-02 -6.838962599784904617e-01 -7.275389155310639788e-01
3.101538461538461355e+00 2.024099759273191301e-01 -6.670860026870277792e-01 -7.169473779932843405e-01
3.187692307692307381e+00 3.473440224214844885e-01 -6.166846916281777391e-01 -7.064268857081198449e-01
3.273846153846153850e+00 4.811715395251217053e-01 -5.329679283256866240e-01 -6.959926226052617348e-01
3.359999999999999876e+00 5.957824736124766041e-01 -4.182281206676600194e-01 -6.856492003713959837e-01
