0.000000000000000000e+00 -1.868261813829120299e-09 2.380962300007701388e-09 -1.000000000000000000e+00
8.615384615384615030e-02 1.296748191197654165e-01 -5.068851416748278854e-02 -9.902589172831904873e-01
1.723076923076923006e-01 2.547501042564482288e-01 -1.022387960777835919e-01 -9.615845016770350195e-01
2.584615384615384648e-01 3.708405794321344429e-01 -1.554461054980501578e-01 -9.155906798169398675e-01
3.446153846153846012e-01 4.740636091491117754e-01 -2.108839141673083950e-01 -8.548576032681686199e-01
4.307692307692307376e-01 5.612299692347713087e-01 -2.688346562254142480e-01 -7.827746315070069905e-01
5.169230769230769296e-01 6.300044336470389528e-01 -3.292336621910093575e-01 -7.033381195225558713e-01
6.030769230769230660e-01 6.790345015242231774e-01 -3.916309587313394625e-01 -6.209027006707271701e-01
6.892307692307692024e-01 7.080023670454902440e-01 -4.551881464503263475e-01 -5.399236182309030685e-01
7.753846153846153388e-01 7.176332028063756585e-01 -5.187020518856246820e-01 -4.646832723193564108e-01
8.615384615384614753e-01 7.096348822293219172e-01 -5.806619575828889657e-01 -3.990348484761214731e-01
9.476923076923076117e-01 6.865889276459935520e-01 -6.393288754797241680e-01 -3.461680828663805110e-01
1.033846153846153859e+00 6.517862966720480156e-01 -6.928419888308151586e-01 -3.084190156447589315e-01
1.119999999999999885e+00 6.090265685773190718e-01 -7.393370768174014618e-01 -2.871320160100829799e-01
1.206153846153846132e+00 5.623926609778194807e-01 -7.770710760867755029e-01 -2.825817745330032049e-01
1.292307692307692157e+00 5.160084134784527210e-01 -8.045489976645048280e-01 -2.939621719797582133e-01
1.378461538461538405e+00 4.737963724819636013e-01 -8.206413560844688648e-01 -3.194410074069476968e-01
1.464615384615384652e+00 4.392523621565695424e-01 -8.246825286339566352e-01 -3.562784206332959003e-01
1.550769230769230678e+00 4.152461456293312647e-01 -8.165445630260739218e-01 -4.010042677820089829e-01
1.636923076923076925e+00 4.038683692672809245e-01 -7.966811464135357124e-01 -4.496320922793515251e-01
1.723076923076922951e+00 4.063103172142341624e-01 -7.661382253472187598e-01 -4.979201511059123120e-01
1.809230769230769198e+00 4.228154620605121816e-01 -7.265271908203561058e-01 -5.416331464499961612e-01
1.895384615384615223e+00 4.526803319924064262e-01 -6.799614736922077185e-01 -5.768143253940533066e-01
1.981538461538461471e+00 4.943114525867579045e-01 -6.289635038497838337e-01 -6.000362111264703202e-01
2.067692307692307718e+00 5.453385080232013848e-01 -5.763372438950600252e-01 -6.086245466125830283e-01
2.153846153846153744e+00 6.027720593829085649e-01 -5.250259222183613073e-01 -6.008294261022988358e-01
2.239999999999999769e+00 6.631964720798074753e-01 -4.779531059521094916e-01 -5.759454026677340854e-01
2.326153846153846239e+00 7.229933377444770493e-01 -4.378566717650560491e-01 -5.343624015257877335e-01
2.412307692307692264e+00 7.785617048759284620e-01 -4.071363856755452204e-01 -4.775579776578791069e-01
2.498461538461538289e+00 8.265537646763885249e-01 -3.877057521605934975e-01 -4.080098499078746443e-01
2.584615384615384315e+00 8.640779003968892535e-01 -3.808805626220137519e-01 -3.290551529346299464e-01
2.670769230769230784e+00 8.888814403871692083e-01 -3.872887334505378809e-01 -2.446922854051239160e-01
2.756923076923076810e+00 8.994915920783039809e-01 -4.068196526563127025e-01 -1.593397522154984536e-01
2.843076923076922835e+00 8.953045129947290182e-01 -4.386216695759231343e-01 -7.756967071980697126e-02
2.929230769230769305e+00 8.766238657708324000e-01 -4.811361952714772738e-01 -3.828054918635272023e-03
3.015384615384615330e+00 8.446441225973347899e-01 -5.321715897029219988e-01 5.784336067186113262e-02
3.101538461538461355e+00 8.013762429506694485e-01 -5.890207822092154988e-01 1.040524198953464013e-01
3.187692307692307381e+00 7.495235072180582714e-01 -6.486084291855152006e-01 1.322800020863261206e-01
3.273846153846153850e+00 6.923179108836581275e-01 -7.076595769261471158e-01 1.410328071475696610e-01
3.359999999999999876e+00 6.333235511849538701e-01 -7.628824991798354160e-01 1.299536133384665004e-01
