0.000000000000000000e+00 -5.999208464619336542e-10 2.585625770168543292e-09 -1.000000000000000000e+00
8.615384615384615030e-02 -1.627646768924067011e-01 -4.371193069279989685e-02 -9.856955374859961427e-01
1.723076923076923006e-01 -3.181050998088992832e-01 -9.297694787518553938e-02 -9.434838978660156084e-01
2.584615384615384648e-01 -4.586700930168419732e-01 -1.525449213160239292e-01 -8.754129323915157412e-01
3.446153846153846012e-01 -5.773173565411603425e-01 -2.256956167260421031e-01 -7.847042274108551041e-01
4.307692307692307376e-01 -6.673227713980840470e-01 -3.136448845579825062e-01 -6.755001136720161226e-01
5.169230769230769296e-01 -7.227389792358388521e-01 -4.151538265930123095e-01 -5.525284351541435157e-01
6.030769230769230660e-01 -7.388267120456266657e-01 -5.263843108065080489e-01 -4.207679454586441548e-01
6.892307692307692024e-01 -7.126035156153217587e-01 -6.410256374655443068e-01 -2.850836304512124886e-01
7.753846153846153388e-01 -6.433686985345801190e-01 -7.507209991922872971e-01 -1.499486803632128773e-01
8.615384615384614753e-01 -5.331911181211568262e-01 -8.457711675680303909e-01 -1.918629400141532923e-02
9.476923076923076117e-01 -3.872176767307240475e-01 -9.160779957266860229e-01 1.041796152688138077e-01
1.033846153846153859e+00 -2.137310144939687517e-01 -9.522567253007497845e-01 2.179822476681433085e-01
1.119999999999999885e+00 -2.388376266302516537e-02 -9.468030433353271658e-01 3.209112330606646579e-01
1.206153846153846132e+00 1.689162729274409913e-01 -8.951867214116563387e-01 4.124306313822831416e-01
1.292307692307692157e+00 3.500063572843162829e-01 -7.967462231363269254e-01 4.926281656248792107e-01
1.378461538461538405e+00 5.047210478471939599e-01 -6.552093130023504131e-01 5.620938708488928404e-01
1.464615384615384652e+00 6.198440702812663128e-01 -4.787819840311173802e-01 6.217344835225359079e-01
1.550769230769230678e+00 6.850739809337953456e-01 -2.797138900576033871e-01 6.726269033894703986e-01
1.636923076923076925e+00 6.943342540675282448e-01 -7.330229489399375797e-02 7.159052934911818156e-01
1.723076923076922951e+00 6.467132840983215170e-01 1.235131647856686776e-01 7.526623158788211532e-01
1.809230769230769198e+00 5.469076143664006739e-01 2.939349280533960496e-01 7.838934073396082169e-01
1.895384615384615223e+00 4.050238752317869562e-01 4.231869601306639250e-01 8.104711156901978075e-01
1.981538461538461471e+00 2.357299372078880961e-01 5.003140242386933112e-01 8.331341725416335775e-01
2.067692307692307718e+00 5.677868904539765116e-02 5.196242914646168609e-01 8.525036167640602791e-01
2.153846153846153744e+00 -1.129283769469331677e-01 4.815814981402940509e-01 8.690928279949816648e-01
2.239999999999999769e+00 -2.555534447974537327e-01 3.929456834754800343e-01 8.833358763631251609e-01
2.326153846153846239e+00 -3.564670247963625527e-01 2.661473392085570433e-01 8.955965970126857911e-01
2.412307692307692264e+00 -4.061117485899200519e-01 1.178798415603193317e-01 9.061866303951321422e-01
2.498461538461538289e+00 -4.012592909607277658e-01 -3.291499824063787161e-02 9.153711761462304253e-01
2.584615384615384315e+00 -3.454697978986858709e-01 -1.674198970739464165e-01 9.233732488120764970e-01
2.670769230769230784e+00 -2.486442659855449822e-01 -2.693714208338190419e-01 9.303828249342381840e-01
2.756923076923076810e+00 -1.257314422512701146e-01 -3.271994707236625666e-01 9.365518547983067155e-01
2.843076923076922835e+00 5.321595686918229040e-03 -3.355511646618674071e-01 9.420055774450235564e-01
2.929230769230769305e+00 1.260406467615498571e-01 -2.959761687945173247e-01 9.468417936432206305e-01
3.015384615384615330e+00 2.200075756407692262e-01 -2.166322365754636825e-01 9.511386683210634185e-01
3.101538461538461355e+00 2.751624551406689489e-01 -1.110258435353519979e-01 9.549641981959362536e-01
3.187692307692307381e+00 2.854859737773846051e-01 4.006069600221789928e-03 9.583733843181877488e-01
3.273846153846153850e+00 2.517697393882228907e-01 1.108463950947830845e-01 9.614171822479565810e-01
3.359999999999999876e+00 1.813717821012065246e-01 1.937302225573800940e-01 9.641425665977558790e-01
