0.000000000000000000e+00 -1.941913150706210554e-09 -2.317244854552967991e-09 -1.000000000000000000e+00
8.615384615384615030e-02 -1.337936081674806488e-02 -3.779404863668034409e-02 -9.991956161877031395e-01
1.723076923076923006e-01 -2.663533026937224546e-02 -7.492564467325718569e-02 -9.968326524877541006e-01
2.584615384615384648e-01 -3.966654246241263504e-02 -1.107275769940994636e-01 -9.930578882561147402e-01
3.446153846153846012e-01 -5.232159028670010925e-02 -1.446105083561358418e-01 -9.881030509318282640e-01
4.307692307692307376e-01 -6.440492511738105108e-02 -1.760721713890747164e-01 -9.822664586883431692e-01
5.169230769230769296e-01 -7.566937499834687497e-02 -2.047171966059871673e-01 -9.758899851088093103e-01
6.030769230769230660e-01 -8.581832784623402710e-02 -2.302768107537702669e-01 -9.693314948920153107e-01
6.892307692307692024e-01 -9.451152134374356251e-02 -2.526217516006939445e-01 -9.629356740486535449e-01
7.753846153846153388e-01 -1.013767357209559156e-01 -2.717637399872882553e-01 -9.570068573888862451e-01
8.615384615384614753e-01 -1.060302344580608680e-01 -2.878584824774229056e-01 -9.517823569947682083e-01
9.476923076923076117e-01 -1.080987542437611415e-01 -3.011932746245419290e-01 -9.474130987654402203e-01
1.033846153846153859e+00 -1.072497362059768866e-01 -3.121738620191710223e-01 -9.439486644745778143e-01
1.119999999999999885e+00 -1.032153859695615350e-01 -3.213076480983330097e-01 -9.413298765138962132e-01
1.206153846153846132e+00 -9.582753617937517232e-02 -3.291710833890927890e-01 -9.393919996790168758e-01
1.292307692307692157e+00 -8.503448487956968838e-02 -3.363860193117403363e-01 -9.378738434721589634e-01
1.378461538461538405e+00 -7.092680398902190264e-02 -3.435854982105518984e-01 -9.364358384009692227e-01
1.464615384615384652e+00 -5.374671715501116998e-02 -3.513814735076821738e-01 -9.346849416553101308e-01
1.550769230769230678e+00 -3.389324014774083849e-02 -3.603319051918753568e-01 -9.322047106161228669e-01
1.636923076923076925e+00 -1.191400274661104375e-02 -3.709102369170784175e-01 -9.285886698114570459e-01
1.723076923076922951e+00 1.150829892945436084e-02 -3.834799440391042369e-01 -9.234737093397493712e-01
1.809230769230769198e+00 3.558281210298330777e-02 -3.982736048210359647e-01 -9.165722313980126934e-01
1.895384615384615223e+00 5.944460977244780953e-02 -4.153750534672597805e-01 -9.077015650660095192e-01
1.981538461538461471e+00 8.220040391678062885e-02 -4.347088905283649218e-01 -8.968071145026542679e-01
2.067692307692307718e+00 1.029689058767133680e-01 -4.560498841275558157e-01 -8.839723252346430860e-01
2.153846153846153744e+00 1.209352287526311853e-01 -4.790198978613010028e-01 -8.694280662144425742e-01
2.239999999999999769e+00 1.353988015890952856e-01 -5.031084126817924052e-01 -8.535449681917132159e-01
2.326153846153846239e+00 1.458196235556851739e-01 -5.276932435239710673e-01 -8.368188378410345019e-01
2.412307692307692264e+00 1.518501178499846171e-01 -5.520749215870909277e-01 -8.198435811686659580e-01
2.498461538461538289e+00 1.533759233471198580e-01 -5.755042603624835884e-01 -8.032800098528651844e-01
2.584615384615384315e+00 1.505196011116193000e-01 -5.972240325294420060e-01 -7.878165346785666046e-01
2.670769230769230784e+00 1.436593186116604803e-01 -6.165097314045578925e-01 -7.741220175043472818e-01
2.756923076923076810e+00 1.334027890529462246e-01 -6.327052293724129139e-01 -7.628070427179375335e-01
2.843076923076922835e+00 1.205771749423418804e-01 -6.452644179913125111e-01 -7.543749158809668343e-01
2.929230769230769305e+00 1.061843848276111668e-01 -6.537806770266275658e-01 -7.491876167220746785e-01
3.015384615384615330e+00 9.135024584193318642e-02 -6.580166806810334723e-01 -7.474326129528722218e-01
3.101538461538461355e+00 7.726925035360776572e-02 -6.579215705977266015e-01 -7.491028294523710551e-01
3.187692307692307381e+00 6.513726992951385242e-02 -6.536411727087920731e-01 -7.539873213899586091e-01
3.273846153846153850e+00 5.608570370734022870e-02 -6.455187863067969323e-01 -7.616735860741157271e-01
3.359999999999999876e+00 5.111296805791581965e-02 -6.340839632412342830e-01 -7.715646828858180317e-01
