0.000000000000000000e+00 6.388389705591656164e-10 -2.441963368294468587e-09 -1.000000000000000000e+00
8.615384615384615030e-02 5.174627076766549066e-03 -1.407027705681957678e-03 -9.999855993196308246e-01
1.723076923076923006e-01 1.035552995732244227e-02 -2.805916688341873830e-03 -9.999424017131861575e-01
2.584615384615384648e-01 1.553687619749865093e-02 -4.204214734414049928e-03 -9.998703966627038309e-01
3.446153846153846012e-01 2.071607737649597270e-02 -5.601138431375355872e-03 -9.997696314485632341e-01
4.307692307692307376e-01 2.589521704723656004e-02 -6.999211198321888400e-03 -9.996400643831176991e-01
5.169230769230769296e-01 3.107401353575129158e-02 -8.396337341394003589e-03 -9.994817067402254063e-01
6.030769230769230660e-01 3.625119669485117602e-02 -9.791855421808296975e-03 -9.992946066156658258e-01
6.892307692307692024e-01 4.142746345158283133e-02 -1.118854126615612815e-02 -9.990787197256310037e-01
7.753846153846153388e-01 4.660170699104636272e-02 -1.258155995680747610e-02 -9.988341493724098852e-01
8.615384615384614753e-01 5.177463981020122286e-02 -1.397389652925396658e-02 -9.985608423564090730e-01
9.476923076923076117e-01 5.694611974423194334e-02 -1.536475928141287084e-02 -9.982588186340111136e-01
1.033846153846153859e+00 6.211558855665424289e-02 -1.675361489347241412e-02 -9.979281244691943220e-01
1.119999999999999885e+00 6.728171875520848333e-02 -1.814196957775970551e-02 -9.975688333020684695e-01
1.206153846153846132e+00 7.244895425238122300e-02 -1.952703715511062282e-02 -9.971806997550173302e-01
1.292307692307692157e+00 7.761064794311715864e-02 -2.091184886189205450e-02 -9.967641405813696398e-01
1.378461538461538405e+00 8.277052176328743294e-02 -2.229255053301995235e-02 -9.963189846252679116e-01
1.464615384615384652e+00 8.792834076614138017e-02 -2.367263085040729673e-02 -9.958451765543735457e-01
1.550769230769230678e+00 9.308270175024598025e-02 -2.504830402457675076e-02 -9.953429365984612920e-01
1.636923076923076925e+00 9.823287625111526422e-02 -2.642275945895206785e-02 -9.948122809027490909e-01
1.723076923076922951e+00 1.033815981648064652e-01 -2.779497497037304587e-02 -9.942529783120993558e-01
1.809230769230769198e+00 1.085252804470218102e-01 -2.916327134699696344e-02 -9.936654534734664646e-01
1.895384615384615223e+00 1.136661191488421430e-01 -3.052742419236390004e-02 -9.930495063394686461e-01
1.981538461538461471e+00 1.188037472974837055e-01 -3.188933348223503550e-02 -9.924051280078907133e-01
2.067692307692307718e+00 1.239377329712473830e-01 -3.324670873961933781e-02 -9.917324530888447232e-01
2.153846153846153744e+00 1.290657243995881331e-01 -3.460167748534288823e-02 -9.910317311146846775e-01
2.239999999999999769e+00 1.341913688153856810e-01 -3.595402235309720640e-02 -9.903025190423164759e-01
2.326153846153846239e+00 1.393101523345632864e-01 -3.730125509334572542e-02 -9.895455307640116382e-01
2.412307692307692264e+00 1.444256467654385923e-01 -3.864343233826633695e-02 -9.887603058455790572e-01
2.498461538461538289e+00 1.495376764811952863e-01 -3.998077218116363740e-02 -9.879468664099648745e-01
2.584615384615384315e+00 1.546438601566247906e-01 -4.131295247407622273e-02 -9.871056029180316216e-01
2.670769230769230784e+00 1.597441643935918199e-01 -4.264375055647950941e-02 -9.862363974916916742e-01
2.756923076923076810e+00 1.648401684683157009e-01 -4.396890498516444618e-02 -9.853391992223059503e-01
2.843076923076922835e+00 1.699294402039955298e-01 -4.528498637666911186e-02 -9.844145992873932771e-01
2.929230769230769305e+00 1.750158747402526804e-01 -4.659880284054504496e-02 -9.834616447630563085e-01
3.015384615384615330e+00 1.800922536381668604e-01 -4.790454955971640977e-02 -9.824819136319525859e-01
3.101538461538461355e+00 1.851647912084195546e-01 -4.920622326005125863e-02 -9.814741402544595594e-01
3.187692307692307381e+00 1.902327285739278395e-01 -5.050214415216228853e-02 -9.804385478995552017e-01
3.273846153846153850e+00 1.952902037334540430e-01 -5.179210805246331484e-02 -9.793763229553226202e-01
3.359999999999999876e+00 2.003464716796864720e-01 -5.307362904404086534e-02 -9.782858032891260658e-01
