0.000000000000000000e+00 2.334954459888687237e-09 7.376113918569945101e-10 -1.000000000000000000e+00
8.615384615384615030e-02 -2.106364818201286737e-01 -7.600944602168051289e-02 -9.746038987332964476e-01
1.723076923076923006e-01 -4.081052117828278258e-01 -1.526276804973802914e-01 -9.000836323912578818e-01
2.584615384615384648e-01 -5.802712516454133773e-01 -2.299412838443101736e-01 -7.812844950732930061e-01
3.446153846153846012e-01 -7.169770681027261006e-01 -3.071428866279774517e-01 -6.257779245525488809e-01
4.307692307692307376e-01 -8.108332721064772652e-01 -3.823003470675832571e-01 -4.431533174550431053e-01
5.169230769230769296e-01 -8.577736013450211194e-01 -4.523285292235568189e-01 -2.441538114519843650e-01
6.030769230769230660e-01 -8.573330301574617618e-01 -5.132125091421742002e-01 -3.975204795086288712e-02
6.892307692307692024e-01 -8.126269697813187642e-01 -5.604448279294100832e-01 1.597699551135519647e-01
7.753846153846153388e-01 -7.300101642790424172e-01 -5.896137034011137423e-01 3.455852009847400486e-01
8.615384615384614753e-01 -6.184659962822809387e-01 -5.970584625524550937e-01 5.108920041474872553e-01
9.476923076923076117e-01 -4.887532692034333714e-01 -5.805025111531361137e-01 6.512513247253638449e-01
1.033846153846153859e+00 -3.524071366483328971e-01 -5.395431415019462662e-01 7.646537049882010662e-01
1.119999999999999885e+00 -2.206763291583240527e-01 -4.759351876275328408e-01 8.513413989162638140e-01
1.206153846153846132e+00 -1.034979825717300822e-01 -3.936101268775428208e-01 9.134304551598588784e-01
1.292307692307692157e+00 -8.635850016334351009e-03 -2.983846643841370216e-01 9.544051418042185375e-01
1.378461538461538405e+00 5.895772571801741191e-02 -1.974221603543908354e-01 9.785430883181490680e-01
1.464615384615384652e+00 9.747278552194038603e-02 -9.849508668332189465e-02 9.903517075439831618e-01
1.550769230769230678e+00 1.082239946647246404e-01 -9.108315652064121956e-03 9.940843074053192785e-01
1.636923076923076925e+00 9.528373028166778336e-02 6.431941188853640412e-02 9.933695045873330853e-01
1.723076923076922951e+00 6.486585150345947071e-02 1.171869914467359719e-01 9.909886005451120639e-01
1.809230769230769198e+00 2.444623457779854930e-02 1.472177834942617058e-01 9.888012641485602883e-01
1.895384615384615223e+00 -1.819700030331569685e-02 1.546681536509789401e-01 9.877981600704199838e-01
1.981538461538461471e+00 -5.593993806992786366e-02 1.422197817127127673e-01 9.882524263828642574e-01
2.067692307692307718e+00 -8.315070081301102756e-02 1.145496928128988401e-01 9.899308240606183862e-01
2.153846153846153744e+00 -9.628335603925962383e-02 7.766504933341600303e-02 9.923187618420451495e-01
2.239999999999999769e+00 -9.417857616312624858e-02 3.807795797609758726e-02 9.948263832772862303e-01
2.326153846153846239e+00 -7.802652597044978933e-02 1.933097718591507419e-03 9.969490465137963442e-01
2.412307692307692264e+00 -5.102437529188090515e-02 -2.577346281442171802e-02 9.983645143197146243e-01
2.498461538461538289e+00 -1.776599517784954035e-02 -4.179326717084794196e-02 9.989680964105293048e-01
2.584615384615384315e+00 1.652629864455250688e-02 -4.494190305043343353e-02 9.988526671055638628e-01
2.670769230769230784e+00 4.681368555286560817e-02 -3.611776831361832030e-02 9.982501838704656016e-01
2.756923076923076810e+00 6.897587100411646521e-02 -1.802577965948488903e-02 9.974551306381047588e-01
2.843076923076922835e+00 8.040169299711349971e-02 5.352266149690414199e-03 9.967477988890631746e-01
2.929230769230769305e+00 8.029122183282694225e-02 2.946609771443173958e-02 9.963354250949424396e-01
3.015384615384615330e+00 6.968700068910717305e-02 4.993593221311921210e-02 9.963178879408352007e-01
3.101538461538461355e+00 5.120011149570100062e-02 6.324994960944652078e-02 9.966831186471523107e-01
3.187692307692307381e+00 2.853133422067514330e-02 6.725719049682614414e-02 9.973273058154623616e-01
3.273846153846153850e+00 5.807879983583633110e-03 6.147728335847885139e-02 9.980912950778108028e-01
3.359999999999999876e+00 -1.308412754663740643e-02 4.707225928929498898e-02 9.988055580304224801e-01
