0.000000000000000000e+00 2.213575173545627300e-09 1.528668789398259236e-09 -1.000000000000000000e+00
8.615384615384615030e-02 2.052409145801775345e-02 -1.608643843546764263e-02 -9.996596553385661554e-01
1.723076923076923006e-01 4.099406971018325352e-02 -3.195467398338465437e-02 -9.986477506275786009e-01
2.584615384615384648e-01 6.130894866349624606e-02 -4.742329094579249976e-02 -9.969908271225569329e-01
3.446153846153846012e-01 8.140924107540897792e-02 -6.230966309282054416e-02 -9.947301312619720726e-01
4.307692307692307376e-01 1.012519431949274601e-01 -7.644454933651680106e-02 -9.919182434411308869e-01
5.169230769230769296e-01 1.208171300721116448e-01 -8.968499407767793752e-02 -9.886136200300916776e-01
6.030769230769230660e-01 1.401044968177422301e-01 -1.019140471008636861e-01 -9.848760694592687548e-01
6.892307692307692024e-01 1.591401903370989190e-01 -1.130472322763349524e-01 -9.807603649881145857e-01
7.753846153846153388e-01 1.779616853079530325e-01 -1.230332900548661568e-01 -9.763135676353453807e-01
8.615384615384614753e-01 1.966240603940590248e-01 -1.318582519826803079e-01 -9.715697023066116600e-01
9.476923076923076117e-01 2.151863441001179156e-01 -1.395440809070047361e-01 -9.665491041154143925e-01
1.033846153846153859e+00 2.337051420461283557e-01 -1.461492938406150355e-01 -9.612579033963134512e-01
1.119999999999999885e+00 2.522244273523120972e-01 -1.517628207670813079e-01 -9.556908156577100799e-01
1.206153846153846132e+00 2.707772358523461431e-01 -1.565027414174616216e-01 -9.498316782515808798e-01
1.292307692307692157e+00 2.893654476955896948e-01 -1.605068692546312570e-01 -9.436622292605134632e-01
1.378461538461538405e+00 3.079681275077242875e-01 -1.639251137423459181e-01 -9.371643348382171501e-01
1.464615384615384652e+00 3.265307184662299411e-01 -1.669151744886735733e-01 -9.303275726597097783e-01
1.550769230769230678e+00 3.449729080375407708e-01 -1.696243227248501739e-01 -9.231539604326985948e-01
1.636923076923076925e+00 3.631871788904060261e-01 -1.721862888471978326e-01 -9.156628635502450653e-01
1.723076923076922951e+00 3.810439245652173512e-01 -1.747135926468725564e-01 -9.078941485751448326e-01
1.809230769230769198e+00 3.984071497012665608e-01 -1.772804756908603618e-01 -8.999078000263197596e-01
1.895384615384615223e+00 4.151345185135755789e-01 -1.799290877457468407e-01 -8.917842280409151723e-01
1.981538461538461471e+00 4.310961412306946738e-01 -1.826571929356285984e-01 -8.836188735587201526e-01
2.067692307692307718e+00 4.461783803324677056e-01 -1.854208186765326227e-01 -8.755189473208923046e-01
2.153846153846153744e+00 4.603008487706220508e-01 -1.881377669346449844e-01 -8.675922947316511147e-01
2.239999999999999769e+00 4.734190152041701238e-01 -1.906933126672008261e-01 -8.599414073260690516e-01
2.326153846153846239e+00 4.855297799428731076e-01 -1.929462239877215435e-01 -8.526552573315249184e-01
2.412307692307692264e+00 4.966796297749682121e-01 -1.947425057809978877e-01 -8.457971397408500236e-01
2.498461538461538289e+00 5.069565274883565120e-01 -1.959266478543630341e-01 -8.394019607599531030e-01
2.584615384615384315e+00 5.164899830354766630e-01 -1.963566953895801437e-01 -8.334684856898798566e-01
2.670769230769230784e+00 5.254455567562991147e-01 -1.959173205705864451e-01 -8.279557437433910927e-01
2.756923076923076810e+00 5.340079543347003854e-01 -1.945292659371138655e-01 -8.227885515429947949e-01
2.843076923076922835e+00 5.423736405903958335e-01 -1.921642241662024075e-01 -8.178573693182806803e-01
2.929230769230769305e+00 5.507375261833200586e-01 -1.888468869242144188e-01 -8.130263020230922288e-01
3.015384615384615330e+00 5.592758287451116139e-01 -1.846624794483770482e-01 -8.081440841631983840e-01
3.101538461538461355e+00 5.681362263954724545e-01 -1.797505952934299600e-01 -8.030549775165400916e-01
3.187692307692307381e+00 5.774232446790888984e-01 -1.743057771250297039e-01 -7.976127062116924460e-01
3.273846153846153850e+00 5.871936283287126912e-01 -1.685582721626172620e-01 -7.916929086574346908e-01
3.359999999999999876e+00 5.974461355356878167e-01 -1.627658874840963721e-01 -7.852076461451658052e-01
