0.000000000000000000e+00 -5.510804608134831275e-10 1.929726801477512830e-09 -1.000000000000000000e+00
8.615384615384615030e-02 -5.714705267602226448e-03 -1.511770154589919812e-02 -9.998692806403816080e-01
1.723076923076923006e-01 -1.140416616222897361e-02 -3.024437800923187453e-02 -9.994772698884967221e-01
2.584615384615384648e-01 -1.707124084117153315e-02 -4.536371019305623919e-02 -9.988243649400095903e-01
3.446153846153846012e-01 -2.270743210396668557e-02 -6.047040122967283632e-02 -9.979112816650981266e-01
4.307692307692307376e-01 -2.829817615883196275e-02 -7.556326520299183613e-02 -9.967389058896477527e-01
5.169230769230769296e-01 -3.383431259953250531e-02 -9.063737740735956783e-02 -9.953084763848076832e-01
6.030769230769230660e-01 -3.930718691614469573e-02 -1.056834099084644762e-01 -9.936219782998497729e-01
6.892307692307692024e-01 -4.470533483149220777e-02 -1.206982831663546002e-01 -9.916813227239676953e-01
7.753846153846153388e-01 -5.002011981543368069e-02 -1.356759917841503238e-01 -9.894889159942767964e-01
8.615384615384614753e-01 -5.524386585237291147e-02 -1.506069541463611050e-01 -9.870480103956830176e-01
9.476923076923076117e-01 -6.036513741636359565e-02 -1.654849799736907434e-01 -9.843620757295835633e-01
1.033846153846153859e+00 -6.537928709121618165e-02 -1.803037960321152433e-01 -9.814345738876462111e-01
1.119999999999999885e+00 -7.027892180752566553e-02 -1.950515785342122055e-01 -9.782705634877137957e-01
1.206153846153846132e+00 -7.505565657069102059e-02 -2.097216967628327544e-01 -9.748747640047883412e-01
1.292307692307692157e+00 -7.970463076530040492e-02 -2.243054656348808518e-01 -9.712524811793916690e-01
1.378461538461538405e+00 -8.422188292989049585e-02 -2.387918795450426068e-01 -9.674099800756971179e-01
1.464615384615384652e+00 -8.860105725642303254e-02 -2.531743173719247508e-01 -9.633531944296020999e-01
1.550769230769230678e+00 -9.283968213918614154e-02 -2.674451980209189839e-01 -9.590883283018599714e-01
1.636923076923076925e+00 -9.693543772043003437e-02 -2.815946565679065539e-01 -9.546226131980966034e-01
1.723076923076922951e+00 -1.008881437370505313e-01 -2.956107509052419147e-01 -9.499642260215145351e-01
1.809230769230769198e+00 -1.046932245747982798e-01 -3.094905263328160405e-01 -9.451195201700625104e-01
1.895384615384615223e+00 -1.083518928879589061e-01 -3.232260417191727964e-01 -9.400960378908340687e-01
1.981538461538461471e+00 -1.118638694757687346e-01 -3.368057321915250979e-01 -9.349031724232423901e-01
2.067692307692307718e+00 -1.152302118008033949e-01 -3.502274456866968921e-01 -9.295472576794874264e-01
2.153846153846153744e+00 -1.184532056184532112e-01 -3.634813536034449122e-01 -9.240375084960724683e-01
2.239999999999999769e+00 -1.215315697746165713e-01 -3.765650914113916614e-01 -9.183810677667533229e-01
2.326153846153846239e+00 -1.244699993213420064e-01 -3.894677065032716157e-01 -9.125880249917006637e-01
2.412307692307692264e+00 -1.272692905647154482e-01 -4.021894155636834833e-01 -9.066646499391346481e-01
2.498461538461538289e+00 -1.299326965660420885e-01 -4.147237665247383021e-01 -9.006198326796966969e-01
2.584615384615384315e+00 -1.324617420307063476e-01 -4.270651372365488196e-01 -8.944626619095232822e-01
2.670769230769230784e+00 -1.348648850514707342e-01 -4.392122949235372498e-01 -8.881993190097138280e-01
2.756923076923076810e+00 -1.371400613260214674e-01 -4.511654528707539913e-01 -8.818368064616339819e-01
2.843076923076922835e+00 -1.392896683684147208e-01 -4.629175961724385502e-01 -8.753852386244310724e-01
2.929230769230769305e+00 -1.413213454061611751e-01 -4.744731143353863034e-01 -8.688480778015865713e-01
3.015384615384615330e+00 -1.432378267426815399e-01 -4.858258158006334981e-01 -8.622351510141125219e-01
3.101538461538461355e+00 -1.450442451933652843e-01 -4.969775567527980331e-01 -8.555516046362516835e-01
3.187692307692307381e+00 -1.467444868553169357e-01 -5.079254954515911580e-01 -8.488054167056339194e-01
3.273846153846153850e+00 -1.483424076543640446e-01 -5.186713955761581563e-01 -8.420019156199326504e-01
3.359999999999999876e+00 -1.498423045986690405e-01 -5.292179162175234541e-01 -8.351456256471266881e-01
