0.000000000000000000e+00 8.233510484675891636e-10 -2.471548527561441442e-09 -1.000000000000000000e+00
8.615384615384615030e-02 1.432421557009499191e-01 -1.312833824146795170e-01 -9.809408667315614450e-01
1.723076923076923006e-01 2.805235098227881751e-01 -2.567660487862670760e-01 -9.248647915100415284e-01
2.584615384615384648e-01 4.062674616112703085e-01 -3.711586144456015535e-01 -8.349751787853899598e-01
3.446153846153846012e-01 5.156858856251406165e-01 -4.701017446462052440e-01 -7.162865020654342052e-01
4.307692307692307376e-01 6.050666277800735848e-01 -5.505046112719341744e-01 -5.751796031005315113e-01
5.169230769230769296e-01 6.719921777827873033e-01 -6.107269030142649102e-01 -4.188443020794311300e-01
6.030769230769230660e-01 7.154296318158300805e-01 -6.506005376426182707e-01 -2.546958896472625855e-01
6.892307692307692024e-01 7.357165254686440781e-01 -6.713013770652612733e-01 -8.981024426984703102e-02
7.753846153846153388e-01 7.344398278584957085e-01 -6.750915472618155277e-01 6.956822258863952502e-02
8.615384615384614753e-01 7.142110123443567993e-01 -6.649778287821286327e-01 2.183978392496966903e-01
9.476923076923076117e-01 6.783883316547401066e-01 -6.443259181056035789e-01 3.530218193194523124e-01
1.033846153846153859e+00 6.307434465694877757e-01 -6.165043492575832396e-01 4.712502761488502889e-01
1.119999999999999885e+00 5.751448303065792578e-01 -5.845677312895675160e-01 5.722599915280168759e-01
1.206153846153846132e+00 5.152534964444521748e-01 -5.510438143004844358e-01 6.563976172120972175e-01
1.292307692307692157e+00 4.542774302499527073e-01 -5.178094077045827248e-01 7.249134268782360113e-01
1.378461538461538405e+00 3.948224329230961560e-01 -4.860787072697226874e-01 7.796393176008640236e-01
1.464615384615384652e+00 3.387857460513570285e-01 -4.564726785041201551e-01 8.227103046008081844e-01
1.550769230769230678e+00 2.873654211457467023e-01 -4.291416481221698720e-01 8.563027688536468673e-01
1.636923076923076925e+00 2.411373424501417340e-01 -4.039233795803134353e-01 8.824369555299085288e-01
1.723076923076922951e+00 2.001431633048121883e-01 -3.805068967052940287e-01 9.028587330942784428e-01
1.809230769230769198e+00 1.640749459267742683e-01 -3.585451082833182590e-01 9.189786809024745873e-01
1.895384615384615223e+00 1.324057484809520735e-01 -3.377581176459423795e-01 9.318720126313388974e-01
1.981538461538461471e+00 1.045313068379577770e-01 -3.179743572736005164e-01 9.423179000130561533e-01
2.067692307692307718e+00 7.987547415566347009e-02 -2.991194773277958130e-01 9.508654871780725104e-01
2.153846153846153744e+00 5.796321757284323556e-02 -2.812087795816602953e-01 9.578934180400023868e-01
2.239999999999999769e+00 3.843969932130585077e-02 -2.642896908980073567e-01 9.636759916026315098e-01
2.326153846153846239e+00 2.105380962251994503e-02 -2.483964147370653630e-01 9.684287098572822439e-01
2.412307692307692264e+00 5.649121305660073644e-03 -2.335266170020598719e-01 9.723331419425480515e-01
2.498461538461538289e+00 -7.884563716315906579e-03 -2.196209637715099139e-01 9.755526147490319877e-01
2.584615384615384315e+00 -1.966296056830395267e-02 -2.065669569116818649e-01 9.782341188279952693e-01
2.670769230769230784e+00 -2.981909416083627917e-02 -1.942253401033755267e-01 9.805029037767132305e-01
2.756923076923076810e+00 -3.852367654447252932e-02 -1.824477224636707473e-01 9.824598934312750442e-01
2.843076923076922835e+00 -4.597718058747986281e-02 -1.711221863346884253e-01 9.841758205739699061e-01
2.929230769230769305e+00 -5.239100747733918539e-02 -1.601690682391796461e-01 9.856976546067338640e-01
3.015384615384615330e+00 -5.796808249830567167e-02 -1.495710825647931508e-01 9.870496775750505769e-01
3.101538461538461355e+00 -6.287864224798231372e-02 -1.393550660197372393e-01 9.882435770157445010e-01
3.187692307692307381e+00 -6.723547950052441435e-02 -1.295759882224714610e-01 9.892868280722767471e-01
3.273846153846153850e+00 -7.110226291015317446e-02 -1.202950477603371982e-01 9.901881586442917715e-01
3.359999999999999876e+00 -7.449316227222629871e-02 -1.115606877038814587e-01 9.909611697304421263e-01
