1.000000000000000056e-01 2.675503462482395779e-04 9.209033441591321168e-04 -9.999995401752371782e-01
2.000000000000000111e-01 4.801110447642730969e-04 1.691256788399058200e-03 -9.999984545722314655e-01
2.999999999999999889e-01 5.899147563491508213e-04 2.166097460704544033e-03 -9.999974800081161685e-01
4.000000000000000222e-01 5.662603053666823150e-04 2.209670064036869074e-03 -9.999973983595789040e-01
5.000000000000000000e-01 4.008462664390564228e-04 1.699726972945136711e-03 -9.999984751261389304e-01
5.999999999999999778e-01 1.134508867884336664e-04 5.368687253290205024e-04 -9.999998494517166048e-01
6.999999999999999556e-01 -2.475666821797993652e-04 -1.351639926704652000e-03 -9.999990558827389631e-01
7.999999999999999334e-01 -6.050678871908458933e-04 -4.005750539380821020e-03 -9.999917938832016961e-01
8.999999999999999112e-01 -8.553720381064776855e-04 -7.423660399118348942e-03 -9.999720784173637966e-01
9.999999999999998890e-01 -8.777844165715111696e-04 -1.156022243835126695e-02 -9.999327930912076390e-01
1.099999999999999867e+00 -5.415975741756388906e-04 -1.632249792729714016e-02 -9.998666324482778922e-01
1.199999999999999956e+00 2.785129793486038063e-04 -2.156160193740749853e-02 -9.997674828391405200e-01
1.300000000000000044e+00 1.695377599629342355e-03 -2.708628263286410459e-02 -9.996316616138132272e-01
1.399999999999999911e+00 3.786585523035863182e-03 -3.265456786313056942e-02 -9.994595244126258660e-01
1.500000000000000000e+00 6.583946464182359459e-03 -3.799572793004540872e-02 -9.992562114184908584e-01
1.599999999999999867e+00 1.006106885513481652e-02 -4.281420188503349405e-02 -9.990323912922218774e-01
1.699999999999999956e+00 1.412499381399990803e-02 -4.681236380997301494e-02 -9.988038280332853791e-01
1.800000000000000044e+00 1.860726738220115292e-02 -4.970520960275724709e-02 -9.985905874941064519e-01
1.899999999999999911e+00 2.326443247569727826e-02 -5.124966807476379060e-02 -9.984148623914448351e-01
2.000000000000000000e+00 2.778707089585000581e-02 -5.126228714972790729e-02 -9.982985806498387849e-01
2.099999999999999645e+00 3.181012282398776314e-02 -4.963971670311888990e-02 -9.982604942429003092e-01
2.199999999999999734e+00 3.493303812889406168e-02 -4.638170806522848300e-02 -9.983127864420091591e-01
2.299999999999999822e+00 3.674527962113739721e-02 -4.160179676507060054e-02 -9.984583489671610135e-01
2.399999999999999911e+00 3.685694290744066792e-02 -3.553013776738717100e-02 -9.986887277967324561e-01
2.500000000000000000e+00 3.493118574014408839e-02 -2.852078162780782508e-02 -9.989826710323469472e-01
2.600000000000000089e+00 3.071872478296724246e-02 -2.102785255082492005e-02 -9.993068543604879395e-01
2.699999999999999734e+00 2.408410090728832498e-02 -1.359411692595804792e-02 -9.996175048385024242e-01
2.799999999999999822e+00 1.504141377256666343e-02 -6.818451005612648046e-03 -9.998636229398397690e-01
2.899999999999999911e+00 3.759838198675324612e-03 -1.310923396067649894e-03 -9.999920725289644929e-01
3.000000000000000000e+00 -9.419566557786775846e-03 2.340778575733083559e-03 -9.999528951757786777e-01
