1.000000000000000056e-01 -2.030906951881154485e-02 -2.912191391754618761e-02 -9.993695291663838853e-01
2.000000000000000111e-01 -4.041015418847045126e-02 -5.650921380672943584e-02 -9.975839454218098368e-01
2.999999999999999889e-01 -6.000054645271479803e-02 -8.052871783588461119e-02 -9.949447522551007062e-01
4.000000000000000222e-01 -7.860381599749059756e-02 -9.974954572296934607e-02 -9.919029529837490866e-01
5.000000000000000000e-01 -9.551525749256822850e-02 -1.130361476472616783e-01 -9.889892136933086109e-01
5.999999999999999778e-01 -1.097883872516117743e-01 -1.196286817085622095e-01 -9.867296937057824513e-01
6.999999999999999556e-01 -1.202631100405173459e-01 -1.192181817454432691e-01 -9.855576134637992203e-01
7.999999999999999334e-01 -1.256379841519492668e-01 -1.119901061172145218e-01 -9.857349101726792240e-01
8.999999999999999112e-01 -1.245779670202450118e-01 -9.865415264778870652e-02 -9.872931116675006669e-01
9.999999999999998890e-01 -1.158597873211901774e-01 -8.042733229439476272e-02 -9.900040170727666400e-01
1.099999999999999867e+00 -9.852471754413416605e-02 -5.900169694482276100e-02 -9.933839538519908530e-01
1.199999999999999956e+00 -7.203275922966224931e-02 -3.645438599629738374e-02 -9.967358523414475702e-01
1.300000000000000044e+00 -3.640289961753515047e-02 -1.512924458823808674e-02 -9.992226652457355529e-01
1.399999999999999911e+00 7.690668318427448802e-03 2.514660509377769724e-03 -9.999672644423055479e-01
1.500000000000000000e+00 5.886679070709376765e-02 1.408828969552082533e-02 -9.981664295629236738e-01
1.599999999999999867e+00 1.150496049368859436e-01 1.747016925047433639e-02 -9.932061123040226702e-01
1.699999999999999956e+00 1.735527325851274616e-01 1.100172001854727438e-02 -9.847631242324254019e-01
1.800000000000000044e+00 2.312188980951312700e-01 -6.324536220767042194e-03 -9.728811957785651332e-01
1.899999999999999911e+00 2.846318206935736228e-01 -3.471839055085468306e-02 -9.580080167823964432e-01
2.000000000000000000e+00 3.303696145829060904e-01 -7.348323741727254277e-02 -9.409867856773709294e-01
2.099999999999999645e+00 3.652719309102875900e-01 -1.209950535231720942e-01 -9.230041242572635252e-01
2.199999999999999734e+00 3.867348032511760403e-01 -1.747246741926256619e-01 -9.054874265791840182e-01
2.299999999999999822e+00 3.929568301609884795e-01 -2.313736840129671513e-01 -8.899725543676397788e-01
2.399999999999999911e+00 3.831581420326654608e-01 -2.870629909399138868e-01 -8.779434362345609477e-01
2.500000000000000000e+00 3.577223537304821122e-01 -3.376009337365616370e-01 -8.706665994318751878e-01
2.600000000000000089e+00 3.182436698037793832e-01 -3.788072901066220632e-01 -8.690374004231736782e-01
2.699999999999999734e+00 2.674911684440487991e-01 -4.068473212243046144e-01 -8.734550544174315423e-01
2.799999999999999822e+00 2.092615362465597151e-01 -4.185885344194024693e-01 -8.837382238384312583e-01
2.899999999999999911e+00 1.481314321499997422e-01 -4.119111690949839311e-01 -8.991030348805840733e-01
3.000000000000000000e+00 8.914566006124056974e-02 -3.859591787512208771e-01 -9.181985422978338196e-01
