1.000000000000000056e-01 -2.384451845609055209e-01 1.725628031962527786e-01 -9.556714948846070090e-01
2.000000000000000111e-01 -4.506584323450006369e-01 3.355421737937000493e-01 -8.271116276317818095e-01
2.999999999999999889e-01 -6.139414972071214338e-01 4.794716519063437210e-01 -6.269168843254934176e-01
4.000000000000000222e-01 -7.096898654719384636e-01 5.965702093702651698e-01 -3.749339348183605147e-01
5.000000000000000000e-01 -7.264458425702402522e-01 6.809259110877649013e-01 -9.611234946557481451e-02
5.999999999999999778e-01 -6.608800843653729329e-01 7.289310286685805051e-01 1.819660006861014701e-01
6.999999999999999556e-01 -5.180960289513071304e-01 7.395309778617943364e-01 4.317702434433494108e-01
7.999999999999999334e-01 -3.111711822992846432e-01 7.142640601469646411e-01 6.285560754710592946e-01
8.999999999999999112e-01 -5.989091146614436423e-02 6.571052315879194472e-01 7.528065077760555113e-01
9.999999999999998890e-01 2.111976887189668528e-01 5.741306774706356197e-01 7.921690660115893179e-01
1.099999999999999867e+00 4.752222731883734008e-01 4.730286793345266361e-01 7.426847702953753849e-01
1.199999999999999956e+00 7.056616803575886943e-01 3.624915445346564291e-01 6.091915892925525711e-01
1.300000000000000044e+00 8.790039402874529895e-01 2.515488237113409631e-01 4.048562915011328922e-01
1.399999999999999911e+00 9.771199722384177333e-01 1.488742901922748274e-01 1.498877852939501099e-01
1.500000000000000000e+00 9.891118621239898268e-01 6.213982255151252743e-02 -1.304414289384809023e-01
1.599999999999999867e+00 9.124584021643610265e-01 -2.543584472622227588e-03 -4.082900149629148379e-01
1.699999999999999956e+00 7.533351401806464009e-01 -4.105344323616214736e-02 -6.559795380183069957e-01
1.800000000000000044e+00 5.260683075914109885e-01 -5.152077420943906860e-02 -8.487386862907363438e-01
1.899999999999999911e+00 2.517964930886372743e-01 -3.441322799804440863e-02 -9.671362572379816891e-01
2.000000000000000000e+00 -4.356660497041875413e-02 7.571627059847410059e-03 -9.990206342098801873e-01
2.099999999999999645e+00 -3.318459644613668269e-01 6.978419563038786022e-02 -9.407278723557056521e-01
2.199999999999999734e+00 -5.853423776468812401e-01 1.460551287840835821e-01 -7.974627630300832326e-01
2.299999999999999822e+00 -7.795552532883373020e-01 2.292345424297802525e-01 -5.828128033544831554e-01
2.399999999999999911e+00 -8.956071871558736186e-01 3.118136394239642284e-01 -3.174161433098862672e-01
2.500000000000000000e+00 -9.221008780745384437e-01 3.865474103758554381e-01 -2.697438087529483233e-02
2.600000000000000089e+00 -8.562881484781998953e-01 4.470541789748560535e-01 2.602870519883216383e-01
2.699999999999999734e+00 -7.043722690660270125e-01 4.883295914526386561e-01 5.163652717930115044e-01
2.799999999999999822e+00 -4.809418302015158186e-01 5.071372988823310557e-01 7.162442168670867249e-01
2.899999999999999911e+00 -2.075835652693317490e-01 5.022442952725404419e-01 8.403457301835670634e-01
3.000000000000000000e+00 8.918636452961661854e-02 4.744863805957578173e-01 8.764625999757933439e-01
